{
  "name": "Ghost_Widow_RV",
  "display_name": "Ghost Widow",
  "display_fullname": "V Arachnos.Ghost Widow",
  "display_help": "Arachnos",
  "display_short_help": "Arachnos",
  "available_level": [
    0,
    0,
    0,
    0,
    0,
    0,
    0,
    0,
    0,
    0,
    0,
    0,
    0,
    0,
    0,
    0
  ],
  "source_file": "DEFS/POWERS/V_ARACHNOS/GHOST_WIDOW_RV.POWERSETS",
  "requires": "",
  "power_names": [
    "V_Arachnos.Ghost_Widow_RV.Life_Drain",
    "V_Arachnos.Ghost_Widow_RV.Dark_Blast",
    "V_Arachnos.Ghost_Widow_RV.Gloom",
    "V_Arachnos.Ghost_Widow_RV.Soul_Tentacles",
    "V_Arachnos.Ghost_Widow_RV.Torrent",
    "V_Arachnos.Ghost_Widow_RV.Soul_Storm",
    "V_Arachnos.Ghost_Widow_RV.Ethereal",
    "V_Arachnos.Ghost_Widow_RV.Petrifying_Gaze",
    "V_Arachnos.Ghost_Widow_RV.Dark_Obliteration",
    "V_Arachnos.Ghost_Widow_RV.Black_Hole",
    "V_Arachnos.Ghost_Widow_RV.Etherealise",
    "V_Arachnos.Ghost_Widow_RV.Shadow_Fall",
    "V_Arachnos.Ghost_Widow_RV.Resistance",
    "V_Arachnos.Ghost_Widow_RV.Twilight_Grasp",
    "V_Arachnos.Ghost_Widow_RV.Dark_Regeneration",
    "V_Arachnos.Ghost_Widow_RV.Fearsome_Stare"
  ],
  "power_display_names": [
    "Life Drain",
    "Dark Blast",
    "Gloom",
    "Soul Tentacles",
    "Torrent",
    "Soul Storm",
    "Ethereal",
    "Petrifying Gaze",
    "Dark Obliteration",
    "Black Hole",
    "Etherealise",
    "Shadow Fall",
    "Resistance",
    "Twilight Grasp",
    "Dark Regeneration",
    "Fearsome Stare"
  ]
}