{
  "name": "Crafted_Thunderstrike_B",
  "display_name": "Crafted Thunderstrike B",
  "display_fullname": "Boosts.Crafted Thunderstrike B",
  "display_help": "Enhances the damage of a power by {Boost.Attrib.Damage.Scale}% and reduces endurance cost by {Boost.Attrib.Endurance.Scale}%.",
  "display_short_help": "Set: Thunderstrike",
  "available_level": [
    0
  ],
  "source_file": "DEFS/POWERS/BOOSTS/CRAFTED_THUNDERSTRIKE_B.POWERSETS",
  "requires": "",
  "power_names": [
    "Boosts.Crafted_Thunderstrike_B.Crafted_Thunderstrike_B"
  ],
  "power_display_names": [
    "Thunderstrike: Damage/Endurance"
  ]
}