{
  "name": "Skulls_Minion_Sledgehammer",
  "display_name": "Skulls_Minion_Sledgehammer",
  "display_fullname": "Skulls.Skulls Minion Sledgehammer",
  "display_help": "Skulls",
  "display_short_help": "Skulls",
  "available_level": [
    0
  ],
  "source_file": "DEFS/POWERS/SKULLS/SKULLS_MINION_SLEDGEHAMMER.POWERSETS",
  "requires": "",
  "power_names": [
    "Skulls.Skulls_Minion_Sledgehammer.Sledgehammer"
  ],
  "power_display_names": [
    "Sledgehammer"
  ]
}