{
  "name": "Thug_Arsonist",
  "display_name": "Arsonist",
  "display_fullname": "Mission Maker Pets.Arsonist",
  "display_help": "Thugs",
  "display_short_help": "Thugs",
  "available_level": [
    0,
    0,
    0,
    0,
    5,
    5,
    31,
    31
  ],
  "source_file": "DEFS/POWERS/MISSION_MAKER_PETS/THUG_ARSONIST.POWERSETS",
  "requires": "",
  "power_names": [
    "Mission_Maker_Pets.Thug_Arsonist.Resistance",
    "Mission_Maker_Pets.Thug_Arsonist.Super_Leap",
    "Mission_Maker_Pets.Thug_Arsonist.Brawl",
    "Mission_Maker_Pets.Thug_Arsonist.Molotov_Cocktail",
    "Mission_Maker_Pets.Thug_Arsonist.Spit_Fire",
    "Mission_Maker_Pets.Thug_Arsonist.Equipped",
    "Mission_Maker_Pets.Thug_Arsonist.Fire_Bomb",
    "Mission_Maker_Pets.Thug_Arsonist.Upgraded"
  ],
  "power_display_names": [
    "Resistance",
    "Super Leap",
    "Brawl",
    "Molotov Cocktail",
    "Spit Fire",
    "Equip",
    "Fire Bomb",
    "Upgrade Equipment"
  ]
}