{
  "name": "Crafted_Pacing_of_the_Turtle_F",
  "display_name": "Crafted Pacing of the Turtle F",
  "display_fullname": "Boosts.Crafted Pacing of the Turtle F",
  "display_help": "Gives a small chance of slowing your target's recharge times. This effect will trigger roughly 3.5 times per minute.",
  "display_short_help": "Set: Pacing of the Turtle",
  "available_level": [
    0
  ],
  "source_file": "DEFS/POWERS/BOOSTS/CRAFTED_PACING_OF_THE_TURTLE_F.POWERSETS",
  "requires": "",
  "power_names": [
    "Boosts.Crafted_Pacing_of_the_Turtle_F.Crafted_Pacing_of_the_Turtle_F"
  ],
  "power_display_names": [
    "Pacing of the Turtle: Chance for Recharge Slow"
  ]
}