{
  "name": "GunslingerDogsUtility",
  "display_name": "GunslingerDogsUtility",
  "display_fullname": "SummerEvent.GunslingerDogsUtility",
  "display_help": "McCain's Maulers",
  "display_short_help": "McCain's Maulers",
  "available_level": [
    0,
    0
  ],
  "source_file": "DEFS/POWERS/SUMMEREVENT/GUNSLINGERDOGSUTILITY.POWERSETS",
  "requires": "",
  "power_names": [
    "SummerEvent.GunslingerDogsUtility.Super_Leap",
    "SummerEvent.GunslingerDogsUtility.Wild_Charge"
  ],
  "power_display_names": [
    "Super Leap",
    "Wild Charge"
  ]
}