{
  "name": "Crafted_Force_Feedback_C",
  "display_name": "Crafted Force Feedback C",
  "display_fullname": "Boosts.Crafted Force Feedback C",
  "display_help": "Enhances the Knockback potential of a power by {Boost.Attrib.Knock.Scale}% and reduces the recharge time of a power by {Boost.Attrib.RechargeTime.Scale}%.",
  "display_short_help": "Set: Force Feedback",
  "available_level": [
    0
  ],
  "source_file": "DEFS/POWERS/BOOSTS/CRAFTED_FORCE_FEEDBACK_C.POWERSETS",
  "requires": "",
  "power_names": [
    "Boosts.Crafted_Force_Feedback_C.Crafted_Force_Feedback_C"
  ],
  "power_display_names": [
    "Force Feedback: Knockback/Recharge"
  ]
}