{
  "name": "Snakes_Lt_Heal",
  "display_name": "Snakes Lt Heal",
  "display_fullname": "V Snakes.Snakes Lt Heal",
  "display_help": "Snakes",
  "display_short_help": "Snakes",
  "available_level": [
    0
  ],
  "source_file": "DEFS/POWERS/V_SNAKES/SNAKES_LT_HEAL.POWERSETS",
  "requires": "",
  "power_names": [
    "V_Snakes.Snakes_Lt_Heal.Regenerate"
  ],
  "power_display_names": [
    "Regenerate"
  ]
}