{
  "name": "Captured_Hero_Release",
  "display_name": "Captured Hero Release",
  "display_fullname": "DilemmaDiabolique.Captured Hero Release",
  "display_help": "Diabolique",
  "display_short_help": "Diabolique",
  "available_level": [
    0,
    0,
    0,
    0,
    0,
    0,
    0,
    0,
    0,
    0,
    0,
    0,
    0,
    0,
    0
  ],
  "source_file": "DEFS/POWERS/DILEMMADIABOLIQUE/CAPTURED_HERO_RELEASE.POWERSETS",
  "requires": "",
  "power_names": [
    "DilemmaDiabolique.Captured_Hero_Release.BackAlleyBrawler",
    "DilemmaDiabolique.Captured_Hero_Release.Citadel",
    "DilemmaDiabolique.Captured_Hero_Release.Manticore",
    "DilemmaDiabolique.Captured_Hero_Release.Numina",
    "DilemmaDiabolique.Captured_Hero_Release.Positron",
    "DilemmaDiabolique.Captured_Hero_Release.SisterPsyche",
    "DilemmaDiabolique.Captured_Hero_Release.PenelopeYin",
    "DilemmaDiabolique.Captured_Hero_Release.Synapse",
    "DilemmaDiabolique.Captured_Hero_Release.AuroraBorealis",
    "DilemmaDiabolique.Captured_Hero_Release.Infernal",
    "DilemmaDiabolique.Captured_Hero_Release.Luminary",
    "DilemmaDiabolique.Captured_Hero_Release.MsLiberty",
    "DilemmaDiabolique.Captured_Hero_Release.Mynx",
    "DilemmaDiabolique.Captured_Hero_Release.Swan",
    "DilemmaDiabolique.Captured_Hero_Release.Valkyrie"
  ],
  "power_display_names": [
    "Sentinel Rescue",
    "Sentinel Rescue",
    "Sentinel Rescue",
    "Sentinel Rescue",
    "Sentinel Rescue",
    "Sentinel Rescue",
    "Sentinel Rescue",
    "Sentinel Rescue",
    "Sentinel Rescue",
    "Sentinel Rescue",
    "Sentinel Rescue",
    "Sentinel Rescue",
    "Sentinel Rescue",
    "Sentinel Rescue",
    "Sentinel Rescue"
  ]
}