{
  "name": "Snake_Egg_High_3",
  "display_name": "Snake Egg",
  "display_fullname": "Objects.Snake Egg",
  "display_help": "Snakes",
  "display_short_help": "Snakes",
  "available_level": [
    0
  ],
  "source_file": "DEFS/POWERS/OBJECTS/SNAKE_EGG_HIGH_3.POWERSETS",
  "requires": "",
  "power_names": [
    "Objects.Snake_Egg_High_3.Egg_Hatch"
  ],
  "power_display_names": [
    "Egg Hatch"
  ]
}