{
  "name": "Black_Scorpion",
  "display_name": "Black Scorpion",
  "display_fullname": "Signature Summon.Black Scorpion",
  "display_help": "Arachnos",
  "display_short_help": "Arachnos",
  "available_level": [
    0,
    0,
    9,
    0,
    25,
    19,
    0,
    0
  ],
  "source_file": "DEFS/POWERS/SIGNATURE_SUMMON/BLACK_SCORPION.POWERSETS",
  "requires": "",
  "power_names": [
    "Signature_Summon.Black_Scorpion.Punch",
    "Signature_Summon.Black_Scorpion.Haymaker",
    "Signature_Summon.Black_Scorpion.Hammer_Punch",
    "Signature_Summon.Black_Scorpion.Arm_Blast",
    "Signature_Summon.Black_Scorpion.Tail_Blast",
    "Signature_Summon.Black_Scorpion.Tail_Lash",
    "Signature_Summon.Black_Scorpion.Super_Leap",
    "Signature_Summon.Black_Scorpion.Resistance"
  ],
  "power_display_names": [
    "Punch",
    "Haymaker",
    "Hammer Punch",
    "Arm Blast",
    "Tail Blast",
    "Tail Lash",
    "Super Leap",
    "Resistance"
  ]
}