{
  "name": "Liquefy",
  "display_name": "Liquefy",
  "display_fullname": "TalonsOfVengeance.Liquefy",
  "display_help": "Talons of Vengeance",
  "display_short_help": "Talons of Vengeance",
  "available_level": [
    0
  ],
  "source_file": "DEFS/POWERS/TALONSOFVENGEANCE/LIQUEFY.POWERSETS",
  "requires": "",
  "power_names": [
    "TalonsOfVengeance.Liquefy.Liquefy"
  ],
  "power_display_names": [
    "Debilitating Song"
  ]
}