{
  "name": "Lore_Pet_Lights_LT",
  "display_name": "Lore_Pet_Lights_LT",
  "display_fullname": "Incarnate.Lore Pet Lights LT",
  "display_help": "Incarnate",
  "display_short_help": "Incarnate",
  "available_level": [
    0,
    0
  ],
  "source_file": "DEFS/POWERS/INCARNATE/LORE_PET_LIGHTS_LT.POWERSETS",
  "requires": "",
  "power_names": [
    "Incarnate.Lore_Pet_Lights_LT.Northern_Lights_Bolt",
    "Incarnate.Lore_Pet_Lights_LT.Northern_Lights_Scatter"
  ],
  "power_display_names": [
    "Northern Light's Bolt",
    "Northern Light's Scatter"
  ]
}