{
  "name": "Attuned_Reactive_Defenses_C",
  "display_name": "Attuned Reactive Defenses C",
  "display_fullname": "Boosts.Attuned Reactive Defenses C",
  "display_help": "Reduces the recharge time of a power by {Boost.Attrib.RechargeTime.Scale}% and reduces endurance cost by {Boost.Attrib.Endurance.Scale}%.",
  "display_short_help": "Set: Reactive Defenses",
  "available_level": [
    0
  ],
  "source_file": "DEFS/POWERS/BOOSTS/ATTUNED_REACTIVE_DEFENSES_C.POWERSETS",
  "requires": "",
  "power_names": [
    "Boosts.Attuned_Reactive_Defenses_C.Attuned_Reactive_Defenses_C"
  ],
  "power_display_names": [
    "Reactive Defenses: Endurance/Recharge"
  ]
}