{
  "name": "Tectonic_Assault",
  "display_name": "Tectonic Assault",
  "display_fullname": "NewPraetorians.Tectonic Assault",
  "display_help": "Pendragon",
  "display_short_help": "Pendragon",
  "available_level": [
    0,
    0
  ],
  "source_file": "DEFS/POWERS/NEWPRAETORIANS/TECTONIC_ASSAULT.POWERSETS",
  "requires": "",
  "power_names": [
    "NewPraetorians.Tectonic_Assault.Tectonic_Assault",
    "NewPraetorians.Tectonic_Assault.Field"
  ],
  "power_display_names": [
    "Tectonic Assault",
    "Field"
  ]
}