{
  "name": "Attuned_Sovereign_Right_F",
  "display_name": "Attuned Sovereign Right F",
  "display_fullname": "Boosts.Attuned Sovereign Right F",
  "display_help": "UNIQUE -- No more than 1 enhancement of this type may be slotted by a character. Grants you a 40' radius aura which increases your Henchmen's Damage Resistance to all but psionics by 10%.",
  "display_short_help": "Set: Sovereign Right",
  "available_level": [
    0
  ],
  "source_file": "DEFS/POWERS/BOOSTS/ATTUNED_SOVEREIGN_RIGHT_F.POWERSETS",
  "requires": "",
  "power_names": [
    "Boosts.Attuned_Sovereign_Right_F.Attuned_Sovereign_Right_F"
  ],
  "power_display_names": [
    "Sovereign Right: Resistance Bonus"
  ]
}