{
  "name": "Darkest_Night",
  "full_name": "Defender_Buff.Dark_Miasma.Darkest_Night",
  "type": "Toggle",
  "display_name": "Darkest Night",
  "display_fullname": "Defender Buff.Dark Miasma.Darkest Night",
  "display_help": "While active, you channel Negative Energy onto a targeted foe. Darkest Night decreases the damage potential and chance to hit of the target, and all foes nearby, as long as you keep the power active.<br><br><color #fcfc95>Recharge: Moderate.</color>",
  "display_short_help": "Toggle: Ranged (Targeted AoE), Foe -DMG -To Hit",
  "icon": "darkmiasma_darkestnight.png",
  "auto_issue": false,
  "auto_issue_keeps_level": false,
  "message_caster": null,
  "message_floater": null,
  "message_attacker_hit": "Your {PowerName} reduced the damage and chance to hit of {PlayerDest} and all foes nearby.",
  "message_target_hit": "{PlayerSource} reduces your damage and chance to hit with their {PowerName}.",
  "message_target_confirm": null,
  "message_float_reward": null,
  "message_defense_avoidance": null,
  "attack_types": [
    "Area",
    "Negative_Energy"
  ],
  "requires": "",
  "activate_requires": "",
  "accuracy": 1.0,
  "number_allowed": 1,
  "caster_near_ground": false,
  "target_near_ground": false,
  "cast_when_dead": "AliveOnly",
  "cast_through": [

  ],
  "toggle_ignores": [

  ],
  "ignore_level_gained": false,
  "works_on_untouchable": false,
  "works_through_vision_phase": false,
  "target_untargetable": false,
  "interrupt_like_sleep": false,
  "notify_ai_when": "Always",
  "effect_area": "AoE",
  "max_targets_hit": 16,
  "radius": 25.0,
  "arc": 0.0,
  "range": 70.0,
  "range_secondary": 0.0,
  "activation_time": 3.17,
  "root_time": 3.17,
  "interrupt_time": 0.0,
  "recharge_time": 10.0,
  "activate_period": 0.5,
  "endurance_cost": 0.26,
  "cancelable": false,
  "self_confirm": false,
  "confirm_requires": "",
  "time_to_confirm": 0,
  "chain_delay": 0.0,
  "chain_effect_expr": "",
  "chain_forks": [

  ],
  "chain_into_power_name": null,
  "vec_box_offset": [
    0.0,
    0.0,
    0.0
  ],
  "vec_box_size": [
    0.0,
    0.0,
    0.0
  ],
  "number_of_charges": 0,
  "max_num_charges": 0,
  "destroy_on_last_use": true,
  "power_lifetime": 0.0,
  "max_power_lifetime": 0.0,
  "power_lifetime_ingame": 0.0,
  "max_power_lifetime_ingame": 0.0,
  "stacking_lifetime": false,
  "toggle_on_time": 0.0,
  "max_toggle_on_time": 0.0,
  "toggle_detoggle_time": 0.0,
  "toggle_droppable": "Sometimes",
  "ignore_toggle_max_distance": false,
  "target_type": "Foe",
  "target_type_secondary": null,
  "target_visibility": "LineOfSight",
  "targets_affected": [
    "Foe (Alive)"
  ],
  "targets_autohit": [
    "Foe (Alive)"
  ],
  "target_requires": "",
  "proc_allowed": "All",
  "boosts_allowed": [
    "Reduce Endurance Cost",
    "Enhance Range",
    "Enhance Recharge Speed",
    "Enhance ToHit DeBuffs"
  ],
  "allowed_boostset_cats": [
    "To Hit Debuff"
  ],
  "exclusion_groups": [

  ],
  "modes_required": [

  ],
  "modes_disallowed": [
    "Disable_All"
  ],
  "recharge_groups": [

  ],
  "ignore_strength": false,
  "strengths_disallowed": [

  ],
  "global_strengths_disallowed": [

  ],
  "procs_only_on_main_target": false,
  "vars_attribmods_can_reference": [

  ],
  "show_buff_icon": true,
  "show_in_info": true,
  "show_in_manage": true,
  "show_in_inventory": "Show",
  "deletable": false,
  "tradeable": false,
  "do_not_save": false,
  "max_boosts": 6,
  "ignore_level_differences": false,
  "ignore_exemplar_for_bonuses": false,
  "boost_combinable": true,
  "boost_tradeable": true,
  "boost_account_bound": false,
  "boost_boostable": false,
  "boost_use_player_level": false,
  "boost_catalyzable": null,
  "boost_store_product": null,
  "boost_min_slot_level": -3,
  "boost_max_level": 50,
  "instance_locked": false,
  "is_environment_hit": false,
  "shuffle_target_list": false,
  "enforced_level_bought": -1,
  "refreshes_on_active_player_change": false,
  "highlight_expression": "",
  "highlight_icon": null,
  "highlight_color": "#00000000",
  "travel_suppression_time": 0.0,
  "server_tray_priority": 0,
  "server_tray_requires": "",
  "abusive_buff": true,
  "position_center": "kModTarget_Caster",
  "position_distance": 0.0,
  "position_height": 0.0,
  "position_yaw": 0.0,
  "face_target": true,
  "attrib_cache": [
    "Smashing_Dmg",
    "Lethal_Dmg",
    "Fire_Dmg",
    "Cold_Dmg",
    "Energy_Dmg",
    "Negative_Energy_Dmg",
    "Psionic_Dmg",
    "Toxic_Dmg",
    "ToHit"
  ],
  "max_targets_expression": "",
  "chain_target_expr": "",
  "powerset": "Defender_Buff.Dark_Miasma",
  "available_level": 1,
  "archetypes": [
    "defender"
  ],
  "redirect": [

  ],
  "effects": [
    {
      "tags": [

      ],
      "chance": 1.0,
      "ppm": 0.0,
      "delay": 0.0,
      "radius_inner": -1.0,
      "radius_outer": -1.0,
      "requires_expression": "target>enttype eq 'critter'",
      "flags": [

      ],
      "eval_flags": 0,
      "child_effects": [

      ],
      "templates": [
        {
          "attribs": [
            "Smashing_Dmg",
            "Lethal_Dmg",
            "Fire_Dmg",
            "Cold_Dmg",
            "Energy_Dmg",
            "Negative_Energy_Dmg",
            "Psionic_Dmg",
            "Toxic_Dmg"
          ],
          "type": "Magnitude",
          "application_type": "OnTick",
          "aspect": "Strength",
          "target": "AnyAffected",
          "table": "Ranged_Debuff_Dam",
          "scale": 3.0,
          "duration": "0.75 seconds",
          "magnitude": 1.0,
          "delay": 0.0,
          "duration_expression": "",
          "magnitude_expression": "",
          "application_period": 0.0,
          "tick_chance": 1.0,
          "jit_requires": "",
          "caster_stack": "Individual",
          "stack": "Replace",
          "stack_limit": 2,
          "stack_key": null,
          "cancel_events": [

          ],
          "boost_mod_allowed": "Science_Boost",
          "flags": [
            "IgnoreStrength (4)",
            "ResistMagnitude (7)",
            "CombatModMagnitude (9)"
          ],
          "mode_name": null,
          "target_info": null,
          "messages": null,
          "suppress_events": [

          ],
          "params": null,
          "fx": {
            "continuing_bits": [

            ],
            "continuing_fx": "PFX",
            "conditional_bits": [

            ],
            "conditional_fx": null
          }
        }
      ],
      "is_pvp": "EITHER"
    },
    {
      "tags": [

      ],
      "chance": 1.0,
      "ppm": 0.0,
      "delay": 0.0,
      "radius_inner": -1.0,
      "radius_outer": -1.0,
      "requires_expression": "",
      "flags": [

      ],
      "eval_flags": 0,
      "child_effects": [

      ],
      "templates": [
        {
          "attribs": [
            "ToHit"
          ],
          "type": "Magnitude",
          "application_type": "OnTick",
          "aspect": "Current",
          "target": "AnyAffected",
          "table": "Ranged_DeBuff_ToHit",
          "scale": 1.5,
          "duration": "0.75 seconds",
          "magnitude": 1.0,
          "delay": 0.0,
          "duration_expression": "",
          "magnitude_expression": "",
          "application_period": 0.0,
          "tick_chance": 1.0,
          "jit_requires": "",
          "caster_stack": "Individual",
          "stack": "Replace",
          "stack_limit": 2,
          "stack_key": null,
          "cancel_events": [

          ],
          "boost_mod_allowed": "Science_Boost",
          "flags": [
            "ResistMagnitude (7)",
            "CombatModMagnitude (9)"
          ],
          "mode_name": null,
          "target_info": null,
          "messages": null,
          "suppress_events": [

          ],
          "params": null,
          "fx": null
        }
      ],
      "is_pvp": "EITHER"
    },
    {
      "tags": [

      ],
      "chance": 1.0,
      "ppm": 0.0,
      "delay": 0.0,
      "radius_inner": -1.0,
      "radius_outer": -1.0,
      "requires_expression": "target>enttype eq 'player'",
      "flags": [

      ],
      "eval_flags": 0,
      "child_effects": [

      ],
      "templates": [
        {
          "attribs": [
            "Smashing_Dmg",
            "Lethal_Dmg",
            "Fire_Dmg",
            "Cold_Dmg",
            "Energy_Dmg",
            "Negative_Energy_Dmg",
            "Psionic_Dmg",
            "Toxic_Dmg"
          ],
          "type": "Magnitude",
          "application_type": "OnTick",
          "aspect": "Strength",
          "target": "AnyAffected",
          "table": "Ranged_Debuff_Dam",
          "scale": 4.0,
          "duration": "0.75 seconds",
          "magnitude": 1.0,
          "delay": 0.0,
          "duration_expression": "",
          "magnitude_expression": "",
          "application_period": 0.0,
          "tick_chance": 1.0,
          "jit_requires": "",
          "caster_stack": "Individual",
          "stack": "Replace",
          "stack_limit": 2,
          "stack_key": null,
          "cancel_events": [

          ],
          "boost_mod_allowed": "Science_Boost",
          "flags": [
            "IgnoreStrength (4)",
            "ResistMagnitude (7)",
            "CombatModMagnitude (9)"
          ],
          "mode_name": null,
          "target_info": null,
          "messages": null,
          "suppress_events": [

          ],
          "params": null,
          "fx": {
            "continuing_bits": [

            ],
            "continuing_fx": "PFX",
            "conditional_bits": [

            ],
            "conditional_fx": null
          }
        }
      ],
      "is_pvp": "EITHER"
    }
  ],
  "activation_effects": [

  ],
  "fx": {
    "source_file": "MENU/POWERS/ANIMFX/PLAYERPOWERS/DEFENDERBUFF_DARKMIASMA_DARKESTNIGHT.PFX",
    "attack_bits": [

    ],
    "block_bits": [

    ],
    "wind_up_bits": [

    ],
    "hit_bits": [

    ],
    "death_bits": [

    ],
    "activation_bits": [
      20,
      272
    ],
    "deactivation_bits": [

    ],
    "initial_attack_bits": [

    ],
    "continuing_bits": [

    ],
    "conditional_bits": [

    ],
    "activation_fx": "POWERS/DARKNESSCONTROL/DARKNESSHANDS3.FX",
    "deactivation_fx": null,
    "attack_fx": "POWERS/DARKNESSCONTROL/CHILLOFNIGHT.FX",
    "secondary_attack_fx": null,
    "hit_fx": null,
    "wind_up_fx": null,
    "block_fx": null,
    "death_fx": null,
    "initial_attack_fx": "POWERS/DARKNESSCONTROL/CHILLOFNIGHT.FX",
    "continuing_fx": [

    ],
    "conditional_fx": [

    ],
    "mode_bits": [

    ],
    "frames_before_hit": 15,
    "frames_before_secondary_hit": 0,
    "delayed_hit": false,
    "frames_attack": 95,
    "initial_frames_before_hit": 15,
    "initial_attack_fx_frame_delay": 0,
    "projectile_speed": 3.4028234663852886e38,
    "secondary_projectile_speed": 0.0,
    "initial_frames_before_block": 0,
    "ignore_attack_time_errors": null,
    "frames_before_block": 0,
    "fx_important": false
  },
  "custom_fx": [
    {
      "display_name": null,
      "token": "Color Tintable",
      "alt_themes": [

      ],
      "category": null,
      "palette_name": "Subtractive",
      "fx": {
        "source_file": "MENU/POWERS/ANIMFX/PLAYERPOWERS/DEFENDERBUFF_DARKMIASMA_DARKESTNIGHT.PFX",
        "attack_bits": [

        ],
        "block_bits": [

        ],
        "wind_up_bits": [

        ],
        "hit_bits": [

        ],
        "death_bits": [

        ],
        "activation_bits": [
          20,
          272
        ],
        "deactivation_bits": [

        ],
        "initial_attack_bits": [

        ],
        "continuing_bits": [

        ],
        "conditional_bits": [

        ],
        "activation_fx": "CUSTOMIZEABLEPOWERS/DARKMIASMA/DARKNESSHANDS3.FX",
        "deactivation_fx": null,
        "attack_fx": "CUSTOMIZEABLEPOWERS/DARKMIASMA/CHILLOFNIGHT.FX",
        "secondary_attack_fx": null,
        "hit_fx": null,
        "wind_up_fx": null,
        "block_fx": null,
        "death_fx": null,
        "initial_attack_fx": "CUSTOMIZEABLEPOWERS/DARKMIASMA/CHILLOFNIGHT.FX",
        "continuing_fx": [

        ],
        "conditional_fx": [

        ],
        "mode_bits": [

        ],
        "frames_before_hit": 15,
        "frames_before_secondary_hit": 0,
        "delayed_hit": false,
        "frames_attack": 95,
        "initial_frames_before_hit": 15,
        "initial_attack_fx_frame_delay": 0,
        "projectile_speed": 3.4028234663852886e38,
        "secondary_projectile_speed": 0.0,
        "initial_frames_before_block": 0,
        "ignore_attack_time_errors": null,
        "frames_before_block": 0,
        "fx_important": false
      }
    },
    {
      "display_name": null,
      "token": "Dark Glow",
      "alt_themes": [

      ],
      "category": null,
      "palette_name": "Subtractive",
      "fx": {
        "source_file": "MENU/POWERS/ANIMFX/PLAYERPOWERS/DEFENDERBUFF_DARKMIASMA_DARKESTNIGHT.PFX",
        "attack_bits": [

        ],
        "block_bits": [

        ],
        "wind_up_bits": [

        ],
        "hit_bits": [

        ],
        "death_bits": [

        ],
        "activation_bits": [
          20,
          272
        ],
        "deactivation_bits": [

        ],
        "initial_attack_bits": [

        ],
        "continuing_bits": [

        ],
        "conditional_bits": [

        ],
        "activation_fx": "CUSTOMIZEABLEPOWERS/DARKNESSCONTROL/DARKNESSCONTROL_TWOHAND_ACTIVATION.FX",
        "deactivation_fx": null,
        "attack_fx": "CUSTOMIZEABLEPOWERS/DARKMIASMA/SOUL/CHILLOFNIGHT.FX",
        "secondary_attack_fx": null,
        "hit_fx": null,
        "wind_up_fx": null,
        "block_fx": null,
        "death_fx": null,
        "initial_attack_fx": "CUSTOMIZEABLEPOWERS/DARKMIASMA/SOUL/CHILLOFNIGHT.FX",
        "continuing_fx": [

        ],
        "conditional_fx": [

        ],
        "mode_bits": [

        ],
        "frames_before_hit": 15,
        "frames_before_secondary_hit": 0,
        "delayed_hit": false,
        "frames_attack": 95,
        "initial_frames_before_hit": 15,
        "initial_attack_fx_frame_delay": 0,
        "projectile_speed": 3.4028234663852886e38,
        "secondary_projectile_speed": 0.0,
        "initial_frames_before_block": 0,
        "ignore_attack_time_errors": null,
        "frames_before_block": 0,
        "fx_important": false
      }
    }
  ],
  "fx_only_on_main_target": false
}