{
  "name": "Corruptor_Blizzard",
  "display_name": "Blizzard",
  "display_fullname": "Pets.Blizzard",
  "display_help": "Ice Blast",
  "display_short_help": "Ice Blast",
  "available_level": [
    0,
    0,
    0
  ],
  "source_file": "DEFS/POWERS/PETS/CORRUPTOR_BLIZZARD.POWERSETS",
  "requires": "",
  "power_names": [
    "Pets.Corruptor_Blizzard.Blizzard",
    "Pets.Corruptor_Blizzard.Avoid",
    "Pets.Corruptor_Blizzard.Snow"
  ],
  "power_display_names": [
    "Blizzard",
    "Avoid",
    "Snow"
  ]
}