{
  "name": "Claws",
  "display_name": "Claws",
  "display_fullname": "Mission Maker Attacks.Claws",
  "display_help": "Claws are bones or blades that extend from your hands and cause Lethal damage. The lightweight, natural feel of claws gives this power set a reduced Endurance cost and faster attack rate than other Scrapper melee sets. Like all scrapper powers, all Claw attacks can sometimes land a critical hit for double damage.",
  "display_short_help": "Claws",
  "available_level": [
    0,
    0,
    1,
    5,
    7,
    0,
    25,
    31
  ],
  "source_file": "DEFS/POWERS/MISSION_MAKER_ATTACKS/CLAWS.POWERSETS",
  "requires": "",
  "power_names": [
    "Mission_Maker_Attacks.Claws.Swipe",
    "Mission_Maker_Attacks.Claws.Strike",
    "Mission_Maker_Attacks.Claws.Slash",
    "Mission_Maker_Attacks.Claws.Spin",
    "Mission_Maker_Attacks.Claws.Follow_Up",
    "Mission_Maker_Attacks.Claws.Focus",
    "Mission_Maker_Attacks.Claws.Eviscerate",
    "Mission_Maker_Attacks.Claws.Shockwave"
  ],
  "power_display_names": [
    "Swipe",
    "Strike",
    "Slash",
    "Spin",
    "Follow Up",
    "Focus",
    "Eviscerate",
    "Shockwave"
  ]
}