{
  "name": "Flight",
  "display_name": "Flight",
  "display_fullname": "V GoldBrickers.Flight",
  "display_help": "Gold Brickers",
  "display_short_help": "Gold Brickers",
  "available_level": [
    0
  ],
  "source_file": "DEFS/POWERS/V_GOLDBRICKERS/FLIGHT.POWERSETS",
  "requires": "",
  "power_names": [
    "V_GoldBrickers.Flight.Fly"
  ],
  "power_display_names": [
    "Fly"
  ]
}