{
  "name": "Crafted_Devastation_D",
  "display_name": "Crafted Devastation D",
  "display_fullname": "Boosts.Crafted Devastation D",
  "display_help": "Enhances the accuracy of a power by {Boost.Attrib.Accuracy.Scale}% and damage by {Boost.Attrib.Damage.Scale}% and reduces recharge time by {Boost.Attrib.RechargeTime.Scale}% .",
  "display_short_help": "Set: Devastation",
  "available_level": [
    0
  ],
  "source_file": "DEFS/POWERS/BOOSTS/CRAFTED_DEVASTATION_D.POWERSETS",
  "requires": "",
  "power_names": [
    "Boosts.Crafted_Devastation_D.Crafted_Devastation_D"
  ],
  "power_display_names": [
    "Devastation: Accuracy/Damage/Recharge"
  ]
}