{
  "name": "Stabilizer",
  "display_name": "Stabilizer",
  "display_fullname": "Objects.Stabilizer",
  "display_help": "Map",
  "display_short_help": "Map",
  "available_level": [
    0,
    0
  ],
  "source_file": "DEFS/POWERS/OBJECTS/STABILIZER.POWERSETS",
  "requires": "",
  "power_names": [
    "Objects.Stabilizer.Stabilize",
    "Objects.Stabilizer.Draw_Power"
  ],
  "power_display_names": [
    "Stabilize",
    "Draw Power"
  ]
}