{
  "name": "Attuned_Energy_Manipulator_B",
  "display_name": "Attuned Energy Manipulator B",
  "display_fullname": "Boosts.Attuned Energy Manipulator B",
  "display_help": "Enhances the Endurance Modification potential of a power by {Boost.Attrib.Endurance.Scale}% and reduces the recharge time by {Boost.Attrib.RechargeTime.Scale}%.",
  "display_short_help": "Set: Energy Manipulator",
  "available_level": [
    0
  ],
  "source_file": "DEFS/POWERS/BOOSTS/ATTUNED_ENERGY_MANIPULATOR_B.POWERSETS",
  "requires": "",
  "power_names": [
    "Boosts.Attuned_Energy_Manipulator_B.Attuned_Energy_Manipulator_B"
  ],
  "power_display_names": [
    "Energy Manipulator: Endurance Modification/Recharge"
  ]
}