{
  "name": "Crafted_Volley_of_Velocity_A",
  "display_name": "Crafted Volley of Velocity A",
  "display_fullname": "Boosts.Crafted Volley of Velocity A",
  "display_help": "Enhances the Knockback potential of a power by {Boost.Attrib.Knock.Scale}% and the damage by {Boost.Attrib.Damage.Scale}%.",
  "display_short_help": "Set: Volley of Velocity",
  "available_level": [
    0
  ],
  "source_file": "DEFS/POWERS/BOOSTS/CRAFTED_VOLLEY_OF_VELOCITY_A.POWERSETS",
  "requires": "",
  "power_names": [
    "Boosts.Crafted_Volley_of_Velocity_A.Crafted_Volley_of_Velocity_A"
  ],
  "power_display_names": [
    "Volley of Velocity: Knockback/Damage"
  ]
}