{
  "name": "Dark_Corruptor_Mid",
  "display_name": "Dark Corruptor Mid",
  "display_fullname": "V GenericVillains.Dark Corruptor Mid",
  "display_help": "Villain",
  "display_short_help": "Villain",
  "available_level": [
    0
  ],
  "source_file": "DEFS/POWERS/V_GENERICVILLAINS/DARK_CORRUPTOR_MID.POWERSETS",
  "requires": "",
  "power_names": [
    "V_GenericVillains.Dark_Corruptor_Mid.Dark_Servant"
  ],
  "power_display_names": [
    "Dark Servant"
  ]
}