{
  "name": "Magic_Sleep",
  "display_name": "Magic Sleep",
  "display_fullname": "Boosts.Magic Sleep",
  "display_help": "Increases the duration of a sleep power.",
  "display_short_help": "Dimensional Entities (Magic)",
  "available_level": [
    0
  ],
  "source_file": "DEFS/POWERS/BOOSTS/MAGIC_SLEEP.POWERSETS",
  "requires": "",
  "power_names": [
    "Boosts.Magic_Sleep.Magic_Sleep"
  ],
  "power_display_names": [
    "Rest of Hermes (Sleep)"
  ]
}