{
  "name": "Attuned_Gladiators_Net_C",
  "display_name": "Attuned Gladiators Net C",
  "display_fullname": "Boosts.Attuned Gladiators Net C",
  "display_help": "Reduces the attack rate by {Boost.Attrib.RechargeTime.Scale}% and hold duration of a power by {Boost.Attrib.Mez.Scale}%. NOTE: This is a PvP enhancement, this type of enhancement has two groups of set bonuses. You get the set bonuses not marked \"(PvP)\" while experiencing PvE content, but you get both the PvP set bonuses and the PvE set bonuses when fighting players.",
  "display_short_help": "Set: Gladiator's Net",
  "available_level": [
    0
  ],
  "source_file": "DEFS/POWERS/BOOSTS/ATTUNED_GLADIATORS_NET_C.POWERSETS",
  "requires": "",
  "power_names": [
    "Boosts.Attuned_Gladiators_Net_C.Attuned_Gladiators_Net_C"
  ],
  "power_display_names": [
    "Gladiator's Net: Recharge/Hold"
  ]
}