{
  "name": "Supermassive_Explosion_OnDeath_No_Damage",
  "display_name": "Explosion",
  "display_fullname": "Objects.Explosion",
  "display_help": "Object",
  "display_short_help": "Object",
  "available_level": [
    0
  ],
  "source_file": "DEFS/POWERS/OBJECTS/SUPERMASSIVE_EXPLOSION_ONDEATH_NO_DAMAGE.POWERSETS",
  "requires": "",
  "power_names": [
    "Objects.Supermassive_Explosion_OnDeath_No_Damage.Massive_Explosion"
  ],
  "power_display_names": [
    "Massive Explosion"
  ]
}