{
  "name": "Scrapper_Melee",
  "display_name": "Scrapper Melee",
  "display_fullname": "Redirects.Scrapper Melee",
  "display_help": "These powers are used by stalker redirect powers.",
  "display_short_help": "Scrapper Melee",
  "available_level": [
    31
  ],
  "source_file": "DEFS/POWERS/REDIRECTS/SCRAPPER_MELEE.POWERSETS",
  "requires": "",
  "power_names": [
    "Redirects.Scrapper_Melee.Savage_Leap"
  ],
  "power_display_names": [
    "Savage Leap"
  ]
}