{
  "name": "Lt_Goldbricker_Boomer",
  "display_name": "Lt Goldbricker Boomer",
  "display_fullname": "V GoldBrickers.Lt Goldbricker Boomer",
  "display_help": "Gold Brickers",
  "display_short_help": "Gold Brickers",
  "available_level": [
    0,
    0,
    0,
    0
  ],
  "source_file": "DEFS/POWERS/V_GOLDBRICKERS/LT_GOLDBRICKER_BOOMER.POWERSETS",
  "requires": "",
  "power_names": [
    "V_GoldBrickers.Lt_Goldbricker_Boomer.Heavy_Sonic_Bolt_Gun",
    "V_GoldBrickers.Lt_Goldbricker_Boomer.Heavy_Sonic_Blast_Gun",
    "V_GoldBrickers.Lt_Goldbricker_Boomer.Sonic_Grenade",
    "V_GoldBrickers.Lt_Goldbricker_Boomer.Sonic_Punch"
  ],
  "power_display_names": [
    "Heavy Sonic Bolt Gun",
    "Heavy Sonic Blast Gun",
    "Sonic Grenade",
    "Sonic Punch"
  ]
}