{
  "name": "PsionicFury",
  "display_name": "Psionic Fury",
  "display_fullname": "Awakened.Psionic Fury",
  "display_help": "The Awakened",
  "display_short_help": "The Awakened",
  "available_level": [
    0
  ],
  "source_file": "DEFS/POWERS/AWAKENED/PSIONICFURY.POWERSETS",
  "requires": "",
  "power_names": [
    "Awakened.PsionicFury.Psionic_Fury"
  ],
  "power_display_names": [
    "Psionic Fury"
  ]
}