{
  "name": "Energy_Aura",
  "display_name": "Energy Aura",
  "display_fullname": "Brute Defense.Energy Aura",
  "display_help": "You can surround yourself in powerful defensive Energy Auras that can deflect your foes' attacks. Like other defensive powers, Energy Auras do not reduce the damage you take, but rather reduce your chance of getting hit by deflecting your foes' attacks. Energy Auras offer good defense to most attack types, but offer superior defense to Energy based attacks. However, Energy Aura offers no defense to Psionic attacks.",
  "display_short_help": "Energy Aura",
  "available_level": [
    0,
    1,
    3,
    9,
    15,
    19,
    27,
    34,
    37
  ],
  "source_file": "DEFS/POWERS/BRUTE_DEFENSE/ENERGY_AURA.POWERSETS",
  "requires": "",
  "power_names": [
    "Brute_Defense.Energy_Aura.Kinetic_Shield",
    "Brute_Defense.Energy_Aura.Dampening_Field",
    "Brute_Defense.Energy_Aura.Power_Shield",
    "Brute_Defense.Energy_Aura.Entropy_Shield",
    "Brute_Defense.Energy_Aura.Energy_Protection",
    "Brute_Defense.Energy_Aura.Energy_Cloak",
    "Brute_Defense.Energy_Aura.Energy_Drain",
    "Brute_Defense.Energy_Aura.Conserve_Power",
    "Brute_Defense.Energy_Aura.Overload"
  ],
  "power_display_names": [
    "Kinetic Shield",
    "Dampening Field",
    "Power Shield",
    "Entropic Aura",
    "Energy Protection",
    "Energy Cloak",
    "Energy Drain",
    "Energize",
    "Overload"
  ]
}