{
  "name": "Mastermind_Leviathan_Mastery",
  "display_name": "Leviathan Mastery",
  "display_fullname": "Epic.Leviathan Mastery",
  "display_help": "Captain Mako has granted you access to the power of the Leviathan. The Leviathan is an ancient gargantuan entity who slumbers under Sharkhead Isle. Worshiped by the Coralax, the Leviathan has given Captain Mako many abilities and now he has taught you how to harness its power.",
  "display_short_help": "Leviathan Mastery",
  "available_level": [
    34,
    34,
    40,
    40,
    43
  ],
  "source_file": "DEFS/POWERS/EPIC/MASTERMIND_LEVIATHAN_MASTERY.POWERSETS",
  "requires": "",
  "power_names": [
    "Epic.Mastermind_Leviathan_Mastery.School_of_Sharks",
    "Epic.Mastermind_Leviathan_Mastery.Chum_Spray",
    "Epic.Mastermind_Leviathan_Mastery.Knockout_Blow",
    "Epic.Mastermind_Leviathan_Mastery.Shark_Skin",
    "Epic.Mastermind_Leviathan_Mastery.Spirit_Shark_Jaws"
  ],
  "power_display_names": [
    "School of Sharks",
    "Bile Spray",
    "Knockout Blow",
    "Shark Skin",
    "Spirit Shark Jaws"
  ]
}