{
  "name": "Attuned_Dampened_Spirits_E",
  "display_name": "Attuned Dampened Spirits E",
  "display_fullname": "Boosts.Attuned Dampened Spirits E",
  "display_help": "Enhances the to hit debuff potential of a power by {Boost.Attrib.ToHit.Scale}% and reduces the endurance cost by {Boost.Attrib.Endurance.Scale}%.",
  "display_short_help": "Set: Dampened Spirits",
  "available_level": [
    0
  ],
  "source_file": "DEFS/POWERS/BOOSTS/ATTUNED_DAMPENED_SPIRITS_E.POWERSETS",
  "requires": "",
  "power_names": [
    "Boosts.Attuned_Dampened_Spirits_E.Attuned_Dampened_Spirits_E"
  ],
  "power_display_names": [
    "Dampened Spirits: To Hit Debuff/Endurance Reduction"
  ]
}