{
  "name": "OilSlickTarget_Corruptor",
  "display_name": "Oil Slick",
  "display_fullname": "Villain Pets.Oil Slick",
  "display_help": "Trick Arrow",
  "display_short_help": "Trick Arrow",
  "available_level": [
    0,
    0,
    0,
    0
  ],
  "source_file": "DEFS/POWERS/VILLAIN_PETS/OILSLICKTARGET_CORRUPTOR.POWERSETS",
  "requires": "",
  "power_names": [
    "Villain_Pets.OilSlickTarget_Corruptor.Ignited_Oil",
    "Villain_Pets.OilSlickTarget_Corruptor.Lower_Threat",
    "Villain_Pets.OilSlickTarget_Corruptor.Resistance",
    "Villain_Pets.OilSlickTarget_Corruptor.Stealth"
  ],
  "power_display_names": [
    "Ignited Oil",
    "Lower Threat",
    "Resistance",
    "Stealth"
  ]
}