{
  "name": "Attuned_Touch_of_Lady_Grey_B",
  "display_name": "Attuned Touch of Lady Grey B",
  "display_fullname": "Boosts.Attuned Touch of Lady Grey B",
  "display_help": "Enhances the defense debuff potential of a power by {Boost.Attrib.Defense.Scale}% and reduces the recharge time by {Boost.Attrib.RechargeTime.Scale}%.",
  "display_short_help": "Set: Touch of Lady Grey",
  "available_level": [
    0
  ],
  "source_file": "DEFS/POWERS/BOOSTS/ATTUNED_TOUCH_OF_LADY_GREY_B.POWERSETS",
  "requires": "",
  "power_names": [
    "Boosts.Attuned_Touch_of_Lady_Grey_B.Attuned_Touch_of_Lady_Grey_B"
  ],
  "power_display_names": [
    "Touch of Lady Grey: Defense Debuff/Recharge"
  ]
}