{
  "name": "Tech_Lab_Damage",
  "display_name": "Tech Lab",
  "display_fullname": "Pets.Tech Lab",
  "display_help": "Lab Equipment",
  "display_short_help": "Lab Equipment",
  "available_level": [
    0
  ],
  "source_file": "DEFS/POWERS/PETS/TECH_LAB_DAMAGE.POWERSETS",
  "requires": "",
  "power_names": [
    "Pets.Tech_Lab_Damage.Explosion"
  ],
  "power_display_names": [
    "Explosion"
  ]
}