{
  "name": "Paladin",
  "display_name": "Paladin",
  "display_fullname": "PaladinEvent.Paladin",
  "display_help": "Clockwork",
  "display_short_help": "Clockwork",
  "available_level": [
    0,
    0,
    0,
    0,
    0,
    0
  ],
  "source_file": "DEFS/POWERS/PALADINEVENT/PALADIN.POWERSETS",
  "requires": "",
  "power_names": [
    "PaladinEvent.Paladin.Resistance",
    "PaladinEvent.Paladin.Lightning_Bolt",
    "PaladinEvent.Paladin.Tesla_Cage",
    "PaladinEvent.Paladin.Lightning_Field",
    "PaladinEvent.Paladin.Ball_Lightning",
    "PaladinEvent.Paladin.Mace"
  ],
  "power_display_names": [
    "Resistance",
    "Lightning Bolt",
    "Tesla Cage",
    "Lightning Field",
    "Ball Lightning",
    "Mace"
  ]
}