{
  "name": "Tech_Light_Fire_Beam_Turret",
  "display_name": "Tech_Light_Fire_Beam_Turret",
  "display_fullname": "Base Defenses.Tech Light Fire Beam Turret",
  "display_help": "Base Defenses",
  "display_short_help": "Base Defenses",
  "available_level": [
    0
  ],
  "source_file": "DEFS/POWERS/BASE_DEFENSES/TECH_LIGHT_FIRE_BEAM_TURRET.POWERSETS",
  "requires": "",
  "power_names": [
    "Base_Defenses.Tech_Light_Fire_Beam_Turret.Igniter"
  ],
  "power_display_names": [
    "Igniter"
  ]
}