{
  "name": "Neuron",
  "display_name": "Neuron",
  "display_fullname": "Praetorians.Neuron",
  "display_help": "Praetorians",
  "display_short_help": "Praetorians",
  "available_level": [
    0,
    0,
    0,
    0,
    0,
    0,
    0,
    0,
    0,
    0,
    0,
    0,
    0
  ],
  "source_file": "DEFS/POWERS/PRAETORIANS/NEURON.POWERSETS",
  "requires": "",
  "power_names": [
    "Praetorians.Neuron.Resistance",
    "Praetorians.Neuron.Charged_Bolts",
    "Praetorians.Neuron.Lightning_Bolt",
    "Praetorians.Neuron.Ball_Lightning",
    "Praetorians.Neuron.Tesla_Cage",
    "Praetorians.Neuron.Charged_Brawl",
    "Praetorians.Neuron.Lightning_Field",
    "Praetorians.Neuron.Havoc_Punch",
    "Praetorians.Neuron.Lightning_Clap",
    "Praetorians.Neuron.Thunder_Strike",
    "Praetorians.Neuron.Power_Sink",
    "Praetorians.Neuron.Shocking_Grasp",
    "Praetorians.Neuron.Voltaic_Sentinel"
  ],
  "power_display_names": [
    "Resistance",
    "Charged Bolts",
    "Lightning Bolt",
    "Ball Lightning",
    "Tesla Cage",
    "Charged Brawl",
    "Lightning Field",
    "Havoc Punch",
    "Lightning Clap",
    "Thunder Strike",
    "Power Sink",
    "Shocking Grasp",
    "Voltaic Sentinel"
  ]
}