{
  "name": "Circle_Thorn_Caster_Earth_Prison",
  "display_name": "Circle_Thorn_Caster_Earth_Prison",
  "display_fullname": "CircleOfThorns.Circle Thorn Caster Earth Prison",
  "display_help": "Circle of Thorns",
  "display_short_help": "Circle of Thorns",
  "available_level": [
    0
  ],
  "source_file": "DEFS/POWERS/CIRCLEOFTHORNS/CIRCLE_THORN_CASTER_EARTH_PRISON.POWERSETS",
  "requires": "",
  "power_names": [
    "CircleOfThorns.Circle_Thorn_Caster_Earth_Prison.Stone_Prison"
  ],
  "power_display_names": [
    "Stone Prison"
  ]
}