{
  "name": "Police_Shotgun",
  "display_name": "Police Shotgun",
  "display_fullname": "V ParagonPolice.Police Shotgun",
  "display_help": "Paragon Police",
  "display_short_help": "Paragon Police",
  "available_level": [
    0,
    0,
    0
  ],
  "source_file": "DEFS/POWERS/V_PARAGONPOLICE/POLICE_SHOTGUN.POWERSETS",
  "requires": "",
  "power_names": [
    "V_ParagonPolice.Police_Shotgun.Shotgun",
    "V_ParagonPolice.Police_Shotgun.Slug",
    "V_ParagonPolice.Police_Shotgun.Shotgun_Butt"
  ],
  "power_display_names": [
    "Shotgun",
    "Slug",
    "Shotgun Butt"
  ]
}