{
  "name": "Police_Heavy_Brawl",
  "display_name": "Police Heavy Brawl",
  "display_fullname": "V ParagonPolice.Police Heavy Brawl",
  "display_help": "SecurityGuards",
  "display_short_help": "SecurityGuards",
  "available_level": [
    0
  ],
  "source_file": "DEFS/POWERS/V_PARAGONPOLICE/POLICE_HEAVY_BRAWL.POWERSETS",
  "requires": "",
  "power_names": [
    "V_ParagonPolice.Police_Heavy_Brawl.Brawl"
  ],
  "power_display_names": [
    "Brawl"
  ]
}