{
  "name": "Minion_Burst",
  "display_name": "Minion_Burst",
  "display_fullname": "Syndicate.Minion Burst",
  "display_help": "Syndicate",
  "display_short_help": "Syndicate",
  "available_level": [
    0,
    10
  ],
  "source_file": "DEFS/POWERS/SYNDICATE/MINION_BURST.POWERSETS",
  "requires": "",
  "power_names": [
    "Syndicate.Minion_Burst.Burst_Low",
    "Syndicate.Minion_Burst.Burst"
  ],
  "power_display_names": [
    "Burst",
    "Burst"
  ]
}