{
  "name": "Inherent",
  "display_name": "Inherent",
  "display_fullname": "V Infected.Inherent",
  "display_help": "Infected",
  "display_short_help": "Infected",
  "available_level": [
    0
  ],
  "source_file": "DEFS/POWERS/V_INFECTED/INHERENT.POWERSETS",
  "requires": "",
  "power_names": [
    "V_Infected.Inherent.Resistance"
  ],
  "power_display_names": [
    "Resistance"
  ]
}