{
  "name": "Hopkins_Ranged",
  "display_name": "Hopkins_Ranged",
  "display_fullname": "Crey.Hopkins Ranged",
  "display_help": "Crey",
  "display_short_help": "Crey",
  "available_level": [
    0,
    0
  ],
  "source_file": "DEFS/POWERS/CREY/HOPKINS_RANGED.POWERSETS",
  "requires": "",
  "power_names": [
    "Crey.Hopkins_Ranged.Cryo_Rifle",
    "Crey.Hopkins_Ranged.N2_Cannon"
  ],
  "power_display_names": [
    "Cryo Rifle",
    "N2 Cannon"
  ]
}