{
  "name": "Sonic_Resonance",
  "display_name": "Sonic Resonance",
  "display_fullname": "Corruptor Buff.Sonic Resonance",
  "display_help": "You have the ability to control sound in several fashions. You can create semi-solid barriers, set up waves which weaken or strengthen a target, as well as creating soothing sounds which act to counteract any negative effects which may exist on your friends.",
  "display_short_help": "Sonic Resonance",
  "available_level": [
    0,
    1,
    3,
    9,
    15,
    19,
    27,
    34,
    37
  ],
  "source_file": "DEFS/POWERS/CORRUPTOR_BUFF/SONIC_RESONANCE.POWERSETS",
  "requires": "",
  "power_names": [
    "Corruptor_Buff.Sonic_Resonance.Sonic_Siphon",
    "Corruptor_Buff.Sonic_Resonance.Sonic_Barrier",
    "Corruptor_Buff.Sonic_Resonance.Sonic_Haven",
    "Corruptor_Buff.Sonic_Resonance.Sonic_Cage",
    "Corruptor_Buff.Sonic_Resonance.Disruption_Field",
    "Corruptor_Buff.Sonic_Resonance.Sonic_Dispersion",
    "Corruptor_Buff.Sonic_Resonance.Sonic_Repulsion",
    "Corruptor_Buff.Sonic_Resonance.Clarity",
    "Corruptor_Buff.Sonic_Resonance.Liquefy"
  ],
  "power_display_names": [
    "Sonic Siphon",
    "Sonic Barrier",
    "Sonic Haven",
    "Sonic Cage",
    "Disruption Field",
    "Sonic Dispersion",
    "Sonic Repulsion",
    "Clarity",
    "Liquefy"
  ]
}