{
  "name": "Freakshow_Enforcers_Revolver",
  "display_name": "Freakshow_Enforcers_Revolver",
  "display_fullname": "Freakshow.Freakshow Enforcers Revolver",
  "display_help": "Freakshow",
  "display_short_help": "Freakshow",
  "available_level": [
    0
  ],
  "source_file": "DEFS/POWERS/FREAKSHOW/FREAKSHOW_ENFORCERS_REVOLVER.POWERSETS",
  "requires": "",
  "power_names": [
    "Freakshow.Freakshow_Enforcers_Revolver.Heavy_Revolver"
  ],
  "power_display_names": [
    "Heavy Revolver"
  ]
}