{
  "name": "Mordrogar",
  "display_name": "Mordrogar",
  "display_fullname": "Hellions.Mordrogar",
  "display_help": "Hellions",
  "display_short_help": "Hellions",
  "available_level": [
    0,
    0,
    0,
    0,
    0
  ],
  "source_file": "DEFS/POWERS/HELLIONS/MORDROGAR.POWERSETS",
  "requires": "",
  "power_names": [
    "Hellions.Mordrogar.Char",
    "Hellions.Mordrogar.Scorch",
    "Hellions.Mordrogar.Combustion",
    "Hellions.Mordrogar.Flares",
    "Hellions.Mordrogar.Fire_Breath"
  ],
  "power_display_names": [
    "Char",
    "Scorch",
    "Combustion",
    "Flares",
    "Fire Breath"
  ]
}