{
  "name": "Dominator_Control",
  "display_name": "Control",
  "source_file": "DEFS/POWERS/DOMINATOR_CONTROL.CATEGORIES",
  "archetypes": [
    "dominator"
  ],
  "display_help": null,
  "display_short_help": null,
  "powerset_names": [
    "dominator_control.darkness_control",
    "dominator_control.earth_control",
    "dominator_control.electric_control",
    "dominator_control.fire_control",
    "dominator_control.gravity_control",
    "dominator_control.ice_control",
    "dominator_control.mind_control",
    "dominator_control.plant_control",
    "dominator_control.wind_control"
  ],
  "powerset_display_names": [
    "Darkness Control",
    "Earth Control",
    "Electric Control",
    "Fire Control",
    "Gravity Control",
    "Ice Control",
    "Mind Control",
    "Plant Control",
    "Wind Control"
  ]
}