{
  "name": "PenelopeYin",
  "display_name": "PenelopeYin",
  "display_fullname": "Awakened.PenelopeYin",
  "display_help": "Penelope Mayhem",
  "display_short_help": "Penelope Mayhem",
  "available_level": [
    0,
    0,
    0,
    0,
    0,
    0,
    0,
    0,
    0
  ],
  "source_file": "DEFS/POWERS/AWAKENED/PENELOPEYIN.POWERSETS",
  "requires": "",
  "power_names": [
    "Awakened.PenelopeYin.Psionic_Blast",
    "Awakened.PenelopeYin.Psionic_Crush",
    "Awakened.PenelopeYin.Psionic_Torment",
    "Awakened.PenelopeYin.Psionic_Drift",
    "Awakened.PenelopeYin.Psionic_Burst",
    "Awakened.PenelopeYin.Psionic_Blade",
    "Awakened.PenelopeYin.Psionic_Thrust",
    "Awakened.PenelopeYin.Psionic_Nexus",
    "Awakened.PenelopeYin.Impenetrable_Mind"
  ],
  "power_display_names": [
    "Psionic Blast",
    "Psionic Crush",
    "Psionic Torment",
    "Psionic Drift",
    "Psionic Burst",
    "Psionic Blade",
    "Psionic Thrust",
    "Psionic Nexus",
    "Impenetrable Mind"
  ]
}