{
  "name": "Attuned_Blessing_of_the_Zephyr_A",
  "display_name": "Attuned Blessing of the Zephyr A",
  "display_fullname": "Boosts.Attuned Blessing of the Zephyr A",
  "display_help": "Enhances the range of a teleport power by {Boost.Attrib.Range.Scale}%, the flight speed of a power by {Boost.Attrib.Movement.Scale}%, the jumping ability of a power by {Boost.Attrib.Movement.Scale}% and the run speed of a power by {Boost.Attrib.Movement.Scale}%. NOTE: This enhancement can be slotted into any travel power and will enhance run speed, jumping, flight speed and teleport range.",
  "display_short_help": "Set: Blessing of the Zephyr",
  "available_level": [
    0
  ],
  "source_file": "DEFS/POWERS/BOOSTS/ATTUNED_BLESSING_OF_THE_ZEPHYR_A.POWERSETS",
  "requires": "",
  "power_names": [
    "Boosts.Attuned_Blessing_of_the_Zephyr_A.Attuned_Blessing_of_the_Zephyr_A"
  ],
  "power_display_names": [
    "Blessing of the Zephyr: Run Speed, Jump, Flight Speed, Range"
  ]
}