{
  "name": "Wolf_Spider_Heavy_Pistol",
  "display_name": "Wolf_Spider_Heavy_Pistol",
  "display_fullname": "V Arachnos.Wolf Spider Heavy Pistol",
  "display_help": "Arachnos",
  "display_short_help": "Arachnos",
  "available_level": [
    0
  ],
  "source_file": "DEFS/POWERS/V_ARACHNOS/WOLF_SPIDER_HEAVY_PISTOL.POWERSETS",
  "requires": "",
  "power_names": [
    "V_Arachnos.Wolf_Spider_Heavy_Pistol.Heavy_Pistol"
  ],
  "power_display_names": [
    "Heavy Pistol"
  ]
}