{
  "name": "Shotgun",
  "display_name": "Shotgun",
  "display_fullname": "Council.Shotgun",
  "display_help": "Council",
  "display_short_help": "Council",
  "available_level": [
    0
  ],
  "source_file": "DEFS/POWERS/COUNCIL/SHOTGUN.POWERSETS",
  "requires": "",
  "power_names": [
    "Council.Shotgun.Shotgun"
  ],
  "power_display_names": [
    "Shotgun"
  ]
}