{
  "name": "Science_Stun",
  "display_name": "Science Stun",
  "display_fullname": "Boosts.Science Stun",
  "display_help": "Increases the duration of a disorient power.",
  "display_short_help": "Experiment (Science)",
  "available_level": [
    0
  ],
  "source_file": "DEFS/POWERS/BOOSTS/SCIENCE_STUN.POWERSETS",
  "requires": "",
  "power_names": [
    "Boosts.Science_Stun.Science_Stun"
  ],
  "power_display_names": [
    "Alpha Wave Bombardment (Stun)"
  ]
}