{
  "name": "Attuned_Blood_Mandate_D",
  "display_name": "Attuned Blood Mandate D",
  "display_fullname": "Boosts.Attuned Blood Mandate D",
  "display_help": "Enhances the accuracy of a power by {Boost.Attrib.Accuracy.Scale}% and damage by {Boost.Attrib.Damage.Scale}% and reduces endurance cost by {Boost.Attrib.Endurance.Scale}%.",
  "display_short_help": "Set: Blood Mandate",
  "available_level": [
    0
  ],
  "source_file": "DEFS/POWERS/BOOSTS/ATTUNED_BLOOD_MANDATE_D.POWERSETS",
  "requires": "",
  "power_names": [
    "Boosts.Attuned_Blood_Mandate_D.Attuned_Blood_Mandate_D"
  ],
  "power_display_names": [
    "Blood Mandate: Accuracy/Damage/Endurance"
  ]
}