{
  "name": "Attuned_Sting_of_the_Manticore_E",
  "display_name": "Attuned Sting of the Manticore E",
  "display_fullname": "Boosts.Attuned Sting of the Manticore E",
  "display_help": "Enhances the damage by {Boost.Attrib.Damage.Scale}%, endurance costs by {Boost.Attrib.Endurance.Scale}% and reduces recharge time by {Boost.Attrib.RechargeTime.Scale}%.",
  "display_short_help": "Set: Sting of the Manticore",
  "available_level": [
    0
  ],
  "source_file": "DEFS/POWERS/BOOSTS/ATTUNED_STING_OF_THE_MANTICORE_E.POWERSETS",
  "requires": "",
  "power_names": [
    "Boosts.Attuned_Sting_of_the_Manticore_E.Attuned_Sting_of_the_Manticore_E"
  ],
  "power_display_names": [
    "Sting of the Manticore: Damage/Endurance/Recharge"
  ]
}