{
  "name": "Scorpions_Surprise",
  "display_name": "Scorpions_Surprise",
  "display_fullname": "Base Defenses.Scorpions Surprise",
  "display_help": "Base Defenses",
  "display_short_help": "Base Defenses",
  "available_level": [
    0
  ],
  "source_file": "DEFS/POWERS/BASE_DEFENSES/SCORPIONS_SURPRISE.POWERSETS",
  "requires": "",
  "power_names": [
    "Base_Defenses.Scorpions_Surprise.Scorpions_Surprise"
  ],
  "power_display_names": [
    "Scorpions Surprise"
  ]
}