{
  "name": "PPD_Hard_Suit_Heavy",
  "display_name": "PPD Hard Suit Heavy",
  "display_fullname": "V ParagonPolice.PPD Hard Suit Heavy",
  "display_help": "Paragon Police",
  "display_short_help": "Paragon Police",
  "available_level": [
    0
  ],
  "source_file": "DEFS/POWERS/V_PARAGONPOLICE/PPD_HARD_SUIT_HEAVY.POWERSETS",
  "requires": "",
  "power_names": [
    "V_ParagonPolice.PPD_Hard_Suit_Heavy.Total_Focus"
  ],
  "power_display_names": [
    "Total Focus"
  ]
}