{
  "name": "Oracle_Earth",
  "display_name": "Oracle_Earth",
  "display_fullname": "TalonsOfVengeance.Oracle Earth",
  "display_help": "Talons of Vengeance",
  "display_short_help": "Talons of Vengeance",
  "available_level": [
    0,
    0,
    0,
    0,
    0
  ],
  "source_file": "DEFS/POWERS/TALONSOFVENGEANCE/ORACLE_EARTH.POWERSETS",
  "requires": "",
  "power_names": [
    "TalonsOfVengeance.Oracle_Earth.Upthrust",
    "TalonsOfVengeance.Oracle_Earth.Shards_of_Stone",
    "TalonsOfVengeance.Oracle_Earth.Ash_Fall",
    "TalonsOfVengeance.Oracle_Earth.Earthquake",
    "TalonsOfVengeance.Oracle_Earth.Resistance"
  ],
  "power_display_names": [
    "Upthrust",
    "Shards of Stone",
    "Ash Fall",
    "Earthquake",
    "Affinity"
  ]
}