{
  "name": "Devastation_Beam_Watch",
  "display_name": "Devastation_Beam_Watch",
  "display_fullname": "Objects.Devastation Beam Watch",
  "display_help": "Stasis",
  "display_short_help": "Stasis",
  "available_level": [
    0
  ],
  "source_file": "DEFS/POWERS/OBJECTS/DEVASTATION_BEAM_WATCH.POWERSETS",
  "requires": "",
  "power_names": [
    "Objects.Devastation_Beam_Watch.Hold_Detected"
  ],
  "power_display_names": [
    "Hold Detected"
  ]
}