{
  "name": "Dark_Miasma",
  "display_name": "Dark Miasma",
  "display_fullname": "Mastermind Buff.Dark Miasma",
  "display_help": "Focus the dark power of the Netherworld to weaken your foes. Dark Miasma focuses on draining your opponent.",
  "display_short_help": "Dark Miasma",
  "available_level": [
    0,
    1,
    3,
    9,
    15,
    19,
    27,
    34,
    37
  ],
  "source_file": "DEFS/POWERS/MASTERMIND_BUFF/DARK_MIASMA.POWERSETS",
  "requires": "",
  "power_names": [
    "Mastermind_Buff.Dark_Miasma.Twilight_Grasp",
    "Mastermind_Buff.Dark_Miasma.Tar_Patch",
    "Mastermind_Buff.Dark_Miasma.Darkest_Night",
    "Mastermind_Buff.Dark_Miasma.Howling_Twilight",
    "Mastermind_Buff.Dark_Miasma.Shadow_Fall",
    "Mastermind_Buff.Dark_Miasma.Fearsome_Stare",
    "Mastermind_Buff.Dark_Miasma.Petrifying_Gaze",
    "Mastermind_Buff.Dark_Miasma.Black_Hole",
    "Mastermind_Buff.Dark_Miasma.Dark_Servant"
  ],
  "power_display_names": [
    "Twilight Grasp",
    "Tar Patch",
    "Darkest Night",
    "Howling Twilight",
    "Shadow Fall",
    "Fearsome Stare",
    "Petrifying Gaze",
    "Black Hole",
    "Dark Servant"
  ]
}