{
  "name": "ResistAllFast",
  "display_name": "ResistAll",
  "display_fullname": "Pets.ResistAll",
  "display_help": "Resistance",
  "display_short_help": "Resistance",
  "available_level": [
    0
  ],
  "source_file": "DEFS/POWERS/PETS/RESISTALLFAST.POWERSETS",
  "requires": "",
  "power_names": [
    "Pets.ResistAllFast.ResistAll"
  ],
  "power_display_names": [
    "ResistAll"
  ]
}