{
  "name": "PenelopeYin",
  "display_name": "PenelopeYin",
  "display_fullname": "V FreedomPhalanx.PenelopeYin",
  "display_help": "Penelope Yin",
  "display_short_help": "Penelope Yin",
  "available_level": [
    0,
    0,
    0,
    0,
    0,
    0,
    0,
    0,
    0
  ],
  "source_file": "DEFS/POWERS/V_FREEDOMPHALANX/PENELOPEYIN.POWERSETS",
  "requires": "",
  "power_names": [
    "V_FreedomPhalanx.PenelopeYin.Psionic_Blast",
    "V_FreedomPhalanx.PenelopeYin.Psionic_Crush",
    "V_FreedomPhalanx.PenelopeYin.Psionic_Torment",
    "V_FreedomPhalanx.PenelopeYin.Psionic_Drift",
    "V_FreedomPhalanx.PenelopeYin.Psionic_Pulse",
    "V_FreedomPhalanx.PenelopeYin.Psionic_Blade",
    "V_FreedomPhalanx.PenelopeYin.Psionic_Thrust",
    "V_FreedomPhalanx.PenelopeYin.Psionic_Nexus",
    "V_FreedomPhalanx.PenelopeYin.Impenetrable_Mind"
  ],
  "power_display_names": [
    "Psionic Blast",
    "Psionic Crush",
    "Psionic Torment",
    "Psionic Drift",
    "Psionic Pulse",
    "Psionic Blade",
    "Psionic Thrust",
    "Psionic Nexus",
    "Impenetrable Mind"
  ]
}