{
  "name": "Police_Heavy_Pistol",
  "display_name": "Police Heavy Pistol",
  "display_fullname": "V ParagonPolice.Police Heavy Pistol",
  "display_help": "Paragon Police",
  "display_short_help": "Paragon Police",
  "available_level": [
    0
  ],
  "source_file": "DEFS/POWERS/V_PARAGONPOLICE/POLICE_HEAVY_PISTOL.POWERSETS",
  "requires": "",
  "power_names": [
    "V_ParagonPolice.Police_Heavy_Pistol.Heavy_Pistol"
  ],
  "power_display_names": [
    "Heavy Pistol"
  ]
}