{
  "name": "Burn",
  "display_name": "Burn",
  "display_fullname": "Malta.Burn",
  "display_help": "Fire",
  "display_short_help": "Fire",
  "available_level": [
    0,
    0
  ],
  "source_file": "DEFS/POWERS/MALTA/BURN.POWERSETS",
  "requires": "",
  "power_names": [
    "Malta.Burn.Burn",
    "Malta.Burn.Avoid"
  ],
  "power_display_names": [
    "Burn",
    "Avoid"
  ]
}