{
  "name": "Arcane_Energy_Shield",
  "display_name": "Arcane Energy Shield",
  "display_fullname": "Base Defenses.Arcane Energy Shield",
  "display_help": "Adds a protective force field around the turret.",
  "display_short_help": "Turret Aux",
  "available_level": [
    0
  ],
  "source_file": "DEFS/POWERS/BASE_DEFENSES/ARCANE_ENERGY_SHIELD.POWERSETS",
  "requires": "",
  "power_names": [
    "Base_Defenses.Arcane_Energy_Shield.Energy_Shield"
  ],
  "power_display_names": [
    "Energy Shield"
  ]
}