{
  "name": "Circle_Thorn_Caster_Air_Storm",
  "display_name": "Circle_Thorn_Caster_Air_Storm",
  "display_fullname": "CircleOfThorns.Circle Thorn Caster Air Storm",
  "display_help": "Circle of Thorns",
  "display_short_help": "Circle of Thorns",
  "available_level": [
    0
  ],
  "source_file": "DEFS/POWERS/CIRCLEOFTHORNS/CIRCLE_THORN_CASTER_AIR_STORM.POWERSETS",
  "requires": "",
  "power_names": [
    "CircleOfThorns.Circle_Thorn_Caster_Air_Storm.Snow_Storm"
  ],
  "power_display_names": [
    "Snow Storm"
  ]
}