{
  "name": "Creeper_Patch",
  "display_name": "Creeper Patch",
  "display_fullname": "Villain Pets.Creeper Patch",
  "display_help": "Plant Control",
  "display_short_help": "Plant Control",
  "available_level": [
    0,
    0,
    0
  ],
  "source_file": "DEFS/POWERS/VILLAIN_PETS/CREEPER_PATCH.POWERSETS",
  "requires": "",
  "power_names": [
    "Villain_Pets.Creeper_Patch.Carrion_Creepers",
    "Villain_Pets.Creeper_Patch.Vines",
    "Villain_Pets.Creeper_Patch.Bramble"
  ],
  "power_display_names": [
    "Carrion Creepers",
    "Vines",
    "Bramble"
  ]
}