{
  "name": "Tuatha_Boss_Resists",
  "display_name": "Tuatha_Boss_Resists",
  "display_fullname": "Tuatha.Tuatha Boss Resists",
  "display_help": "The Tuatha",
  "display_short_help": "The Tuatha",
  "available_level": [
    0
  ],
  "source_file": "DEFS/POWERS/TUATHA/TUATHA_BOSS_RESISTS.POWERSETS",
  "requires": "",
  "power_names": [
    "Tuatha.Tuatha_Boss_Resists.Resistance"
  ],
  "power_display_names": [
    "Resistance"
  ]
}