{
  "name": "LightningStorm_NPC",
  "display_name": "LightningStorm_NPC",
  "display_fullname": "Pets.LightningStorm NPC",
  "display_help": "Storm Summoning",
  "display_short_help": "Storm Summoning",
  "available_level": [
    0,
    0,
    0
  ],
  "source_file": "DEFS/POWERS/PETS/LIGHTNINGSTORM_NPC.POWERSETS",
  "requires": "",
  "power_names": [
    "Pets.LightningStorm_NPC.Lightning",
    "Pets.LightningStorm_NPC.Immobilize",
    "Pets.LightningStorm_NPC.Fly"
  ],
  "power_display_names": [
    "Lightning",
    "Immobilize",
    "Fly"
  ]
}