{
  "name": "Superior_Attuned_Superior_Malice_of_the_Corruptor_C",
  "display_name": "Superior Attuned Superior Malice of the Corruptor C",
  "display_fullname": "Boosts.Superior Attuned Malice of the Corruptor C",
  "display_help": "UNIQUE -- No more than 1 enhancement of this type may be slotted by a character. Enhances the accuracy of a power by {Boost.Attrib.Accuracy.Scale}% and damage by {Boost.Attrib.Damage.Scale}% and reduces recharge time by {Boost.Attrib.RechargeTime.Scale}% . This enhancement can only be slotted by Corruptors and may be slotted into any Corruptor damage power.",
  "display_short_help": "Set: Superior Malice of the Corruptor",
  "available_level": [
    0
  ],
  "source_file": "DEFS/POWERS/BOOSTS/SUPERIOR_ATTUNED_SUPERIOR_MALICE_OF_THE_CORRUPTOR_C.POWERSETS",
  "requires": "",
  "power_names": [
    "Boosts.Superior_Attuned_Superior_Malice_of_the_Corruptor_C.Superior_Attuned_Superior_Malice_of_the_Corruptor_C"
  ],
  "power_display_names": [
    "Superior Malice of the Corruptor: Accuracy/Damage/Recharge"
  ]
}