{
  "name": "Black_Scorpion",
  "display_name": "Black Scorpion",
  "display_fullname": "V Arachnos.Black Scorpion",
  "display_help": "Arachnos",
  "display_short_help": "Arachnos",
  "available_level": [
    0,
    0,
    0,
    0,
    0,
    0,
    0,
    0,
    0,
    0,
    0,
    0
  ],
  "source_file": "DEFS/POWERS/V_ARACHNOS/BLACK_SCORPION.POWERSETS",
  "requires": "",
  "power_names": [
    "V_Arachnos.Black_Scorpion.Punch",
    "V_Arachnos.Black_Scorpion.Haymaker",
    "V_Arachnos.Black_Scorpion.Hammer_Punch",
    "V_Arachnos.Black_Scorpion.Foot_Stomp",
    "V_Arachnos.Black_Scorpion.Arm_Blast",
    "V_Arachnos.Black_Scorpion.Tail_Blast",
    "V_Arachnos.Black_Scorpion.Tail_Sting",
    "V_Arachnos.Black_Scorpion.Tail_Lash",
    "V_Arachnos.Black_Scorpion.Taunt",
    "V_Arachnos.Black_Scorpion.Rage",
    "V_Arachnos.Black_Scorpion.Super_Leap",
    "V_Arachnos.Black_Scorpion.Resistance"
  ],
  "power_display_names": [
    "Punch",
    "Haymaker",
    "Hammer Punch",
    "Foot Stomp",
    "Arm Blast",
    "Tail Blast",
    "Tail Sting",
    "Tail Lash",
    "Taunt",
    "Rage",
    "Super Leap",
    "Resistance"
  ]
}