{
  "name": "Crafted_Hold_25",
  "display_name": "Crafted Hold 25",
  "display_fullname": "Boosts.Crafted Hold 25",
  "display_help": "Increases hold duration by {Boost.Attrib.Mez.Scale}%.",
  "display_short_help": "Invention",
  "available_level": [
    0
  ],
  "source_file": "DEFS/POWERS/BOOSTS/CRAFTED_HOLD_25.POWERSETS",
  "requires": "",
  "power_names": [
    "Boosts.Crafted_Hold_25.Crafted_Hold_25"
  ],
  "power_display_names": [
    "Invention: Hold Duration"
  ]
}