{
  "name": "Dark_Melee",
  "display_name": "Dark Melee",
  "display_fullname": "Scrapper Melee.Dark Melee",
  "display_help": "Dark Melee allows you to focus the powers of the Netherworld to defeat your foes. The draining effects of most of these powers can reduce the target's Accuracy. Like all scrapper powers, all Dark Melee attacks can sometimes land a critical hit for double damage.",
  "display_short_help": "Dark Melee",
  "available_level": [
    0,
    0,
    1,
    5,
    7,
    11,
    17,
    25,
    31
  ],
  "source_file": "DEFS/POWERS/SCRAPPER_MELEE/DARK_MELEE.POWERSETS",
  "requires": "",
  "power_names": [
    "Scrapper_Melee.Dark_Melee.Shadow_Punch",
    "Scrapper_Melee.Dark_Melee.Smite",
    "Scrapper_Melee.Dark_Melee.Shadow_Maul",
    "Scrapper_Melee.Dark_Melee.Touch_of_Fear",
    "Scrapper_Melee.Dark_Melee.Siphon_Life",
    "Scrapper_Melee.Dark_Melee.Taunt",
    "Scrapper_Melee.Dark_Melee.Dark_Consumption",
    "Scrapper_Melee.Dark_Melee.Soul_Drain",
    "Scrapper_Melee.Dark_Melee.Midnight_Grasp"
  ],
  "power_display_names": [
    "Shadow Punch",
    "Smite",
    "Shadow Maul",
    "Touch of Fear",
    "Siphon Life",
    "Confront",
    "Dark Consumption",
    "Soul Drain",
    "Midnight Grasp"
  ]
}