{
  "name": "Crafted_Fortunata_Hypnosis_E",
  "display_name": "Crafted Fortunata Hypnosis E",
  "display_fullname": "Boosts.Crafted Fortunata Hypnosis E",
  "display_help": "UNIQUE -- No more than 1 enhancement of this type may be slotted by a character. Enhances the Sleep duration of a power by {Boost.Attrib.Mez.Scale}% and reduces the endurance cost by {Boost.Attrib.Endurance.Scale}%.",
  "display_short_help": "Set: Fortunata Hypnosis",
  "available_level": [
    0
  ],
  "source_file": "DEFS/POWERS/BOOSTS/CRAFTED_FORTUNATA_HYPNOSIS_E.POWERSETS",
  "requires": "",
  "power_names": [
    "Boosts.Crafted_Fortunata_Hypnosis_E.Crafted_Fortunata_Hypnosis_E"
  ],
  "power_display_names": [
    "Fortunata Hypnosis: Sleep Duration/Endurance Reduction"
  ]
}