{
  "name": "Crafted_Hecatomb_F",
  "display_name": "Crafted Hecatomb F",
  "display_fullname": "Boosts.Crafted Hecatomb F",
  "display_help": "UNIQUE -- No more than 1 enhancement of this type may be slotted by a character. Provides a moderate chance to cause moderate negative energy damage to your targets. This effect will trigger roughly 4.5 times per minute.",
  "display_short_help": "Set: Hecatomb",
  "available_level": [
    0
  ],
  "source_file": "DEFS/POWERS/BOOSTS/CRAFTED_HECATOMB_F.POWERSETS",
  "requires": "",
  "power_names": [
    "Boosts.Crafted_Hecatomb_F.Crafted_Hecatomb_F"
  ],
  "power_display_names": [
    "Hecatomb: Chance for Negative Energy Damage"
  ]
}