{
  "name": "Lightning_Storm",
  "display_name": "Lightning_Storm",
  "display_fullname": "BanishedPantheon.Lightning Storm",
  "display_help": "Banished Pantheon",
  "display_short_help": "Banished Pantheon",
  "available_level": [
    0
  ],
  "source_file": "DEFS/POWERS/BANISHEDPANTHEON/LIGHTNING_STORM.POWERSETS",
  "requires": "",
  "power_names": [
    "BanishedPantheon.Lightning_Storm.Lightning_Storm"
  ],
  "power_display_names": [
    "Lightning Storm"
  ]
}