{
  "name": "Crafted_Run_30",
  "display_name": "Crafted Run 30",
  "display_fullname": "Boosts.Crafted Run 30",
  "display_help": "Increases run speed by {Boost.Attrib.Movement.Scale}%.",
  "display_short_help": "Invention",
  "available_level": [
    0
  ],
  "source_file": "DEFS/POWERS/BOOSTS/CRAFTED_RUN_30.POWERSETS",
  "requires": "",
  "power_names": [
    "Boosts.Crafted_Run_30.Crafted_Run_30"
  ],
  "power_display_names": [
    "Invention: Run Speed Increase"
  ]
}