{
  "name": "No_Regeneration",
  "display_name": "No_Regeneration",
  "display_fullname": "GenericVillains.No Regeneration",
  "display_help": "No Regeneration",
  "display_short_help": "No Regeneration",
  "available_level": [
    0
  ],
  "source_file": "DEFS/POWERS/GENERICVILLAINS/NO_REGENERATION.POWERSETS",
  "requires": "",
  "power_names": [
    "GenericVillains.No_Regeneration.No_Regeneration"
  ],
  "power_display_names": [
    "No Regeneration"
  ]
}