{
  "name": "Attuned_Freebird_C",
  "display_name": "Attuned Freebird C",
  "display_fullname": "Boosts.Attuned Freebird C",
  "display_help": "UNIQUE -- No more than 1 enhancement of this type may be slotted by a character. May not be slotted if you have any other enhancements which grant stealth. Grants Stealth for 120 seconds when used in an instant effect power.",
  "display_short_help": "Set: Freebird",
  "available_level": [
    0
  ],
  "source_file": "DEFS/POWERS/BOOSTS/ATTUNED_FREEBIRD_C.POWERSETS",
  "requires": "",
  "power_names": [
    "Boosts.Attuned_Freebird_C.Attuned_Freebird_C"
  ],
  "power_display_names": [
    "Freebird: Stealth"
  ]
}