{
  "name": "Police_Pistol",
  "display_name": "Police Pistol",
  "display_fullname": "V ParagonPolice.Police Pistol",
  "display_help": "Paragon Police",
  "display_short_help": "Paragon Police",
  "available_level": [
    0
  ],
  "source_file": "DEFS/POWERS/V_PARAGONPOLICE/POLICE_PISTOL.POWERSETS",
  "requires": "",
  "power_names": [
    "V_ParagonPolice.Police_Pistol.Revolver"
  ],
  "power_display_names": [
    "Revolver"
  ]
}