{
  "name": "Calystix_High",
  "display_name": "Calystix High",
  "display_fullname": "V Coralax.Calystix High",
  "display_help": "Coralax",
  "display_short_help": "Coralax",
  "available_level": [
    0,
    0,
    0
  ],
  "source_file": "DEFS/POWERS/V_CORALAX/CALYSTIX_HIGH.POWERSETS",
  "requires": "",
  "power_names": [
    "V_Coralax.Calystix_High.Summon_Coral_Guardians",
    "V_Coralax.Calystix_High.Psionic_Tornado",
    "V_Coralax.Calystix_High.Psychic_Wail"
  ],
  "power_display_names": [
    "Summon Coral Guardians",
    "Psionic Tornado",
    "Psychic Wail"
  ]
}