{
  "name": "Ash_Fall",
  "display_name": "Ash Fall",
  "display_fullname": "TalonsOfVengeance.Ash Fall",
  "display_help": "Talons of Vengeance",
  "display_short_help": "Talons of Vengeance",
  "available_level": [
    0
  ],
  "source_file": "DEFS/POWERS/TALONSOFVENGEANCE/ASH_FALL.POWERSETS",
  "requires": "",
  "power_names": [
    "TalonsOfVengeance.Ash_Fall.Ash_Fall"
  ],
  "power_display_names": [
    "Ash Fall"
  ]
}