{
  "name": "Superior_Attuned_Superior_Ascendency_of_the_Dominator_B",
  "display_name": "Superior Attuned Superior Ascendency of the Dominator B",
  "display_fullname": "Boosts.Superior Attuned Ascendency of the Dominator B",
  "display_help": "UNIQUE -- No more than 1 enhancement of this type may be slotted by a character. Enhances the hold duration of a power by {Boost.Attrib.Mez.Scale}%, the hold duration by {Boost.Attrib.Mez.Scale}%, the immobilization duration by {Boost.Attrib.Mez.Scale}%, the sleep duration by {Boost.Attrib.Mez.Scale}%, the fear duration by {Boost.Attrib.Mez.Scale}% and the confuse duration by {Boost.Attrib.Mez.Scale}% and reduces recharge time by {Boost.Attrib.RechargeTime.Scale}%. This enhancement can only be slotted by Dominators and may be slotted into most control powers.",
  "display_short_help": "Set: Ascendency of the Dominator",
  "available_level": [
    0
  ],
  "source_file": "DEFS/POWERS/BOOSTS/SUPERIOR_ATTUNED_SUPERIOR_ASCENDENCY_OF_THE_DOMINATOR_B.POWERSETS",
  "requires": "",
  "power_names": [
    "Boosts.Superior_Attuned_Superior_Ascendency_of_the_Dominator_B.Superior_Attuned_Superior_Ascendency_of_the_Dominator_B"
  ],
  "power_display_names": [
    "Superior Ascendency of the Dominator: Control Duration/Recharge"
  ]
}