{
  "name": "Attuned_Enfeebled_Operation_C",
  "display_name": "Attuned Enfeebled Operation C",
  "display_fullname": "Boosts.Attuned Enfeebled Operation C",
  "display_help": "Enhances the accuracy by {Boost.Attrib.Accuracy.Scale}% and reduces the endurance cost of a power by {Boost.Attrib.Endurance.Scale}%.",
  "display_short_help": "Set: Enfeebled Operation",
  "available_level": [
    0
  ],
  "source_file": "DEFS/POWERS/BOOSTS/ATTUNED_ENFEEBLED_OPERATION_C.POWERSETS",
  "requires": "",
  "power_names": [
    "Boosts.Attuned_Enfeebled_Operation_C.Attuned_Enfeebled_Operation_C"
  ],
  "power_display_names": [
    "Enfeebled Operation: Accuracy/Endurance"
  ]
}