{
  "name": "Prophet",
  "display_name": "Prophet",
  "display_fullname": "PraetorianShepherds.Prophet",
  "display_help": "Praetorian Shepherds Attacks",
  "display_short_help": "Praetorian Shepherds Attacks",
  "available_level": [
    0,
    0,
    0,
    0,
    15,
    27
  ],
  "source_file": "DEFS/POWERS/PRAETORIANSHEPHERDS/PROPHET.POWERSETS",
  "requires": "",
  "power_names": [
    "PraetorianShepherds.Prophet.Hack",
    "PraetorianShepherds.Prophet.Slash",
    "PraetorianShepherds.Prophet.Whirling_Sword",
    "PraetorianShepherds.Prophet.Tar_Patch",
    "PraetorianShepherds.Prophet.Tenebrous_Tentacles",
    "PraetorianShepherds.Prophet.World_of_Pain"
  ],
  "power_display_names": [
    "Hack",
    "Slash",
    "Whirling Sword",
    "Tar Patch",
    "Tenebrous Tentacles",
    "World of Pain"
  ]
}