{
  "name": "Mu_Large_Attack",
  "display_name": "Mu_Large_Attack",
  "display_fullname": "V Arachnos.Mu Large Attack",
  "display_help": "Arachnos",
  "display_short_help": "Arachnos",
  "available_level": [
    0
  ],
  "source_file": "DEFS/POWERS/V_ARACHNOS/MU_LARGE_ATTACK.POWERSETS",
  "requires": "",
  "power_names": [
    "V_Arachnos.Mu_Large_Attack.Lightning_Blast"
  ],
  "power_display_names": [
    "Lightning Blast"
  ]
}