{
  "name": "Thug_Lt",
  "display_name": "Thug Lieutenant",
  "display_fullname": "Mission Maker Pets.Thug Lieutenant",
  "display_help": "Thugs",
  "display_short_help": "Thugs",
  "available_level": [
    0,
    0,
    0,
    0,
    0,
    0,
    5,
    5,
    5,
    31,
    31,
    31,
    31
  ],
  "source_file": "DEFS/POWERS/MISSION_MAKER_PETS/THUG_LT.POWERSETS",
  "requires": "",
  "power_names": [
    "Mission_Maker_Pets.Thug_Lt.Resistance",
    "Mission_Maker_Pets.Thug_Lt.Brawl",
    "Mission_Maker_Pets.Thug_Lt.Maneuvers",
    "Mission_Maker_Pets.Thug_Lt.Super_Leap",
    "Mission_Maker_Pets.Thug_Lt.UZI_Burst",
    "Mission_Maker_Pets.Thug_Lt.UZI_Heavy_Burst",
    "Mission_Maker_Pets.Thug_Lt.UZI_Cone_Blast",
    "Mission_Maker_Pets.Thug_Lt.Tactics",
    "Mission_Maker_Pets.Thug_Lt.Equipped",
    "Mission_Maker_Pets.Thug_Lt.Dual_UZIs",
    "Mission_Maker_Pets.Thug_Lt.Blast_Clip",
    "Mission_Maker_Pets.Thug_Lt.Assault",
    "Mission_Maker_Pets.Thug_Lt.Upgraded"
  ],
  "power_display_names": [
    "Resistance",
    "Brawl",
    "Maneuvers",
    "Super Leap",
    "UZI Burst",
    "UZI Heavy Burst",
    "UZI Cone Blast",
    "Tactics",
    "Equip",
    "Dual UZIs",
    "Blast Clip",
    "Assault",
    "Upgrade Equipment"
  ]
}