{
  "name": "Fifth_Column_Requiem_Melee",
  "display_name": "Fifth_Column_Requiem_Melee",
  "display_fullname": "5thColumn.Fifth Column Requiem Melee",
  "display_help": "5th Column",
  "display_short_help": "5th Column",
  "available_level": [
    0,
    0,
    0
  ],
  "source_file": "DEFS/POWERS/5THCOLUMN/FIFTH_COLUMN_REQUIEM_MELEE.POWERSETS",
  "requires": "",
  "power_names": [
    "5thColumn.Fifth_Column_Requiem_Melee.Shadow_Punch",
    "5thColumn.Fifth_Column_Requiem_Melee.Smite",
    "5thColumn.Fifth_Column_Requiem_Melee.Shadow_Maul"
  ],
  "power_display_names": [
    "Shadow Punch",
    "Smite",
    "Shadow Maul"
  ]
}