{
  "name": "Ms_Liberty_Low",
  "display_name": "Ms. Liberty",
  "display_fullname": "V Vindicators.Ms. Liberty",
  "display_help": "Ms. Liberty",
  "display_short_help": "Ms. Liberty",
  "available_level": [
    0,
    0,
    0,
    0,
    0,
    0,
    0,
    0,
    0,
    0,
    0,
    0
  ],
  "source_file": "DEFS/POWERS/V_VINDICATORS/MS_LIBERTY_LOW.POWERSETS",
  "requires": "",
  "power_names": [
    "V_Vindicators.Ms_Liberty_Low.Thunder_Kick",
    "V_Vindicators.Ms_Liberty_Low.Storm_Kick",
    "V_Vindicators.Ms_Liberty_Low.Cobra_Strike",
    "V_Vindicators.Ms_Liberty_Low.Crane_Kick",
    "V_Vindicators.Ms_Liberty_Low.Crippling_Axe_Kick",
    "V_Vindicators.Ms_Liberty_Low.Eagles_Claw",
    "V_Vindicators.Ms_Liberty_Low.Temp_Invulnerability",
    "V_Vindicators.Ms_Liberty_Low.Dull_Pain",
    "V_Vindicators.Ms_Liberty_Low.Lightning_Bolt",
    "V_Vindicators.Ms_Liberty_Low.Thunder_Strike",
    "V_Vindicators.Ms_Liberty_Low.Super_Leap",
    "V_Vindicators.Ms_Liberty_Low.Resistance"
  ],
  "power_display_names": [
    "Thunder Kick",
    "Storm Kick",
    "Cobra Strike",
    "Crane Kick",
    "Crippling Axe Kick",
    "Eagles Claw",
    "Temp Invulnerability",
    "Dull Pain",
    "Lightning Bolt",
    "Thunder Strike",
    "Super Leap",
    "Resistance"
  ]
}