{
  "name": "Attuned_Javelin_Volley_A",
  "display_name": "Attuned Javelin Volley A",
  "display_fullname": "Boosts.Attuned Javelin Volley A",
  "display_help": "Enhances the damage of a power by {Boost.Attrib.Damage.Scale}% and accuracy by {Boost.Attrib.Accuracy.Scale}%. NOTE: This is a PvP enhancement, this type of enhancement has two groups of set bonuses. You get the set bonuses not marked \"(PvP)\" while experiencing PvE content, but you get both the PvP set bonuses and the PvE set bonuses when fighting players.",
  "display_short_help": "Set: Javelin Volley",
  "available_level": [
    0
  ],
  "source_file": "DEFS/POWERS/BOOSTS/ATTUNED_JAVELIN_VOLLEY_A.POWERSETS",
  "requires": "",
  "power_names": [
    "Boosts.Attuned_Javelin_Volley_A.Attuned_Javelin_Volley_A"
  ],
  "power_display_names": [
    "Javelin Volley: Damage/Accuracy"
  ]
}