{
  "name": "Zombie_Boss",
  "display_name": "",
  "display_fullname": "Zombies.Zombie Boss",
  "display_help": "Zombies",
  "display_short_help": "Zombies",
  "available_level": [
    0,
    0
  ],
  "source_file": "DEFS/POWERS/ZOMBIES/ZOMBIE_BOSS.POWERSETS",
  "requires": "",
  "power_names": [
    "Zombies.Zombie_Boss.Chill_of_the_Night",
    "Zombies.Zombie_Boss.Resistance"
  ],
  "power_display_names": [
    "Chill of the Night",
    "Resistance"
  ]
}