{
  "name": "Attuned_Befuddling_Aura_C",
  "display_name": "Attuned Befuddling Aura C",
  "display_fullname": "Boosts.Attuned Befuddling Aura C",
  "display_help": "Enhances the accuracy by {Boost.Attrib.Accuracy.Scale}% and reduces the endurance cost of a power by {Boost.Attrib.Endurance.Scale}%.",
  "display_short_help": "Set: Befuddling Aura",
  "available_level": [
    0
  ],
  "source_file": "DEFS/POWERS/BOOSTS/ATTUNED_BEFUDDLING_AURA_C.POWERSETS",
  "requires": "",
  "power_names": [
    "Boosts.Attuned_Befuddling_Aura_C.Attuned_Befuddling_Aura_C"
  ],
  "power_display_names": [
    "Befuddling Aura: Accuracy/Endurance"
  ]
}