{
  "name": "Malignant_Seedling",
  "display_name": "Malignant_Seedling",
  "display_fullname": "DevouringEarth.Malignant Seedling",
  "display_help": "Seedborne",
  "display_short_help": "Seedborne",
  "available_level": [
    0,
    0,
    0
  ],
  "source_file": "DEFS/POWERS/DEVOURINGEARTH/MALIGNANT_SEEDLING.POWERSETS",
  "requires": "",
  "power_names": [
    "DevouringEarth.Malignant_Seedling.Bullrush",
    "DevouringEarth.Malignant_Seedling.Thorn_Blast",
    "DevouringEarth.Malignant_Seedling.Ectoplasmic_Burst"
  ],
  "power_display_names": [
    "Bullrush",
    "Thorn Blast",
    "Ectoplasmic Burst"
  ]
}