{
  "name": "Scientist_Lt_Heavy_Rifle",
  "display_name": "Scientist_Lt_Heavy_Rifle",
  "display_fullname": "Crey.Scientist Lt Heavy Rifle",
  "display_help": "Crey",
  "display_short_help": "Crey",
  "available_level": [
    0
  ],
  "source_file": "DEFS/POWERS/CREY/SCIENTIST_LT_HEAVY_RIFLE.POWERSETS",
  "requires": "",
  "power_names": [
    "Crey.Scientist_Lt_Heavy_Rifle.Heavy_Cryo_Rifle"
  ],
  "power_display_names": [
    "Heavy Cryo Rifle"
  ]
}