{
  "name": "Crafted_Horror_B",
  "display_name": "Crafted Horror B",
  "display_fullname": "Boosts.Crafted Horror B",
  "display_help": "Enhances the fear duration of a power by {Boost.Attrib.Mez.Scale}% and reduces the endurance cost of a power by {Boost.Attrib.Endurance.Scale}%.",
  "display_short_help": "Set: Horror",
  "available_level": [
    0
  ],
  "source_file": "DEFS/POWERS/BOOSTS/CRAFTED_HORROR_B.POWERSETS",
  "requires": "",
  "power_names": [
    "Boosts.Crafted_Horror_B.Crafted_Horror_B"
  ],
  "power_display_names": [
    "Horror: Endurance/Fear"
  ]
}