{
  "name": "Spectral_Decoy",
  "display_name": "Spectral Decoy",
  "display_fullname": "V Vindicators.Spectral Decoy",
  "display_help": "Malaise",
  "display_short_help": "Malaise",
  "available_level": [
    0,
    0,
    0,
    0
  ],
  "source_file": "DEFS/POWERS/V_VINDICATORS/SPECTRAL_DECOY.POWERSETS",
  "requires": "",
  "power_names": [
    "V_Vindicators.Spectral_Decoy.Decoy",
    "V_Vindicators.Spectral_Decoy.Shadow_Punch",
    "V_Vindicators.Spectral_Decoy.Smite",
    "V_Vindicators.Spectral_Decoy.Dark_Blast"
  ],
  "power_display_names": [
    "Decoy",
    "Shadow Punch",
    "Smite",
    "Dark Blast"
  ]
}