{
  "name": "Electric_Control",
  "display_name": "Electric Control",
  "display_fullname": "Mission Maker Secondary.Electric Control",
  "display_help": "Electricity leaps and sparks at your command. You can use raw electrical power to paralyze, knockdown and drain the endurance of foes.",
  "display_short_help": "Electric Control",
  "available_level": [
    0,
    0,
    1,
    5,
    7,
    11,
    17,
    25,
    31
  ],
  "source_file": "DEFS/POWERS/MISSION_MAKER_SECONDARY/ELECTRIC_CONTROL.POWERSETS",
  "requires": "",
  "power_names": [
    "Mission_Maker_Secondary.Electric_Control.Electric_Fence",
    "Mission_Maker_Secondary.Electric_Control.Tesla_Cage",
    "Mission_Maker_Secondary.Electric_Control.Chain_Fences",
    "Mission_Maker_Secondary.Electric_Control.Jolting_Chain",
    "Mission_Maker_Secondary.Electric_Control.Stunning_Aura",
    "Mission_Maker_Secondary.Electric_Control.Static_Field",
    "Mission_Maker_Secondary.Electric_Control.Paralyzing_Blast",
    "Mission_Maker_Secondary.Electric_Control.Synaptic_Overload",
    "Mission_Maker_Secondary.Electric_Control.Gremlins"
  ],
  "power_display_names": [
    "Electric Fence",
    "Tesla Cage",
    "Chain Fences",
    "Jolting Chain",
    "Conductive Aura",
    "Static Field",
    "Paralyzing Blast",
    "Synaptic Overload",
    "Gremlins"
  ]
}