{
  "name": "ViciousStrike_Heal_NBActive",
  "display_name": "Vicious Strike Primal Heal",
  "display_fullname": "Primalist Misc.Vicious Strike Primal Heal",
  "display_help": "Feral Might",
  "display_short_help": "Feral Might",
  "available_level": [
    0
  ],
  "source_file": "DEFS/POWERS/PRIMALIST_MISC/VICIOUSSTRIKE_HEAL_NBACTIVE.POWERSETS",
  "requires": "",
  "power_names": [
    "Primalist_Misc.ViciousStrike_Heal_NBActive.Vicious_Strike_Primal_Heal"
  ],
  "power_display_names": [
    "Vicious Strike Primal Heal"
  ]
}