{
  "name": "Hydra_Man_Defense",
  "display_name": "Hydra_Man_Defense",
  "display_fullname": "Hydra.Hydra Man Defense",
  "display_help": "Hydra",
  "display_short_help": "Hydra",
  "available_level": [
    0
  ],
  "source_file": "DEFS/POWERS/HYDRA/HYDRA_MAN_DEFENSE.POWERSETS",
  "requires": "",
  "power_names": [
    "Hydra.Hydra_Man_Defense.Resistance"
  ],
  "power_display_names": [
    "Resistance"
  ]
}