{
  "name": "Crafted_Triage_D",
  "display_name": "Crafted Triage D",
  "display_fullname": "Boosts.Crafted Triage D",
  "display_help": "Enhances the healing potential and damage absorption of a power by {Boost.Attrib.Heal.Scale}%, reduces the endurance cost of a power by {Boost.Attrib.Endurance.Scale}% and recharge time by {Boost.Attrib.RechargeTime.Scale}%.",
  "display_short_help": "Set: Triage",
  "available_level": [
    0
  ],
  "source_file": "DEFS/POWERS/BOOSTS/CRAFTED_TRIAGE_D.POWERSETS",
  "requires": "",
  "power_names": [
    "Boosts.Crafted_Triage_D.Crafted_Triage_D"
  ],
  "power_display_names": [
    "Triage: Healing/Absorb/Endurance/Recharge"
  ]
}