{
  "name": "Malaise_minion_Bat",
  "display_name": "Malaise_minion_Bat",
  "display_fullname": "Praetorians.Malaise minion Bat",
  "display_help": "Praetorians",
  "display_short_help": "Praetorians",
  "available_level": [
    0
  ],
  "source_file": "DEFS/POWERS/PRAETORIANS/MALAISE_MINION_BAT.POWERSETS",
  "requires": "",
  "power_names": [
    "Praetorians.Malaise_minion_Bat.Baseball_Bat"
  ],
  "power_display_names": [
    "Baseball Bat"
  ]
}