{
  "name": "Natural_Magic_Fly",
  "display_name": "Natural Magic Fly",
  "display_fullname": "Boosts.Natural Magic Fly",
  "display_help": "Increases the flight speed of a flight power.",
  "display_short_help": "Relic (Natural, Magic)",
  "available_level": [
    0
  ],
  "source_file": "DEFS/POWERS/BOOSTS/NATURAL_MAGIC_FLY.POWERSETS",
  "requires": "",
  "power_names": [
    "Boosts.Natural_Magic_Fly.Natural_Magic_Fly"
  ],
  "power_display_names": [
    "Li Tieh Kuai's Gem (Fly)"
  ]
}