{
  "name": "Superior_Attuned_Superior_Kheldians_Grace_E",
  "display_name": "Superior Attuned Superior Kheldians Grace E",
  "display_fullname": "Boosts.Superior Attuned Kheldians Grace E",
  "display_help": "UNIQUE -- No more than 1 enhancement of this type may be slotted by a character. Enhances the accuracy of a power by {Boost.Attrib.Accuracy.Scale}%, damage by {Boost.Attrib.Damage.Scale}%, reduces endurance cost by {Boost.Attrib.Endurance.Scale}% and reduces recharge time by {Boost.Attrib.RechargeTime.Scale}%. This enhancement can only be slotted by Peacebringers and Warshades and may be slotted into any of their damage powers.",
  "display_short_help": "Set: Superior Kheldian's Grace",
  "available_level": [
    0
  ],
  "source_file": "DEFS/POWERS/BOOSTS/SUPERIOR_ATTUNED_SUPERIOR_KHELDIANS_GRACE_E.POWERSETS",
  "requires": "",
  "power_names": [
    "Boosts.Superior_Attuned_Superior_Kheldians_Grace_E.Superior_Attuned_Superior_Kheldians_Grace_E"
  ],
  "power_display_names": [
    "Superior Kheldian's Grace: Accuracy/Damage/Endurance/Recharge"
  ]
}