{
  "name": "Drop_Zone_FX",
  "display_name": "Drop Zone FX",
  "display_fullname": "V Arachnos.Drop Zone FX",
  "display_help": "Arachnos",
  "display_short_help": "Arachnos",
  "available_level": [
    0
  ],
  "source_file": "DEFS/POWERS/V_ARACHNOS/DROP_ZONE_FX.POWERSETS",
  "requires": "",
  "power_names": [
    "V_Arachnos.Drop_Zone_FX.SummonFX"
  ],
  "power_display_names": [
    "SummonFX"
  ]
}