{
  "name": "DrVahzilok_Melee",
  "display_name": "DrVahzilok_Melee",
  "display_fullname": "Vahzilok.DrVahzilok Melee",
  "display_help": "Vahzilok",
  "display_short_help": "Vahzilok",
  "available_level": [
    0
  ],
  "source_file": "DEFS/POWERS/VAHZILOK/DRVAHZILOK_MELEE.POWERSETS",
  "requires": "",
  "power_names": [
    "Vahzilok.DrVahzilok_Melee.Scalpel"
  ],
  "power_display_names": [
    "Scalpel"
  ]
}