{
  "name": "Sorceress_Serene",
  "display_name": "Sorceress_Serene",
  "display_fullname": "TalonsOfVengeance.Sorceress Serene",
  "display_help": "Talons of Vengeance",
  "display_short_help": "Talons of Vengeance",
  "available_level": [
    0,
    0,
    0,
    0,
    0
  ],
  "source_file": "DEFS/POWERS/TALONSOFVENGEANCE/SORCERESS_SERENE.POWERSETS",
  "requires": "",
  "power_names": [
    "TalonsOfVengeance.Sorceress_Serene.Fireball",
    "TalonsOfVengeance.Sorceress_Serene.Harvest_Blades",
    "TalonsOfVengeance.Sorceress_Serene.Autumnal_Equinox",
    "TalonsOfVengeance.Sorceress_Serene.Antipodal_Strike",
    "TalonsOfVengeance.Sorceress_Serene.Resistance"
  ],
  "power_display_names": [
    "Fireball",
    "Harvest Blades",
    "Autumnal Equinox",
    "Antipodal Strike",
    "Autumn's Embrace"
  ]
}