{
  "name": "Chain_Jolt_Dominator_Jump1",
  "display_name": "Chain Jolt Jump 1",
  "display_fullname": "Villain Pets.Chain Jolt Jump 1",
  "display_help": "Chain Jolt Jump 1",
  "display_short_help": "Chain Jolt Jump 1",
  "available_level": [
    0
  ],
  "source_file": "DEFS/POWERS/VILLAIN_PETS/CHAIN_JOLT_DOMINATOR_JUMP1.POWERSETS",
  "requires": "",
  "power_names": [
    "Villain_Pets.Chain_Jolt_Dominator_Jump1.Charge"
  ],
  "power_display_names": [
    "Charge"
  ]
}