{
  "name": "Spawn_Ghosts_Slowly",
  "display_name": "Spawn_Ghosts_Slowly",
  "display_fullname": "CroatoaGhosts.Spawn Ghosts Slowly",
  "display_help": "Object",
  "display_short_help": "Object",
  "available_level": [
    0
  ],
  "source_file": "DEFS/POWERS/CROATOAGHOSTS/SPAWN_GHOSTS_SLOWLY.POWERSETS",
  "requires": "",
  "power_names": [
    "CroatoaGhosts.Spawn_Ghosts_Slowly.Spawn_Ghosts"
  ],
  "power_display_names": [
    "Spawn Ghosts"
  ]
}