{
  "name": "PPD_Controller",
  "display_name": "PPD Controller",
  "display_fullname": "V ParagonPolice.PPD Controller",
  "display_help": "Paragon Police",
  "display_short_help": "Paragon Police",
  "available_level": [
    0,
    0,
    0,
    0,
    0,
    0
  ],
  "source_file": "DEFS/POWERS/V_PARAGONPOLICE/PPD_CONTROLLER.POWERSETS",
  "requires": "",
  "power_names": [
    "V_ParagonPolice.PPD_Controller.Mental_Blast",
    "V_ParagonPolice.PPD_Controller.Dominate",
    "V_ParagonPolice.PPD_Controller.Scramble_Thoughts",
    "V_ParagonPolice.PPD_Controller.Psychic_Wail",
    "V_ParagonPolice.PPD_Controller.Mass_Hypnosis",
    "V_ParagonPolice.PPD_Controller.Mass_Confusion"
  ],
  "power_display_names": [
    "Mental Blast",
    "Dominate",
    "Scramble Thoughts",
    "Psychic Wail",
    "Mass Hypnosis",
    "Mass Confusion"
  ]
}