{
  "name": "Fifth_Column_Nightwolf_Lt_Transform",
  "display_name": "Fifth_Column_Nightwolf_Lt_Transform",
  "display_fullname": "5thColumn.Fifth Column Nightwolf Lt Transform",
  "display_help": "5th Column",
  "display_short_help": "5th Column",
  "available_level": [
    0
  ],
  "source_file": "DEFS/POWERS/5THCOLUMN/FIFTH_COLUMN_NIGHTWOLF_LT_TRANSFORM.POWERSETS",
  "requires": "",
  "power_names": [
    "5thColumn.Fifth_Column_Nightwolf_Lt_Transform.Lycanthropy"
  ],
  "power_display_names": [
    "Lycanthropy"
  ]
}