{
  "name": "PPD_Heracles",
  "display_name": "PPD Heracles",
  "display_fullname": "V ParagonPolice.PPD Heracles",
  "display_help": "Paragon Police",
  "display_short_help": "Paragon Police",
  "available_level": [
    0,
    0,
    0,
    0,
    0,
    0
  ],
  "source_file": "DEFS/POWERS/V_PARAGONPOLICE/PPD_HERACLES.POWERSETS",
  "requires": "",
  "power_names": [
    "V_ParagonPolice.PPD_Heracles.Tear_Gas",
    "V_ParagonPolice.PPD_Heracles.Grenade",
    "V_ParagonPolice.PPD_Heracles.Plasma_Blast",
    "V_ParagonPolice.PPD_Heracles.Seeker_Drones",
    "V_ParagonPolice.PPD_Heracles.Barrage",
    "V_ParagonPolice.PPD_Heracles.Resistances"
  ],
  "power_display_names": [
    "Tear Gas",
    "Grenade",
    "Plasma Blast",
    "Seeker Drones",
    "Barrage",
    "Resistances"
  ]
}