{
  "name": "Hamidon_Buff_Endurance_Discount",
  "display_name": "Hamidon Buff Endurance Discount",
  "display_fullname": "Boosts.Hamidon Buff Endurance Discount",
  "display_help": "Enhances the effectiveness of accuracy and defense buffs and reduces the endurance cost of a power.",
  "display_short_help": "Hamidon (All Origins)",
  "available_level": [
    0
  ],
  "source_file": "DEFS/POWERS/BOOSTS/HAMIDON_BUFF_ENDURANCE_DISCOUNT.POWERSETS",
  "requires": "",
  "power_names": [
    "Boosts.Hamidon_Buff_Endurance_Discount.Hamidon_Buff_Endurance_Discount"
  ],
  "power_display_names": [
    "Cytoskeleton Exposure (End/ToHit/Def)"
  ]
}