{
  "name": "Crafted_Sleep_45",
  "display_name": "Crafted Sleep 45",
  "display_fullname": "Boosts.Crafted Sleep 45",
  "display_help": "Increases sleep duration by {Boost.Attrib.Mez.Scale}%.",
  "display_short_help": "Invention",
  "available_level": [
    0
  ],
  "source_file": "DEFS/POWERS/BOOSTS/CRAFTED_SLEEP_45.POWERSETS",
  "requires": "",
  "power_names": [
    "Boosts.Crafted_Sleep_45.Crafted_Sleep_45"
  ],
  "power_display_names": [
    "Invention: Sleep Duration"
  ]
}