{
  "name": "Malta_Mission_Kronos_Defense",
  "display_name": "Malta_Mission_Kronos_Defense",
  "display_fullname": "Malta.Malta Mission Kronos Defense",
  "display_help": "Malta Group",
  "display_short_help": "Malta Group",
  "available_level": [
    0
  ],
  "source_file": "DEFS/POWERS/MALTA/MALTA_MISSION_KRONOS_DEFENSE.POWERSETS",
  "requires": "",
  "power_names": [
    "Malta.Malta_Mission_Kronos_Defense.Resistance"
  ],
  "power_display_names": [
    "Resistance"
  ]
}