{
  "name": "Tech_Light_Energy_Beam_Turret",
  "display_name": "Tech_Light_Energy_Beam_Turret",
  "display_fullname": "Base Defenses.Tech Light Energy Beam Turret",
  "display_help": "Base Defenses",
  "display_short_help": "Base Defenses",
  "available_level": [
    0
  ],
  "source_file": "DEFS/POWERS/BASE_DEFENSES/TECH_LIGHT_ENERGY_BEAM_TURRET.POWERSETS",
  "requires": "",
  "power_names": [
    "Base_Defenses.Tech_Light_Energy_Beam_Turret.Energy_Beam"
  ],
  "power_display_names": [
    "Energy Beam"
  ]
}