{
  "name": "Fire_Blaster_High",
  "display_name": "Fire Blaster High",
  "display_fullname": "V GenericHeroes.Fire Blaster High",
  "display_help": "Hero",
  "display_short_help": "Hero",
  "available_level": [
    0
  ],
  "source_file": "DEFS/POWERS/V_GENERICHEROES/FIRE_BLASTER_HIGH.POWERSETS",
  "requires": "",
  "power_names": [
    "V_GenericHeroes.Fire_Blaster_High.Blaze"
  ],
  "power_display_names": [
    "Blaze"
  ]
}