{
  "name": "Water_Spout",
  "display_name": "Water Spout",
  "display_fullname": "Villain Pets.Water Spout",
  "display_help": "Leviathan Mastery",
  "display_short_help": "Leviathan Mastery",
  "available_level": [
    0,
    0,
    0,
    0,
    0
  ],
  "source_file": "DEFS/POWERS/VILLAIN_PETS/WATER_SPOUT.POWERSETS",
  "requires": "",
  "power_names": [
    "Villain_Pets.Water_Spout.Water_Spout",
    "Villain_Pets.Water_Spout.Water_Spout_Attack",
    "Villain_Pets.Water_Spout.Water_Spout_Fear",
    "Villain_Pets.Water_Spout.Self_Destruct",
    "Villain_Pets.Water_Spout.Invisible"
  ],
  "power_display_names": [
    "Water Spout",
    "Tornado",
    "Water Spout Fear",
    "Self Destruct",
    "Invisible"
  ]
}