{
  "name": "Tub_Ci",
  "display_name": "Tub Ci",
  "display_fullname": "Tsoo.Tub Ci",
  "display_help": "Tsoo",
  "display_short_help": "Tsoo",
  "available_level": [
    0,
    0,
    0,
    0,
    0,
    0,
    0,
    0,
    0,
    0,
    0,
    0,
    0,
    0,
    0,
    0,
    0
  ],
  "source_file": "DEFS/POWERS/TSOO/TUB_CI.POWERSETS",
  "requires": "",
  "power_names": [
    "Tsoo.Tub_Ci.Thunder_Kick",
    "Tsoo.Tub_Ci.Storm_Kick",
    "Tsoo.Tub_Ci.Cobra_Strike",
    "Tsoo.Tub_Ci.Crane_Kick",
    "Tsoo.Tub_Ci.Crippling_Axe_Kick",
    "Tsoo.Tub_Ci.Eagles_Claw",
    "Tsoo.Tub_Ci.Temp_Invulnerability",
    "Tsoo.Tub_Ci.Dull_Pain",
    "Tsoo.Tub_Ci.Unstoppable",
    "Tsoo.Tub_Ci.Aimed_Shot",
    "Tsoo.Tub_Ci.Fistful_of_Arrows",
    "Tsoo.Tub_Ci.Blazing_Arrow",
    "Tsoo.Tub_Ci.Explosive_Arrow",
    "Tsoo.Tub_Ci.Rain_of_Arrows",
    "Tsoo.Tub_Ci.Fly",
    "Tsoo.Tub_Ci.Fly_fx",
    "Tsoo.Tub_Ci.Resistance"
  ],
  "power_display_names": [
    "Thunder Kick",
    "Storm Kick",
    "Cobra Strike",
    "Crane Kick",
    "Crippling Axe Kick",
    "Eagles Claw",
    "Temp Invulnerability",
    "Dull Pain",
    "Unstoppable",
    "Aimed Shot",
    "Fistful of Arrows",
    "Blazing Arrow",
    "Explosive Arrow",
    "Rain of Arrows",
    "Fly",
    "Fly fx",
    "Resistance"
  ]
}