{
  "name": "Tsoo",
  "display_name": "Tsoo",
  "source_file": "DEFS/POWERS/TSOO.CATEGORIES",
  "archetypes": [
    "lt_grunt",
    "minion_pets"
  ],
  "display_help": null,
  "display_short_help": null,
  "powerset_names": [
    "tsoo.bronzeleopard",
    "tsoo.chi_master",
    "tsoo.cov_ancestral_spirit",
    "tsoo.cov_copperserpent_high",
    "tsoo.cov_crescent_high",
    "tsoo.cov_farfire_high",
    "tsoo.cov_herald_high",
    "tsoo.cov_minion_high",
    "tsoo.copperserpent",
    "tsoo.crescent",
    "tsoo.deathmoon",
    "tsoo.deathshead",
    "tsoo.dragonfly",
    "tsoo.endgame_bs_kinetic",
    "tsoo.endgame_bs_skyfall",
    "tsoo.endgame_bs_sorcerer",
    "tsoo.endgame_bs_staff",
    "tsoo.endgame_lt_archer",
    "tsoo.endgame_lt_crescent",
    "tsoo.endgame_lt_herald",
    "tsoo.endgame_lt_katana",
    "tsoo.endgame_lt_sorcerer",
    "tsoo.endgame_lt_spirit",
    "tsoo.endgame_mn_farfire",
    "tsoo.endgame_mn_serpent",
    "tsoo.endgame_minion",
    "tsoo.endgame_tubci",
    "tsoo.farfire",
    "tsoo.firedagger",
    "tsoo.herald",
    "tsoo.icewind",
    "tsoo.ironhands",
    "tsoo.lightningblade",
    "tsoo.lostson",
    "tsoo.midnight",
    "tsoo.poisongasarrow",
    "tsoo.resistances",
    "tsoo.skyfall",
    "tsoo.swiftsteel",
    "tsoo.tsoo_ancestor_spirit_defense",
    "tsoo.tsoo_ancestor_spirit_melee",
    "tsoo.tsoo_ancestor_spirit_movement",
    "tsoo.tsoo_bow",
    "tsoo.tsoo_caltrops",
    "tsoo.tsoo_claws",
    "tsoo.tsoo_green_ink_melee",
    "tsoo.tsoo_inkmen_boss_defense",
    "tsoo.tsoo_kama",
    "tsoo.tsoo_katana",
    "tsoo.tsoo_ma",
    "tsoo.tsoo_movement",
    "tsoo.tsoo_red_ink_men_defense",
    "tsoo.tsoo_sai",
    "tsoo.tsoo_shuriken",
    "tsoo.tsoo_sorcerer_boost",
    "tsoo.tsoo_sorcerer_spirit_melee",
    "tsoo.tsoo_yellow_ink_men_ranged",
    "tsoo.tub_ci",
    "tsoo.viridianfear"
  ],
  "powerset_display_names": [
    "BronzeLeopard",
    "Chi Master",
    "CoV Ancestral Spirit",
    "CoV CopperSerpent High",
    "CoV Crescent High",
    "CoV FireFire_High",
    "CoV Herald High",
    "CoV Minion High",
    "CopperSerpent",
    "Crescent",
    "DeathMoon",
    "DeathsHead",
    "DragonFly",
    "Endgame_BS_Kinetic",
    "Endgame_BS_SkyFall",
    "Endgame_BS_Sorcerer",
    "Endgame_BS_Staff",
    "Endgame_LT_Archer",
    "Endgame_LT_Crescent",
    "Endgame_LT_Herald",
    "Endgame_LT_Katana",
    "Endgame_LT_Sorcerer",
    "Endgame_LT_Spirit",
    "Endgame_MN_FarFire",
    "Endgame_MN_Serpent",
    "Endgame Minion",
    "Endgame_TubCi",
    "FarFire",
    "FireDagger",
    "Herald",
    "IceWind",
    "IronHands",
    "LightningBlade",
    "LostSon",
    "Midnight",
    "Poison Gas Arrow",
    "Resistances",
    "SkyFall",
    "SwiftSteel",
    "Tsoo_Ancestor_Spirit_Defense",
    "Tsoo_Ancestor_Spirit_Melee",
    "Tsoo_Ancestor_Spirit_Movement",
    "Tsoo_Bow",
    "Tsoo_Caltrops",
    "Tsoo_Claws",
    "Tsoo_Green_Ink_Melee",
    "Tsoo_InkMen_Boss_Defense",
    "Tsoo_Kama",
    "Tsoo_Katana",
    "Tsoo_MA",
    "Tsoo_Movement",
    "Tsoo_Red_Ink_Men_Defense",
    "Tsoo_Sai",
    "Tsoo_Shuriken",
    "Tsoo_Sorcerer_Boost",
    "Tsoo_Sorcerer_Spirit_Melee",
    "Tsoo_Yellow_Ink_Men_Ranged",
    "Tub Ci",
    "ViridianFear"
  ]
}