{
  "name": "Crafted_Snare_30",
  "display_name": "Crafted Snare 30",
  "display_fullname": "Boosts.Crafted Snare 30",
  "display_help": "Increases slows by {Boost.Attrib.Movement.Scale}%.",
  "display_short_help": "Invention",
  "available_level": [
    0
  ],
  "source_file": "DEFS/POWERS/BOOSTS/CRAFTED_SNARE_30.POWERSETS",
  "requires": "",
  "power_names": [
    "Boosts.Crafted_Snare_30.Crafted_Snare_30"
  ],
  "power_display_names": [
    "Invention: Slow"
  ]
}