{
  "name": "Attuned_Crushing_Impact_F",
  "display_name": "Attuned Crushing Impact F",
  "display_fullname": "Boosts.Attuned Crushing Impact F",
  "display_help": "Enhances the damage by {Boost.Attrib.Damage.Scale}% reduces recharge time by {Boost.Attrib.RechargeTime.Scale}% and endurance costs by {Boost.Attrib.Endurance.Scale}% .",
  "display_short_help": "Set: Crushing Impact",
  "available_level": [
    0
  ],
  "source_file": "DEFS/POWERS/BOOSTS/ATTUNED_CRUSHING_IMPACT_F.POWERSETS",
  "requires": "",
  "power_names": [
    "Boosts.Attuned_Crushing_Impact_F.Attuned_Crushing_Impact_F"
  ],
  "power_display_names": [
    "Crushing Impact: Damage/Endurance/Recharge"
  ]
}