{
  "name": "Sigil_Resistance",
  "display_name": "Banner Resistance",
  "display_fullname": "Event.Banner Resistance",
  "display_help": "Resistance",
  "display_short_help": "Resistance",
  "available_level": [
    0
  ],
  "source_file": "DEFS/POWERS/EVENT/SIGIL_RESISTANCE.POWERSETS",
  "requires": "",
  "power_names": [
    "Event.Sigil_Resistance.Resistance"
  ],
  "power_display_names": [
    "Resistance"
  ]
}