{
  "name": "Tracker_Powers",
  "display_name": "Tracker Powers",
  "display_fullname": "P Seers.Tracker Powers",
  "display_help": "Tracker",
  "display_short_help": "Tracker",
  "available_level": [
    0,
    0
  ],
  "source_file": "DEFS/POWERS/P_SEERS/TRACKER_POWERS.POWERSETS",
  "requires": "",
  "power_names": [
    "P_Seers.Tracker_Powers.Psionic_Dart",
    "P_Seers.Tracker_Powers.Telekinetic_Blast"
  ],
  "power_display_names": [
    "Psionic Dart",
    "Telekinetic Blast"
  ]
}