{
  "name": "Crafted_Absolute_Amazement_E",
  "display_name": "Crafted Absolute Amazement E",
  "display_fullname": "Boosts.Crafted Absolute Amazement E",
  "display_help": "UNIQUE -- No more than 1 enhancement of this type may be slotted by a character. Enhances the Stun duration of a power by {Boost.Attrib.Mez.Scale}% and reduces the endurance cost by {Boost.Attrib.Endurance.Scale}%.",
  "display_short_help": "Set: Absolute Amazement",
  "available_level": [
    0
  ],
  "source_file": "DEFS/POWERS/BOOSTS/CRAFTED_ABSOLUTE_AMAZEMENT_E.POWERSETS",
  "requires": "",
  "power_names": [
    "Boosts.Crafted_Absolute_Amazement_E.Crafted_Absolute_Amazement_E"
  ],
  "power_display_names": [
    "Absolute Amazement: Stun Duration/Endurance Reduction"
  ]
}