{
  "name": "5thColumnEndgame_Fifth_Vampyr_Mesmerist",
  "gender": "GENDER_MALE",
  "description": "The Vampyri are not true vampires at all. They are instead the ultimate result of the 5th Column's super soldier program. It takes a full year of chemical treatments and surgical enhancements to create a single Vampyr, but the result is one of the most deadly killing machines in the world. All Vampyri have incredible strength, speed, and resilience. The Vampyr Mesmerist has potent hypnotic abilities that entrance enemies and render them helpless.",
  "group_description": null,
  "display_class_name": null,
  "character_class_name": "minion_praetoriangrunt",
  "ai_config": "5thColumn_Fifth_Vampyr_Base",
  "commandable_pet": false,
  "power_tags": [

  ],
  "additional_rewards": [

  ],
  "skill_hp_rewards": [

  ],
  "skill_status_rewards": [

  ],
  "ally": null,
  "gang": null,
  "reward_scale": 1.0,
  "game_exclusion": "None",
  "inactive_state_weapon": null,
  "ignores_combat_mods": false,
  "copy_creator_mods": false,
  "spawn_limit": -1,
  "spawn_limit_mission": -1,
  "ignore_av_to_eb_scaling": false,
  "can_zone": false,
  "custom_badge_stat": null,
  "badge_stat_flags": "DefaultBadgeStat",
  "rank": "VR_MINION",
  "power_full_names": [
    "5thColumn.Fifth_Column_Vampyri.Pummel",
    "5thColumn.Fifth_Column_Vampyri.Shadow_Punch",
    "5thColumn.Fifth_Column_Vampyri.Gloom",
    "5thColumn.Fifth_Column_Vampyri_Mesmerist.Mesmerize",
    "5thColumn.Fifth_Column_Vampyri_Mesmerist.Dominate",
    "5thColumn.Fifth_Column_Vampyri_Mesmerist.Reconstruction",
    "5thColumn.Fifth_Column_Vampyri_Defense.Fast_Healing"
  ],
  "power_display_names": [
    "Pummel",
    "Shadow Punch",
    "Gloom",
    "Mesmerize",
    "Dominate",
    "Reconstruction",
    "Fast Healing"
  ],
  "power_levels": [
    0,
    0,
    0,
    0,
    0,
    0,
    0
  ],
  "powers": [
    {
      "power_category": "5thColumn",
      "power_set": "Fifth_Column_Vampyri",
      "power": "*",
      "level": 0
    },
    {
      "power_category": "5thColumn",
      "power_set": "Fifth_Column_Vampyri_Mesmerist",
      "power": "*",
      "level": 0
    },
    {
      "power_category": "5thColumn",
      "power_set": "Fifth_Column_Vampyri_Defense",
      "power": "*",
      "level": 0
    }
  ],
  "levels": [
    {
      "level": 50,
      "experience": 0,
      "display_names": [
        "Vampyr Mesmerist"
      ],
      "costumes": [
        "5thVampyri_Endgame_01"
      ]
    },
    {
      "level": 51,
      "experience": 0,
      "display_names": [
        "Vampyr Mesmerist"
      ],
      "costumes": [
        "5thVampyri_Endgame_01"
      ]
    },
    {
      "level": 52,
      "experience": 0,
      "display_names": [
        "Vampyr Mesmerist"
      ],
      "costumes": [
        "5thVampyri_Endgame_01"
      ]
    },
    {
      "level": 53,
      "experience": 0,
      "display_names": [
        "Vampyr Mesmerist"
      ],
      "costumes": [
        "5thVampyri_Endgame_01"
      ]
    },
    {
      "level": 54,
      "experience": 0,
      "display_names": [
        "Vampyr Mesmerist"
      ],
      "costumes": [
        "5thVampyri_Endgame_01"
      ]
    }
  ]
}