{
  "name": "5thColumnEndgame_Fifth_Wolfpack_Lt",
  "gender": "GENDER_MALE",
  "description": "The Mk I Wolfpack Robot has been favorably compared to a battle tank when it comes to both firepower and resilience. The big difference is that the Mk I is controlled by an ingenious artificial intelligence that can capably command troops in the field. It carries enough firepower to take out heavily armored targets, and its own armor stands up to anything less than an anti-tank weapon.",
  "group_description": null,
  "display_class_name": null,
  "character_class_name": "lt_praetoriangrunt",
  "ai_config": "Default_Ranged",
  "commandable_pet": false,
  "power_tags": [

  ],
  "additional_rewards": [

  ],
  "skill_hp_rewards": [

  ],
  "skill_status_rewards": [

  ],
  "ally": null,
  "gang": null,
  "reward_scale": 1.0,
  "game_exclusion": "None",
  "inactive_state_weapon": null,
  "ignores_combat_mods": false,
  "copy_creator_mods": false,
  "spawn_limit": -1,
  "spawn_limit_mission": -1,
  "ignore_av_to_eb_scaling": false,
  "can_zone": false,
  "custom_badge_stat": null,
  "badge_stat_flags": "DefaultBadgeStat",
  "rank": "VR_LIEUTENANT",
  "power_full_names": [
    "5thColumn.Fifth_Column_Wolfpack_Melee.Pummel",
    "5thColumn.Fifth_Column_Wolfpack_Ranged.Power_Blast",
    "5thColumn.Fifth_Column_Wolfpack_Ranged.Missile_Launch",
    "5thColumn.Fifth_Column_Wolfpack_Defense.Resistance",
    "5thColumn.Fifth_Column_Robot_Defense.Resistance"
  ],
  "power_display_names": [
    "Pummel",
    "Power Blast",
    "Missile Launch",
    "Resistance",
    "Resistance"
  ],
  "power_levels": [
    0,
    0,
    0,
    0,
    0
  ],
  "powers": [
    {
      "power_category": "5thColumn",
      "power_set": "Fifth_Column_Wolfpack_Melee",
      "power": "*",
      "level": 0
    },
    {
      "power_category": "5thColumn",
      "power_set": "Fifth_Column_Wolfpack_Ranged",
      "power": "*",
      "level": 0
    },
    {
      "power_category": "5thColumn",
      "power_set": "Fifth_Column_Wolfpack_Defense",
      "power": "*",
      "level": 0
    },
    {
      "power_category": "5thColumn",
      "power_set": "Fifth_Column_Robot_Defense",
      "power": "*",
      "level": 0
    }
  ],
  "levels": [
    {
      "level": 50,
      "experience": 0,
      "display_names": [
        "Mk I Wolfpack Robot"
      ],
      "costumes": [
        "5thWolfpack"
      ]
    },
    {
      "level": 51,
      "experience": 0,
      "display_names": [
        "Mk I Wolfpack Robot"
      ],
      "costumes": [
        "5thWolfpack"
      ]
    },
    {
      "level": 52,
      "experience": 0,
      "display_names": [
        "Mk I Wolfpack Robot"
      ],
      "costumes": [
        "5thWolfpack"
      ]
    },
    {
      "level": 53,
      "experience": 0,
      "display_names": [
        "Mk I Wolfpack Robot"
      ],
      "costumes": [
        "5thWolfpack"
      ]
    },
    {
      "level": 54,
      "experience": 0,
      "display_names": [
        "Mk I Wolfpack Robot"
      ],
      "costumes": [
        "5thWolfpack"
      ]
    }
  ]
}