{
  "name": "5thColumn_Fury_Soldier_Martial_Arts",
  "gender": "GENDER_MALE",
  "description": "The Raserei are the pride and joy of the 5th Column's army. They represent the ideal to which all other followers of the cause should aspire. Not only are they disciplined, well-trained soldiers; they're also perfect students of the fascist beliefs that form the core of the 5th Column's ideology. Only those who have proven both their ability and loyalty are permitted to join the ranks of the Raserei.",
  "group_description": null,
  "display_class_name": null,
  "character_class_name": "minion_grunt",
  "ai_config": "5thColumn_Fog_Base",
  "commandable_pet": false,
  "power_tags": [

  ],
  "additional_rewards": [

  ],
  "skill_hp_rewards": [

  ],
  "skill_status_rewards": [

  ],
  "ally": null,
  "gang": null,
  "reward_scale": 1.0,
  "game_exclusion": "None",
  "inactive_state_weapon": null,
  "ignores_combat_mods": false,
  "copy_creator_mods": false,
  "spawn_limit": -1,
  "spawn_limit_mission": -1,
  "ignore_av_to_eb_scaling": false,
  "can_zone": false,
  "custom_badge_stat": null,
  "badge_stat_flags": "DefaultBadgeStat",
  "rank": "VR_MINION",
  "power_full_names": [
    "5thColumn.Fifth_Column_Soldier_MartialArts.Thunder_Kick",
    "5thColumn.Fifth_Column_Soldier_MartialArts.Crane_Kick",
    "5thColumn.Fifth_Column_Soldier_MartialArts.Crippling_Axe_Kick",
    "5thColumn.Fifth_Column_Pistol.Automatic_Pistol"
  ],
  "power_display_names": [
    "Thunder Kick",
    "Crane Kick",
    "Crippling Axe Kick",
    "Automatic Pistol"
  ],
  "power_levels": [
    0,
    0,
    0,
    0
  ],
  "powers": [
    {
      "power_category": "5thColumn",
      "power_set": "Fifth_Column_Soldier_MartialArts",
      "power": "*",
      "level": 0
    },
    {
      "power_category": "5thColumn",
      "power_set": "Fifth_Column_Pistol",
      "power": "*",
      "level": 0
    }
  ],
  "levels": [
    {
      "level": 15,
      "experience": 0,
      "display_names": [
        "Raserei Fist"
      ],
      "costumes": [
        "5thFog_40"
      ]
    },
    {
      "level": 16,
      "experience": 0,
      "display_names": [
        "Raserei Fist"
      ],
      "costumes": [
        "5thFog_40"
      ]
    },
    {
      "level": 17,
      "experience": 0,
      "display_names": [
        "Raserei Fist"
      ],
      "costumes": [
        "5thFog_40"
      ]
    },
    {
      "level": 18,
      "experience": 0,
      "display_names": [
        "Raserei Fist"
      ],
      "costumes": [
        "5thFog_40"
      ]
    },
    {
      "level": 19,
      "experience": 0,
      "display_names": [
        "Raserei Fist"
      ],
      "costumes": [
        "5thFog_40"
      ]
    }
  ]
}