{
  "name": "5thColumn_Reichsman_H",
  "gender": "GENDER_MALE",
  "description": "This Marcus Cole, from an alternate dimension, was a rogue and a mercenary who was exposed to mustard gas during World War I. In search of a cure for the effects of the gas, Marcus discovered the Well of the Furies. He drank from the well and was granted incredible powers. Adopting the persona of Reichsman, Marcus used these powers in the service of the Axis powers on his world, leading them to victory over their foes. When he discovered the existence of another Earth, he traveled there and was defeated and imprisoned by the Freedom Phalanx. Now he's back, and ready for revenge.",
  "group_description": null,
  "display_class_name": null,
  "character_class_name": "boss_reichsman",
  "ai_config": "Signatures_Melee",
  "commandable_pet": false,
  "power_tags": [
    "HumanSkeleton",
    "Human",
    "Raid"
  ],
  "additional_rewards": [

  ],
  "skill_hp_rewards": [

  ],
  "skill_status_rewards": [

  ],
  "ally": null,
  "gang": null,
  "reward_scale": 1.0,
  "game_exclusion": "None",
  "inactive_state_weapon": null,
  "ignores_combat_mods": false,
  "copy_creator_mods": false,
  "spawn_limit": -1,
  "spawn_limit_mission": -1,
  "ignore_av_to_eb_scaling": true,
  "can_zone": false,
  "custom_badge_stat": null,
  "badge_stat_flags": "DefaultBadgeStat",
  "rank": "VR_ARCHVILLAIN",
  "power_full_names": [
    "5thColumn.ReichsmanHeroEncounter.Jab",
    "5thColumn.ReichsmanHeroEncounter.Punch",
    "5thColumn.ReichsmanHeroEncounter.Haymaker",
    "5thColumn.ReichsmanHeroEncounter.Hand_Clap",
    "5thColumn.ReichsmanHeroEncounter.Knockout_Blow",
    "5thColumn.ReichsmanHeroEncounter.Sap_Will",
    "5thColumn.ReichsmanHeroEncounter.Hurl",
    "5thColumn.ReichsmanHeroEncounter.Foot_Stomp",
    "5thColumn.ReichsmanHeroEncounter.Fist_of_Tyranny",
    "5thColumn.ReichsmanHeroEncounter.Dull_Pain",
    "5thColumn.ReichsmanHeroEncounter.Unstoppable",
    "5thColumn.ReichsmanHeroEncounter.Resistance",
    "5thColumn.ReichsmanHeroEncounter.Fly",
    "5thColumn.ReichsmanHeroEncounter.Fly_fx",
    "5thColumn.ReichsmanHeroEncounter.Untouchable",
    "5thColumn.ReichsmanHeroEncounter.Aura_of_Domination",
    "5thColumn.ReichsmanHeroEncounter.Deafening_Shout",
    "5thColumn.ReichsmanHeroEncounter.Revoke_Powers"
  ],
  "power_display_names": [
    "Jab",
    "Punch",
    "Haymaker",
    "Hand Clap",
    "Knockout Blow",
    "Sap Will",
    "Hurl",
    "Foot Stomp",
    "Fist of Tyranny",
    "Dull Pain",
    "Unstoppable",
    "Resistance",
    "Fly",
    "Fly fx",
    "Untouchable",
    "Aura of Domination",
    "Corrupted Lightning Bolt",
    "Revoke Powers"
  ],
  "power_levels": [
    0,
    0,
    0,
    0,
    0,
    0,
    0,
    0,
    0,
    0,
    0,
    0,
    0,
    0,
    0,
    0,
    0,
    0
  ],
  "powers": [
    {
      "power_category": "5thColumn",
      "power_set": "ReichsmanHeroEncounter",
      "power": "*",
      "level": 0
    }
  ],
  "levels": [
    {
      "level": 45,
      "experience": 0,
      "display_names": [
        "Reichsman"
      ],
      "costumes": [
        "5th_Reichman_01"
      ]
    },
    {
      "level": 46,
      "experience": 0,
      "display_names": [
        "Reichsman"
      ],
      "costumes": [
        "5th_Reichman_01"
      ]
    },
    {
      "level": 47,
      "experience": 0,
      "display_names": [
        "Reichsman"
      ],
      "costumes": [
        "5th_Reichman_01"
      ]
    },
    {
      "level": 48,
      "experience": 0,
      "display_names": [
        "Reichsman"
      ],
      "costumes": [
        "5th_Reichman_01"
      ]
    },
    {
      "level": 49,
      "experience": 0,
      "display_names": [
        "Reichsman"
      ],
      "costumes": [
        "5th_Reichman_01"
      ]
    },
    {
      "level": 50,
      "experience": 0,
      "display_names": [
        "Reichsman"
      ],
      "costumes": [
        "5th_Reichman_01"
      ]
    },
    {
      "level": 51,
      "experience": 0,
      "display_names": [
        "Reichsman"
      ],
      "costumes": [
        "5th_Reichman_01"
      ]
    },
    {
      "level": 52,
      "experience": 0,
      "display_names": [
        "Reichsman"
      ],
      "costumes": [
        "5th_Reichman_01"
      ]
    },
    {
      "level": 53,
      "experience": 0,
      "display_names": [
        "Reichsman"
      ],
      "costumes": [
        "5th_Reichman_01"
      ]
    },
    {
      "level": 54,
      "experience": 0,
      "display_names": [
        "Reichsman"
      ],
      "costumes": [
        "5th_Reichman_01"
      ]
    }
  ]
}