{
  "name": "5thColumn_Fury_Elite_Chaingun",
  "gender": "GENDER_MALE",
  "description": "Elite members of the Raserei have not only proven their loyalty to the cause, they've also shown themselves capable of bringing new members into the fold. Only those who have achieved Elite status are allowed to interact directly with potential recruits. Their fanatical devotion ensures that they'll either convert the potential member, or kill him. Either way, the secrets of the 5th Column remain secure.",
  "group_description": null,
  "display_class_name": null,
  "character_class_name": "minion_grunt",
  "ai_config": "5thColumn_Fog_Base",
  "commandable_pet": false,
  "power_tags": [

  ],
  "additional_rewards": [

  ],
  "skill_hp_rewards": [

  ],
  "skill_status_rewards": [

  ],
  "ally": null,
  "gang": null,
  "reward_scale": 1.0,
  "game_exclusion": "None",
  "inactive_state_weapon": null,
  "ignores_combat_mods": false,
  "copy_creator_mods": false,
  "spawn_limit": -1,
  "spawn_limit_mission": -1,
  "ignore_av_to_eb_scaling": false,
  "can_zone": false,
  "custom_badge_stat": null,
  "badge_stat_flags": "DefaultBadgeStat",
  "rank": "VR_MINION",
  "power_full_names": [
    "5thColumn.Fifth_Column_Soldier_Melee.Brawl",
    "5thColumn.Fifth_Column_Minion_Soldier_Heavy.Chain_Gun"
  ],
  "power_display_names": [
    "Brawl",
    "Chain Gun"
  ],
  "power_levels": [
    0,
    0
  ],
  "powers": [
    {
      "power_category": "5thColumn",
      "power_set": "Fifth_Column_Soldier_Melee",
      "power": "*",
      "level": 0
    },
    {
      "power_category": "5thColumn",
      "power_set": "Fifth_Column_Minion_Soldier_Heavy",
      "power": "Chain_Gun",
      "level": 0
    }
  ],
  "levels": [
    {
      "level": 20,
      "experience": 0,
      "display_names": [
        "Raserei Elite Force"
      ],
      "costumes": [
        "5thNight_40"
      ]
    },
    {
      "level": 21,
      "experience": 0,
      "display_names": [
        "Raserei Elite Force"
      ],
      "costumes": [
        "5thNight_40"
      ]
    },
    {
      "level": 22,
      "experience": 0,
      "display_names": [
        "Raserei Elite Force"
      ],
      "costumes": [
        "5thNight_40"
      ]
    },
    {
      "level": 23,
      "experience": 0,
      "display_names": [
        "Raserei Elite Force"
      ],
      "costumes": [
        "5thNight_40"
      ]
    },
    {
      "level": 24,
      "experience": 0,
      "display_names": [
        "Raserei Elite Force"
      ],
      "costumes": [
        "5thNight_40"
      ]
    }
  ]
}