{
  "name": "5thColumnEndgame_Night_Elite_Sniper",
  "gender": "GENDER_MALE",
  "description": "Those gifted with incredible accuracy are quickly transferred into the Nacht division, where they undergo lengthy treatments to refine their abilities. The Sharpshooters are natural loners and disdain associating with the rank and file. The only praise they seek is the satisfaction of a silent kill.",
  "group_description": null,
  "display_class_name": null,
  "character_class_name": "lt_praetoriangrunt",
  "ai_config": "Default_Sniper",
  "commandable_pet": false,
  "power_tags": [

  ],
  "additional_rewards": [

  ],
  "skill_hp_rewards": [

  ],
  "skill_status_rewards": [

  ],
  "ally": null,
  "gang": null,
  "reward_scale": 1.0,
  "game_exclusion": "None",
  "inactive_state_weapon": null,
  "ignores_combat_mods": false,
  "copy_creator_mods": false,
  "spawn_limit": 0,
  "spawn_limit_mission": 0,
  "ignore_av_to_eb_scaling": false,
  "can_zone": false,
  "custom_badge_stat": null,
  "badge_stat_flags": "DefaultBadgeStat",
  "rank": "VR_SNIPER",
  "power_full_names": [
    "5thColumn.Fifth_Column_Soldier_Melee.Brawl",
    "5thColumn.Fifth_Column_Soldier_Sniper.Sniper_Rifle"
  ],
  "power_display_names": [
    "Brawl",
    "Sniper Rifle"
  ],
  "power_levels": [
    0,
    0
  ],
  "powers": [
    {
      "power_category": "5thColumn",
      "power_set": "Fifth_Column_Soldier_Melee",
      "power": "*",
      "level": 0
    },
    {
      "power_category": "5thColumn",
      "power_set": "Fifth_Column_Soldier_Sniper",
      "power": "*",
      "level": 0
    }
  ],
  "levels": [
    {
      "level": 50,
      "experience": 0,
      "display_names": [
        "Nacht Elite Sharpshooter"
      ],
      "costumes": [
        "5thNight_19"
      ]
    },
    {
      "level": 51,
      "experience": 0,
      "display_names": [
        "Nacht Elite Sharpshooter"
      ],
      "costumes": [
        "5thNight_19"
      ]
    },
    {
      "level": 52,
      "experience": 0,
      "display_names": [
        "Nacht Elite Sharpshooter"
      ],
      "costumes": [
        "5thNight_19"
      ]
    },
    {
      "level": 53,
      "experience": 0,
      "display_names": [
        "Nacht Elite Sharpshooter"
      ],
      "costumes": [
        "5thNight_19"
      ]
    },
    {
      "level": 54,
      "experience": 0,
      "display_names": [
        "Nacht Elite Sharpshooter"
      ],
      "costumes": [
        "5thNight_19"
      ]
    }
  ]
}