{
  "name": "5thColumn_Fury_Ubermenschen_Boss",
  "gender": "GENDER_MALE",
  "description": "The Raserei Ubermenschen Obersts make up the inner circle that surrounds the 5th Column leadership. They are charged with the grand stratagems that further the ultimate goal of the 5th Column: the eventual domination of the world. The leaders of the Column foster a competitiveness between these high ranking officers in order to prevent any single one of them from acquiring too much power and becoming a threat.",
  "group_description": null,
  "display_class_name": null,
  "character_class_name": "boss_grunt",
  "ai_config": "5thColumn_Fury_Base",
  "commandable_pet": false,
  "power_tags": [

  ],
  "additional_rewards": [

  ],
  "skill_hp_rewards": [

  ],
  "skill_status_rewards": [

  ],
  "ally": null,
  "gang": null,
  "reward_scale": 1.0,
  "game_exclusion": "None",
  "inactive_state_weapon": null,
  "ignores_combat_mods": false,
  "copy_creator_mods": false,
  "spawn_limit": -1,
  "spawn_limit_mission": -1,
  "ignore_av_to_eb_scaling": false,
  "can_zone": false,
  "custom_badge_stat": null,
  "badge_stat_flags": "DefaultBadgeStat",
  "rank": "VR_BOSS",
  "power_full_names": [
    "5thColumn.Fifth_Column_Lt_Boss_Solider_Ranged.12_Gauge",
    "5thColumn.Fifth_Column_Lt_Boss_Solider_Ranged.12_Gauge_2",
    "5thColumn.Fifth_Column_Lt_Boss_Solider_Ranged.Rifle_Butt",
    "5thColumn.Fifth_Column_Lt_Boss_Solider_Ranged.Frag_Grenade"
  ],
  "power_display_names": [
    "12 Gauge",
    "12 Gauge",
    "Rifle Butt",
    "Frag Grenade"
  ],
  "power_levels": [
    0,
    0,
    0,
    0
  ],
  "powers": [
    {
      "power_category": "5thColumn",
      "power_set": "Fifth_Column_Lt_Boss_Solider_Ranged",
      "power": "*",
      "level": 0
    }
  ],
  "levels": [
    {
      "level": 25,
      "experience": 0,
      "display_names": [
        "Raserei Ubermenschen Oberst"
      ],
      "costumes": [
        "5thUber_49"
      ]
    },
    {
      "level": 26,
      "experience": 0,
      "display_names": [
        "Raserei Ubermenschen Oberst"
      ],
      "costumes": [
        "5thUber_49"
      ]
    },
    {
      "level": 27,
      "experience": 0,
      "display_names": [
        "Raserei Ubermenschen Oberst"
      ],
      "costumes": [
        "5thUber_49"
      ]
    },
    {
      "level": 28,
      "experience": 0,
      "display_names": [
        "Raserei Ubermenschen Oberst"
      ],
      "costumes": [
        "5thUber_49"
      ]
    },
    {
      "level": 29,
      "experience": 0,
      "display_names": [
        "Raserei Ubermenschen Oberst"
      ],
      "costumes": [
        "5thUber_49"
      ]
    },
    {
      "level": 30,
      "experience": 0,
      "display_names": [
        "Raserei Ubermenschen Oberst"
      ],
      "costumes": [
        "5thUber_49"
      ]
    },
    {
      "level": 31,
      "experience": 0,
      "display_names": [
        "Raserei Ubermenschen Oberst"
      ],
      "costumes": [
        "5thUber_49"
      ]
    },
    {
      "level": 32,
      "experience": 0,
      "display_names": [
        "Raserei Ubermenschen Oberst"
      ],
      "costumes": [
        "5thUber_49"
      ]
    },
    {
      "level": 33,
      "experience": 0,
      "display_names": [
        "Raserei Ubermenschen Oberst"
      ],
      "costumes": [
        "5thUber_49"
      ]
    },
    {
      "level": 34,
      "experience": 0,
      "display_names": [
        "Raserei Ubermenschen Oberst"
      ],
      "costumes": [
        "5thUber_49"
      ]
    },
    {
      "level": 35,
      "experience": 0,
      "display_names": [
        "Raserei Ubermenschen Oberst"
      ],
      "costumes": [
        "5thUber_49"
      ]
    },
    {
      "level": 36,
      "experience": 0,
      "display_names": [
        "Raserei Ubermenschen Oberst"
      ],
      "costumes": [
        "5thUber_49"
      ]
    },
    {
      "level": 37,
      "experience": 0,
      "display_names": [
        "Raserei Ubermenschen Oberst"
      ],
      "costumes": [
        "5thUber_49"
      ]
    },
    {
      "level": 38,
      "experience": 0,
      "display_names": [
        "Raserei Ubermenschen Oberst"
      ],
      "costumes": [
        "5thUber_49"
      ]
    },
    {
      "level": 39,
      "experience": 0,
      "display_names": [
        "Raserei Ubermenschen Oberst"
      ],
      "costumes": [
        "5thUber_49"
      ]
    },
    {
      "level": 40,
      "experience": 0,
      "display_names": [
        "Raserei Ubermenschen Oberst"
      ],
      "costumes": [
        "5thUber_49"
      ]
    },
    {
      "level": 41,
      "experience": 0,
      "display_names": [
        "Raserei Ubermenschen Oberst"
      ],
      "costumes": [
        "5thUber_49"
      ]
    },
    {
      "level": 42,
      "experience": 0,
      "display_names": [
        "Raserei Ubermenschen Oberst"
      ],
      "costumes": [
        "5thUber_49"
      ]
    },
    {
      "level": 43,
      "experience": 0,
      "display_names": [
        "Raserei Ubermenschen Oberst"
      ],
      "costumes": [
        "5thUber_49"
      ]
    },
    {
      "level": 44,
      "experience": 0,
      "display_names": [
        "Raserei Ubermenschen Oberst"
      ],
      "costumes": [
        "5thUber_49"
      ]
    },
    {
      "level": 45,
      "experience": 0,
      "display_names": [
        "Raserei Ubermenschen Oberst"
      ],
      "costumes": [
        "5thUber_49"
      ]
    },
    {
      "level": 46,
      "experience": 0,
      "display_names": [
        "Raserei Ubermenschen Oberst"
      ],
      "costumes": [
        "5thUber_49"
      ]
    },
    {
      "level": 47,
      "experience": 0,
      "display_names": [
        "Raserei Ubermenschen Oberst"
      ],
      "costumes": [
        "5thUber_49"
      ]
    },
    {
      "level": 48,
      "experience": 0,
      "display_names": [
        "Raserei Ubermenschen Oberst"
      ],
      "costumes": [
        "5thUber_49"
      ]
    },
    {
      "level": 49,
      "experience": 0,
      "display_names": [
        "Raserei Ubermenschen Oberst"
      ],
      "costumes": [
        "5thUber_49"
      ]
    },
    {
      "level": 50,
      "experience": 0,
      "display_names": [
        "Raserei Ubermenschen Oberst"
      ],
      "costumes": [
        "5thUber_49"
      ]
    },
    {
      "level": 51,
      "experience": 0,
      "display_names": [
        "Raserei Ubermenschen Oberst"
      ],
      "costumes": [
        "5thUber_49"
      ]
    },
    {
      "level": 52,
      "experience": 0,
      "display_names": [
        "Raserei Ubermenschen Oberst"
      ],
      "costumes": [
        "5thUber_49"
      ]
    },
    {
      "level": 53,
      "experience": 0,
      "display_names": [
        "Raserei Ubermenschen Oberst"
      ],
      "costumes": [
        "5thUber_49"
      ]
    },
    {
      "level": 54,
      "experience": 0,
      "display_names": [
        "Raserei Ubermenschen Oberst"
      ],
      "costumes": [
        "5thUber_49"
      ]
    }
  ]
}