{
  "name": "AnimusArcana_Animated_Staff",
  "gender": "GENDER_MALE",
  "description": "The Animus Arcana are magical spells or items brought to life by the very nature of Night Ward's tenuous dimensional connections. This magic staff was once wielded by a powerful magic-user - their aptitude has bled into the weapon itself, granting it a life of its own.",
  "group_description": null,
  "display_class_name": null,
  "character_class_name": "lt_grunt",
  "ai_config": "Default_Melee",
  "commandable_pet": false,
  "power_tags": [

  ],
  "additional_rewards": [

  ],
  "skill_hp_rewards": [

  ],
  "skill_status_rewards": [

  ],
  "ally": null,
  "gang": null,
  "reward_scale": 1.0,
  "game_exclusion": "None",
  "inactive_state_weapon": null,
  "ignores_combat_mods": false,
  "copy_creator_mods": false,
  "spawn_limit": -1,
  "spawn_limit_mission": -1,
  "ignore_av_to_eb_scaling": false,
  "can_zone": false,
  "custom_badge_stat": null,
  "badge_stat_flags": "DefaultBadgeStat",
  "rank": "VR_LIEUTENANT",
  "power_full_names": [
    "AnimusArcana.Resistances.Damage_Animated_Staff",
    "AnimusArcana.Animated_Staff.Mercurial_Blow",
    "AnimusArcana.Animated_Staff.Mastery_of_Form",
    "AnimusArcana.Animated_Staff.Serpents_Reach",
    "AnimusArcana.Animated_Staff.Innocuous_Strikes",
    "AnimusArcana.Animated_Staff.Sky_Splitter",
    "GenericVillains.Flight.Fly"
  ],
  "power_display_names": [
    "Damage Resistance",
    "Mercurial Blow",
    "Mastery of Form",
    "Serpent's Reach",
    "Innocuous Strikes",
    "Sky Splitter",
    "Fly"
  ],
  "power_levels": [
    0,
    0,
    0,
    0,
    0,
    0,
    0
  ],
  "powers": [
    {
      "power_category": "AnimusArcana",
      "power_set": "Resistances",
      "power": "Damage_Animated_Staff",
      "level": 0
    },
    {
      "power_category": "AnimusArcana",
      "power_set": "Animated_Staff",
      "power": "*",
      "level": 0
    },
    {
      "power_category": "GenericVillains",
      "power_set": "Flight",
      "power": "Fly",
      "level": 0
    }
  ],
  "levels": [
    {
      "level": 25,
      "experience": 0,
      "display_names": [
        "Animated Staff"
      ],
      "costumes": [
        "Animated_Staff"
      ]
    },
    {
      "level": 26,
      "experience": 0,
      "display_names": [
        "Animated Staff"
      ],
      "costumes": [
        "Animated_Staff"
      ]
    },
    {
      "level": 27,
      "experience": 0,
      "display_names": [
        "Animated Staff"
      ],
      "costumes": [
        "Animated_Staff"
      ]
    },
    {
      "level": 28,
      "experience": 0,
      "display_names": [
        "Animated Staff"
      ],
      "costumes": [
        "Animated_Staff"
      ]
    },
    {
      "level": 29,
      "experience": 0,
      "display_names": [
        "Animated Staff"
      ],
      "costumes": [
        "Animated_Staff"
      ]
    },
    {
      "level": 30,
      "experience": 0,
      "display_names": [
        "Animated Staff"
      ],
      "costumes": [
        "Animated_Staff"
      ]
    },
    {
      "level": 31,
      "experience": 0,
      "display_names": [
        "Animated Staff"
      ],
      "costumes": [
        "Animated_Staff"
      ]
    },
    {
      "level": 32,
      "experience": 0,
      "display_names": [
        "Animated Staff"
      ],
      "costumes": [
        "Animated_Staff"
      ]
    },
    {
      "level": 33,
      "experience": 0,
      "display_names": [
        "Animated Staff"
      ],
      "costumes": [
        "Animated_Staff"
      ]
    },
    {
      "level": 34,
      "experience": 0,
      "display_names": [
        "Animated Staff"
      ],
      "costumes": [
        "Animated_Staff"
      ]
    },
    {
      "level": 35,
      "experience": 0,
      "display_names": [
        "Animated Staff"
      ],
      "costumes": [
        "Animated_Staff"
      ]
    },
    {
      "level": 36,
      "experience": 0,
      "display_names": [
        "Animated Staff"
      ],
      "costumes": [
        "Animated_Staff"
      ]
    },
    {
      "level": 37,
      "experience": 0,
      "display_names": [
        "Animated Staff"
      ],
      "costumes": [
        "Animated_Staff"
      ]
    },
    {
      "level": 38,
      "experience": 0,
      "display_names": [
        "Animated Staff"
      ],
      "costumes": [
        "Animated_Staff"
      ]
    },
    {
      "level": 39,
      "experience": 0,
      "display_names": [
        "Animated Staff"
      ],
      "costumes": [
        "Animated_Staff"
      ]
    },
    {
      "level": 40,
      "experience": 0,
      "display_names": [
        "Animated Staff"
      ],
      "costumes": [
        "Animated_Staff"
      ]
    },
    {
      "level": 41,
      "experience": 0,
      "display_names": [
        "Animated Staff"
      ],
      "costumes": [
        "Animated_Staff"
      ]
    },
    {
      "level": 42,
      "experience": 0,
      "display_names": [
        "Animated Staff"
      ],
      "costumes": [
        "Animated_Staff"
      ]
    },
    {
      "level": 43,
      "experience": 0,
      "display_names": [
        "Animated Staff"
      ],
      "costumes": [
        "Animated_Staff"
      ]
    },
    {
      "level": 44,
      "experience": 0,
      "display_names": [
        "Animated Staff"
      ],
      "costumes": [
        "Animated_Staff"
      ]
    },
    {
      "level": 45,
      "experience": 0,
      "display_names": [
        "Animated Staff"
      ],
      "costumes": [
        "Animated_Staff"
      ]
    },
    {
      "level": 46,
      "experience": 0,
      "display_names": [
        "Animated Staff"
      ],
      "costumes": [
        "Animated_Staff"
      ]
    },
    {
      "level": 47,
      "experience": 0,
      "display_names": [
        "Animated Staff"
      ],
      "costumes": [
        "Animated_Staff"
      ]
    },
    {
      "level": 48,
      "experience": 0,
      "display_names": [
        "Animated Staff"
      ],
      "costumes": [
        "Animated_Staff"
      ]
    },
    {
      "level": 49,
      "experience": 0,
      "display_names": [
        "Animated Staff"
      ],
      "costumes": [
        "Animated_Staff"
      ]
    },
    {
      "level": 50,
      "experience": 0,
      "display_names": [
        "Animated Staff"
      ],
      "costumes": [
        "Animated_Staff"
      ]
    },
    {
      "level": 51,
      "experience": 0,
      "display_names": [
        "Animated Staff"
      ],
      "costumes": [
        "Animated_Staff"
      ]
    },
    {
      "level": 52,
      "experience": 0,
      "display_names": [
        "Animated Staff"
      ],
      "costumes": [
        "Animated_Staff"
      ]
    },
    {
      "level": 53,
      "experience": 0,
      "display_names": [
        "Animated Staff"
      ],
      "costumes": [
        "Animated_Staff"
      ]
    },
    {
      "level": 54,
      "experience": 0,
      "display_names": [
        "Animated Staff"
      ],
      "costumes": [
        "Animated_Staff"
      ]
    }
  ]
}