{
  "name": "Arachnos_Regent_Korol_Boss_NoScale",
  "gender": "GENDER_FEMALE",
  "description": "Regent Korol is one of the few Fortunatas chosen to devote themselves fully to Arachnos by becoming one of the powerful Tarantula Queens. Through the process she has gained immense psychic abilities that she uses to protect Arachnos from infiltration.",
  "group_description": null,
  "display_class_name": null,
  "character_class_name": "boss_grunt",
  "ai_config": "Default_Ranged",
  "commandable_pet": false,
  "power_tags": [
    "Electronic",
    "Raid"
  ],
  "additional_rewards": [

  ],
  "skill_hp_rewards": [

  ],
  "skill_status_rewards": [

  ],
  "ally": "Monster",
  "gang": null,
  "reward_scale": 1.0,
  "game_exclusion": "None",
  "inactive_state_weapon": null,
  "ignores_combat_mods": false,
  "copy_creator_mods": false,
  "spawn_limit": 0,
  "spawn_limit_mission": 0,
  "ignore_av_to_eb_scaling": true,
  "can_zone": false,
  "custom_badge_stat": null,
  "badge_stat_flags": "DefaultBadgeStat",
  "rank": "VR_BOSS",
  "power_full_names": [
    "V_Arachnos.Regent_Korol.Psychic_Scream",
    "V_Arachnos.Regent_Korol.Telekinetic_blast",
    "V_Arachnos.Regent_Korol.Scramble_Thoughts",
    "V_Arachnos.Regent_Korol.Will_Domination",
    "V_Arachnos.Regent_Korol.Total_Domination",
    "V_Arachnos.Regent_Korol.Psychic_Wail",
    "V_Arachnos.Regent_Korol.Confuse",
    "V_Arachnos.Regent_Korol.Claw_Pierce_1",
    "V_Arachnos.Regent_Korol.Claw_Pierce_2",
    "V_Arachnos.Regent_Korol.Claw_Shred",
    "V_Arachnos.Regent_Korol.Mind_Link",
    "V_Arachnos.Regent_Korol.Armored_Exoskeleton",
    "V_Arachnos.AV_Resistances.Resistance"
  ],
  "power_display_names": [
    "Psychic Scream",
    "Telekinetic blast",
    "Scramble Thoughts",
    "Will Domination",
    "Total Domination",
    "Psychic Wail",
    "Confuse",
    "Claw Pierce",
    "Claw Pierce",
    "Claw Shred",
    "Mind Link",
    "Armored Exoskeleton",
    "Resistance"
  ],
  "power_levels": [
    0,
    0,
    0,
    0,
    0,
    0,
    0,
    0,
    0,
    0,
    0,
    0,
    0
  ],
  "powers": [
    {
      "power_category": "V_Arachnos",
      "power_set": "Regent_Korol",
      "power": "*",
      "level": 0
    },
    {
      "power_category": "V_Arachnos",
      "power_set": "AV_Resistances",
      "power": "*",
      "level": 0
    }
  ],
  "levels": [
    {
      "level": 40,
      "experience": 0,
      "display_names": [
        "Regent Korol"
      ],
      "costumes": [
        "Arachnos_Tarantulas_Fortunata_Korol"
      ]
    },
    {
      "level": 41,
      "experience": 0,
      "display_names": [
        "Regent Korol"
      ],
      "costumes": [
        "Arachnos_Tarantulas_Fortunata_Korol"
      ]
    },
    {
      "level": 42,
      "experience": 0,
      "display_names": [
        "Regent Korol"
      ],
      "costumes": [
        "Arachnos_Tarantulas_Fortunata_Korol"
      ]
    },
    {
      "level": 43,
      "experience": 0,
      "display_names": [
        "Regent Korol"
      ],
      "costumes": [
        "Arachnos_Tarantulas_Fortunata_Korol"
      ]
    },
    {
      "level": 44,
      "experience": 0,
      "display_names": [
        "Regent Korol"
      ],
      "costumes": [
        "Arachnos_Tarantulas_Fortunata_Korol"
      ]
    },
    {
      "level": 45,
      "experience": 0,
      "display_names": [
        "Regent Korol"
      ],
      "costumes": [
        "Arachnos_Tarantulas_Fortunata_Korol"
      ]
    },
    {
      "level": 46,
      "experience": 0,
      "display_names": [
        "Regent Korol"
      ],
      "costumes": [
        "Arachnos_Tarantulas_Fortunata_Korol"
      ]
    },
    {
      "level": 47,
      "experience": 0,
      "display_names": [
        "Regent Korol"
      ],
      "costumes": [
        "Arachnos_Tarantulas_Fortunata_Korol"
      ]
    },
    {
      "level": 48,
      "experience": 0,
      "display_names": [
        "Regent Korol"
      ],
      "costumes": [
        "Arachnos_Tarantulas_Fortunata_Korol"
      ]
    },
    {
      "level": 49,
      "experience": 0,
      "display_names": [
        "Regent Korol"
      ],
      "costumes": [
        "Arachnos_Tarantulas_Fortunata_Korol"
      ]
    },
    {
      "level": 50,
      "experience": 0,
      "display_names": [
        "Regent Korol"
      ],
      "costumes": [
        "Arachnos_Tarantulas_Fortunata_Korol"
      ]
    },
    {
      "level": 51,
      "experience": 0,
      "display_names": [
        "Regent Korol"
      ],
      "costumes": [
        "Arachnos_Tarantulas_Fortunata_Korol"
      ]
    },
    {
      "level": 52,
      "experience": 0,
      "display_names": [
        "Regent Korol"
      ],
      "costumes": [
        "Arachnos_Tarantulas_Fortunata_Korol"
      ]
    },
    {
      "level": 53,
      "experience": 0,
      "display_names": [
        "Regent Korol"
      ],
      "costumes": [
        "Arachnos_Tarantulas_Fortunata_Korol"
      ]
    },
    {
      "level": 54,
      "experience": 0,
      "display_names": [
        "Regent Korol"
      ],
      "costumes": [
        "Arachnos_Tarantulas_Fortunata_Korol"
      ]
    }
  ]
}