{
  "name": "Arachnos_Mu_Guardian_High_Ghost_Noexp",
  "gender": "GENDER_MALE",
  "description": "The Mu Guardians are the most powerful of the Mu Mystics. What supernatural power could be strong enough to bind their spirits in this ghostly form?",
  "group_description": null,
  "display_class_name": null,
  "character_class_name": "boss_grunt",
  "ai_config": "Default_Ranged",
  "commandable_pet": false,
  "power_tags": [
    "Humanoid",
    "Ghost",
    "Undead"
  ],
  "additional_rewards": [

  ],
  "skill_hp_rewards": [

  ],
  "skill_status_rewards": [

  ],
  "ally": "Monster",
  "gang": null,
  "reward_scale": 1.0,
  "game_exclusion": "None",
  "inactive_state_weapon": null,
  "ignores_combat_mods": false,
  "copy_creator_mods": false,
  "spawn_limit": 0,
  "spawn_limit_mission": 0,
  "ignore_av_to_eb_scaling": false,
  "can_zone": false,
  "custom_badge_stat": null,
  "badge_stat_flags": "DefaultBadgeStat",
  "rank": "VR_PET",
  "power_full_names": [
    "V_Arachnos.Mu_Ghost.Resistance",
    "V_Arachnos.Mu_Small_Attack.Lightning_Bolt",
    "V_Arachnos.Mu_Ball.Ball_Lightning",
    "V_Arachnos.Mu_Cone.Static_Discharge",
    "V_Arachnos.Mu_Boss.Sentinel_of_Lightning",
    "V_Arachnos.Mu_Boss_High.EM_Pulse",
    "V_Arachnos.Mu_Hold.Shocking_Bolt",
    "V_Arachnos.Mu_Heal.Touch_of_the_Storm",
    "V_Arachnos.Mu_Flight.Fly",
    "V_Arachnos.Mu_Defense.Lightning_Armor",
    "V_Arachnos.Mu_Inherent.Resistance"
  ],
  "power_display_names": [
    "Resistance",
    "Lightning Bolt",
    "Ball Lightning",
    "Static Discharge",
    "Sentinel of Lightning",
    "EM Pulse",
    "Shocking Bolt",
    "Touch of the Storm",
    "Fly",
    "Lightning Armor",
    "Resistance"
  ],
  "power_levels": [
    0,
    0,
    0,
    0,
    0,
    0,
    0,
    0,
    0,
    0,
    0
  ],
  "powers": [
    {
      "power_category": "V_Arachnos",
      "power_set": "Mu_Ghost",
      "power": "*",
      "level": 0
    },
    {
      "power_category": "V_Arachnos",
      "power_set": "Mu_Small_Attack",
      "power": "*",
      "level": 0
    },
    {
      "power_category": "V_Arachnos",
      "power_set": "Mu_Ball",
      "power": "*",
      "level": 0
    },
    {
      "power_category": "V_Arachnos",
      "power_set": "Mu_Cone",
      "power": "*",
      "level": 0
    },
    {
      "power_category": "V_Arachnos",
      "power_set": "Mu_Boss",
      "power": "*",
      "level": 0
    },
    {
      "power_category": "V_Arachnos",
      "power_set": "Mu_Boss_High",
      "power": "*",
      "level": 0
    },
    {
      "power_category": "V_Arachnos",
      "power_set": "Mu_Hold",
      "power": "*",
      "level": 0
    },
    {
      "power_category": "V_Arachnos",
      "power_set": "Mu_Heal",
      "power": "*",
      "level": 0
    },
    {
      "power_category": "V_Arachnos",
      "power_set": "Mu_Flight",
      "power": "*",
      "level": 0
    },
    {
      "power_category": "V_Arachnos",
      "power_set": "Mu_Defense",
      "power": "*",
      "level": 0
    },
    {
      "power_category": "V_Arachnos",
      "power_set": "Mu_Inherent",
      "power": "*",
      "level": 0
    }
  ],
  "levels": [
    {
      "level": 40,
      "experience": 0,
      "display_names": [
        "Mu Guardian"
      ],
      "costumes": [
        "Arachnos_MuMystic_03_Ghost",
        "Arachnos_MuMystic_04_Ghost"
      ]
    },
    {
      "level": 41,
      "experience": 0,
      "display_names": [
        "Mu Guardian"
      ],
      "costumes": [
        "Arachnos_MuMystic_03_Ghost",
        "Arachnos_MuMystic_04_Ghost"
      ]
    },
    {
      "level": 42,
      "experience": 0,
      "display_names": [
        "Mu Guardian"
      ],
      "costumes": [
        "Arachnos_MuMystic_03_Ghost",
        "Arachnos_MuMystic_04_Ghost"
      ]
    },
    {
      "level": 43,
      "experience": 0,
      "display_names": [
        "Mu Guardian"
      ],
      "costumes": [
        "Arachnos_MuMystic_03_Ghost",
        "Arachnos_MuMystic_04_Ghost"
      ]
    },
    {
      "level": 44,
      "experience": 0,
      "display_names": [
        "Mu Guardian"
      ],
      "costumes": [
        "Arachnos_MuMystic_03_Ghost",
        "Arachnos_MuMystic_04_Ghost"
      ]
    },
    {
      "level": 45,
      "experience": 0,
      "display_names": [
        "Mu Guardian"
      ],
      "costumes": [
        "Arachnos_MuMystic_03_Ghost",
        "Arachnos_MuMystic_04_Ghost"
      ]
    },
    {
      "level": 46,
      "experience": 0,
      "display_names": [
        "Mu Guardian"
      ],
      "costumes": [
        "Arachnos_MuMystic_03_Ghost",
        "Arachnos_MuMystic_04_Ghost"
      ]
    },
    {
      "level": 47,
      "experience": 0,
      "display_names": [
        "Mu Guardian"
      ],
      "costumes": [
        "Arachnos_MuMystic_03_Ghost",
        "Arachnos_MuMystic_04_Ghost"
      ]
    },
    {
      "level": 48,
      "experience": 0,
      "display_names": [
        "Mu Guardian"
      ],
      "costumes": [
        "Arachnos_MuMystic_03_Ghost",
        "Arachnos_MuMystic_04_Ghost"
      ]
    },
    {
      "level": 49,
      "experience": 0,
      "display_names": [
        "Mu Guardian"
      ],
      "costumes": [
        "Arachnos_MuMystic_03_Ghost",
        "Arachnos_MuMystic_04_Ghost"
      ]
    },
    {
      "level": 50,
      "experience": 0,
      "display_names": [
        "Mu Guardian"
      ],
      "costumes": [
        "Arachnos_MuMystic_03_Ghost",
        "Arachnos_MuMystic_04_Ghost"
      ]
    },
    {
      "level": 51,
      "experience": 0,
      "display_names": [
        "Mu Guardian"
      ],
      "costumes": [
        "Arachnos_MuMystic_03_Ghost",
        "Arachnos_MuMystic_04_Ghost"
      ]
    },
    {
      "level": 52,
      "experience": 0,
      "display_names": [
        "Mu Guardian"
      ],
      "costumes": [
        "Arachnos_MuMystic_03_Ghost",
        "Arachnos_MuMystic_04_Ghost"
      ]
    },
    {
      "level": 53,
      "experience": 0,
      "display_names": [
        "Mu Guardian"
      ],
      "costumes": [
        "Arachnos_MuMystic_03_Ghost",
        "Arachnos_MuMystic_04_Ghost"
      ]
    },
    {
      "level": 54,
      "experience": 0,
      "display_names": [
        "Mu Guardian"
      ],
      "costumes": [
        "Arachnos_MuMystic_03_Ghost",
        "Arachnos_MuMystic_04_Ghost"
      ]
    }
  ]
}