{
  "name": "Arachnos_60s_Misery",
  "gender": "GENDER_NEUTER",
  "description": "Orb Weavers created the Disruptor Arachnobots to capture their prey alive.",
  "group_description": null,
  "display_class_name": null,
  "character_class_name": "boss_elite",
  "ai_config": "Default_Ranged",
  "commandable_pet": false,
  "power_tags": [
    "Electronic"
  ],
  "additional_rewards": [

  ],
  "skill_hp_rewards": [

  ],
  "skill_status_rewards": [

  ],
  "ally": "Monster",
  "gang": null,
  "reward_scale": 1.0,
  "game_exclusion": "None",
  "inactive_state_weapon": null,
  "ignores_combat_mods": false,
  "copy_creator_mods": false,
  "spawn_limit": 0,
  "spawn_limit_mission": 0,
  "ignore_av_to_eb_scaling": false,
  "can_zone": false,
  "custom_badge_stat": null,
  "badge_stat_flags": "DefaultBadgeStat",
  "rank": "VR_ELITE",
  "power_full_names": [
    "V_Arachnos.Arachnobot_Boss.Claw",
    "V_Arachnos.Arachnobot_Boss.Disruptor_Blast",
    "V_Arachnos.Arachnobot_Boss.Disruptor_Tesla",
    "V_Arachnos.Arachnobot_Boss.Disruptor_Bolt",
    "V_Arachnos.Arachnobot_Boss.Wide_Area_Web_Grenade",
    "V_Arachnos.Arachnobot_Boss.Resistance",
    "V_Arachnos.Arachnobot_Boss.Power_Jumping",
    "V_Arachnos.Arachnobot_Summon.Summon_Spiderlings"
  ],
  "power_display_names": [
    "Claw",
    "Disruptor Blast",
    "Disruptor Tesla",
    "Disruptor Bolt",
    "Wide Area Web Grenade",
    "Resistance",
    "Power Jumping",
    "Summon Spiderlings"
  ],
  "power_levels": [
    0,
    0,
    0,
    0,
    0,
    0,
    0,
    0
  ],
  "powers": [
    {
      "power_category": "V_Arachnos",
      "power_set": "Arachnobot_Boss",
      "power": "*",
      "level": 0
    },
    {
      "power_category": "V_Arachnos",
      "power_set": "Arachnobot_Summon",
      "power": "*",
      "level": 0
    }
  ],
  "levels": [
    {
      "level": 25,
      "experience": 0,
      "display_names": [
        "Misery"
      ],
      "costumes": [
        "Arachnobot_Disruptor"
      ]
    },
    {
      "level": 26,
      "experience": 0,
      "display_names": [
        "Misery"
      ],
      "costumes": [
        "Arachnobot_Disruptor"
      ]
    },
    {
      "level": 27,
      "experience": 0,
      "display_names": [
        "Misery"
      ],
      "costumes": [
        "Arachnobot_Disruptor"
      ]
    },
    {
      "level": 28,
      "experience": 0,
      "display_names": [
        "Misery"
      ],
      "costumes": [
        "Arachnobot_Disruptor"
      ]
    },
    {
      "level": 29,
      "experience": 0,
      "display_names": [
        "Misery"
      ],
      "costumes": [
        "Arachnobot_Disruptor"
      ]
    },
    {
      "level": 30,
      "experience": 0,
      "display_names": [
        "Misery"
      ],
      "costumes": [
        "Arachnobot_Disruptor"
      ]
    },
    {
      "level": 31,
      "experience": 0,
      "display_names": [
        "Misery"
      ],
      "costumes": [
        "Arachnobot_Disruptor"
      ]
    },
    {
      "level": 32,
      "experience": 0,
      "display_names": [
        "Misery"
      ],
      "costumes": [
        "Arachnobot_Disruptor"
      ]
    },
    {
      "level": 33,
      "experience": 0,
      "display_names": [
        "Misery"
      ],
      "costumes": [
        "Arachnobot_Disruptor"
      ]
    },
    {
      "level": 34,
      "experience": 0,
      "display_names": [
        "Misery"
      ],
      "costumes": [
        "Arachnobot_Disruptor"
      ]
    }
  ]
}