{
  "name": "ArachnosEndgame_Arachnos_Heavy",
  "gender": "GENDER_MALE",
  "description": "Lord Recluse discovered that Black Scorpion had built these enormous walking tanks to attack Mako in another of their inter-patron squabbles. Lord Recluse seized these monstrous war machines for his own use in Recluse's Victory. Loyalists like you will now be able to wield their destructive capabilities in battle! Their lack of speed is more than compensated for with its impressive firepower, and heavy armor. The Arachnos Heavy Blaster is an awesome asset to any villain who's looking for an edge in battle!",
  "group_description": null,
  "display_class_name": null,
  "character_class_name": "boss_praetoriangrunt",
  "ai_config": "Default_Ranged",
  "commandable_pet": false,
  "power_tags": [
    "Electronic"
  ],
  "additional_rewards": [

  ],
  "skill_hp_rewards": [

  ],
  "skill_status_rewards": [

  ],
  "ally": null,
  "gang": null,
  "reward_scale": 1.0,
  "game_exclusion": "None",
  "inactive_state_weapon": null,
  "ignores_combat_mods": false,
  "copy_creator_mods": false,
  "spawn_limit": 0,
  "spawn_limit_mission": 0,
  "ignore_av_to_eb_scaling": false,
  "can_zone": false,
  "custom_badge_stat": null,
  "badge_stat_flags": "DefaultBadgeStat",
  "rank": "VR_BOSS",
  "power_full_names": [
    "V_Arachnos.Arachnobot_Heavy.Venom_Burst",
    "V_Arachnos.Arachnobot_Heavy.Venom_Bolt",
    "V_Arachnos.Arachnobot_Heavy.Web_Spitter",
    "V_Arachnos.Arachnobot_Heavy.Cocoon",
    "V_Arachnos.Arachnobot_Heavy.Toxic_Claws",
    "V_Arachnos.Arachnobot_Heavy.Claw_Pierce",
    "V_Arachnos.Arachnobot_Heavy.Armored_Exoskeleton",
    "V_Arachnos.Arachnobot_Heavy.Disruptor_Blast",
    "V_Arachnos.Arachnobot_Heavy.Disruptor_Tesla",
    "V_Arachnos.Arachnobot_Heavy.Disruptor_Bolt",
    "V_Arachnos.Arachnobot_Heavy.Static_Overload",
    "V_Arachnos.Arachnobot_Heavy.Power_Jumping",
    "V_Arachnos.Heavy_Boost.Heavy_Boost"
  ],
  "power_display_names": [
    "Venom Burst",
    "Venom Bolt",
    "Web Spitter",
    "Cocoon",
    "Toxic Claws",
    "Claw Pierce",
    "Armored Exoskeleton",
    "Disruptor Blast",
    "Disruptor Tesla",
    "Disruptor Bolt",
    "Static Overload",
    "Power Jumping",
    "Heavy Boost"
  ],
  "power_levels": [
    0,
    0,
    0,
    0,
    0,
    0,
    0,
    0,
    0,
    0,
    0,
    0,
    0
  ],
  "powers": [
    {
      "power_category": "V_Arachnos",
      "power_set": "Arachnobot_Heavy",
      "power": "*",
      "level": 0
    },
    {
      "power_category": "V_Arachnos",
      "power_set": "Heavy_Boost",
      "power": "*",
      "level": 0
    }
  ],
  "levels": [
    {
      "level": 50,
      "experience": 0,
      "display_names": [
        "Arachnos Heavy Blaster"
      ],
      "costumes": [
        "Arachnobot_Disruptor_Heavy"
      ]
    },
    {
      "level": 51,
      "experience": 0,
      "display_names": [
        "Arachnos Heavy Blaster"
      ],
      "costumes": [
        "Arachnobot_Disruptor_Heavy"
      ]
    },
    {
      "level": 52,
      "experience": 0,
      "display_names": [
        "Arachnos Heavy Blaster"
      ],
      "costumes": [
        "Arachnobot_Disruptor_Heavy"
      ]
    },
    {
      "level": 53,
      "experience": 0,
      "display_names": [
        "Arachnos Heavy Blaster"
      ],
      "costumes": [
        "Arachnobot_Disruptor_Heavy"
      ]
    },
    {
      "level": 54,
      "experience": 0,
      "display_names": [
        "Arachnos Heavy Blaster"
      ],
      "costumes": [
        "Arachnobot_Disruptor_Heavy"
      ]
    }
  ]
}