{
  "name": "Arachnos_Aeon_Protector_Drone",
  "gender": "GENDER_NEUTER",
  "description": "Dr. Aeon has built these drones specifically to power his new 'Aeon Invulnerability' device. You'll have to destroy them to weaken Dr. Aeon!",
  "group_description": null,
  "display_class_name": null,
  "character_class_name": "minion_grunt",
  "ai_config": "Default_Ranged",
  "commandable_pet": false,
  "power_tags": [

  ],
  "additional_rewards": [

  ],
  "skill_hp_rewards": [

  ],
  "skill_status_rewards": [

  ],
  "ally": "Monster",
  "gang": null,
  "reward_scale": 1.0,
  "game_exclusion": "None",
  "inactive_state_weapon": null,
  "ignores_combat_mods": false,
  "copy_creator_mods": false,
  "spawn_limit": 0,
  "spawn_limit_mission": 0,
  "ignore_av_to_eb_scaling": false,
  "can_zone": false,
  "custom_badge_stat": null,
  "badge_stat_flags": "DefaultBadgeStat",
  "rank": "VR_MINION",
  "power_full_names": [
    "V_Arachnos.Guard_Lt.Disintegration_Beam",
    "V_Arachnos.Guard_Lt.Disruption_Blast",
    "V_Arachnos.Guard_Lt.Resistance",
    "V_Arachnos.Drone_Flight.Fly"
  ],
  "power_display_names": [
    "Disintegration Beam",
    "Disruption Blast",
    "Resistance",
    "Fly"
  ],
  "power_levels": [
    0,
    0,
    0,
    0
  ],
  "powers": [
    {
      "power_category": "V_Arachnos",
      "power_set": "Guard_Lt",
      "power": "*",
      "level": 0
    },
    {
      "power_category": "V_Arachnos",
      "power_set": "Drone_Flight",
      "power": "*",
      "level": 0
    }
  ],
  "levels": [
    {
      "level": 15,
      "experience": 0,
      "display_names": [
        "Aeon Protector Drone"
      ],
      "costumes": [
        "Arachnos_Police_Drone_LT"
      ]
    },
    {
      "level": 16,
      "experience": 0,
      "display_names": [
        "Aeon Protector Drone"
      ],
      "costumes": [
        "Arachnos_Police_Drone_LT"
      ]
    },
    {
      "level": 17,
      "experience": 0,
      "display_names": [
        "Aeon Protector Drone"
      ],
      "costumes": [
        "Arachnos_Police_Drone_LT"
      ]
    },
    {
      "level": 18,
      "experience": 0,
      "display_names": [
        "Aeon Protector Drone"
      ],
      "costumes": [
        "Arachnos_Police_Drone_LT"
      ]
    },
    {
      "level": 19,
      "experience": 0,
      "display_names": [
        "Aeon Protector Drone"
      ],
      "costumes": [
        "Arachnos_Police_Drone_LT"
      ]
    },
    {
      "level": 20,
      "experience": 0,
      "display_names": [
        "Aeon Protector Drone"
      ],
      "costumes": [
        "Arachnos_Police_Drone_LT"
      ]
    },
    {
      "level": 21,
      "experience": 0,
      "display_names": [
        "Aeon Protector Drone"
      ],
      "costumes": [
        "Arachnos_Police_Drone_LT"
      ]
    },
    {
      "level": 22,
      "experience": 0,
      "display_names": [
        "Aeon Protector Drone"
      ],
      "costumes": [
        "Arachnos_Police_Drone_LT"
      ]
    },
    {
      "level": 23,
      "experience": 0,
      "display_names": [
        "Aeon Protector Drone"
      ],
      "costumes": [
        "Arachnos_Police_Drone_LT"
      ]
    },
    {
      "level": 24,
      "experience": 0,
      "display_names": [
        "Aeon Protector Drone"
      ],
      "costumes": [
        "Arachnos_Police_Drone_LT"
      ]
    }
  ]
}