{
  "name": "Arachnos_Fortunata_Medium_High",
  "gender": "GENDER_FEMALE",
  "description": "Fortunatas are female Arachnos agents gifted with psychic powers. Those with aggressive abilities are tasked with taking down super-types-who often have little resistance to their deadly abilities.",
  "group_description": null,
  "display_class_name": null,
  "character_class_name": "minion_grunt",
  "ai_config": "Default_Ranged",
  "commandable_pet": false,
  "power_tags": [
    "Humanoid",
    "HumanSkeleton"
  ],
  "additional_rewards": [

  ],
  "skill_hp_rewards": [

  ],
  "skill_status_rewards": [

  ],
  "ally": "Monster",
  "gang": null,
  "reward_scale": 1.0,
  "game_exclusion": "None",
  "inactive_state_weapon": null,
  "ignores_combat_mods": false,
  "copy_creator_mods": false,
  "spawn_limit": 1,
  "spawn_limit_mission": 1,
  "ignore_av_to_eb_scaling": false,
  "can_zone": false,
  "custom_badge_stat": null,
  "badge_stat_flags": "DefaultBadgeStat",
  "rank": "VR_MINION",
  "power_full_names": [
    "V_Arachnos.Fortunata.Mental_Blast",
    "V_Arachnos.Fortunata_High.Psionic_Lance",
    "V_Arachnos.Fortunata_Defense.Mental_Training"
  ],
  "power_display_names": [
    "Mental Blast",
    "Psionic Lance",
    "Mental Training"
  ],
  "power_levels": [
    0,
    0,
    0
  ],
  "powers": [
    {
      "power_category": "V_Arachnos",
      "power_set": "Fortunata",
      "power": "*",
      "level": 0
    },
    {
      "power_category": "V_Arachnos",
      "power_set": "Fortunata_High",
      "power": "*",
      "level": 0
    },
    {
      "power_category": "V_Arachnos",
      "power_set": "Fortunata_Defense",
      "power": "*",
      "level": 0
    }
  ],
  "levels": [
    {
      "level": 35,
      "experience": 0,
      "display_names": [
        "Fortunata"
      ],
      "costumes": [
        "Arachnos_Widow_02"
      ]
    },
    {
      "level": 36,
      "experience": 0,
      "display_names": [
        "Fortunata"
      ],
      "costumes": [
        "Arachnos_Widow_02"
      ]
    },
    {
      "level": 37,
      "experience": 0,
      "display_names": [
        "Fortunata"
      ],
      "costumes": [
        "Arachnos_Widow_02"
      ]
    },
    {
      "level": 38,
      "experience": 0,
      "display_names": [
        "Fortunata"
      ],
      "costumes": [
        "Arachnos_Widow_02"
      ]
    },
    {
      "level": 39,
      "experience": 0,
      "display_names": [
        "Fortunata"
      ],
      "costumes": [
        "Arachnos_Widow_02"
      ]
    },
    {
      "level": 40,
      "experience": 0,
      "display_names": [
        "Fortunata"
      ],
      "costumes": [
        "Arachnos_Widow_02"
      ]
    },
    {
      "level": 41,
      "experience": 0,
      "display_names": [
        "Fortunata"
      ],
      "costumes": [
        "Arachnos_Widow_02"
      ]
    },
    {
      "level": 42,
      "experience": 0,
      "display_names": [
        "Fortunata"
      ],
      "costumes": [
        "Arachnos_Widow_02"
      ]
    },
    {
      "level": 43,
      "experience": 0,
      "display_names": [
        "Fortunata"
      ],
      "costumes": [
        "Arachnos_Widow_02"
      ]
    },
    {
      "level": 44,
      "experience": 0,
      "display_names": [
        "Fortunata"
      ],
      "costumes": [
        "Arachnos_Widow_02"
      ]
    },
    {
      "level": 45,
      "experience": 0,
      "display_names": [
        "Fortunata"
      ],
      "costumes": [
        "Arachnos_Widow_02"
      ]
    },
    {
      "level": 46,
      "experience": 0,
      "display_names": [
        "Fortunata"
      ],
      "costumes": [
        "Arachnos_Widow_02"
      ]
    },
    {
      "level": 47,
      "experience": 0,
      "display_names": [
        "Fortunata"
      ],
      "costumes": [
        "Arachnos_Widow_02"
      ]
    },
    {
      "level": 48,
      "experience": 0,
      "display_names": [
        "Fortunata"
      ],
      "costumes": [
        "Arachnos_Widow_02"
      ]
    },
    {
      "level": 49,
      "experience": 0,
      "display_names": [
        "Fortunata"
      ],
      "costumes": [
        "Arachnos_Widow_02"
      ]
    },
    {
      "level": 50,
      "experience": 0,
      "display_names": [
        "Fortunata"
      ],
      "costumes": [
        "Arachnos_Widow_02"
      ]
    },
    {
      "level": 51,
      "experience": 0,
      "display_names": [
        "Fortunata"
      ],
      "costumes": [
        "Arachnos_Widow_02"
      ]
    },
    {
      "level": 52,
      "experience": 0,
      "display_names": [
        "Fortunata"
      ],
      "costumes": [
        "Arachnos_Widow_02"
      ]
    },
    {
      "level": 53,
      "experience": 0,
      "display_names": [
        "Fortunata"
      ],
      "costumes": [
        "Arachnos_Widow_02"
      ]
    },
    {
      "level": 54,
      "experience": 0,
      "display_names": [
        "Fortunata"
      ],
      "costumes": [
        "Arachnos_Widow_02"
      ]
    }
  ]
}