{
  "name": "Arachnos_Barracuda_Boss_NoScale",
  "gender": "GENDER_MALE",
  "description": "A former treasure hunter, Kelli Forston was infected by mysterious creatures known as the Coralax. What she found in the briny deep remains a mystery, but it turned her heart as dark and cold as the depths. In combat, she is almost as quick and savage as her bloodthirsty mentor, Captain Mako.",
  "group_description": null,
  "display_class_name": null,
  "character_class_name": "boss_grunt",
  "ai_config": "Signatures_Ranged",
  "commandable_pet": false,
  "power_tags": [
    "HumanSkeleton"
  ],
  "additional_rewards": [

  ],
  "skill_hp_rewards": [

  ],
  "skill_status_rewards": [

  ],
  "ally": null,
  "gang": null,
  "reward_scale": 1.0,
  "game_exclusion": "None",
  "inactive_state_weapon": null,
  "ignores_combat_mods": false,
  "copy_creator_mods": false,
  "spawn_limit": 0,
  "spawn_limit_mission": 0,
  "ignore_av_to_eb_scaling": true,
  "can_zone": false,
  "custom_badge_stat": null,
  "badge_stat_flags": "DefaultBadgeStat",
  "rank": "VR_BOSS",
  "power_full_names": [
    "V_Arachnos.Barracuda_EB.Wave_of_Cold",
    "V_Arachnos.Barracuda_EB.Spiny_Urchins",
    "V_Arachnos.Barracuda_EB.Urchin_Spray",
    "V_Arachnos.Barracuda_EB.Psychic_Coral_Blast",
    "V_Arachnos.Barracuda_EB.Subdue",
    "V_Arachnos.Barracuda_EB.Super_Leap",
    "V_Arachnos.Barracuda_EB.Resistance",
    "V_Arachnos.Barracuda_AV.Water_Spout",
    "V_Arachnos.Barracuda_AV.Psychic_Coral_Scream",
    "V_Arachnos.Barracuda_AV.Psychic_Coral_Wail",
    "V_Arachnos.Barracuda_AV.Resistance",
    "V_FreedomPhalanx.Hero_Teleport.Teleport"
  ],
  "power_display_names": [
    "Wave of Cold",
    "Spiny Urchins",
    "Urchin Spray",
    "Psychic Coral Blast",
    "Subdue",
    "Super Leap",
    "Resistance",
    "Water Spout",
    "Psychic Coral Scream",
    "Psychic Coral Wail",
    "Resistance",
    "Teleport"
  ],
  "power_levels": [
    0,
    0,
    0,
    0,
    0,
    0,
    0,
    0,
    0,
    0,
    0,
    0
  ],
  "powers": [
    {
      "power_category": "V_Arachnos",
      "power_set": "Barracuda_EB",
      "power": "*",
      "level": 0
    },
    {
      "power_category": "V_Arachnos",
      "power_set": "Barracuda_AV",
      "power": "*",
      "level": 0
    },
    {
      "power_category": "V_FreedomPhalanx",
      "power_set": "Hero_Teleport",
      "power": "*",
      "level": 0
    }
  ],
  "levels": [
    {
      "level": 40,
      "experience": 0,
      "display_names": [
        "Barracuda"
      ],
      "costumes": [
        "Arachnos_Barracuda"
      ]
    },
    {
      "level": 41,
      "experience": 0,
      "display_names": [
        "Barracuda"
      ],
      "costumes": [
        "Arachnos_Barracuda"
      ]
    },
    {
      "level": 42,
      "experience": 0,
      "display_names": [
        "Barracuda"
      ],
      "costumes": [
        "Arachnos_Barracuda"
      ]
    },
    {
      "level": 43,
      "experience": 0,
      "display_names": [
        "Barracuda"
      ],
      "costumes": [
        "Arachnos_Barracuda"
      ]
    },
    {
      "level": 44,
      "experience": 0,
      "display_names": [
        "Barracuda"
      ],
      "costumes": [
        "Arachnos_Barracuda"
      ]
    },
    {
      "level": 45,
      "experience": 0,
      "display_names": [
        "Barracuda"
      ],
      "costumes": [
        "Arachnos_Barracuda"
      ]
    },
    {
      "level": 46,
      "experience": 0,
      "display_names": [
        "Barracuda"
      ],
      "costumes": [
        "Arachnos_Barracuda"
      ]
    },
    {
      "level": 47,
      "experience": 0,
      "display_names": [
        "Barracuda"
      ],
      "costumes": [
        "Arachnos_Barracuda"
      ]
    },
    {
      "level": 48,
      "experience": 0,
      "display_names": [
        "Barracuda"
      ],
      "costumes": [
        "Arachnos_Barracuda"
      ]
    },
    {
      "level": 49,
      "experience": 0,
      "display_names": [
        "Barracuda"
      ],
      "costumes": [
        "Arachnos_Barracuda"
      ]
    },
    {
      "level": 50,
      "experience": 0,
      "display_names": [
        "Barracuda"
      ],
      "costumes": [
        "Arachnos_Barracuda"
      ]
    },
    {
      "level": 51,
      "experience": 0,
      "display_names": [
        "Barracuda"
      ],
      "costumes": [
        "Arachnos_Barracuda"
      ]
    },
    {
      "level": 52,
      "experience": 0,
      "display_names": [
        "Barracuda"
      ],
      "costumes": [
        "Arachnos_Barracuda"
      ]
    },
    {
      "level": 53,
      "experience": 0,
      "display_names": [
        "Barracuda"
      ],
      "costumes": [
        "Arachnos_Barracuda"
      ]
    },
    {
      "level": 54,
      "experience": 0,
      "display_names": [
        "Barracuda"
      ],
      "costumes": [
        "Arachnos_Barracuda"
      ]
    }
  ]
}