{
  "name": "Arachnos_Ghost_Widow_Boss_NoScale",
  "gender": "GENDER_MALE",
  "description": "Beautiful, mysterious, and deadly. Ghost Widow appears to be an actual spirit from beyond the grave rather than a super with some sort of incorporeal power. Some have said she was once a rising star in the Night Widows when she was slain. Her thirst for vengeance must have been great, for she returned from the void and now serves at Recluse's side. There are rumors that her service isn't entirely voluntary, however.",
  "group_description": null,
  "display_class_name": "Patron",
  "character_class_name": "boss_grunt",
  "ai_config": "Signatures_Ranged",
  "commandable_pet": false,
  "power_tags": [
    "Raid"
  ],
  "additional_rewards": [

  ],
  "skill_hp_rewards": [

  ],
  "skill_status_rewards": [

  ],
  "ally": null,
  "gang": null,
  "reward_scale": 1.0,
  "game_exclusion": "None",
  "inactive_state_weapon": null,
  "ignores_combat_mods": false,
  "copy_creator_mods": false,
  "spawn_limit": 0,
  "spawn_limit_mission": 0,
  "ignore_av_to_eb_scaling": true,
  "can_zone": false,
  "custom_badge_stat": null,
  "badge_stat_flags": "DefaultBadgeStat",
  "rank": "VR_BOSS",
  "power_full_names": [
    "V_Arachnos.Ghost_Widow.Life_Drain",
    "V_Arachnos.Ghost_Widow.Dark_Blast",
    "V_Arachnos.Ghost_Widow.Gloom",
    "V_Arachnos.Ghost_Widow.Soul_Tentacles",
    "V_Arachnos.Ghost_Widow.Torrent",
    "V_Arachnos.Ghost_Widow.Soul_Storm",
    "V_Arachnos.Ghost_Widow.Petrifying_Gaze",
    "V_Arachnos.Ghost_Widow.Dark_Obliteration",
    "V_Arachnos.Ghost_Widow.Shadow_Fall",
    "V_Arachnos.Ghost_Widow.Resistance",
    "V_FreedomPhalanx.Hero_Teleport.Teleport"
  ],
  "power_display_names": [
    "Life Drain",
    "Dark Blast",
    "Gloom",
    "Soul Tentacles",
    "Torrent",
    "Soul Storm",
    "Petrifying Gaze",
    "Dark Obliteration",
    "Shadow Fall",
    "Resistance",
    "Teleport"
  ],
  "power_levels": [
    0,
    0,
    0,
    0,
    0,
    0,
    0,
    0,
    0,
    0,
    0
  ],
  "powers": [
    {
      "power_category": "V_Arachnos",
      "power_set": "Ghost_Widow",
      "power": "Life_Drain",
      "level": 0
    },
    {
      "power_category": "V_Arachnos",
      "power_set": "Ghost_Widow",
      "power": "Dark_Blast",
      "level": 0
    },
    {
      "power_category": "V_Arachnos",
      "power_set": "Ghost_Widow",
      "power": "Gloom",
      "level": 0
    },
    {
      "power_category": "V_Arachnos",
      "power_set": "Ghost_Widow",
      "power": "Soul_Tentacles",
      "level": 0
    },
    {
      "power_category": "V_Arachnos",
      "power_set": "Ghost_Widow",
      "power": "Torrent",
      "level": 0
    },
    {
      "power_category": "V_Arachnos",
      "power_set": "Ghost_Widow",
      "power": "Soul_Storm",
      "level": 0
    },
    {
      "power_category": "V_Arachnos",
      "power_set": "Ghost_Widow",
      "power": "Petrifying_Gaze",
      "level": 0
    },
    {
      "power_category": "V_Arachnos",
      "power_set": "Ghost_Widow",
      "power": "Dark_Obliteration",
      "level": 0
    },
    {
      "power_category": "V_Arachnos",
      "power_set": "Ghost_Widow",
      "power": "Shadow_Fall",
      "level": 0
    },
    {
      "power_category": "V_Arachnos",
      "power_set": "Ghost_Widow",
      "power": "Resistance",
      "level": 0
    },
    {
      "power_category": "V_FreedomPhalanx",
      "power_set": "Hero_Teleport",
      "power": "*",
      "level": 0
    }
  ],
  "levels": [
    {
      "level": 40,
      "experience": 0,
      "display_names": [
        "Ghost Widow"
      ],
      "costumes": [
        "Signature_Ghost_Widow"
      ]
    },
    {
      "level": 41,
      "experience": 0,
      "display_names": [
        "Ghost Widow"
      ],
      "costumes": [
        "Signature_Ghost_Widow"
      ]
    },
    {
      "level": 42,
      "experience": 0,
      "display_names": [
        "Ghost Widow"
      ],
      "costumes": [
        "Signature_Ghost_Widow"
      ]
    },
    {
      "level": 43,
      "experience": 0,
      "display_names": [
        "Ghost Widow"
      ],
      "costumes": [
        "Signature_Ghost_Widow"
      ]
    },
    {
      "level": 44,
      "experience": 0,
      "display_names": [
        "Ghost Widow"
      ],
      "costumes": [
        "Signature_Ghost_Widow"
      ]
    },
    {
      "level": 45,
      "experience": 0,
      "display_names": [
        "Ghost Widow"
      ],
      "costumes": [
        "Signature_Ghost_Widow"
      ]
    },
    {
      "level": 46,
      "experience": 0,
      "display_names": [
        "Ghost Widow"
      ],
      "costumes": [
        "Signature_Ghost_Widow"
      ]
    },
    {
      "level": 47,
      "experience": 0,
      "display_names": [
        "Ghost Widow"
      ],
      "costumes": [
        "Signature_Ghost_Widow"
      ]
    },
    {
      "level": 48,
      "experience": 0,
      "display_names": [
        "Ghost Widow"
      ],
      "costumes": [
        "Signature_Ghost_Widow"
      ]
    },
    {
      "level": 49,
      "experience": 0,
      "display_names": [
        "Ghost Widow"
      ],
      "costumes": [
        "Signature_Ghost_Widow"
      ]
    },
    {
      "level": 50,
      "experience": 0,
      "display_names": [
        "Ghost Widow"
      ],
      "costumes": [
        "Signature_Ghost_Widow"
      ]
    },
    {
      "level": 51,
      "experience": 0,
      "display_names": [
        "Ghost Widow"
      ],
      "costumes": [
        "Signature_Ghost_Widow"
      ]
    },
    {
      "level": 52,
      "experience": 0,
      "display_names": [
        "Ghost Widow"
      ],
      "costumes": [
        "Signature_Ghost_Widow"
      ]
    },
    {
      "level": 53,
      "experience": 0,
      "display_names": [
        "Ghost Widow"
      ],
      "costumes": [
        "Signature_Ghost_Widow"
      ]
    },
    {
      "level": 54,
      "experience": 0,
      "display_names": [
        "Ghost Widow"
      ],
      "costumes": [
        "Signature_Ghost_Widow"
      ]
    }
  ]
}