{
  "name": "Arachnos_Olivia_Darque",
  "gender": "GENDER_FEMALE",
  "description": "The assistant to Marshall Brass is one of the big players in Cap au Diable. Do right by her and you may be well on your way to greatness. Let Longbow defeat her and your life won't be worth much.",
  "group_description": null,
  "display_class_name": null,
  "character_class_name": "boss_grunt",
  "ai_config": "Default_Ranged",
  "commandable_pet": false,
  "power_tags": [
    "HumanSkeleton",
    "Human"
  ],
  "additional_rewards": [

  ],
  "skill_hp_rewards": [

  ],
  "skill_status_rewards": [

  ],
  "ally": null,
  "gang": null,
  "reward_scale": 1.0,
  "game_exclusion": "None",
  "inactive_state_weapon": null,
  "ignores_combat_mods": false,
  "copy_creator_mods": false,
  "spawn_limit": 0,
  "spawn_limit_mission": 0,
  "ignore_av_to_eb_scaling": false,
  "can_zone": false,
  "custom_badge_stat": null,
  "badge_stat_flags": "DefaultBadgeStat",
  "rank": "VR_BOSS",
  "power_full_names": [
    "V_Arachnos.Olivia_Darque.Shadow_Punch",
    "V_Arachnos.Olivia_Darque.Smite",
    "V_Arachnos.Olivia_Darque.Shadow_Maul",
    "V_Arachnos.Olivia_Darque.Life_Drain",
    "V_Arachnos.Olivia_Darque.Dark_Blast",
    "V_Arachnos.Olivia_Darque.Gloom",
    "V_Arachnos.Olivia_Darque.Tenebrous_Tentacles"
  ],
  "power_display_names": [
    "Shadow Punch",
    "Smite",
    "Shadow Maul",
    "Life Drain",
    "Dark Blast",
    "Gloom",
    "Tenebrous Tentacles"
  ],
  "power_levels": [
    0,
    0,
    0,
    0,
    0,
    0,
    0
  ],
  "powers": [
    {
      "power_category": "V_Arachnos",
      "power_set": "Olivia_Darque",
      "power": "*",
      "level": 0
    }
  ],
  "levels": [
    {
      "level": 10,
      "experience": 0,
      "display_names": [
        "Olivia Darque"
      ],
      "costumes": [
        "Model_Olivia_Darque"
      ]
    },
    {
      "level": 11,
      "experience": 0,
      "display_names": [
        "Olivia Darque"
      ],
      "costumes": [
        "Model_Olivia_Darque"
      ]
    },
    {
      "level": 12,
      "experience": 0,
      "display_names": [
        "Olivia Darque"
      ],
      "costumes": [
        "Model_Olivia_Darque"
      ]
    },
    {
      "level": 13,
      "experience": 0,
      "display_names": [
        "Olivia Darque"
      ],
      "costumes": [
        "Model_Olivia_Darque"
      ]
    },
    {
      "level": 14,
      "experience": 0,
      "display_names": [
        "Olivia Darque"
      ],
      "costumes": [
        "Model_Olivia_Darque"
      ]
    },
    {
      "level": 15,
      "experience": 0,
      "display_names": [
        "Olivia Darque"
      ],
      "costumes": [
        "Model_Olivia_Darque"
      ]
    },
    {
      "level": 16,
      "experience": 0,
      "display_names": [
        "Olivia Darque"
      ],
      "costumes": [
        "Model_Olivia_Darque"
      ]
    }
  ]
}