{
  "name": "Awakened_Enthralled_Fighter",
  "gender": "GENDER_MALE",
  "description": "This Resistance Fighter has fallen prey to one of the Awakened and is no longer an individual with any survival instinct. It serves its Awakened controllers without question.",
  "group_description": null,
  "display_class_name": null,
  "character_class_name": "minion_grunt",
  "ai_config": "Default_Ranged",
  "commandable_pet": false,
  "power_tags": [
    "HumanSkeleton",
    "Human"
  ],
  "additional_rewards": [

  ],
  "skill_hp_rewards": [

  ],
  "skill_status_rewards": [

  ],
  "ally": null,
  "gang": null,
  "reward_scale": 1.0,
  "game_exclusion": "None",
  "inactive_state_weapon": null,
  "ignores_combat_mods": false,
  "copy_creator_mods": false,
  "spawn_limit": 0,
  "spawn_limit_mission": 0,
  "ignore_av_to_eb_scaling": false,
  "can_zone": false,
  "custom_badge_stat": null,
  "badge_stat_flags": "DefaultBadgeStat",
  "rank": "VR_MINION",
  "power_full_names": [
    "PraetorianResistance.Minion.Power_Punch",
    "PraetorianResistance.Minion.Power_Punch2",
    "PraetorianResistance.Minion.Burst",
    "PraetorianResistance.Minion.Heavy_Burst"
  ],
  "power_display_names": [
    "Power Punch",
    "Power Punch",
    "Burst",
    "Heavy Burst"
  ],
  "power_levels": [
    0,
    0,
    0,
    0
  ],
  "powers": [
    {
      "power_category": "PraetorianResistance",
      "power_set": "Minion",
      "power": "*",
      "level": 0
    }
  ],
  "levels": [
    {
      "level": 20,
      "experience": 0,
      "display_names": [
        "Enthralled Fighter"
      ],
      "costumes": [
        "Resistance_Fighter_01",
        "Resistance_Fighter_02",
        "Resistance_Fighter_03"
      ]
    },
    {
      "level": 21,
      "experience": 0,
      "display_names": [
        "Enthralled Fighter"
      ],
      "costumes": [
        "Resistance_Fighter_01",
        "Resistance_Fighter_02",
        "Resistance_Fighter_03"
      ]
    },
    {
      "level": 22,
      "experience": 0,
      "display_names": [
        "Enthralled Fighter"
      ],
      "costumes": [
        "Resistance_Fighter_01",
        "Resistance_Fighter_02",
        "Resistance_Fighter_03"
      ]
    },
    {
      "level": 23,
      "experience": 0,
      "display_names": [
        "Enthralled Fighter"
      ],
      "costumes": [
        "Resistance_Fighter_01",
        "Resistance_Fighter_02",
        "Resistance_Fighter_03"
      ]
    },
    {
      "level": 24,
      "experience": 0,
      "display_names": [
        "Enthralled Fighter"
      ],
      "costumes": [
        "Resistance_Fighter_01",
        "Resistance_Fighter_02",
        "Resistance_Fighter_03"
      ]
    },
    {
      "level": 25,
      "experience": 0,
      "display_names": [
        "Enthralled Fighter"
      ],
      "costumes": [
        "Resistance_Fighter_01",
        "Resistance_Fighter_02",
        "Resistance_Fighter_03"
      ]
    },
    {
      "level": 26,
      "experience": 0,
      "display_names": [
        "Enthralled Fighter"
      ],
      "costumes": [
        "Resistance_Fighter_01",
        "Resistance_Fighter_02",
        "Resistance_Fighter_03"
      ]
    },
    {
      "level": 27,
      "experience": 0,
      "display_names": [
        "Enthralled Fighter"
      ],
      "costumes": [
        "Resistance_Fighter_01",
        "Resistance_Fighter_02",
        "Resistance_Fighter_03"
      ]
    },
    {
      "level": 28,
      "experience": 0,
      "display_names": [
        "Enthralled Fighter"
      ],
      "costumes": [
        "Resistance_Fighter_01",
        "Resistance_Fighter_02",
        "Resistance_Fighter_03"
      ]
    },
    {
      "level": 29,
      "experience": 0,
      "display_names": [
        "Enthralled Fighter"
      ],
      "costumes": [
        "Resistance_Fighter_01",
        "Resistance_Fighter_02",
        "Resistance_Fighter_03"
      ]
    },
    {
      "level": 30,
      "experience": 0,
      "display_names": [
        "Enthralled Fighter"
      ],
      "costumes": [
        "Resistance_Fighter_01",
        "Resistance_Fighter_02",
        "Resistance_Fighter_03"
      ]
    },
    {
      "level": 31,
      "experience": 0,
      "display_names": [
        "Enthralled Fighter"
      ],
      "costumes": [
        "Resistance_Fighter_01",
        "Resistance_Fighter_02",
        "Resistance_Fighter_03"
      ]
    },
    {
      "level": 32,
      "experience": 0,
      "display_names": [
        "Enthralled Fighter"
      ],
      "costumes": [
        "Resistance_Fighter_01",
        "Resistance_Fighter_02",
        "Resistance_Fighter_03"
      ]
    },
    {
      "level": 33,
      "experience": 0,
      "display_names": [
        "Enthralled Fighter"
      ],
      "costumes": [
        "Resistance_Fighter_01",
        "Resistance_Fighter_02",
        "Resistance_Fighter_03"
      ]
    },
    {
      "level": 34,
      "experience": 0,
      "display_names": [
        "Enthralled Fighter"
      ],
      "costumes": [
        "Resistance_Fighter_01",
        "Resistance_Fighter_02",
        "Resistance_Fighter_03"
      ]
    },
    {
      "level": 35,
      "experience": 0,
      "display_names": [
        "Enthralled Fighter"
      ],
      "costumes": [
        "Resistance_Fighter_01",
        "Resistance_Fighter_02",
        "Resistance_Fighter_03"
      ]
    },
    {
      "level": 36,
      "experience": 0,
      "display_names": [
        "Enthralled Fighter"
      ],
      "costumes": [
        "Resistance_Fighter_01",
        "Resistance_Fighter_02",
        "Resistance_Fighter_03"
      ]
    },
    {
      "level": 37,
      "experience": 0,
      "display_names": [
        "Enthralled Fighter"
      ],
      "costumes": [
        "Resistance_Fighter_01",
        "Resistance_Fighter_02",
        "Resistance_Fighter_03"
      ]
    },
    {
      "level": 38,
      "experience": 0,
      "display_names": [
        "Enthralled Fighter"
      ],
      "costumes": [
        "Resistance_Fighter_01",
        "Resistance_Fighter_02",
        "Resistance_Fighter_03"
      ]
    },
    {
      "level": 39,
      "experience": 0,
      "display_names": [
        "Enthralled Fighter"
      ],
      "costumes": [
        "Resistance_Fighter_01",
        "Resistance_Fighter_02",
        "Resistance_Fighter_03"
      ]
    },
    {
      "level": 40,
      "experience": 0,
      "display_names": [
        "Enthralled Fighter"
      ],
      "costumes": [
        "Resistance_Fighter_01",
        "Resistance_Fighter_02",
        "Resistance_Fighter_03"
      ]
    },
    {
      "level": 41,
      "experience": 0,
      "display_names": [
        "Enthralled Fighter"
      ],
      "costumes": [
        "Resistance_Fighter_01",
        "Resistance_Fighter_02",
        "Resistance_Fighter_03"
      ]
    },
    {
      "level": 42,
      "experience": 0,
      "display_names": [
        "Enthralled Fighter"
      ],
      "costumes": [
        "Resistance_Fighter_01",
        "Resistance_Fighter_02",
        "Resistance_Fighter_03"
      ]
    },
    {
      "level": 43,
      "experience": 0,
      "display_names": [
        "Enthralled Fighter"
      ],
      "costumes": [
        "Resistance_Fighter_01",
        "Resistance_Fighter_02",
        "Resistance_Fighter_03"
      ]
    },
    {
      "level": 44,
      "experience": 0,
      "display_names": [
        "Enthralled Fighter"
      ],
      "costumes": [
        "Resistance_Fighter_01",
        "Resistance_Fighter_02",
        "Resistance_Fighter_03"
      ]
    },
    {
      "level": 45,
      "experience": 0,
      "display_names": [
        "Enthralled Fighter"
      ],
      "costumes": [
        "Resistance_Fighter_01",
        "Resistance_Fighter_02",
        "Resistance_Fighter_03"
      ]
    },
    {
      "level": 46,
      "experience": 0,
      "display_names": [
        "Enthralled Fighter"
      ],
      "costumes": [
        "Resistance_Fighter_01",
        "Resistance_Fighter_02",
        "Resistance_Fighter_03"
      ]
    },
    {
      "level": 47,
      "experience": 0,
      "display_names": [
        "Enthralled Fighter"
      ],
      "costumes": [
        "Resistance_Fighter_01",
        "Resistance_Fighter_02",
        "Resistance_Fighter_03"
      ]
    },
    {
      "level": 48,
      "experience": 0,
      "display_names": [
        "Enthralled Fighter"
      ],
      "costumes": [
        "Resistance_Fighter_01",
        "Resistance_Fighter_02",
        "Resistance_Fighter_03"
      ]
    },
    {
      "level": 49,
      "experience": 0,
      "display_names": [
        "Enthralled Fighter"
      ],
      "costumes": [
        "Resistance_Fighter_01",
        "Resistance_Fighter_02",
        "Resistance_Fighter_03"
      ]
    },
    {
      "level": 50,
      "experience": 0,
      "display_names": [
        "Enthralled Fighter"
      ],
      "costumes": [
        "Resistance_Fighter_01",
        "Resistance_Fighter_02",
        "Resistance_Fighter_03"
      ]
    },
    {
      "level": 51,
      "experience": 0,
      "display_names": [
        "Enthralled Fighter"
      ],
      "costumes": [
        "Resistance_Fighter_01",
        "Resistance_Fighter_02",
        "Resistance_Fighter_03"
      ]
    },
    {
      "level": 52,
      "experience": 0,
      "display_names": [
        "Enthralled Fighter"
      ],
      "costumes": [
        "Resistance_Fighter_01",
        "Resistance_Fighter_02",
        "Resistance_Fighter_03"
      ]
    },
    {
      "level": 53,
      "experience": 0,
      "display_names": [
        "Enthralled Fighter"
      ],
      "costumes": [
        "Resistance_Fighter_01",
        "Resistance_Fighter_02",
        "Resistance_Fighter_03"
      ]
    },
    {
      "level": 54,
      "experience": 0,
      "display_names": [
        "Enthralled Fighter"
      ],
      "costumes": [
        "Resistance_Fighter_01",
        "Resistance_Fighter_02",
        "Resistance_Fighter_03"
      ]
    }
  ]
}