{
  "name": "Awakened_ImmanenceFragment",
  "gender": "GENDER_MALE",
  "description": "TO BE ADDED",
  "group_description": null,
  "display_class_name": "Underling",
  "character_class_name": "minion_small",
  "ai_config": "Default_Ranged",
  "commandable_pet": false,
  "power_tags": [
    "Humanoid",
    "HumanSkeleton"
  ],
  "additional_rewards": [

  ],
  "skill_hp_rewards": [

  ],
  "skill_status_rewards": [

  ],
  "ally": null,
  "gang": null,
  "reward_scale": 1.0,
  "game_exclusion": "None",
  "inactive_state_weapon": null,
  "ignores_combat_mods": false,
  "copy_creator_mods": true,
  "spawn_limit": 0,
  "spawn_limit_mission": 0,
  "ignore_av_to_eb_scaling": false,
  "can_zone": false,
  "custom_badge_stat": null,
  "badge_stat_flags": "DefaultBadgeStat",
  "rank": "VR_SMALL",
  "power_full_names": [
    "Awakened.Immanence.Psionic_Blast",
    "Awakened.Immanence_Shard.Overload"
  ],
  "power_display_names": [
    "Psionic Blast",
    "Overload"
  ],
  "power_levels": [
    0,
    0
  ],
  "powers": [
    {
      "power_category": "Awakened",
      "power_set": "Immanence",
      "power": "Psionic_Blast",
      "level": 0
    },
    {
      "power_category": "Awakened",
      "power_set": "Immanence_Shard",
      "power": "*",
      "level": 0
    }
  ],
  "levels": [
    {
      "level": 20,
      "experience": 0,
      "display_names": [
        "Fragment of Immanence"
      ],
      "costumes": [
        "Awakened_Immanence_Shard"
      ]
    },
    {
      "level": 21,
      "experience": 0,
      "display_names": [
        "Fragment of Immanence"
      ],
      "costumes": [
        "Awakened_Immanence_Shard"
      ]
    },
    {
      "level": 22,
      "experience": 0,
      "display_names": [
        "Fragment of Immanence"
      ],
      "costumes": [
        "Awakened_Immanence_Shard"
      ]
    },
    {
      "level": 23,
      "experience": 0,
      "display_names": [
        "Fragment of Immanence"
      ],
      "costumes": [
        "Awakened_Immanence_Shard"
      ]
    },
    {
      "level": 24,
      "experience": 0,
      "display_names": [
        "Fragment of Immanence"
      ],
      "costumes": [
        "Awakened_Immanence_Shard"
      ]
    },
    {
      "level": 25,
      "experience": 0,
      "display_names": [
        "Fragment of Immanence"
      ],
      "costumes": [
        "Awakened_Immanence_Shard"
      ]
    },
    {
      "level": 26,
      "experience": 0,
      "display_names": [
        "Fragment of Immanence"
      ],
      "costumes": [
        "Awakened_Immanence_Shard"
      ]
    },
    {
      "level": 27,
      "experience": 0,
      "display_names": [
        "Fragment of Immanence"
      ],
      "costumes": [
        "Awakened_Immanence_Shard"
      ]
    },
    {
      "level": 28,
      "experience": 0,
      "display_names": [
        "Fragment of Immanence"
      ],
      "costumes": [
        "Awakened_Immanence_Shard"
      ]
    },
    {
      "level": 29,
      "experience": 0,
      "display_names": [
        "Fragment of Immanence"
      ],
      "costumes": [
        "Awakened_Immanence_Shard"
      ]
    },
    {
      "level": 30,
      "experience": 0,
      "display_names": [
        "Fragment of Immanence"
      ],
      "costumes": [
        "Awakened_Immanence_Shard"
      ]
    },
    {
      "level": 31,
      "experience": 0,
      "display_names": [
        "Fragment of Immanence"
      ],
      "costumes": [
        "Awakened_Immanence_Shard"
      ]
    },
    {
      "level": 32,
      "experience": 0,
      "display_names": [
        "Fragment of Immanence"
      ],
      "costumes": [
        "Awakened_Immanence_Shard"
      ]
    },
    {
      "level": 33,
      "experience": 0,
      "display_names": [
        "Fragment of Immanence"
      ],
      "costumes": [
        "Awakened_Immanence_Shard"
      ]
    },
    {
      "level": 34,
      "experience": 0,
      "display_names": [
        "Fragment of Immanence"
      ],
      "costumes": [
        "Awakened_Immanence_Shard"
      ]
    },
    {
      "level": 35,
      "experience": 0,
      "display_names": [
        "Fragment of Immanence"
      ],
      "costumes": [
        "Awakened_Immanence_Shard"
      ]
    },
    {
      "level": 36,
      "experience": 0,
      "display_names": [
        "Fragment of Immanence"
      ],
      "costumes": [
        "Awakened_Immanence_Shard"
      ]
    },
    {
      "level": 37,
      "experience": 0,
      "display_names": [
        "Fragment of Immanence"
      ],
      "costumes": [
        "Awakened_Immanence_Shard"
      ]
    },
    {
      "level": 38,
      "experience": 0,
      "display_names": [
        "Fragment of Immanence"
      ],
      "costumes": [
        "Awakened_Immanence_Shard"
      ]
    },
    {
      "level": 39,
      "experience": 0,
      "display_names": [
        "Fragment of Immanence"
      ],
      "costumes": [
        "Awakened_Immanence_Shard"
      ]
    },
    {
      "level": 40,
      "experience": 0,
      "display_names": [
        "Fragment of Immanence"
      ],
      "costumes": [
        "Awakened_Immanence_Shard"
      ]
    },
    {
      "level": 41,
      "experience": 0,
      "display_names": [
        "Fragment of Immanence"
      ],
      "costumes": [
        "Awakened_Immanence_Shard"
      ]
    },
    {
      "level": 42,
      "experience": 0,
      "display_names": [
        "Fragment of Immanence"
      ],
      "costumes": [
        "Awakened_Immanence_Shard"
      ]
    },
    {
      "level": 43,
      "experience": 0,
      "display_names": [
        "Fragment of Immanence"
      ],
      "costumes": [
        "Awakened_Immanence_Shard"
      ]
    },
    {
      "level": 44,
      "experience": 0,
      "display_names": [
        "Fragment of Immanence"
      ],
      "costumes": [
        "Awakened_Immanence_Shard"
      ]
    },
    {
      "level": 45,
      "experience": 0,
      "display_names": [
        "Fragment of Immanence"
      ],
      "costumes": [
        "Awakened_Immanence_Shard"
      ]
    },
    {
      "level": 46,
      "experience": 0,
      "display_names": [
        "Fragment of Immanence"
      ],
      "costumes": [
        "Awakened_Immanence_Shard"
      ]
    },
    {
      "level": 47,
      "experience": 0,
      "display_names": [
        "Fragment of Immanence"
      ],
      "costumes": [
        "Awakened_Immanence_Shard"
      ]
    },
    {
      "level": 48,
      "experience": 0,
      "display_names": [
        "Fragment of Immanence"
      ],
      "costumes": [
        "Awakened_Immanence_Shard"
      ]
    },
    {
      "level": 49,
      "experience": 0,
      "display_names": [
        "Fragment of Immanence"
      ],
      "costumes": [
        "Awakened_Immanence_Shard"
      ]
    },
    {
      "level": 50,
      "experience": 0,
      "display_names": [
        "Fragment of Immanence"
      ],
      "costumes": [
        "Awakened_Immanence_Shard"
      ]
    },
    {
      "level": 51,
      "experience": 0,
      "display_names": [
        "Fragment of Immanence"
      ],
      "costumes": [
        "Awakened_Immanence_Shard"
      ]
    },
    {
      "level": 52,
      "experience": 0,
      "display_names": [
        "Fragment of Immanence"
      ],
      "costumes": [
        "Awakened_Immanence_Shard"
      ]
    },
    {
      "level": 53,
      "experience": 0,
      "display_names": [
        "Fragment of Immanence"
      ],
      "costumes": [
        "Awakened_Immanence_Shard"
      ]
    },
    {
      "level": 54,
      "experience": 0,
      "display_names": [
        "Fragment of Immanence"
      ],
      "costumes": [
        "Awakened_Immanence_Shard"
      ]
    }
  ]
}