{
  "name": "Awakened_Oppressor",
  "gender": "GENDER_FEMALE",
  "description": "Oppressors are powerful and vengeful psychics who revel in enslaving lesser minds to their own. Close proximity to an Oppressor will cause short bouts of confusion in most subjects as their mind is slowly siphoned away and replaced with that of the Oppressor's. Their rage at being contained within the Seer Network has manifestation of corrupted flesh that wracks their bodies, resulting in their subsequent removal from the Network for safety reasons. Oppressors are thus without use in Praetoria, as the dangerous side-effects of prolonged exposure to the Seer network prevent them from remaining safely bound to it, and their desire to enslave the will of others makes them unfit for duty elsewhere.",
  "group_description": null,
  "display_class_name": null,
  "character_class_name": "lt_grunt",
  "ai_config": "Default_Ranged",
  "commandable_pet": false,
  "power_tags": [
    "Humanoid",
    "HumanSkeleton"
  ],
  "additional_rewards": [

  ],
  "skill_hp_rewards": [

  ],
  "skill_status_rewards": [

  ],
  "ally": null,
  "gang": null,
  "reward_scale": 1.0,
  "game_exclusion": "None",
  "inactive_state_weapon": null,
  "ignores_combat_mods": false,
  "copy_creator_mods": false,
  "spawn_limit": -1,
  "spawn_limit_mission": -1,
  "ignore_av_to_eb_scaling": false,
  "can_zone": false,
  "custom_badge_stat": null,
  "badge_stat_flags": "DefaultBadgeStat",
  "rank": "VR_LIEUTENANT",
  "power_full_names": [
    "Awakened.Oppressor.Psionic_Blast",
    "Awakened.Oppressor.Mind_Siphon",
    "Awakened.Oppressor.Psionic_Pulse",
    "Awakened.Awakened_High_Whips.Psionic_Lash",
    "Awakened.Awakened_High_Whips.Psionic_Siphon",
    "Awakened.Summon_Seers.Oppressor",
    "Awakened.Resistances.Damage_LT"
  ],
  "power_display_names": [
    "Psionic Blast",
    "Mind Siphon",
    "Psionic Pulse",
    "Psionic Lash",
    "Psionic Siphon",
    "Oppressor",
    "Damage Resistance"
  ],
  "power_levels": [
    0,
    0,
    0,
    0,
    0,
    0,
    0
  ],
  "powers": [
    {
      "power_category": "Awakened",
      "power_set": "Oppressor",
      "power": "*",
      "level": 0
    },
    {
      "power_category": "Awakened",
      "power_set": "Awakened_High_Whips",
      "power": "*",
      "level": 0
    },
    {
      "power_category": "Awakened",
      "power_set": "Summon_Seers",
      "power": "Oppressor",
      "level": 0
    },
    {
      "power_category": "Awakened",
      "power_set": "Resistances",
      "power": "Damage_LT",
      "level": 0
    }
  ],
  "levels": [
    {
      "level": 20,
      "experience": 0,
      "display_names": [
        "Oppressor"
      ],
      "costumes": [
        "Awakened_Oppressor_Female_01",
        "Awakened_Oppressor_Female_02",
        "Awakened_Oppressor_Female_03",
        "Awakened_Oppressor_Female_04",
        "Awakened_Oppressor_Female_05",
        "Awakened_Oppressor_Female_06"
      ]
    },
    {
      "level": 21,
      "experience": 0,
      "display_names": [
        "Oppressor"
      ],
      "costumes": [
        "Awakened_Oppressor_Female_01",
        "Awakened_Oppressor_Female_02",
        "Awakened_Oppressor_Female_03",
        "Awakened_Oppressor_Female_04",
        "Awakened_Oppressor_Female_05",
        "Awakened_Oppressor_Female_06"
      ]
    },
    {
      "level": 22,
      "experience": 0,
      "display_names": [
        "Oppressor"
      ],
      "costumes": [
        "Awakened_Oppressor_Female_01",
        "Awakened_Oppressor_Female_02",
        "Awakened_Oppressor_Female_03",
        "Awakened_Oppressor_Female_04",
        "Awakened_Oppressor_Female_05",
        "Awakened_Oppressor_Female_06"
      ]
    },
    {
      "level": 23,
      "experience": 0,
      "display_names": [
        "Oppressor"
      ],
      "costumes": [
        "Awakened_Oppressor_Female_01",
        "Awakened_Oppressor_Female_02",
        "Awakened_Oppressor_Female_03",
        "Awakened_Oppressor_Female_04",
        "Awakened_Oppressor_Female_05",
        "Awakened_Oppressor_Female_06"
      ]
    },
    {
      "level": 24,
      "experience": 0,
      "display_names": [
        "Oppressor"
      ],
      "costumes": [
        "Awakened_Oppressor_Female_01",
        "Awakened_Oppressor_Female_02",
        "Awakened_Oppressor_Female_03",
        "Awakened_Oppressor_Female_04",
        "Awakened_Oppressor_Female_05",
        "Awakened_Oppressor_Female_06"
      ]
    },
    {
      "level": 25,
      "experience": 0,
      "display_names": [
        "Oppressor"
      ],
      "costumes": [
        "Awakened_Oppressor_Female_01",
        "Awakened_Oppressor_Female_02",
        "Awakened_Oppressor_Female_03",
        "Awakened_Oppressor_Female_04",
        "Awakened_Oppressor_Female_05",
        "Awakened_Oppressor_Female_06"
      ]
    },
    {
      "level": 26,
      "experience": 0,
      "display_names": [
        "Oppressor"
      ],
      "costumes": [
        "Awakened_Oppressor_Female_01",
        "Awakened_Oppressor_Female_02",
        "Awakened_Oppressor_Female_03",
        "Awakened_Oppressor_Female_04",
        "Awakened_Oppressor_Female_05",
        "Awakened_Oppressor_Female_06"
      ]
    },
    {
      "level": 27,
      "experience": 0,
      "display_names": [
        "Oppressor"
      ],
      "costumes": [
        "Awakened_Oppressor_Female_01",
        "Awakened_Oppressor_Female_02",
        "Awakened_Oppressor_Female_03",
        "Awakened_Oppressor_Female_04",
        "Awakened_Oppressor_Female_05",
        "Awakened_Oppressor_Female_06"
      ]
    },
    {
      "level": 28,
      "experience": 0,
      "display_names": [
        "Oppressor"
      ],
      "costumes": [
        "Awakened_Oppressor_Female_01",
        "Awakened_Oppressor_Female_02",
        "Awakened_Oppressor_Female_03",
        "Awakened_Oppressor_Female_04",
        "Awakened_Oppressor_Female_05",
        "Awakened_Oppressor_Female_06"
      ]
    },
    {
      "level": 29,
      "experience": 0,
      "display_names": [
        "Oppressor"
      ],
      "costumes": [
        "Awakened_Oppressor_Female_01",
        "Awakened_Oppressor_Female_02",
        "Awakened_Oppressor_Female_03",
        "Awakened_Oppressor_Female_04",
        "Awakened_Oppressor_Female_05",
        "Awakened_Oppressor_Female_06"
      ]
    },
    {
      "level": 30,
      "experience": 0,
      "display_names": [
        "Oppressor"
      ],
      "costumes": [
        "Awakened_Oppressor_Female_01",
        "Awakened_Oppressor_Female_02",
        "Awakened_Oppressor_Female_03",
        "Awakened_Oppressor_Female_04",
        "Awakened_Oppressor_Female_05",
        "Awakened_Oppressor_Female_06"
      ]
    },
    {
      "level": 31,
      "experience": 0,
      "display_names": [
        "Oppressor"
      ],
      "costumes": [
        "Awakened_Oppressor_Female_01",
        "Awakened_Oppressor_Female_02",
        "Awakened_Oppressor_Female_03",
        "Awakened_Oppressor_Female_04",
        "Awakened_Oppressor_Female_05",
        "Awakened_Oppressor_Female_06"
      ]
    },
    {
      "level": 32,
      "experience": 0,
      "display_names": [
        "Oppressor"
      ],
      "costumes": [
        "Awakened_Oppressor_Female_01",
        "Awakened_Oppressor_Female_02",
        "Awakened_Oppressor_Female_03",
        "Awakened_Oppressor_Female_04",
        "Awakened_Oppressor_Female_05",
        "Awakened_Oppressor_Female_06"
      ]
    },
    {
      "level": 33,
      "experience": 0,
      "display_names": [
        "Oppressor"
      ],
      "costumes": [
        "Awakened_Oppressor_Female_01",
        "Awakened_Oppressor_Female_02",
        "Awakened_Oppressor_Female_03",
        "Awakened_Oppressor_Female_04",
        "Awakened_Oppressor_Female_05",
        "Awakened_Oppressor_Female_06"
      ]
    },
    {
      "level": 34,
      "experience": 0,
      "display_names": [
        "Oppressor"
      ],
      "costumes": [
        "Awakened_Oppressor_Female_01",
        "Awakened_Oppressor_Female_02",
        "Awakened_Oppressor_Female_03",
        "Awakened_Oppressor_Female_04",
        "Awakened_Oppressor_Female_05",
        "Awakened_Oppressor_Female_06"
      ]
    },
    {
      "level": 35,
      "experience": 0,
      "display_names": [
        "Oppressor"
      ],
      "costumes": [
        "Awakened_Oppressor_Female_01",
        "Awakened_Oppressor_Female_02",
        "Awakened_Oppressor_Female_03",
        "Awakened_Oppressor_Female_04",
        "Awakened_Oppressor_Female_05",
        "Awakened_Oppressor_Female_06"
      ]
    },
    {
      "level": 36,
      "experience": 0,
      "display_names": [
        "Oppressor"
      ],
      "costumes": [
        "Awakened_Oppressor_Female_01",
        "Awakened_Oppressor_Female_02",
        "Awakened_Oppressor_Female_03",
        "Awakened_Oppressor_Female_04",
        "Awakened_Oppressor_Female_05",
        "Awakened_Oppressor_Female_06"
      ]
    },
    {
      "level": 37,
      "experience": 0,
      "display_names": [
        "Oppressor"
      ],
      "costumes": [
        "Awakened_Oppressor_Female_01",
        "Awakened_Oppressor_Female_02",
        "Awakened_Oppressor_Female_03",
        "Awakened_Oppressor_Female_04",
        "Awakened_Oppressor_Female_05",
        "Awakened_Oppressor_Female_06"
      ]
    },
    {
      "level": 38,
      "experience": 0,
      "display_names": [
        "Oppressor"
      ],
      "costumes": [
        "Awakened_Oppressor_Female_01",
        "Awakened_Oppressor_Female_02",
        "Awakened_Oppressor_Female_03",
        "Awakened_Oppressor_Female_04",
        "Awakened_Oppressor_Female_05",
        "Awakened_Oppressor_Female_06"
      ]
    },
    {
      "level": 39,
      "experience": 0,
      "display_names": [
        "Oppressor"
      ],
      "costumes": [
        "Awakened_Oppressor_Female_01",
        "Awakened_Oppressor_Female_02",
        "Awakened_Oppressor_Female_03",
        "Awakened_Oppressor_Female_04",
        "Awakened_Oppressor_Female_05",
        "Awakened_Oppressor_Female_06"
      ]
    },
    {
      "level": 40,
      "experience": 0,
      "display_names": [
        "Oppressor"
      ],
      "costumes": [
        "Awakened_Oppressor_Female_01",
        "Awakened_Oppressor_Female_02",
        "Awakened_Oppressor_Female_03",
        "Awakened_Oppressor_Female_04",
        "Awakened_Oppressor_Female_05",
        "Awakened_Oppressor_Female_06"
      ]
    },
    {
      "level": 41,
      "experience": 0,
      "display_names": [
        "Oppressor"
      ],
      "costumes": [
        "Awakened_Oppressor_Female_01",
        "Awakened_Oppressor_Female_02",
        "Awakened_Oppressor_Female_03",
        "Awakened_Oppressor_Female_04",
        "Awakened_Oppressor_Female_05",
        "Awakened_Oppressor_Female_06"
      ]
    },
    {
      "level": 42,
      "experience": 0,
      "display_names": [
        "Oppressor"
      ],
      "costumes": [
        "Awakened_Oppressor_Female_01",
        "Awakened_Oppressor_Female_02",
        "Awakened_Oppressor_Female_03",
        "Awakened_Oppressor_Female_04",
        "Awakened_Oppressor_Female_05",
        "Awakened_Oppressor_Female_06"
      ]
    },
    {
      "level": 43,
      "experience": 0,
      "display_names": [
        "Oppressor"
      ],
      "costumes": [
        "Awakened_Oppressor_Female_01",
        "Awakened_Oppressor_Female_02",
        "Awakened_Oppressor_Female_03",
        "Awakened_Oppressor_Female_04",
        "Awakened_Oppressor_Female_05",
        "Awakened_Oppressor_Female_06"
      ]
    },
    {
      "level": 44,
      "experience": 0,
      "display_names": [
        "Oppressor"
      ],
      "costumes": [
        "Awakened_Oppressor_Female_01",
        "Awakened_Oppressor_Female_02",
        "Awakened_Oppressor_Female_03",
        "Awakened_Oppressor_Female_04",
        "Awakened_Oppressor_Female_05",
        "Awakened_Oppressor_Female_06"
      ]
    },
    {
      "level": 45,
      "experience": 0,
      "display_names": [
        "Oppressor"
      ],
      "costumes": [
        "Awakened_Oppressor_Female_01",
        "Awakened_Oppressor_Female_02",
        "Awakened_Oppressor_Female_03",
        "Awakened_Oppressor_Female_04",
        "Awakened_Oppressor_Female_05",
        "Awakened_Oppressor_Female_06"
      ]
    },
    {
      "level": 46,
      "experience": 0,
      "display_names": [
        "Oppressor"
      ],
      "costumes": [
        "Awakened_Oppressor_Female_01",
        "Awakened_Oppressor_Female_02",
        "Awakened_Oppressor_Female_03",
        "Awakened_Oppressor_Female_04",
        "Awakened_Oppressor_Female_05",
        "Awakened_Oppressor_Female_06"
      ]
    },
    {
      "level": 47,
      "experience": 0,
      "display_names": [
        "Oppressor"
      ],
      "costumes": [
        "Awakened_Oppressor_Female_01",
        "Awakened_Oppressor_Female_02",
        "Awakened_Oppressor_Female_03",
        "Awakened_Oppressor_Female_04",
        "Awakened_Oppressor_Female_05",
        "Awakened_Oppressor_Female_06"
      ]
    },
    {
      "level": 48,
      "experience": 0,
      "display_names": [
        "Oppressor"
      ],
      "costumes": [
        "Awakened_Oppressor_Female_01",
        "Awakened_Oppressor_Female_02",
        "Awakened_Oppressor_Female_03",
        "Awakened_Oppressor_Female_04",
        "Awakened_Oppressor_Female_05",
        "Awakened_Oppressor_Female_06"
      ]
    },
    {
      "level": 49,
      "experience": 0,
      "display_names": [
        "Oppressor"
      ],
      "costumes": [
        "Awakened_Oppressor_Female_01",
        "Awakened_Oppressor_Female_02",
        "Awakened_Oppressor_Female_03",
        "Awakened_Oppressor_Female_04",
        "Awakened_Oppressor_Female_05",
        "Awakened_Oppressor_Female_06"
      ]
    },
    {
      "level": 50,
      "experience": 0,
      "display_names": [
        "Oppressor"
      ],
      "costumes": [
        "Awakened_Oppressor_Female_01",
        "Awakened_Oppressor_Female_02",
        "Awakened_Oppressor_Female_03",
        "Awakened_Oppressor_Female_04",
        "Awakened_Oppressor_Female_05",
        "Awakened_Oppressor_Female_06"
      ]
    },
    {
      "level": 51,
      "experience": 0,
      "display_names": [
        "Oppressor"
      ],
      "costumes": [
        "Awakened_Oppressor_Female_01",
        "Awakened_Oppressor_Female_02",
        "Awakened_Oppressor_Female_03",
        "Awakened_Oppressor_Female_04",
        "Awakened_Oppressor_Female_05",
        "Awakened_Oppressor_Female_06"
      ]
    },
    {
      "level": 52,
      "experience": 0,
      "display_names": [
        "Oppressor"
      ],
      "costumes": [
        "Awakened_Oppressor_Female_01",
        "Awakened_Oppressor_Female_02",
        "Awakened_Oppressor_Female_03",
        "Awakened_Oppressor_Female_04",
        "Awakened_Oppressor_Female_05",
        "Awakened_Oppressor_Female_06"
      ]
    },
    {
      "level": 53,
      "experience": 0,
      "display_names": [
        "Oppressor"
      ],
      "costumes": [
        "Awakened_Oppressor_Female_01",
        "Awakened_Oppressor_Female_02",
        "Awakened_Oppressor_Female_03",
        "Awakened_Oppressor_Female_04",
        "Awakened_Oppressor_Female_05",
        "Awakened_Oppressor_Female_06"
      ]
    },
    {
      "level": 54,
      "experience": 0,
      "display_names": [
        "Oppressor"
      ],
      "costumes": [
        "Awakened_Oppressor_Female_01",
        "Awakened_Oppressor_Female_02",
        "Awakened_Oppressor_Female_03",
        "Awakened_Oppressor_Female_04",
        "Awakened_Oppressor_Female_05",
        "Awakened_Oppressor_Female_06"
      ]
    }
  ]
}