{
  "name": "Awakened_Conduit_Male",
  "gender": "GENDER_MALE",
  "description": "Conduits were once psychics or Seers who, unlike the Burnouts, managed to gain control of their power, but whose bodies couldn't completely handle the energy resulting from such control. This results in psionic energy continuously coursing over their body. Conduits retain enough control over their power to use it to provide beneficial effects to others like them and to confront any who challenge them.",
  "group_description": null,
  "display_class_name": null,
  "character_class_name": "lt_grunt",
  "ai_config": "Default_Ranged",
  "commandable_pet": false,
  "power_tags": [
    "Humanoid",
    "HumanSkeleton"
  ],
  "additional_rewards": [

  ],
  "skill_hp_rewards": [

  ],
  "skill_status_rewards": [

  ],
  "ally": null,
  "gang": null,
  "reward_scale": 1.0,
  "game_exclusion": "None",
  "inactive_state_weapon": null,
  "ignores_combat_mods": false,
  "copy_creator_mods": false,
  "spawn_limit": -1,
  "spawn_limit_mission": -1,
  "ignore_av_to_eb_scaling": false,
  "can_zone": false,
  "custom_badge_stat": null,
  "badge_stat_flags": "DefaultBadgeStat",
  "rank": "VR_LIEUTENANT",
  "power_full_names": [
    "Awakened.Burnout.Psychic_Blast",
    "Awakened.Burnout.Subdue",
    "Awakened.Burnout.Overload",
    "Awakened.Conduit.Psychic_Scream",
    "Awakened.Conduit.Psychic_Battery",
    "Awakened.Conduit.Psionic_Wounds",
    "Awakened.Conduit.Nullify_Pain",
    "Awakened.Conduit.Psionic_Fury",
    "Awakened.Resistances.Damage_LT"
  ],
  "power_display_names": [
    "Psychic Blast",
    "Subdue",
    "Overload",
    "Psychic Scream",
    "Psychic Battery",
    "Psionic Wounds",
    "Nullify Pain",
    "Psionic Fury",
    "Damage Resistance"
  ],
  "power_levels": [
    0,
    0,
    0,
    0,
    0,
    0,
    0,
    0,
    0
  ],
  "powers": [
    {
      "power_category": "Awakened",
      "power_set": "Burnout",
      "power": "*",
      "level": 0
    },
    {
      "power_category": "Awakened",
      "power_set": "Conduit",
      "power": "*",
      "level": 0
    },
    {
      "power_category": "Awakened",
      "power_set": "Resistances",
      "power": "Damage_LT",
      "level": 0
    }
  ],
  "levels": [
    {
      "level": 20,
      "experience": 0,
      "display_names": [
        "Conduit"
      ],
      "costumes": [
        "Awakened_Conduit_Male_01",
        "Awakened_Conduit_Male_02",
        "Awakened_Conduit_Male_03"
      ]
    },
    {
      "level": 21,
      "experience": 0,
      "display_names": [
        "Conduit"
      ],
      "costumes": [
        "Awakened_Conduit_Male_01",
        "Awakened_Conduit_Male_02",
        "Awakened_Conduit_Male_03"
      ]
    },
    {
      "level": 22,
      "experience": 0,
      "display_names": [
        "Conduit"
      ],
      "costumes": [
        "Awakened_Conduit_Male_01",
        "Awakened_Conduit_Male_02",
        "Awakened_Conduit_Male_03"
      ]
    },
    {
      "level": 23,
      "experience": 0,
      "display_names": [
        "Conduit"
      ],
      "costumes": [
        "Awakened_Conduit_Male_01",
        "Awakened_Conduit_Male_02",
        "Awakened_Conduit_Male_03"
      ]
    },
    {
      "level": 24,
      "experience": 0,
      "display_names": [
        "Conduit"
      ],
      "costumes": [
        "Awakened_Conduit_Male_01",
        "Awakened_Conduit_Male_02",
        "Awakened_Conduit_Male_03"
      ]
    },
    {
      "level": 25,
      "experience": 0,
      "display_names": [
        "Conduit"
      ],
      "costumes": [
        "Awakened_Conduit_Male_01",
        "Awakened_Conduit_Male_02",
        "Awakened_Conduit_Male_03"
      ]
    },
    {
      "level": 26,
      "experience": 0,
      "display_names": [
        "Conduit"
      ],
      "costumes": [
        "Awakened_Conduit_Male_01",
        "Awakened_Conduit_Male_02",
        "Awakened_Conduit_Male_03"
      ]
    },
    {
      "level": 27,
      "experience": 0,
      "display_names": [
        "Conduit"
      ],
      "costumes": [
        "Awakened_Conduit_Male_01",
        "Awakened_Conduit_Male_02",
        "Awakened_Conduit_Male_03"
      ]
    },
    {
      "level": 28,
      "experience": 0,
      "display_names": [
        "Conduit"
      ],
      "costumes": [
        "Awakened_Conduit_Male_01",
        "Awakened_Conduit_Male_02",
        "Awakened_Conduit_Male_03"
      ]
    },
    {
      "level": 29,
      "experience": 0,
      "display_names": [
        "Conduit"
      ],
      "costumes": [
        "Awakened_Conduit_Male_01",
        "Awakened_Conduit_Male_02",
        "Awakened_Conduit_Male_03"
      ]
    },
    {
      "level": 30,
      "experience": 0,
      "display_names": [
        "Conduit"
      ],
      "costumes": [
        "Awakened_Conduit_Male_01",
        "Awakened_Conduit_Male_02",
        "Awakened_Conduit_Male_03"
      ]
    },
    {
      "level": 31,
      "experience": 0,
      "display_names": [
        "Conduit"
      ],
      "costumes": [
        "Awakened_Conduit_Male_01",
        "Awakened_Conduit_Male_02",
        "Awakened_Conduit_Male_03"
      ]
    },
    {
      "level": 32,
      "experience": 0,
      "display_names": [
        "Conduit"
      ],
      "costumes": [
        "Awakened_Conduit_Male_01",
        "Awakened_Conduit_Male_02",
        "Awakened_Conduit_Male_03"
      ]
    },
    {
      "level": 33,
      "experience": 0,
      "display_names": [
        "Conduit"
      ],
      "costumes": [
        "Awakened_Conduit_Male_01",
        "Awakened_Conduit_Male_02",
        "Awakened_Conduit_Male_03"
      ]
    },
    {
      "level": 34,
      "experience": 0,
      "display_names": [
        "Conduit"
      ],
      "costumes": [
        "Awakened_Conduit_Male_01",
        "Awakened_Conduit_Male_02",
        "Awakened_Conduit_Male_03"
      ]
    },
    {
      "level": 35,
      "experience": 0,
      "display_names": [
        "Conduit"
      ],
      "costumes": [
        "Awakened_Conduit_Male_01",
        "Awakened_Conduit_Male_02",
        "Awakened_Conduit_Male_03"
      ]
    },
    {
      "level": 36,
      "experience": 0,
      "display_names": [
        "Conduit"
      ],
      "costumes": [
        "Awakened_Conduit_Male_01",
        "Awakened_Conduit_Male_02",
        "Awakened_Conduit_Male_03"
      ]
    },
    {
      "level": 37,
      "experience": 0,
      "display_names": [
        "Conduit"
      ],
      "costumes": [
        "Awakened_Conduit_Male_01",
        "Awakened_Conduit_Male_02",
        "Awakened_Conduit_Male_03"
      ]
    },
    {
      "level": 38,
      "experience": 0,
      "display_names": [
        "Conduit"
      ],
      "costumes": [
        "Awakened_Conduit_Male_01",
        "Awakened_Conduit_Male_02",
        "Awakened_Conduit_Male_03"
      ]
    },
    {
      "level": 39,
      "experience": 0,
      "display_names": [
        "Conduit"
      ],
      "costumes": [
        "Awakened_Conduit_Male_01",
        "Awakened_Conduit_Male_02",
        "Awakened_Conduit_Male_03"
      ]
    },
    {
      "level": 40,
      "experience": 0,
      "display_names": [
        "Conduit"
      ],
      "costumes": [
        "Awakened_Conduit_Male_01",
        "Awakened_Conduit_Male_02",
        "Awakened_Conduit_Male_03"
      ]
    },
    {
      "level": 41,
      "experience": 0,
      "display_names": [
        "Conduit"
      ],
      "costumes": [
        "Awakened_Conduit_Male_01",
        "Awakened_Conduit_Male_02",
        "Awakened_Conduit_Male_03"
      ]
    },
    {
      "level": 42,
      "experience": 0,
      "display_names": [
        "Conduit"
      ],
      "costumes": [
        "Awakened_Conduit_Male_01",
        "Awakened_Conduit_Male_02",
        "Awakened_Conduit_Male_03"
      ]
    },
    {
      "level": 43,
      "experience": 0,
      "display_names": [
        "Conduit"
      ],
      "costumes": [
        "Awakened_Conduit_Male_01",
        "Awakened_Conduit_Male_02",
        "Awakened_Conduit_Male_03"
      ]
    },
    {
      "level": 44,
      "experience": 0,
      "display_names": [
        "Conduit"
      ],
      "costumes": [
        "Awakened_Conduit_Male_01",
        "Awakened_Conduit_Male_02",
        "Awakened_Conduit_Male_03"
      ]
    },
    {
      "level": 45,
      "experience": 0,
      "display_names": [
        "Conduit"
      ],
      "costumes": [
        "Awakened_Conduit_Male_01",
        "Awakened_Conduit_Male_02",
        "Awakened_Conduit_Male_03"
      ]
    },
    {
      "level": 46,
      "experience": 0,
      "display_names": [
        "Conduit"
      ],
      "costumes": [
        "Awakened_Conduit_Male_01",
        "Awakened_Conduit_Male_02",
        "Awakened_Conduit_Male_03"
      ]
    },
    {
      "level": 47,
      "experience": 0,
      "display_names": [
        "Conduit"
      ],
      "costumes": [
        "Awakened_Conduit_Male_01",
        "Awakened_Conduit_Male_02",
        "Awakened_Conduit_Male_03"
      ]
    },
    {
      "level": 48,
      "experience": 0,
      "display_names": [
        "Conduit"
      ],
      "costumes": [
        "Awakened_Conduit_Male_01",
        "Awakened_Conduit_Male_02",
        "Awakened_Conduit_Male_03"
      ]
    },
    {
      "level": 49,
      "experience": 0,
      "display_names": [
        "Conduit"
      ],
      "costumes": [
        "Awakened_Conduit_Male_01",
        "Awakened_Conduit_Male_02",
        "Awakened_Conduit_Male_03"
      ]
    },
    {
      "level": 50,
      "experience": 0,
      "display_names": [
        "Conduit"
      ],
      "costumes": [
        "Awakened_Conduit_Male_01",
        "Awakened_Conduit_Male_02",
        "Awakened_Conduit_Male_03"
      ]
    },
    {
      "level": 51,
      "experience": 0,
      "display_names": [
        "Conduit"
      ],
      "costumes": [
        "Awakened_Conduit_Male_01",
        "Awakened_Conduit_Male_02",
        "Awakened_Conduit_Male_03"
      ]
    },
    {
      "level": 52,
      "experience": 0,
      "display_names": [
        "Conduit"
      ],
      "costumes": [
        "Awakened_Conduit_Male_01",
        "Awakened_Conduit_Male_02",
        "Awakened_Conduit_Male_03"
      ]
    },
    {
      "level": 53,
      "experience": 0,
      "display_names": [
        "Conduit"
      ],
      "costumes": [
        "Awakened_Conduit_Male_01",
        "Awakened_Conduit_Male_02",
        "Awakened_Conduit_Male_03"
      ]
    },
    {
      "level": 54,
      "experience": 0,
      "display_names": [
        "Conduit"
      ],
      "costumes": [
        "Awakened_Conduit_Male_01",
        "Awakened_Conduit_Male_02",
        "Awakened_Conduit_Male_03"
      ]
    }
  ]
}