{
  "name": "BanishedPantheonEndgame_Elder_of_Pain_Male",
  "gender": "GENDER_MALE",
  "description": "The Elders are priests and priestesses within the Banished Pantheon who have begun training to merge their essence with one of the many spirits who serve the gods. This Elder can call upon a Spirit of Pain as an ally and delights in agony and misery. They particularly relish the pain caused by the blasts of pure destruction they use to attack foes.",
  "group_description": null,
  "display_class_name": null,
  "character_class_name": "lt_praetoriangrunt",
  "ai_config": "Default_Ranged",
  "commandable_pet": false,
  "power_tags": [
    "HumanSkeleton",
    "Human"
  ],
  "additional_rewards": [

  ],
  "skill_hp_rewards": [

  ],
  "skill_status_rewards": [

  ],
  "ally": null,
  "gang": null,
  "reward_scale": 1.0,
  "game_exclusion": "None",
  "inactive_state_weapon": null,
  "ignores_combat_mods": false,
  "copy_creator_mods": false,
  "spawn_limit": -1,
  "spawn_limit_mission": -1,
  "ignore_av_to_eb_scaling": false,
  "can_zone": false,
  "custom_badge_stat": null,
  "badge_stat_flags": "DefaultBadgeStat",
  "rank": "VR_LIEUTENANT",
  "power_full_names": [
    "BanishedPantheon.EndgamePain.Painful_Blast",
    "BanishedPantheon.EndgamePain.Dread_Torrent",
    "BanishedPantheon.EndgamePain.Dread_Bolt",
    "BanishedPantheon.EndgamePain.World_of_Pain",
    "BanishedPantheon.EndgameMaskSummon.PainMask"
  ],
  "power_display_names": [
    "Painful Blast",
    "Dread Torrent",
    "Dread Bolt",
    "World of Pain",
    "Spirit of Pain"
  ],
  "power_levels": [
    0,
    0,
    0,
    0,
    0
  ],
  "powers": [
    {
      "power_category": "BanishedPantheon",
      "power_set": "EndgamePain",
      "power": "Painful_Blast",
      "level": 0
    },
    {
      "power_category": "BanishedPantheon",
      "power_set": "EndgamePain",
      "power": "Dread_Torrent",
      "level": 0
    },
    {
      "power_category": "BanishedPantheon",
      "power_set": "EndgamePain",
      "power": "Dread_Bolt",
      "level": 0
    },
    {
      "power_category": "BanishedPantheon",
      "power_set": "EndgamePain",
      "power": "World_of_Pain",
      "level": 0
    },
    {
      "power_category": "BanishedPantheon",
      "power_set": "EndgameMaskSummon",
      "power": "PainMask",
      "level": 0
    }
  ],
  "levels": [
    {
      "level": 50,
      "experience": 0,
      "display_names": [
        "Elder of Pain"
      ],
      "costumes": [
        "BanishedPantheon_Elder_Male_Pain_01",
        "BanishedPantheon_Elder_Male_Pain_02",
        "BanishedPantheon_Elder_Male_Pain_03",
        "BanishedPantheon_Elder_Male_Pain_04"
      ]
    },
    {
      "level": 51,
      "experience": 0,
      "display_names": [
        "Elder of Pain"
      ],
      "costumes": [
        "BanishedPantheon_Elder_Male_Pain_01",
        "BanishedPantheon_Elder_Male_Pain_02",
        "BanishedPantheon_Elder_Male_Pain_03",
        "BanishedPantheon_Elder_Male_Pain_04"
      ]
    },
    {
      "level": 52,
      "experience": 0,
      "display_names": [
        "Elder of Pain"
      ],
      "costumes": [
        "BanishedPantheon_Elder_Male_Pain_01",
        "BanishedPantheon_Elder_Male_Pain_02",
        "BanishedPantheon_Elder_Male_Pain_03",
        "BanishedPantheon_Elder_Male_Pain_04"
      ]
    },
    {
      "level": 53,
      "experience": 0,
      "display_names": [
        "Elder of Pain"
      ],
      "costumes": [
        "BanishedPantheon_Elder_Male_Pain_01",
        "BanishedPantheon_Elder_Male_Pain_02",
        "BanishedPantheon_Elder_Male_Pain_03",
        "BanishedPantheon_Elder_Male_Pain_04"
      ]
    },
    {
      "level": 54,
      "experience": 0,
      "display_names": [
        "Elder of Pain"
      ],
      "costumes": [
        "BanishedPantheon_Elder_Male_Pain_01",
        "BanishedPantheon_Elder_Male_Pain_02",
        "BanishedPantheon_Elder_Male_Pain_03",
        "BanishedPantheon_Elder_Male_Pain_04"
      ]
    }
  ]
}