{
  "name": "BanishedPantheonEndgame_SentinelPets_ImpaleShard",
  "gender": "GENDER_MALE",
  "description": null,
  "group_description": null,
  "display_class_name": null,
  "character_class_name": "minion_praetoriansmall",
  "ai_config": "Pets_Ignore",
  "commandable_pet": false,
  "power_tags": [

  ],
  "additional_rewards": [

  ],
  "skill_hp_rewards": [

  ],
  "skill_status_rewards": [

  ],
  "ally": null,
  "gang": null,
  "reward_scale": 1.0,
  "game_exclusion": "None",
  "inactive_state_weapon": null,
  "ignores_combat_mods": false,
  "copy_creator_mods": true,
  "spawn_limit": -1,
  "spawn_limit_mission": -1,
  "ignore_av_to_eb_scaling": false,
  "can_zone": false,
  "custom_badge_stat": null,
  "badge_stat_flags": "DefaultBadgeStat",
  "rank": "VR_PET",
  "power_full_names": [
    "Pets.ResistAll.ResistAll",
    "DilemmaDiabolique.Impale.ImpaleShard"
  ],
  "power_display_names": [
    "ResistAll",
    "Impale"
  ],
  "power_levels": [
    0,
    0
  ],
  "powers": [
    {
      "power_category": "Pets",
      "power_set": "ResistAll",
      "power": "*",
      "level": 0
    },
    {
      "power_category": "DilemmaDiabolique",
      "power_set": "Impale",
      "power": "ImpaleShard",
      "level": 0
    }
  ],
  "levels": [
    {
      "level": 54,
      "experience": 0,
      "display_names": [
        "Impale"
      ],
      "costumes": [
        "Puddle"
      ]
    }
  ]
}