{
  "name": "BanishedPantheonEndgame_Elder_of_Sorrow_Female",
  "gender": "GENDER_FEMALE",
  "description": "The Elders are priests and priestesses within the Banished Pantheon who have begun training to merge their essence with one of the many spirits who serve the gods. This Elder can call upon a Spirit of Sorrow as an ally, and projects blasts of pure sorrow that explode in life-sapping bursts, seeping the will and life force from anyone caught in the explosion.",
  "group_description": null,
  "display_class_name": null,
  "character_class_name": "lt_praetoriangrunt",
  "ai_config": "Default_Ranged",
  "commandable_pet": false,
  "power_tags": [
    "HumanSkeleton",
    "Human"
  ],
  "additional_rewards": [

  ],
  "skill_hp_rewards": [

  ],
  "skill_status_rewards": [

  ],
  "ally": null,
  "gang": null,
  "reward_scale": 1.0,
  "game_exclusion": "None",
  "inactive_state_weapon": null,
  "ignores_combat_mods": false,
  "copy_creator_mods": false,
  "spawn_limit": -1,
  "spawn_limit_mission": -1,
  "ignore_av_to_eb_scaling": false,
  "can_zone": false,
  "custom_badge_stat": null,
  "badge_stat_flags": "DefaultBadgeStat",
  "rank": "VR_LIEUTENANT",
  "power_full_names": [
    "BanishedPantheon.EndgameSorrow.Bolt_of_Sorrow",
    "BanishedPantheon.EndgameSorrow.Piercing_Gaze",
    "BanishedPantheon.EndgameSorrow.Mournful_Blast",
    "BanishedPantheon.EndgameSorrow.Manic_Frenzy",
    "BanishedPantheon.EndgameMaskSummon.SorrowMask"
  ],
  "power_display_names": [
    "Bolt of Sorrow",
    "Piercing Gaze",
    "Mournful Blast",
    "Manic Frenzy",
    "Spirit of Sorrow"
  ],
  "power_levels": [
    0,
    0,
    0,
    0,
    0
  ],
  "powers": [
    {
      "power_category": "BanishedPantheon",
      "power_set": "EndgameSorrow",
      "power": "Bolt_of_Sorrow",
      "level": 0
    },
    {
      "power_category": "BanishedPantheon",
      "power_set": "EndgameSorrow",
      "power": "Piercing_Gaze",
      "level": 0
    },
    {
      "power_category": "BanishedPantheon",
      "power_set": "EndgameSorrow",
      "power": "Mournful_Blast",
      "level": 0
    },
    {
      "power_category": "BanishedPantheon",
      "power_set": "EndgameSorrow",
      "power": "Manic_Frenzy",
      "level": 0
    },
    {
      "power_category": "BanishedPantheon",
      "power_set": "EndgameMaskSummon",
      "power": "SorrowMask",
      "level": 0
    }
  ],
  "levels": [
    {
      "level": 50,
      "experience": 0,
      "display_names": [
        "Elder of Sorrow"
      ],
      "costumes": [
        "BanishedPantheon_Elder_Female_Sorrow_01",
        "BanishedPantheon_Elder_Female_Sorrow_02",
        "BanishedPantheon_Elder_Female_Sorrow_03",
        "BanishedPantheon_Elder_Female_Sorrow_04"
      ]
    },
    {
      "level": 51,
      "experience": 0,
      "display_names": [
        "Elder of Sorrow"
      ],
      "costumes": [
        "BanishedPantheon_Elder_Female_Sorrow_01",
        "BanishedPantheon_Elder_Female_Sorrow_02",
        "BanishedPantheon_Elder_Female_Sorrow_03",
        "BanishedPantheon_Elder_Female_Sorrow_04"
      ]
    },
    {
      "level": 52,
      "experience": 0,
      "display_names": [
        "Elder of Sorrow"
      ],
      "costumes": [
        "BanishedPantheon_Elder_Female_Sorrow_01",
        "BanishedPantheon_Elder_Female_Sorrow_02",
        "BanishedPantheon_Elder_Female_Sorrow_03",
        "BanishedPantheon_Elder_Female_Sorrow_04"
      ]
    },
    {
      "level": 53,
      "experience": 0,
      "display_names": [
        "Elder of Sorrow"
      ],
      "costumes": [
        "BanishedPantheon_Elder_Female_Sorrow_01",
        "BanishedPantheon_Elder_Female_Sorrow_02",
        "BanishedPantheon_Elder_Female_Sorrow_03",
        "BanishedPantheon_Elder_Female_Sorrow_04"
      ]
    },
    {
      "level": 54,
      "experience": 0,
      "display_names": [
        "Elder of Sorrow"
      ],
      "costumes": [
        "BanishedPantheon_Elder_Female_Sorrow_01",
        "BanishedPantheon_Elder_Female_Sorrow_02",
        "BanishedPantheon_Elder_Female_Sorrow_03",
        "BanishedPantheon_Elder_Female_Sorrow_04"
      ]
    }
  ]
}