{
  "name": "BanishedPantheon_Shaman_Death_Female",
  "gender": "GENDER_FEMALE",
  "description": "The Death Shamaness has descended into the realm of death and returned. They walk between the worlds, granting some measure of power over life and death. They can drain the life from their victims, casting a pall of suffering across the battlefield.",
  "group_description": null,
  "display_class_name": null,
  "character_class_name": "minion_grunt",
  "ai_config": "BanishedPantheon_WitchDoctor",
  "commandable_pet": false,
  "power_tags": [
    "HumanSkeleton",
    "Human"
  ],
  "additional_rewards": [

  ],
  "skill_hp_rewards": [

  ],
  "skill_status_rewards": [

  ],
  "ally": null,
  "gang": null,
  "reward_scale": 1.0,
  "game_exclusion": "None",
  "inactive_state_weapon": null,
  "ignores_combat_mods": false,
  "copy_creator_mods": false,
  "spawn_limit": -1,
  "spawn_limit_mission": -1,
  "ignore_av_to_eb_scaling": false,
  "can_zone": false,
  "custom_badge_stat": null,
  "badge_stat_flags": "DefaultBadgeStat",
  "rank": "VR_MINION",
  "power_full_names": [
    "BanishedPantheon.EndgameDeath.Dark_Blast",
    "BanishedPantheon.EndgameDeath.Gloom",
    "BanishedPantheon.EndgameDeath.Night_Fall",
    "BanishedPantheon.EndgameDeath.Life_Drain"
  ],
  "power_display_names": [
    "Dark Blast",
    "Gloom",
    "Night Fall",
    "Life Drain"
  ],
  "power_levels": [
    0,
    0,
    0,
    0
  ],
  "powers": [
    {
      "power_category": "BanishedPantheon",
      "power_set": "EndgameDeath",
      "power": "Dark_Blast",
      "level": 0
    },
    {
      "power_category": "BanishedPantheon",
      "power_set": "EndgameDeath",
      "power": "Gloom",
      "level": 0
    },
    {
      "power_category": "BanishedPantheon",
      "power_set": "EndgameDeath",
      "power": "Night_Fall",
      "level": 0
    },
    {
      "power_category": "BanishedPantheon",
      "power_set": "EndgameDeath",
      "power": "Life_Drain",
      "level": 0
    }
  ],
  "levels": [
    {
      "level": 40,
      "experience": 0,
      "display_names": [
        "Death Shamaness"
      ],
      "costumes": [
        "BanishedPantheon_Shamaness_Female_Death_01",
        "BanishedPantheon_Shamaness_Female_Death_02",
        "BanishedPantheon_Shamaness_Female_Death_03",
        "BanishedPantheon_Shamaness_Female_Death_04"
      ]
    },
    {
      "level": 41,
      "experience": 0,
      "display_names": [
        "Death Shamaness"
      ],
      "costumes": [
        "BanishedPantheon_Shamaness_Female_Death_01",
        "BanishedPantheon_Shamaness_Female_Death_02",
        "BanishedPantheon_Shamaness_Female_Death_03",
        "BanishedPantheon_Shamaness_Female_Death_04"
      ]
    },
    {
      "level": 42,
      "experience": 0,
      "display_names": [
        "Death Shamaness"
      ],
      "costumes": [
        "BanishedPantheon_Shamaness_Female_Death_01",
        "BanishedPantheon_Shamaness_Female_Death_02",
        "BanishedPantheon_Shamaness_Female_Death_03",
        "BanishedPantheon_Shamaness_Female_Death_04"
      ]
    },
    {
      "level": 43,
      "experience": 0,
      "display_names": [
        "Death Shamaness"
      ],
      "costumes": [
        "BanishedPantheon_Shamaness_Female_Death_01",
        "BanishedPantheon_Shamaness_Female_Death_02",
        "BanishedPantheon_Shamaness_Female_Death_03",
        "BanishedPantheon_Shamaness_Female_Death_04"
      ]
    },
    {
      "level": 44,
      "experience": 0,
      "display_names": [
        "Death Shamaness"
      ],
      "costumes": [
        "BanishedPantheon_Shamaness_Female_Death_01",
        "BanishedPantheon_Shamaness_Female_Death_02",
        "BanishedPantheon_Shamaness_Female_Death_03",
        "BanishedPantheon_Shamaness_Female_Death_04"
      ]
    },
    {
      "level": 45,
      "experience": 0,
      "display_names": [
        "Death Shamaness"
      ],
      "costumes": [
        "BanishedPantheon_Shamaness_Female_Death_01",
        "BanishedPantheon_Shamaness_Female_Death_02",
        "BanishedPantheon_Shamaness_Female_Death_03",
        "BanishedPantheon_Shamaness_Female_Death_04"
      ]
    },
    {
      "level": 46,
      "experience": 0,
      "display_names": [
        "Death Shamaness"
      ],
      "costumes": [
        "BanishedPantheon_Shamaness_Female_Death_01",
        "BanishedPantheon_Shamaness_Female_Death_02",
        "BanishedPantheon_Shamaness_Female_Death_03",
        "BanishedPantheon_Shamaness_Female_Death_04"
      ]
    },
    {
      "level": 47,
      "experience": 0,
      "display_names": [
        "Death Shamaness"
      ],
      "costumes": [
        "BanishedPantheon_Shamaness_Female_Death_01",
        "BanishedPantheon_Shamaness_Female_Death_02",
        "BanishedPantheon_Shamaness_Female_Death_03",
        "BanishedPantheon_Shamaness_Female_Death_04"
      ]
    },
    {
      "level": 48,
      "experience": 0,
      "display_names": [
        "Death Shamaness"
      ],
      "costumes": [
        "BanishedPantheon_Shamaness_Female_Death_01",
        "BanishedPantheon_Shamaness_Female_Death_02",
        "BanishedPantheon_Shamaness_Female_Death_03",
        "BanishedPantheon_Shamaness_Female_Death_04"
      ]
    },
    {
      "level": 49,
      "experience": 0,
      "display_names": [
        "Death Shamaness"
      ],
      "costumes": [
        "BanishedPantheon_Shamaness_Female_Death_01",
        "BanishedPantheon_Shamaness_Female_Death_02",
        "BanishedPantheon_Shamaness_Female_Death_03",
        "BanishedPantheon_Shamaness_Female_Death_04"
      ]
    },
    {
      "level": 50,
      "experience": 0,
      "display_names": [
        "Death Shamaness"
      ],
      "costumes": [
        "BanishedPantheon_Shamaness_Female_Death_01",
        "BanishedPantheon_Shamaness_Female_Death_02",
        "BanishedPantheon_Shamaness_Female_Death_03",
        "BanishedPantheon_Shamaness_Female_Death_04"
      ]
    },
    {
      "level": 51,
      "experience": 0,
      "display_names": [
        "Death Shamaness"
      ],
      "costumes": [
        "BanishedPantheon_Shamaness_Female_Death_01",
        "BanishedPantheon_Shamaness_Female_Death_02",
        "BanishedPantheon_Shamaness_Female_Death_03",
        "BanishedPantheon_Shamaness_Female_Death_04"
      ]
    },
    {
      "level": 52,
      "experience": 0,
      "display_names": [
        "Death Shamaness"
      ],
      "costumes": [
        "BanishedPantheon_Shamaness_Female_Death_01",
        "BanishedPantheon_Shamaness_Female_Death_02",
        "BanishedPantheon_Shamaness_Female_Death_03",
        "BanishedPantheon_Shamaness_Female_Death_04"
      ]
    },
    {
      "level": 53,
      "experience": 0,
      "display_names": [
        "Death Shamaness"
      ],
      "costumes": [
        "BanishedPantheon_Shamaness_Female_Death_01",
        "BanishedPantheon_Shamaness_Female_Death_02",
        "BanishedPantheon_Shamaness_Female_Death_03",
        "BanishedPantheon_Shamaness_Female_Death_04"
      ]
    },
    {
      "level": 54,
      "experience": 0,
      "display_names": [
        "Death Shamaness"
      ],
      "costumes": [
        "BanishedPantheon_Shamaness_Female_Death_01",
        "BanishedPantheon_Shamaness_Female_Death_02",
        "BanishedPantheon_Shamaness_Female_Death_03",
        "BanishedPantheon_Shamaness_Female_Death_04"
      ]
    }
  ]
}