{
  "name": "BanishedPantheon_Portal_Spirit_of_Pain",
  "gender": "GENDER_MALE",
  "description": "One of the four types of Corrupt Spirits, the Spirits of Pain delight in agony and misery. They particularly delight in the pain that they dish out by projecting blasts of pure destruction at their enemies.",
  "group_description": null,
  "display_class_name": null,
  "character_class_name": "minion_small",
  "ai_config": "BanishedPantheon_Spirit_of_Pain",
  "commandable_pet": false,
  "power_tags": [

  ],
  "additional_rewards": [

  ],
  "skill_hp_rewards": [

  ],
  "skill_status_rewards": [

  ],
  "ally": null,
  "gang": null,
  "reward_scale": 1.0,
  "game_exclusion": "None",
  "inactive_state_weapon": null,
  "ignores_combat_mods": false,
  "copy_creator_mods": false,
  "spawn_limit": -1,
  "spawn_limit_mission": -1,
  "ignore_av_to_eb_scaling": false,
  "can_zone": false,
  "custom_badge_stat": null,
  "badge_stat_flags": "DefaultBadgeStat",
  "rank": "VR_PET",
  "power_full_names": [
    "BanishedPantheon.Banished_Spirit_Movement.Fly",
    "BanishedPantheon.Banished_Spirit_Movement.Fly_fx",
    "BanishedPantheon.Banished_Pain_Ranged.Power_Blast",
    "BanishedPantheon.Mask_Pain_Death_Defense.Resistance",
    "BanishedPantheon.Mask_Defense.Resistance"
  ],
  "power_display_names": [
    "Fly",
    "Fly fx",
    "Power Blast",
    "Resistance",
    "Resistance"
  ],
  "power_levels": [
    0,
    0,
    0,
    0,
    0
  ],
  "powers": [
    {
      "power_category": "BanishedPantheon",
      "power_set": "Banished_Spirit_Movement",
      "power": "*",
      "level": 0
    },
    {
      "power_category": "BanishedPantheon",
      "power_set": "Banished_Pain_Ranged",
      "power": "*",
      "level": 0
    },
    {
      "power_category": "BanishedPantheon",
      "power_set": "Mask_Pain_Death_Defense",
      "power": "*",
      "level": 0
    },
    {
      "power_category": "BanishedPantheon",
      "power_set": "Mask_Defense",
      "power": "*",
      "level": 0
    }
  ],
  "levels": [
    {
      "level": 40,
      "experience": 0,
      "display_names": [
        "Spirit of Pain"
      ],
      "costumes": [
        "Pantheon_Pain"
      ]
    },
    {
      "level": 41,
      "experience": 0,
      "display_names": [
        "Spirit of Pain"
      ],
      "costumes": [
        "Pantheon_Pain"
      ]
    },
    {
      "level": 42,
      "experience": 0,
      "display_names": [
        "Spirit of Pain"
      ],
      "costumes": [
        "Pantheon_Pain"
      ]
    },
    {
      "level": 43,
      "experience": 0,
      "display_names": [
        "Spirit of Pain"
      ],
      "costumes": [
        "Pantheon_Pain"
      ]
    },
    {
      "level": 44,
      "experience": 0,
      "display_names": [
        "Spirit of Pain"
      ],
      "costumes": [
        "Pantheon_Pain"
      ]
    },
    {
      "level": 45,
      "experience": 0,
      "display_names": [
        "Spirit of Pain"
      ],
      "costumes": [
        "Pantheon_Pain"
      ]
    },
    {
      "level": 46,
      "experience": 0,
      "display_names": [
        "Spirit of Pain"
      ],
      "costumes": [
        "Pantheon_Pain"
      ]
    },
    {
      "level": 47,
      "experience": 0,
      "display_names": [
        "Spirit of Pain"
      ],
      "costumes": [
        "Pantheon_Pain"
      ]
    },
    {
      "level": 48,
      "experience": 0,
      "display_names": [
        "Spirit of Pain"
      ],
      "costumes": [
        "Pantheon_Pain"
      ]
    },
    {
      "level": 49,
      "experience": 0,
      "display_names": [
        "Spirit of Pain"
      ],
      "costumes": [
        "Pantheon_Pain"
      ]
    },
    {
      "level": 50,
      "experience": 0,
      "display_names": [
        "Spirit of Pain"
      ],
      "costumes": [
        "Pantheon_Pain"
      ]
    },
    {
      "level": 51,
      "experience": 0,
      "display_names": [
        "Spirit of Pain"
      ],
      "costumes": [
        "Pantheon_Pain"
      ]
    },
    {
      "level": 52,
      "experience": 0,
      "display_names": [
        "Spirit of Pain"
      ],
      "costumes": [
        "Pantheon_Pain"
      ]
    },
    {
      "level": 53,
      "experience": 0,
      "display_names": [
        "Spirit of Pain"
      ],
      "costumes": [
        "Pantheon_Pain"
      ]
    },
    {
      "level": 54,
      "experience": 0,
      "display_names": [
        "Spirit of Pain"
      ],
      "costumes": [
        "Pantheon_Pain"
      ]
    }
  ]
}