{
  "name": "Base_BeaconPeregrineIsland_Tech",
  "gender": "GENDER_MALE",
  "description": "Teleport Beacon to Peregrine Island.",
  "group_description": "Tech Teleport",
  "display_class_name": "Small Device",
  "character_class_name": "minion_unkillablenpc",
  "ai_config": "Default_Stationary",
  "commandable_pet": false,
  "power_tags": [
    "Base_SmallDevice"
  ],
  "additional_rewards": [

  ],
  "skill_hp_rewards": [

  ],
  "skill_status_rewards": [

  ],
  "ally": "Hero",
  "gang": "3",
  "reward_scale": 1.0,
  "game_exclusion": "None",
  "inactive_state_weapon": null,
  "ignores_combat_mods": true,
  "copy_creator_mods": false,
  "spawn_limit": 0,
  "spawn_limit_mission": 0,
  "ignore_av_to_eb_scaling": false,
  "can_zone": false,
  "custom_badge_stat": null,
  "badge_stat_flags": "DefaultBadgeStat",
  "rank": "VR_MINION",
  "power_full_names": [
    "Objects.Inherent.Resistance"
  ],
  "power_display_names": [
    "Resistance"
  ],
  "power_levels": [
    0
  ],
  "powers": [
    {
      "power_category": "Objects",
      "power_set": "Inherent",
      "power": "*",
      "level": 0
    }
  ],
  "levels": [
    {
      "level": 50,
      "experience": 0,
      "display_names": [
        "Beacon Peregrine Island"
      ],
      "costumes": [
        "v_base_object"
      ]
    }
  ]
}