{
  "name": "Cabal_Cabal_Initiate",
  "gender": "GENDER_FEMALE",
  "description": "For some, magic comes naturally, while others may take centuries to master it. Cabal initiates are still learning the ways of the winds. Their powers are meager, and so they arm themselves with daggers. Over the years, they have become quite skilled in their use.",
  "group_description": null,
  "display_class_name": null,
  "character_class_name": "minion_grunt",
  "ai_config": "Default_Ranged",
  "commandable_pet": false,
  "power_tags": [
    "HumanSkeleton",
    "Human"
  ],
  "additional_rewards": [

  ],
  "skill_hp_rewards": [

  ],
  "skill_status_rewards": [

  ],
  "ally": null,
  "gang": "GhostCabalFirbolg",
  "reward_scale": 1.0,
  "game_exclusion": "None",
  "inactive_state_weapon": null,
  "ignores_combat_mods": false,
  "copy_creator_mods": false,
  "spawn_limit": -1,
  "spawn_limit_mission": -1,
  "ignore_av_to_eb_scaling": false,
  "can_zone": false,
  "custom_badge_stat": null,
  "badge_stat_flags": "DefaultBadgeStat",
  "rank": "VR_MINION",
  "power_full_names": [
    "Cabal.Cabal_Adept_Minion_Resists.Resistance",
    "Cabal.Cabal_Adept_Minion_Melee.Storm_Strike",
    "Cabal.Cabal_Adept_Minion_Ranged.Charged_Bolts",
    "Cabal.Cabal_Maven_Lt_Movement.Fly",
    "Cabal.Cabal_Maven_Lt_Movement.Fly_fx",
    "Cabal.Cabal_Maven_Lt_Movement.Positioning"
  ],
  "power_display_names": [
    "Resistance",
    "Storm Strike",
    "Charged Bolts",
    "Fly",
    "Fly fx",
    "Positioning"
  ],
  "power_levels": [
    0,
    0,
    0,
    0,
    0,
    0
  ],
  "powers": [
    {
      "power_category": "Cabal",
      "power_set": "Cabal_Adept_Minion_Resists",
      "power": "*",
      "level": 0
    },
    {
      "power_category": "Cabal",
      "power_set": "Cabal_Adept_Minion_Melee",
      "power": "Storm_Strike",
      "level": 0
    },
    {
      "power_category": "Cabal",
      "power_set": "Cabal_Adept_Minion_Ranged",
      "power": "*",
      "level": 0
    },
    {
      "power_category": "Cabal",
      "power_set": "Cabal_Maven_Lt_Movement",
      "power": "*",
      "level": 0
    }
  ],
  "levels": [
    {
      "level": 25,
      "experience": 0,
      "display_names": [
        "Initiate"
      ],
      "costumes": [
        "Croatoa_Cabal_Minion_01",
        "Croatoa_Cabal_Minion_03",
        "Croatoa_Cabal_Minion_05",
        "Croatoa_Cabal_Minion_06"
      ]
    },
    {
      "level": 26,
      "experience": 0,
      "display_names": [
        "Initiate"
      ],
      "costumes": [
        "Croatoa_Cabal_Minion_01",
        "Croatoa_Cabal_Minion_03",
        "Croatoa_Cabal_Minion_05",
        "Croatoa_Cabal_Minion_06"
      ]
    },
    {
      "level": 27,
      "experience": 0,
      "display_names": [
        "Initiate"
      ],
      "costumes": [
        "Croatoa_Cabal_Minion_01",
        "Croatoa_Cabal_Minion_03",
        "Croatoa_Cabal_Minion_05",
        "Croatoa_Cabal_Minion_06"
      ]
    },
    {
      "level": 28,
      "experience": 0,
      "display_names": [
        "Initiate"
      ],
      "costumes": [
        "Croatoa_Cabal_Minion_01",
        "Croatoa_Cabal_Minion_03",
        "Croatoa_Cabal_Minion_05",
        "Croatoa_Cabal_Minion_06"
      ]
    },
    {
      "level": 29,
      "experience": 0,
      "display_names": [
        "Initiate"
      ],
      "costumes": [
        "Croatoa_Cabal_Minion_01",
        "Croatoa_Cabal_Minion_03",
        "Croatoa_Cabal_Minion_05",
        "Croatoa_Cabal_Minion_06"
      ]
    },
    {
      "level": 30,
      "experience": 0,
      "display_names": [
        "Initiate"
      ],
      "costumes": [
        "Croatoa_Cabal_Minion_01",
        "Croatoa_Cabal_Minion_03",
        "Croatoa_Cabal_Minion_05",
        "Croatoa_Cabal_Minion_06"
      ]
    },
    {
      "level": 31,
      "experience": 0,
      "display_names": [
        "Initiate"
      ],
      "costumes": [
        "Croatoa_Cabal_Minion_01",
        "Croatoa_Cabal_Minion_03",
        "Croatoa_Cabal_Minion_05",
        "Croatoa_Cabal_Minion_06"
      ]
    },
    {
      "level": 32,
      "experience": 0,
      "display_names": [
        "Initiate"
      ],
      "costumes": [
        "Croatoa_Cabal_Minion_01",
        "Croatoa_Cabal_Minion_03",
        "Croatoa_Cabal_Minion_05",
        "Croatoa_Cabal_Minion_06"
      ]
    },
    {
      "level": 33,
      "experience": 0,
      "display_names": [
        "Initiate"
      ],
      "costumes": [
        "Croatoa_Cabal_Minion_01",
        "Croatoa_Cabal_Minion_03",
        "Croatoa_Cabal_Minion_05",
        "Croatoa_Cabal_Minion_06"
      ]
    },
    {
      "level": 34,
      "experience": 0,
      "display_names": [
        "Initiate"
      ],
      "costumes": [
        "Croatoa_Cabal_Minion_01",
        "Croatoa_Cabal_Minion_03",
        "Croatoa_Cabal_Minion_05",
        "Croatoa_Cabal_Minion_06"
      ]
    }
  ]
}