{
  "name": "Carnival_Master_Illusionist",
  "gender": "GENDER_FEMALE",
  "description": "After wearing their masks for long enough, Illusionists are trained to manifest their thoughts in the form of phantasms. At first the phantasms are insubstantial and ineffective, but after a training process the Master Illusionist can maintain them for longer periods of time and use them offensively.",
  "group_description": null,
  "display_class_name": null,
  "character_class_name": "boss_grunt",
  "ai_config": "Default_Ranged",
  "commandable_pet": false,
  "power_tags": [
    "HumanSkeleton",
    "Human"
  ],
  "additional_rewards": [

  ],
  "skill_hp_rewards": [

  ],
  "skill_status_rewards": [

  ],
  "ally": null,
  "gang": null,
  "reward_scale": 1.0,
  "game_exclusion": "None",
  "inactive_state_weapon": null,
  "ignores_combat_mods": false,
  "copy_creator_mods": false,
  "spawn_limit": -1,
  "spawn_limit_mission": -1,
  "ignore_av_to_eb_scaling": false,
  "can_zone": false,
  "custom_badge_stat": null,
  "badge_stat_flags": "DefaultBadgeStat",
  "rank": "VR_BOSS",
  "power_full_names": [
    "Carnival.Carnival_Inherent_Defense.Resistance",
    "Carnival.Carnival_Inherent_Defense.Psychic_Visage",
    "Carnival.Carnival_Illusionist.Spectral_Wounds",
    "Carnival.Carnival_Illusionist.Phase_Shift",
    "Carnival.Carnival_Illusionist.Blind",
    "Carnival.Carnival_Illusionist.Flash",
    "Carnival.Carnival_Illusionist.Fly",
    "Carnival.Carnival_Illusionist_Boss.Phantom_Army",
    "Carnival.Carnival_Illusionist_Boss.Phantasm",
    "Carnival.Carnival_Illusionist_Boss.Dark_Servant"
  ],
  "power_display_names": [
    "Resistance",
    "Psychic Visage",
    "Spectral Wounds",
    "Phase Shift",
    "Blind",
    "Flash",
    "Fly",
    "Phantom Army",
    "Phantasm",
    "Dark Servant"
  ],
  "power_levels": [
    0,
    0,
    0,
    0,
    0,
    0,
    0,
    0,
    0,
    0
  ],
  "powers": [
    {
      "power_category": "Carnival",
      "power_set": "Carnival_Inherent_Defense",
      "power": "*",
      "level": 0
    },
    {
      "power_category": "Carnival",
      "power_set": "Carnival_Illusionist",
      "power": "*",
      "level": 0
    },
    {
      "power_category": "Carnival",
      "power_set": "Carnival_Illusionist_Boss",
      "power": "*",
      "level": 0
    }
  ],
  "levels": [
    {
      "level": 40,
      "experience": 0,
      "display_names": [
        "Master Illusionist"
      ],
      "costumes": [
        "Carnival_Illusionist_Boss_01",
        "Carnival_Illusionist_Boss_02",
        "Carnival_Illusionist_Boss_03"
      ]
    },
    {
      "level": 41,
      "experience": 0,
      "display_names": [
        "Master Illusionist"
      ],
      "costumes": [
        "Carnival_Illusionist_Boss_01",
        "Carnival_Illusionist_Boss_02",
        "Carnival_Illusionist_Boss_03"
      ]
    },
    {
      "level": 42,
      "experience": 0,
      "display_names": [
        "Master Illusionist"
      ],
      "costumes": [
        "Carnival_Illusionist_Boss_01",
        "Carnival_Illusionist_Boss_02",
        "Carnival_Illusionist_Boss_03"
      ]
    },
    {
      "level": 43,
      "experience": 0,
      "display_names": [
        "Master Illusionist"
      ],
      "costumes": [
        "Carnival_Illusionist_Boss_01",
        "Carnival_Illusionist_Boss_02",
        "Carnival_Illusionist_Boss_03"
      ]
    },
    {
      "level": 44,
      "experience": 0,
      "display_names": [
        "Master Illusionist"
      ],
      "costumes": [
        "Carnival_Illusionist_Boss_01",
        "Carnival_Illusionist_Boss_02",
        "Carnival_Illusionist_Boss_03"
      ]
    },
    {
      "level": 45,
      "experience": 0,
      "display_names": [
        "Master Illusionist"
      ],
      "costumes": [
        "Carnival_Illusionist_Boss_01",
        "Carnival_Illusionist_Boss_02",
        "Carnival_Illusionist_Boss_03"
      ]
    },
    {
      "level": 46,
      "experience": 0,
      "display_names": [
        "Master Illusionist"
      ],
      "costumes": [
        "Carnival_Illusionist_Boss_01",
        "Carnival_Illusionist_Boss_02",
        "Carnival_Illusionist_Boss_03"
      ]
    },
    {
      "level": 47,
      "experience": 0,
      "display_names": [
        "Master Illusionist"
      ],
      "costumes": [
        "Carnival_Illusionist_Boss_01",
        "Carnival_Illusionist_Boss_02",
        "Carnival_Illusionist_Boss_03"
      ]
    },
    {
      "level": 48,
      "experience": 0,
      "display_names": [
        "Master Illusionist"
      ],
      "costumes": [
        "Carnival_Illusionist_Boss_01",
        "Carnival_Illusionist_Boss_02",
        "Carnival_Illusionist_Boss_03"
      ]
    },
    {
      "level": 49,
      "experience": 0,
      "display_names": [
        "Master Illusionist"
      ],
      "costumes": [
        "Carnival_Illusionist_Boss_01",
        "Carnival_Illusionist_Boss_02",
        "Carnival_Illusionist_Boss_03"
      ]
    },
    {
      "level": 50,
      "experience": 0,
      "display_names": [
        "Master Illusionist"
      ],
      "costumes": [
        "Carnival_Illusionist_Boss_01",
        "Carnival_Illusionist_Boss_02",
        "Carnival_Illusionist_Boss_03"
      ]
    },
    {
      "level": 51,
      "experience": 0,
      "display_names": [
        "Master Illusionist"
      ],
      "costumes": [
        "Carnival_Illusionist_Boss_01",
        "Carnival_Illusionist_Boss_02",
        "Carnival_Illusionist_Boss_03"
      ]
    },
    {
      "level": 52,
      "experience": 0,
      "display_names": [
        "Master Illusionist"
      ],
      "costumes": [
        "Carnival_Illusionist_Boss_01",
        "Carnival_Illusionist_Boss_02",
        "Carnival_Illusionist_Boss_03"
      ]
    },
    {
      "level": 53,
      "experience": 0,
      "display_names": [
        "Master Illusionist"
      ],
      "costumes": [
        "Carnival_Illusionist_Boss_01",
        "Carnival_Illusionist_Boss_02",
        "Carnival_Illusionist_Boss_03"
      ]
    },
    {
      "level": 54,
      "experience": 0,
      "display_names": [
        "Master Illusionist"
      ],
      "costumes": [
        "Carnival_Illusionist_Boss_01",
        "Carnival_Illusionist_Boss_02",
        "Carnival_Illusionist_Boss_03"
      ]
    }
  ]
}