{
  "name": "CarnivalOfLightEndgame_AwakenedArmor",
  "gender": "GENDER_MALE",
  "description": "Brought to life by magical incantations retained by the former Midnight Squad and nearly lost to history, these animated golems serve as powerful guardians and sentries for the Carnival of Light. Constructed from scattered pieces of armor found around First Ward, the technologically advanced war machines make use of powerful tech swords which can fire bursts of energy at a target from range or rapidly cut them down in melee.",
  "group_description": null,
  "display_class_name": null,
  "character_class_name": "boss_praetoriangrunt",
  "ai_config": "Living_Armor",
  "commandable_pet": false,
  "power_tags": [
    "HumanSkeleton",
    "Human"
  ],
  "additional_rewards": [

  ],
  "skill_hp_rewards": [

  ],
  "skill_status_rewards": [

  ],
  "ally": null,
  "gang": null,
  "reward_scale": 1.0,
  "game_exclusion": "None",
  "inactive_state_weapon": null,
  "ignores_combat_mods": false,
  "copy_creator_mods": false,
  "spawn_limit": -1,
  "spawn_limit_mission": -1,
  "ignore_av_to_eb_scaling": false,
  "can_zone": false,
  "custom_badge_stat": null,
  "badge_stat_flags": "DefaultBadgeStat",
  "rank": "VR_BOSS",
  "power_full_names": [
    "CarnivalOfLight.Armor.Slash",
    "CarnivalOfLight.Armor.Hack",
    "CarnivalOfLight.Armor.Spear_of_Light",
    "CarnivalOfLight.Armor.Slice",
    "CarnivalOfLight.Armor.Whirling_Sword",
    "CarnivalOfLight.Armor.Luminous_Barrier",
    "CarnivalOfLight.Resistances.Damage_BS",
    "GenericVillains.Automaton_Resistance.Hardened"
  ],
  "power_display_names": [
    "Slash",
    "Hack",
    "Spear of Light",
    "Slice",
    "Whirling Sword",
    "Luminous Barrier",
    "Damage Resistance",
    "Hardened"
  ],
  "power_levels": [
    0,
    0,
    0,
    0,
    0,
    0,
    0,
    0
  ],
  "powers": [
    {
      "power_category": "CarnivalOfLight",
      "power_set": "Armor",
      "power": "*",
      "level": 0
    },
    {
      "power_category": "CarnivalOfLight",
      "power_set": "Resistances",
      "power": "Damage_BS",
      "level": 0
    },
    {
      "power_category": "GenericVillains",
      "power_set": "Automaton_Resistance",
      "power": "*",
      "level": 0
    }
  ],
  "levels": [
    {
      "level": 50,
      "experience": 0,
      "display_names": [
        "Awakened Armor"
      ],
      "costumes": [
        "CoL_Awakened_Armor_01",
        "CoL_Awakened_Armor_02",
        "CoL_Awakened_Armor_03",
        "CoL_Awakened_Armor_04"
      ]
    },
    {
      "level": 51,
      "experience": 0,
      "display_names": [
        "Awakened Armor"
      ],
      "costumes": [
        "CoL_Awakened_Armor_01",
        "CoL_Awakened_Armor_02",
        "CoL_Awakened_Armor_03",
        "CoL_Awakened_Armor_04"
      ]
    },
    {
      "level": 52,
      "experience": 0,
      "display_names": [
        "Awakened Armor"
      ],
      "costumes": [
        "CoL_Awakened_Armor_01",
        "CoL_Awakened_Armor_02",
        "CoL_Awakened_Armor_03",
        "CoL_Awakened_Armor_04"
      ]
    },
    {
      "level": 53,
      "experience": 0,
      "display_names": [
        "Awakened Armor"
      ],
      "costumes": [
        "CoL_Awakened_Armor_01",
        "CoL_Awakened_Armor_02",
        "CoL_Awakened_Armor_03",
        "CoL_Awakened_Armor_04"
      ]
    },
    {
      "level": 54,
      "experience": 0,
      "display_names": [
        "Awakened Armor"
      ],
      "costumes": [
        "CoL_Awakened_Armor_01",
        "CoL_Awakened_Armor_02",
        "CoL_Awakened_Armor_03",
        "CoL_Awakened_Armor_04"
      ]
    }
  ]
}