{
  "name": "Carnival_CoV_Attendant",
  "gender": "GENDER_FEMALE",
  "description": "The lowest echelon of the Carnival of Shadows is filled with these servants. Although they are at the bottom of the ladder, they should not be underestimated. They wear the distinctive mask of the Carnival and draw resistance to mental attacks from it like the rest of their comrades.",
  "group_description": null,
  "display_class_name": null,
  "character_class_name": "minion_grunt",
  "ai_config": "Default_Ranged",
  "commandable_pet": false,
  "power_tags": [
    "HumanSkeleton",
    "Human"
  ],
  "additional_rewards": [

  ],
  "skill_hp_rewards": [

  ],
  "skill_status_rewards": [

  ],
  "ally": null,
  "gang": null,
  "reward_scale": 1.0,
  "game_exclusion": "None",
  "inactive_state_weapon": null,
  "ignores_combat_mods": false,
  "copy_creator_mods": false,
  "spawn_limit": -1,
  "spawn_limit_mission": -1,
  "ignore_av_to_eb_scaling": false,
  "can_zone": false,
  "custom_badge_stat": null,
  "badge_stat_flags": "DefaultBadgeStat",
  "rank": "VR_MINION",
  "power_full_names": [
    "Carnival.CoV_Carnival_Inherent_Defense.Resistance",
    "Carnival.Carnival_Attendant.Energy_Rings",
    "Carnival.Carnival_Attendant.Energy_Ring_Toss"
  ],
  "power_display_names": [
    "Resistance",
    "Energy Rings",
    "Energy Ring Toss"
  ],
  "power_levels": [
    0,
    0,
    0
  ],
  "powers": [
    {
      "power_category": "Carnival",
      "power_set": "CoV_Carnival_Inherent_Defense",
      "power": "*",
      "level": 0
    },
    {
      "power_category": "Carnival",
      "power_set": "Carnival_Attendant",
      "power": "*",
      "level": 0
    }
  ],
  "levels": [
    {
      "level": 30,
      "experience": 0,
      "display_names": [
        "Attendant"
      ],
      "costumes": [
        "Carnival_Kibitzer_01",
        "Carnival_Kibitzer_02",
        "Carnival_Kibitzer_03",
        "Carnival_Kibitzer_04",
        "Carnival_Kibitzer_05",
        "Carnival_Kibitzer_06"
      ]
    },
    {
      "level": 31,
      "experience": 0,
      "display_names": [
        "Attendant"
      ],
      "costumes": [
        "Carnival_Kibitzer_01",
        "Carnival_Kibitzer_02",
        "Carnival_Kibitzer_03",
        "Carnival_Kibitzer_04",
        "Carnival_Kibitzer_05",
        "Carnival_Kibitzer_06"
      ]
    },
    {
      "level": 32,
      "experience": 0,
      "display_names": [
        "Attendant"
      ],
      "costumes": [
        "Carnival_Kibitzer_01",
        "Carnival_Kibitzer_02",
        "Carnival_Kibitzer_03",
        "Carnival_Kibitzer_04",
        "Carnival_Kibitzer_05",
        "Carnival_Kibitzer_06"
      ]
    },
    {
      "level": 33,
      "experience": 0,
      "display_names": [
        "Attendant"
      ],
      "costumes": [
        "Carnival_Kibitzer_01",
        "Carnival_Kibitzer_02",
        "Carnival_Kibitzer_03",
        "Carnival_Kibitzer_04",
        "Carnival_Kibitzer_05",
        "Carnival_Kibitzer_06"
      ]
    },
    {
      "level": 34,
      "experience": 0,
      "display_names": [
        "Attendant"
      ],
      "costumes": [
        "Carnival_Kibitzer_01",
        "Carnival_Kibitzer_02",
        "Carnival_Kibitzer_03",
        "Carnival_Kibitzer_04",
        "Carnival_Kibitzer_05",
        "Carnival_Kibitzer_06"
      ]
    },
    {
      "level": 35,
      "experience": 0,
      "display_names": [
        "Attendant"
      ],
      "costumes": [
        "Carnival_Kibitzer_01",
        "Carnival_Kibitzer_02",
        "Carnival_Kibitzer_03",
        "Carnival_Kibitzer_04",
        "Carnival_Kibitzer_05",
        "Carnival_Kibitzer_06"
      ]
    },
    {
      "level": 36,
      "experience": 0,
      "display_names": [
        "Attendant"
      ],
      "costumes": [
        "Carnival_Kibitzer_01",
        "Carnival_Kibitzer_02",
        "Carnival_Kibitzer_03",
        "Carnival_Kibitzer_04",
        "Carnival_Kibitzer_05",
        "Carnival_Kibitzer_06"
      ]
    },
    {
      "level": 37,
      "experience": 0,
      "display_names": [
        "Attendant"
      ],
      "costumes": [
        "Carnival_Kibitzer_01",
        "Carnival_Kibitzer_02",
        "Carnival_Kibitzer_03",
        "Carnival_Kibitzer_04",
        "Carnival_Kibitzer_05",
        "Carnival_Kibitzer_06"
      ]
    },
    {
      "level": 38,
      "experience": 0,
      "display_names": [
        "Attendant"
      ],
      "costumes": [
        "Carnival_Kibitzer_01",
        "Carnival_Kibitzer_02",
        "Carnival_Kibitzer_03",
        "Carnival_Kibitzer_04",
        "Carnival_Kibitzer_05",
        "Carnival_Kibitzer_06"
      ]
    },
    {
      "level": 39,
      "experience": 0,
      "display_names": [
        "Attendant"
      ],
      "costumes": [
        "Carnival_Kibitzer_01",
        "Carnival_Kibitzer_02",
        "Carnival_Kibitzer_03",
        "Carnival_Kibitzer_04",
        "Carnival_Kibitzer_05",
        "Carnival_Kibitzer_06"
      ]
    },
    {
      "level": 40,
      "experience": 0,
      "display_names": [
        "Attendant"
      ],
      "costumes": [
        "Carnival_Kibitzer_01",
        "Carnival_Kibitzer_02",
        "Carnival_Kibitzer_03",
        "Carnival_Kibitzer_04",
        "Carnival_Kibitzer_05",
        "Carnival_Kibitzer_06"
      ]
    }
  ]
}