{
  "name": "Carnival_Dark_Ring_Mistress",
  "gender": "GENDER_FEMALE",
  "description": "When a Ring Mistress has accomplished a number of successful tasks for the Carnival of Shadows, her mask is enhanced with dark and terrible powers. In addition to psychic attacks the Dark Ring Mistresses assault their enemies with power from the dark recesses of their minds.",
  "group_description": null,
  "display_class_name": null,
  "character_class_name": "boss_grunt",
  "ai_config": "Default_Ranged",
  "commandable_pet": false,
  "power_tags": [
    "HumanSkeleton",
    "Human"
  ],
  "additional_rewards": [

  ],
  "skill_hp_rewards": [

  ],
  "skill_status_rewards": [

  ],
  "ally": null,
  "gang": null,
  "reward_scale": 1.0,
  "game_exclusion": "None",
  "inactive_state_weapon": null,
  "ignores_combat_mods": false,
  "copy_creator_mods": false,
  "spawn_limit": -1,
  "spawn_limit_mission": -1,
  "ignore_av_to_eb_scaling": false,
  "can_zone": false,
  "custom_badge_stat": null,
  "badge_stat_flags": "DefaultBadgeStat",
  "rank": "VR_BOSS",
  "power_full_names": [
    "Carnival.Carnival_Inherent_Defense.Resistance",
    "Carnival.Carnival_Inherent_Defense.Psychic_Visage",
    "Carnival.Carnival_Ring_Mistress_Inherent.Mental_Blast",
    "Carnival.Carnival_Ring_Mistress_Inherent.Telekinetic_blast",
    "Carnival.Carnival_Ring_Mistress_Inherent.Subdue",
    "Carnival.Carnival_Ring_Mistress_Inherent.Will_Domination",
    "Carnival.Carnival_Ring_Mistress_Inherent.Mask_of_Vitiation",
    "Carnival.Carnival_Dark_Ring_Mistress.Petrify",
    "Carnival.Carnival_Dark_Ring_Mistress.Twilight_Grasp",
    "Carnival.Carnival_Dark_Ring_Mistress.Darkest_Night"
  ],
  "power_display_names": [
    "Resistance",
    "Psychic Visage",
    "Mental Blast",
    "Telekinetic blast",
    "Subdue",
    "Will Domination",
    "Mask of Vitiation",
    "Petrify",
    "Twilight Grasp",
    "Darkest Night"
  ],
  "power_levels": [
    0,
    0,
    0,
    0,
    0,
    0,
    0,
    0,
    0,
    0
  ],
  "powers": [
    {
      "power_category": "Carnival",
      "power_set": "Carnival_Inherent_Defense",
      "power": "*",
      "level": 0
    },
    {
      "power_category": "Carnival",
      "power_set": "Carnival_Ring_Mistress_Inherent",
      "power": "*",
      "level": 0
    },
    {
      "power_category": "Carnival",
      "power_set": "Carnival_Dark_Ring_Mistress",
      "power": "*",
      "level": 0
    }
  ],
  "levels": [
    {
      "level": 45,
      "experience": 0,
      "display_names": [
        "Dark Ring Mistress"
      ],
      "costumes": [
        "Carnival_Mistress_Boss_01",
        "Carnival_Mistress_Boss_02",
        "Carnival_Mistress_Boss_03"
      ]
    },
    {
      "level": 46,
      "experience": 0,
      "display_names": [
        "Dark Ring Mistress"
      ],
      "costumes": [
        "Carnival_Mistress_Boss_01",
        "Carnival_Mistress_Boss_02",
        "Carnival_Mistress_Boss_03"
      ]
    },
    {
      "level": 47,
      "experience": 0,
      "display_names": [
        "Dark Ring Mistress"
      ],
      "costumes": [
        "Carnival_Mistress_Boss_01",
        "Carnival_Mistress_Boss_02",
        "Carnival_Mistress_Boss_03"
      ]
    },
    {
      "level": 48,
      "experience": 0,
      "display_names": [
        "Dark Ring Mistress"
      ],
      "costumes": [
        "Carnival_Mistress_Boss_01",
        "Carnival_Mistress_Boss_02",
        "Carnival_Mistress_Boss_03"
      ]
    },
    {
      "level": 49,
      "experience": 0,
      "display_names": [
        "Dark Ring Mistress"
      ],
      "costumes": [
        "Carnival_Mistress_Boss_01",
        "Carnival_Mistress_Boss_02",
        "Carnival_Mistress_Boss_03"
      ]
    },
    {
      "level": 50,
      "experience": 0,
      "display_names": [
        "Dark Ring Mistress"
      ],
      "costumes": [
        "Carnival_Mistress_Boss_01",
        "Carnival_Mistress_Boss_02",
        "Carnival_Mistress_Boss_03"
      ]
    },
    {
      "level": 51,
      "experience": 0,
      "display_names": [
        "Dark Ring Mistress"
      ],
      "costumes": [
        "Carnival_Mistress_Boss_01",
        "Carnival_Mistress_Boss_02",
        "Carnival_Mistress_Boss_03"
      ]
    },
    {
      "level": 52,
      "experience": 0,
      "display_names": [
        "Dark Ring Mistress"
      ],
      "costumes": [
        "Carnival_Mistress_Boss_01",
        "Carnival_Mistress_Boss_02",
        "Carnival_Mistress_Boss_03"
      ]
    },
    {
      "level": 53,
      "experience": 0,
      "display_names": [
        "Dark Ring Mistress"
      ],
      "costumes": [
        "Carnival_Mistress_Boss_01",
        "Carnival_Mistress_Boss_02",
        "Carnival_Mistress_Boss_03"
      ]
    },
    {
      "level": 54,
      "experience": 0,
      "display_names": [
        "Dark Ring Mistress"
      ],
      "costumes": [
        "Carnival_Mistress_Boss_01",
        "Carnival_Mistress_Boss_02",
        "Carnival_Mistress_Boss_03"
      ]
    }
  ]
}