{
  "name": "CarnivalOfLight_MagicalBarrier",
  "gender": "GENDER_MALE",
  "description": "This magical barrier has been set up by a member of the Carnival of Light.",
  "group_description": null,
  "display_class_name": "Barrier",
  "character_class_name": "lt_grunt",
  "ai_config": "Default_Stationary",
  "commandable_pet": false,
  "power_tags": [

  ],
  "additional_rewards": [

  ],
  "skill_hp_rewards": [

  ],
  "skill_status_rewards": [

  ],
  "ally": null,
  "gang": null,
  "reward_scale": 0.0,
  "game_exclusion": "None",
  "inactive_state_weapon": null,
  "ignores_combat_mods": false,
  "copy_creator_mods": false,
  "spawn_limit": 0,
  "spawn_limit_mission": 0,
  "ignore_av_to_eb_scaling": false,
  "can_zone": false,
  "custom_badge_stat": "kills.Doorbuster",
  "badge_stat_flags": "DefaultBadgeStat",
  "rank": "VR_DESTRUCTIBLE",
  "power_full_names": [
    "CircleOfThorns.CoT_Prison_Door.Resistance"
  ],
  "power_display_names": [
    "Resistance"
  ],
  "power_levels": [
    0
  ],
  "powers": [
    {
      "power_category": "CircleOfThorns",
      "power_set": "CoT_Prison_Door",
      "power": "*",
      "level": 0
    }
  ],
  "levels": [
    {
      "level": 20,
      "experience": 0,
      "display_names": [
        "Magical Barrier"
      ],
      "costumes": [
        "AE_CoT_Celldoor_01"
      ]
    },
    {
      "level": 21,
      "experience": 0,
      "display_names": [
        "Magical Barrier"
      ],
      "costumes": [
        "AE_CoT_Celldoor_01"
      ]
    },
    {
      "level": 22,
      "experience": 0,
      "display_names": [
        "Magical Barrier"
      ],
      "costumes": [
        "AE_CoT_Celldoor_01"
      ]
    },
    {
      "level": 23,
      "experience": 0,
      "display_names": [
        "Magical Barrier"
      ],
      "costumes": [
        "AE_CoT_Celldoor_01"
      ]
    },
    {
      "level": 24,
      "experience": 0,
      "display_names": [
        "Magical Barrier"
      ],
      "costumes": [
        "AE_CoT_Celldoor_01"
      ]
    },
    {
      "level": 25,
      "experience": 0,
      "display_names": [
        "Magical Barrier"
      ],
      "costumes": [
        "AE_CoT_Celldoor_01"
      ]
    },
    {
      "level": 26,
      "experience": 0,
      "display_names": [
        "Magical Barrier"
      ],
      "costumes": [
        "AE_CoT_Celldoor_01"
      ]
    },
    {
      "level": 27,
      "experience": 0,
      "display_names": [
        "Magical Barrier"
      ],
      "costumes": [
        "AE_CoT_Celldoor_01"
      ]
    },
    {
      "level": 28,
      "experience": 0,
      "display_names": [
        "Magical Barrier"
      ],
      "costumes": [
        "AE_CoT_Celldoor_01"
      ]
    },
    {
      "level": 29,
      "experience": 0,
      "display_names": [
        "Magical Barrier"
      ],
      "costumes": [
        "AE_CoT_Celldoor_01"
      ]
    },
    {
      "level": 30,
      "experience": 0,
      "display_names": [
        "Magical Barrier"
      ],
      "costumes": [
        "AE_CoT_Celldoor_01"
      ]
    },
    {
      "level": 31,
      "experience": 0,
      "display_names": [
        "Magical Barrier"
      ],
      "costumes": [
        "AE_CoT_Celldoor_01"
      ]
    },
    {
      "level": 32,
      "experience": 0,
      "display_names": [
        "Magical Barrier"
      ],
      "costumes": [
        "AE_CoT_Celldoor_01"
      ]
    },
    {
      "level": 33,
      "experience": 0,
      "display_names": [
        "Magical Barrier"
      ],
      "costumes": [
        "AE_CoT_Celldoor_01"
      ]
    },
    {
      "level": 34,
      "experience": 0,
      "display_names": [
        "Magical Barrier"
      ],
      "costumes": [
        "AE_CoT_Celldoor_01"
      ]
    }
  ]
}