{
  "name": "Chimera_P_Endgame_Chimera",
  "gender": "GENDER_MALE",
  "description": "Known in Praetoria as Praetor Sinclair, he is Emperor Cole's ultimate assassin. When his parents were killed by Doppelganger, Justin Sinclair was given the opportunity of a lifetime. Doppelganger took the boy under his wing and trained him to be the world's premier silent killer.",
  "group_description": "Praetorians",
  "display_class_name": null,
  "character_class_name": "boss_praetorianarchvillain",
  "ai_config": "Signatures_Ranged",
  "commandable_pet": false,
  "power_tags": [
    "HumanSkeleton",
    "Human",
    "Raid"
  ],
  "additional_rewards": [

  ],
  "skill_hp_rewards": [

  ],
  "skill_status_rewards": [

  ],
  "ally": null,
  "gang": null,
  "reward_scale": 1.0,
  "game_exclusion": "None",
  "inactive_state_weapon": null,
  "ignores_combat_mods": false,
  "copy_creator_mods": false,
  "spawn_limit": -1,
  "spawn_limit_mission": -1,
  "ignore_av_to_eb_scaling": false,
  "can_zone": false,
  "custom_badge_stat": "kills.Chimera_Chimera",
  "badge_stat_flags": "DefaultBadgeStat",
  "rank": "VR_ARCHVILLAIN",
  "power_full_names": [
    "GenericVillains.Scaling.HP_15_Dmg_4_Min_8",
    "GenericVillains.Supervillain_Resistance.Resistance",
    "Magisterium.Chimera.Ninja_Vanish",
    "Magisterium.Chimera.Surveillance",
    "Magisterium.Chimera.Snap_Shot",
    "Magisterium.Chimera.Aimed_Shot",
    "Magisterium.Chimera.Fistful_of_Arrows",
    "Magisterium.Chimera.Blazing_Arrow",
    "Magisterium.Chimera.Explosive_Arrow",
    "Magisterium.Chimera.Kuji-In_Retsu",
    "Magisterium.Chimera.Master_Shot"
  ],
  "power_display_names": [
    "Scaling",
    "Resistance",
    "Ninja Vanish",
    "Surveillance",
    "Snap Shot",
    "Aimed Shot",
    "Fistful of Arrows",
    "Blazing Arrow",
    "Explosive Arrow",
    "Kuji-In Retsu",
    "Master Shot"
  ],
  "power_levels": [
    0,
    0,
    0,
    0,
    0,
    0,
    0,
    0,
    0,
    0,
    0
  ],
  "powers": [
    {
      "power_category": "GenericVillains",
      "power_set": "Scaling",
      "power": "HP_15_Dmg_4_Min_8",
      "level": 0
    },
    {
      "power_category": "GenericVillains",
      "power_set": "Supervillain_Resistance",
      "power": "Resistance",
      "level": 0
    },
    {
      "power_category": "Magisterium",
      "power_set": "Chimera",
      "power": "*",
      "level": 0
    }
  ],
  "levels": [
    {
      "level": 54,
      "experience": 0,
      "display_names": [
        "Chimera"
      ],
      "costumes": [
        "Chimera_Endgame"
      ]
    }
  ]
}