{
  "name": "CircleOfThorns_The_High_Soul",
  "gender": "GENDER_MALE",
  "description": "The High Mages of the Soul delve into the deepest reaches of the human spirit. They are largely responsible for the gathering and training of specters and other spirits. When forced into combat, they petrify their foes in a wave of inescapable self-contemplation that leaves them incapable of any action.",
  "group_description": null,
  "display_class_name": null,
  "character_class_name": "lt_grunt",
  "ai_config": "Default_Ranged",
  "commandable_pet": false,
  "power_tags": [
    "HumanSkeleton",
    "Human"
  ],
  "additional_rewards": [

  ],
  "skill_hp_rewards": [

  ],
  "skill_status_rewards": [

  ],
  "ally": null,
  "gang": null,
  "reward_scale": 1.0,
  "game_exclusion": "None",
  "inactive_state_weapon": null,
  "ignores_combat_mods": false,
  "copy_creator_mods": false,
  "spawn_limit": -1,
  "spawn_limit_mission": -1,
  "ignore_av_to_eb_scaling": false,
  "can_zone": false,
  "custom_badge_stat": null,
  "badge_stat_flags": "DefaultBadgeStat",
  "rank": "VR_LIEUTENANT",
  "power_full_names": [
    "CircleOfThorns.Circle_High_Melee.Brawl",
    "CircleOfThorns.Circle_High_Soul_Ranged.Darkness_Staff",
    "CircleOfThorns.Circle_High_Soul_Ranged.Darkness_Staff_Gloom",
    "CircleOfThorns.Circle_Kamakaze.Kamikaze"
  ],
  "power_display_names": [
    "Brawl",
    "Darkness Staff",
    "Darkness Staff Gloom",
    "Kamikaze"
  ],
  "power_levels": [
    0,
    0,
    0,
    0
  ],
  "powers": [
    {
      "power_category": "CircleOfThorns",
      "power_set": "Circle_High_Melee",
      "power": "*",
      "level": 0
    },
    {
      "power_category": "CircleOfThorns",
      "power_set": "Circle_High_Soul_Ranged",
      "power": "*",
      "level": 0
    },
    {
      "power_category": "CircleOfThorns",
      "power_set": "Circle_Kamakaze",
      "power": "*",
      "level": 0
    }
  ],
  "levels": [
    {
      "level": 20,
      "experience": 0,
      "display_names": [
        "Soul Mage"
      ],
      "costumes": [
        "CoT_Lt_10",
        "CoT_Lt_11",
        "CoT_Lt_12"
      ]
    },
    {
      "level": 21,
      "experience": 0,
      "display_names": [
        "Soul Mage"
      ],
      "costumes": [
        "CoT_Lt_10",
        "CoT_Lt_11",
        "CoT_Lt_12"
      ]
    },
    {
      "level": 22,
      "experience": 0,
      "display_names": [
        "Soul Mage"
      ],
      "costumes": [
        "CoT_Lt_10",
        "CoT_Lt_11",
        "CoT_Lt_12"
      ]
    },
    {
      "level": 23,
      "experience": 0,
      "display_names": [
        "Soul Mage"
      ],
      "costumes": [
        "CoT_Lt_10",
        "CoT_Lt_11",
        "CoT_Lt_12"
      ]
    },
    {
      "level": 24,
      "experience": 0,
      "display_names": [
        "Soul Mage"
      ],
      "costumes": [
        "CoT_Lt_10",
        "CoT_Lt_11",
        "CoT_Lt_12"
      ]
    },
    {
      "level": 25,
      "experience": 0,
      "display_names": [
        "Soul Mage"
      ],
      "costumes": [
        "CoT_Lt_10",
        "CoT_Lt_11",
        "CoT_Lt_12"
      ]
    },
    {
      "level": 26,
      "experience": 0,
      "display_names": [
        "Soul Mage"
      ],
      "costumes": [
        "CoT_Lt_10",
        "CoT_Lt_11",
        "CoT_Lt_12"
      ]
    },
    {
      "level": 27,
      "experience": 0,
      "display_names": [
        "Soul Mage"
      ],
      "costumes": [
        "CoT_Lt_10",
        "CoT_Lt_11",
        "CoT_Lt_12"
      ]
    },
    {
      "level": 28,
      "experience": 0,
      "display_names": [
        "Soul Mage"
      ],
      "costumes": [
        "CoT_Lt_10",
        "CoT_Lt_11",
        "CoT_Lt_12"
      ]
    },
    {
      "level": 29,
      "experience": 0,
      "display_names": [
        "Soul Mage"
      ],
      "costumes": [
        "CoT_Lt_10",
        "CoT_Lt_11",
        "CoT_Lt_12"
      ]
    },
    {
      "level": 30,
      "experience": 0,
      "display_names": [
        "Soul Mage"
      ],
      "costumes": [
        "CoT_Lt_10",
        "CoT_Lt_11",
        "CoT_Lt_12"
      ]
    }
  ]
}