{
  "name": "CircleOfThornsEndgame_Pink_Crystal",
  "gender": "GENDER_MALE",
  "description": "This large crystal is part of Archus' psychic network. Destroy it!",
  "group_description": null,
  "display_class_name": "Object",
  "character_class_name": "lt_grunt",
  "ai_config": "NoPhysicsCrystal",
  "commandable_pet": false,
  "power_tags": [

  ],
  "additional_rewards": [

  ],
  "skill_hp_rewards": [

  ],
  "skill_status_rewards": [

  ],
  "ally": null,
  "gang": null,
  "reward_scale": 1.0,
  "game_exclusion": "None",
  "inactive_state_weapon": null,
  "ignores_combat_mods": false,
  "copy_creator_mods": false,
  "spawn_limit": 0,
  "spawn_limit_mission": 0,
  "ignore_av_to_eb_scaling": false,
  "can_zone": false,
  "custom_badge_stat": null,
  "badge_stat_flags": "DefaultBadgeStat",
  "rank": "VR_PET",
  "power_full_names": [
    "CircleOfThorns.Circle_Pink_Crystal.Immobile",
    "CircleOfThorns.Circle_Pink_Crystal.Resistance",
    "CircleOfThorns.Circle_Pink_Crystal.Dying_Burst"
  ],
  "power_display_names": [
    "Immobile",
    "Resistance",
    "Dying Burst"
  ],
  "power_levels": [
    0,
    0,
    0
  ],
  "powers": [
    {
      "power_category": "CircleOfThorns",
      "power_set": "Circle_Pink_Crystal",
      "power": "*",
      "level": 0
    }
  ],
  "levels": [
    {
      "level": 50,
      "experience": 0,
      "display_names": [
        "Psionic Crystal"
      ],
      "costumes": [
        "AE_CoT_Crystal_Psionic"
      ]
    },
    {
      "level": 51,
      "experience": 0,
      "display_names": [
        "Psionic Crystal"
      ],
      "costumes": [
        "AE_CoT_Crystal_Psionic"
      ]
    },
    {
      "level": 52,
      "experience": 0,
      "display_names": [
        "Psionic Crystal"
      ],
      "costumes": [
        "AE_CoT_Crystal_Psionic"
      ]
    },
    {
      "level": 53,
      "experience": 0,
      "display_names": [
        "Psionic Crystal"
      ],
      "costumes": [
        "AE_CoT_Crystal_Psionic"
      ]
    },
    {
      "level": 54,
      "experience": 0,
      "display_names": [
        "Psionic Crystal"
      ],
      "costumes": [
        "AE_CoT_Crystal_Psionic"
      ]
    }
  ]
}