{
  "name": "CircleOfThorns_CoV_Minion_Lasher",
  "gender": "GENDER_MALE",
  "description": "From the nightmares of Hell's sinners come these disgusting creatures, nightmares born of fire, brimstone, and hate.",
  "group_description": null,
  "display_class_name": null,
  "character_class_name": "minion_grunt",
  "ai_config": "Default_Melee",
  "commandable_pet": false,
  "power_tags": [
    "Demon"
  ],
  "additional_rewards": [

  ],
  "skill_hp_rewards": [

  ],
  "skill_status_rewards": [

  ],
  "ally": null,
  "gang": null,
  "reward_scale": 1.0,
  "game_exclusion": "None",
  "inactive_state_weapon": null,
  "ignores_combat_mods": false,
  "copy_creator_mods": false,
  "spawn_limit": -1,
  "spawn_limit_mission": -1,
  "ignore_av_to_eb_scaling": false,
  "can_zone": false,
  "custom_badge_stat": null,
  "badge_stat_flags": "DefaultBadgeStat",
  "rank": "VR_MINION",
  "power_full_names": [
    "CircleOfThorns.Minion_Lasher.Tongue_Strike",
    "CircleOfThorns.Minion_Lasher.Vicious_Bite",
    "CircleOfThorns.CoT_Resistance.Resistance"
  ],
  "power_display_names": [
    "Tongue Strike",
    "Vicious Bite",
    "Resistance"
  ],
  "power_levels": [
    0,
    0,
    0
  ],
  "powers": [
    {
      "power_category": "CircleOfThorns",
      "power_set": "Minion_Lasher",
      "power": "*",
      "level": 0
    },
    {
      "power_category": "CircleOfThorns",
      "power_set": "CoT_Resistance",
      "power": "*",
      "level": 0
    }
  ],
  "levels": [
    {
      "level": 8,
      "experience": 0,
      "display_names": [
        "Hordeling Lasher"
      ],
      "costumes": [
        "CoT_Hordeling_Lasher_01",
        "CoT_Hordeling_Lasher_02",
        "CoT_Hordeling_Lasher_03"
      ]
    },
    {
      "level": 9,
      "experience": 0,
      "display_names": [
        "Hordeling Lasher"
      ],
      "costumes": [
        "CoT_Hordeling_Lasher_01",
        "CoT_Hordeling_Lasher_02",
        "CoT_Hordeling_Lasher_03"
      ]
    },
    {
      "level": 10,
      "experience": 0,
      "display_names": [
        "Hordeling Lasher"
      ],
      "costumes": [
        "CoT_Hordeling_Lasher_01",
        "CoT_Hordeling_Lasher_02",
        "CoT_Hordeling_Lasher_03"
      ]
    },
    {
      "level": 11,
      "experience": 0,
      "display_names": [
        "Hordeling Lasher"
      ],
      "costumes": [
        "CoT_Hordeling_Lasher_01",
        "CoT_Hordeling_Lasher_02",
        "CoT_Hordeling_Lasher_03"
      ]
    },
    {
      "level": 12,
      "experience": 0,
      "display_names": [
        "Hordeling Lasher"
      ],
      "costumes": [
        "CoT_Hordeling_Lasher_01",
        "CoT_Hordeling_Lasher_02",
        "CoT_Hordeling_Lasher_03"
      ]
    },
    {
      "level": 13,
      "experience": 0,
      "display_names": [
        "Hordeling Lasher"
      ],
      "costumes": [
        "CoT_Hordeling_Lasher_01",
        "CoT_Hordeling_Lasher_02",
        "CoT_Hordeling_Lasher_03"
      ]
    },
    {
      "level": 14,
      "experience": 0,
      "display_names": [
        "Hordeling Lasher"
      ],
      "costumes": [
        "CoT_Hordeling_Lasher_01",
        "CoT_Hordeling_Lasher_02",
        "CoT_Hordeling_Lasher_03"
      ]
    },
    {
      "level": 15,
      "experience": 0,
      "display_names": [
        "Hordeling Lasher"
      ],
      "costumes": [
        "CoT_Hordeling_Lasher_01",
        "CoT_Hordeling_Lasher_02",
        "CoT_Hordeling_Lasher_03"
      ]
    }
  ]
}