{
  "name": "CircleOfThorns_Akarist",
  "gender": "GENDER_MALE",
  "description": "The ancient Oranbegan sorcerer known as Akarist was once a mortal man, over 14,000 years ago. In his original body, his magical powers were at their peak.",
  "group_description": null,
  "display_class_name": null,
  "character_class_name": "boss_archvillain",
  "ai_config": "Default_Ranged",
  "commandable_pet": false,
  "power_tags": [
    "HumanSkeleton",
    "Human",
    "Raid"
  ],
  "additional_rewards": [

  ],
  "skill_hp_rewards": [

  ],
  "skill_status_rewards": [

  ],
  "ally": null,
  "gang": null,
  "reward_scale": 1.0,
  "game_exclusion": "None",
  "inactive_state_weapon": null,
  "ignores_combat_mods": false,
  "copy_creator_mods": false,
  "spawn_limit": 0,
  "spawn_limit_mission": 0,
  "ignore_av_to_eb_scaling": false,
  "can_zone": false,
  "custom_badge_stat": null,
  "badge_stat_flags": "DefaultBadgeStat",
  "rank": "VR_ARCHVILLAIN",
  "power_full_names": [
    "V_Arachnos.AV_Resistances.Resistance",
    "Rularuu.CoT_ArchMage.Resistance",
    "CircleOfThorns.Circle_Madness_Ranged.Dominate",
    "CircleOfThorns.Circle_Madness_Ranged.Mesmerize",
    "CircleOfThorns.Circle_Madness_Ranged.Psychic_Scream",
    "CircleOfThorns.Circle_Madness_Ranged.Scramble_Thoughts",
    "CircleOfThorns.Circle_Madness_Ranged.Fortitude",
    "CircleOfThorns.Circle_Ruin_Ranged.Stone_Prison",
    "CircleOfThorns.Circle_Ruin_Ranged.Earthquake",
    "CircleOfThorns.Circle_Ruin_Ranged.Fossilize",
    "CircleOfThorns.Circle_Agony_Ranged.Crush",
    "CircleOfThorns.Circle_Agony_Ranged.Gravity_Distortion",
    "CircleOfThorns.Circle_Agony_Ranged.Siphon_Power",
    "CircleOfThorns.Circle_Agony_Ranged.Absorb_Pain",
    "CircleOfThorns.Circle_Death_Ranged.Chill_of_the_Night",
    "CircleOfThorns.Circle_Death_Ranged.Dark_Pit",
    "CircleOfThorns.Circle_Death_Ranged.Gloom",
    "CircleOfThorns.Circle_Death_Ranged.Tenebrous_Tentacles",
    "CircleOfThorns.Circle_Death_Ranged.Twilight_Grasp"
  ],
  "power_display_names": [
    "Resistance",
    "Resistance",
    "Dominate",
    "Mesmerize",
    "Psychic Scream",
    "Scramble Thoughts",
    "Fortitude",
    "Stone Prison",
    "Earthquake",
    "Fossilize",
    "Crush",
    "Gravity Distortion",
    "Siphon Power",
    "Absorb Pain",
    "Chill of the Night",
    "Dark Pit",
    "Gloom",
    "Tenebrous Tentacles",
    "Twilight Grasp"
  ],
  "power_levels": [
    0,
    0,
    0,
    0,
    0,
    0,
    0,
    0,
    0,
    0,
    0,
    0,
    0,
    0,
    0,
    0,
    0,
    0,
    0
  ],
  "powers": [
    {
      "power_category": "V_Arachnos",
      "power_set": "AV_Resistances",
      "power": "*",
      "level": 0
    },
    {
      "power_category": "Rularuu",
      "power_set": "CoT_ArchMage",
      "power": "*",
      "level": 0
    },
    {
      "power_category": "CircleOfThorns",
      "power_set": "Circle_Madness_Ranged",
      "power": "*",
      "level": 0
    },
    {
      "power_category": "CircleOfThorns",
      "power_set": "Circle_Ruin_Ranged",
      "power": "Stone_Prison",
      "level": 0
    },
    {
      "power_category": "CircleOfThorns",
      "power_set": "Circle_Ruin_Ranged",
      "power": "Earthquake",
      "level": 0
    },
    {
      "power_category": "CircleOfThorns",
      "power_set": "Circle_Ruin_Ranged",
      "power": "Fossilize",
      "level": 0
    },
    {
      "power_category": "CircleOfThorns",
      "power_set": "Circle_Agony_Ranged",
      "power": "*",
      "level": 0
    },
    {
      "power_category": "CircleOfThorns",
      "power_set": "Circle_Death_Ranged",
      "power": "*",
      "level": 0
    }
  ],
  "levels": [
    {
      "level": 45,
      "experience": 0,
      "display_names": [
        "Akarist"
      ],
      "costumes": [
        "CoT_New_Akarist"
      ]
    },
    {
      "level": 46,
      "experience": 0,
      "display_names": [
        "Akarist"
      ],
      "costumes": [
        "CoT_New_Akarist"
      ]
    },
    {
      "level": 47,
      "experience": 0,
      "display_names": [
        "Akarist"
      ],
      "costumes": [
        "CoT_New_Akarist"
      ]
    },
    {
      "level": 48,
      "experience": 0,
      "display_names": [
        "Akarist"
      ],
      "costumes": [
        "CoT_New_Akarist"
      ]
    },
    {
      "level": 49,
      "experience": 0,
      "display_names": [
        "Akarist"
      ],
      "costumes": [
        "CoT_New_Akarist"
      ]
    },
    {
      "level": 50,
      "experience": 0,
      "display_names": [
        "Akarist"
      ],
      "costumes": [
        "CoT_New_Akarist"
      ]
    },
    {
      "level": 51,
      "experience": 0,
      "display_names": [
        "Akarist"
      ],
      "costumes": [
        "CoT_New_Akarist"
      ]
    },
    {
      "level": 52,
      "experience": 0,
      "display_names": [
        "Akarist"
      ],
      "costumes": [
        "CoT_New_Akarist"
      ]
    },
    {
      "level": 53,
      "experience": 0,
      "display_names": [
        "Akarist"
      ],
      "costumes": [
        "CoT_New_Akarist"
      ]
    },
    {
      "level": 54,
      "experience": 0,
      "display_names": [
        "Akarist"
      ],
      "costumes": [
        "CoT_New_Akarist"
      ]
    }
  ]
}