{
  "name": "CircleOfThorns_Baphomet_Low",
  "gender": "GENDER_MALE",
  "description": "The Baphomet is the oldest and most feared of the Behemoth Lords. The ground beneath its cloven feet burns with its own infernal fire.",
  "group_description": null,
  "display_class_name": null,
  "character_class_name": "boss_archvillain",
  "ai_config": "CircleOfThorns_Behemoth",
  "commandable_pet": false,
  "power_tags": [
    "Demon"
  ],
  "additional_rewards": [

  ],
  "skill_hp_rewards": [

  ],
  "skill_status_rewards": [

  ],
  "ally": null,
  "gang": null,
  "reward_scale": 1.0,
  "game_exclusion": "None",
  "inactive_state_weapon": null,
  "ignores_combat_mods": false,
  "copy_creator_mods": false,
  "spawn_limit": -1,
  "spawn_limit_mission": -1,
  "ignore_av_to_eb_scaling": false,
  "can_zone": false,
  "custom_badge_stat": null,
  "badge_stat_flags": "DefaultBadgeStat",
  "rank": "VR_ARCHVILLAIN",
  "power_full_names": [
    "CircleOfThorns.Baphomet_Ranged_Powers.Fire_Blast",
    "CircleOfThorns.Baphomet_Ranged_Powers.Fire_Ball",
    "CircleOfThorns.Baphomet_Ranged_Powers.Flash_Stomp",
    "CircleOfThorns.Baphomet_Ranged_Powers.Fire_Breath",
    "CircleOfThorns.Baphomet_Ranged_Powers.Greater_Fire_Sword",
    "CircleOfThorns.Baphomet_Ranged_Powers.Swipe",
    "CircleOfThorns.Baphomet_Defense_Powers.Resistance",
    "CircleOfThorns.Baphomet_Defense_Powers.Healing_Flames"
  ],
  "power_display_names": [
    "Fire Blast",
    "Fire Ball",
    "Flash Stomp",
    "Fire Breath",
    "Greater Fire Sword",
    "Swipe",
    "Resistance",
    "Healing Flames"
  ],
  "power_levels": [
    0,
    0,
    0,
    0,
    0,
    0,
    0,
    0
  ],
  "powers": [
    {
      "power_category": "CircleOfThorns",
      "power_set": "Baphomet_Ranged_Powers",
      "power": "*",
      "level": 0
    },
    {
      "power_category": "CircleOfThorns",
      "power_set": "Baphomet_Defense_Powers",
      "power": "*",
      "level": 0
    }
  ],
  "levels": [
    {
      "level": 35,
      "experience": 0,
      "display_names": [
        "Baphomet"
      ],
      "costumes": [
        "Giant_Behemoth_Lord"
      ]
    },
    {
      "level": 36,
      "experience": 0,
      "display_names": [
        "Baphomet"
      ],
      "costumes": [
        "Giant_Behemoth_Lord"
      ]
    },
    {
      "level": 37,
      "experience": 0,
      "display_names": [
        "Baphomet"
      ],
      "costumes": [
        "Giant_Behemoth_Lord"
      ]
    },
    {
      "level": 38,
      "experience": 0,
      "display_names": [
        "Baphomet"
      ],
      "costumes": [
        "Giant_Behemoth_Lord"
      ]
    },
    {
      "level": 39,
      "experience": 0,
      "display_names": [
        "Baphomet"
      ],
      "costumes": [
        "Giant_Behemoth_Lord"
      ]
    },
    {
      "level": 40,
      "experience": 0,
      "display_names": [
        "Baphomet"
      ],
      "costumes": [
        "Giant_Behemoth_Lord"
      ]
    }
  ]
}