{
  "name": "CircleOfThorns_Mission_Possessed_Scientists_Thorn_Air_Caster",
  "gender": "GENDER_MALE",
  "description": "Fooling around with magic by using science can lead to unpredictable results. Being possessed by a hostile entity is just one of them.",
  "group_description": null,
  "display_class_name": null,
  "character_class_name": "minion_grunt",
  "ai_config": "CircleOfThorns_Thorn_Caster",
  "commandable_pet": false,
  "power_tags": [
    "HumanSkeleton",
    "Human"
  ],
  "additional_rewards": [

  ],
  "skill_hp_rewards": [

  ],
  "skill_status_rewards": [

  ],
  "ally": null,
  "gang": null,
  "reward_scale": 1.0,
  "game_exclusion": "None",
  "inactive_state_weapon": null,
  "ignores_combat_mods": false,
  "copy_creator_mods": false,
  "spawn_limit": 0,
  "spawn_limit_mission": 0,
  "ignore_av_to_eb_scaling": false,
  "can_zone": false,
  "custom_badge_stat": null,
  "badge_stat_flags": "DefaultBadgeStat",
  "rank": "VR_MINION",
  "power_full_names": [
    "CircleOfThorns.Circle_Thorn_Caster_Air.Lightning_Bolt",
    "CircleOfThorns.Circle_Thorn_Caster_Air.Charged_Brawl",
    "CircleOfThorns.Circle_Thorn_Caster_Air.Gale",
    "CircleOfThorns.Circle_Thorn_Caster_Air_Movement.Fly",
    "CircleOfThorns.Circle_Thorn_Caster_Air_Movement.Fly_fx"
  ],
  "power_display_names": [
    "Lightning Bolt",
    "Charged Brawl",
    "Gale",
    "Fly",
    "Fly fx"
  ],
  "power_levels": [
    0,
    0,
    0,
    0,
    0
  ],
  "powers": [
    {
      "power_category": "CircleOfThorns",
      "power_set": "Circle_Thorn_Caster_Air",
      "power": "*",
      "level": 0
    },
    {
      "power_category": "CircleOfThorns",
      "power_set": "Circle_Thorn_Caster_Air_Movement",
      "power": "*",
      "level": 0
    }
  ],
  "levels": [
    {
      "level": 40,
      "experience": 0,
      "display_names": [
        "Possessed Scientist"
      ],
      "costumes": [
        "Possessed_01",
        "Possessed_02",
        "Possessed_03",
        "Possessed_04"
      ]
    },
    {
      "level": 41,
      "experience": 0,
      "display_names": [
        "Possessed Scientist"
      ],
      "costumes": [
        "Possessed_01",
        "Possessed_02",
        "Possessed_03",
        "Possessed_04"
      ]
    },
    {
      "level": 42,
      "experience": 0,
      "display_names": [
        "Possessed Scientist"
      ],
      "costumes": [
        "Possessed_01",
        "Possessed_02",
        "Possessed_03",
        "Possessed_04"
      ]
    },
    {
      "level": 43,
      "experience": 0,
      "display_names": [
        "Possessed Scientist"
      ],
      "costumes": [
        "Possessed_01",
        "Possessed_02",
        "Possessed_03",
        "Possessed_04"
      ]
    },
    {
      "level": 44,
      "experience": 0,
      "display_names": [
        "Possessed Scientist"
      ],
      "costumes": [
        "Possessed_01",
        "Possessed_02",
        "Possessed_03",
        "Possessed_04"
      ]
    },
    {
      "level": 45,
      "experience": 0,
      "display_names": [
        "Possessed Scientist"
      ],
      "costumes": [
        "Possessed_01",
        "Possessed_02",
        "Possessed_03",
        "Possessed_04"
      ]
    },
    {
      "level": 46,
      "experience": 0,
      "display_names": [
        "Possessed Scientist"
      ],
      "costumes": [
        "Possessed_01",
        "Possessed_02",
        "Possessed_03",
        "Possessed_04"
      ]
    },
    {
      "level": 47,
      "experience": 0,
      "display_names": [
        "Possessed Scientist"
      ],
      "costumes": [
        "Possessed_01",
        "Possessed_02",
        "Possessed_03",
        "Possessed_04"
      ]
    },
    {
      "level": 48,
      "experience": 0,
      "display_names": [
        "Possessed Scientist"
      ],
      "costumes": [
        "Possessed_01",
        "Possessed_02",
        "Possessed_03",
        "Possessed_04"
      ]
    },
    {
      "level": 49,
      "experience": 0,
      "display_names": [
        "Possessed Scientist"
      ],
      "costumes": [
        "Possessed_01",
        "Possessed_02",
        "Possessed_03",
        "Possessed_04"
      ]
    },
    {
      "level": 50,
      "experience": 0,
      "display_names": [
        "Possessed Scientist"
      ],
      "costumes": [
        "Possessed_01",
        "Possessed_02",
        "Possessed_03",
        "Possessed_04"
      ]
    },
    {
      "level": 51,
      "experience": 0,
      "display_names": [
        "Possessed Scientist"
      ],
      "costumes": [
        "Possessed_01",
        "Possessed_02",
        "Possessed_03",
        "Possessed_04"
      ]
    },
    {
      "level": 52,
      "experience": 0,
      "display_names": [
        "Possessed Scientist"
      ],
      "costumes": [
        "Possessed_01",
        "Possessed_02",
        "Possessed_03",
        "Possessed_04"
      ]
    },
    {
      "level": 53,
      "experience": 0,
      "display_names": [
        "Possessed Scientist"
      ],
      "costumes": [
        "Possessed_01",
        "Possessed_02",
        "Possessed_03",
        "Possessed_04"
      ]
    },
    {
      "level": 54,
      "experience": 0,
      "display_names": [
        "Possessed Scientist"
      ],
      "costumes": [
        "Possessed_01",
        "Possessed_02",
        "Possessed_03",
        "Possessed_04"
      ]
    }
  ]
}