{
  "name": "CircleOfThornsEndgame_CoTPortal",
  "gender": "GENDER_MALE",
  "description": "The Circle of Thorns have opened this portal to another realm. Who knows what will come through. It must be destroyed!",
  "group_description": null,
  "display_class_name": "Object",
  "character_class_name": "boss_grunt",
  "ai_config": "CircleOfThorns_Portal",
  "commandable_pet": false,
  "power_tags": [

  ],
  "additional_rewards": [

  ],
  "skill_hp_rewards": [

  ],
  "skill_status_rewards": [

  ],
  "ally": null,
  "gang": null,
  "reward_scale": 3.0,
  "game_exclusion": "None",
  "inactive_state_weapon": null,
  "ignores_combat_mods": false,
  "copy_creator_mods": false,
  "spawn_limit": 0,
  "spawn_limit_mission": 0,
  "ignore_av_to_eb_scaling": false,
  "can_zone": false,
  "custom_badge_stat": null,
  "badge_stat_flags": "DefaultBadgeStat",
  "rank": "VR_BOSS",
  "power_full_names": [
    "CircleOfThorns.CoT_Portal.Portal",
    "CircleOfThorns.CoT_Portal.Expel",
    "CircleOfThorns.CoT_Portal.Resistance"
  ],
  "power_display_names": [
    "Portal",
    "Expel",
    "Resistance"
  ],
  "power_levels": [
    0,
    0,
    0
  ],
  "powers": [
    {
      "power_category": "CircleOfThorns",
      "power_set": "CoT_Portal",
      "power": "*",
      "level": 0
    }
  ],
  "levels": [
    {
      "level": 50,
      "experience": 0,
      "display_names": [
        "Portal"
      ],
      "costumes": [
        "AE_CoT_Enemy_Portal_01"
      ]
    },
    {
      "level": 51,
      "experience": 0,
      "display_names": [
        "Portal"
      ],
      "costumes": [
        "AE_CoT_Enemy_Portal_01"
      ]
    },
    {
      "level": 52,
      "experience": 0,
      "display_names": [
        "Portal"
      ],
      "costumes": [
        "AE_CoT_Enemy_Portal_01"
      ]
    },
    {
      "level": 53,
      "experience": 0,
      "display_names": [
        "Portal"
      ],
      "costumes": [
        "AE_CoT_Enemy_Portal_01"
      ]
    },
    {
      "level": 54,
      "experience": 0,
      "display_names": [
        "Portal"
      ],
      "costumes": [
        "AE_CoT_Enemy_Portal_01"
      ]
    }
  ]
}