{
  "name": "CircleOfThornsEndgame_Dampening_Field",
  "gender": "GENDER_MALE",
  "description": "This magical barrier stands between you and freedom!",
  "group_description": null,
  "display_class_name": null,
  "character_class_name": "boss_grunt",
  "ai_config": "Default_Stationary",
  "commandable_pet": false,
  "power_tags": [

  ],
  "additional_rewards": [

  ],
  "skill_hp_rewards": [

  ],
  "skill_status_rewards": [

  ],
  "ally": null,
  "gang": null,
  "reward_scale": 1.0,
  "game_exclusion": "None",
  "inactive_state_weapon": null,
  "ignores_combat_mods": false,
  "copy_creator_mods": false,
  "spawn_limit": 0,
  "spawn_limit_mission": 0,
  "ignore_av_to_eb_scaling": false,
  "can_zone": false,
  "custom_badge_stat": null,
  "badge_stat_flags": "DefaultBadgeStat",
  "rank": "VR_PET",
  "power_full_names": [
    "Pets.ResistAll.ResistAll",
    "CircleOfThorns.CoT_Prison_Door_Dampening_Field.Dampening_Field"
  ],
  "power_display_names": [
    "ResistAll",
    "Dampening Field"
  ],
  "power_levels": [
    0,
    0
  ],
  "powers": [
    {
      "power_category": "Pets",
      "power_set": "ResistAll",
      "power": "*",
      "level": 0
    },
    {
      "power_category": "CircleOfThorns",
      "power_set": "CoT_Prison_Door_Dampening_Field",
      "power": "*",
      "level": 0
    }
  ],
  "levels": [
    {
      "level": 50,
      "experience": 0,
      "display_names": [
        "Dampening Field"
      ],
      "costumes": [
        "Puddle"
      ]
    },
    {
      "level": 51,
      "experience": 0,
      "display_names": [
        "Dampening Field"
      ],
      "costumes": [
        "Puddle"
      ]
    },
    {
      "level": 52,
      "experience": 0,
      "display_names": [
        "Dampening Field"
      ],
      "costumes": [
        "Puddle"
      ]
    },
    {
      "level": 53,
      "experience": 0,
      "display_names": [
        "Dampening Field"
      ],
      "costumes": [
        "Puddle"
      ]
    },
    {
      "level": 54,
      "experience": 0,
      "display_names": [
        "Dampening Field"
      ],
      "costumes": [
        "Puddle"
      ]
    }
  ]
}