{
  "name": "CircleOfThornsEndgame_CoTPortal_Behemoth_Lt",
  "gender": "GENDER_MALE",
  "description": "Summoned from the hellish pits of some other dimension, the Behemoths are fiery demons that inspire nightmares in all who see them. They can summon flaming swords to strike down their enemies, or breath fire from their mouths to incinerate all who stand before them.",
  "group_description": null,
  "display_class_name": "Lieutenant",
  "character_class_name": "lt_praetoriangrunt",
  "ai_config": "CircleOfThorns_Behemoth",
  "commandable_pet": false,
  "power_tags": [
    "Demon"
  ],
  "additional_rewards": [

  ],
  "skill_hp_rewards": [

  ],
  "skill_status_rewards": [

  ],
  "ally": null,
  "gang": null,
  "reward_scale": 1.0,
  "game_exclusion": "None",
  "inactive_state_weapon": null,
  "ignores_combat_mods": false,
  "copy_creator_mods": false,
  "spawn_limit": 0,
  "spawn_limit_mission": 0,
  "ignore_av_to_eb_scaling": false,
  "can_zone": false,
  "custom_badge_stat": null,
  "badge_stat_flags": "DefaultBadgeStat",
  "rank": "VR_PET",
  "power_full_names": [
    "CircleOfThorns.Circle_Behemoth_Melee.Fire_Smash",
    "CircleOfThorns.Circle_Behemoth_Melee.Fire_Sword",
    "CircleOfThorns.Circle_Behemoth_Melee.Scorch",
    "CircleOfThorns.Circle_Behemoth_Ranged.Flares",
    "CircleOfThorns.Circle_Behemoth_Movement.Behemoth_Jumping",
    "CircleOfThorns.Circle_Behemoth_Defense.Invincibility",
    "CircleOfThorns.Circle_Behemoth_Defense.Resistance"
  ],
  "power_display_names": [
    "Fire Smash",
    "Fire Sword",
    "Scorch",
    "Flares",
    "Behemoth Jumping",
    "Invincibility",
    "Resistance"
  ],
  "power_levels": [
    0,
    0,
    0,
    0,
    0,
    0,
    0
  ],
  "powers": [
    {
      "power_category": "CircleOfThorns",
      "power_set": "Circle_Behemoth_Melee",
      "power": "*",
      "level": 0
    },
    {
      "power_category": "CircleOfThorns",
      "power_set": "Circle_Behemoth_Ranged",
      "power": "*",
      "level": 0
    },
    {
      "power_category": "CircleOfThorns",
      "power_set": "Circle_Behemoth_Movement",
      "power": "*",
      "level": 0
    },
    {
      "power_category": "CircleOfThorns",
      "power_set": "Circle_Behemoth_Defense",
      "power": "*",
      "level": 0
    }
  ],
  "levels": [
    {
      "level": 50,
      "experience": 0,
      "display_names": [
        "Behemoth Master"
      ],
      "costumes": [
        "Behemoth_Minion_CoT_Portal"
      ]
    },
    {
      "level": 51,
      "experience": 0,
      "display_names": [
        "Behemoth Master"
      ],
      "costumes": [
        "Behemoth_Minion_CoT_Portal"
      ]
    },
    {
      "level": 52,
      "experience": 0,
      "display_names": [
        "Behemoth Master"
      ],
      "costumes": [
        "Behemoth_Minion_CoT_Portal"
      ]
    },
    {
      "level": 53,
      "experience": 0,
      "display_names": [
        "Behemoth Master"
      ],
      "costumes": [
        "Behemoth_Minion_CoT_Portal"
      ]
    },
    {
      "level": 54,
      "experience": 0,
      "display_names": [
        "Behemoth Master"
      ],
      "costumes": [
        "Behemoth_Minion_CoT_Portal"
      ]
    }
  ]
}