{
  "name": "Clockwork_Summoned_Gears",
  "gender": "GENDER_MALE",
  "description": "Gears emerge from the remnants of destroyed Clockwork Princes. Though tiny, they can still pack quite a punch.",
  "group_description": null,
  "display_class_name": null,
  "character_class_name": "minion_small",
  "ai_config": "Clockwork_Sprocket",
  "commandable_pet": false,
  "power_tags": [
    "HumanSkeleton"
  ],
  "additional_rewards": [

  ],
  "skill_hp_rewards": [

  ],
  "skill_status_rewards": [

  ],
  "ally": null,
  "gang": null,
  "reward_scale": 1.2,
  "game_exclusion": "None",
  "inactive_state_weapon": null,
  "ignores_combat_mods": false,
  "copy_creator_mods": false,
  "spawn_limit": 0,
  "spawn_limit_mission": 0,
  "ignore_av_to_eb_scaling": false,
  "can_zone": false,
  "custom_badge_stat": null,
  "badge_stat_flags": "DefaultBadgeStat",
  "rank": "VR_SMALL",
  "power_full_names": [
    "Clockwork.Clockwork_Mini_Powers.Resistance",
    "Clockwork.Clockwork_Mini_Powers.Charged_Brawl",
    "Clockwork.Clockwork_Mini_Powers.Charged_Bolts",
    "Clockwork.Clockwork_Summon_FX.SummonFX"
  ],
  "power_display_names": [
    "Resistance",
    "Charged Brawl",
    "Charged Bolts",
    "SummonFX"
  ],
  "power_levels": [
    0,
    0,
    0,
    0
  ],
  "powers": [
    {
      "power_category": "Clockwork",
      "power_set": "Clockwork_Mini_Powers",
      "power": "*",
      "level": 0
    },
    {
      "power_category": "Clockwork",
      "power_set": "Clockwork_Summon_FX",
      "power": "*",
      "level": 0
    }
  ],
  "levels": [
    {
      "level": 1,
      "experience": 0,
      "display_names": [
        "Gear"
      ],
      "costumes": [
        "Sprocket_Mini"
      ]
    },
    {
      "level": 2,
      "experience": 0,
      "display_names": [
        "Gear"
      ],
      "costumes": [
        "Sprocket_Mini"
      ]
    },
    {
      "level": 3,
      "experience": 0,
      "display_names": [
        "Gear"
      ],
      "costumes": [
        "Sprocket_Mini"
      ]
    },
    {
      "level": 4,
      "experience": 0,
      "display_names": [
        "Gear"
      ],
      "costumes": [
        "Sprocket_Mini"
      ]
    },
    {
      "level": 5,
      "experience": 0,
      "display_names": [
        "Gear"
      ],
      "costumes": [
        "Sprocket_Mini"
      ]
    },
    {
      "level": 6,
      "experience": 0,
      "display_names": [
        "Gear"
      ],
      "costumes": [
        "Sprocket_Mini"
      ]
    },
    {
      "level": 7,
      "experience": 0,
      "display_names": [
        "Gear"
      ],
      "costumes": [
        "Sprocket_Mini"
      ]
    },
    {
      "level": 8,
      "experience": 0,
      "display_names": [
        "Gear"
      ],
      "costumes": [
        "Sprocket_Mini"
      ]
    },
    {
      "level": 9,
      "experience": 0,
      "display_names": [
        "Gear"
      ],
      "costumes": [
        "Sprocket_Mini"
      ]
    },
    {
      "level": 10,
      "experience": 0,
      "display_names": [
        "Gear"
      ],
      "costumes": [
        "Sprocket_Mini"
      ]
    },
    {
      "level": 11,
      "experience": 0,
      "display_names": [
        "Gear"
      ],
      "costumes": [
        "Sprocket_Mini"
      ]
    },
    {
      "level": 12,
      "experience": 0,
      "display_names": [
        "Gear"
      ],
      "costumes": [
        "Sprocket_Mini"
      ]
    },
    {
      "level": 13,
      "experience": 0,
      "display_names": [
        "Gear"
      ],
      "costumes": [
        "Sprocket_Mini"
      ]
    },
    {
      "level": 14,
      "experience": 0,
      "display_names": [
        "Gear"
      ],
      "costumes": [
        "Sprocket_Mini"
      ]
    },
    {
      "level": 15,
      "experience": 0,
      "display_names": [
        "Gear"
      ],
      "costumes": [
        "Sprocket_Mini"
      ]
    },
    {
      "level": 16,
      "experience": 0,
      "display_names": [
        "Gear"
      ],
      "costumes": [
        "Sprocket_Mini"
      ]
    },
    {
      "level": 17,
      "experience": 0,
      "display_names": [
        "Gear"
      ],
      "costumes": [
        "Sprocket_Mini"
      ]
    },
    {
      "level": 18,
      "experience": 0,
      "display_names": [
        "Gear"
      ],
      "costumes": [
        "Sprocket_Mini"
      ]
    },
    {
      "level": 19,
      "experience": 0,
      "display_names": [
        "Gear"
      ],
      "costumes": [
        "Sprocket_Mini"
      ]
    },
    {
      "level": 20,
      "experience": 0,
      "display_names": [
        "Gear"
      ],
      "costumes": [
        "Sprocket_Mini"
      ]
    },
    {
      "level": 21,
      "experience": 0,
      "display_names": [
        "Gear"
      ],
      "costumes": [
        "Sprocket_Mini"
      ]
    },
    {
      "level": 22,
      "experience": 0,
      "display_names": [
        "Gear"
      ],
      "costumes": [
        "Sprocket_Mini"
      ]
    },
    {
      "level": 23,
      "experience": 0,
      "display_names": [
        "Gear"
      ],
      "costumes": [
        "Sprocket_Mini"
      ]
    },
    {
      "level": 24,
      "experience": 0,
      "display_names": [
        "Gear"
      ],
      "costumes": [
        "Sprocket_Mini"
      ]
    },
    {
      "level": 25,
      "experience": 0,
      "display_names": [
        "Gear"
      ],
      "costumes": [
        "Sprocket_Mini"
      ]
    },
    {
      "level": 26,
      "experience": 0,
      "display_names": [
        "Gear"
      ],
      "costumes": [
        "Sprocket_Mini"
      ]
    },
    {
      "level": 27,
      "experience": 0,
      "display_names": [
        "Gear"
      ],
      "costumes": [
        "Sprocket_Mini"
      ]
    },
    {
      "level": 28,
      "experience": 0,
      "display_names": [
        "Gear"
      ],
      "costumes": [
        "Sprocket_Mini"
      ]
    },
    {
      "level": 29,
      "experience": 0,
      "display_names": [
        "Gear"
      ],
      "costumes": [
        "Sprocket_Mini"
      ]
    },
    {
      "level": 30,
      "experience": 0,
      "display_names": [
        "Gear"
      ],
      "costumes": [
        "Sprocket_Mini"
      ]
    },
    {
      "level": 31,
      "experience": 0,
      "display_names": [
        "Gear"
      ],
      "costumes": [
        "Sprocket_Mini"
      ]
    },
    {
      "level": 32,
      "experience": 0,
      "display_names": [
        "Gear"
      ],
      "costumes": [
        "Sprocket_Mini"
      ]
    },
    {
      "level": 33,
      "experience": 0,
      "display_names": [
        "Gear"
      ],
      "costumes": [
        "Sprocket_Mini"
      ]
    },
    {
      "level": 34,
      "experience": 0,
      "display_names": [
        "Gear"
      ],
      "costumes": [
        "Sprocket_Mini"
      ]
    },
    {
      "level": 35,
      "experience": 0,
      "display_names": [
        "Gear"
      ],
      "costumes": [
        "Sprocket_Mini"
      ]
    },
    {
      "level": 36,
      "experience": 0,
      "display_names": [
        "Gear"
      ],
      "costumes": [
        "Sprocket_Mini"
      ]
    },
    {
      "level": 37,
      "experience": 0,
      "display_names": [
        "Gear"
      ],
      "costumes": [
        "Sprocket_Mini"
      ]
    },
    {
      "level": 38,
      "experience": 0,
      "display_names": [
        "Gear"
      ],
      "costumes": [
        "Sprocket_Mini"
      ]
    },
    {
      "level": 39,
      "experience": 0,
      "display_names": [
        "Gear"
      ],
      "costumes": [
        "Sprocket_Mini"
      ]
    },
    {
      "level": 40,
      "experience": 0,
      "display_names": [
        "Gear"
      ],
      "costumes": [
        "Sprocket_Mini"
      ]
    },
    {
      "level": 41,
      "experience": 0,
      "display_names": [
        "Gear"
      ],
      "costumes": [
        "Sprocket_Mini"
      ]
    },
    {
      "level": 42,
      "experience": 0,
      "display_names": [
        "Gear"
      ],
      "costumes": [
        "Sprocket_Mini"
      ]
    },
    {
      "level": 43,
      "experience": 0,
      "display_names": [
        "Gear"
      ],
      "costumes": [
        "Sprocket_Mini"
      ]
    },
    {
      "level": 44,
      "experience": 0,
      "display_names": [
        "Gear"
      ],
      "costumes": [
        "Sprocket_Mini"
      ]
    },
    {
      "level": 45,
      "experience": 0,
      "display_names": [
        "Gear"
      ],
      "costumes": [
        "Sprocket_Mini"
      ]
    },
    {
      "level": 46,
      "experience": 0,
      "display_names": [
        "Gear"
      ],
      "costumes": [
        "Sprocket_Mini"
      ]
    },
    {
      "level": 47,
      "experience": 0,
      "display_names": [
        "Gear"
      ],
      "costumes": [
        "Sprocket_Mini"
      ]
    },
    {
      "level": 48,
      "experience": 0,
      "display_names": [
        "Gear"
      ],
      "costumes": [
        "Sprocket_Mini"
      ]
    },
    {
      "level": 49,
      "experience": 0,
      "display_names": [
        "Gear"
      ],
      "costumes": [
        "Sprocket_Mini"
      ]
    },
    {
      "level": 50,
      "experience": 0,
      "display_names": [
        "Gear"
      ],
      "costumes": [
        "Sprocket_Mini"
      ]
    },
    {
      "level": 51,
      "experience": 0,
      "display_names": [
        "Gear"
      ],
      "costumes": [
        "Sprocket_Mini"
      ]
    },
    {
      "level": 52,
      "experience": 0,
      "display_names": [
        "Gear"
      ],
      "costumes": [
        "Sprocket_Mini"
      ]
    },
    {
      "level": 53,
      "experience": 0,
      "display_names": [
        "Gear"
      ],
      "costumes": [
        "Sprocket_Mini"
      ]
    },
    {
      "level": 54,
      "experience": 0,
      "display_names": [
        "Gear"
      ],
      "costumes": [
        "Sprocket_Mini"
      ]
    }
  ]
}