{
  "name": "Clockwork_Lord",
  "gender": "GENDER_MALE",
  "description": "These elite soldiers are the personal guard and right hand of the Clockwork King. You can be sure that they will stop at nothing to ensure his safety.",
  "group_description": null,
  "display_class_name": null,
  "character_class_name": "boss_elite",
  "ai_config": "Clockwork_Base",
  "commandable_pet": false,
  "power_tags": [

  ],
  "additional_rewards": [

  ],
  "skill_hp_rewards": [

  ],
  "skill_status_rewards": [

  ],
  "ally": null,
  "gang": null,
  "reward_scale": 1.0,
  "game_exclusion": "None",
  "inactive_state_weapon": null,
  "ignores_combat_mods": false,
  "copy_creator_mods": false,
  "spawn_limit": 0,
  "spawn_limit_mission": 0,
  "ignore_av_to_eb_scaling": false,
  "can_zone": false,
  "custom_badge_stat": null,
  "badge_stat_flags": "DefaultBadgeStat",
  "rank": "VR_ELITE",
  "power_full_names": [
    "Clockwork.Clockwork_Prince_Inherent_Powers.Resistance",
    "Clockwork.Clockwork_Prince_Inherent_Powers.Reassemble",
    "Clockwork.Clockwork_Prince_Inherent_Powers.Charged_Bolts",
    "Clockwork.Clockwork_Prince_Inherent_Powers.Charged_Brawl",
    "Clockwork.Clockwork_Prince_Inherent_Powers.Pummel",
    "Clockwork.Clockwork_Knight_Duke_Prince_Tesla.Tesla_Cage",
    "Clockwork.Clockwork_Knight_Duke_Prince_Tesla.Lightning_Field",
    "Clockwork.Clockwork_Knight_Duke_Prince_Cannon.Lightning_Bolt",
    "Clockwork.Clockwork_Knight_Duke_Prince_Cannon.Ball_Lightning",
    "Clockwork.Clockwork_Boss_Assembler_Powers.Summon_Clockwork"
  ],
  "power_display_names": [
    "Resistance",
    "Reassemble",
    "Charged Bolts",
    "Charged Brawl",
    "Pummel",
    "Tesla Cage",
    "Lightning Field",
    "Lightning Bolt",
    "Ball Lightning",
    "Summon Clockwork"
  ],
  "power_levels": [
    0,
    0,
    0,
    0,
    0,
    0,
    0,
    0,
    0,
    0
  ],
  "powers": [
    {
      "power_category": "Clockwork",
      "power_set": "Clockwork_Prince_Inherent_Powers",
      "power": "*",
      "level": 0
    },
    {
      "power_category": "Clockwork",
      "power_set": "Clockwork_Knight_Duke_Prince_Tesla",
      "power": "*",
      "level": 0
    },
    {
      "power_category": "Clockwork",
      "power_set": "Clockwork_Knight_Duke_Prince_Cannon",
      "power": "*",
      "level": 0
    },
    {
      "power_category": "Clockwork",
      "power_set": "Clockwork_Boss_Assembler_Powers",
      "power": "*",
      "level": 0
    }
  ],
  "levels": [
    {
      "level": 10,
      "experience": 0,
      "display_names": [
        "Clockwork Lord"
      ],
      "costumes": [
        "Diesel_00"
      ]
    },
    {
      "level": 11,
      "experience": 0,
      "display_names": [
        "Clockwork Lord"
      ],
      "costumes": [
        "Diesel_00"
      ]
    },
    {
      "level": 12,
      "experience": 0,
      "display_names": [
        "Clockwork Lord"
      ],
      "costumes": [
        "Diesel_00"
      ]
    },
    {
      "level": 13,
      "experience": 0,
      "display_names": [
        "Clockwork Lord"
      ],
      "costumes": [
        "Diesel_00"
      ]
    },
    {
      "level": 14,
      "experience": 0,
      "display_names": [
        "Clockwork Lord"
      ],
      "costumes": [
        "Diesel_00"
      ]
    },
    {
      "level": 15,
      "experience": 0,
      "display_names": [
        "Clockwork Lord"
      ],
      "costumes": [
        "Diesel_00"
      ]
    },
    {
      "level": 16,
      "experience": 0,
      "display_names": [
        "Clockwork Lord"
      ],
      "costumes": [
        "Diesel_00"
      ]
    },
    {
      "level": 17,
      "experience": 0,
      "display_names": [
        "Clockwork Lord"
      ],
      "costumes": [
        "Diesel_00"
      ]
    },
    {
      "level": 18,
      "experience": 0,
      "display_names": [
        "Clockwork Lord"
      ],
      "costumes": [
        "Diesel_00"
      ]
    },
    {
      "level": 19,
      "experience": 0,
      "display_names": [
        "Clockwork Lord"
      ],
      "costumes": [
        "Diesel_00"
      ]
    },
    {
      "level": 20,
      "experience": 0,
      "display_names": [
        "Clockwork Lord"
      ],
      "costumes": [
        "Diesel_00"
      ]
    }
  ]
}