{
  "name": "Contaminated_Pipe_Contaminated",
  "gender": "GENDER_MALE",
  "description": "These thugs have gotten their hands on a mysterious drug that drives them mad. The source of this drug remains a mystery, but without help these Contaminated brutes will tear the city apart.",
  "group_description": null,
  "display_class_name": null,
  "character_class_name": "minion_grunt",
  "ai_config": "Default_Melee",
  "commandable_pet": false,
  "power_tags": [
    "HumanSkeleton",
    "Human"
  ],
  "additional_rewards": [

  ],
  "skill_hp_rewards": [

  ],
  "skill_status_rewards": [

  ],
  "ally": null,
  "gang": null,
  "reward_scale": 0.0,
  "game_exclusion": "None",
  "inactive_state_weapon": null,
  "ignores_combat_mods": false,
  "copy_creator_mods": false,
  "spawn_limit": -1,
  "spawn_limit_mission": -1,
  "ignore_av_to_eb_scaling": false,
  "can_zone": false,
  "custom_badge_stat": null,
  "badge_stat_flags": "DefaultBadgeStat",
  "rank": "VR_MINION",
  "power_full_names": [
    "Prisoners.Prisoners_Pipe.Pipe",
    "Prisoners.Prisoners_Rock.Rock",
    "Prisoners.Contaminated_Inherent.Resistance"
  ],
  "power_display_names": [
    "Pipe",
    "Rock",
    "Resistance"
  ],
  "power_levels": [
    0,
    0,
    0
  ],
  "powers": [
    {
      "power_category": "Prisoners",
      "power_set": "Prisoners_Pipe",
      "power": "*",
      "level": 0
    },
    {
      "power_category": "Prisoners",
      "power_set": "Prisoners_Rock",
      "power": "*",
      "level": 0
    },
    {
      "power_category": "Prisoners",
      "power_set": "Contaminated_Inherent",
      "power": "*",
      "level": 0
    }
  ],
  "levels": [
    {
      "level": 1,
      "experience": 0,
      "display_names": [
        "Contaminated Scavenger"
      ],
      "costumes": [
        "Thug_Contaminated_01",
        "Thug_Contaminated_02",
        "Thug_Contaminated_03",
        "Thug_Contaminated_04",
        "Thug_Contaminated_05",
        "Thug_Contaminated_06",
        "Thug_Contaminated_07",
        "Thug_Contaminated_08",
        "Thug_Contaminated_09",
        "Thug_Contaminated_10"
      ]
    }
  ]
}