{
  "name": "Council_Penumbra_Soldier_Boss",
  "gender": "GENDER_MALE",
  "description": "A Penumbra Archon is responsible for overseeing squads of covert operatives. Since coverts ops need to be precise and perfectly executed, a Penumbra Archon is valued chiefly for his ability to follow orders precisely and make sure his troops do the same. In return for loyalty and good service, Archons receive their first taste of super soldier serum, making them stronger and quicker than any normal human could be.",
  "group_description": null,
  "display_class_name": null,
  "character_class_name": "boss_grunt",
  "ai_config": "Default_Ranged",
  "commandable_pet": false,
  "power_tags": [
    "HumanSkeleton",
    "Human"
  ],
  "additional_rewards": [

  ],
  "skill_hp_rewards": [

  ],
  "skill_status_rewards": [

  ],
  "ally": null,
  "gang": null,
  "reward_scale": 1.0,
  "game_exclusion": "None",
  "inactive_state_weapon": null,
  "ignores_combat_mods": false,
  "copy_creator_mods": false,
  "spawn_limit": 0,
  "spawn_limit_mission": 0,
  "ignore_av_to_eb_scaling": false,
  "can_zone": false,
  "custom_badge_stat": null,
  "badge_stat_flags": "DefaultBadgeStat",
  "rank": "VR_BOSS",
  "power_full_names": [
    "Council.12Gauge.12_Gauge",
    "Council.FragGrenade.Frag_Grenade",
    "Council.MartialArts.Thunder_Kick",
    "Council.MartialArts.Storm_Kick"
  ],
  "power_display_names": [
    "12 Gauge",
    "Frag Grenade",
    "Thunder Kick",
    "Storm Kick"
  ],
  "power_levels": [
    0,
    0,
    0,
    0
  ],
  "powers": [
    {
      "power_category": "Council",
      "power_set": "12Gauge",
      "power": "*",
      "level": 0
    },
    {
      "power_category": "Council",
      "power_set": "FragGrenade",
      "power": "*",
      "level": 0
    },
    {
      "power_category": "Council",
      "power_set": "MartialArts",
      "power": "*",
      "level": 0
    }
  ],
  "levels": [
    {
      "level": 5,
      "experience": 0,
      "display_names": [
        "Penumbra Archon"
      ],
      "costumes": [
        "Council_Nebula_Khaki_02"
      ]
    },
    {
      "level": 6,
      "experience": 0,
      "display_names": [
        "Penumbra Archon"
      ],
      "costumes": [
        "Council_Nebula_Khaki_02"
      ]
    },
    {
      "level": 7,
      "experience": 0,
      "display_names": [
        "Penumbra Archon"
      ],
      "costumes": [
        "Council_Nebula_Khaki_02"
      ]
    },
    {
      "level": 8,
      "experience": 0,
      "display_names": [
        "Penumbra Archon"
      ],
      "costumes": [
        "Council_Nebula_Khaki_02"
      ]
    },
    {
      "level": 9,
      "experience": 0,
      "display_names": [
        "Penumbra Archon"
      ],
      "costumes": [
        "Council_Nebula_Khaki_02"
      ]
    },
    {
      "level": 10,
      "experience": 0,
      "display_names": [
        "Penumbra Archon"
      ],
      "costumes": [
        "Council_Nebula_Khaki_02"
      ]
    },
    {
      "level": 11,
      "experience": 0,
      "display_names": [
        "Penumbra Archon"
      ],
      "costumes": [
        "Council_Nebula_Khaki_02"
      ]
    },
    {
      "level": 12,
      "experience": 0,
      "display_names": [
        "Penumbra Archon"
      ],
      "costumes": [
        "Council_Nebula_Khaki_02"
      ]
    },
    {
      "level": 13,
      "experience": 0,
      "display_names": [
        "Penumbra Archon"
      ],
      "costumes": [
        "Council_Nebula_Khaki_02"
      ]
    },
    {
      "level": 14,
      "experience": 0,
      "display_names": [
        "Penumbra Archon"
      ],
      "costumes": [
        "Council_Nebula_Khaki_02"
      ]
    },
    {
      "level": 15,
      "experience": 0,
      "display_names": [
        "Penumbra Archon"
      ],
      "costumes": [
        "Council_Nebula_Khaki_02"
      ]
    },
    {
      "level": 16,
      "experience": 0,
      "display_names": [
        "Penumbra Archon"
      ],
      "costumes": [
        "Council_Nebula_Khaki_02"
      ]
    },
    {
      "level": 17,
      "experience": 0,
      "display_names": [
        "Penumbra Archon"
      ],
      "costumes": [
        "Council_Nebula_Khaki_02"
      ]
    },
    {
      "level": 18,
      "experience": 0,
      "display_names": [
        "Penumbra Archon"
      ],
      "costumes": [
        "Council_Nebula_Khaki_02"
      ]
    },
    {
      "level": 19,
      "experience": 0,
      "display_names": [
        "Penumbra Archon"
      ],
      "costumes": [
        "Council_Nebula_Khaki_02"
      ]
    }
  ]
}