{
  "name": "Council_Nosferatu_Medium_High",
  "gender": "GENDER_MALE",
  "description": "Few truly appreciate the genius of Nosferatu's super soldier program, and none more so than himself. Nosferatu was so entranced by his ability to create the super strong Vampyri that he became one of them. He has since improved upon his original design by granting himself several new abilities. He can mesmerize his opponents, leaving them helpless. Some say he can even siphon off the life force of his foes.",
  "group_description": null,
  "display_class_name": null,
  "character_class_name": "boss_archvillain",
  "ai_config": "5thColumn_Fifth_Vampyr_Base",
  "commandable_pet": false,
  "power_tags": [
    "HumanSkeleton",
    "Human",
    "Raid"
  ],
  "additional_rewards": [

  ],
  "skill_hp_rewards": [

  ],
  "skill_status_rewards": [

  ],
  "ally": null,
  "gang": null,
  "reward_scale": 1.0,
  "game_exclusion": "None",
  "inactive_state_weapon": null,
  "ignores_combat_mods": false,
  "copy_creator_mods": false,
  "spawn_limit": 0,
  "spawn_limit_mission": 0,
  "ignore_av_to_eb_scaling": false,
  "can_zone": false,
  "custom_badge_stat": null,
  "badge_stat_flags": "DefaultBadgeStat",
  "rank": "VR_ARCHVILLAIN",
  "power_full_names": [
    "Council.Nosferatu_Defense.Resistance",
    "Council.Nosferatu_Defense.Chill_of_the_Night",
    "Council.Nosferatu_Defense.Fast_Healing",
    "Council.Nosferatu_Defense.Reconstruction",
    "Council.Nosferatu_Defense.Dull_Pain",
    "Council.Nosferatu_Melee.Siphon_Life",
    "Council.Nosferatu_Melee.Shadow_Punch",
    "Council.Nosferatu_Melee.Smite",
    "Council.Nosferatu_Ranged.Mesmerize",
    "Council.Nosferatu_Ranged.Total_Domination",
    "Council.Nosferatu_Ranged.Dark_Consumption",
    "Council.Nosferatu_Ranged.Tenebrous_Tentacles",
    "Council.Nosferatu_Ranged.Life_Drain",
    "Council.Nosferatu_Ranged.Gloom"
  ],
  "power_display_names": [
    "Resistance",
    "Chill of the Night",
    "Fast Healing",
    "Reconstruction",
    "Dull Pain",
    "Siphon Life",
    "Shadow Punch",
    "Smite",
    "Mesmerize",
    "Total Domination",
    "Dark Consumption",
    "Tenebrous Tentacles",
    "Life Drain",
    "Gloom"
  ],
  "power_levels": [
    0,
    0,
    0,
    0,
    0,
    0,
    0,
    0,
    0,
    0,
    0,
    0,
    0,
    0
  ],
  "powers": [
    {
      "power_category": "Council",
      "power_set": "Nosferatu_Defense",
      "power": "*",
      "level": 0
    },
    {
      "power_category": "Council",
      "power_set": "Nosferatu_Melee",
      "power": "*",
      "level": 0
    },
    {
      "power_category": "Council",
      "power_set": "Nosferatu_Ranged",
      "power": "*",
      "level": 0
    }
  ],
  "levels": [
    {
      "level": 30,
      "experience": 0,
      "display_names": [
        "Nosferatu"
      ],
      "costumes": [
        "Council_Nosferatu"
      ]
    },
    {
      "level": 31,
      "experience": 0,
      "display_names": [
        "Nosferatu"
      ],
      "costumes": [
        "Council_Nosferatu"
      ]
    },
    {
      "level": 32,
      "experience": 0,
      "display_names": [
        "Nosferatu"
      ],
      "costumes": [
        "Council_Nosferatu"
      ]
    },
    {
      "level": 33,
      "experience": 0,
      "display_names": [
        "Nosferatu"
      ],
      "costumes": [
        "Council_Nosferatu"
      ]
    },
    {
      "level": 34,
      "experience": 0,
      "display_names": [
        "Nosferatu"
      ],
      "costumes": [
        "Council_Nosferatu"
      ]
    },
    {
      "level": 35,
      "experience": 0,
      "display_names": [
        "Nosferatu"
      ],
      "costumes": [
        "Council_Nosferatu"
      ]
    },
    {
      "level": 36,
      "experience": 0,
      "display_names": [
        "Nosferatu"
      ],
      "costumes": [
        "Council_Nosferatu"
      ]
    },
    {
      "level": 37,
      "experience": 0,
      "display_names": [
        "Nosferatu"
      ],
      "costumes": [
        "Council_Nosferatu"
      ]
    },
    {
      "level": 38,
      "experience": 0,
      "display_names": [
        "Nosferatu"
      ],
      "costumes": [
        "Council_Nosferatu"
      ]
    },
    {
      "level": 39,
      "experience": 0,
      "display_names": [
        "Nosferatu"
      ],
      "costumes": [
        "Council_Nosferatu"
      ]
    },
    {
      "level": 40,
      "experience": 0,
      "display_names": [
        "Nosferatu"
      ],
      "costumes": [
        "Council_Nosferatu"
      ]
    },
    {
      "level": 41,
      "experience": 0,
      "display_names": [
        "Nosferatu"
      ],
      "costumes": [
        "Council_Nosferatu"
      ]
    },
    {
      "level": 42,
      "experience": 0,
      "display_names": [
        "Nosferatu"
      ],
      "costumes": [
        "Council_Nosferatu"
      ]
    },
    {
      "level": 43,
      "experience": 0,
      "display_names": [
        "Nosferatu"
      ],
      "costumes": [
        "Council_Nosferatu"
      ]
    },
    {
      "level": 44,
      "experience": 0,
      "display_names": [
        "Nosferatu"
      ],
      "costumes": [
        "Council_Nosferatu"
      ]
    },
    {
      "level": 45,
      "experience": 0,
      "display_names": [
        "Nosferatu"
      ],
      "costumes": [
        "Council_Nosferatu"
      ]
    },
    {
      "level": 46,
      "experience": 0,
      "display_names": [
        "Nosferatu"
      ],
      "costumes": [
        "Council_Nosferatu"
      ]
    },
    {
      "level": 47,
      "experience": 0,
      "display_names": [
        "Nosferatu"
      ],
      "costumes": [
        "Council_Nosferatu"
      ]
    },
    {
      "level": 48,
      "experience": 0,
      "display_names": [
        "Nosferatu"
      ],
      "costumes": [
        "Council_Nosferatu"
      ]
    },
    {
      "level": 49,
      "experience": 0,
      "display_names": [
        "Nosferatu"
      ],
      "costumes": [
        "Council_Nosferatu"
      ]
    },
    {
      "level": 50,
      "experience": 0,
      "display_names": [
        "Nosferatu"
      ],
      "costumes": [
        "Council_Nosferatu"
      ]
    },
    {
      "level": 51,
      "experience": 0,
      "display_names": [
        "Nosferatu"
      ],
      "costumes": [
        "Council_Nosferatu"
      ]
    },
    {
      "level": 52,
      "experience": 0,
      "display_names": [
        "Nosferatu"
      ],
      "costumes": [
        "Council_Nosferatu"
      ]
    },
    {
      "level": 53,
      "experience": 0,
      "display_names": [
        "Nosferatu"
      ],
      "costumes": [
        "Council_Nosferatu"
      ]
    },
    {
      "level": 54,
      "experience": 0,
      "display_names": [
        "Nosferatu"
      ],
      "costumes": [
        "Council_Nosferatu"
      ]
    }
  ]
}