{
  "name": "Council_Striga_Nightwolf",
  "gender": "GENDER_MALE",
  "description": "It is speculated that the sudden increase in the number of Nightwolves is due to some new, dark purpose of the Council, who recently subsumed the group the Nightwolves once belonged to. No one can be sure, however, since the process that creates Nightwolves is still shrouded in mystery. Unlike the Vampyri, these beasts are not the result of any known super serum treatment. Many suspect that a dark energy force is involved in their transformation.",
  "group_description": null,
  "display_class_name": null,
  "character_class_name": "minion_grunt",
  "ai_config": "Default_Melee",
  "commandable_pet": false,
  "power_tags": [

  ],
  "additional_rewards": [

  ],
  "skill_hp_rewards": [

  ],
  "skill_status_rewards": [

  ],
  "ally": null,
  "gang": null,
  "reward_scale": 1.0,
  "game_exclusion": "None",
  "inactive_state_weapon": null,
  "ignores_combat_mods": false,
  "copy_creator_mods": false,
  "spawn_limit": 0,
  "spawn_limit_mission": 0,
  "ignore_av_to_eb_scaling": false,
  "can_zone": false,
  "custom_badge_stat": null,
  "badge_stat_flags": "DefaultBadgeStat",
  "rank": "VR_MINION",
  "power_full_names": [
    "Council.Nightwolf_Melee.Claw_Swipe",
    "Council.Nightwolf_Melee.Hurl",
    "Council.Nightwolf_Movement.Wolf_Jumping",
    "Council.Nightwolf_Defense.Resistance"
  ],
  "power_display_names": [
    "Claw Swipe",
    "Hurl",
    "Wolf Jumping",
    "Resistance"
  ],
  "power_levels": [
    0,
    0,
    0,
    0
  ],
  "powers": [
    {
      "power_category": "Council",
      "power_set": "Nightwolf_Melee",
      "power": "*",
      "level": 0
    },
    {
      "power_category": "Council",
      "power_set": "Nightwolf_Movement",
      "power": "*",
      "level": 0
    },
    {
      "power_category": "Council",
      "power_set": "Nightwolf_Defense",
      "power": "*",
      "level": 0
    }
  ],
  "levels": [
    {
      "level": 20,
      "experience": 0,
      "display_names": [
        "Eclipse Nightwolf"
      ],
      "costumes": [
        "Council_Nightwolf_01"
      ]
    },
    {
      "level": 21,
      "experience": 0,
      "display_names": [
        "Eclipse Nightwolf"
      ],
      "costumes": [
        "Council_Nightwolf_01"
      ]
    },
    {
      "level": 22,
      "experience": 0,
      "display_names": [
        "Eclipse Nightwolf"
      ],
      "costumes": [
        "Council_Nightwolf_01"
      ]
    },
    {
      "level": 23,
      "experience": 0,
      "display_names": [
        "Eclipse Nightwolf"
      ],
      "costumes": [
        "Council_Nightwolf_01"
      ]
    },
    {
      "level": 24,
      "experience": 0,
      "display_names": [
        "Eclipse Nightwolf"
      ],
      "costumes": [
        "Council_Nightwolf_01"
      ]
    },
    {
      "level": 25,
      "experience": 0,
      "display_names": [
        "Eclipse Nightwolf"
      ],
      "costumes": [
        "Council_Nightwolf_01"
      ]
    },
    {
      "level": 26,
      "experience": 0,
      "display_names": [
        "Eclipse Nightwolf"
      ],
      "costumes": [
        "Council_Nightwolf_01"
      ]
    },
    {
      "level": 27,
      "experience": 0,
      "display_names": [
        "Eclipse Nightwolf"
      ],
      "costumes": [
        "Council_Nightwolf_01"
      ]
    },
    {
      "level": 28,
      "experience": 0,
      "display_names": [
        "Eclipse Nightwolf"
      ],
      "costumes": [
        "Council_Nightwolf_01"
      ]
    },
    {
      "level": 29,
      "experience": 0,
      "display_names": [
        "Eclipse Nightwolf"
      ],
      "costumes": [
        "Council_Nightwolf_01"
      ]
    },
    {
      "level": 30,
      "experience": 0,
      "display_names": [
        "Eclipse Nightwolf"
      ],
      "costumes": [
        "Council_Nightwolf_01"
      ]
    }
  ]
}