{
  "name": "Council_Nebula_Cor_Leonis_Thug",
  "gender": "GENDER_MALE",
  "description": "A Cor Leonis is a Council soldier who has undergone a long and painful regimen of super soldier treatments. The Nebula Cor Leonis are the most numerous of these medical marvels, but that doesn't mean they're common. They've had extensive training and thousands of dollars worth of drugs pumped into them. It's an investment that usually pays off, since a first rank Cor Leonis is stronger than five normal men.",
  "group_description": null,
  "display_class_name": null,
  "character_class_name": "minion_grunt",
  "ai_config": "Default_Ranged",
  "commandable_pet": false,
  "power_tags": [
    "HumanSkeleton",
    "Human"
  ],
  "additional_rewards": [

  ],
  "skill_hp_rewards": [

  ],
  "skill_status_rewards": [

  ],
  "ally": null,
  "gang": null,
  "reward_scale": 1.0,
  "game_exclusion": "None",
  "inactive_state_weapon": null,
  "ignores_combat_mods": false,
  "copy_creator_mods": false,
  "spawn_limit": -1,
  "spawn_limit_mission": -1,
  "ignore_av_to_eb_scaling": false,
  "can_zone": false,
  "custom_badge_stat": null,
  "badge_stat_flags": "DefaultBadgeStat",
  "rank": "VR_MINION",
  "power_full_names": [
    "Council.Soldier_Melee.Brawl",
    "Council.CouncilAdvRifle.Incendiary_Rounds",
    "Council.CouncilAdvRifle.Cryonic_Rounds"
  ],
  "power_display_names": [
    "Brawl",
    "Incendiary Rounds",
    "Cryonic Rounds"
  ],
  "power_levels": [
    0,
    0,
    0
  ],
  "powers": [
    {
      "power_category": "Council",
      "power_set": "Soldier_Melee",
      "power": "*",
      "level": 0
    },
    {
      "power_category": "Council",
      "power_set": "CouncilAdvRifle",
      "power": "*",
      "level": 0
    }
  ],
  "levels": [
    {
      "level": 20,
      "experience": 0,
      "display_names": [
        "Nebula Cor Leonis Marksman"
      ],
      "costumes": [
        "Council_Vortex_Green_01"
      ]
    },
    {
      "level": 21,
      "experience": 0,
      "display_names": [
        "Nebula Cor Leonis Marksman"
      ],
      "costumes": [
        "Council_Vortex_Green_01"
      ]
    },
    {
      "level": 22,
      "experience": 0,
      "display_names": [
        "Nebula Cor Leonis Marksman"
      ],
      "costumes": [
        "Council_Vortex_Green_01"
      ]
    },
    {
      "level": 23,
      "experience": 0,
      "display_names": [
        "Nebula Cor Leonis Marksman"
      ],
      "costumes": [
        "Council_Vortex_Green_01"
      ]
    },
    {
      "level": 24,
      "experience": 0,
      "display_names": [
        "Nebula Cor Leonis Marksman"
      ],
      "costumes": [
        "Council_Vortex_Green_01"
      ]
    }
  ]
}