{
  "name": "Council_Vortex_Cor_Leonis_Lieutenant_Low",
  "gender": "GENDER_MALE",
  "description": "Vortex Cor Leonis Adjutants have the responsibility of leading large numbers of troops. They are concerned with training their men into peak fighting form - and recruiting new members to the Council. Until recently, none have ever been taken alive by the authorities.",
  "group_description": null,
  "display_class_name": null,
  "character_class_name": "lt_grunt",
  "ai_config": "Default_Ranged",
  "commandable_pet": false,
  "power_tags": [
    "HumanSkeleton",
    "Human"
  ],
  "additional_rewards": [

  ],
  "skill_hp_rewards": [

  ],
  "skill_status_rewards": [

  ],
  "ally": null,
  "gang": null,
  "reward_scale": 1.0,
  "game_exclusion": "None",
  "inactive_state_weapon": null,
  "ignores_combat_mods": false,
  "copy_creator_mods": false,
  "spawn_limit": -1,
  "spawn_limit_mission": -1,
  "ignore_av_to_eb_scaling": false,
  "can_zone": false,
  "custom_badge_stat": null,
  "badge_stat_flags": "DefaultBadgeStat",
  "rank": "VR_LIEUTENANT",
  "power_full_names": [
    "Council.FragGrenade.Frag_Grenade",
    "Council.MartialArts.Thunder_Kick",
    "Council.MartialArts.Storm_Kick",
    "Council.ChainGun.Chain_Gun"
  ],
  "power_display_names": [
    "Frag Grenade",
    "Thunder Kick",
    "Storm Kick",
    "Chain Gun"
  ],
  "power_levels": [
    0,
    0,
    0,
    0
  ],
  "powers": [
    {
      "power_category": "Council",
      "power_set": "FragGrenade",
      "power": "*",
      "level": 0
    },
    {
      "power_category": "Council",
      "power_set": "MartialArts",
      "power": "*",
      "level": 0
    },
    {
      "power_category": "Council",
      "power_set": "ChainGun",
      "power": "*",
      "level": 0
    }
  ],
  "levels": [
    {
      "level": 25,
      "experience": 0,
      "display_names": [
        "Vortex Cor Leonis Adjutant"
      ],
      "costumes": [
        "Council_Vortex_Black_02"
      ]
    },
    {
      "level": 26,
      "experience": 0,
      "display_names": [
        "Vortex Cor Leonis Adjutant"
      ],
      "costumes": [
        "Council_Vortex_Black_02"
      ]
    },
    {
      "level": 27,
      "experience": 0,
      "display_names": [
        "Vortex Cor Leonis Adjutant"
      ],
      "costumes": [
        "Council_Vortex_Black_02"
      ]
    },
    {
      "level": 28,
      "experience": 0,
      "display_names": [
        "Vortex Cor Leonis Adjutant"
      ],
      "costumes": [
        "Council_Vortex_Black_02"
      ]
    },
    {
      "level": 29,
      "experience": 0,
      "display_names": [
        "Vortex Cor Leonis Adjutant"
      ],
      "costumes": [
        "Council_Vortex_Black_02"
      ]
    }
  ]
}