{
  "name": "CouncilEmpire_Council_Chaingun",
  "gender": "GENDER_MALE",
  "description": "The front-line troops of the Council Empire have fought long and hard to cement Council control over the former United States. They're not afraid of wading into the thick of battle at a moment's notice.",
  "group_description": "Council Empire",
  "display_class_name": null,
  "character_class_name": "minion_grunt",
  "ai_config": "5thColumn_Fog_Base",
  "commandable_pet": false,
  "power_tags": [
    "HumanSkeleton",
    "Human"
  ],
  "additional_rewards": [

  ],
  "skill_hp_rewards": [

  ],
  "skill_status_rewards": [

  ],
  "ally": null,
  "gang": null,
  "reward_scale": 1.0,
  "game_exclusion": "None",
  "inactive_state_weapon": null,
  "ignores_combat_mods": false,
  "copy_creator_mods": false,
  "spawn_limit": -1,
  "spawn_limit_mission": -1,
  "ignore_av_to_eb_scaling": false,
  "can_zone": false,
  "custom_badge_stat": null,
  "badge_stat_flags": "DefaultBadgeStat",
  "rank": "VR_MINION",
  "power_full_names": [
    "CouncilEmpire.Melee.Brawl",
    "CouncilEmpire.ChainGun.Chain_Gun"
  ],
  "power_display_names": [
    "Brawl",
    "Chain Gun"
  ],
  "power_levels": [
    0,
    0
  ],
  "powers": [
    {
      "power_category": "CouncilEmpire",
      "power_set": "Melee",
      "power": "*",
      "level": 0
    },
    {
      "power_category": "CouncilEmpire",
      "power_set": "ChainGun",
      "power": "*",
      "level": 0
    }
  ],
  "levels": [
    {
      "level": 40,
      "experience": 0,
      "display_names": [
        "Council Empire Force"
      ],
      "costumes": [
        "Axis_America_Minion_01"
      ]
    },
    {
      "level": 41,
      "experience": 0,
      "display_names": [
        "Council Empire Force"
      ],
      "costumes": [
        "Axis_America_Minion_01"
      ]
    },
    {
      "level": 42,
      "experience": 0,
      "display_names": [
        "Council Empire Force"
      ],
      "costumes": [
        "Axis_America_Minion_01"
      ]
    },
    {
      "level": 43,
      "experience": 0,
      "display_names": [
        "Council Empire Force"
      ],
      "costumes": [
        "Axis_America_Minion_01"
      ]
    },
    {
      "level": 44,
      "experience": 0,
      "display_names": [
        "Council Empire Force"
      ],
      "costumes": [
        "Axis_America_Minion_01"
      ]
    },
    {
      "level": 45,
      "experience": 0,
      "display_names": [
        "Council Empire Force"
      ],
      "costumes": [
        "Axis_America_Minion_01"
      ]
    },
    {
      "level": 46,
      "experience": 0,
      "display_names": [
        "Council Empire Force"
      ],
      "costumes": [
        "Axis_America_Minion_01"
      ]
    },
    {
      "level": 47,
      "experience": 0,
      "display_names": [
        "Council Empire Force"
      ],
      "costumes": [
        "Axis_America_Minion_01"
      ]
    },
    {
      "level": 48,
      "experience": 0,
      "display_names": [
        "Council Empire Force"
      ],
      "costumes": [
        "Axis_America_Minion_01"
      ]
    },
    {
      "level": 49,
      "experience": 0,
      "display_names": [
        "Council Empire Force"
      ],
      "costumes": [
        "Axis_America_Minion_01"
      ]
    },
    {
      "level": 50,
      "experience": 0,
      "display_names": [
        "Council Empire Force"
      ],
      "costumes": [
        "Axis_America_Minion_01"
      ]
    },
    {
      "level": 51,
      "experience": 0,
      "display_names": [
        "Council Empire Force"
      ],
      "costumes": [
        "Axis_America_Minion_01"
      ]
    },
    {
      "level": 52,
      "experience": 0,
      "display_names": [
        "Council Empire Force"
      ],
      "costumes": [
        "Axis_America_Minion_01"
      ]
    },
    {
      "level": 53,
      "experience": 0,
      "display_names": [
        "Council Empire Force"
      ],
      "costumes": [
        "Axis_America_Minion_01"
      ]
    },
    {
      "level": 54,
      "experience": 0,
      "display_names": [
        "Council Empire Force"
      ],
      "costumes": [
        "Axis_America_Minion_01"
      ]
    }
  ]
}