{
  "name": "Council_Nebula_Elite_Chaingun",
  "gender": "GENDER_MALE",
  "description": "Once a soldier has proven his total commitment to the cause, he is transferred into the ranks of the Elite. Only one in five soldiers survive long enough to achieve this promotion. Nebula Elites receive first stage super soldier serum that improves their physical prowess to the level of Olympic athletes. They also go through training courses before being put back into the battle lines. After all, the Council has made an investment in their success.",
  "group_description": null,
  "display_class_name": null,
  "character_class_name": "minion_grunt",
  "ai_config": "Default_Ranged",
  "commandable_pet": false,
  "power_tags": [
    "HumanSkeleton",
    "Human"
  ],
  "additional_rewards": [

  ],
  "skill_hp_rewards": [

  ],
  "skill_status_rewards": [

  ],
  "ally": null,
  "gang": null,
  "reward_scale": 1.0,
  "game_exclusion": "None",
  "inactive_state_weapon": null,
  "ignores_combat_mods": false,
  "copy_creator_mods": false,
  "spawn_limit": 0,
  "spawn_limit_mission": 0,
  "ignore_av_to_eb_scaling": false,
  "can_zone": false,
  "custom_badge_stat": null,
  "badge_stat_flags": "DefaultBadgeStat",
  "rank": "VR_MINION",
  "power_full_names": [
    "Council.Soldier_Melee.Brawl",
    "Council.Assault_Rifle.Assault_Rifle"
  ],
  "power_display_names": [
    "Brawl",
    "Assault Rifle"
  ],
  "power_levels": [
    0,
    0
  ],
  "powers": [
    {
      "power_category": "Council",
      "power_set": "Soldier_Melee",
      "power": "*",
      "level": 0
    },
    {
      "power_category": "Council",
      "power_set": "Assault_Rifle",
      "power": "*",
      "level": 0
    }
  ],
  "levels": [
    {
      "level": 5,
      "experience": 0,
      "display_names": [
        "Nebula Elite Rifle"
      ],
      "costumes": [
        "Council_Penumbra_Green_01"
      ]
    },
    {
      "level": 6,
      "experience": 0,
      "display_names": [
        "Nebula Elite Rifle"
      ],
      "costumes": [
        "Council_Penumbra_Green_01"
      ]
    },
    {
      "level": 7,
      "experience": 0,
      "display_names": [
        "Nebula Elite Rifle"
      ],
      "costumes": [
        "Council_Penumbra_Green_01"
      ]
    },
    {
      "level": 8,
      "experience": 0,
      "display_names": [
        "Nebula Elite Rifle"
      ],
      "costumes": [
        "Council_Penumbra_Green_01"
      ]
    },
    {
      "level": 9,
      "experience": 0,
      "display_names": [
        "Nebula Elite Rifle"
      ],
      "costumes": [
        "Council_Penumbra_Green_01"
      ]
    },
    {
      "level": 10,
      "experience": 0,
      "display_names": [
        "Nebula Elite Rifle"
      ],
      "costumes": [
        "Council_Penumbra_Green_01"
      ]
    },
    {
      "level": 11,
      "experience": 0,
      "display_names": [
        "Nebula Elite Rifle"
      ],
      "costumes": [
        "Council_Penumbra_Green_01"
      ]
    },
    {
      "level": 12,
      "experience": 0,
      "display_names": [
        "Nebula Elite Rifle"
      ],
      "costumes": [
        "Council_Penumbra_Green_01"
      ]
    },
    {
      "level": 13,
      "experience": 0,
      "display_names": [
        "Nebula Elite Rifle"
      ],
      "costumes": [
        "Council_Penumbra_Green_01"
      ]
    },
    {
      "level": 14,
      "experience": 0,
      "display_names": [
        "Nebula Elite Rifle"
      ],
      "costumes": [
        "Council_Penumbra_Green_01"
      ]
    },
    {
      "level": 15,
      "experience": 0,
      "display_names": [
        "Nebula Elite Rifle"
      ],
      "costumes": [
        "Council_Penumbra_Green_01"
      ]
    },
    {
      "level": 16,
      "experience": 0,
      "display_names": [
        "Nebula Elite Rifle"
      ],
      "costumes": [
        "Council_Penumbra_Green_01"
      ]
    },
    {
      "level": 17,
      "experience": 0,
      "display_names": [
        "Nebula Elite Rifle"
      ],
      "costumes": [
        "Council_Penumbra_Green_01"
      ]
    },
    {
      "level": 18,
      "experience": 0,
      "display_names": [
        "Nebula Elite Rifle"
      ],
      "costumes": [
        "Council_Penumbra_Green_01"
      ]
    },
    {
      "level": 19,
      "experience": 0,
      "display_names": [
        "Nebula Elite Rifle"
      ],
      "costumes": [
        "Council_Penumbra_Green_01"
      ]
    }
  ]
}