{
  "name": "Council_Vortex_Soldier_Lieutenant",
  "gender": "GENDER_MALE",
  "description": "Vortex Adjutants are zealots in every sense of the word. They believe in the Council's superiority so fiercely that they have become experts at recruiting new members from the disaffected elements of society. Vortex Adjutants are in equal parts soldier and proselytizer.",
  "group_description": null,
  "display_class_name": null,
  "character_class_name": "lt_grunt",
  "ai_config": "Default_Ranged",
  "commandable_pet": false,
  "power_tags": [
    "HumanSkeleton",
    "Human"
  ],
  "additional_rewards": [

  ],
  "skill_hp_rewards": [

  ],
  "skill_status_rewards": [

  ],
  "ally": null,
  "gang": null,
  "reward_scale": 1.0,
  "game_exclusion": "None",
  "inactive_state_weapon": null,
  "ignores_combat_mods": false,
  "copy_creator_mods": false,
  "spawn_limit": -1,
  "spawn_limit_mission": -1,
  "ignore_av_to_eb_scaling": false,
  "can_zone": false,
  "custom_badge_stat": null,
  "badge_stat_flags": "DefaultBadgeStat",
  "rank": "VR_LIEUTENANT",
  "power_full_names": [
    "Council.Soldier_Melee.Brawl",
    "Council.FragGrenade.Frag_Grenade",
    "Council.Flamethrower.Flamethrower"
  ],
  "power_display_names": [
    "Brawl",
    "Frag Grenade",
    "Flamethrower"
  ],
  "power_levels": [
    0,
    0,
    0
  ],
  "powers": [
    {
      "power_category": "Council",
      "power_set": "Soldier_Melee",
      "power": "*",
      "level": 0
    },
    {
      "power_category": "Council",
      "power_set": "FragGrenade",
      "power": "*",
      "level": 0
    },
    {
      "power_category": "Council",
      "power_set": "Flamethrower",
      "power": "*",
      "level": 0
    }
  ],
  "levels": [
    {
      "level": 15,
      "experience": 0,
      "display_names": [
        "Vortex Adjutant"
      ],
      "costumes": [
        "Council_Nebula_Black_02"
      ]
    },
    {
      "level": 16,
      "experience": 0,
      "display_names": [
        "Vortex Adjutant"
      ],
      "costumes": [
        "Council_Nebula_Black_02"
      ]
    },
    {
      "level": 17,
      "experience": 0,
      "display_names": [
        "Vortex Adjutant"
      ],
      "costumes": [
        "Council_Nebula_Black_02"
      ]
    },
    {
      "level": 18,
      "experience": 0,
      "display_names": [
        "Vortex Adjutant"
      ],
      "costumes": [
        "Council_Nebula_Black_02"
      ]
    },
    {
      "level": 19,
      "experience": 0,
      "display_names": [
        "Vortex Adjutant"
      ],
      "costumes": [
        "Council_Nebula_Black_02"
      ]
    }
  ]
}