{
  "name": "Council_Vortex_Soldier_Martial_Arts",
  "gender": "GENDER_MALE",
  "description": "The Vortex are the pride and joy of the Council's army. They represent the ideal to which all other followers of the Council should aspire. Not only are they disciplined, well-trained soldiers, but their faith in the Council's supremacy is complete. Only those who have proven both their ability and loyalty are permitted to join the ranks of the Vortex.",
  "group_description": null,
  "display_class_name": null,
  "character_class_name": "minion_grunt",
  "ai_config": "Default_Ranged",
  "commandable_pet": false,
  "power_tags": [
    "HumanSkeleton",
    "Human"
  ],
  "additional_rewards": [

  ],
  "skill_hp_rewards": [

  ],
  "skill_status_rewards": [

  ],
  "ally": null,
  "gang": null,
  "reward_scale": 1.0,
  "game_exclusion": "None",
  "inactive_state_weapon": null,
  "ignores_combat_mods": false,
  "copy_creator_mods": false,
  "spawn_limit": -1,
  "spawn_limit_mission": -1,
  "ignore_av_to_eb_scaling": false,
  "can_zone": false,
  "custom_badge_stat": null,
  "badge_stat_flags": "DefaultBadgeStat",
  "rank": "VR_MINION",
  "power_full_names": [
    "Council.Soldier_Melee.Brawl",
    "Council.CouncilAdvRifle.Incendiary_Rounds",
    "Council.CouncilAdvRifle.Cryonic_Rounds"
  ],
  "power_display_names": [
    "Brawl",
    "Incendiary Rounds",
    "Cryonic Rounds"
  ],
  "power_levels": [
    0,
    0,
    0
  ],
  "powers": [
    {
      "power_category": "Council",
      "power_set": "Soldier_Melee",
      "power": "*",
      "level": 0
    },
    {
      "power_category": "Council",
      "power_set": "CouncilAdvRifle",
      "power": "*",
      "level": 0
    }
  ],
  "levels": [
    {
      "level": 15,
      "experience": 0,
      "display_names": [
        "Vortex Marksman"
      ],
      "costumes": [
        "Council_Nebula_Black_01"
      ]
    },
    {
      "level": 16,
      "experience": 0,
      "display_names": [
        "Vortex Marksman"
      ],
      "costumes": [
        "Council_Nebula_Black_01"
      ]
    },
    {
      "level": 17,
      "experience": 0,
      "display_names": [
        "Vortex Marksman"
      ],
      "costumes": [
        "Council_Nebula_Black_01"
      ]
    },
    {
      "level": 18,
      "experience": 0,
      "display_names": [
        "Vortex Marksman"
      ],
      "costumes": [
        "Council_Nebula_Black_01"
      ]
    },
    {
      "level": 19,
      "experience": 0,
      "display_names": [
        "Vortex Marksman"
      ],
      "costumes": [
        "Council_Nebula_Black_01"
      ]
    }
  ]
}