{
  "name": "Crey_Pay2Win_Agent",
  "gender": "GENDER_FEMALE",
  "description": "Pay 2 Win representatives are experts at identifying threats and carry advanced assault weaponry to protect the interests of their parent company.",
  "group_description": "Pay 2 Win",
  "display_class_name": "Store",
  "character_class_name": "boss_archvillain",
  "ai_config": "Default_Ranged",
  "commandable_pet": false,
  "power_tags": [
    "HumanSkeleton",
    "Human"
  ],
  "additional_rewards": [

  ],
  "skill_hp_rewards": [

  ],
  "skill_status_rewards": [

  ],
  "ally": "Hero",
  "gang": null,
  "reward_scale": 1.0,
  "game_exclusion": "None",
  "inactive_state_weapon": null,
  "ignores_combat_mods": true,
  "copy_creator_mods": false,
  "spawn_limit": 0,
  "spawn_limit_mission": 0,
  "ignore_av_to_eb_scaling": false,
  "can_zone": false,
  "custom_badge_stat": null,
  "badge_stat_flags": "DefaultBadgeStat",
  "rank": "VR_ARCHVILLAIN",
  "power_full_names": [
    "Crey.Crey_Minion_Agent_AssaultRifle.Adv_Assault_Rifle",
    "Crey.Crey_Minion_Agent_AssaultRifle.Adv_Assault_Rifle_Burst"
  ],
  "power_display_names": [
    "Adv Assault Rifle",
    "Adv Assault Rifle Burst"
  ],
  "power_levels": [
    0,
    0
  ],
  "powers": [
    {
      "power_category": "Crey",
      "power_set": "Crey_Minion_Agent_AssaultRifle",
      "power": "*",
      "level": 0
    }
  ],
  "levels": [
    {
      "level": 50,
      "experience": 0,
      "display_names": [
        "Sunstorm"
      ],
      "costumes": [
        "Model_CreyRep_01"
      ]
    }
  ]
}