{
  "name": "Crey_Agent_Sniper_Female",
  "gender": "GENDER_FEMALE",
  "description": "The Special Agents are the best of Crey's field operatives. They have superb training, the best weapons, and a seemingly preternatural focus on the task at hand. They often carry heavy weapons, since Crey trusts them enough to use them discreetly and appropriately.",
  "group_description": null,
  "display_class_name": null,
  "character_class_name": "lt_sniper",
  "ai_config": "Default_Sniper",
  "commandable_pet": false,
  "power_tags": [
    "HumanSkeleton",
    "Human"
  ],
  "additional_rewards": [

  ],
  "skill_hp_rewards": [

  ],
  "skill_status_rewards": [

  ],
  "ally": null,
  "gang": null,
  "reward_scale": 1.0,
  "game_exclusion": "None",
  "inactive_state_weapon": null,
  "ignores_combat_mods": false,
  "copy_creator_mods": false,
  "spawn_limit": 0,
  "spawn_limit_mission": 0,
  "ignore_av_to_eb_scaling": false,
  "can_zone": false,
  "custom_badge_stat": null,
  "badge_stat_flags": "DefaultBadgeStat",
  "rank": "VR_SNIPER",
  "power_full_names": [
    "Crey.Crey_Minion_Agent_Sniper.Sniper_Rifle",
    "Crey.Crey_Lt_Agent_Defense.Focus"
  ],
  "power_display_names": [
    "Sniper Rifle",
    "Focus"
  ],
  "power_levels": [
    0,
    0
  ],
  "powers": [
    {
      "power_category": "Crey",
      "power_set": "Crey_Minion_Agent_Sniper",
      "power": "*",
      "level": 0
    },
    {
      "power_category": "Crey",
      "power_set": "Crey_Lt_Agent_Defense",
      "power": "*",
      "level": 0
    }
  ],
  "levels": [
    {
      "level": 30,
      "experience": 0,
      "display_names": [
        "Special Agent Sharpshooter"
      ],
      "costumes": [
        "Crey_Agent_F_01",
        "Crey_Agent_F_02",
        "Crey_Agent_F_03",
        "Crey_Agent_F_04",
        "Crey_Agent_F_05",
        "Crey_Agent_F_06",
        "Crey_Agent_F_07"
      ]
    },
    {
      "level": 31,
      "experience": 0,
      "display_names": [
        "Special Agent Sharpshooter"
      ],
      "costumes": [
        "Crey_Agent_F_01",
        "Crey_Agent_F_02",
        "Crey_Agent_F_03",
        "Crey_Agent_F_04",
        "Crey_Agent_F_05",
        "Crey_Agent_F_06",
        "Crey_Agent_F_07"
      ]
    },
    {
      "level": 32,
      "experience": 0,
      "display_names": [
        "Special Agent Sharpshooter"
      ],
      "costumes": [
        "Crey_Agent_F_01",
        "Crey_Agent_F_02",
        "Crey_Agent_F_03",
        "Crey_Agent_F_04",
        "Crey_Agent_F_05",
        "Crey_Agent_F_06",
        "Crey_Agent_F_07"
      ]
    },
    {
      "level": 33,
      "experience": 0,
      "display_names": [
        "Special Agent Sharpshooter"
      ],
      "costumes": [
        "Crey_Agent_F_01",
        "Crey_Agent_F_02",
        "Crey_Agent_F_03",
        "Crey_Agent_F_04",
        "Crey_Agent_F_05",
        "Crey_Agent_F_06",
        "Crey_Agent_F_07"
      ]
    },
    {
      "level": 34,
      "experience": 0,
      "display_names": [
        "Special Agent Sharpshooter"
      ],
      "costumes": [
        "Crey_Agent_F_01",
        "Crey_Agent_F_02",
        "Crey_Agent_F_03",
        "Crey_Agent_F_04",
        "Crey_Agent_F_05",
        "Crey_Agent_F_06",
        "Crey_Agent_F_07"
      ]
    },
    {
      "level": 35,
      "experience": 0,
      "display_names": [
        "Special Agent Sharpshooter"
      ],
      "costumes": [
        "Crey_Agent_F_01",
        "Crey_Agent_F_02",
        "Crey_Agent_F_03",
        "Crey_Agent_F_04",
        "Crey_Agent_F_05",
        "Crey_Agent_F_06",
        "Crey_Agent_F_07"
      ]
    },
    {
      "level": 36,
      "experience": 0,
      "display_names": [
        "Special Agent Sharpshooter"
      ],
      "costumes": [
        "Crey_Agent_F_01",
        "Crey_Agent_F_02",
        "Crey_Agent_F_03",
        "Crey_Agent_F_04",
        "Crey_Agent_F_05",
        "Crey_Agent_F_06",
        "Crey_Agent_F_07"
      ]
    },
    {
      "level": 37,
      "experience": 0,
      "display_names": [
        "Special Agent Sharpshooter"
      ],
      "costumes": [
        "Crey_Agent_F_01",
        "Crey_Agent_F_02",
        "Crey_Agent_F_03",
        "Crey_Agent_F_04",
        "Crey_Agent_F_05",
        "Crey_Agent_F_06",
        "Crey_Agent_F_07"
      ]
    },
    {
      "level": 38,
      "experience": 0,
      "display_names": [
        "Special Agent Sharpshooter"
      ],
      "costumes": [
        "Crey_Agent_F_01",
        "Crey_Agent_F_02",
        "Crey_Agent_F_03",
        "Crey_Agent_F_04",
        "Crey_Agent_F_05",
        "Crey_Agent_F_06",
        "Crey_Agent_F_07"
      ]
    },
    {
      "level": 39,
      "experience": 0,
      "display_names": [
        "Special Agent Sharpshooter"
      ],
      "costumes": [
        "Crey_Agent_F_01",
        "Crey_Agent_F_02",
        "Crey_Agent_F_03",
        "Crey_Agent_F_04",
        "Crey_Agent_F_05",
        "Crey_Agent_F_06",
        "Crey_Agent_F_07"
      ]
    },
    {
      "level": 40,
      "experience": 0,
      "display_names": [
        "Special Agent Sharpshooter"
      ],
      "costumes": [
        "Crey_Agent_F_01",
        "Crey_Agent_F_02",
        "Crey_Agent_F_03",
        "Crey_Agent_F_04",
        "Crey_Agent_F_05",
        "Crey_Agent_F_06",
        "Crey_Agent_F_07"
      ]
    },
    {
      "level": 41,
      "experience": 0,
      "display_names": [
        "Special Agent Sharpshooter"
      ],
      "costumes": [
        "Crey_Agent_F_01",
        "Crey_Agent_F_02",
        "Crey_Agent_F_03",
        "Crey_Agent_F_04",
        "Crey_Agent_F_05",
        "Crey_Agent_F_06",
        "Crey_Agent_F_07"
      ]
    },
    {
      "level": 42,
      "experience": 0,
      "display_names": [
        "Special Agent Sharpshooter"
      ],
      "costumes": [
        "Crey_Agent_F_01",
        "Crey_Agent_F_02",
        "Crey_Agent_F_03",
        "Crey_Agent_F_04",
        "Crey_Agent_F_05",
        "Crey_Agent_F_06",
        "Crey_Agent_F_07"
      ]
    },
    {
      "level": 43,
      "experience": 0,
      "display_names": [
        "Special Agent Sharpshooter"
      ],
      "costumes": [
        "Crey_Agent_F_01",
        "Crey_Agent_F_02",
        "Crey_Agent_F_03",
        "Crey_Agent_F_04",
        "Crey_Agent_F_05",
        "Crey_Agent_F_06",
        "Crey_Agent_F_07"
      ]
    },
    {
      "level": 44,
      "experience": 0,
      "display_names": [
        "Special Agent Sharpshooter"
      ],
      "costumes": [
        "Crey_Agent_F_01",
        "Crey_Agent_F_02",
        "Crey_Agent_F_03",
        "Crey_Agent_F_04",
        "Crey_Agent_F_05",
        "Crey_Agent_F_06",
        "Crey_Agent_F_07"
      ]
    },
    {
      "level": 45,
      "experience": 0,
      "display_names": [
        "Special Agent Sharpshooter"
      ],
      "costumes": [
        "Crey_Agent_F_01",
        "Crey_Agent_F_02",
        "Crey_Agent_F_03",
        "Crey_Agent_F_04",
        "Crey_Agent_F_05",
        "Crey_Agent_F_06",
        "Crey_Agent_F_07"
      ]
    },
    {
      "level": 46,
      "experience": 0,
      "display_names": [
        "Special Agent Sharpshooter"
      ],
      "costumes": [
        "Crey_Agent_F_01",
        "Crey_Agent_F_02",
        "Crey_Agent_F_03",
        "Crey_Agent_F_04",
        "Crey_Agent_F_05",
        "Crey_Agent_F_06",
        "Crey_Agent_F_07"
      ]
    },
    {
      "level": 47,
      "experience": 0,
      "display_names": [
        "Special Agent Sharpshooter"
      ],
      "costumes": [
        "Crey_Agent_F_01",
        "Crey_Agent_F_02",
        "Crey_Agent_F_03",
        "Crey_Agent_F_04",
        "Crey_Agent_F_05",
        "Crey_Agent_F_06",
        "Crey_Agent_F_07"
      ]
    },
    {
      "level": 48,
      "experience": 0,
      "display_names": [
        "Special Agent Sharpshooter"
      ],
      "costumes": [
        "Crey_Agent_F_01",
        "Crey_Agent_F_02",
        "Crey_Agent_F_03",
        "Crey_Agent_F_04",
        "Crey_Agent_F_05",
        "Crey_Agent_F_06",
        "Crey_Agent_F_07"
      ]
    },
    {
      "level": 49,
      "experience": 0,
      "display_names": [
        "Special Agent Sharpshooter"
      ],
      "costumes": [
        "Crey_Agent_F_01",
        "Crey_Agent_F_02",
        "Crey_Agent_F_03",
        "Crey_Agent_F_04",
        "Crey_Agent_F_05",
        "Crey_Agent_F_06",
        "Crey_Agent_F_07"
      ]
    },
    {
      "level": 50,
      "experience": 0,
      "display_names": [
        "Special Agent Sharpshooter"
      ],
      "costumes": [
        "Crey_Agent_F_01",
        "Crey_Agent_F_02",
        "Crey_Agent_F_03",
        "Crey_Agent_F_04",
        "Crey_Agent_F_05",
        "Crey_Agent_F_06",
        "Crey_Agent_F_07"
      ]
    },
    {
      "level": 51,
      "experience": 0,
      "display_names": [
        "Special Agent Sharpshooter"
      ],
      "costumes": [
        "Crey_Agent_F_01",
        "Crey_Agent_F_02",
        "Crey_Agent_F_03",
        "Crey_Agent_F_04",
        "Crey_Agent_F_05",
        "Crey_Agent_F_06",
        "Crey_Agent_F_07"
      ]
    },
    {
      "level": 52,
      "experience": 0,
      "display_names": [
        "Special Agent Sharpshooter"
      ],
      "costumes": [
        "Crey_Agent_F_01",
        "Crey_Agent_F_02",
        "Crey_Agent_F_03",
        "Crey_Agent_F_04",
        "Crey_Agent_F_05",
        "Crey_Agent_F_06",
        "Crey_Agent_F_07"
      ]
    },
    {
      "level": 53,
      "experience": 0,
      "display_names": [
        "Special Agent Sharpshooter"
      ],
      "costumes": [
        "Crey_Agent_F_01",
        "Crey_Agent_F_02",
        "Crey_Agent_F_03",
        "Crey_Agent_F_04",
        "Crey_Agent_F_05",
        "Crey_Agent_F_06",
        "Crey_Agent_F_07"
      ]
    },
    {
      "level": 54,
      "experience": 0,
      "display_names": [
        "Special Agent Sharpshooter"
      ],
      "costumes": [
        "Crey_Agent_F_01",
        "Crey_Agent_F_02",
        "Crey_Agent_F_03",
        "Crey_Agent_F_04",
        "Crey_Agent_F_05",
        "Crey_Agent_F_06",
        "Crey_Agent_F_07"
      ]
    }
  ]
}