{
  "name": "Crey_Nictus_Hunter_Agent_Female",
  "gender": "GENDER_FEMALE",
  "description": "The stone-faced, suit clad Field Agents are Crey's main investigative branch. They can be found carrying out a variety of missions, from espionage to assassination ops. They carry the latest weapons and receive intense close combat training.",
  "group_description": null,
  "display_class_name": null,
  "character_class_name": "minion_grunt",
  "ai_config": "Nictus_Hunter",
  "commandable_pet": false,
  "power_tags": [
    "HumanSkeleton",
    "Human"
  ],
  "additional_rewards": [

  ],
  "skill_hp_rewards": [

  ],
  "skill_status_rewards": [

  ],
  "ally": null,
  "gang": null,
  "reward_scale": 1.0,
  "game_exclusion": "None",
  "inactive_state_weapon": null,
  "ignores_combat_mods": false,
  "copy_creator_mods": false,
  "spawn_limit": 0,
  "spawn_limit_mission": 0,
  "ignore_av_to_eb_scaling": false,
  "can_zone": false,
  "custom_badge_stat": null,
  "badge_stat_flags": "DefaultBadgeStat",
  "rank": "VR_MINION",
  "power_full_names": [
    "Nictus.Hunter.Quantum_Array_gun"
  ],
  "power_display_names": [
    "Quantum Array gun"
  ],
  "power_levels": [
    0
  ],
  "powers": [
    {
      "power_category": "Nictus",
      "power_set": "Hunter",
      "power": "Quantum_Array_gun",
      "level": 0
    }
  ],
  "levels": [
    {
      "level": 20,
      "experience": 0,
      "display_names": [
        "Quantum Agent"
      ],
      "costumes": [
        "Crey_Agent_F_01",
        "Crey_Agent_F_02",
        "Crey_Agent_F_03",
        "Crey_Agent_F_04",
        "Crey_Agent_F_05",
        "Crey_Agent_F_06",
        "Crey_Agent_F_07"
      ]
    },
    {
      "level": 21,
      "experience": 0,
      "display_names": [
        "Quantum Agent"
      ],
      "costumes": [
        "Crey_Agent_F_01",
        "Crey_Agent_F_02",
        "Crey_Agent_F_03",
        "Crey_Agent_F_04",
        "Crey_Agent_F_05",
        "Crey_Agent_F_06",
        "Crey_Agent_F_07"
      ]
    },
    {
      "level": 22,
      "experience": 0,
      "display_names": [
        "Quantum Agent"
      ],
      "costumes": [
        "Crey_Agent_F_01",
        "Crey_Agent_F_02",
        "Crey_Agent_F_03",
        "Crey_Agent_F_04",
        "Crey_Agent_F_05",
        "Crey_Agent_F_06",
        "Crey_Agent_F_07"
      ]
    },
    {
      "level": 23,
      "experience": 0,
      "display_names": [
        "Quantum Agent"
      ],
      "costumes": [
        "Crey_Agent_F_01",
        "Crey_Agent_F_02",
        "Crey_Agent_F_03",
        "Crey_Agent_F_04",
        "Crey_Agent_F_05",
        "Crey_Agent_F_06",
        "Crey_Agent_F_07"
      ]
    },
    {
      "level": 24,
      "experience": 0,
      "display_names": [
        "Quantum Agent"
      ],
      "costumes": [
        "Crey_Agent_F_01",
        "Crey_Agent_F_02",
        "Crey_Agent_F_03",
        "Crey_Agent_F_04",
        "Crey_Agent_F_05",
        "Crey_Agent_F_06",
        "Crey_Agent_F_07"
      ]
    },
    {
      "level": 25,
      "experience": 0,
      "display_names": [
        "Quantum Agent"
      ],
      "costumes": [
        "Crey_Agent_F_01",
        "Crey_Agent_F_02",
        "Crey_Agent_F_03",
        "Crey_Agent_F_04",
        "Crey_Agent_F_05",
        "Crey_Agent_F_06",
        "Crey_Agent_F_07"
      ]
    },
    {
      "level": 26,
      "experience": 0,
      "display_names": [
        "Quantum Agent"
      ],
      "costumes": [
        "Crey_Agent_F_01",
        "Crey_Agent_F_02",
        "Crey_Agent_F_03",
        "Crey_Agent_F_04",
        "Crey_Agent_F_05",
        "Crey_Agent_F_06",
        "Crey_Agent_F_07"
      ]
    },
    {
      "level": 27,
      "experience": 0,
      "display_names": [
        "Quantum Agent"
      ],
      "costumes": [
        "Crey_Agent_F_01",
        "Crey_Agent_F_02",
        "Crey_Agent_F_03",
        "Crey_Agent_F_04",
        "Crey_Agent_F_05",
        "Crey_Agent_F_06",
        "Crey_Agent_F_07"
      ]
    },
    {
      "level": 28,
      "experience": 0,
      "display_names": [
        "Quantum Agent"
      ],
      "costumes": [
        "Crey_Agent_F_01",
        "Crey_Agent_F_02",
        "Crey_Agent_F_03",
        "Crey_Agent_F_04",
        "Crey_Agent_F_05",
        "Crey_Agent_F_06",
        "Crey_Agent_F_07"
      ]
    },
    {
      "level": 29,
      "experience": 0,
      "display_names": [
        "Quantum Agent"
      ],
      "costumes": [
        "Crey_Agent_F_01",
        "Crey_Agent_F_02",
        "Crey_Agent_F_03",
        "Crey_Agent_F_04",
        "Crey_Agent_F_05",
        "Crey_Agent_F_06",
        "Crey_Agent_F_07"
      ]
    },
    {
      "level": 30,
      "experience": 0,
      "display_names": [
        "Quantum Agent"
      ],
      "costumes": [
        "Crey_Agent_F_01",
        "Crey_Agent_F_02",
        "Crey_Agent_F_03",
        "Crey_Agent_F_04",
        "Crey_Agent_F_05",
        "Crey_Agent_F_06",
        "Crey_Agent_F_07"
      ]
    },
    {
      "level": 31,
      "experience": 0,
      "display_names": [
        "Quantum Agent"
      ],
      "costumes": [
        "Crey_Agent_F_01",
        "Crey_Agent_F_02",
        "Crey_Agent_F_03",
        "Crey_Agent_F_04",
        "Crey_Agent_F_05",
        "Crey_Agent_F_06",
        "Crey_Agent_F_07"
      ]
    },
    {
      "level": 32,
      "experience": 0,
      "display_names": [
        "Quantum Agent"
      ],
      "costumes": [
        "Crey_Agent_F_01",
        "Crey_Agent_F_02",
        "Crey_Agent_F_03",
        "Crey_Agent_F_04",
        "Crey_Agent_F_05",
        "Crey_Agent_F_06",
        "Crey_Agent_F_07"
      ]
    },
    {
      "level": 33,
      "experience": 0,
      "display_names": [
        "Quantum Agent"
      ],
      "costumes": [
        "Crey_Agent_F_01",
        "Crey_Agent_F_02",
        "Crey_Agent_F_03",
        "Crey_Agent_F_04",
        "Crey_Agent_F_05",
        "Crey_Agent_F_06",
        "Crey_Agent_F_07"
      ]
    },
    {
      "level": 34,
      "experience": 0,
      "display_names": [
        "Quantum Agent"
      ],
      "costumes": [
        "Crey_Agent_F_01",
        "Crey_Agent_F_02",
        "Crey_Agent_F_03",
        "Crey_Agent_F_04",
        "Crey_Agent_F_05",
        "Crey_Agent_F_06",
        "Crey_Agent_F_07"
      ]
    },
    {
      "level": 35,
      "experience": 0,
      "display_names": [
        "Quantum Agent"
      ],
      "costumes": [
        "Crey_Agent_F_01",
        "Crey_Agent_F_02",
        "Crey_Agent_F_03",
        "Crey_Agent_F_04",
        "Crey_Agent_F_05",
        "Crey_Agent_F_06",
        "Crey_Agent_F_07"
      ]
    },
    {
      "level": 36,
      "experience": 0,
      "display_names": [
        "Quantum Agent"
      ],
      "costumes": [
        "Crey_Agent_F_01",
        "Crey_Agent_F_02",
        "Crey_Agent_F_03",
        "Crey_Agent_F_04",
        "Crey_Agent_F_05",
        "Crey_Agent_F_06",
        "Crey_Agent_F_07"
      ]
    },
    {
      "level": 37,
      "experience": 0,
      "display_names": [
        "Quantum Agent"
      ],
      "costumes": [
        "Crey_Agent_F_01",
        "Crey_Agent_F_02",
        "Crey_Agent_F_03",
        "Crey_Agent_F_04",
        "Crey_Agent_F_05",
        "Crey_Agent_F_06",
        "Crey_Agent_F_07"
      ]
    },
    {
      "level": 38,
      "experience": 0,
      "display_names": [
        "Quantum Agent"
      ],
      "costumes": [
        "Crey_Agent_F_01",
        "Crey_Agent_F_02",
        "Crey_Agent_F_03",
        "Crey_Agent_F_04",
        "Crey_Agent_F_05",
        "Crey_Agent_F_06",
        "Crey_Agent_F_07"
      ]
    },
    {
      "level": 39,
      "experience": 0,
      "display_names": [
        "Quantum Agent"
      ],
      "costumes": [
        "Crey_Agent_F_01",
        "Crey_Agent_F_02",
        "Crey_Agent_F_03",
        "Crey_Agent_F_04",
        "Crey_Agent_F_05",
        "Crey_Agent_F_06",
        "Crey_Agent_F_07"
      ]
    },
    {
      "level": 40,
      "experience": 0,
      "display_names": [
        "Quantum Agent"
      ],
      "costumes": [
        "Crey_Agent_F_01",
        "Crey_Agent_F_02",
        "Crey_Agent_F_03",
        "Crey_Agent_F_04",
        "Crey_Agent_F_05",
        "Crey_Agent_F_06",
        "Crey_Agent_F_07"
      ]
    },
    {
      "level": 41,
      "experience": 0,
      "display_names": [
        "Quantum Agent"
      ],
      "costumes": [
        "Crey_Agent_F_01",
        "Crey_Agent_F_02",
        "Crey_Agent_F_03",
        "Crey_Agent_F_04",
        "Crey_Agent_F_05",
        "Crey_Agent_F_06",
        "Crey_Agent_F_07"
      ]
    },
    {
      "level": 42,
      "experience": 0,
      "display_names": [
        "Quantum Agent"
      ],
      "costumes": [
        "Crey_Agent_F_01",
        "Crey_Agent_F_02",
        "Crey_Agent_F_03",
        "Crey_Agent_F_04",
        "Crey_Agent_F_05",
        "Crey_Agent_F_06",
        "Crey_Agent_F_07"
      ]
    },
    {
      "level": 43,
      "experience": 0,
      "display_names": [
        "Quantum Agent"
      ],
      "costumes": [
        "Crey_Agent_F_01",
        "Crey_Agent_F_02",
        "Crey_Agent_F_03",
        "Crey_Agent_F_04",
        "Crey_Agent_F_05",
        "Crey_Agent_F_06",
        "Crey_Agent_F_07"
      ]
    },
    {
      "level": 44,
      "experience": 0,
      "display_names": [
        "Quantum Agent"
      ],
      "costumes": [
        "Crey_Agent_F_01",
        "Crey_Agent_F_02",
        "Crey_Agent_F_03",
        "Crey_Agent_F_04",
        "Crey_Agent_F_05",
        "Crey_Agent_F_06",
        "Crey_Agent_F_07"
      ]
    },
    {
      "level": 45,
      "experience": 0,
      "display_names": [
        "Quantum Agent"
      ],
      "costumes": [
        "Crey_Agent_F_01",
        "Crey_Agent_F_02",
        "Crey_Agent_F_03",
        "Crey_Agent_F_04",
        "Crey_Agent_F_05",
        "Crey_Agent_F_06",
        "Crey_Agent_F_07"
      ]
    }
  ]
}