{
  "name": "Crey_Crey_Electric_Tank",
  "gender": "GENDER_MALE",
  "description": "Crey's perfected Voltaic Armor can turn any soldier into the proverbial irresistible force. Voltaic Tanks can generate almost limitless electrical current, which they can hurl at great distances.",
  "group_description": null,
  "display_class_name": null,
  "character_class_name": "lt_grunt",
  "ai_config": "Default_Ranged",
  "commandable_pet": false,
  "power_tags": [
    "HumanSkeleton",
    "Human"
  ],
  "additional_rewards": [

  ],
  "skill_hp_rewards": [

  ],
  "skill_status_rewards": [

  ],
  "ally": null,
  "gang": null,
  "reward_scale": 1.0,
  "game_exclusion": "None",
  "inactive_state_weapon": null,
  "ignores_combat_mods": false,
  "copy_creator_mods": false,
  "spawn_limit": -1,
  "spawn_limit_mission": -1,
  "ignore_av_to_eb_scaling": false,
  "can_zone": false,
  "custom_badge_stat": null,
  "badge_stat_flags": "DefaultBadgeStat",
  "rank": "VR_LIEUTENANT",
  "power_full_names": [
    "Crey.Crey_Electric_Tank.Charged_Bolts",
    "Crey.Crey_Electric_Tank.Lightning_Bolt",
    "Crey.Crey_Electric_Tank.Ball_Lightning",
    "Crey.Crey_Electric_Tank.Charged_Brawl",
    "Crey.Crey_Electric_Tank.Havoc_Punch",
    "Crey.Crey_Electric_Tank.Thunder_Strike",
    "Crey.Crey_Tank_Defense.Resistance",
    "Crey.Crey_Tank_Defense.Power_Jumping"
  ],
  "power_display_names": [
    "Charged Bolts",
    "Lightning Bolt",
    "Ball Lightning",
    "Charged Brawl",
    "Havoc Punch",
    "Thunder Strike",
    "Resistance",
    "Power Jumping"
  ],
  "power_levels": [
    0,
    0,
    0,
    0,
    0,
    0,
    0,
    0
  ],
  "powers": [
    {
      "power_category": "Crey",
      "power_set": "Crey_Electric_Tank",
      "power": "*",
      "level": 0
    },
    {
      "power_category": "Crey",
      "power_set": "Crey_Tank_Defense",
      "power": "*",
      "level": 0
    }
  ],
  "levels": [
    {
      "level": 32,
      "experience": 0,
      "display_names": [
        "Crey Voltaic Tank"
      ],
      "costumes": [
        "Crey_Tank_02"
      ]
    },
    {
      "level": 33,
      "experience": 0,
      "display_names": [
        "Crey Voltaic Tank"
      ],
      "costumes": [
        "Crey_Tank_02"
      ]
    },
    {
      "level": 34,
      "experience": 0,
      "display_names": [
        "Crey Voltaic Tank"
      ],
      "costumes": [
        "Crey_Tank_02"
      ]
    },
    {
      "level": 35,
      "experience": 0,
      "display_names": [
        "Crey Voltaic Tank"
      ],
      "costumes": [
        "Crey_Tank_02"
      ]
    },
    {
      "level": 36,
      "experience": 0,
      "display_names": [
        "Crey Voltaic Tank"
      ],
      "costumes": [
        "Crey_Tank_02"
      ]
    },
    {
      "level": 37,
      "experience": 0,
      "display_names": [
        "Crey Voltaic Tank"
      ],
      "costumes": [
        "Crey_Tank_02"
      ]
    },
    {
      "level": 38,
      "experience": 0,
      "display_names": [
        "Crey Voltaic Tank"
      ],
      "costumes": [
        "Crey_Tank_02"
      ]
    },
    {
      "level": 39,
      "experience": 0,
      "display_names": [
        "Crey Voltaic Tank"
      ],
      "costumes": [
        "Crey_Tank_02"
      ]
    },
    {
      "level": 40,
      "experience": 0,
      "display_names": [
        "Crey Voltaic Tank"
      ],
      "costumes": [
        "Crey_Tank_02"
      ]
    },
    {
      "level": 41,
      "experience": 0,
      "display_names": [
        "Crey Voltaic Tank"
      ],
      "costumes": [
        "Crey_Tank_02"
      ]
    },
    {
      "level": 42,
      "experience": 0,
      "display_names": [
        "Crey Voltaic Tank"
      ],
      "costumes": [
        "Crey_Tank_02"
      ]
    },
    {
      "level": 43,
      "experience": 0,
      "display_names": [
        "Crey Voltaic Tank"
      ],
      "costumes": [
        "Crey_Tank_02"
      ]
    },
    {
      "level": 44,
      "experience": 0,
      "display_names": [
        "Crey Voltaic Tank"
      ],
      "costumes": [
        "Crey_Tank_02"
      ]
    },
    {
      "level": 45,
      "experience": 0,
      "display_names": [
        "Crey Voltaic Tank"
      ],
      "costumes": [
        "Crey_Tank_02"
      ]
    }
  ]
}