{
  "name": "DevouringEarth_Mitochondria_Blaster_Mission",
  "gender": "GENDER_MALE",
  "description": "These creatures seem to be the organelles of the giant single cell organism that is devouring the land around you. These Mitochondria are definitely the cells main defense mechanism.",
  "group_description": null,
  "display_class_name": "Hamidon",
  "character_class_name": "lt_grunt",
  "ai_config": "DevouringEarth_Hamidon",
  "commandable_pet": false,
  "power_tags": [
    "Raid"
  ],
  "additional_rewards": [

  ],
  "skill_hp_rewards": [

  ],
  "skill_status_rewards": [

  ],
  "ally": null,
  "gang": null,
  "reward_scale": 1.0,
  "game_exclusion": "None",
  "inactive_state_weapon": null,
  "ignores_combat_mods": false,
  "copy_creator_mods": false,
  "spawn_limit": 0,
  "spawn_limit_mission": 0,
  "ignore_av_to_eb_scaling": false,
  "can_zone": false,
  "custom_badge_stat": null,
  "badge_stat_flags": "DefaultBadgeStat",
  "rank": "VR_BOSS",
  "power_full_names": [
    "DevouringEarth.Mitochondria_Blaster_Powers.Cytoplasmic_Blast",
    "DevouringEarth.Mitochondria_Blaster_Powers.Cytoplasmic_Burst",
    "DevouringEarth.Mitochondria_Blaster_Powers.Fly",
    "DevouringEarth.Mitochondria_Blaster_Powers.Resistance"
  ],
  "power_display_names": [
    "Cytoplasmic Blast",
    "Cytoplasmic Burst",
    "Fly",
    "Resistance"
  ],
  "power_levels": [
    0,
    0,
    0,
    0
  ],
  "powers": [
    {
      "power_category": "DevouringEarth",
      "power_set": "Mitochondria_Blaster_Powers",
      "power": "*",
      "level": 0
    }
  ],
  "levels": [
    {
      "level": 50,
      "experience": 0,
      "display_names": [
        "Mitochondria Antibodies"
      ],
      "costumes": [
        "Hamidon_Mito_01"
      ]
    }
  ]
}