{
  "name": "DevouringEarth_Cytoplasm",
  "gender": "GENDER_MALE",
  "description": "Although defeated, it seems the pieces of the Hamidon are still a threat. Left uncheck, it is likely that each piece could one day grow to become as big a menace as the original. It must be stopped.",
  "group_description": null,
  "display_class_name": null,
  "character_class_name": "boss_elite",
  "ai_config": "DevouringEarth_Minion",
  "commandable_pet": false,
  "power_tags": [

  ],
  "additional_rewards": [
    "HamidonBud"
  ],
  "skill_hp_rewards": [

  ],
  "skill_status_rewards": [

  ],
  "ally": null,
  "gang": null,
  "reward_scale": 1.0,
  "game_exclusion": "None",
  "inactive_state_weapon": null,
  "ignores_combat_mods": false,
  "copy_creator_mods": false,
  "spawn_limit": 0,
  "spawn_limit_mission": 0,
  "ignore_av_to_eb_scaling": false,
  "can_zone": false,
  "custom_badge_stat": null,
  "badge_stat_flags": "DefaultBadgeStat",
  "rank": "VR_BOSS",
  "power_full_names": [
    "DevouringEarth.Mini_Hamidon_Powers.Electrolytic_Bolt",
    "DevouringEarth.Mini_Hamidon_Powers.Resistance",
    "DevouringEarth.Mini_Hamidon_Powers.Decay",
    "DevouringEarth.Mini_Hamidon_Powers.Self_Destruct"
  ],
  "power_display_names": [
    "Electrolytic Bolt",
    "Resistance",
    "Decay",
    "Self Destruct"
  ],
  "power_levels": [
    0,
    0,
    0,
    0
  ],
  "powers": [
    {
      "power_category": "DevouringEarth",
      "power_set": "Mini_Hamidon_Powers",
      "power": "*",
      "level": 0
    }
  ],
  "levels": [
    {
      "level": 50,
      "experience": 0,
      "display_names": [
        "Hamidon Bud"
      ],
      "costumes": [
        "Hamidon_Mini"
      ]
    }
  ]
}