{
  "name": "DevouringEarth_Endgame_Rock_Beast",
  "gender": "GENDER_MALE",
  "description": "The leaders of the Rock Troops are tougher, smarter, and better equipped to take on whatever foes the Devouring Earth sets them against. In addition to the rock wielding skills of their subordinates, they have the ability to summon forth deadly Swarms of insects.",
  "group_description": null,
  "display_class_name": null,
  "character_class_name": "minion_praetoriangrunt",
  "ai_config": "DevouringEarth_Lt",
  "commandable_pet": false,
  "power_tags": [

  ],
  "additional_rewards": [

  ],
  "skill_hp_rewards": [

  ],
  "skill_status_rewards": [

  ],
  "ally": null,
  "gang": null,
  "reward_scale": 1.0,
  "game_exclusion": "None",
  "inactive_state_weapon": null,
  "ignores_combat_mods": false,
  "copy_creator_mods": false,
  "spawn_limit": 0,
  "spawn_limit_mission": 0,
  "ignore_av_to_eb_scaling": false,
  "can_zone": false,
  "custom_badge_stat": null,
  "badge_stat_flags": "DefaultBadgeStat",
  "rank": "VR_MINION",
  "power_full_names": [
    "DevouringEarth.Devouring_Earth_All_Melee.Pummel",
    "DevouringEarth.Devouring_Earth_Rock_Ranged.Hurl_Boulder",
    "DevouringEarth.Devouring_Earth_Rock_Divide.Rubble",
    "DevouringEarth.Devouring_Earth_Rock_Defense.Resistance"
  ],
  "power_display_names": [
    "Pummel",
    "Hurl Boulder",
    "Rubble",
    "Resistance"
  ],
  "power_levels": [
    0,
    0,
    0,
    0
  ],
  "powers": [
    {
      "power_category": "DevouringEarth",
      "power_set": "Devouring_Earth_All_Melee",
      "power": "*",
      "level": 0
    },
    {
      "power_category": "DevouringEarth",
      "power_set": "Devouring_Earth_Rock_Ranged",
      "power": "*",
      "level": 0
    },
    {
      "power_category": "DevouringEarth",
      "power_set": "Devouring_Earth_Rock_Divide",
      "power": "*",
      "level": 0
    },
    {
      "power_category": "DevouringEarth",
      "power_set": "Devouring_Earth_Rock_Defense",
      "power": "*",
      "level": 0
    }
  ],
  "levels": [
    {
      "level": 50,
      "experience": 0,
      "display_names": [
        "Granite",
        "Sentry"
      ],
      "costumes": [
        "Rock_Beast_03",
        "Rock_Beast_04"
      ]
    },
    {
      "level": 51,
      "experience": 0,
      "display_names": [
        "Granite",
        "Sentry"
      ],
      "costumes": [
        "Rock_Beast_03",
        "Rock_Beast_04"
      ]
    },
    {
      "level": 52,
      "experience": 0,
      "display_names": [
        "Granite",
        "Sentry"
      ],
      "costumes": [
        "Rock_Beast_03",
        "Rock_Beast_04"
      ]
    },
    {
      "level": 53,
      "experience": 0,
      "display_names": [
        "Granite",
        "Sentry"
      ],
      "costumes": [
        "Rock_Beast_03",
        "Rock_Beast_04"
      ]
    },
    {
      "level": 54,
      "experience": 0,
      "display_names": [
        "Granite",
        "Sentry"
      ],
      "costumes": [
        "Rock_Beast_03",
        "Rock_Beast_04"
      ]
    }
  ]
}