{
  "name": "DevouringEarth_Crystal_Beast_Lieutenant",
  "gender": "GENDER_MALE",
  "description": "These Crystal captains command their sparkling soldiers in combat, chattering amongst one another with voices like breaking glass. In combat they rain down shards of razor sharp crystal and pummel their opponents mercilessly. Like their followers, these creatures fear smashing attacks.",
  "group_description": null,
  "display_class_name": null,
  "character_class_name": "lt_grunt",
  "ai_config": "DevouringEarth_Lt",
  "commandable_pet": false,
  "power_tags": [

  ],
  "additional_rewards": [

  ],
  "skill_hp_rewards": [

  ],
  "skill_status_rewards": [

  ],
  "ally": null,
  "gang": null,
  "reward_scale": 1.0,
  "game_exclusion": "None",
  "inactive_state_weapon": null,
  "ignores_combat_mods": false,
  "copy_creator_mods": false,
  "spawn_limit": -1,
  "spawn_limit_mission": -1,
  "ignore_av_to_eb_scaling": false,
  "can_zone": false,
  "custom_badge_stat": null,
  "badge_stat_flags": "DefaultBadgeStat",
  "rank": "VR_LIEUTENANT",
  "power_full_names": [
    "DevouringEarth.Devouring_Earth_All_Melee.Pummel",
    "DevouringEarth.Devouring_Earth_Purple_Mineral_Ranged.Crystal_Shards",
    "DevouringEarth.Devouring_Earth_Purple_Mineral_Divide.Shatter",
    "DevouringEarth.Devouring_Earth_Mineral_Defense.Resistance",
    "DevouringEarth.Devouring_Earth_Lt_Crystal_Buff.Quartz"
  ],
  "power_display_names": [
    "Pummel",
    "Crystal Shards",
    "Shatter",
    "Resistance",
    "Quartz"
  ],
  "power_levels": [
    0,
    0,
    0,
    0,
    0
  ],
  "powers": [
    {
      "power_category": "DevouringEarth",
      "power_set": "Devouring_Earth_All_Melee",
      "power": "*",
      "level": 0
    },
    {
      "power_category": "DevouringEarth",
      "power_set": "Devouring_Earth_Purple_Mineral_Ranged",
      "power": "*",
      "level": 0
    },
    {
      "power_category": "DevouringEarth",
      "power_set": "Devouring_Earth_Purple_Mineral_Divide",
      "power": "*",
      "level": 0
    },
    {
      "power_category": "DevouringEarth",
      "power_set": "Devouring_Earth_Mineral_Defense",
      "power": "*",
      "level": 0
    },
    {
      "power_category": "DevouringEarth",
      "power_set": "Devouring_Earth_Lt_Crystal_Buff",
      "power": "*",
      "level": 0
    }
  ],
  "levels": [
    {
      "level": 35,
      "experience": 0,
      "display_names": [
        "Guardian"
      ],
      "costumes": [
        "Crystal_Beast_01"
      ]
    },
    {
      "level": 36,
      "experience": 0,
      "display_names": [
        "Guardian"
      ],
      "costumes": [
        "Crystal_Beast_01"
      ]
    },
    {
      "level": 37,
      "experience": 0,
      "display_names": [
        "Guardian"
      ],
      "costumes": [
        "Crystal_Beast_01"
      ]
    },
    {
      "level": 38,
      "experience": 0,
      "display_names": [
        "Guardian"
      ],
      "costumes": [
        "Crystal_Beast_01"
      ]
    },
    {
      "level": 39,
      "experience": 0,
      "display_names": [
        "Guardian"
      ],
      "costumes": [
        "Crystal_Beast_01"
      ]
    },
    {
      "level": 40,
      "experience": 0,
      "display_names": [
        "Guardian"
      ],
      "costumes": [
        "Crystal_Beast_01"
      ]
    },
    {
      "level": 41,
      "experience": 0,
      "display_names": [
        "Guardian"
      ],
      "costumes": [
        "Crystal_Beast_01"
      ]
    },
    {
      "level": 42,
      "experience": 0,
      "display_names": [
        "Guardian"
      ],
      "costumes": [
        "Crystal_Beast_01"
      ]
    },
    {
      "level": 43,
      "experience": 0,
      "display_names": [
        "Guardian"
      ],
      "costumes": [
        "Crystal_Beast_01"
      ]
    },
    {
      "level": 44,
      "experience": 0,
      "display_names": [
        "Guardian"
      ],
      "costumes": [
        "Crystal_Beast_01"
      ]
    },
    {
      "level": 45,
      "experience": 0,
      "display_names": [
        "Guardian"
      ],
      "costumes": [
        "Crystal_Beast_01"
      ]
    }
  ]
}