{
  "name": "DevouringEarth_Endgame_Mushroom_Beast",
  "gender": "GENDER_MALE",
  "description": "Fungus run amok' is probably the best way to describe these loathsome creatures. Like their inanimate ancestors, mushroom men prefer dark, dank places. In combat they can release clouds of deadly spores that choke and disable nearby enemies.",
  "group_description": null,
  "display_class_name": null,
  "character_class_name": "minion_praetoriangrunt",
  "ai_config": "DevouringEarth_Minion",
  "commandable_pet": false,
  "power_tags": [

  ],
  "additional_rewards": [

  ],
  "skill_hp_rewards": [

  ],
  "skill_status_rewards": [

  ],
  "ally": null,
  "gang": null,
  "reward_scale": 1.0,
  "game_exclusion": "None",
  "inactive_state_weapon": null,
  "ignores_combat_mods": false,
  "copy_creator_mods": false,
  "spawn_limit": -1,
  "spawn_limit_mission": -1,
  "ignore_av_to_eb_scaling": false,
  "can_zone": false,
  "custom_badge_stat": null,
  "badge_stat_flags": "DefaultBadgeStat",
  "rank": "VR_MINION",
  "power_full_names": [
    "DevouringEarth.Devouring_Earth_All_Melee.Pummel",
    "DevouringEarth.Devouring_Earth_Mushroom_Ranged.Spores",
    "DevouringEarth.Devouring_Earth_Mushroom_Ranged.Spore_Burst",
    "DevouringEarth.Devouring_Earth_Mushroom_Defense.Resistance"
  ],
  "power_display_names": [
    "Pummel",
    "Spores",
    "Spore Burst",
    "Resistance"
  ],
  "power_levels": [
    0,
    0,
    0,
    0
  ],
  "powers": [
    {
      "power_category": "DevouringEarth",
      "power_set": "Devouring_Earth_All_Melee",
      "power": "*",
      "level": 0
    },
    {
      "power_category": "DevouringEarth",
      "power_set": "Devouring_Earth_Mushroom_Ranged",
      "power": "*",
      "level": 0
    },
    {
      "power_category": "DevouringEarth",
      "power_set": "Devouring_Earth_Mushroom_Defense",
      "power": "*",
      "level": 0
    }
  ],
  "levels": [
    {
      "level": 50,
      "experience": 0,
      "display_names": [
        "Deathcap"
      ],
      "costumes": [
        "Mushroom_Beast_03"
      ]
    },
    {
      "level": 51,
      "experience": 0,
      "display_names": [
        "Deathcap"
      ],
      "costumes": [
        "Mushroom_Beast_03"
      ]
    },
    {
      "level": 52,
      "experience": 0,
      "display_names": [
        "Deathcap"
      ],
      "costumes": [
        "Mushroom_Beast_03"
      ]
    },
    {
      "level": 53,
      "experience": 0,
      "display_names": [
        "Deathcap"
      ],
      "costumes": [
        "Mushroom_Beast_03"
      ]
    },
    {
      "level": 54,
      "experience": 0,
      "display_names": [
        "Deathcap"
      ],
      "costumes": [
        "Mushroom_Beast_03"
      ]
    }
  ]
}