{
  "name": "DevouringEarthInfestedLow_Seer_Diviner",
  "gender": "GENDER_FEMALE",
  "description": "Diviners are among the elite of Mother Mayhem's Seers. They are mid-rank combatants among the elite. They specialize in crushing their foes in close range combat.",
  "group_description": "The Infested",
  "display_class_name": null,
  "character_class_name": "lt_grunt",
  "ai_config": "Default_Melee",
  "commandable_pet": false,
  "power_tags": [
    "Humanoid",
    "HumanSkeleton"
  ],
  "additional_rewards": [

  ],
  "skill_hp_rewards": [

  ],
  "skill_status_rewards": [

  ],
  "ally": null,
  "gang": null,
  "reward_scale": 1.0,
  "game_exclusion": "None",
  "inactive_state_weapon": null,
  "ignores_combat_mods": false,
  "copy_creator_mods": false,
  "spawn_limit": -1,
  "spawn_limit_mission": -1,
  "ignore_av_to_eb_scaling": false,
  "can_zone": false,
  "custom_badge_stat": null,
  "badge_stat_flags": "DefaultBadgeStat",
  "rank": "VR_LIEUTENANT",
  "power_full_names": [
    "P_Seers.Seer_Lieutenant_Resistance.Resistance",
    "P_Seers.Diviner_Powers_Endgame.Mental_Blast",
    "P_Seers.Diviner_Powers_Endgame.Psionic_Slash",
    "P_Seers.Diviner_Powers_Endgame.Dominate_Mind",
    "P_Seers.Diviner_Powers_Endgame.Drain_Psyche",
    "P_Seers.Diviner_Powers_Endgame.Summon_Reinforcements_Low",
    "P_Seers.Diviner_Powers_Endgame.Summon_Reinforcements"
  ],
  "power_display_names": [
    "Resistance",
    "Mental Blast",
    "Psionic Slash",
    "Dominate Mind",
    "Drain Psyche",
    "Summon Reinforcements Low",
    "Summon Reinforcements"
  ],
  "power_levels": [
    0,
    0,
    0,
    0,
    0,
    0,
    0
  ],
  "powers": [
    {
      "power_category": "P_Seers",
      "power_set": "Seer_Lieutenant_Resistance",
      "power": "*",
      "level": 0
    },
    {
      "power_category": "P_Seers",
      "power_set": "Diviner_Powers_Endgame",
      "power": "*",
      "level": 0
    }
  ],
  "levels": [
    {
      "level": 30,
      "experience": 0,
      "display_names": [
        "Infested Diviner"
      ],
      "costumes": [
        "Seer_Diviner_Infested_01"
      ]
    },
    {
      "level": 31,
      "experience": 0,
      "display_names": [
        "Infested Diviner"
      ],
      "costumes": [
        "Seer_Diviner_Infested_01"
      ]
    },
    {
      "level": 32,
      "experience": 0,
      "display_names": [
        "Infested Diviner"
      ],
      "costumes": [
        "Seer_Diviner_Infested_01"
      ]
    },
    {
      "level": 33,
      "experience": 0,
      "display_names": [
        "Infested Diviner"
      ],
      "costumes": [
        "Seer_Diviner_Infested_01"
      ]
    },
    {
      "level": 34,
      "experience": 0,
      "display_names": [
        "Infested Diviner"
      ],
      "costumes": [
        "Seer_Diviner_Infested_01"
      ]
    },
    {
      "level": 35,
      "experience": 0,
      "display_names": [
        "Infested Diviner"
      ],
      "costumes": [
        "Seer_Diviner_Infested_01"
      ]
    },
    {
      "level": 36,
      "experience": 0,
      "display_names": [
        "Infested Diviner"
      ],
      "costumes": [
        "Seer_Diviner_Infested_01"
      ]
    },
    {
      "level": 37,
      "experience": 0,
      "display_names": [
        "Infested Diviner"
      ],
      "costumes": [
        "Seer_Diviner_Infested_01"
      ]
    },
    {
      "level": 38,
      "experience": 0,
      "display_names": [
        "Infested Diviner"
      ],
      "costumes": [
        "Seer_Diviner_Infested_01"
      ]
    },
    {
      "level": 39,
      "experience": 0,
      "display_names": [
        "Infested Diviner"
      ],
      "costumes": [
        "Seer_Diviner_Infested_01"
      ]
    },
    {
      "level": 40,
      "experience": 0,
      "display_names": [
        "Infested Diviner"
      ],
      "costumes": [
        "Seer_Diviner_Infested_01"
      ]
    },
    {
      "level": 41,
      "experience": 0,
      "display_names": [
        "Infested Diviner"
      ],
      "costumes": [
        "Seer_Diviner_Infested_01"
      ]
    },
    {
      "level": 42,
      "experience": 0,
      "display_names": [
        "Infested Diviner"
      ],
      "costumes": [
        "Seer_Diviner_Infested_01"
      ]
    },
    {
      "level": 43,
      "experience": 0,
      "display_names": [
        "Infested Diviner"
      ],
      "costumes": [
        "Seer_Diviner_Infested_01"
      ]
    },
    {
      "level": 44,
      "experience": 0,
      "display_names": [
        "Infested Diviner"
      ],
      "costumes": [
        "Seer_Diviner_Infested_01"
      ]
    },
    {
      "level": 45,
      "experience": 0,
      "display_names": [
        "Infested Diviner"
      ],
      "costumes": [
        "Seer_Diviner_Infested_01"
      ]
    },
    {
      "level": 46,
      "experience": 0,
      "display_names": [
        "Infested Diviner"
      ],
      "costumes": [
        "Seer_Diviner_Infested_01"
      ]
    },
    {
      "level": 47,
      "experience": 0,
      "display_names": [
        "Infested Diviner"
      ],
      "costumes": [
        "Seer_Diviner_Infested_01"
      ]
    },
    {
      "level": 48,
      "experience": 0,
      "display_names": [
        "Infested Diviner"
      ],
      "costumes": [
        "Seer_Diviner_Infested_01"
      ]
    },
    {
      "level": 49,
      "experience": 0,
      "display_names": [
        "Infested Diviner"
      ],
      "costumes": [
        "Seer_Diviner_Infested_01"
      ]
    },
    {
      "level": 50,
      "experience": 0,
      "display_names": [
        "Infested Diviner"
      ],
      "costumes": [
        "Seer_Diviner_Infested_01"
      ]
    },
    {
      "level": 51,
      "experience": 0,
      "display_names": [
        "Infested Diviner"
      ],
      "costumes": [
        "Seer_Diviner_Infested_01"
      ]
    },
    {
      "level": 52,
      "experience": 0,
      "display_names": [
        "Infested Diviner"
      ],
      "costumes": [
        "Seer_Diviner_Infested_01"
      ]
    },
    {
      "level": 53,
      "experience": 0,
      "display_names": [
        "Infested Diviner"
      ],
      "costumes": [
        "Seer_Diviner_Infested_01"
      ]
    },
    {
      "level": 54,
      "experience": 0,
      "display_names": [
        "Infested Diviner"
      ],
      "costumes": [
        "Seer_Diviner_Infested_01"
      ]
    }
  ]
}