{
  "name": "Diabolique_Captured_Infernal_Free",
  "gender": "GENDER_MALE",
  "description": "A master of demon binding and summoning from another dimension, Infernal's boundless willpower allows him to control the many fiends he has forced into his service. As a member of the Vindicators, he often assists Numina of the Freedom Phalanx.",
  "group_description": "The Vindicators",
  "display_class_name": "Hero",
  "character_class_name": "boss_praetorianarchvillain",
  "ai_config": "Default_Melee",
  "commandable_pet": false,
  "power_tags": [
    "HumanSkeleton",
    "Human",
    "Raid"
  ],
  "additional_rewards": [

  ],
  "skill_hp_rewards": [

  ],
  "skill_status_rewards": [

  ],
  "ally": "Hero",
  "gang": "1",
  "reward_scale": 1.0,
  "game_exclusion": "None",
  "inactive_state_weapon": null,
  "ignores_combat_mods": false,
  "copy_creator_mods": false,
  "spawn_limit": 0,
  "spawn_limit_mission": 0,
  "ignore_av_to_eb_scaling": false,
  "can_zone": false,
  "custom_badge_stat": null,
  "badge_stat_flags": "DefaultBadgeStat",
  "rank": "VR_ARCHVILLAIN",
  "power_full_names": [
    "DilemmaDiabolique.Captured_Hero_Release.Infernal"
  ],
  "power_display_names": [
    "Sentinel Rescue"
  ],
  "power_levels": [
    0
  ],
  "powers": [
    {
      "power_category": "DilemmaDiabolique",
      "power_set": "Captured_Hero_Release",
      "power": "Infernal",
      "level": 0
    }
  ],
  "levels": [
    {
      "level": 54,
      "experience": 0,
      "display_names": [
        "Infernal"
      ],
      "costumes": [
        "Model_Infernal"
      ]
    }
  ]
}