{
  "name": "Diabolique_Minion",
  "gender": "GENDER_MALE",
  "description": "These incorporeal spirits have been caught before they could travel across the veil by Diabolique's dark magic. In binding them to this world she also forces them to do her bidding. They are tormented and distraught but are forced to serve the twisted mystic.",
  "group_description": "Praetorians",
  "display_class_name": null,
  "character_class_name": "minion_grunt",
  "ai_config": "Default_Melee",
  "commandable_pet": false,
  "power_tags": [
    "Undead"
  ],
  "additional_rewards": [

  ],
  "skill_hp_rewards": [

  ],
  "skill_status_rewards": [

  ],
  "ally": null,
  "gang": null,
  "reward_scale": 1.0,
  "game_exclusion": "None",
  "inactive_state_weapon": null,
  "ignores_combat_mods": false,
  "copy_creator_mods": false,
  "spawn_limit": -1,
  "spawn_limit_mission": -1,
  "ignore_av_to_eb_scaling": false,
  "can_zone": false,
  "custom_badge_stat": null,
  "badge_stat_flags": "DefaultBadgeStat",
  "rank": "VR_MINION",
  "power_full_names": [
    "Praetorians.Diabolique_Spirits.Smite",
    "Praetorians.Diabolique_Spirits.Siphon_Life",
    "Praetorians.Diabolique_Spirits.Midnight_Grasp",
    "Praetorians.Diabolique_Spirits.Chill_of_the_Night",
    "Praetorians.Diabolique_Spirits.Resistance",
    "Praetorians.Diabolique_Spirits.Ethereal",
    "Praetorians.Diabolique_Spirits.Fly",
    "Praetorians.Diabolique_Spirits.Fly_fx"
  ],
  "power_display_names": [
    "Smite",
    "Siphon Life",
    "Midnight Grasp",
    "Chill of the Night",
    "Resistance",
    "Ethereal",
    "Fly",
    "Fly fx"
  ],
  "power_levels": [
    0,
    0,
    0,
    0,
    0,
    0,
    0,
    0
  ],
  "powers": [
    {
      "power_category": "Praetorians",
      "power_set": "Diabolique_Spirits",
      "power": "*",
      "level": 0
    }
  ],
  "levels": [
    {
      "level": 45,
      "experience": 0,
      "display_names": [
        "Wight"
      ],
      "costumes": [
        "Knight"
      ]
    },
    {
      "level": 46,
      "experience": 0,
      "display_names": [
        "Wight"
      ],
      "costumes": [
        "Knight"
      ]
    },
    {
      "level": 47,
      "experience": 0,
      "display_names": [
        "Wight"
      ],
      "costumes": [
        "Knight"
      ]
    },
    {
      "level": 48,
      "experience": 0,
      "display_names": [
        "Wight"
      ],
      "costumes": [
        "Knight"
      ]
    },
    {
      "level": 49,
      "experience": 0,
      "display_names": [
        "Wight"
      ],
      "costumes": [
        "Knight"
      ]
    },
    {
      "level": 50,
      "experience": 0,
      "display_names": [
        "Wight"
      ],
      "costumes": [
        "Knight"
      ]
    },
    {
      "level": 51,
      "experience": 0,
      "display_names": [
        "Wight"
      ],
      "costumes": [
        "Knight"
      ]
    },
    {
      "level": 52,
      "experience": 0,
      "display_names": [
        "Wight"
      ],
      "costumes": [
        "Knight"
      ]
    },
    {
      "level": 53,
      "experience": 0,
      "display_names": [
        "Wight"
      ],
      "costumes": [
        "Knight"
      ]
    },
    {
      "level": 54,
      "experience": 0,
      "display_names": [
        "Wight"
      ],
      "costumes": [
        "Knight"
      ]
    }
  ]
}