{
  "name": "Event_Spirits_Lieutenant",
  "gender": "GENDER_MALE",
  "description": "Paranormal investigators have long theorized that ghosts are created by only the most violent deaths. These specimens are certainly angry enough to support that assessment.",
  "group_description": "Spirits",
  "display_class_name": null,
  "character_class_name": "lt_grunt",
  "ai_config": "Default_Melee",
  "commandable_pet": false,
  "power_tags": [
    "Undead"
  ],
  "additional_rewards": [
    "2k9TrickLieutenant"
  ],
  "skill_hp_rewards": [

  ],
  "skill_status_rewards": [

  ],
  "ally": null,
  "gang": null,
  "reward_scale": 1.0,
  "game_exclusion": "None",
  "inactive_state_weapon": null,
  "ignores_combat_mods": false,
  "copy_creator_mods": false,
  "spawn_limit": -1,
  "spawn_limit_mission": -1,
  "ignore_av_to_eb_scaling": false,
  "can_zone": false,
  "custom_badge_stat": null,
  "badge_stat_flags": "DefaultBadgeStat",
  "rank": "VR_LIEUTENANT",
  "power_full_names": [
    "Event.Spectre.Smite",
    "Event.Spectre.Gloom",
    "Event.Spectre.Siphon_Life",
    "Event.Spectre.Resistance",
    "Event.Spectre.Ethereal",
    "Event.Spectre.Fly",
    "Event.Spectre.Fly_fx",
    "Event.TrickOrTreat_Inherent.Resistance"
  ],
  "power_display_names": [
    "Smite",
    "Gloom",
    "Siphon Life",
    "Resistance",
    "Ethereal",
    "Fly",
    "Fly fx",
    "Resistance"
  ],
  "power_levels": [
    0,
    0,
    0,
    0,
    0,
    0,
    0,
    0
  ],
  "powers": [
    {
      "power_category": "Event",
      "power_set": "Spectre",
      "power": "*",
      "level": 0
    },
    {
      "power_category": "Event",
      "power_set": "TrickOrTreat_Inherent",
      "power": "*",
      "level": 0
    }
  ],
  "levels": [
    {
      "level": 1,
      "experience": 0,
      "display_names": [
        "Spirit"
      ],
      "costumes": [
        "Daemon",
        "Spectre"
      ]
    },
    {
      "level": 2,
      "experience": 0,
      "display_names": [
        "Spirit"
      ],
      "costumes": [
        "Daemon",
        "Spectre"
      ]
    },
    {
      "level": 3,
      "experience": 0,
      "display_names": [
        "Spirit"
      ],
      "costumes": [
        "Daemon",
        "Spectre"
      ]
    },
    {
      "level": 4,
      "experience": 0,
      "display_names": [
        "Spirit"
      ],
      "costumes": [
        "Daemon",
        "Spectre"
      ]
    },
    {
      "level": 5,
      "experience": 0,
      "display_names": [
        "Spirit"
      ],
      "costumes": [
        "Daemon",
        "Spectre"
      ]
    },
    {
      "level": 6,
      "experience": 0,
      "display_names": [
        "Spirit"
      ],
      "costumes": [
        "Daemon",
        "Spectre"
      ]
    },
    {
      "level": 7,
      "experience": 0,
      "display_names": [
        "Spirit"
      ],
      "costumes": [
        "Daemon",
        "Spectre"
      ]
    },
    {
      "level": 8,
      "experience": 0,
      "display_names": [
        "Spirit"
      ],
      "costumes": [
        "Daemon",
        "Spectre"
      ]
    },
    {
      "level": 9,
      "experience": 0,
      "display_names": [
        "Spirit"
      ],
      "costumes": [
        "Daemon",
        "Spectre"
      ]
    },
    {
      "level": 10,
      "experience": 0,
      "display_names": [
        "Spirit"
      ],
      "costumes": [
        "Daemon",
        "Spectre"
      ]
    },
    {
      "level": 11,
      "experience": 0,
      "display_names": [
        "Spirit"
      ],
      "costumes": [
        "Daemon",
        "Spectre"
      ]
    },
    {
      "level": 12,
      "experience": 0,
      "display_names": [
        "Spirit"
      ],
      "costumes": [
        "Daemon",
        "Spectre"
      ]
    },
    {
      "level": 13,
      "experience": 0,
      "display_names": [
        "Spirit"
      ],
      "costumes": [
        "Daemon",
        "Spectre"
      ]
    },
    {
      "level": 14,
      "experience": 0,
      "display_names": [
        "Spirit"
      ],
      "costumes": [
        "Daemon",
        "Spectre"
      ]
    },
    {
      "level": 15,
      "experience": 0,
      "display_names": [
        "Spirit"
      ],
      "costumes": [
        "Daemon",
        "Spectre"
      ]
    },
    {
      "level": 16,
      "experience": 0,
      "display_names": [
        "Spirit"
      ],
      "costumes": [
        "Daemon",
        "Spectre"
      ]
    },
    {
      "level": 17,
      "experience": 0,
      "display_names": [
        "Spirit"
      ],
      "costumes": [
        "Daemon",
        "Spectre"
      ]
    },
    {
      "level": 18,
      "experience": 0,
      "display_names": [
        "Spirit"
      ],
      "costumes": [
        "Daemon",
        "Spectre"
      ]
    },
    {
      "level": 19,
      "experience": 0,
      "display_names": [
        "Spirit"
      ],
      "costumes": [
        "Daemon",
        "Spectre"
      ]
    },
    {
      "level": 20,
      "experience": 0,
      "display_names": [
        "Spirit"
      ],
      "costumes": [
        "Daemon",
        "Spectre"
      ]
    },
    {
      "level": 21,
      "experience": 0,
      "display_names": [
        "Spirit"
      ],
      "costumes": [
        "Daemon",
        "Spectre"
      ]
    },
    {
      "level": 22,
      "experience": 0,
      "display_names": [
        "Spirit"
      ],
      "costumes": [
        "Daemon",
        "Spectre"
      ]
    },
    {
      "level": 23,
      "experience": 0,
      "display_names": [
        "Spirit"
      ],
      "costumes": [
        "Daemon",
        "Spectre"
      ]
    },
    {
      "level": 24,
      "experience": 0,
      "display_names": [
        "Spirit"
      ],
      "costumes": [
        "Daemon",
        "Spectre"
      ]
    },
    {
      "level": 25,
      "experience": 0,
      "display_names": [
        "Spirit"
      ],
      "costumes": [
        "Daemon",
        "Spectre"
      ]
    },
    {
      "level": 26,
      "experience": 0,
      "display_names": [
        "Spirit"
      ],
      "costumes": [
        "Daemon",
        "Spectre"
      ]
    },
    {
      "level": 27,
      "experience": 0,
      "display_names": [
        "Spirit"
      ],
      "costumes": [
        "Daemon",
        "Spectre"
      ]
    },
    {
      "level": 28,
      "experience": 0,
      "display_names": [
        "Spirit"
      ],
      "costumes": [
        "Daemon",
        "Spectre"
      ]
    },
    {
      "level": 29,
      "experience": 0,
      "display_names": [
        "Spirit"
      ],
      "costumes": [
        "Daemon",
        "Spectre"
      ]
    },
    {
      "level": 30,
      "experience": 0,
      "display_names": [
        "Spirit"
      ],
      "costumes": [
        "Daemon",
        "Spectre"
      ]
    },
    {
      "level": 31,
      "experience": 0,
      "display_names": [
        "Spirit"
      ],
      "costumes": [
        "Daemon",
        "Spectre"
      ]
    },
    {
      "level": 32,
      "experience": 0,
      "display_names": [
        "Spirit"
      ],
      "costumes": [
        "Daemon",
        "Spectre"
      ]
    },
    {
      "level": 33,
      "experience": 0,
      "display_names": [
        "Spirit"
      ],
      "costumes": [
        "Daemon",
        "Spectre"
      ]
    },
    {
      "level": 34,
      "experience": 0,
      "display_names": [
        "Spirit"
      ],
      "costumes": [
        "Daemon",
        "Spectre"
      ]
    },
    {
      "level": 35,
      "experience": 0,
      "display_names": [
        "Spirit"
      ],
      "costumes": [
        "Daemon",
        "Spectre"
      ]
    },
    {
      "level": 36,
      "experience": 0,
      "display_names": [
        "Spirit"
      ],
      "costumes": [
        "Daemon",
        "Spectre"
      ]
    },
    {
      "level": 37,
      "experience": 0,
      "display_names": [
        "Spirit"
      ],
      "costumes": [
        "Daemon",
        "Spectre"
      ]
    },
    {
      "level": 38,
      "experience": 0,
      "display_names": [
        "Spirit"
      ],
      "costumes": [
        "Daemon",
        "Spectre"
      ]
    },
    {
      "level": 39,
      "experience": 0,
      "display_names": [
        "Spirit"
      ],
      "costumes": [
        "Daemon",
        "Spectre"
      ]
    },
    {
      "level": 40,
      "experience": 0,
      "display_names": [
        "Spirit"
      ],
      "costumes": [
        "Daemon",
        "Spectre"
      ]
    },
    {
      "level": 41,
      "experience": 0,
      "display_names": [
        "Spirit"
      ],
      "costumes": [
        "Daemon",
        "Spectre"
      ]
    },
    {
      "level": 42,
      "experience": 0,
      "display_names": [
        "Spirit"
      ],
      "costumes": [
        "Daemon",
        "Spectre"
      ]
    },
    {
      "level": 43,
      "experience": 0,
      "display_names": [
        "Spirit"
      ],
      "costumes": [
        "Daemon",
        "Spectre"
      ]
    },
    {
      "level": 44,
      "experience": 0,
      "display_names": [
        "Spirit"
      ],
      "costumes": [
        "Daemon",
        "Spectre"
      ]
    },
    {
      "level": 45,
      "experience": 0,
      "display_names": [
        "Spirit"
      ],
      "costumes": [
        "Daemon",
        "Spectre"
      ]
    },
    {
      "level": 46,
      "experience": 0,
      "display_names": [
        "Spirit"
      ],
      "costumes": [
        "Daemon",
        "Spectre"
      ]
    },
    {
      "level": 47,
      "experience": 0,
      "display_names": [
        "Spirit"
      ],
      "costumes": [
        "Daemon",
        "Spectre"
      ]
    },
    {
      "level": 48,
      "experience": 0,
      "display_names": [
        "Spirit"
      ],
      "costumes": [
        "Daemon",
        "Spectre"
      ]
    },
    {
      "level": 49,
      "experience": 0,
      "display_names": [
        "Spirit"
      ],
      "costumes": [
        "Daemon",
        "Spectre"
      ]
    },
    {
      "level": 50,
      "experience": 0,
      "display_names": [
        "Spirit"
      ],
      "costumes": [
        "Daemon",
        "Spectre"
      ]
    },
    {
      "level": 51,
      "experience": 0,
      "display_names": [
        "Spirit"
      ],
      "costumes": [
        "Daemon",
        "Spectre"
      ]
    },
    {
      "level": 52,
      "experience": 0,
      "display_names": [
        "Spirit"
      ],
      "costumes": [
        "Daemon",
        "Spectre"
      ]
    },
    {
      "level": 53,
      "experience": 0,
      "display_names": [
        "Spirit"
      ],
      "costumes": [
        "Daemon",
        "Spectre"
      ]
    },
    {
      "level": 54,
      "experience": 0,
      "display_names": [
        "Spirit"
      ],
      "costumes": [
        "Daemon",
        "Spectre"
      ]
    }
  ]
}