{
  "name": "Event_DADarkFiendSigil",
  "gender": "GENDER_MALE",
  "description": "Horrible fiends gather at this banner with the intent to commit blind acts of violence and cruelty. As long as this banner stands these Dark Fiends will continue to conjure forth these manifestations of the ugliness within humanity.",
  "group_description": "Deadly Apocalypse",
  "display_class_name": "Mystic Banner",
  "character_class_name": "boss_monster",
  "ai_config": "InanimateObject",
  "commandable_pet": false,
  "power_tags": [

  ],
  "additional_rewards": [

  ],
  "skill_hp_rewards": [

  ],
  "skill_status_rewards": [

  ],
  "ally": null,
  "gang": null,
  "reward_scale": 1.0,
  "game_exclusion": "None",
  "inactive_state_weapon": null,
  "ignores_combat_mods": true,
  "copy_creator_mods": false,
  "spawn_limit": 0,
  "spawn_limit_mission": 0,
  "ignore_av_to_eb_scaling": false,
  "can_zone": false,
  "custom_badge_stat": null,
  "badge_stat_flags": "DefaultBadgeStat",
  "rank": "VR_DESTRUCTIBLE",
  "power_full_names": [
    "Event.Glyph_of_Restoration.Glyph_of_Restoration_Stage_1",
    "Event.Glyph_of_Restoration.Glyph_of_Restoration_Stage_2",
    "Event.Glyph_of_Restoration.Glyph_of_Restoration_Stage_3",
    "Event.Glyph_of_Restoration.Glyph_of_Restoration_Stage_4",
    "Event.Glyph_of_Might.Glyph_of_Might_Stage_1",
    "Event.Glyph_of_Might.Glyph_of_Might_Stage_2",
    "Event.Glyph_of_Might.Glyph_of_Might_Stage_3",
    "Event.Glyph_of_Might.Glyph_of_Might_Stage_4",
    "Event.Glyph_of_Resistance.Glyph_of_Resistance_Stage_1",
    "Event.Glyph_of_Resistance.Glyph_of_Resistance_Stage_2",
    "Event.Glyph_of_Resistance.Glyph_of_Resistance_Stage_3",
    "Event.Glyph_of_Resistance.Glyph_of_Resistance_Stage_4",
    "Event.Glyph_of_Defense.Glyph_of_Defense_Stage_1",
    "Event.Glyph_of_Defense.Glyph_of_Defense_Stage_2",
    "Event.Glyph_of_Defense.Glyph_of_Defense_Stage_3",
    "Event.Glyph_of_Defense.Glyph_of_Defense_Stage_4",
    "Event.Sigil_Resistance.Resistance",
    "Event.Sigil_Transparency.Transparency"
  ],
  "power_display_names": [
    "Glyph of Restoration",
    "Glyph of Restoration",
    "Glyph of Restoration",
    "Glyph of Restoration",
    "Glyph of Might",
    "Glyph of Might",
    "Glyph of Might",
    "Glyph of Might",
    "Glyph of Resistance",
    "Glyph of Resistance",
    "Glyph of Resistance",
    "Glyph of Resistance",
    "Glyph of Defense",
    "Glyph of Defense",
    "Glyph of Defense",
    "Glyph of Defense",
    "Resistance",
    "Transparency"
  ],
  "power_levels": [
    0,
    0,
    0,
    0,
    0,
    0,
    0,
    0,
    0,
    0,
    0,
    0,
    0,
    0,
    0,
    0,
    0,
    0
  ],
  "powers": [
    {
      "power_category": "Event",
      "power_set": "Glyph_of_Restoration",
      "power": "*",
      "level": 0
    },
    {
      "power_category": "Event",
      "power_set": "Glyph_of_Might",
      "power": "*",
      "level": 0
    },
    {
      "power_category": "Event",
      "power_set": "Glyph_of_Resistance",
      "power": "*",
      "level": 0
    },
    {
      "power_category": "Event",
      "power_set": "Glyph_of_Defense",
      "power": "*",
      "level": 0
    },
    {
      "power_category": "Event",
      "power_set": "Sigil_Resistance",
      "power": "*",
      "level": 0
    },
    {
      "power_category": "Event",
      "power_set": "Sigil_Transparency",
      "power": "*",
      "level": 0
    }
  ],
  "levels": [
    {
      "level": 30,
      "experience": 0,
      "display_names": [
        "Banner of Fiends"
      ],
      "costumes": [
        "Destructible_Halloween_Sigil_DF"
      ]
    }
  ]
}