{
  "name": "Event_DADarkFiend_RedCapMinion2",
  "gender": "GENDER_MALE",
  "description": "The depraved ugliness festering in the underbelly of humanity is called forth at The Banner of Fiends. These Dark Fiends are a physical manifestation of pure malice, seeking calculated cruelty and malevolence, just because they can.",
  "group_description": "Dark Fiends",
  "display_class_name": null,
  "character_class_name": "minion_grunt",
  "ai_config": "Event_Melee",
  "commandable_pet": false,
  "power_tags": [
    "Fey"
  ],
  "additional_rewards": [

  ],
  "skill_hp_rewards": [

  ],
  "skill_status_rewards": [

  ],
  "ally": null,
  "gang": null,
  "reward_scale": 0.5,
  "game_exclusion": "None",
  "inactive_state_weapon": null,
  "ignores_combat_mods": true,
  "copy_creator_mods": false,
  "spawn_limit": 0,
  "spawn_limit_mission": 0,
  "ignore_av_to_eb_scaling": false,
  "can_zone": false,
  "custom_badge_stat": null,
  "badge_stat_flags": "DefaultBadgeStat",
  "rank": "VR_MINION",
  "power_full_names": [
    "RedCaps.Minion_Resists.Resistance",
    "RedCaps.RedCap_Melee2.Lunge",
    "RedCaps.RedCap_Melee2.Jump_Stab",
    "RedCaps.RedCap_Ranged_Quick.Snap_Shot"
  ],
  "power_display_names": [
    "Resistance",
    "Lunge",
    "Jump Stab",
    "Snap Shot"
  ],
  "power_levels": [
    0,
    0,
    0,
    0
  ],
  "powers": [
    {
      "power_category": "RedCaps",
      "power_set": "Minion_Resists",
      "power": "*",
      "level": 0
    },
    {
      "power_category": "RedCaps",
      "power_set": "RedCap_Melee2",
      "power": "*",
      "level": 0
    },
    {
      "power_category": "RedCaps",
      "power_set": "RedCap_Ranged_Quick",
      "power": "*",
      "level": 0
    }
  ],
  "levels": [
    {
      "level": 30,
      "experience": 0,
      "display_names": [
        "Lesser Fiend"
      ],
      "costumes": [
        "Croatoa_Redcap_Minion_02"
      ]
    }
  ]
}