{
  "name": "Event_DADarkFiend_VampireMinion",
  "gender": "GENDER_MALE",
  "description": "The depraved ugliness festering in the underbelly of humanity is called forth at The Banner of Fiends. These Dark Fiends are a physical manifestation of pure malice, seeking calculated cruelty and malevolence, just because they can.",
  "group_description": "Dark Fiends",
  "display_class_name": null,
  "character_class_name": "minion_grunt",
  "ai_config": "Event_Ranged",
  "commandable_pet": false,
  "power_tags": [
    "HumanSkeleton",
    "Undead"
  ],
  "additional_rewards": [

  ],
  "skill_hp_rewards": [

  ],
  "skill_status_rewards": [

  ],
  "ally": null,
  "gang": null,
  "reward_scale": 0.5,
  "game_exclusion": "None",
  "inactive_state_weapon": null,
  "ignores_combat_mods": true,
  "copy_creator_mods": false,
  "spawn_limit": 0,
  "spawn_limit_mission": 0,
  "ignore_av_to_eb_scaling": false,
  "can_zone": false,
  "custom_badge_stat": null,
  "badge_stat_flags": "DefaultBadgeStat",
  "rank": "VR_MINION",
  "power_full_names": [
    "Council.Vampyri.Pummel",
    "Council.Vampyri.Shadow_Punch",
    "Council.Vampyri.Gloom",
    "Council.Vampyri_Life_Drain.Siphon_Life",
    "Council.Vampyri_Life_Drain.Life_Drain",
    "Council.Vampyri_Defense.Fast_Healing"
  ],
  "power_display_names": [
    "Pummel",
    "Shadow Punch",
    "Gloom",
    "Siphon Life",
    "Life Drain",
    "Fast Healing"
  ],
  "power_levels": [
    0,
    0,
    0,
    0,
    0,
    0
  ],
  "powers": [
    {
      "power_category": "Council",
      "power_set": "Vampyri",
      "power": "*",
      "level": 0
    },
    {
      "power_category": "Council",
      "power_set": "Vampyri_Life_Drain",
      "power": "*",
      "level": 0
    },
    {
      "power_category": "Council",
      "power_set": "Vampyri_Defense",
      "power": "*",
      "level": 0
    }
  ],
  "levels": [
    {
      "level": 30,
      "experience": 0,
      "display_names": [
        "Lesser Fiend"
      ],
      "costumes": [
        "Council_Vampyri_02"
      ]
    }
  ]
}