{
  "name": "Event_Halloween_11_Trial_Boss",
  "gender": "GENDER_MALE",
  "description": "The dead are restless and are walking the earth. They hunger for your flesh!",
  "group_description": "Dr. Kane's Horrors",
  "display_class_name": null,
  "character_class_name": "boss_grunt",
  "ai_config": "Zombie_Boss",
  "commandable_pet": false,
  "power_tags": [
    "Undead"
  ],
  "additional_rewards": [

  ],
  "skill_hp_rewards": [

  ],
  "skill_status_rewards": [

  ],
  "ally": null,
  "gang": null,
  "reward_scale": 0.25,
  "game_exclusion": "None",
  "inactive_state_weapon": null,
  "ignores_combat_mods": true,
  "copy_creator_mods": false,
  "spawn_limit": 0,
  "spawn_limit_mission": 0,
  "ignore_av_to_eb_scaling": false,
  "can_zone": false,
  "custom_badge_stat": null,
  "badge_stat_flags": "DefaultBadgeStat",
  "rank": "VR_BOSS",
  "power_full_names": [
    "Zombies.Zombie.Zombie_Brawl",
    "Zombies.Zombie.Projectile_Vomit",
    "Zombies.Zombie_Boss.Chill_of_the_Night",
    "Zombies.Zombie_Boss.Resistance"
  ],
  "power_display_names": [
    "Zombie Brawl",
    "Projectile Vomit",
    "Chill of the Night",
    "Resistance"
  ],
  "power_levels": [
    0,
    0,
    0,
    0
  ],
  "powers": [
    {
      "power_category": "Zombies",
      "power_set": "Zombie",
      "power": "*",
      "level": 0
    },
    {
      "power_category": "Zombies",
      "power_set": "Zombie_Boss",
      "power": "*",
      "level": 0
    }
  ],
  "levels": [
    {
      "level": 29,
      "experience": 0,
      "display_names": [
        "Slavering Reanimated Corpse"
      ],
      "costumes": [
        "Zombie_Invasion_Minion_01"
      ]
    }
  ]
}