{
  "name": "Event_Minigun",
  "gender": "GENDER_MALE",
  "description": "Longbow is a hard-hitting division of Freedom Corps dedicated to stopping evil, and Arachnos in particular.",
  "group_description": "Longbow",
  "display_class_name": null,
  "character_class_name": "minion_grunt",
  "ai_config": "Default_Ranged",
  "commandable_pet": false,
  "power_tags": [
    "HumanSkeleton",
    "Human"
  ],
  "additional_rewards": [

  ],
  "skill_hp_rewards": [

  ],
  "skill_status_rewards": [

  ],
  "ally": "Hero",
  "gang": null,
  "reward_scale": 1.1,
  "game_exclusion": "None",
  "inactive_state_weapon": null,
  "ignores_combat_mods": true,
  "copy_creator_mods": false,
  "spawn_limit": -1,
  "spawn_limit_mission": -1,
  "ignore_av_to_eb_scaling": false,
  "can_zone": false,
  "custom_badge_stat": null,
  "badge_stat_flags": "DefaultBadgeStat",
  "rank": "VR_MINION",
  "power_full_names": [
    "V_FreedomCorps.Minion_Minigun.Frag_Grenade",
    "V_FreedomCorps.Minion_Minigun.Chain_gun_Short_Burst",
    "V_FreedomCorps.Minion_Minigun.Chain_gun_Heavy_Burst",
    "V_FreedomCorps.Minion_Minigun.Rifle_Butt",
    "V_FreedomCorps.Resistance.Tech_Armor"
  ],
  "power_display_names": [
    "Frag Grenade",
    "Chain gun Short Burst",
    "Chain gun Heavy Burst",
    "Rifle Butt",
    "Tech Armor"
  ],
  "power_levels": [
    0,
    0,
    0,
    0,
    0
  ],
  "powers": [
    {
      "power_category": "V_FreedomCorps",
      "power_set": "Minion_Minigun",
      "power": "Frag_Grenade",
      "level": 0
    },
    {
      "power_category": "V_FreedomCorps",
      "power_set": "Minion_Minigun",
      "power": "Chain_gun_Short_Burst",
      "level": 0
    },
    {
      "power_category": "V_FreedomCorps",
      "power_set": "Minion_Minigun",
      "power": "Chain_gun_Heavy_Burst",
      "level": 0
    },
    {
      "power_category": "V_FreedomCorps",
      "power_set": "Minion_Minigun",
      "power": "Rifle_Butt",
      "level": 0
    },
    {
      "power_category": "V_FreedomCorps",
      "power_set": "Resistance",
      "power": "*",
      "level": 0
    }
  ],
  "levels": [
    {
      "level": 1,
      "experience": 0,
      "display_names": [
        "Longbow Minigun"
      ],
      "costumes": [
        "Longbow_Male_Group_01_Minion_01",
        "Longbow_Male_Group_01_Minion_02",
        "Longbow_Male_Group_01_Minion_03",
        "Longbow_Male_Group_01_Minion_04",
        "Longbow_Male_Group_01_Minion_05",
        "Longbow_Female_Group_01_Minion_01",
        "Longbow_Female_Group_01_Minion_02",
        "Longbow_Female_Group_01_Minion_03",
        "Longbow_Female_Group_01_Minion_04",
        "Longbow_Female_Group_01_Minion_05"
      ]
    },
    {
      "level": 2,
      "experience": 0,
      "display_names": [
        "Longbow Minigun"
      ],
      "costumes": [
        "Longbow_Male_Group_01_Minion_01",
        "Longbow_Male_Group_01_Minion_02",
        "Longbow_Male_Group_01_Minion_03",
        "Longbow_Male_Group_01_Minion_04",
        "Longbow_Male_Group_01_Minion_05",
        "Longbow_Female_Group_01_Minion_01",
        "Longbow_Female_Group_01_Minion_02",
        "Longbow_Female_Group_01_Minion_03",
        "Longbow_Female_Group_01_Minion_04",
        "Longbow_Female_Group_01_Minion_05"
      ]
    },
    {
      "level": 3,
      "experience": 0,
      "display_names": [
        "Longbow Minigun"
      ],
      "costumes": [
        "Longbow_Male_Group_01_Minion_01",
        "Longbow_Male_Group_01_Minion_02",
        "Longbow_Male_Group_01_Minion_03",
        "Longbow_Male_Group_01_Minion_04",
        "Longbow_Male_Group_01_Minion_05",
        "Longbow_Female_Group_01_Minion_01",
        "Longbow_Female_Group_01_Minion_02",
        "Longbow_Female_Group_01_Minion_03",
        "Longbow_Female_Group_01_Minion_04",
        "Longbow_Female_Group_01_Minion_05"
      ]
    },
    {
      "level": 4,
      "experience": 0,
      "display_names": [
        "Longbow Minigun"
      ],
      "costumes": [
        "Longbow_Male_Group_01_Minion_01",
        "Longbow_Male_Group_01_Minion_02",
        "Longbow_Male_Group_01_Minion_03",
        "Longbow_Male_Group_01_Minion_04",
        "Longbow_Male_Group_01_Minion_05",
        "Longbow_Female_Group_01_Minion_01",
        "Longbow_Female_Group_01_Minion_02",
        "Longbow_Female_Group_01_Minion_03",
        "Longbow_Female_Group_01_Minion_04",
        "Longbow_Female_Group_01_Minion_05"
      ]
    },
    {
      "level": 5,
      "experience": 0,
      "display_names": [
        "Longbow Minigun"
      ],
      "costumes": [
        "Longbow_Male_Group_01_Minion_01",
        "Longbow_Male_Group_01_Minion_02",
        "Longbow_Male_Group_01_Minion_03",
        "Longbow_Male_Group_01_Minion_04",
        "Longbow_Male_Group_01_Minion_05",
        "Longbow_Female_Group_01_Minion_01",
        "Longbow_Female_Group_01_Minion_02",
        "Longbow_Female_Group_01_Minion_03",
        "Longbow_Female_Group_01_Minion_04",
        "Longbow_Female_Group_01_Minion_05"
      ]
    },
    {
      "level": 6,
      "experience": 0,
      "display_names": [
        "Longbow Minigun"
      ],
      "costumes": [
        "Longbow_Male_Group_01_Minion_01",
        "Longbow_Male_Group_01_Minion_02",
        "Longbow_Male_Group_01_Minion_03",
        "Longbow_Male_Group_01_Minion_04",
        "Longbow_Male_Group_01_Minion_05",
        "Longbow_Female_Group_01_Minion_01",
        "Longbow_Female_Group_01_Minion_02",
        "Longbow_Female_Group_01_Minion_03",
        "Longbow_Female_Group_01_Minion_04",
        "Longbow_Female_Group_01_Minion_05"
      ]
    },
    {
      "level": 7,
      "experience": 0,
      "display_names": [
        "Longbow Minigun"
      ],
      "costumes": [
        "Longbow_Male_Group_01_Minion_01",
        "Longbow_Male_Group_01_Minion_02",
        "Longbow_Male_Group_01_Minion_03",
        "Longbow_Male_Group_01_Minion_04",
        "Longbow_Male_Group_01_Minion_05",
        "Longbow_Female_Group_01_Minion_01",
        "Longbow_Female_Group_01_Minion_02",
        "Longbow_Female_Group_01_Minion_03",
        "Longbow_Female_Group_01_Minion_04",
        "Longbow_Female_Group_01_Minion_05"
      ]
    },
    {
      "level": 8,
      "experience": 0,
      "display_names": [
        "Longbow Minigun"
      ],
      "costumes": [
        "Longbow_Male_Group_01_Minion_01",
        "Longbow_Male_Group_01_Minion_02",
        "Longbow_Male_Group_01_Minion_03",
        "Longbow_Male_Group_01_Minion_04",
        "Longbow_Male_Group_01_Minion_05",
        "Longbow_Female_Group_01_Minion_01",
        "Longbow_Female_Group_01_Minion_02",
        "Longbow_Female_Group_01_Minion_03",
        "Longbow_Female_Group_01_Minion_04",
        "Longbow_Female_Group_01_Minion_05"
      ]
    },
    {
      "level": 9,
      "experience": 0,
      "display_names": [
        "Longbow Minigun"
      ],
      "costumes": [
        "Longbow_Male_Group_01_Minion_01",
        "Longbow_Male_Group_01_Minion_02",
        "Longbow_Male_Group_01_Minion_03",
        "Longbow_Male_Group_01_Minion_04",
        "Longbow_Male_Group_01_Minion_05",
        "Longbow_Female_Group_01_Minion_01",
        "Longbow_Female_Group_01_Minion_02",
        "Longbow_Female_Group_01_Minion_03",
        "Longbow_Female_Group_01_Minion_04",
        "Longbow_Female_Group_01_Minion_05"
      ]
    },
    {
      "level": 10,
      "experience": 0,
      "display_names": [
        "Longbow Minigun"
      ],
      "costumes": [
        "Longbow_Male_Group_01_Minion_01",
        "Longbow_Male_Group_01_Minion_02",
        "Longbow_Male_Group_01_Minion_03",
        "Longbow_Male_Group_01_Minion_04",
        "Longbow_Male_Group_01_Minion_05",
        "Longbow_Female_Group_01_Minion_01",
        "Longbow_Female_Group_01_Minion_02",
        "Longbow_Female_Group_01_Minion_03",
        "Longbow_Female_Group_01_Minion_04",
        "Longbow_Female_Group_01_Minion_05"
      ]
    },
    {
      "level": 11,
      "experience": 0,
      "display_names": [
        "Longbow Minigun"
      ],
      "costumes": [
        "Longbow_Male_Group_01_Minion_01",
        "Longbow_Male_Group_01_Minion_02",
        "Longbow_Male_Group_01_Minion_03",
        "Longbow_Male_Group_01_Minion_04",
        "Longbow_Male_Group_01_Minion_05",
        "Longbow_Female_Group_01_Minion_01",
        "Longbow_Female_Group_01_Minion_02",
        "Longbow_Female_Group_01_Minion_03",
        "Longbow_Female_Group_01_Minion_04",
        "Longbow_Female_Group_01_Minion_05"
      ]
    },
    {
      "level": 12,
      "experience": 0,
      "display_names": [
        "Longbow Minigun"
      ],
      "costumes": [
        "Longbow_Male_Group_01_Minion_01",
        "Longbow_Male_Group_01_Minion_02",
        "Longbow_Male_Group_01_Minion_03",
        "Longbow_Male_Group_01_Minion_04",
        "Longbow_Male_Group_01_Minion_05",
        "Longbow_Female_Group_01_Minion_01",
        "Longbow_Female_Group_01_Minion_02",
        "Longbow_Female_Group_01_Minion_03",
        "Longbow_Female_Group_01_Minion_04",
        "Longbow_Female_Group_01_Minion_05"
      ]
    },
    {
      "level": 13,
      "experience": 0,
      "display_names": [
        "Longbow Minigun"
      ],
      "costumes": [
        "Longbow_Male_Group_01_Minion_01",
        "Longbow_Male_Group_01_Minion_02",
        "Longbow_Male_Group_01_Minion_03",
        "Longbow_Male_Group_01_Minion_04",
        "Longbow_Male_Group_01_Minion_05",
        "Longbow_Female_Group_01_Minion_01",
        "Longbow_Female_Group_01_Minion_02",
        "Longbow_Female_Group_01_Minion_03",
        "Longbow_Female_Group_01_Minion_04",
        "Longbow_Female_Group_01_Minion_05"
      ]
    },
    {
      "level": 14,
      "experience": 0,
      "display_names": [
        "Longbow Minigun"
      ],
      "costumes": [
        "Longbow_Male_Group_01_Minion_01",
        "Longbow_Male_Group_01_Minion_02",
        "Longbow_Male_Group_01_Minion_03",
        "Longbow_Male_Group_01_Minion_04",
        "Longbow_Male_Group_01_Minion_05",
        "Longbow_Female_Group_01_Minion_01",
        "Longbow_Female_Group_01_Minion_02",
        "Longbow_Female_Group_01_Minion_03",
        "Longbow_Female_Group_01_Minion_04",
        "Longbow_Female_Group_01_Minion_05"
      ]
    },
    {
      "level": 15,
      "experience": 0,
      "display_names": [
        "Longbow Minigun"
      ],
      "costumes": [
        "Longbow_Male_Group_01_Minion_01",
        "Longbow_Male_Group_01_Minion_02",
        "Longbow_Male_Group_01_Minion_03",
        "Longbow_Male_Group_01_Minion_04",
        "Longbow_Male_Group_01_Minion_05",
        "Longbow_Female_Group_01_Minion_01",
        "Longbow_Female_Group_01_Minion_02",
        "Longbow_Female_Group_01_Minion_03",
        "Longbow_Female_Group_01_Minion_04",
        "Longbow_Female_Group_01_Minion_05"
      ]
    },
    {
      "level": 16,
      "experience": 0,
      "display_names": [
        "Longbow Minigun"
      ],
      "costumes": [
        "Longbow_Male_Group_01_Minion_01",
        "Longbow_Male_Group_01_Minion_02",
        "Longbow_Male_Group_01_Minion_03",
        "Longbow_Male_Group_01_Minion_04",
        "Longbow_Male_Group_01_Minion_05",
        "Longbow_Female_Group_01_Minion_01",
        "Longbow_Female_Group_01_Minion_02",
        "Longbow_Female_Group_01_Minion_03",
        "Longbow_Female_Group_01_Minion_04",
        "Longbow_Female_Group_01_Minion_05"
      ]
    },
    {
      "level": 17,
      "experience": 0,
      "display_names": [
        "Longbow Minigun"
      ],
      "costumes": [
        "Longbow_Male_Group_01_Minion_01",
        "Longbow_Male_Group_01_Minion_02",
        "Longbow_Male_Group_01_Minion_03",
        "Longbow_Male_Group_01_Minion_04",
        "Longbow_Male_Group_01_Minion_05",
        "Longbow_Female_Group_01_Minion_01",
        "Longbow_Female_Group_01_Minion_02",
        "Longbow_Female_Group_01_Minion_03",
        "Longbow_Female_Group_01_Minion_04",
        "Longbow_Female_Group_01_Minion_05"
      ]
    },
    {
      "level": 18,
      "experience": 0,
      "display_names": [
        "Longbow Minigun"
      ],
      "costumes": [
        "Longbow_Male_Group_01_Minion_01",
        "Longbow_Male_Group_01_Minion_02",
        "Longbow_Male_Group_01_Minion_03",
        "Longbow_Male_Group_01_Minion_04",
        "Longbow_Male_Group_01_Minion_05",
        "Longbow_Female_Group_01_Minion_01",
        "Longbow_Female_Group_01_Minion_02",
        "Longbow_Female_Group_01_Minion_03",
        "Longbow_Female_Group_01_Minion_04",
        "Longbow_Female_Group_01_Minion_05"
      ]
    },
    {
      "level": 19,
      "experience": 0,
      "display_names": [
        "Longbow Minigun"
      ],
      "costumes": [
        "Longbow_Male_Group_01_Minion_01",
        "Longbow_Male_Group_01_Minion_02",
        "Longbow_Male_Group_01_Minion_03",
        "Longbow_Male_Group_01_Minion_04",
        "Longbow_Male_Group_01_Minion_05",
        "Longbow_Female_Group_01_Minion_01",
        "Longbow_Female_Group_01_Minion_02",
        "Longbow_Female_Group_01_Minion_03",
        "Longbow_Female_Group_01_Minion_04",
        "Longbow_Female_Group_01_Minion_05"
      ]
    },
    {
      "level": 20,
      "experience": 0,
      "display_names": [
        "Longbow Minigun"
      ],
      "costumes": [
        "Longbow_Male_Group_01_Minion_01",
        "Longbow_Male_Group_01_Minion_02",
        "Longbow_Male_Group_01_Minion_03",
        "Longbow_Male_Group_01_Minion_04",
        "Longbow_Male_Group_01_Minion_05",
        "Longbow_Female_Group_01_Minion_01",
        "Longbow_Female_Group_01_Minion_02",
        "Longbow_Female_Group_01_Minion_03",
        "Longbow_Female_Group_01_Minion_04",
        "Longbow_Female_Group_01_Minion_05"
      ]
    },
    {
      "level": 21,
      "experience": 0,
      "display_names": [
        "Longbow Minigun"
      ],
      "costumes": [
        "Longbow_Male_Group_01_Minion_01",
        "Longbow_Male_Group_01_Minion_02",
        "Longbow_Male_Group_01_Minion_03",
        "Longbow_Male_Group_01_Minion_04",
        "Longbow_Male_Group_01_Minion_05",
        "Longbow_Female_Group_01_Minion_01",
        "Longbow_Female_Group_01_Minion_02",
        "Longbow_Female_Group_01_Minion_03",
        "Longbow_Female_Group_01_Minion_04",
        "Longbow_Female_Group_01_Minion_05"
      ]
    },
    {
      "level": 22,
      "experience": 0,
      "display_names": [
        "Longbow Minigun"
      ],
      "costumes": [
        "Longbow_Male_Group_01_Minion_01",
        "Longbow_Male_Group_01_Minion_02",
        "Longbow_Male_Group_01_Minion_03",
        "Longbow_Male_Group_01_Minion_04",
        "Longbow_Male_Group_01_Minion_05",
        "Longbow_Female_Group_01_Minion_01",
        "Longbow_Female_Group_01_Minion_02",
        "Longbow_Female_Group_01_Minion_03",
        "Longbow_Female_Group_01_Minion_04",
        "Longbow_Female_Group_01_Minion_05"
      ]
    },
    {
      "level": 23,
      "experience": 0,
      "display_names": [
        "Longbow Minigun"
      ],
      "costumes": [
        "Longbow_Male_Group_01_Minion_01",
        "Longbow_Male_Group_01_Minion_02",
        "Longbow_Male_Group_01_Minion_03",
        "Longbow_Male_Group_01_Minion_04",
        "Longbow_Male_Group_01_Minion_05",
        "Longbow_Female_Group_01_Minion_01",
        "Longbow_Female_Group_01_Minion_02",
        "Longbow_Female_Group_01_Minion_03",
        "Longbow_Female_Group_01_Minion_04",
        "Longbow_Female_Group_01_Minion_05"
      ]
    },
    {
      "level": 24,
      "experience": 0,
      "display_names": [
        "Longbow Minigun"
      ],
      "costumes": [
        "Longbow_Male_Group_01_Minion_01",
        "Longbow_Male_Group_01_Minion_02",
        "Longbow_Male_Group_01_Minion_03",
        "Longbow_Male_Group_01_Minion_04",
        "Longbow_Male_Group_01_Minion_05",
        "Longbow_Female_Group_01_Minion_01",
        "Longbow_Female_Group_01_Minion_02",
        "Longbow_Female_Group_01_Minion_03",
        "Longbow_Female_Group_01_Minion_04",
        "Longbow_Female_Group_01_Minion_05"
      ]
    },
    {
      "level": 25,
      "experience": 0,
      "display_names": [
        "Longbow Minigun"
      ],
      "costumes": [
        "Longbow_Male_Group_01_Minion_01",
        "Longbow_Male_Group_01_Minion_02",
        "Longbow_Male_Group_01_Minion_03",
        "Longbow_Male_Group_01_Minion_04",
        "Longbow_Male_Group_01_Minion_05",
        "Longbow_Female_Group_01_Minion_01",
        "Longbow_Female_Group_01_Minion_02",
        "Longbow_Female_Group_01_Minion_03",
        "Longbow_Female_Group_01_Minion_04",
        "Longbow_Female_Group_01_Minion_05"
      ]
    },
    {
      "level": 26,
      "experience": 0,
      "display_names": [
        "Longbow Minigun"
      ],
      "costumes": [
        "Longbow_Male_Group_01_Minion_01",
        "Longbow_Male_Group_01_Minion_02",
        "Longbow_Male_Group_01_Minion_03",
        "Longbow_Male_Group_01_Minion_04",
        "Longbow_Male_Group_01_Minion_05",
        "Longbow_Female_Group_01_Minion_01",
        "Longbow_Female_Group_01_Minion_02",
        "Longbow_Female_Group_01_Minion_03",
        "Longbow_Female_Group_01_Minion_04",
        "Longbow_Female_Group_01_Minion_05"
      ]
    },
    {
      "level": 27,
      "experience": 0,
      "display_names": [
        "Longbow Minigun"
      ],
      "costumes": [
        "Longbow_Male_Group_01_Minion_01",
        "Longbow_Male_Group_01_Minion_02",
        "Longbow_Male_Group_01_Minion_03",
        "Longbow_Male_Group_01_Minion_04",
        "Longbow_Male_Group_01_Minion_05",
        "Longbow_Female_Group_01_Minion_01",
        "Longbow_Female_Group_01_Minion_02",
        "Longbow_Female_Group_01_Minion_03",
        "Longbow_Female_Group_01_Minion_04",
        "Longbow_Female_Group_01_Minion_05"
      ]
    },
    {
      "level": 28,
      "experience": 0,
      "display_names": [
        "Longbow Minigun"
      ],
      "costumes": [
        "Longbow_Male_Group_01_Minion_01",
        "Longbow_Male_Group_01_Minion_02",
        "Longbow_Male_Group_01_Minion_03",
        "Longbow_Male_Group_01_Minion_04",
        "Longbow_Male_Group_01_Minion_05",
        "Longbow_Female_Group_01_Minion_01",
        "Longbow_Female_Group_01_Minion_02",
        "Longbow_Female_Group_01_Minion_03",
        "Longbow_Female_Group_01_Minion_04",
        "Longbow_Female_Group_01_Minion_05"
      ]
    },
    {
      "level": 29,
      "experience": 0,
      "display_names": [
        "Longbow Minigun"
      ],
      "costumes": [
        "Longbow_Male_Group_01_Minion_01",
        "Longbow_Male_Group_01_Minion_02",
        "Longbow_Male_Group_01_Minion_03",
        "Longbow_Male_Group_01_Minion_04",
        "Longbow_Male_Group_01_Minion_05",
        "Longbow_Female_Group_01_Minion_01",
        "Longbow_Female_Group_01_Minion_02",
        "Longbow_Female_Group_01_Minion_03",
        "Longbow_Female_Group_01_Minion_04",
        "Longbow_Female_Group_01_Minion_05"
      ]
    },
    {
      "level": 30,
      "experience": 0,
      "display_names": [
        "Longbow Minigun"
      ],
      "costumes": [
        "Longbow_Male_Group_01_Minion_01",
        "Longbow_Male_Group_01_Minion_02",
        "Longbow_Male_Group_01_Minion_03",
        "Longbow_Male_Group_01_Minion_04",
        "Longbow_Male_Group_01_Minion_05",
        "Longbow_Female_Group_01_Minion_01",
        "Longbow_Female_Group_01_Minion_02",
        "Longbow_Female_Group_01_Minion_03",
        "Longbow_Female_Group_01_Minion_04",
        "Longbow_Female_Group_01_Minion_05"
      ]
    },
    {
      "level": 31,
      "experience": 0,
      "display_names": [
        "Longbow Minigun"
      ],
      "costumes": [
        "Longbow_Male_Group_01_Minion_01",
        "Longbow_Male_Group_01_Minion_02",
        "Longbow_Male_Group_01_Minion_03",
        "Longbow_Male_Group_01_Minion_04",
        "Longbow_Male_Group_01_Minion_05",
        "Longbow_Female_Group_01_Minion_01",
        "Longbow_Female_Group_01_Minion_02",
        "Longbow_Female_Group_01_Minion_03",
        "Longbow_Female_Group_01_Minion_04",
        "Longbow_Female_Group_01_Minion_05"
      ]
    },
    {
      "level": 32,
      "experience": 0,
      "display_names": [
        "Longbow Minigun"
      ],
      "costumes": [
        "Longbow_Male_Group_01_Minion_01",
        "Longbow_Male_Group_01_Minion_02",
        "Longbow_Male_Group_01_Minion_03",
        "Longbow_Male_Group_01_Minion_04",
        "Longbow_Male_Group_01_Minion_05",
        "Longbow_Female_Group_01_Minion_01",
        "Longbow_Female_Group_01_Minion_02",
        "Longbow_Female_Group_01_Minion_03",
        "Longbow_Female_Group_01_Minion_04",
        "Longbow_Female_Group_01_Minion_05"
      ]
    },
    {
      "level": 33,
      "experience": 0,
      "display_names": [
        "Longbow Minigun"
      ],
      "costumes": [
        "Longbow_Male_Group_01_Minion_01",
        "Longbow_Male_Group_01_Minion_02",
        "Longbow_Male_Group_01_Minion_03",
        "Longbow_Male_Group_01_Minion_04",
        "Longbow_Male_Group_01_Minion_05",
        "Longbow_Female_Group_01_Minion_01",
        "Longbow_Female_Group_01_Minion_02",
        "Longbow_Female_Group_01_Minion_03",
        "Longbow_Female_Group_01_Minion_04",
        "Longbow_Female_Group_01_Minion_05"
      ]
    },
    {
      "level": 34,
      "experience": 0,
      "display_names": [
        "Longbow Minigun"
      ],
      "costumes": [
        "Longbow_Male_Group_01_Minion_01",
        "Longbow_Male_Group_01_Minion_02",
        "Longbow_Male_Group_01_Minion_03",
        "Longbow_Male_Group_01_Minion_04",
        "Longbow_Male_Group_01_Minion_05",
        "Longbow_Female_Group_01_Minion_01",
        "Longbow_Female_Group_01_Minion_02",
        "Longbow_Female_Group_01_Minion_03",
        "Longbow_Female_Group_01_Minion_04",
        "Longbow_Female_Group_01_Minion_05"
      ]
    },
    {
      "level": 35,
      "experience": 0,
      "display_names": [
        "Longbow Minigun"
      ],
      "costumes": [
        "Longbow_Male_Group_01_Minion_01",
        "Longbow_Male_Group_01_Minion_02",
        "Longbow_Male_Group_01_Minion_03",
        "Longbow_Male_Group_01_Minion_04",
        "Longbow_Male_Group_01_Minion_05",
        "Longbow_Female_Group_01_Minion_01",
        "Longbow_Female_Group_01_Minion_02",
        "Longbow_Female_Group_01_Minion_03",
        "Longbow_Female_Group_01_Minion_04",
        "Longbow_Female_Group_01_Minion_05"
      ]
    },
    {
      "level": 36,
      "experience": 0,
      "display_names": [
        "Longbow Minigun"
      ],
      "costumes": [
        "Longbow_Male_Group_01_Minion_01",
        "Longbow_Male_Group_01_Minion_02",
        "Longbow_Male_Group_01_Minion_03",
        "Longbow_Male_Group_01_Minion_04",
        "Longbow_Male_Group_01_Minion_05",
        "Longbow_Female_Group_01_Minion_01",
        "Longbow_Female_Group_01_Minion_02",
        "Longbow_Female_Group_01_Minion_03",
        "Longbow_Female_Group_01_Minion_04",
        "Longbow_Female_Group_01_Minion_05"
      ]
    },
    {
      "level": 37,
      "experience": 0,
      "display_names": [
        "Longbow Minigun"
      ],
      "costumes": [
        "Longbow_Male_Group_01_Minion_01",
        "Longbow_Male_Group_01_Minion_02",
        "Longbow_Male_Group_01_Minion_03",
        "Longbow_Male_Group_01_Minion_04",
        "Longbow_Male_Group_01_Minion_05",
        "Longbow_Female_Group_01_Minion_01",
        "Longbow_Female_Group_01_Minion_02",
        "Longbow_Female_Group_01_Minion_03",
        "Longbow_Female_Group_01_Minion_04",
        "Longbow_Female_Group_01_Minion_05"
      ]
    },
    {
      "level": 38,
      "experience": 0,
      "display_names": [
        "Longbow Minigun"
      ],
      "costumes": [
        "Longbow_Male_Group_01_Minion_01",
        "Longbow_Male_Group_01_Minion_02",
        "Longbow_Male_Group_01_Minion_03",
        "Longbow_Male_Group_01_Minion_04",
        "Longbow_Male_Group_01_Minion_05",
        "Longbow_Female_Group_01_Minion_01",
        "Longbow_Female_Group_01_Minion_02",
        "Longbow_Female_Group_01_Minion_03",
        "Longbow_Female_Group_01_Minion_04",
        "Longbow_Female_Group_01_Minion_05"
      ]
    },
    {
      "level": 39,
      "experience": 0,
      "display_names": [
        "Longbow Minigun"
      ],
      "costumes": [
        "Longbow_Male_Group_01_Minion_01",
        "Longbow_Male_Group_01_Minion_02",
        "Longbow_Male_Group_01_Minion_03",
        "Longbow_Male_Group_01_Minion_04",
        "Longbow_Male_Group_01_Minion_05",
        "Longbow_Female_Group_01_Minion_01",
        "Longbow_Female_Group_01_Minion_02",
        "Longbow_Female_Group_01_Minion_03",
        "Longbow_Female_Group_01_Minion_04",
        "Longbow_Female_Group_01_Minion_05"
      ]
    },
    {
      "level": 40,
      "experience": 0,
      "display_names": [
        "Longbow Minigun"
      ],
      "costumes": [
        "Longbow_Male_Group_01_Minion_01",
        "Longbow_Male_Group_01_Minion_02",
        "Longbow_Male_Group_01_Minion_03",
        "Longbow_Male_Group_01_Minion_04",
        "Longbow_Male_Group_01_Minion_05",
        "Longbow_Female_Group_01_Minion_01",
        "Longbow_Female_Group_01_Minion_02",
        "Longbow_Female_Group_01_Minion_03",
        "Longbow_Female_Group_01_Minion_04",
        "Longbow_Female_Group_01_Minion_05"
      ]
    },
    {
      "level": 41,
      "experience": 0,
      "display_names": [
        "Longbow Minigun"
      ],
      "costumes": [
        "Longbow_Male_Group_01_Minion_01",
        "Longbow_Male_Group_01_Minion_02",
        "Longbow_Male_Group_01_Minion_03",
        "Longbow_Male_Group_01_Minion_04",
        "Longbow_Male_Group_01_Minion_05",
        "Longbow_Female_Group_01_Minion_01",
        "Longbow_Female_Group_01_Minion_02",
        "Longbow_Female_Group_01_Minion_03",
        "Longbow_Female_Group_01_Minion_04",
        "Longbow_Female_Group_01_Minion_05"
      ]
    },
    {
      "level": 42,
      "experience": 0,
      "display_names": [
        "Longbow Minigun"
      ],
      "costumes": [
        "Longbow_Male_Group_01_Minion_01",
        "Longbow_Male_Group_01_Minion_02",
        "Longbow_Male_Group_01_Minion_03",
        "Longbow_Male_Group_01_Minion_04",
        "Longbow_Male_Group_01_Minion_05",
        "Longbow_Female_Group_01_Minion_01",
        "Longbow_Female_Group_01_Minion_02",
        "Longbow_Female_Group_01_Minion_03",
        "Longbow_Female_Group_01_Minion_04",
        "Longbow_Female_Group_01_Minion_05"
      ]
    },
    {
      "level": 43,
      "experience": 0,
      "display_names": [
        "Longbow Minigun"
      ],
      "costumes": [
        "Longbow_Male_Group_01_Minion_01",
        "Longbow_Male_Group_01_Minion_02",
        "Longbow_Male_Group_01_Minion_03",
        "Longbow_Male_Group_01_Minion_04",
        "Longbow_Male_Group_01_Minion_05",
        "Longbow_Female_Group_01_Minion_01",
        "Longbow_Female_Group_01_Minion_02",
        "Longbow_Female_Group_01_Minion_03",
        "Longbow_Female_Group_01_Minion_04",
        "Longbow_Female_Group_01_Minion_05"
      ]
    },
    {
      "level": 44,
      "experience": 0,
      "display_names": [
        "Longbow Minigun"
      ],
      "costumes": [
        "Longbow_Male_Group_01_Minion_01",
        "Longbow_Male_Group_01_Minion_02",
        "Longbow_Male_Group_01_Minion_03",
        "Longbow_Male_Group_01_Minion_04",
        "Longbow_Male_Group_01_Minion_05",
        "Longbow_Female_Group_01_Minion_01",
        "Longbow_Female_Group_01_Minion_02",
        "Longbow_Female_Group_01_Minion_03",
        "Longbow_Female_Group_01_Minion_04",
        "Longbow_Female_Group_01_Minion_05"
      ]
    },
    {
      "level": 45,
      "experience": 0,
      "display_names": [
        "Longbow Minigun"
      ],
      "costumes": [
        "Longbow_Male_Group_01_Minion_01",
        "Longbow_Male_Group_01_Minion_02",
        "Longbow_Male_Group_01_Minion_03",
        "Longbow_Male_Group_01_Minion_04",
        "Longbow_Male_Group_01_Minion_05",
        "Longbow_Female_Group_01_Minion_01",
        "Longbow_Female_Group_01_Minion_02",
        "Longbow_Female_Group_01_Minion_03",
        "Longbow_Female_Group_01_Minion_04",
        "Longbow_Female_Group_01_Minion_05"
      ]
    },
    {
      "level": 46,
      "experience": 0,
      "display_names": [
        "Longbow Minigun"
      ],
      "costumes": [
        "Longbow_Male_Group_01_Minion_01",
        "Longbow_Male_Group_01_Minion_02",
        "Longbow_Male_Group_01_Minion_03",
        "Longbow_Male_Group_01_Minion_04",
        "Longbow_Male_Group_01_Minion_05",
        "Longbow_Female_Group_01_Minion_01",
        "Longbow_Female_Group_01_Minion_02",
        "Longbow_Female_Group_01_Minion_03",
        "Longbow_Female_Group_01_Minion_04",
        "Longbow_Female_Group_01_Minion_05"
      ]
    },
    {
      "level": 47,
      "experience": 0,
      "display_names": [
        "Longbow Minigun"
      ],
      "costumes": [
        "Longbow_Male_Group_01_Minion_01",
        "Longbow_Male_Group_01_Minion_02",
        "Longbow_Male_Group_01_Minion_03",
        "Longbow_Male_Group_01_Minion_04",
        "Longbow_Male_Group_01_Minion_05",
        "Longbow_Female_Group_01_Minion_01",
        "Longbow_Female_Group_01_Minion_02",
        "Longbow_Female_Group_01_Minion_03",
        "Longbow_Female_Group_01_Minion_04",
        "Longbow_Female_Group_01_Minion_05"
      ]
    },
    {
      "level": 48,
      "experience": 0,
      "display_names": [
        "Longbow Minigun"
      ],
      "costumes": [
        "Longbow_Male_Group_01_Minion_01",
        "Longbow_Male_Group_01_Minion_02",
        "Longbow_Male_Group_01_Minion_03",
        "Longbow_Male_Group_01_Minion_04",
        "Longbow_Male_Group_01_Minion_05",
        "Longbow_Female_Group_01_Minion_01",
        "Longbow_Female_Group_01_Minion_02",
        "Longbow_Female_Group_01_Minion_03",
        "Longbow_Female_Group_01_Minion_04",
        "Longbow_Female_Group_01_Minion_05"
      ]
    },
    {
      "level": 49,
      "experience": 0,
      "display_names": [
        "Longbow Minigun"
      ],
      "costumes": [
        "Longbow_Male_Group_01_Minion_01",
        "Longbow_Male_Group_01_Minion_02",
        "Longbow_Male_Group_01_Minion_03",
        "Longbow_Male_Group_01_Minion_04",
        "Longbow_Male_Group_01_Minion_05",
        "Longbow_Female_Group_01_Minion_01",
        "Longbow_Female_Group_01_Minion_02",
        "Longbow_Female_Group_01_Minion_03",
        "Longbow_Female_Group_01_Minion_04",
        "Longbow_Female_Group_01_Minion_05"
      ]
    },
    {
      "level": 50,
      "experience": 0,
      "display_names": [
        "Longbow Minigun"
      ],
      "costumes": [
        "Longbow_Male_Group_01_Minion_01",
        "Longbow_Male_Group_01_Minion_02",
        "Longbow_Male_Group_01_Minion_03",
        "Longbow_Male_Group_01_Minion_04",
        "Longbow_Male_Group_01_Minion_05",
        "Longbow_Female_Group_01_Minion_01",
        "Longbow_Female_Group_01_Minion_02",
        "Longbow_Female_Group_01_Minion_03",
        "Longbow_Female_Group_01_Minion_04",
        "Longbow_Female_Group_01_Minion_05"
      ]
    }
  ]
}