{
  "name": "FirBolg_Jack_O_Lantern",
  "gender": "GENDER_MALE",
  "description": "In times of old, the Fir Bolg battled the invading Tuatha de Dannan for control of Ireland, Here in Croatoa, history seems to be repeating itself. The two tribes, transported across an ocean and transformed into monstrous shapes, are waging an eternal war.",
  "group_description": "Fir Bolg",
  "display_class_name": null,
  "character_class_name": "minion_grunt",
  "ai_config": "Default_Ranged",
  "commandable_pet": false,
  "power_tags": [
    "Fey"
  ],
  "additional_rewards": [

  ],
  "skill_hp_rewards": [

  ],
  "skill_status_rewards": [

  ],
  "ally": null,
  "gang": "GhostCabalFirbolg",
  "reward_scale": 1.0,
  "game_exclusion": "None",
  "inactive_state_weapon": null,
  "ignores_combat_mods": false,
  "copy_creator_mods": false,
  "spawn_limit": -1,
  "spawn_limit_mission": -1,
  "ignore_av_to_eb_scaling": false,
  "can_zone": false,
  "custom_badge_stat": null,
  "badge_stat_flags": "DefaultBadgeStat",
  "rank": "VR_MINION",
  "power_full_names": [
    "FirBolg.Jack_O_Lantern.Pumpkin",
    "FirBolg.Jack_O_Lantern.Slash"
  ],
  "power_display_names": [
    "Pumpkin",
    "Slash"
  ],
  "power_levels": [
    0,
    0
  ],
  "powers": [
    {
      "power_category": "FirBolg",
      "power_set": "Jack_O_Lantern",
      "power": "*",
      "level": 0
    }
  ],
  "levels": [
    {
      "level": 25,
      "experience": 0,
      "display_names": [
        "Soldier"
      ],
      "costumes": [
        "Croatoa_Fir_Bolg_Minion"
      ]
    },
    {
      "level": 26,
      "experience": 0,
      "display_names": [
        "Soldier"
      ],
      "costumes": [
        "Croatoa_Fir_Bolg_Minion"
      ]
    },
    {
      "level": 27,
      "experience": 0,
      "display_names": [
        "Soldier"
      ],
      "costumes": [
        "Croatoa_Fir_Bolg_Minion"
      ]
    },
    {
      "level": 28,
      "experience": 0,
      "display_names": [
        "Soldier"
      ],
      "costumes": [
        "Croatoa_Fir_Bolg_Minion"
      ]
    },
    {
      "level": 29,
      "experience": 0,
      "display_names": [
        "Soldier"
      ],
      "costumes": [
        "Croatoa_Fir_Bolg_Minion"
      ]
    },
    {
      "level": 30,
      "experience": 0,
      "display_names": [
        "Soldier"
      ],
      "costumes": [
        "Croatoa_Fir_Bolg_Minion"
      ]
    },
    {
      "level": 31,
      "experience": 0,
      "display_names": [
        "Soldier"
      ],
      "costumes": [
        "Croatoa_Fir_Bolg_Minion"
      ]
    },
    {
      "level": 32,
      "experience": 0,
      "display_names": [
        "Soldier"
      ],
      "costumes": [
        "Croatoa_Fir_Bolg_Minion"
      ]
    },
    {
      "level": 33,
      "experience": 0,
      "display_names": [
        "Soldier"
      ],
      "costumes": [
        "Croatoa_Fir_Bolg_Minion"
      ]
    },
    {
      "level": 34,
      "experience": 0,
      "display_names": [
        "Soldier"
      ],
      "costumes": [
        "Croatoa_Fir_Bolg_Minion"
      ]
    }
  ]
}