{
  "name": "Freakshow_Metal_Freaks_Smasher",
  "gender": "GENDER_MALE",
  "description": "The Metal Freak's devotion to the cause is obvious - he's had both arms replaced with robotic contraptions that are good only for destruction. He must rely on other Freaks to feed him, but in combat he is a whirling nightmare.",
  "group_description": null,
  "display_class_name": null,
  "character_class_name": "minion_grunt",
  "ai_config": "Freakshow_Freaks_Base",
  "commandable_pet": false,
  "power_tags": [
    "HumanSkeleton",
    "Human",
    "Electronic"
  ],
  "additional_rewards": [

  ],
  "skill_hp_rewards": [

  ],
  "skill_status_rewards": [

  ],
  "ally": null,
  "gang": null,
  "reward_scale": 0.95,
  "game_exclusion": "None",
  "inactive_state_weapon": null,
  "ignores_combat_mods": false,
  "copy_creator_mods": false,
  "spawn_limit": -1,
  "spawn_limit_mission": -1,
  "ignore_av_to_eb_scaling": false,
  "can_zone": false,
  "custom_badge_stat": null,
  "badge_stat_flags": "DefaultBadgeStat",
  "rank": "VR_MINION",
  "power_full_names": [
    "Freakshow.Freakshow_Enforcers_Metal_Tank_1HSmasher_Melee.Cybernetic_Hammer",
    "Freakshow.Freakshow_Metal_Tank_2HSmasher_Melee.Cybernetic_Hammers",
    "Freakshow.Freakshow_Metal_Tank_2HSmasher_Ranged.Hammer_Clap",
    "Freakshow.Freakshow_Inherent_Defense.Dull_Pain",
    "Freakshow.Freakshow_Inherent_Defense.Revive",
    "Freakshow.Freakshow_Inherent_Defense.Resistance"
  ],
  "power_display_names": [
    "Cybernetic Hammer",
    "Cybernetic Hammers",
    "Hammer Clap",
    "Dull Pain",
    "Revive",
    "Resistance"
  ],
  "power_levels": [
    0,
    0,
    0,
    0,
    0,
    0
  ],
  "powers": [
    {
      "power_category": "Freakshow",
      "power_set": "Freakshow_Enforcers_Metal_Tank_1HSmasher_Melee",
      "power": "*",
      "level": 0
    },
    {
      "power_category": "Freakshow",
      "power_set": "Freakshow_Metal_Tank_2HSmasher_Melee",
      "power": "*",
      "level": 0
    },
    {
      "power_category": "Freakshow",
      "power_set": "Freakshow_Metal_Tank_2HSmasher_Ranged",
      "power": "*",
      "level": 0
    },
    {
      "power_category": "Freakshow",
      "power_set": "Freakshow_Inherent_Defense",
      "power": "*",
      "level": 0
    }
  ],
  "levels": [
    {
      "level": 28,
      "experience": 0,
      "display_names": [
        "Metal Smasher"
      ],
      "costumes": [
        "Frk_33"
      ]
    },
    {
      "level": 29,
      "experience": 0,
      "display_names": [
        "Metal Smasher"
      ],
      "costumes": [
        "Frk_33"
      ]
    },
    {
      "level": 30,
      "experience": 0,
      "display_names": [
        "Metal Smasher"
      ],
      "costumes": [
        "Frk_33"
      ]
    },
    {
      "level": 31,
      "experience": 0,
      "display_names": [
        "Metal Smasher"
      ],
      "costumes": [
        "Frk_33"
      ]
    },
    {
      "level": 32,
      "experience": 0,
      "display_names": [
        "Metal Smasher"
      ],
      "costumes": [
        "Frk_33"
      ]
    },
    {
      "level": 33,
      "experience": 0,
      "display_names": [
        "Metal Smasher"
      ],
      "costumes": [
        "Frk_33"
      ]
    },
    {
      "level": 34,
      "experience": 0,
      "display_names": [
        "Metal Smasher"
      ],
      "costumes": [
        "Frk_33"
      ]
    },
    {
      "level": 35,
      "experience": 0,
      "display_names": [
        "Metal Smasher"
      ],
      "costumes": [
        "Frk_33"
      ]
    },
    {
      "level": 36,
      "experience": 0,
      "display_names": [
        "Metal Smasher"
      ],
      "costumes": [
        "Frk_33"
      ]
    },
    {
      "level": 37,
      "experience": 0,
      "display_names": [
        "Metal Smasher"
      ],
      "costumes": [
        "Frk_33"
      ]
    },
    {
      "level": 38,
      "experience": 0,
      "display_names": [
        "Metal Smasher"
      ],
      "costumes": [
        "Frk_33"
      ]
    },
    {
      "level": 39,
      "experience": 0,
      "display_names": [
        "Metal Smasher"
      ],
      "costumes": [
        "Frk_33"
      ]
    },
    {
      "level": 40,
      "experience": 0,
      "display_names": [
        "Metal Smasher"
      ],
      "costumes": [
        "Frk_33"
      ]
    },
    {
      "level": 41,
      "experience": 0,
      "display_names": [
        "Metal Smasher"
      ],
      "costumes": [
        "Frk_33"
      ]
    },
    {
      "level": 42,
      "experience": 0,
      "display_names": [
        "Metal Smasher"
      ],
      "costumes": [
        "Frk_33"
      ]
    },
    {
      "level": 43,
      "experience": 0,
      "display_names": [
        "Metal Smasher"
      ],
      "costumes": [
        "Frk_33"
      ]
    },
    {
      "level": 44,
      "experience": 0,
      "display_names": [
        "Metal Smasher"
      ],
      "costumes": [
        "Frk_33"
      ]
    },
    {
      "level": 45,
      "experience": 0,
      "display_names": [
        "Metal Smasher"
      ],
      "costumes": [
        "Frk_33"
      ]
    }
  ]
}