{
  "name": "Freakshow_Doc_Buzzsaw",
  "gender": "GENDER_FEMALE",
  "description": "Doc Buzzsaw makes no secret that she was once a disciple of Dr. Vahzilok, but had a falling out with her mentor some time ago. Afterwards she journeyed to the Rogue Isles to continue her research, and rumor has it, escape the retribution of the Vahzilok. The Freakshow came to her looking for someone who understood both cybernetic machinery and human anatomy well enough to repair them, and she quickly formed an association with them. The Freaks love the improvements 'Doc' makes for them, and Buzzsaw sees her energetic new allies as the perfect mix of protectors and test subjects. The fact that both sides are completely deranged only makes the partnership work better.",
  "group_description": null,
  "display_class_name": null,
  "character_class_name": "boss_grunt",
  "ai_config": "Default_Melee",
  "commandable_pet": false,
  "power_tags": [
    "HumanSkeleton",
    "Human"
  ],
  "additional_rewards": [

  ],
  "skill_hp_rewards": [

  ],
  "skill_status_rewards": [

  ],
  "ally": null,
  "gang": null,
  "reward_scale": 1.0,
  "game_exclusion": "None",
  "inactive_state_weapon": null,
  "ignores_combat_mods": false,
  "copy_creator_mods": false,
  "spawn_limit": 0,
  "spawn_limit_mission": 0,
  "ignore_av_to_eb_scaling": false,
  "can_zone": false,
  "custom_badge_stat": null,
  "badge_stat_flags": "DefaultBadgeStat",
  "rank": "VR_BOSS",
  "power_full_names": [
    "Freakshow.Meat_Doctor_Boss.Poison_Dart",
    "Freakshow.Meat_Doctor_Boss.Poison_Dart_Blast",
    "Freakshow.Meat_Doctor_Boss.Surgical_Electric_Saw",
    "Freakshow.Meat_Doctor_Boss.Eviscerate",
    "Freakshow.Meat_Doctor_Boss.Resurrect_Freakshow",
    "Freakshow.Meat_Doctor_Boss.Heal_Other"
  ],
  "power_display_names": [
    "Poison Dart",
    "Poison Dart Blast",
    "Surgical Electric Saw",
    "Eviscerate",
    "Resurrect Freakshow",
    "Heal Other"
  ],
  "power_levels": [
    0,
    0,
    0,
    0,
    0,
    0
  ],
  "powers": [
    {
      "power_category": "Freakshow",
      "power_set": "Meat_Doctor_Boss",
      "power": "*",
      "level": 0
    }
  ],
  "levels": [
    {
      "level": 20,
      "experience": 0,
      "display_names": [
        "Doc Buzzsaw"
      ],
      "costumes": [
        "Model_Doc_Buzzsaw_02"
      ]
    },
    {
      "level": 21,
      "experience": 0,
      "display_names": [
        "Doc Buzzsaw"
      ],
      "costumes": [
        "Model_Doc_Buzzsaw_02"
      ]
    },
    {
      "level": 22,
      "experience": 0,
      "display_names": [
        "Doc Buzzsaw"
      ],
      "costumes": [
        "Model_Doc_Buzzsaw_02"
      ]
    },
    {
      "level": 23,
      "experience": 0,
      "display_names": [
        "Doc Buzzsaw"
      ],
      "costumes": [
        "Model_Doc_Buzzsaw_02"
      ]
    },
    {
      "level": 24,
      "experience": 0,
      "display_names": [
        "Doc Buzzsaw"
      ],
      "costumes": [
        "Model_Doc_Buzzsaw_02"
      ]
    },
    {
      "level": 25,
      "experience": 0,
      "display_names": [
        "Doc Buzzsaw"
      ],
      "costumes": [
        "Model_Doc_Buzzsaw_02"
      ]
    },
    {
      "level": 26,
      "experience": 0,
      "display_names": [
        "Doc Buzzsaw"
      ],
      "costumes": [
        "Model_Doc_Buzzsaw_02"
      ]
    },
    {
      "level": 27,
      "experience": 0,
      "display_names": [
        "Doc Buzzsaw"
      ],
      "costumes": [
        "Model_Doc_Buzzsaw_02"
      ]
    },
    {
      "level": 28,
      "experience": 0,
      "display_names": [
        "Doc Buzzsaw"
      ],
      "costumes": [
        "Model_Doc_Buzzsaw_02"
      ]
    },
    {
      "level": 29,
      "experience": 0,
      "display_names": [
        "Doc Buzzsaw"
      ],
      "costumes": [
        "Model_Doc_Buzzsaw_02"
      ]
    },
    {
      "level": 30,
      "experience": 0,
      "display_names": [
        "Doc Buzzsaw"
      ],
      "costumes": [
        "Model_Doc_Buzzsaw_02"
      ]
    },
    {
      "level": 31,
      "experience": 0,
      "display_names": [
        "Doc Buzzsaw"
      ],
      "costumes": [
        "Model_Doc_Buzzsaw_02"
      ]
    },
    {
      "level": 32,
      "experience": 0,
      "display_names": [
        "Doc Buzzsaw"
      ],
      "costumes": [
        "Model_Doc_Buzzsaw_02"
      ]
    },
    {
      "level": 33,
      "experience": 0,
      "display_names": [
        "Doc Buzzsaw"
      ],
      "costumes": [
        "Model_Doc_Buzzsaw_02"
      ]
    },
    {
      "level": 34,
      "experience": 0,
      "display_names": [
        "Doc Buzzsaw"
      ],
      "costumes": [
        "Model_Doc_Buzzsaw_02"
      ]
    }
  ]
}