{
  "name": "Freakshow_Rikti_Minion",
  "gender": "GENDER_MALE",
  "description": "Some Freakshow will try anything for a thrill, even using Rikti weapons. Some go even farther, and integrate alien Rikti technology into their cybernetic prostheses.",
  "group_description": null,
  "display_class_name": null,
  "character_class_name": "minion_grunt",
  "ai_config": "Default_Ranged",
  "commandable_pet": false,
  "power_tags": [
    "HumanSkeleton",
    "Human",
    "Electronic"
  ],
  "additional_rewards": [

  ],
  "skill_hp_rewards": [

  ],
  "skill_status_rewards": [

  ],
  "ally": null,
  "gang": null,
  "reward_scale": 0.95,
  "game_exclusion": "None",
  "inactive_state_weapon": null,
  "ignores_combat_mods": false,
  "copy_creator_mods": false,
  "spawn_limit": 0,
  "spawn_limit_mission": 0,
  "ignore_av_to_eb_scaling": false,
  "can_zone": false,
  "custom_badge_stat": null,
  "badge_stat_flags": "DefaultBadgeStat",
  "rank": "VR_MINION",
  "power_full_names": [
    "Freakshow.Rikti_Pistol.Rikti_Pistol",
    "Freakshow.Freakshow_Freaks_Defense.Dull_Pain"
  ],
  "power_display_names": [
    "Rikti Pistol",
    "Dull Pain"
  ],
  "power_levels": [
    0,
    0
  ],
  "powers": [
    {
      "power_category": "Freakshow",
      "power_set": "Rikti_Pistol",
      "power": "*",
      "level": 0
    },
    {
      "power_category": "Freakshow",
      "power_set": "Freakshow_Freaks_Defense",
      "power": "*",
      "level": 0
    }
  ],
  "levels": [
    {
      "level": 35,
      "experience": 0,
      "display_names": [
        "Rikti Freak Gunner"
      ],
      "costumes": [
        "Frk_01",
        "Frk_02",
        "Frk_03",
        "Frk_04",
        "Frk_05",
        "Frk_06",
        "Frk_07",
        "Frk_08",
        "Frk_09",
        "Frk_10"
      ]
    },
    {
      "level": 36,
      "experience": 0,
      "display_names": [
        "Rikti Freak Gunner"
      ],
      "costumes": [
        "Frk_01",
        "Frk_02",
        "Frk_03",
        "Frk_04",
        "Frk_05",
        "Frk_06",
        "Frk_07",
        "Frk_08",
        "Frk_09",
        "Frk_10"
      ]
    },
    {
      "level": 37,
      "experience": 0,
      "display_names": [
        "Rikti Freak Gunner"
      ],
      "costumes": [
        "Frk_01",
        "Frk_02",
        "Frk_03",
        "Frk_04",
        "Frk_05",
        "Frk_06",
        "Frk_07",
        "Frk_08",
        "Frk_09",
        "Frk_10"
      ]
    },
    {
      "level": 38,
      "experience": 0,
      "display_names": [
        "Rikti Freak Gunner"
      ],
      "costumes": [
        "Frk_01",
        "Frk_02",
        "Frk_03",
        "Frk_04",
        "Frk_05",
        "Frk_06",
        "Frk_07",
        "Frk_08",
        "Frk_09",
        "Frk_10"
      ]
    },
    {
      "level": 39,
      "experience": 0,
      "display_names": [
        "Rikti Freak Gunner"
      ],
      "costumes": [
        "Frk_01",
        "Frk_02",
        "Frk_03",
        "Frk_04",
        "Frk_05",
        "Frk_06",
        "Frk_07",
        "Frk_08",
        "Frk_09",
        "Frk_10"
      ]
    },
    {
      "level": 40,
      "experience": 0,
      "display_names": [
        "Rikti Freak Gunner"
      ],
      "costumes": [
        "Frk_01",
        "Frk_02",
        "Frk_03",
        "Frk_04",
        "Frk_05",
        "Frk_06",
        "Frk_07",
        "Frk_08",
        "Frk_09",
        "Frk_10"
      ]
    },
    {
      "level": 41,
      "experience": 0,
      "display_names": [
        "Rikti Freak Gunner"
      ],
      "costumes": [
        "Frk_01",
        "Frk_02",
        "Frk_03",
        "Frk_04",
        "Frk_05",
        "Frk_06",
        "Frk_07",
        "Frk_08",
        "Frk_09",
        "Frk_10"
      ]
    },
    {
      "level": 42,
      "experience": 0,
      "display_names": [
        "Rikti Freak Gunner"
      ],
      "costumes": [
        "Frk_01",
        "Frk_02",
        "Frk_03",
        "Frk_04",
        "Frk_05",
        "Frk_06",
        "Frk_07",
        "Frk_08",
        "Frk_09",
        "Frk_10"
      ]
    },
    {
      "level": 43,
      "experience": 0,
      "display_names": [
        "Rikti Freak Gunner"
      ],
      "costumes": [
        "Frk_01",
        "Frk_02",
        "Frk_03",
        "Frk_04",
        "Frk_05",
        "Frk_06",
        "Frk_07",
        "Frk_08",
        "Frk_09",
        "Frk_10"
      ]
    }
  ]
}