{
  "name": "FreedomCorps_Minigun",
  "gender": "GENDER_MALE",
  "description": "Longbow's miniguns are designed to chew through even the thickest armor--or hides, scales, or other monstrous protection.",
  "group_description": "Longbow",
  "display_class_name": null,
  "character_class_name": "minion_grunt",
  "ai_config": "Default_Ranged",
  "commandable_pet": false,
  "power_tags": [
    "HumanSkeleton",
    "Human"
  ],
  "additional_rewards": [

  ],
  "skill_hp_rewards": [

  ],
  "skill_status_rewards": [

  ],
  "ally": "Hero",
  "gang": null,
  "reward_scale": 1.1,
  "game_exclusion": "None",
  "inactive_state_weapon": null,
  "ignores_combat_mods": false,
  "copy_creator_mods": false,
  "spawn_limit": -1,
  "spawn_limit_mission": -1,
  "ignore_av_to_eb_scaling": false,
  "can_zone": false,
  "custom_badge_stat": null,
  "badge_stat_flags": "DefaultBadgeStat",
  "rank": "VR_MINION",
  "power_full_names": [
    "V_FreedomCorps.Minion_Minigun.Chain_gun_Heavy_Burst",
    "V_FreedomCorps.Minion_Minigun.Brawl",
    "V_FreedomCorps.Resistance.Tech_Armor"
  ],
  "power_display_names": [
    "Chain gun Heavy Burst",
    "Brawl",
    "Tech Armor"
  ],
  "power_levels": [
    0,
    0,
    0
  ],
  "powers": [
    {
      "power_category": "V_FreedomCorps",
      "power_set": "Minion_Minigun",
      "power": "Chain_gun_Heavy_Burst",
      "level": 0
    },
    {
      "power_category": "V_FreedomCorps",
      "power_set": "Minion_Minigun",
      "power": "Brawl",
      "level": 0
    },
    {
      "power_category": "V_FreedomCorps",
      "power_set": "Resistance",
      "power": "*",
      "level": 0
    }
  ],
  "levels": [
    {
      "level": 20,
      "experience": 0,
      "display_names": [
        "Longbow Minigun"
      ],
      "costumes": [
        "Longbow_Male_Group_01_Minion_01",
        "Longbow_Male_Group_01_Minion_02",
        "Longbow_Male_Group_01_Minion_03",
        "Longbow_Male_Group_01_Minion_04",
        "Longbow_Male_Group_01_Minion_05"
      ]
    },
    {
      "level": 21,
      "experience": 0,
      "display_names": [
        "Longbow Minigun"
      ],
      "costumes": [
        "Longbow_Male_Group_01_Minion_01",
        "Longbow_Male_Group_01_Minion_02",
        "Longbow_Male_Group_01_Minion_03",
        "Longbow_Male_Group_01_Minion_04",
        "Longbow_Male_Group_01_Minion_05"
      ]
    },
    {
      "level": 22,
      "experience": 0,
      "display_names": [
        "Longbow Minigun"
      ],
      "costumes": [
        "Longbow_Male_Group_01_Minion_01",
        "Longbow_Male_Group_01_Minion_02",
        "Longbow_Male_Group_01_Minion_03",
        "Longbow_Male_Group_01_Minion_04",
        "Longbow_Male_Group_01_Minion_05"
      ]
    },
    {
      "level": 23,
      "experience": 0,
      "display_names": [
        "Longbow Minigun"
      ],
      "costumes": [
        "Longbow_Male_Group_01_Minion_01",
        "Longbow_Male_Group_01_Minion_02",
        "Longbow_Male_Group_01_Minion_03",
        "Longbow_Male_Group_01_Minion_04",
        "Longbow_Male_Group_01_Minion_05"
      ]
    },
    {
      "level": 24,
      "experience": 0,
      "display_names": [
        "Longbow Minigun"
      ],
      "costumes": [
        "Longbow_Male_Group_01_Minion_01",
        "Longbow_Male_Group_01_Minion_02",
        "Longbow_Male_Group_01_Minion_03",
        "Longbow_Male_Group_01_Minion_04",
        "Longbow_Male_Group_01_Minion_05"
      ]
    },
    {
      "level": 25,
      "experience": 0,
      "display_names": [
        "Longbow Minigun"
      ],
      "costumes": [
        "Longbow_Male_Group_01_Minion_01",
        "Longbow_Male_Group_01_Minion_02",
        "Longbow_Male_Group_01_Minion_03",
        "Longbow_Male_Group_01_Minion_04",
        "Longbow_Male_Group_01_Minion_05"
      ]
    },
    {
      "level": 26,
      "experience": 0,
      "display_names": [
        "Longbow Minigun"
      ],
      "costumes": [
        "Longbow_Male_Group_01_Minion_01",
        "Longbow_Male_Group_01_Minion_02",
        "Longbow_Male_Group_01_Minion_03",
        "Longbow_Male_Group_01_Minion_04",
        "Longbow_Male_Group_01_Minion_05"
      ]
    },
    {
      "level": 27,
      "experience": 0,
      "display_names": [
        "Longbow Minigun"
      ],
      "costumes": [
        "Longbow_Male_Group_01_Minion_01",
        "Longbow_Male_Group_01_Minion_02",
        "Longbow_Male_Group_01_Minion_03",
        "Longbow_Male_Group_01_Minion_04",
        "Longbow_Male_Group_01_Minion_05"
      ]
    },
    {
      "level": 28,
      "experience": 0,
      "display_names": [
        "Longbow Minigun"
      ],
      "costumes": [
        "Longbow_Male_Group_01_Minion_01",
        "Longbow_Male_Group_01_Minion_02",
        "Longbow_Male_Group_01_Minion_03",
        "Longbow_Male_Group_01_Minion_04",
        "Longbow_Male_Group_01_Minion_05"
      ]
    },
    {
      "level": 29,
      "experience": 0,
      "display_names": [
        "Longbow Minigun"
      ],
      "costumes": [
        "Longbow_Male_Group_01_Minion_01",
        "Longbow_Male_Group_01_Minion_02",
        "Longbow_Male_Group_01_Minion_03",
        "Longbow_Male_Group_01_Minion_04",
        "Longbow_Male_Group_01_Minion_05"
      ]
    }
  ]
}