{
  "name": "FreedomCorps_Ballista_high",
  "gender": "GENDER_MALE",
  "description": "The Ballista are Longbow's heaviest hitters. These tankers are tough enough to withstand direct hits from rocket launchers, and can dish out enough damage to take out the toughest brute Arachnos can throw at them.",
  "group_description": "Longbow",
  "display_class_name": null,
  "character_class_name": "boss_elite",
  "ai_config": "Default_Ranged",
  "commandable_pet": false,
  "power_tags": [
    "HumanSkeleton",
    "Human"
  ],
  "additional_rewards": [

  ],
  "skill_hp_rewards": [

  ],
  "skill_status_rewards": [

  ],
  "ally": "Hero",
  "gang": null,
  "reward_scale": 1.0,
  "game_exclusion": "None",
  "inactive_state_weapon": null,
  "ignores_combat_mods": false,
  "copy_creator_mods": false,
  "spawn_limit": -1,
  "spawn_limit_mission": -1,
  "ignore_av_to_eb_scaling": false,
  "can_zone": false,
  "custom_badge_stat": null,
  "badge_stat_flags": "DefaultBadgeStat",
  "rank": "VR_ELITE",
  "power_full_names": [
    "V_FreedomCorps.Ballista.Force_Bolt",
    "V_FreedomCorps.Ballista.Bone_Smasher",
    "V_FreedomCorps.Ballista.Power_Punch",
    "V_FreedomCorps.Ballista.Energy_Torrent",
    "V_FreedomCorps.Ballista.Explosive_Blast",
    "V_FreedomCorps.Ballista.Protective_Shield",
    "V_FreedomCorps.Ballista.Repulsion_Field",
    "V_FreedomCorps.Ballista.Dispersion_Bubble",
    "V_FreedomCorps.Ballista.Detention_Field",
    "V_FreedomCorps.Ballista.Resistances"
  ],
  "power_display_names": [
    "Force Bolt",
    "Bone Smasher",
    "Power Punch",
    "Energy Torrent",
    "Explosive Blast",
    "Protective Shield",
    "Repulsion Field",
    "Dispersion Bubble",
    "Detention Field",
    "Resistances"
  ],
  "power_levels": [
    0,
    0,
    0,
    0,
    0,
    0,
    0,
    0,
    0,
    0
  ],
  "powers": [
    {
      "power_category": "V_FreedomCorps",
      "power_set": "Ballista",
      "power": "*",
      "level": 0
    }
  ],
  "levels": [
    {
      "level": 40,
      "experience": 0,
      "display_names": [
        "Longbow Ballista"
      ],
      "costumes": [
        "Longbow_Male_Elite_Boss_01",
        "Longbow_Male_Elite_Boss_02",
        "Longbow_Male_Elite_Boss_03",
        "Longbow_Male_Elite_Boss_04",
        "Longbow_Male_Elite_Boss_05"
      ]
    },
    {
      "level": 41,
      "experience": 0,
      "display_names": [
        "Longbow Ballista"
      ],
      "costumes": [
        "Longbow_Male_Elite_Boss_01",
        "Longbow_Male_Elite_Boss_02",
        "Longbow_Male_Elite_Boss_03",
        "Longbow_Male_Elite_Boss_04",
        "Longbow_Male_Elite_Boss_05"
      ]
    },
    {
      "level": 42,
      "experience": 0,
      "display_names": [
        "Longbow Ballista"
      ],
      "costumes": [
        "Longbow_Male_Elite_Boss_01",
        "Longbow_Male_Elite_Boss_02",
        "Longbow_Male_Elite_Boss_03",
        "Longbow_Male_Elite_Boss_04",
        "Longbow_Male_Elite_Boss_05"
      ]
    },
    {
      "level": 43,
      "experience": 0,
      "display_names": [
        "Longbow Ballista"
      ],
      "costumes": [
        "Longbow_Male_Elite_Boss_01",
        "Longbow_Male_Elite_Boss_02",
        "Longbow_Male_Elite_Boss_03",
        "Longbow_Male_Elite_Boss_04",
        "Longbow_Male_Elite_Boss_05"
      ]
    },
    {
      "level": 44,
      "experience": 0,
      "display_names": [
        "Longbow Ballista"
      ],
      "costumes": [
        "Longbow_Male_Elite_Boss_01",
        "Longbow_Male_Elite_Boss_02",
        "Longbow_Male_Elite_Boss_03",
        "Longbow_Male_Elite_Boss_04",
        "Longbow_Male_Elite_Boss_05"
      ]
    },
    {
      "level": 45,
      "experience": 0,
      "display_names": [
        "Longbow Ballista"
      ],
      "costumes": [
        "Longbow_Male_Elite_Boss_01",
        "Longbow_Male_Elite_Boss_02",
        "Longbow_Male_Elite_Boss_03",
        "Longbow_Male_Elite_Boss_04",
        "Longbow_Male_Elite_Boss_05"
      ]
    },
    {
      "level": 46,
      "experience": 0,
      "display_names": [
        "Longbow Ballista"
      ],
      "costumes": [
        "Longbow_Male_Elite_Boss_01",
        "Longbow_Male_Elite_Boss_02",
        "Longbow_Male_Elite_Boss_03",
        "Longbow_Male_Elite_Boss_04",
        "Longbow_Male_Elite_Boss_05"
      ]
    },
    {
      "level": 47,
      "experience": 0,
      "display_names": [
        "Longbow Ballista"
      ],
      "costumes": [
        "Longbow_Male_Elite_Boss_01",
        "Longbow_Male_Elite_Boss_02",
        "Longbow_Male_Elite_Boss_03",
        "Longbow_Male_Elite_Boss_04",
        "Longbow_Male_Elite_Boss_05"
      ]
    },
    {
      "level": 48,
      "experience": 0,
      "display_names": [
        "Longbow Ballista"
      ],
      "costumes": [
        "Longbow_Male_Elite_Boss_01",
        "Longbow_Male_Elite_Boss_02",
        "Longbow_Male_Elite_Boss_03",
        "Longbow_Male_Elite_Boss_04",
        "Longbow_Male_Elite_Boss_05"
      ]
    },
    {
      "level": 49,
      "experience": 0,
      "display_names": [
        "Longbow Ballista"
      ],
      "costumes": [
        "Longbow_Male_Elite_Boss_01",
        "Longbow_Male_Elite_Boss_02",
        "Longbow_Male_Elite_Boss_03",
        "Longbow_Male_Elite_Boss_04",
        "Longbow_Male_Elite_Boss_05"
      ]
    },
    {
      "level": 50,
      "experience": 0,
      "display_names": [
        "Longbow Ballista"
      ],
      "costumes": [
        "Longbow_Male_Elite_Boss_01",
        "Longbow_Male_Elite_Boss_02",
        "Longbow_Male_Elite_Boss_03",
        "Longbow_Male_Elite_Boss_04",
        "Longbow_Male_Elite_Boss_05"
      ]
    },
    {
      "level": 51,
      "experience": 0,
      "display_names": [
        "Longbow Ballista"
      ],
      "costumes": [
        "Longbow_Male_Elite_Boss_01",
        "Longbow_Male_Elite_Boss_02",
        "Longbow_Male_Elite_Boss_03",
        "Longbow_Male_Elite_Boss_04",
        "Longbow_Male_Elite_Boss_05"
      ]
    },
    {
      "level": 52,
      "experience": 0,
      "display_names": [
        "Longbow Ballista"
      ],
      "costumes": [
        "Longbow_Male_Elite_Boss_01",
        "Longbow_Male_Elite_Boss_02",
        "Longbow_Male_Elite_Boss_03",
        "Longbow_Male_Elite_Boss_04",
        "Longbow_Male_Elite_Boss_05"
      ]
    },
    {
      "level": 53,
      "experience": 0,
      "display_names": [
        "Longbow Ballista"
      ],
      "costumes": [
        "Longbow_Male_Elite_Boss_01",
        "Longbow_Male_Elite_Boss_02",
        "Longbow_Male_Elite_Boss_03",
        "Longbow_Male_Elite_Boss_04",
        "Longbow_Male_Elite_Boss_05"
      ]
    },
    {
      "level": 54,
      "experience": 0,
      "display_names": [
        "Longbow Ballista"
      ],
      "costumes": [
        "Longbow_Male_Elite_Boss_01",
        "Longbow_Male_Elite_Boss_02",
        "Longbow_Male_Elite_Boss_03",
        "Longbow_Male_Elite_Boss_04",
        "Longbow_Male_Elite_Boss_05"
      ]
    }
  ]
}