{
  "name": "FreedomCorps_Minigun_high_female",
  "gender": "GENDER_FEMALE",
  "description": "Longbow's miniguns are designed to chew through even the thickest armor--or hides, scales, or other monstrous protection. The addition of underslung grenade launchers packs an additional punch.",
  "group_description": "Longbow",
  "display_class_name": null,
  "character_class_name": "minion_grunt",
  "ai_config": "Default_Ranged",
  "commandable_pet": false,
  "power_tags": [
    "HumanSkeleton",
    "Human"
  ],
  "additional_rewards": [

  ],
  "skill_hp_rewards": [

  ],
  "skill_status_rewards": [

  ],
  "ally": "Hero",
  "gang": null,
  "reward_scale": 1.1,
  "game_exclusion": "None",
  "inactive_state_weapon": null,
  "ignores_combat_mods": false,
  "copy_creator_mods": false,
  "spawn_limit": -1,
  "spawn_limit_mission": -1,
  "ignore_av_to_eb_scaling": false,
  "can_zone": false,
  "custom_badge_stat": null,
  "badge_stat_flags": "DefaultBadgeStat",
  "rank": "VR_MINION",
  "power_full_names": [
    "V_FreedomCorps.Minion_Minigun.Frag_Grenade",
    "V_FreedomCorps.Minion_Minigun.Chain_gun_Short_Burst",
    "V_FreedomCorps.Minion_Minigun.Chain_gun_Heavy_Burst",
    "V_FreedomCorps.Minion_Minigun.Rifle_Butt",
    "V_FreedomCorps.Resistance.Tech_Armor"
  ],
  "power_display_names": [
    "Frag Grenade",
    "Chain gun Short Burst",
    "Chain gun Heavy Burst",
    "Rifle Butt",
    "Tech Armor"
  ],
  "power_levels": [
    0,
    0,
    0,
    0,
    0
  ],
  "powers": [
    {
      "power_category": "V_FreedomCorps",
      "power_set": "Minion_Minigun",
      "power": "Frag_Grenade",
      "level": 0
    },
    {
      "power_category": "V_FreedomCorps",
      "power_set": "Minion_Minigun",
      "power": "Chain_gun_Short_Burst",
      "level": 0
    },
    {
      "power_category": "V_FreedomCorps",
      "power_set": "Minion_Minigun",
      "power": "Chain_gun_Heavy_Burst",
      "level": 0
    },
    {
      "power_category": "V_FreedomCorps",
      "power_set": "Minion_Minigun",
      "power": "Rifle_Butt",
      "level": 0
    },
    {
      "power_category": "V_FreedomCorps",
      "power_set": "Resistance",
      "power": "*",
      "level": 0
    }
  ],
  "levels": [
    {
      "level": 40,
      "experience": 0,
      "display_names": [
        "Longbow Minigun"
      ],
      "costumes": [
        "Longbow_Female_Group_01_Minion_01",
        "Longbow_Female_Group_01_Minion_02",
        "Longbow_Female_Group_01_Minion_03",
        "Longbow_Female_Group_01_Minion_04",
        "Longbow_Female_Group_01_Minion_05"
      ]
    },
    {
      "level": 41,
      "experience": 0,
      "display_names": [
        "Longbow Minigun"
      ],
      "costumes": [
        "Longbow_Female_Group_01_Minion_01",
        "Longbow_Female_Group_01_Minion_02",
        "Longbow_Female_Group_01_Minion_03",
        "Longbow_Female_Group_01_Minion_04",
        "Longbow_Female_Group_01_Minion_05"
      ]
    },
    {
      "level": 42,
      "experience": 0,
      "display_names": [
        "Longbow Minigun"
      ],
      "costumes": [
        "Longbow_Female_Group_01_Minion_01",
        "Longbow_Female_Group_01_Minion_02",
        "Longbow_Female_Group_01_Minion_03",
        "Longbow_Female_Group_01_Minion_04",
        "Longbow_Female_Group_01_Minion_05"
      ]
    },
    {
      "level": 43,
      "experience": 0,
      "display_names": [
        "Longbow Minigun"
      ],
      "costumes": [
        "Longbow_Female_Group_01_Minion_01",
        "Longbow_Female_Group_01_Minion_02",
        "Longbow_Female_Group_01_Minion_03",
        "Longbow_Female_Group_01_Minion_04",
        "Longbow_Female_Group_01_Minion_05"
      ]
    },
    {
      "level": 44,
      "experience": 0,
      "display_names": [
        "Longbow Minigun"
      ],
      "costumes": [
        "Longbow_Female_Group_01_Minion_01",
        "Longbow_Female_Group_01_Minion_02",
        "Longbow_Female_Group_01_Minion_03",
        "Longbow_Female_Group_01_Minion_04",
        "Longbow_Female_Group_01_Minion_05"
      ]
    },
    {
      "level": 45,
      "experience": 0,
      "display_names": [
        "Longbow Minigun"
      ],
      "costumes": [
        "Longbow_Female_Group_01_Minion_01",
        "Longbow_Female_Group_01_Minion_02",
        "Longbow_Female_Group_01_Minion_03",
        "Longbow_Female_Group_01_Minion_04",
        "Longbow_Female_Group_01_Minion_05"
      ]
    },
    {
      "level": 46,
      "experience": 0,
      "display_names": [
        "Longbow Minigun"
      ],
      "costumes": [
        "Longbow_Female_Group_01_Minion_01",
        "Longbow_Female_Group_01_Minion_02",
        "Longbow_Female_Group_01_Minion_03",
        "Longbow_Female_Group_01_Minion_04",
        "Longbow_Female_Group_01_Minion_05"
      ]
    },
    {
      "level": 47,
      "experience": 0,
      "display_names": [
        "Longbow Minigun"
      ],
      "costumes": [
        "Longbow_Female_Group_01_Minion_01",
        "Longbow_Female_Group_01_Minion_02",
        "Longbow_Female_Group_01_Minion_03",
        "Longbow_Female_Group_01_Minion_04",
        "Longbow_Female_Group_01_Minion_05"
      ]
    },
    {
      "level": 48,
      "experience": 0,
      "display_names": [
        "Longbow Minigun"
      ],
      "costumes": [
        "Longbow_Female_Group_01_Minion_01",
        "Longbow_Female_Group_01_Minion_02",
        "Longbow_Female_Group_01_Minion_03",
        "Longbow_Female_Group_01_Minion_04",
        "Longbow_Female_Group_01_Minion_05"
      ]
    },
    {
      "level": 49,
      "experience": 0,
      "display_names": [
        "Longbow Minigun"
      ],
      "costumes": [
        "Longbow_Female_Group_01_Minion_01",
        "Longbow_Female_Group_01_Minion_02",
        "Longbow_Female_Group_01_Minion_03",
        "Longbow_Female_Group_01_Minion_04",
        "Longbow_Female_Group_01_Minion_05"
      ]
    },
    {
      "level": 50,
      "experience": 0,
      "display_names": [
        "Longbow Minigun"
      ],
      "costumes": [
        "Longbow_Female_Group_01_Minion_01",
        "Longbow_Female_Group_01_Minion_02",
        "Longbow_Female_Group_01_Minion_03",
        "Longbow_Female_Group_01_Minion_04",
        "Longbow_Female_Group_01_Minion_05"
      ]
    },
    {
      "level": 51,
      "experience": 0,
      "display_names": [
        "Longbow Minigun"
      ],
      "costumes": [
        "Longbow_Female_Group_01_Minion_01",
        "Longbow_Female_Group_01_Minion_02",
        "Longbow_Female_Group_01_Minion_03",
        "Longbow_Female_Group_01_Minion_04",
        "Longbow_Female_Group_01_Minion_05"
      ]
    },
    {
      "level": 52,
      "experience": 0,
      "display_names": [
        "Longbow Minigun"
      ],
      "costumes": [
        "Longbow_Female_Group_01_Minion_01",
        "Longbow_Female_Group_01_Minion_02",
        "Longbow_Female_Group_01_Minion_03",
        "Longbow_Female_Group_01_Minion_04",
        "Longbow_Female_Group_01_Minion_05"
      ]
    },
    {
      "level": 53,
      "experience": 0,
      "display_names": [
        "Longbow Minigun"
      ],
      "costumes": [
        "Longbow_Female_Group_01_Minion_01",
        "Longbow_Female_Group_01_Minion_02",
        "Longbow_Female_Group_01_Minion_03",
        "Longbow_Female_Group_01_Minion_04",
        "Longbow_Female_Group_01_Minion_05"
      ]
    },
    {
      "level": 54,
      "experience": 0,
      "display_names": [
        "Longbow Minigun"
      ],
      "costumes": [
        "Longbow_Female_Group_01_Minion_01",
        "Longbow_Female_Group_01_Minion_02",
        "Longbow_Female_Group_01_Minion_03",
        "Longbow_Female_Group_01_Minion_04",
        "Longbow_Female_Group_01_Minion_05"
      ]
    }
  ]
}