{
  "name": "FreedomCorps_Officer_low",
  "gender": "GENDER_MALE",
  "description": "The Bravest of the brave, and those who have proven their ability to lead as well as fight, are promoted to officers. They are then given special bio-enhancers that make them far stronger than normal men, as well as energy-absorbing suits that offer great protection against most forms of damage.",
  "group_description": "Longbow",
  "display_class_name": null,
  "character_class_name": "boss_grunt",
  "ai_config": "Default_Ranged",
  "commandable_pet": false,
  "power_tags": [
    "HumanSkeleton",
    "Human"
  ],
  "additional_rewards": [

  ],
  "skill_hp_rewards": [

  ],
  "skill_status_rewards": [

  ],
  "ally": "Hero",
  "gang": null,
  "reward_scale": 1.1,
  "game_exclusion": "None",
  "inactive_state_weapon": null,
  "ignores_combat_mods": false,
  "copy_creator_mods": false,
  "spawn_limit": -1,
  "spawn_limit_mission": -1,
  "ignore_av_to_eb_scaling": false,
  "can_zone": false,
  "custom_badge_stat": null,
  "badge_stat_flags": "DefaultBadgeStat",
  "rank": "VR_BOSS",
  "power_full_names": [
    "V_FreedomCorps.Officer.M30_Grenade",
    "V_FreedomCorps.Officer.Buckshot",
    "V_FreedomCorps.Officer.Slug",
    "V_FreedomCorps.Officer.Leadership",
    "V_FreedomCorps.Officer.Tech_Armor",
    "V_FreedomCorps.Minion_Rifleman.Brawl",
    "V_FreedomCorps.Nullifier.Rifle_Butt",
    "V_FreedomCorps.Resistance.Tech_Armor"
  ],
  "power_display_names": [
    "M30 Grenade",
    "Buckshot",
    "Slug",
    "Leadership",
    "Tech Armor",
    "Brawl",
    "Rifle Butt",
    "Tech Armor"
  ],
  "power_levels": [
    0,
    0,
    0,
    0,
    0,
    0,
    0,
    0
  ],
  "powers": [
    {
      "power_category": "V_FreedomCorps",
      "power_set": "Officer",
      "power": "M30_Grenade",
      "level": 0
    },
    {
      "power_category": "V_FreedomCorps",
      "power_set": "Officer",
      "power": "Buckshot",
      "level": 0
    },
    {
      "power_category": "V_FreedomCorps",
      "power_set": "Officer",
      "power": "Slug",
      "level": 0
    },
    {
      "power_category": "V_FreedomCorps",
      "power_set": "Officer",
      "power": "Leadership",
      "level": 0
    },
    {
      "power_category": "V_FreedomCorps",
      "power_set": "Officer",
      "power": "Tech_Armor",
      "level": 0
    },
    {
      "power_category": "V_FreedomCorps",
      "power_set": "Minion_Rifleman",
      "power": "Brawl",
      "level": 0
    },
    {
      "power_category": "V_FreedomCorps",
      "power_set": "Nullifier",
      "power": "Rifle_Butt",
      "level": 0
    },
    {
      "power_category": "V_FreedomCorps",
      "power_set": "Resistance",
      "power": "*",
      "level": 0
    }
  ],
  "levels": [
    {
      "level": 10,
      "experience": 0,
      "display_names": [
        "Longbow Officer"
      ],
      "costumes": [
        "Longbow_Male_Boss_01",
        "Longbow_Male_Boss_02",
        "Longbow_Male_Boss_03"
      ]
    },
    {
      "level": 11,
      "experience": 0,
      "display_names": [
        "Longbow Officer"
      ],
      "costumes": [
        "Longbow_Male_Boss_01",
        "Longbow_Male_Boss_02",
        "Longbow_Male_Boss_03"
      ]
    },
    {
      "level": 12,
      "experience": 0,
      "display_names": [
        "Longbow Officer"
      ],
      "costumes": [
        "Longbow_Male_Boss_01",
        "Longbow_Male_Boss_02",
        "Longbow_Male_Boss_03"
      ]
    },
    {
      "level": 13,
      "experience": 0,
      "display_names": [
        "Longbow Officer"
      ],
      "costumes": [
        "Longbow_Male_Boss_01",
        "Longbow_Male_Boss_02",
        "Longbow_Male_Boss_03"
      ]
    },
    {
      "level": 14,
      "experience": 0,
      "display_names": [
        "Longbow Officer"
      ],
      "costumes": [
        "Longbow_Male_Boss_01",
        "Longbow_Male_Boss_02",
        "Longbow_Male_Boss_03"
      ]
    },
    {
      "level": 15,
      "experience": 0,
      "display_names": [
        "Longbow Officer"
      ],
      "costumes": [
        "Longbow_Male_Boss_01",
        "Longbow_Male_Boss_02",
        "Longbow_Male_Boss_03"
      ]
    },
    {
      "level": 16,
      "experience": 0,
      "display_names": [
        "Longbow Officer"
      ],
      "costumes": [
        "Longbow_Male_Boss_01",
        "Longbow_Male_Boss_02",
        "Longbow_Male_Boss_03"
      ]
    },
    {
      "level": 17,
      "experience": 0,
      "display_names": [
        "Longbow Officer"
      ],
      "costumes": [
        "Longbow_Male_Boss_01",
        "Longbow_Male_Boss_02",
        "Longbow_Male_Boss_03"
      ]
    },
    {
      "level": 18,
      "experience": 0,
      "display_names": [
        "Longbow Officer"
      ],
      "costumes": [
        "Longbow_Male_Boss_01",
        "Longbow_Male_Boss_02",
        "Longbow_Male_Boss_03"
      ]
    },
    {
      "level": 19,
      "experience": 0,
      "display_names": [
        "Longbow Officer"
      ],
      "costumes": [
        "Longbow_Male_Boss_01",
        "Longbow_Male_Boss_02",
        "Longbow_Male_Boss_03"
      ]
    }
  ]
}