{
  "name": "FreedomCorps_Pistol_low",
  "gender": "GENDER_MALE",
  "description": "Longbow is a hard-hitting division of Freedom Corps dedicated to stopping evil, and Arachnos in particular. Guardians are wet-behind-the-ears do-gooders looking to prove themselves. Most don't last beyond their first encounter with the big bad bruisers of the Rogue Isles.",
  "group_description": "Longbow",
  "display_class_name": null,
  "character_class_name": "minion_grunt",
  "ai_config": "Default_Ranged",
  "commandable_pet": false,
  "power_tags": [
    "HumanSkeleton",
    "Human"
  ],
  "additional_rewards": [

  ],
  "skill_hp_rewards": [

  ],
  "skill_status_rewards": [

  ],
  "ally": "Hero",
  "gang": null,
  "reward_scale": 1.1,
  "game_exclusion": "None",
  "inactive_state_weapon": null,
  "ignores_combat_mods": false,
  "copy_creator_mods": false,
  "spawn_limit": -1,
  "spawn_limit_mission": -1,
  "ignore_av_to_eb_scaling": false,
  "can_zone": false,
  "custom_badge_stat": null,
  "badge_stat_flags": "DefaultBadgeStat",
  "rank": "VR_MINION",
  "power_full_names": [
    "V_FreedomCorps.Minion_Rifleman.Heavy_Pistol",
    "V_FreedomCorps.Minion_Rifleman.Brawl",
    "V_FreedomCorps.Resistance.Tech_Armor"
  ],
  "power_display_names": [
    "Heavy Pistol",
    "Brawl",
    "Tech Armor"
  ],
  "power_levels": [
    0,
    0,
    0
  ],
  "powers": [
    {
      "power_category": "V_FreedomCorps",
      "power_set": "Minion_Rifleman",
      "power": "Heavy_Pistol",
      "level": 0
    },
    {
      "power_category": "V_FreedomCorps",
      "power_set": "Minion_Rifleman",
      "power": "Brawl",
      "level": 0
    },
    {
      "power_category": "V_FreedomCorps",
      "power_set": "Resistance",
      "power": "*",
      "level": 0
    }
  ],
  "levels": [
    {
      "level": 1,
      "experience": 0,
      "display_names": [
        "Longbow Guardian"
      ],
      "costumes": [
        "Longbow_Male_Group_01_Minion_01",
        "Longbow_Male_Group_01_Minion_02",
        "Longbow_Male_Group_01_Minion_03",
        "Longbow_Male_Group_01_Minion_04",
        "Longbow_Male_Group_01_Minion_05"
      ]
    },
    {
      "level": 2,
      "experience": 0,
      "display_names": [
        "Longbow Guardian"
      ],
      "costumes": [
        "Longbow_Male_Group_01_Minion_01",
        "Longbow_Male_Group_01_Minion_02",
        "Longbow_Male_Group_01_Minion_03",
        "Longbow_Male_Group_01_Minion_04",
        "Longbow_Male_Group_01_Minion_05"
      ]
    },
    {
      "level": 3,
      "experience": 0,
      "display_names": [
        "Longbow Guardian"
      ],
      "costumes": [
        "Longbow_Male_Group_01_Minion_01",
        "Longbow_Male_Group_01_Minion_02",
        "Longbow_Male_Group_01_Minion_03",
        "Longbow_Male_Group_01_Minion_04",
        "Longbow_Male_Group_01_Minion_05"
      ]
    },
    {
      "level": 4,
      "experience": 0,
      "display_names": [
        "Longbow Guardian"
      ],
      "costumes": [
        "Longbow_Male_Group_01_Minion_01",
        "Longbow_Male_Group_01_Minion_02",
        "Longbow_Male_Group_01_Minion_03",
        "Longbow_Male_Group_01_Minion_04",
        "Longbow_Male_Group_01_Minion_05"
      ]
    },
    {
      "level": 5,
      "experience": 0,
      "display_names": [
        "Longbow Guardian"
      ],
      "costumes": [
        "Longbow_Male_Group_01_Minion_01",
        "Longbow_Male_Group_01_Minion_02",
        "Longbow_Male_Group_01_Minion_03",
        "Longbow_Male_Group_01_Minion_04",
        "Longbow_Male_Group_01_Minion_05"
      ]
    },
    {
      "level": 6,
      "experience": 0,
      "display_names": [
        "Longbow Guardian"
      ],
      "costumes": [
        "Longbow_Male_Group_01_Minion_01",
        "Longbow_Male_Group_01_Minion_02",
        "Longbow_Male_Group_01_Minion_03",
        "Longbow_Male_Group_01_Minion_04",
        "Longbow_Male_Group_01_Minion_05"
      ]
    },
    {
      "level": 7,
      "experience": 0,
      "display_names": [
        "Longbow Guardian"
      ],
      "costumes": [
        "Longbow_Male_Group_01_Minion_01",
        "Longbow_Male_Group_01_Minion_02",
        "Longbow_Male_Group_01_Minion_03",
        "Longbow_Male_Group_01_Minion_04",
        "Longbow_Male_Group_01_Minion_05"
      ]
    },
    {
      "level": 8,
      "experience": 0,
      "display_names": [
        "Longbow Guardian"
      ],
      "costumes": [
        "Longbow_Male_Group_01_Minion_01",
        "Longbow_Male_Group_01_Minion_02",
        "Longbow_Male_Group_01_Minion_03",
        "Longbow_Male_Group_01_Minion_04",
        "Longbow_Male_Group_01_Minion_05"
      ]
    },
    {
      "level": 9,
      "experience": 0,
      "display_names": [
        "Longbow Guardian"
      ],
      "costumes": [
        "Longbow_Male_Group_01_Minion_01",
        "Longbow_Male_Group_01_Minion_02",
        "Longbow_Male_Group_01_Minion_03",
        "Longbow_Male_Group_01_Minion_04",
        "Longbow_Male_Group_01_Minion_05"
      ]
    }
  ]
}