{
  "name": "FreedomCorps_Agent_Crimson_Boss_NoScale",
  "gender": "GENDER_MALE",
  "description": "Rumors abound throughout the villain underground about two incredibly dangerous government operatives, code-named Agent Crimson and Agent Indigo. Crimson is the wet-work specialist. A highly-trained agent with superhuman senses, Crimson has cut down several potential threats to the world before they could achieve their plans.",
  "group_description": "Longbow",
  "display_class_name": "Hero",
  "character_class_name": "boss_grunt",
  "ai_config": "Default",
  "commandable_pet": false,
  "power_tags": [
    "HumanSkeleton",
    "Human"
  ],
  "additional_rewards": [

  ],
  "skill_hp_rewards": [

  ],
  "skill_status_rewards": [

  ],
  "ally": null,
  "gang": null,
  "reward_scale": 1.0,
  "game_exclusion": "None",
  "inactive_state_weapon": null,
  "ignores_combat_mods": false,
  "copy_creator_mods": false,
  "spawn_limit": 0,
  "spawn_limit_mission": 0,
  "ignore_av_to_eb_scaling": true,
  "can_zone": false,
  "custom_badge_stat": null,
  "badge_stat_flags": "DefaultBadgeStat",
  "rank": "VR_BOSS",
  "power_full_names": [
    "V_Vindicators.Vindicator_Resistances.Resistance",
    "V_FreedomCorps.Agent_Crimson.Quickness",
    "V_FreedomCorps.Agent_Crimson.Cloaking_Device",
    "V_FreedomCorps.Agent_Crimson.Eagles_Claw",
    "V_FreedomCorps.Agent_Crimson.Crane_Kick",
    "V_FreedomCorps.Agent_Crimson.Thunder_Kick",
    "V_FreedomCorps.Agent_Crimson.Exploding_Shuriken",
    "V_FreedomCorps.Agent_Crimson.Poison_Dart"
  ],
  "power_display_names": [
    "Resistance",
    "Quickness",
    "Cloaking Device",
    "Eagles Claw",
    "Crane Kick",
    "Thunder Kick",
    "Exploding Shuriken",
    "Poison Dart"
  ],
  "power_levels": [
    0,
    0,
    0,
    0,
    0,
    0,
    0,
    0
  ],
  "powers": [
    {
      "power_category": "V_Vindicators",
      "power_set": "Vindicator_Resistances",
      "power": "*",
      "level": 0
    },
    {
      "power_category": "V_FreedomCorps",
      "power_set": "Agent_Crimson",
      "power": "Quickness",
      "level": 0
    },
    {
      "power_category": "V_FreedomCorps",
      "power_set": "Agent_Crimson",
      "power": "Cloaking_Device",
      "level": 0
    },
    {
      "power_category": "V_FreedomCorps",
      "power_set": "Agent_Crimson",
      "power": "Eagles_Claw",
      "level": 0
    },
    {
      "power_category": "V_FreedomCorps",
      "power_set": "Agent_Crimson",
      "power": "Crane_Kick",
      "level": 0
    },
    {
      "power_category": "V_FreedomCorps",
      "power_set": "Agent_Crimson",
      "power": "Thunder_Kick",
      "level": 0
    },
    {
      "power_category": "V_FreedomCorps",
      "power_set": "Agent_Crimson",
      "power": "Exploding_Shuriken",
      "level": 0
    },
    {
      "power_category": "V_FreedomCorps",
      "power_set": "Agent_Crimson",
      "power": "Poison_Dart",
      "level": 0
    }
  ],
  "levels": [
    {
      "level": 40,
      "experience": 0,
      "display_names": [
        "Agent Crimson"
      ],
      "costumes": [
        "Model_Agent_Crimson"
      ]
    },
    {
      "level": 41,
      "experience": 0,
      "display_names": [
        "Agent Crimson"
      ],
      "costumes": [
        "Model_Agent_Crimson"
      ]
    },
    {
      "level": 42,
      "experience": 0,
      "display_names": [
        "Agent Crimson"
      ],
      "costumes": [
        "Model_Agent_Crimson"
      ]
    },
    {
      "level": 43,
      "experience": 0,
      "display_names": [
        "Agent Crimson"
      ],
      "costumes": [
        "Model_Agent_Crimson"
      ]
    },
    {
      "level": 44,
      "experience": 0,
      "display_names": [
        "Agent Crimson"
      ],
      "costumes": [
        "Model_Agent_Crimson"
      ]
    },
    {
      "level": 45,
      "experience": 0,
      "display_names": [
        "Agent Crimson"
      ],
      "costumes": [
        "Model_Agent_Crimson"
      ]
    },
    {
      "level": 46,
      "experience": 0,
      "display_names": [
        "Agent Crimson"
      ],
      "costumes": [
        "Model_Agent_Crimson"
      ]
    },
    {
      "level": 47,
      "experience": 0,
      "display_names": [
        "Agent Crimson"
      ],
      "costumes": [
        "Model_Agent_Crimson"
      ]
    },
    {
      "level": 48,
      "experience": 0,
      "display_names": [
        "Agent Crimson"
      ],
      "costumes": [
        "Model_Agent_Crimson"
      ]
    },
    {
      "level": 49,
      "experience": 0,
      "display_names": [
        "Agent Crimson"
      ],
      "costumes": [
        "Model_Agent_Crimson"
      ]
    },
    {
      "level": 50,
      "experience": 0,
      "display_names": [
        "Agent Crimson"
      ],
      "costumes": [
        "Model_Agent_Crimson"
      ]
    },
    {
      "level": 51,
      "experience": 0,
      "display_names": [
        "Agent Crimson"
      ],
      "costumes": [
        "Model_Agent_Crimson"
      ]
    },
    {
      "level": 52,
      "experience": 0,
      "display_names": [
        "Agent Crimson"
      ],
      "costumes": [
        "Model_Agent_Crimson"
      ]
    },
    {
      "level": 53,
      "experience": 0,
      "display_names": [
        "Agent Crimson"
      ],
      "costumes": [
        "Model_Agent_Crimson"
      ]
    },
    {
      "level": 54,
      "experience": 0,
      "display_names": [
        "Agent Crimson"
      ],
      "costumes": [
        "Model_Agent_Crimson"
      ]
    }
  ]
}