{
  "name": "FreedomCorps_Warden_SS_Tanker_41-54_Female",
  "gender": "GENDER_FEMALE",
  "description": "Serums, training, and micro-enhancers create these self-righteous and super-strong tankers.",
  "group_description": "Longbow",
  "display_class_name": null,
  "character_class_name": "boss_grunt",
  "ai_config": "Default_Melee",
  "commandable_pet": false,
  "power_tags": [
    "Humanoid",
    "HumanSkeleton"
  ],
  "additional_rewards": [

  ],
  "skill_hp_rewards": [

  ],
  "skill_status_rewards": [

  ],
  "ally": "Hero",
  "gang": null,
  "reward_scale": 1.25,
  "game_exclusion": "None",
  "inactive_state_weapon": null,
  "ignores_combat_mods": false,
  "copy_creator_mods": false,
  "spawn_limit": -1,
  "spawn_limit_mission": -1,
  "ignore_av_to_eb_scaling": false,
  "can_zone": false,
  "custom_badge_stat": null,
  "badge_stat_flags": "DefaultBadgeStat",
  "rank": "VR_BOSS",
  "power_full_names": [
    "V_GenericHeroes.SS_Tanker.Jab",
    "V_GenericHeroes.SS_Tanker.Punch",
    "V_GenericHeroes.SS_Tanker.Hurl",
    "V_GenericHeroes.SS_Tanker.Temp_Invulnerability",
    "V_GenericHeroes.SS_Tanker.Resistance",
    "V_GenericHeroes.SS_Tanker_Low.Haymaker",
    "V_GenericHeroes.SS_Tanker_Low.Hand_Clap",
    "V_GenericHeroes.SS_Tanker_Low.Unyielding",
    "V_GenericHeroes.SS_Tanker_Mid.Knockout_Blow",
    "V_GenericHeroes.SS_Tanker_Mid.Foot_Stomp",
    "V_GenericHeroes.SS_Tanker_High.Unstoppable",
    "V_GenericHeroes.Hero_Flight.Fly",
    "V_GenericHeroes.Hero_Flight.Fly_fx"
  ],
  "power_display_names": [
    "Jab",
    "Punch",
    "Hurl",
    "Temp Invulnerability",
    "Resistance",
    "Haymaker",
    "Hand Clap",
    "Unyielding",
    "Knockout Blow",
    "Foot Stomp",
    "Unstoppable",
    "Fly",
    "Fly fx"
  ],
  "power_levels": [
    0,
    0,
    0,
    0,
    0,
    0,
    0,
    0,
    0,
    0,
    0,
    0,
    0
  ],
  "powers": [
    {
      "power_category": "V_GenericHeroes",
      "power_set": "SS_Tanker",
      "power": "*",
      "level": 0
    },
    {
      "power_category": "V_GenericHeroes",
      "power_set": "SS_Tanker_Low",
      "power": "*",
      "level": 0
    },
    {
      "power_category": "V_GenericHeroes",
      "power_set": "SS_Tanker_Mid",
      "power": "*",
      "level": 0
    },
    {
      "power_category": "V_GenericHeroes",
      "power_set": "SS_Tanker_High",
      "power": "*",
      "level": 0
    },
    {
      "power_category": "V_GenericHeroes",
      "power_set": "Hero_Flight",
      "power": "*",
      "level": 0
    }
  ],
  "levels": [
    {
      "level": 41,
      "experience": 0,
      "display_names": [
        "Longbow Warden"
      ],
      "costumes": [
        "Longbow_Female_Boss_03",
        "Longbow_Female_Boss_05"
      ]
    },
    {
      "level": 42,
      "experience": 0,
      "display_names": [
        "Longbow Warden"
      ],
      "costumes": [
        "Longbow_Female_Boss_03",
        "Longbow_Female_Boss_05"
      ]
    },
    {
      "level": 43,
      "experience": 0,
      "display_names": [
        "Longbow Warden"
      ],
      "costumes": [
        "Longbow_Female_Boss_03",
        "Longbow_Female_Boss_05"
      ]
    },
    {
      "level": 44,
      "experience": 0,
      "display_names": [
        "Longbow Warden"
      ],
      "costumes": [
        "Longbow_Female_Boss_03",
        "Longbow_Female_Boss_05"
      ]
    },
    {
      "level": 45,
      "experience": 0,
      "display_names": [
        "Longbow Warden"
      ],
      "costumes": [
        "Longbow_Female_Boss_03",
        "Longbow_Female_Boss_05"
      ]
    },
    {
      "level": 46,
      "experience": 0,
      "display_names": [
        "Longbow Warden"
      ],
      "costumes": [
        "Longbow_Female_Boss_03",
        "Longbow_Female_Boss_05"
      ]
    },
    {
      "level": 47,
      "experience": 0,
      "display_names": [
        "Longbow Warden"
      ],
      "costumes": [
        "Longbow_Female_Boss_03",
        "Longbow_Female_Boss_05"
      ]
    },
    {
      "level": 48,
      "experience": 0,
      "display_names": [
        "Longbow Warden"
      ],
      "costumes": [
        "Longbow_Female_Boss_03",
        "Longbow_Female_Boss_05"
      ]
    },
    {
      "level": 49,
      "experience": 0,
      "display_names": [
        "Longbow Warden"
      ],
      "costumes": [
        "Longbow_Female_Boss_03",
        "Longbow_Female_Boss_05"
      ]
    },
    {
      "level": 50,
      "experience": 0,
      "display_names": [
        "Longbow Warden"
      ],
      "costumes": [
        "Longbow_Female_Boss_03",
        "Longbow_Female_Boss_05"
      ]
    },
    {
      "level": 51,
      "experience": 0,
      "display_names": [
        "Longbow Warden"
      ],
      "costumes": [
        "Longbow_Female_Boss_03",
        "Longbow_Female_Boss_05"
      ]
    },
    {
      "level": 52,
      "experience": 0,
      "display_names": [
        "Longbow Warden"
      ],
      "costumes": [
        "Longbow_Female_Boss_03",
        "Longbow_Female_Boss_05"
      ]
    },
    {
      "level": 53,
      "experience": 0,
      "display_names": [
        "Longbow Warden"
      ],
      "costumes": [
        "Longbow_Female_Boss_03",
        "Longbow_Female_Boss_05"
      ]
    },
    {
      "level": 54,
      "experience": 0,
      "display_names": [
        "Longbow Warden"
      ],
      "costumes": [
        "Longbow_Female_Boss_03",
        "Longbow_Female_Boss_05"
      ]
    }
  ]
}