{
  "name": "FreedomCorps_Warden_Mind_Controller_31-40",
  "gender": "GENDER_MALE",
  "description": "There are few things villains hate more than having their minds messed with. It's standard operating procedure to take down these annoying psychics first in a brawl with Longbow.",
  "group_description": "Longbow",
  "display_class_name": null,
  "character_class_name": "boss_grunt",
  "ai_config": "Default_Ranged",
  "commandable_pet": false,
  "power_tags": [
    "Humanoid",
    "HumanSkeleton"
  ],
  "additional_rewards": [

  ],
  "skill_hp_rewards": [

  ],
  "skill_status_rewards": [

  ],
  "ally": "Hero",
  "gang": null,
  "reward_scale": 1.25,
  "game_exclusion": "None",
  "inactive_state_weapon": null,
  "ignores_combat_mods": false,
  "copy_creator_mods": false,
  "spawn_limit": -1,
  "spawn_limit_mission": -1,
  "ignore_av_to_eb_scaling": false,
  "can_zone": false,
  "custom_badge_stat": null,
  "badge_stat_flags": "DefaultBadgeStat",
  "rank": "VR_BOSS",
  "power_full_names": [
    "V_GenericHeroes.Mind_Controller.Heal_Other",
    "V_GenericHeroes.Mind_Controller.Healing_Aura",
    "V_GenericHeroes.Mind_Controller.Fortitude",
    "V_GenericHeroes.Mind_Controller.Regeneration_Aura",
    "V_GenericHeroes.Mind_Controller.Levitate",
    "V_GenericHeroes.Mind_Controller.Dominate",
    "V_GenericHeroes.Mind_Controller.Terrify",
    "V_GenericHeroes.Mind_Controller.Mass_Hypnosis",
    "V_GenericHeroes.Hero_Flight.Fly",
    "V_GenericHeroes.Hero_Flight.Fly_fx"
  ],
  "power_display_names": [
    "Heal Other",
    "Healing Aura",
    "Fortitude",
    "Regeneration Aura",
    "Levitate",
    "Dominate",
    "Terrify",
    "Mass Hypnosis",
    "Fly",
    "Fly fx"
  ],
  "power_levels": [
    0,
    0,
    0,
    0,
    0,
    0,
    0,
    0,
    0,
    0
  ],
  "powers": [
    {
      "power_category": "V_GenericHeroes",
      "power_set": "Mind_Controller",
      "power": "*",
      "level": 0
    },
    {
      "power_category": "V_GenericHeroes",
      "power_set": "Hero_Flight",
      "power": "*",
      "level": 0
    }
  ],
  "levels": [
    {
      "level": 31,
      "experience": 0,
      "display_names": [
        "Longbow Warden"
      ],
      "costumes": [
        "Longbow_Male_Boss_04",
        "Longbow_Male_Boss_05"
      ]
    },
    {
      "level": 32,
      "experience": 0,
      "display_names": [
        "Longbow Warden"
      ],
      "costumes": [
        "Longbow_Male_Boss_04",
        "Longbow_Male_Boss_05"
      ]
    },
    {
      "level": 33,
      "experience": 0,
      "display_names": [
        "Longbow Warden"
      ],
      "costumes": [
        "Longbow_Male_Boss_04",
        "Longbow_Male_Boss_05"
      ]
    },
    {
      "level": 34,
      "experience": 0,
      "display_names": [
        "Longbow Warden"
      ],
      "costumes": [
        "Longbow_Male_Boss_04",
        "Longbow_Male_Boss_05"
      ]
    },
    {
      "level": 35,
      "experience": 0,
      "display_names": [
        "Longbow Warden"
      ],
      "costumes": [
        "Longbow_Male_Boss_04",
        "Longbow_Male_Boss_05"
      ]
    },
    {
      "level": 36,
      "experience": 0,
      "display_names": [
        "Longbow Warden"
      ],
      "costumes": [
        "Longbow_Male_Boss_04",
        "Longbow_Male_Boss_05"
      ]
    },
    {
      "level": 37,
      "experience": 0,
      "display_names": [
        "Longbow Warden"
      ],
      "costumes": [
        "Longbow_Male_Boss_04",
        "Longbow_Male_Boss_05"
      ]
    },
    {
      "level": 38,
      "experience": 0,
      "display_names": [
        "Longbow Warden"
      ],
      "costumes": [
        "Longbow_Male_Boss_04",
        "Longbow_Male_Boss_05"
      ]
    },
    {
      "level": 39,
      "experience": 0,
      "display_names": [
        "Longbow Warden"
      ],
      "costumes": [
        "Longbow_Male_Boss_04",
        "Longbow_Male_Boss_05"
      ]
    },
    {
      "level": 40,
      "experience": 0,
      "display_names": [
        "Longbow Warden"
      ],
      "costumes": [
        "Longbow_Male_Boss_04",
        "Longbow_Male_Boss_05"
      ]
    }
  ]
}