{
  "name": "FreedomCorps_Warden_Radiation_Defender_21-30",
  "gender": "GENDER_MALE",
  "description": "It's said the defeat of the villain Chernobyl lead to the powers granted the Radiation Wardens. Longbow's nerds were somehow able to turn his blood sample into a powerful serum that grants one these unusual powers--without the usual side-effects.",
  "group_description": "Longbow",
  "display_class_name": null,
  "character_class_name": "boss_grunt",
  "ai_config": "Default_Ranged",
  "commandable_pet": false,
  "power_tags": [
    "Humanoid",
    "HumanSkeleton"
  ],
  "additional_rewards": [

  ],
  "skill_hp_rewards": [

  ],
  "skill_status_rewards": [

  ],
  "ally": "Hero",
  "gang": null,
  "reward_scale": 1.25,
  "game_exclusion": "None",
  "inactive_state_weapon": null,
  "ignores_combat_mods": false,
  "copy_creator_mods": false,
  "spawn_limit": -1,
  "spawn_limit_mission": -1,
  "ignore_av_to_eb_scaling": false,
  "can_zone": false,
  "custom_badge_stat": null,
  "badge_stat_flags": "DefaultBadgeStat",
  "rank": "VR_BOSS",
  "power_full_names": [
    "V_GenericHeroes.Radiation_Defender_Low.Neutrino_Bolt",
    "V_GenericHeroes.Radiation_Defender_Low.X-Ray_Beam",
    "V_GenericHeroes.Radiation_Defender_Low.Enervating__Field",
    "V_GenericHeroes.Radiation_Defender_Low.Electron_Haze",
    "V_GenericHeroes.Radiation_Defender_Low.Lingering_Radiation",
    "V_GenericHeroes.Radiation_Defender_Low.Cosmic_Burst",
    "V_GenericHeroes.Hero_Flight.Fly",
    "V_GenericHeroes.Hero_Flight.Fly_fx"
  ],
  "power_display_names": [
    "Neutrino Bolt",
    "X-Ray Beam",
    "Enervating Field",
    "Electron Haze",
    "Lingering Radiation",
    "Cosmic Burst",
    "Fly",
    "Fly fx"
  ],
  "power_levels": [
    0,
    0,
    0,
    0,
    0,
    0,
    0,
    0
  ],
  "powers": [
    {
      "power_category": "V_GenericHeroes",
      "power_set": "Radiation_Defender_Low",
      "power": "*",
      "level": 0
    },
    {
      "power_category": "V_GenericHeroes",
      "power_set": "Hero_Flight",
      "power": "*",
      "level": 0
    }
  ],
  "levels": [
    {
      "level": 21,
      "experience": 0,
      "display_names": [
        "Longbow Warden"
      ],
      "costumes": [
        "Longbow_Male_Boss_04",
        "Longbow_Male_Boss_05"
      ]
    },
    {
      "level": 22,
      "experience": 0,
      "display_names": [
        "Longbow Warden"
      ],
      "costumes": [
        "Longbow_Male_Boss_04",
        "Longbow_Male_Boss_05"
      ]
    },
    {
      "level": 23,
      "experience": 0,
      "display_names": [
        "Longbow Warden"
      ],
      "costumes": [
        "Longbow_Male_Boss_04",
        "Longbow_Male_Boss_05"
      ]
    },
    {
      "level": 24,
      "experience": 0,
      "display_names": [
        "Longbow Warden"
      ],
      "costumes": [
        "Longbow_Male_Boss_04",
        "Longbow_Male_Boss_05"
      ]
    },
    {
      "level": 25,
      "experience": 0,
      "display_names": [
        "Longbow Warden"
      ],
      "costumes": [
        "Longbow_Male_Boss_04",
        "Longbow_Male_Boss_05"
      ]
    },
    {
      "level": 26,
      "experience": 0,
      "display_names": [
        "Longbow Warden"
      ],
      "costumes": [
        "Longbow_Male_Boss_04",
        "Longbow_Male_Boss_05"
      ]
    },
    {
      "level": 27,
      "experience": 0,
      "display_names": [
        "Longbow Warden"
      ],
      "costumes": [
        "Longbow_Male_Boss_04",
        "Longbow_Male_Boss_05"
      ]
    },
    {
      "level": 28,
      "experience": 0,
      "display_names": [
        "Longbow Warden"
      ],
      "costumes": [
        "Longbow_Male_Boss_04",
        "Longbow_Male_Boss_05"
      ]
    },
    {
      "level": 29,
      "experience": 0,
      "display_names": [
        "Longbow Warden"
      ],
      "costumes": [
        "Longbow_Male_Boss_04",
        "Longbow_Male_Boss_05"
      ]
    },
    {
      "level": 30,
      "experience": 0,
      "display_names": [
        "Longbow Warden"
      ],
      "costumes": [
        "Longbow_Male_Boss_04",
        "Longbow_Male_Boss_05"
      ]
    }
  ]
}