{
  "name": "FreedomCorps_Warden_Energy_Blaster_16-20_Female",
  "gender": "GENDER_FEMALE",
  "description": "Longbow created these troopers after noting the success of the super heroes called 'blasters.' Their energy weapons cause significant damage, especially against those whose powers offer no resistance to such forces.",
  "group_description": "Longbow",
  "display_class_name": null,
  "character_class_name": "boss_grunt",
  "ai_config": "Default_Ranged",
  "commandable_pet": false,
  "power_tags": [
    "Humanoid",
    "HumanSkeleton"
  ],
  "additional_rewards": [

  ],
  "skill_hp_rewards": [

  ],
  "skill_status_rewards": [

  ],
  "ally": "Hero",
  "gang": null,
  "reward_scale": 1.25,
  "game_exclusion": "None",
  "inactive_state_weapon": null,
  "ignores_combat_mods": false,
  "copy_creator_mods": false,
  "spawn_limit": -1,
  "spawn_limit_mission": -1,
  "ignore_av_to_eb_scaling": false,
  "can_zone": false,
  "custom_badge_stat": null,
  "badge_stat_flags": "DefaultBadgeStat",
  "rank": "VR_BOSS",
  "power_full_names": [
    "V_GenericHeroes.Energy_Blaster_Low.Power_Bolt",
    "V_GenericHeroes.Energy_Blaster_Low.Power_Blast",
    "V_GenericHeroes.Energy_Blaster_Low.Explosive_Blast",
    "V_GenericHeroes.Energy_Blaster_Mid.Power_Thrust",
    "V_GenericHeroes.Energy_Blaster_High.Energy_Torrent",
    "V_GenericHeroes.Energy_Blaster_High.Power_Burst",
    "V_GenericHeroes.Hero_Flight.Fly",
    "V_GenericHeroes.Hero_Flight.Fly_fx"
  ],
  "power_display_names": [
    "Power Bolt",
    "Power Blast",
    "Explosive Blast",
    "Power Thrust",
    "Energy Torrent",
    "Power Burst",
    "Fly",
    "Fly fx"
  ],
  "power_levels": [
    0,
    0,
    0,
    0,
    0,
    0,
    0,
    0
  ],
  "powers": [
    {
      "power_category": "V_GenericHeroes",
      "power_set": "Energy_Blaster_Low",
      "power": "*",
      "level": 0
    },
    {
      "power_category": "V_GenericHeroes",
      "power_set": "Energy_Blaster_Mid",
      "power": "*",
      "level": 0
    },
    {
      "power_category": "V_GenericHeroes",
      "power_set": "Energy_Blaster_High",
      "power": "*",
      "level": 0
    },
    {
      "power_category": "V_GenericHeroes",
      "power_set": "Hero_Flight",
      "power": "*",
      "level": 0
    }
  ],
  "levels": [
    {
      "level": 16,
      "experience": 0,
      "display_names": [
        "Longbow Warden"
      ],
      "costumes": [
        "Longbow_Female_Boss_03",
        "Longbow_Female_Boss_05"
      ]
    },
    {
      "level": 17,
      "experience": 0,
      "display_names": [
        "Longbow Warden"
      ],
      "costumes": [
        "Longbow_Female_Boss_03",
        "Longbow_Female_Boss_05"
      ]
    },
    {
      "level": 18,
      "experience": 0,
      "display_names": [
        "Longbow Warden"
      ],
      "costumes": [
        "Longbow_Female_Boss_03",
        "Longbow_Female_Boss_05"
      ]
    },
    {
      "level": 19,
      "experience": 0,
      "display_names": [
        "Longbow Warden"
      ],
      "costumes": [
        "Longbow_Female_Boss_03",
        "Longbow_Female_Boss_05"
      ]
    },
    {
      "level": 20,
      "experience": 0,
      "display_names": [
        "Longbow Warden"
      ],
      "costumes": [
        "Longbow_Female_Boss_03",
        "Longbow_Female_Boss_05"
      ]
    }
  ]
}