{
  "name": "FreedomCorps_Chaser",
  "gender": "GENDER_MALE",
  "description": "Longbow based their Chaser units on the highly successful Sky Raider skiffs.",
  "group_description": "Longbow",
  "display_class_name": null,
  "character_class_name": "lt_grunt",
  "ai_config": "Default_Ranged",
  "commandable_pet": false,
  "power_tags": [
    "Electronic"
  ],
  "additional_rewards": [

  ],
  "skill_hp_rewards": [

  ],
  "skill_status_rewards": [

  ],
  "ally": "Hero",
  "gang": null,
  "reward_scale": 1.1,
  "game_exclusion": "None",
  "inactive_state_weapon": null,
  "ignores_combat_mods": false,
  "copy_creator_mods": false,
  "spawn_limit": 0,
  "spawn_limit_mission": 0,
  "ignore_av_to_eb_scaling": false,
  "can_zone": false,
  "custom_badge_stat": null,
  "badge_stat_flags": "DefaultBadgeStat",
  "rank": "VR_LIEUTENANT",
  "power_full_names": [
    "V_FreedomCorps.Chaser.Missile_Launcher",
    "V_FreedomCorps.Chaser.Incendiary_Rocket_Launcher",
    "V_FreedomCorps.Chaser.Chain_Gun",
    "V_FreedomCorps.Chaser.Armor_Plating",
    "V_FreedomCorps.Chaser.Fly",
    "V_FreedomCorps.Chaser.Fly_fx",
    "V_FreedomCorps.Resistance.Tech_Armor"
  ],
  "power_display_names": [
    "Missile Launcher",
    "Incendiary Rocket Launcher",
    "Chain Gun",
    "Armor Plating",
    "Fly",
    "Fly fx",
    "Tech Armor"
  ],
  "power_levels": [
    0,
    0,
    0,
    0,
    0,
    0,
    0
  ],
  "powers": [
    {
      "power_category": "V_FreedomCorps",
      "power_set": "Chaser",
      "power": "*",
      "level": 0
    },
    {
      "power_category": "V_FreedomCorps",
      "power_set": "Resistance",
      "power": "*",
      "level": 0
    }
  ],
  "levels": [
    {
      "level": 20,
      "experience": 0,
      "display_names": [
        "Longbow Chaser"
      ],
      "costumes": [
        "Longbow_Skiff"
      ]
    },
    {
      "level": 21,
      "experience": 0,
      "display_names": [
        "Longbow Chaser"
      ],
      "costumes": [
        "Longbow_Skiff"
      ]
    },
    {
      "level": 22,
      "experience": 0,
      "display_names": [
        "Longbow Chaser"
      ],
      "costumes": [
        "Longbow_Skiff"
      ]
    },
    {
      "level": 23,
      "experience": 0,
      "display_names": [
        "Longbow Chaser"
      ],
      "costumes": [
        "Longbow_Skiff"
      ]
    },
    {
      "level": 24,
      "experience": 0,
      "display_names": [
        "Longbow Chaser"
      ],
      "costumes": [
        "Longbow_Skiff"
      ]
    },
    {
      "level": 25,
      "experience": 0,
      "display_names": [
        "Longbow Chaser"
      ],
      "costumes": [
        "Longbow_Skiff"
      ]
    },
    {
      "level": 26,
      "experience": 0,
      "display_names": [
        "Longbow Chaser"
      ],
      "costumes": [
        "Longbow_Skiff"
      ]
    },
    {
      "level": 27,
      "experience": 0,
      "display_names": [
        "Longbow Chaser"
      ],
      "costumes": [
        "Longbow_Skiff"
      ]
    },
    {
      "level": 28,
      "experience": 0,
      "display_names": [
        "Longbow Chaser"
      ],
      "costumes": [
        "Longbow_Skiff"
      ]
    },
    {
      "level": 29,
      "experience": 0,
      "display_names": [
        "Longbow Chaser"
      ],
      "costumes": [
        "Longbow_Skiff"
      ]
    },
    {
      "level": 30,
      "experience": 0,
      "display_names": [
        "Longbow Chaser"
      ],
      "costumes": [
        "Longbow_Skiff"
      ]
    },
    {
      "level": 31,
      "experience": 0,
      "display_names": [
        "Longbow Chaser"
      ],
      "costumes": [
        "Longbow_Skiff"
      ]
    },
    {
      "level": 32,
      "experience": 0,
      "display_names": [
        "Longbow Chaser"
      ],
      "costumes": [
        "Longbow_Skiff"
      ]
    },
    {
      "level": 33,
      "experience": 0,
      "display_names": [
        "Longbow Chaser"
      ],
      "costumes": [
        "Longbow_Skiff"
      ]
    },
    {
      "level": 34,
      "experience": 0,
      "display_names": [
        "Longbow Chaser"
      ],
      "costumes": [
        "Longbow_Skiff"
      ]
    },
    {
      "level": 35,
      "experience": 0,
      "display_names": [
        "Longbow Chaser"
      ],
      "costumes": [
        "Longbow_Skiff"
      ]
    },
    {
      "level": 36,
      "experience": 0,
      "display_names": [
        "Longbow Chaser"
      ],
      "costumes": [
        "Longbow_Skiff"
      ]
    },
    {
      "level": 37,
      "experience": 0,
      "display_names": [
        "Longbow Chaser"
      ],
      "costumes": [
        "Longbow_Skiff"
      ]
    },
    {
      "level": 38,
      "experience": 0,
      "display_names": [
        "Longbow Chaser"
      ],
      "costumes": [
        "Longbow_Skiff"
      ]
    },
    {
      "level": 39,
      "experience": 0,
      "display_names": [
        "Longbow Chaser"
      ],
      "costumes": [
        "Longbow_Skiff"
      ]
    },
    {
      "level": 40,
      "experience": 0,
      "display_names": [
        "Longbow Chaser"
      ],
      "costumes": [
        "Longbow_Skiff"
      ]
    },
    {
      "level": 41,
      "experience": 0,
      "display_names": [
        "Longbow Chaser"
      ],
      "costumes": [
        "Longbow_Skiff"
      ]
    },
    {
      "level": 42,
      "experience": 0,
      "display_names": [
        "Longbow Chaser"
      ],
      "costumes": [
        "Longbow_Skiff"
      ]
    },
    {
      "level": 43,
      "experience": 0,
      "display_names": [
        "Longbow Chaser"
      ],
      "costumes": [
        "Longbow_Skiff"
      ]
    },
    {
      "level": 44,
      "experience": 0,
      "display_names": [
        "Longbow Chaser"
      ],
      "costumes": [
        "Longbow_Skiff"
      ]
    },
    {
      "level": 45,
      "experience": 0,
      "display_names": [
        "Longbow Chaser"
      ],
      "costumes": [
        "Longbow_Skiff"
      ]
    },
    {
      "level": 46,
      "experience": 0,
      "display_names": [
        "Longbow Chaser"
      ],
      "costumes": [
        "Longbow_Skiff"
      ]
    },
    {
      "level": 47,
      "experience": 0,
      "display_names": [
        "Longbow Chaser"
      ],
      "costumes": [
        "Longbow_Skiff"
      ]
    },
    {
      "level": 48,
      "experience": 0,
      "display_names": [
        "Longbow Chaser"
      ],
      "costumes": [
        "Longbow_Skiff"
      ]
    },
    {
      "level": 49,
      "experience": 0,
      "display_names": [
        "Longbow Chaser"
      ],
      "costumes": [
        "Longbow_Skiff"
      ]
    },
    {
      "level": 50,
      "experience": 0,
      "display_names": [
        "Longbow Chaser"
      ],
      "costumes": [
        "Longbow_Skiff"
      ]
    },
    {
      "level": 51,
      "experience": 0,
      "display_names": [
        "Longbow Chaser"
      ],
      "costumes": [
        "Longbow_Skiff"
      ]
    },
    {
      "level": 52,
      "experience": 0,
      "display_names": [
        "Longbow Chaser"
      ],
      "costumes": [
        "Longbow_Skiff"
      ]
    },
    {
      "level": 53,
      "experience": 0,
      "display_names": [
        "Longbow Chaser"
      ],
      "costumes": [
        "Longbow_Skiff"
      ]
    },
    {
      "level": 54,
      "experience": 0,
      "display_names": [
        "Longbow Chaser"
      ],
      "costumes": [
        "Longbow_Skiff"
      ]
    }
  ]
}