{
  "name": "FreedomCorps_Flamethrower_low_female",
  "gender": "GENDER_FEMALE",
  "description": "Harkening back to the days of flaming arrows are Longbow's flamethrowers. They typically try not to use these when the press is around--burning enemies alive plays poorly on the evening news for a 'heroic' organization.",
  "group_description": "Longbow",
  "display_class_name": null,
  "character_class_name": "minion_grunt",
  "ai_config": "Default_Ranged",
  "commandable_pet": false,
  "power_tags": [
    "HumanSkeleton",
    "Human"
  ],
  "additional_rewards": [

  ],
  "skill_hp_rewards": [

  ],
  "skill_status_rewards": [

  ],
  "ally": "Hero",
  "gang": null,
  "reward_scale": 1.1,
  "game_exclusion": "None",
  "inactive_state_weapon": null,
  "ignores_combat_mods": false,
  "copy_creator_mods": false,
  "spawn_limit": -1,
  "spawn_limit_mission": -1,
  "ignore_av_to_eb_scaling": false,
  "can_zone": false,
  "custom_badge_stat": null,
  "badge_stat_flags": "DefaultBadgeStat",
  "rank": "VR_MINION",
  "power_full_names": [
    "V_FreedomCorps.Minion_Flamethrower.Flamethrower",
    "V_FreedomCorps.Minion_Flamethrower.Brawl",
    "V_FreedomCorps.Resistance.Tech_Armor"
  ],
  "power_display_names": [
    "Flamethrower",
    "Brawl",
    "Tech Armor"
  ],
  "power_levels": [
    0,
    0,
    0
  ],
  "powers": [
    {
      "power_category": "V_FreedomCorps",
      "power_set": "Minion_Flamethrower",
      "power": "Flamethrower",
      "level": 0
    },
    {
      "power_category": "V_FreedomCorps",
      "power_set": "Minion_Flamethrower",
      "power": "Brawl",
      "level": 0
    },
    {
      "power_category": "V_FreedomCorps",
      "power_set": "Resistance",
      "power": "*",
      "level": 0
    }
  ],
  "levels": [
    {
      "level": 10,
      "experience": 0,
      "display_names": [
        "Longbow Flamethrower"
      ],
      "costumes": [
        "Longbow_Female_Group_01_Minion_01",
        "Longbow_Female_Group_01_Minion_02",
        "Longbow_Female_Group_01_Minion_03",
        "Longbow_Female_Group_01_Minion_04",
        "Longbow_Female_Group_01_Minion_05"
      ]
    },
    {
      "level": 11,
      "experience": 0,
      "display_names": [
        "Longbow Flamethrower"
      ],
      "costumes": [
        "Longbow_Female_Group_01_Minion_01",
        "Longbow_Female_Group_01_Minion_02",
        "Longbow_Female_Group_01_Minion_03",
        "Longbow_Female_Group_01_Minion_04",
        "Longbow_Female_Group_01_Minion_05"
      ]
    },
    {
      "level": 12,
      "experience": 0,
      "display_names": [
        "Longbow Flamethrower"
      ],
      "costumes": [
        "Longbow_Female_Group_01_Minion_01",
        "Longbow_Female_Group_01_Minion_02",
        "Longbow_Female_Group_01_Minion_03",
        "Longbow_Female_Group_01_Minion_04",
        "Longbow_Female_Group_01_Minion_05"
      ]
    },
    {
      "level": 13,
      "experience": 0,
      "display_names": [
        "Longbow Flamethrower"
      ],
      "costumes": [
        "Longbow_Female_Group_01_Minion_01",
        "Longbow_Female_Group_01_Minion_02",
        "Longbow_Female_Group_01_Minion_03",
        "Longbow_Female_Group_01_Minion_04",
        "Longbow_Female_Group_01_Minion_05"
      ]
    },
    {
      "level": 14,
      "experience": 0,
      "display_names": [
        "Longbow Flamethrower"
      ],
      "costumes": [
        "Longbow_Female_Group_01_Minion_01",
        "Longbow_Female_Group_01_Minion_02",
        "Longbow_Female_Group_01_Minion_03",
        "Longbow_Female_Group_01_Minion_04",
        "Longbow_Female_Group_01_Minion_05"
      ]
    },
    {
      "level": 15,
      "experience": 0,
      "display_names": [
        "Longbow Flamethrower"
      ],
      "costumes": [
        "Longbow_Female_Group_01_Minion_01",
        "Longbow_Female_Group_01_Minion_02",
        "Longbow_Female_Group_01_Minion_03",
        "Longbow_Female_Group_01_Minion_04",
        "Longbow_Female_Group_01_Minion_05"
      ]
    },
    {
      "level": 16,
      "experience": 0,
      "display_names": [
        "Longbow Flamethrower"
      ],
      "costumes": [
        "Longbow_Female_Group_01_Minion_01",
        "Longbow_Female_Group_01_Minion_02",
        "Longbow_Female_Group_01_Minion_03",
        "Longbow_Female_Group_01_Minion_04",
        "Longbow_Female_Group_01_Minion_05"
      ]
    },
    {
      "level": 17,
      "experience": 0,
      "display_names": [
        "Longbow Flamethrower"
      ],
      "costumes": [
        "Longbow_Female_Group_01_Minion_01",
        "Longbow_Female_Group_01_Minion_02",
        "Longbow_Female_Group_01_Minion_03",
        "Longbow_Female_Group_01_Minion_04",
        "Longbow_Female_Group_01_Minion_05"
      ]
    },
    {
      "level": 18,
      "experience": 0,
      "display_names": [
        "Longbow Flamethrower"
      ],
      "costumes": [
        "Longbow_Female_Group_01_Minion_01",
        "Longbow_Female_Group_01_Minion_02",
        "Longbow_Female_Group_01_Minion_03",
        "Longbow_Female_Group_01_Minion_04",
        "Longbow_Female_Group_01_Minion_05"
      ]
    },
    {
      "level": 19,
      "experience": 0,
      "display_names": [
        "Longbow Flamethrower"
      ],
      "costumes": [
        "Longbow_Female_Group_01_Minion_01",
        "Longbow_Female_Group_01_Minion_02",
        "Longbow_Female_Group_01_Minion_03",
        "Longbow_Female_Group_01_Minion_04",
        "Longbow_Female_Group_01_Minion_05"
      ]
    },
    {
      "level": 20,
      "experience": 0,
      "display_names": [
        "Longbow Flamethrower"
      ],
      "costumes": [
        "Longbow_Female_Group_01_Minion_01",
        "Longbow_Female_Group_01_Minion_02",
        "Longbow_Female_Group_01_Minion_03",
        "Longbow_Female_Group_01_Minion_04",
        "Longbow_Female_Group_01_Minion_05"
      ]
    },
    {
      "level": 21,
      "experience": 0,
      "display_names": [
        "Longbow Flamethrower"
      ],
      "costumes": [
        "Longbow_Female_Group_01_Minion_01",
        "Longbow_Female_Group_01_Minion_02",
        "Longbow_Female_Group_01_Minion_03",
        "Longbow_Female_Group_01_Minion_04",
        "Longbow_Female_Group_01_Minion_05"
      ]
    },
    {
      "level": 22,
      "experience": 0,
      "display_names": [
        "Longbow Flamethrower"
      ],
      "costumes": [
        "Longbow_Female_Group_01_Minion_01",
        "Longbow_Female_Group_01_Minion_02",
        "Longbow_Female_Group_01_Minion_03",
        "Longbow_Female_Group_01_Minion_04",
        "Longbow_Female_Group_01_Minion_05"
      ]
    },
    {
      "level": 23,
      "experience": 0,
      "display_names": [
        "Longbow Flamethrower"
      ],
      "costumes": [
        "Longbow_Female_Group_01_Minion_01",
        "Longbow_Female_Group_01_Minion_02",
        "Longbow_Female_Group_01_Minion_03",
        "Longbow_Female_Group_01_Minion_04",
        "Longbow_Female_Group_01_Minion_05"
      ]
    },
    {
      "level": 24,
      "experience": 0,
      "display_names": [
        "Longbow Flamethrower"
      ],
      "costumes": [
        "Longbow_Female_Group_01_Minion_01",
        "Longbow_Female_Group_01_Minion_02",
        "Longbow_Female_Group_01_Minion_03",
        "Longbow_Female_Group_01_Minion_04",
        "Longbow_Female_Group_01_Minion_05"
      ]
    },
    {
      "level": 25,
      "experience": 0,
      "display_names": [
        "Longbow Flamethrower"
      ],
      "costumes": [
        "Longbow_Female_Group_01_Minion_01",
        "Longbow_Female_Group_01_Minion_02",
        "Longbow_Female_Group_01_Minion_03",
        "Longbow_Female_Group_01_Minion_04",
        "Longbow_Female_Group_01_Minion_05"
      ]
    },
    {
      "level": 26,
      "experience": 0,
      "display_names": [
        "Longbow Flamethrower"
      ],
      "costumes": [
        "Longbow_Female_Group_01_Minion_01",
        "Longbow_Female_Group_01_Minion_02",
        "Longbow_Female_Group_01_Minion_03",
        "Longbow_Female_Group_01_Minion_04",
        "Longbow_Female_Group_01_Minion_05"
      ]
    },
    {
      "level": 27,
      "experience": 0,
      "display_names": [
        "Longbow Flamethrower"
      ],
      "costumes": [
        "Longbow_Female_Group_01_Minion_01",
        "Longbow_Female_Group_01_Minion_02",
        "Longbow_Female_Group_01_Minion_03",
        "Longbow_Female_Group_01_Minion_04",
        "Longbow_Female_Group_01_Minion_05"
      ]
    },
    {
      "level": 28,
      "experience": 0,
      "display_names": [
        "Longbow Flamethrower"
      ],
      "costumes": [
        "Longbow_Female_Group_01_Minion_01",
        "Longbow_Female_Group_01_Minion_02",
        "Longbow_Female_Group_01_Minion_03",
        "Longbow_Female_Group_01_Minion_04",
        "Longbow_Female_Group_01_Minion_05"
      ]
    },
    {
      "level": 29,
      "experience": 0,
      "display_names": [
        "Longbow Flamethrower"
      ],
      "costumes": [
        "Longbow_Female_Group_01_Minion_01",
        "Longbow_Female_Group_01_Minion_02",
        "Longbow_Female_Group_01_Minion_03",
        "Longbow_Female_Group_01_Minion_04",
        "Longbow_Female_Group_01_Minion_05"
      ]
    }
  ]
}