{
  "name": "FreedomCorps_Warden_Spines_Scrapper_21-30_Female",
  "gender": "GENDER_FEMALE",
  "description": "Few volunteer for the dangerous role as a 'spines scrapper.' Those who do are almost always the most reckless and dangerous of the bunch. Villains are warned to fight them with extreme caution.",
  "group_description": "Longbow",
  "display_class_name": null,
  "character_class_name": "boss_grunt",
  "ai_config": "Default_Melee",
  "commandable_pet": false,
  "power_tags": [
    "Humanoid",
    "HumanSkeleton"
  ],
  "additional_rewards": [

  ],
  "skill_hp_rewards": [

  ],
  "skill_status_rewards": [

  ],
  "ally": "Hero",
  "gang": null,
  "reward_scale": 1.25,
  "game_exclusion": "None",
  "inactive_state_weapon": null,
  "ignores_combat_mods": false,
  "copy_creator_mods": false,
  "spawn_limit": -1,
  "spawn_limit_mission": -1,
  "ignore_av_to_eb_scaling": false,
  "can_zone": false,
  "custom_badge_stat": null,
  "badge_stat_flags": "DefaultBadgeStat",
  "rank": "VR_BOSS",
  "power_full_names": [
    "V_GenericHeroes.Spines_Scrapper.Barb_Swipe",
    "V_GenericHeroes.Spines_Scrapper.Lunge",
    "V_GenericHeroes.Spines_Scrapper.Spine_Burst",
    "V_GenericHeroes.Spines_Scrapper.Regeneration",
    "V_GenericHeroes.Spines_Scrapper_Low.Impale",
    "V_GenericHeroes.Spines_Scrapper_Mid.Quills",
    "V_GenericHeroes.Spines_Scrapper_Mid.Ripper"
  ],
  "power_display_names": [
    "Barb Swipe",
    "Lunge",
    "Spine Burst",
    "Regeneration",
    "Impale",
    "Quills",
    "Ripper"
  ],
  "power_levels": [
    0,
    0,
    0,
    0,
    0,
    0,
    0
  ],
  "powers": [
    {
      "power_category": "V_GenericHeroes",
      "power_set": "Spines_Scrapper",
      "power": "*",
      "level": 0
    },
    {
      "power_category": "V_GenericHeroes",
      "power_set": "Spines_Scrapper_Low",
      "power": "*",
      "level": 0
    },
    {
      "power_category": "V_GenericHeroes",
      "power_set": "Spines_Scrapper_Mid",
      "power": "*",
      "level": 0
    }
  ],
  "levels": [
    {
      "level": 21,
      "experience": 0,
      "display_names": [
        "Longbow Warden"
      ],
      "costumes": [
        "Longbow_Female_Boss_03",
        "Longbow_Female_Boss_05"
      ]
    },
    {
      "level": 22,
      "experience": 0,
      "display_names": [
        "Longbow Warden"
      ],
      "costumes": [
        "Longbow_Female_Boss_03",
        "Longbow_Female_Boss_05"
      ]
    },
    {
      "level": 23,
      "experience": 0,
      "display_names": [
        "Longbow Warden"
      ],
      "costumes": [
        "Longbow_Female_Boss_03",
        "Longbow_Female_Boss_05"
      ]
    },
    {
      "level": 24,
      "experience": 0,
      "display_names": [
        "Longbow Warden"
      ],
      "costumes": [
        "Longbow_Female_Boss_03",
        "Longbow_Female_Boss_05"
      ]
    },
    {
      "level": 25,
      "experience": 0,
      "display_names": [
        "Longbow Warden"
      ],
      "costumes": [
        "Longbow_Female_Boss_03",
        "Longbow_Female_Boss_05"
      ]
    },
    {
      "level": 26,
      "experience": 0,
      "display_names": [
        "Longbow Warden"
      ],
      "costumes": [
        "Longbow_Female_Boss_03",
        "Longbow_Female_Boss_05"
      ]
    },
    {
      "level": 27,
      "experience": 0,
      "display_names": [
        "Longbow Warden"
      ],
      "costumes": [
        "Longbow_Female_Boss_03",
        "Longbow_Female_Boss_05"
      ]
    },
    {
      "level": 28,
      "experience": 0,
      "display_names": [
        "Longbow Warden"
      ],
      "costumes": [
        "Longbow_Female_Boss_03",
        "Longbow_Female_Boss_05"
      ]
    },
    {
      "level": 29,
      "experience": 0,
      "display_names": [
        "Longbow Warden"
      ],
      "costumes": [
        "Longbow_Female_Boss_03",
        "Longbow_Female_Boss_05"
      ]
    },
    {
      "level": 30,
      "experience": 0,
      "display_names": [
        "Longbow Warden"
      ],
      "costumes": [
        "Longbow_Female_Boss_03",
        "Longbow_Female_Boss_05"
      ]
    }
  ]
}