{
  "name": "FreedomCorps_Longbow_Heavy_Tutorial",
  "gender": "GENDER_MALE",
  "description": "Utilizing the engineering designs from the Paragon Police Department's Support Automatons, the Freedom Corps has built this armored powerhouse. The Cataphract class, or the \"Heavy\" as the troops call them, are slow movers but more than make up for it in awesome fire power and enough armor to withstand multiple attacks from villains. With one of these babies, you will own the streets.",
  "group_description": null,
  "display_class_name": null,
  "character_class_name": "boss_heavypet",
  "ai_config": "Default_Ranged",
  "commandable_pet": false,
  "power_tags": [
    "Electronic"
  ],
  "additional_rewards": [

  ],
  "skill_hp_rewards": [

  ],
  "skill_status_rewards": [

  ],
  "ally": "Hero",
  "gang": null,
  "reward_scale": 0.0,
  "game_exclusion": "None",
  "inactive_state_weapon": null,
  "ignores_combat_mods": false,
  "copy_creator_mods": false,
  "spawn_limit": 0,
  "spawn_limit_mission": 0,
  "ignore_av_to_eb_scaling": false,
  "can_zone": false,
  "custom_badge_stat": null,
  "badge_stat_flags": "DefaultBadgeStat",
  "rank": "VR_BOSS",
  "power_full_names": [
    "V_FreedomCorps.Longbow_Heavy.Tear_Gas",
    "V_FreedomCorps.Longbow_Heavy.Grenade",
    "V_FreedomCorps.Longbow_Heavy.Plasma_Blast",
    "V_FreedomCorps.Longbow_Heavy.Seeker_Drones",
    "V_FreedomCorps.Longbow_Heavy.Energy_Barrage",
    "V_FreedomCorps.Longbow_Heavy.Air_Bomb",
    "V_FreedomCorps.Longbow_Heavy.Resistances",
    "V_FreedomCorps.Heavy_Boost.Heavy_Boost",
    "Syndicate.Syndicate_Resistance.Resist_Knockaround"
  ],
  "power_display_names": [
    "Tear Gas",
    "Grenade",
    "Plasma Blast",
    "Seeker Drones",
    "Energy Barrage",
    "Air Bomb",
    "Resistances",
    "Heavy Boost",
    "Incomparable Balance"
  ],
  "power_levels": [
    0,
    0,
    0,
    0,
    0,
    0,
    0,
    0,
    0
  ],
  "powers": [
    {
      "power_category": "V_FreedomCorps",
      "power_set": "Longbow_Heavy",
      "power": "*",
      "level": 0
    },
    {
      "power_category": "V_FreedomCorps",
      "power_set": "Heavy_Boost",
      "power": "*",
      "level": 0
    },
    {
      "power_category": "Syndicate",
      "power_set": "Syndicate_Resistance",
      "power": "*",
      "level": 0
    }
  ],
  "levels": [
    {
      "level": 40,
      "experience": 0,
      "display_names": [
        "Freedom Corps Cataphract"
      ],
      "costumes": [
        "Freedom_Corp_Heracles"
      ]
    }
  ]
}