{
  "name": "FreedomCorps_Warden_Illusion_Controller_31-40",
  "gender": "GENDER_MALE",
  "description": "Longbow's illusion wardens use pyschic and magical means to project false images into their foes' minds. It's a really rotten trick, and most villains are eager to pay them back by making the illusionist see something as well--the inside of a Longbow hospital.",
  "group_description": "Longbow",
  "display_class_name": null,
  "character_class_name": "boss_grunt",
  "ai_config": "Default_Ranged",
  "commandable_pet": false,
  "power_tags": [
    "Humanoid",
    "HumanSkeleton"
  ],
  "additional_rewards": [

  ],
  "skill_hp_rewards": [

  ],
  "skill_status_rewards": [

  ],
  "ally": "Hero",
  "gang": null,
  "reward_scale": 1.25,
  "game_exclusion": "None",
  "inactive_state_weapon": null,
  "ignores_combat_mods": false,
  "copy_creator_mods": false,
  "spawn_limit": -1,
  "spawn_limit_mission": -1,
  "ignore_av_to_eb_scaling": false,
  "can_zone": false,
  "custom_badge_stat": null,
  "badge_stat_flags": "DefaultBadgeStat",
  "rank": "VR_BOSS",
  "power_full_names": [
    "V_GenericHeroes.Illusion_Controller.Energy_Torrent",
    "V_GenericHeroes.Illusion_Controller.Force_Bolt",
    "V_GenericHeroes.Illusion_Controller.Phantom_Army",
    "V_GenericHeroes.Illusion_Controller.Spectral_Terror",
    "V_GenericHeroes.Illusion_Controller.Phantasm",
    "V_GenericHeroes.Illusion_Controller.Protection_Shield",
    "V_GenericHeroes.Illusion_Controller.Detention_Field",
    "V_GenericHeroes.Illusion_Controller.Dispersion_Bubble",
    "V_GenericHeroes.Hero_Flight.Fly",
    "V_GenericHeroes.Hero_Flight.Fly_fx"
  ],
  "power_display_names": [
    "Energy Torrent",
    "Force Bolt",
    "Phantom Army",
    "Spectral Terror",
    "Phantasm",
    "Protection Shield",
    "Detention Field",
    "Dispersion Bubble",
    "Fly",
    "Fly fx"
  ],
  "power_levels": [
    0,
    0,
    0,
    0,
    0,
    0,
    0,
    0,
    0,
    0
  ],
  "powers": [
    {
      "power_category": "V_GenericHeroes",
      "power_set": "Illusion_Controller",
      "power": "*",
      "level": 0
    },
    {
      "power_category": "V_GenericHeroes",
      "power_set": "Hero_Flight",
      "power": "*",
      "level": 0
    }
  ],
  "levels": [
    {
      "level": 31,
      "experience": 0,
      "display_names": [
        "Longbow Warden"
      ],
      "costumes": [
        "Longbow_Male_Boss_04",
        "Longbow_Male_Boss_05"
      ]
    },
    {
      "level": 32,
      "experience": 0,
      "display_names": [
        "Longbow Warden"
      ],
      "costumes": [
        "Longbow_Male_Boss_04",
        "Longbow_Male_Boss_05"
      ]
    },
    {
      "level": 33,
      "experience": 0,
      "display_names": [
        "Longbow Warden"
      ],
      "costumes": [
        "Longbow_Male_Boss_04",
        "Longbow_Male_Boss_05"
      ]
    },
    {
      "level": 34,
      "experience": 0,
      "display_names": [
        "Longbow Warden"
      ],
      "costumes": [
        "Longbow_Male_Boss_04",
        "Longbow_Male_Boss_05"
      ]
    },
    {
      "level": 35,
      "experience": 0,
      "display_names": [
        "Longbow Warden"
      ],
      "costumes": [
        "Longbow_Male_Boss_04",
        "Longbow_Male_Boss_05"
      ]
    },
    {
      "level": 36,
      "experience": 0,
      "display_names": [
        "Longbow Warden"
      ],
      "costumes": [
        "Longbow_Male_Boss_04",
        "Longbow_Male_Boss_05"
      ]
    },
    {
      "level": 37,
      "experience": 0,
      "display_names": [
        "Longbow Warden"
      ],
      "costumes": [
        "Longbow_Male_Boss_04",
        "Longbow_Male_Boss_05"
      ]
    },
    {
      "level": 38,
      "experience": 0,
      "display_names": [
        "Longbow Warden"
      ],
      "costumes": [
        "Longbow_Male_Boss_04",
        "Longbow_Male_Boss_05"
      ]
    },
    {
      "level": 39,
      "experience": 0,
      "display_names": [
        "Longbow Warden"
      ],
      "costumes": [
        "Longbow_Male_Boss_04",
        "Longbow_Male_Boss_05"
      ]
    },
    {
      "level": 40,
      "experience": 0,
      "display_names": [
        "Longbow Warden"
      ],
      "costumes": [
        "Longbow_Male_Boss_04",
        "Longbow_Male_Boss_05"
      ]
    }
  ]
}