{
  "name": "FRKLK_Bile_AV",
  "gender": "GENDER_MALE",
  "description": "Bile has undergone many transformations since he first joined the Freakshow. This latest set of upgrades may look flashy, but it's more than just for show. Approach him with caution, because his abilities are poorly documented at best.",
  "group_description": null,
  "display_class_name": null,
  "character_class_name": "boss_archvillain",
  "ai_config": "Default",
  "commandable_pet": false,
  "power_tags": [
    "HumanSkeleton",
    "Human",
    "Electronic",
    "Raid"
  ],
  "additional_rewards": [

  ],
  "skill_hp_rewards": [

  ],
  "skill_status_rewards": [

  ],
  "ally": null,
  "gang": null,
  "reward_scale": 1.0,
  "game_exclusion": "None",
  "inactive_state_weapon": null,
  "ignores_combat_mods": false,
  "copy_creator_mods": false,
  "spawn_limit": -1,
  "spawn_limit_mission": -1,
  "ignore_av_to_eb_scaling": false,
  "can_zone": false,
  "custom_badge_stat": null,
  "badge_stat_flags": "DefaultBadgeStat",
  "rank": "VR_ARCHVILLAIN",
  "power_full_names": [
    "Freakshow.Freakshow_Bile_Defense.Resistance",
    "Freakshow.Freakshow_Bile_Melee.Cybernetic_Blade",
    "Freakshow.Freakshow_Bile_Ranged.Enervating__Field",
    "Corruptor_Buff.Shock_Therapy.Defibrillate",
    "NewPraetorians.Grant_Creston.Plasma_Spray",
    "NewPraetorians.Grant_Creston.Plasma_Grenade",
    "NewPraetorians.Grant_Creston.Plasma_Vortex"
  ],
  "power_display_names": [
    "Resistance",
    "Cybernetic Blade",
    "Enervating Field",
    "Defibrillate",
    "Plasma Spray",
    "Plasma Grenade",
    "Plasma Vortex"
  ],
  "power_levels": [
    0,
    0,
    0,
    0,
    0,
    0,
    0
  ],
  "powers": [
    {
      "power_category": "Freakshow",
      "power_set": "Freakshow_Bile_Defense",
      "power": "*",
      "level": 0
    },
    {
      "power_category": "Freakshow",
      "power_set": "Freakshow_Bile_Melee",
      "power": "Cybernetic_Blade",
      "level": 0
    },
    {
      "power_category": "Freakshow",
      "power_set": "Freakshow_Bile_Ranged",
      "power": "Enervating__Field",
      "level": 0
    },
    {
      "power_category": "Corruptor_Buff",
      "power_set": "Shock_Therapy",
      "power": "Defibrillate",
      "level": 0
    },
    {
      "power_category": "NewPraetorians",
      "power_set": "Grant_Creston",
      "power": "Plasma_Spray",
      "level": 0
    },
    {
      "power_category": "NewPraetorians",
      "power_set": "Grant_Creston",
      "power": "Plasma_Grenade",
      "level": 0
    },
    {
      "power_category": "NewPraetorians",
      "power_set": "Grant_Creston",
      "power": "Plasma_Vortex",
      "level": 0
    }
  ],
  "levels": [
    {
      "level": 29,
      "experience": 0,
      "display_names": [
        "Bile"
      ],
      "costumes": [
        "FRKLK_BILE"
      ]
    },
    {
      "level": 30,
      "experience": 0,
      "display_names": [
        "Bile"
      ],
      "costumes": [
        "FRKLK_BILE"
      ]
    },
    {
      "level": 31,
      "experience": 0,
      "display_names": [
        "Bile"
      ],
      "costumes": [
        "FRKLK_BILE"
      ]
    },
    {
      "level": 32,
      "experience": 0,
      "display_names": [
        "Bile"
      ],
      "costumes": [
        "FRKLK_BILE"
      ]
    },
    {
      "level": 33,
      "experience": 0,
      "display_names": [
        "Bile"
      ],
      "costumes": [
        "FRKLK_BILE"
      ]
    },
    {
      "level": 34,
      "experience": 0,
      "display_names": [
        "Bile"
      ],
      "costumes": [
        "FRKLK_BILE"
      ]
    },
    {
      "level": 35,
      "experience": 0,
      "display_names": [
        "Bile"
      ],
      "costumes": [
        "FRKLK_BILE"
      ]
    },
    {
      "level": 36,
      "experience": 0,
      "display_names": [
        "Bile"
      ],
      "costumes": [
        "FRKLK_BILE"
      ]
    },
    {
      "level": 37,
      "experience": 0,
      "display_names": [
        "Bile"
      ],
      "costumes": [
        "FRKLK_BILE"
      ]
    },
    {
      "level": 38,
      "experience": 0,
      "display_names": [
        "Bile"
      ],
      "costumes": [
        "FRKLK_BILE"
      ]
    },
    {
      "level": 39,
      "experience": 0,
      "display_names": [
        "Bile"
      ],
      "costumes": [
        "FRKLK_BILE"
      ]
    },
    {
      "level": 40,
      "experience": 0,
      "display_names": [
        "Bile"
      ],
      "costumes": [
        "FRKLK_BILE"
      ]
    },
    {
      "level": 41,
      "experience": 0,
      "display_names": [
        "Bile"
      ],
      "costumes": [
        "FRKLK_BILE"
      ]
    },
    {
      "level": 42,
      "experience": 0,
      "display_names": [
        "Bile"
      ],
      "costumes": [
        "FRKLK_BILE"
      ]
    },
    {
      "level": 43,
      "experience": 0,
      "display_names": [
        "Bile"
      ],
      "costumes": [
        "FRKLK_BILE"
      ]
    },
    {
      "level": 44,
      "experience": 0,
      "display_names": [
        "Bile"
      ],
      "costumes": [
        "FRKLK_BILE"
      ]
    },
    {
      "level": 45,
      "experience": 0,
      "display_names": [
        "Bile"
      ],
      "costumes": [
        "FRKLK_BILE"
      ]
    },
    {
      "level": 46,
      "experience": 0,
      "display_names": [
        "Bile"
      ],
      "costumes": [
        "FRKLK_BILE"
      ]
    },
    {
      "level": 47,
      "experience": 0,
      "display_names": [
        "Bile"
      ],
      "costumes": [
        "FRKLK_BILE"
      ]
    },
    {
      "level": 48,
      "experience": 0,
      "display_names": [
        "Bile"
      ],
      "costumes": [
        "FRKLK_BILE"
      ]
    },
    {
      "level": 49,
      "experience": 0,
      "display_names": [
        "Bile"
      ],
      "costumes": [
        "FRKLK_BILE"
      ]
    },
    {
      "level": 50,
      "experience": 0,
      "display_names": [
        "Bile"
      ],
      "costumes": [
        "FRKLK_BILE"
      ]
    },
    {
      "level": 51,
      "experience": 0,
      "display_names": [
        "Bile"
      ],
      "costumes": [
        "FRKLK_BILE"
      ]
    },
    {
      "level": 52,
      "experience": 0,
      "display_names": [
        "Bile"
      ],
      "costumes": [
        "FRKLK_BILE"
      ]
    },
    {
      "level": 53,
      "experience": 0,
      "display_names": [
        "Bile"
      ],
      "costumes": [
        "FRKLK_BILE"
      ]
    },
    {
      "level": 54,
      "experience": 0,
      "display_names": [
        "Bile"
      ],
      "costumes": [
        "FRKLK_BILE"
      ]
    }
  ]
}