{
  "name": "GenericVillains_Network",
  "gender": "GENDER_MALE",
  "description": "Network started his 'career' as a bookkeeper for The Family, until a fateful day on which he came across a powerful 'information suit' while cataloging the contents of a 'recovered' cargo container. This suit tied his mind directly into information networks around the world, giving him the bandwidth to accumulate unmatched resources within the organization and make a real name for himself. Eventually, he came across information that made him look at his employers in a new light and reconsider his role with them. This discovery drove him to offer his services to Sgt. Schorr, the leader of the Hammers of Justice, an organization whose secrets he had already learned through the information acquired through his suit.",
  "group_description": "The Hammers of Justice",
  "display_class_name": null,
  "character_class_name": "boss_elite",
  "ai_config": "Default_Ranged",
  "commandable_pet": false,
  "power_tags": [
    "HumanSkeleton",
    "Human"
  ],
  "additional_rewards": [

  ],
  "skill_hp_rewards": [

  ],
  "skill_status_rewards": [

  ],
  "ally": null,
  "gang": null,
  "reward_scale": 1.0,
  "game_exclusion": "None",
  "inactive_state_weapon": null,
  "ignores_combat_mods": false,
  "copy_creator_mods": false,
  "spawn_limit": 0,
  "spawn_limit_mission": 0,
  "ignore_av_to_eb_scaling": false,
  "can_zone": false,
  "custom_badge_stat": null,
  "badge_stat_flags": "DefaultBadgeStat",
  "rank": "VR_ELITE",
  "power_full_names": [
    "RoguesGallery.Network.Single_Shot",
    "RoguesGallery.Network.Charged_Shot",
    "RoguesGallery.Network.Cutting_Beam",
    "RoguesGallery.Network.Piercing_Beam",
    "RoguesGallery.Network.Overcharge",
    "RoguesGallery.Network.Web_Grenade",
    "RoguesGallery.Network.Smoke_Grenade",
    "RoguesGallery.Network.Targeting_Drone",
    "GenericVillains.AV_Resistance.AV_Resistance"
  ],
  "power_display_names": [
    "Single Shot",
    "Charged Shot",
    "Cutting Beam",
    "Piercing Beam",
    "Overcharge",
    "Web Grenade",
    "Smoke Grenade",
    "Targeting Drone",
    "Archvillain's Might"
  ],
  "power_levels": [
    0,
    0,
    0,
    0,
    0,
    0,
    0,
    0,
    0
  ],
  "powers": [
    {
      "power_category": "RoguesGallery",
      "power_set": "Network",
      "power": "*",
      "level": 0
    },
    {
      "power_category": "GenericVillains",
      "power_set": "AV_Resistance",
      "power": "*",
      "level": 0
    }
  ],
  "levels": [
    {
      "level": 30,
      "experience": 0,
      "display_names": [
        "Network"
      ],
      "costumes": [
        "Model_Network"
      ]
    },
    {
      "level": 31,
      "experience": 0,
      "display_names": [
        "Network"
      ],
      "costumes": [
        "Model_Network"
      ]
    },
    {
      "level": 32,
      "experience": 0,
      "display_names": [
        "Network"
      ],
      "costumes": [
        "Model_Network"
      ]
    },
    {
      "level": 33,
      "experience": 0,
      "display_names": [
        "Network"
      ],
      "costumes": [
        "Model_Network"
      ]
    },
    {
      "level": 34,
      "experience": 0,
      "display_names": [
        "Network"
      ],
      "costumes": [
        "Model_Network"
      ]
    },
    {
      "level": 35,
      "experience": 0,
      "display_names": [
        "Network"
      ],
      "costumes": [
        "Model_Network"
      ]
    },
    {
      "level": 36,
      "experience": 0,
      "display_names": [
        "Network"
      ],
      "costumes": [
        "Model_Network"
      ]
    },
    {
      "level": 37,
      "experience": 0,
      "display_names": [
        "Network"
      ],
      "costumes": [
        "Model_Network"
      ]
    },
    {
      "level": 38,
      "experience": 0,
      "display_names": [
        "Network"
      ],
      "costumes": [
        "Model_Network"
      ]
    },
    {
      "level": 39,
      "experience": 0,
      "display_names": [
        "Network"
      ],
      "costumes": [
        "Model_Network"
      ]
    },
    {
      "level": 40,
      "experience": 0,
      "display_names": [
        "Network"
      ],
      "costumes": [
        "Model_Network"
      ]
    },
    {
      "level": 41,
      "experience": 0,
      "display_names": [
        "Network"
      ],
      "costumes": [
        "Model_Network"
      ]
    },
    {
      "level": 42,
      "experience": 0,
      "display_names": [
        "Network"
      ],
      "costumes": [
        "Model_Network"
      ]
    },
    {
      "level": 43,
      "experience": 0,
      "display_names": [
        "Network"
      ],
      "costumes": [
        "Model_Network"
      ]
    },
    {
      "level": 44,
      "experience": 0,
      "display_names": [
        "Network"
      ],
      "costumes": [
        "Model_Network"
      ]
    },
    {
      "level": 45,
      "experience": 0,
      "display_names": [
        "Network"
      ],
      "costumes": [
        "Model_Network"
      ]
    },
    {
      "level": 46,
      "experience": 0,
      "display_names": [
        "Network"
      ],
      "costumes": [
        "Model_Network"
      ]
    },
    {
      "level": 47,
      "experience": 0,
      "display_names": [
        "Network"
      ],
      "costumes": [
        "Model_Network"
      ]
    },
    {
      "level": 48,
      "experience": 0,
      "display_names": [
        "Network"
      ],
      "costumes": [
        "Model_Network"
      ]
    },
    {
      "level": 49,
      "experience": 0,
      "display_names": [
        "Network"
      ],
      "costumes": [
        "Model_Network"
      ]
    },
    {
      "level": 50,
      "experience": 0,
      "display_names": [
        "Network"
      ],
      "costumes": [
        "Model_Network"
      ]
    },
    {
      "level": 51,
      "experience": 0,
      "display_names": [
        "Network"
      ],
      "costumes": [
        "Model_Network"
      ]
    },
    {
      "level": 52,
      "experience": 0,
      "display_names": [
        "Network"
      ],
      "costumes": [
        "Model_Network"
      ]
    },
    {
      "level": 53,
      "experience": 0,
      "display_names": [
        "Network"
      ],
      "costumes": [
        "Model_Network"
      ]
    },
    {
      "level": 54,
      "experience": 0,
      "display_names": [
        "Network"
      ],
      "costumes": [
        "Model_Network"
      ]
    }
  ]
}