{
  "name": "GenericHeroes_Fire_Blaster_16-20",
  "gender": "GENDER_MALE",
  "description": "This is a generic Fire Blaster.",
  "group_description": "Freedom Corps",
  "display_class_name": null,
  "character_class_name": "boss_grunt",
  "ai_config": "Default_Ranged",
  "commandable_pet": false,
  "power_tags": [
    "Humanoid",
    "HumanSkeleton"
  ],
  "additional_rewards": [

  ],
  "skill_hp_rewards": [

  ],
  "skill_status_rewards": [

  ],
  "ally": "Hero",
  "gang": null,
  "reward_scale": 1.0,
  "game_exclusion": "None",
  "inactive_state_weapon": null,
  "ignores_combat_mods": false,
  "copy_creator_mods": false,
  "spawn_limit": -1,
  "spawn_limit_mission": -1,
  "ignore_av_to_eb_scaling": false,
  "can_zone": false,
  "custom_badge_stat": null,
  "badge_stat_flags": "DefaultBadgeStat",
  "rank": "VR_BOSS",
  "power_full_names": [
    "V_GenericHeroes.Fire_Blaster_Low.Flares",
    "V_GenericHeroes.Fire_Blaster_Low.Fire_Blast",
    "V_GenericHeroes.Fire_Blaster_Low.Fire_Ball",
    "V_GenericHeroes.Fire_Blaster_Low.Fire_Sword",
    "V_GenericHeroes.Fire_Blaster_Mid.Fire_Breath",
    "V_GenericHeroes.Fire_Blaster_Mid.Combustion",
    "V_GenericHeroes.Fire_Blaster_High.Blaze"
  ],
  "power_display_names": [
    "Flares",
    "Fire Blast",
    "Fire Ball",
    "Fire Sword",
    "Fire Breath",
    "Combustion",
    "Blaze"
  ],
  "power_levels": [
    0,
    0,
    0,
    0,
    0,
    0,
    0
  ],
  "powers": [
    {
      "power_category": "V_GenericHeroes",
      "power_set": "Fire_Blaster_Low",
      "power": "*",
      "level": 0
    },
    {
      "power_category": "V_GenericHeroes",
      "power_set": "Fire_Blaster_Mid",
      "power": "*",
      "level": 0
    },
    {
      "power_category": "V_GenericHeroes",
      "power_set": "Fire_Blaster_High",
      "power": "*",
      "level": 0
    }
  ],
  "levels": [
    {
      "level": 16,
      "experience": 0,
      "display_names": [
        "Longbow Blaster"
      ],
      "costumes": [
        "Longbow_Male_Boss_01",
        "Longbow_Male_Boss_02",
        "Longbow_Male_Boss_03",
        "Longbow_Male_Boss_04",
        "Longbow_Male_Boss_05"
      ]
    },
    {
      "level": 17,
      "experience": 0,
      "display_names": [
        "Longbow Blaster"
      ],
      "costumes": [
        "Longbow_Male_Boss_01",
        "Longbow_Male_Boss_02",
        "Longbow_Male_Boss_03",
        "Longbow_Male_Boss_04",
        "Longbow_Male_Boss_05"
      ]
    },
    {
      "level": 18,
      "experience": 0,
      "display_names": [
        "Longbow Blaster"
      ],
      "costumes": [
        "Longbow_Male_Boss_01",
        "Longbow_Male_Boss_02",
        "Longbow_Male_Boss_03",
        "Longbow_Male_Boss_04",
        "Longbow_Male_Boss_05"
      ]
    },
    {
      "level": 19,
      "experience": 0,
      "display_names": [
        "Longbow Blaster"
      ],
      "costumes": [
        "Longbow_Male_Boss_01",
        "Longbow_Male_Boss_02",
        "Longbow_Male_Boss_03",
        "Longbow_Male_Boss_04",
        "Longbow_Male_Boss_05"
      ]
    },
    {
      "level": 20,
      "experience": 0,
      "display_names": [
        "Longbow Blaster"
      ],
      "costumes": [
        "Longbow_Male_Boss_01",
        "Longbow_Male_Boss_02",
        "Longbow_Male_Boss_03",
        "Longbow_Male_Boss_04",
        "Longbow_Male_Boss_05"
      ]
    }
  ]
}