{
  "name": "GenericHeroes_Theadora_Marcone",
  "gender": "GENDER_FEMALE",
  "description": "A Family cousin, the love of Johnny's life, and a closet superheroine: Theadora Marcone leads a busy life. A shame you'll have to take her out.",
  "group_description": "Longbow",
  "display_class_name": null,
  "character_class_name": "boss_grunt",
  "ai_config": "Default_Melee",
  "commandable_pet": false,
  "power_tags": [
    "Humanoid",
    "HumanSkeleton"
  ],
  "additional_rewards": [

  ],
  "skill_hp_rewards": [

  ],
  "skill_status_rewards": [

  ],
  "ally": "Hero",
  "gang": null,
  "reward_scale": 1.0,
  "game_exclusion": "None",
  "inactive_state_weapon": null,
  "ignores_combat_mods": false,
  "copy_creator_mods": false,
  "spawn_limit": -1,
  "spawn_limit_mission": -1,
  "ignore_av_to_eb_scaling": false,
  "can_zone": false,
  "custom_badge_stat": null,
  "badge_stat_flags": "DefaultBadgeStat",
  "rank": "VR_BOSS",
  "power_full_names": [
    "V_GenericHeroes.MA_Scrapper.Thunder_Kick",
    "V_GenericHeroes.MA_Scrapper.Storm_Kick",
    "V_GenericHeroes.MA_Scrapper.Shurikens",
    "V_GenericHeroes.MA_Scrapper.Cobra_Strike",
    "V_GenericHeroes.MA_Scrapper.Crane_Kick",
    "V_GenericHeroes.MA_Scrapper.Exploding_Shuriken",
    "V_GenericHeroes.MA_Scrapper.Inner_Focus",
    "V_GenericHeroes.MA_Scrapper.Dragons_Tail",
    "V_GenericHeroes.MA_Scrapper.Quickness",
    "V_GenericHeroes.MA_Scrapper.Elude"
  ],
  "power_display_names": [
    "Thunder Kick",
    "Storm Kick",
    "Shurikens",
    "Cobra Strike",
    "Crane Kick",
    "Exploding Shuriken",
    "Inner Focus",
    "Dragons Tail",
    "Quickness",
    "Elude"
  ],
  "power_levels": [
    0,
    0,
    0,
    0,
    0,
    0,
    0,
    0,
    0,
    0
  ],
  "powers": [
    {
      "power_category": "V_GenericHeroes",
      "power_set": "MA_Scrapper",
      "power": "Thunder_Kick",
      "level": 0
    },
    {
      "power_category": "V_GenericHeroes",
      "power_set": "MA_Scrapper",
      "power": "Storm_Kick",
      "level": 0
    },
    {
      "power_category": "V_GenericHeroes",
      "power_set": "MA_Scrapper",
      "power": "Shurikens",
      "level": 0
    },
    {
      "power_category": "V_GenericHeroes",
      "power_set": "MA_Scrapper",
      "power": "Cobra_Strike",
      "level": 0
    },
    {
      "power_category": "V_GenericHeroes",
      "power_set": "MA_Scrapper",
      "power": "Crane_Kick",
      "level": 0
    },
    {
      "power_category": "V_GenericHeroes",
      "power_set": "MA_Scrapper",
      "power": "Exploding_Shuriken",
      "level": 0
    },
    {
      "power_category": "V_GenericHeroes",
      "power_set": "MA_Scrapper",
      "power": "Inner_Focus",
      "level": 0
    },
    {
      "power_category": "V_GenericHeroes",
      "power_set": "MA_Scrapper",
      "power": "Dragons_Tail",
      "level": 0
    },
    {
      "power_category": "V_GenericHeroes",
      "power_set": "MA_Scrapper",
      "power": "Quickness",
      "level": 0
    },
    {
      "power_category": "V_GenericHeroes",
      "power_set": "MA_Scrapper",
      "power": "Elude",
      "level": 0
    }
  ],
  "levels": [
    {
      "level": 35,
      "experience": 0,
      "display_names": [
        "Theadora Marcone"
      ],
      "costumes": [
        "Model_Theadora_Marcone"
      ]
    },
    {
      "level": 36,
      "experience": 0,
      "display_names": [
        "Theadora Marcone"
      ],
      "costumes": [
        "Model_Theadora_Marcone"
      ]
    },
    {
      "level": 37,
      "experience": 0,
      "display_names": [
        "Theadora Marcone"
      ],
      "costumes": [
        "Model_Theadora_Marcone"
      ]
    },
    {
      "level": 38,
      "experience": 0,
      "display_names": [
        "Theadora Marcone"
      ],
      "costumes": [
        "Model_Theadora_Marcone"
      ]
    },
    {
      "level": 39,
      "experience": 0,
      "display_names": [
        "Theadora Marcone"
      ],
      "costumes": [
        "Model_Theadora_Marcone"
      ]
    },
    {
      "level": 40,
      "experience": 0,
      "display_names": [
        "Theadora Marcone"
      ],
      "costumes": [
        "Model_Theadora_Marcone"
      ]
    }
  ]
}