{
  "name": "GenericVillains_Stalker_Claws_16-20_Female",
  "gender": "GENDER_FEMALE",
  "description": "This is a generic Claws/Super Reflexes Stalker.",
  "group_description": "Group Description",
  "display_class_name": null,
  "character_class_name": "boss_grunt",
  "ai_config": "Default_Melee",
  "commandable_pet": false,
  "power_tags": [
    "Humanoid",
    "HumanSkeleton"
  ],
  "additional_rewards": [

  ],
  "skill_hp_rewards": [

  ],
  "skill_status_rewards": [

  ],
  "ally": null,
  "gang": null,
  "reward_scale": 1.0,
  "game_exclusion": "None",
  "inactive_state_weapon": null,
  "ignores_combat_mods": false,
  "copy_creator_mods": false,
  "spawn_limit": -1,
  "spawn_limit_mission": -1,
  "ignore_av_to_eb_scaling": false,
  "can_zone": false,
  "custom_badge_stat": null,
  "badge_stat_flags": "DefaultBadgeStat",
  "rank": "VR_BOSS",
  "power_full_names": [
    "V_GenericVillains.Claws_Stalker.Swipe",
    "V_GenericVillains.Claws_Stalker.Strike",
    "V_GenericVillains.Claws_Stalker.Focus",
    "V_GenericVillains.Claws_Stalker.Slash",
    "V_GenericVillains.Claws_Stalker.Focused_Fighting"
  ],
  "power_display_names": [
    "Swipe",
    "Strike",
    "Focus",
    "Slash",
    "Focused Fighting"
  ],
  "power_levels": [
    0,
    0,
    0,
    0,
    0
  ],
  "powers": [
    {
      "power_category": "V_GenericVillains",
      "power_set": "Claws_Stalker",
      "power": "Swipe",
      "level": 0
    },
    {
      "power_category": "V_GenericVillains",
      "power_set": "Claws_Stalker",
      "power": "Strike",
      "level": 0
    },
    {
      "power_category": "V_GenericVillains",
      "power_set": "Claws_Stalker",
      "power": "Focus",
      "level": 0
    },
    {
      "power_category": "V_GenericVillains",
      "power_set": "Claws_Stalker",
      "power": "Slash",
      "level": 0
    },
    {
      "power_category": "V_GenericVillains",
      "power_set": "Claws_Stalker",
      "power": "Focused_Fighting",
      "level": 0
    }
  ],
  "levels": [
    {
      "level": 16,
      "experience": 0,
      "display_names": [
        "Stalker"
      ],
      "costumes": [
        "Longbow_Female_Boss_01"
      ]
    },
    {
      "level": 17,
      "experience": 0,
      "display_names": [
        "Stalker"
      ],
      "costumes": [
        "Longbow_Female_Boss_01"
      ]
    },
    {
      "level": 18,
      "experience": 0,
      "display_names": [
        "Stalker"
      ],
      "costumes": [
        "Longbow_Female_Boss_01"
      ]
    },
    {
      "level": 19,
      "experience": 0,
      "display_names": [
        "Stalker"
      ],
      "costumes": [
        "Longbow_Female_Boss_01"
      ]
    },
    {
      "level": 20,
      "experience": 0,
      "display_names": [
        "Stalker"
      ],
      "costumes": [
        "Longbow_Female_Boss_01"
      ]
    }
  ]
}