{
  "name": "GenericHeroes_SS_Tanker_31-40_Female",
  "gender": "GENDER_FEMALE",
  "description": "This is a generic Super Strength/Invulnerability Tanker.",
  "group_description": "Freedom Corps",
  "display_class_name": null,
  "character_class_name": "boss_grunt",
  "ai_config": "Default_Melee",
  "commandable_pet": false,
  "power_tags": [
    "Humanoid",
    "HumanSkeleton"
  ],
  "additional_rewards": [

  ],
  "skill_hp_rewards": [

  ],
  "skill_status_rewards": [

  ],
  "ally": "Hero",
  "gang": null,
  "reward_scale": 1.0,
  "game_exclusion": "None",
  "inactive_state_weapon": null,
  "ignores_combat_mods": false,
  "copy_creator_mods": false,
  "spawn_limit": -1,
  "spawn_limit_mission": -1,
  "ignore_av_to_eb_scaling": false,
  "can_zone": false,
  "custom_badge_stat": null,
  "badge_stat_flags": "DefaultBadgeStat",
  "rank": "VR_BOSS",
  "power_full_names": [
    "V_GenericHeroes.SS_Tanker.Jab",
    "V_GenericHeroes.SS_Tanker.Punch",
    "V_GenericHeroes.SS_Tanker.Hurl",
    "V_GenericHeroes.SS_Tanker.Temp_Invulnerability",
    "V_GenericHeroes.SS_Tanker.Resistance",
    "V_GenericHeroes.SS_Tanker_Low.Haymaker",
    "V_GenericHeroes.SS_Tanker_Low.Hand_Clap",
    "V_GenericHeroes.SS_Tanker_Low.Unyielding",
    "V_GenericHeroes.SS_Tanker_Mid.Knockout_Blow",
    "V_GenericHeroes.SS_Tanker_Mid.Foot_Stomp"
  ],
  "power_display_names": [
    "Jab",
    "Punch",
    "Hurl",
    "Temp Invulnerability",
    "Resistance",
    "Haymaker",
    "Hand Clap",
    "Unyielding",
    "Knockout Blow",
    "Foot Stomp"
  ],
  "power_levels": [
    0,
    0,
    0,
    0,
    0,
    0,
    0,
    0,
    0,
    0
  ],
  "powers": [
    {
      "power_category": "V_GenericHeroes",
      "power_set": "SS_Tanker",
      "power": "*",
      "level": 0
    },
    {
      "power_category": "V_GenericHeroes",
      "power_set": "SS_Tanker_Low",
      "power": "*",
      "level": 0
    },
    {
      "power_category": "V_GenericHeroes",
      "power_set": "SS_Tanker_Mid",
      "power": "*",
      "level": 0
    }
  ],
  "levels": [
    {
      "level": 31,
      "experience": 0,
      "display_names": [
        "Longbow Tanker"
      ],
      "costumes": [
        "Longbow_Female_Boss_01",
        "Longbow_Female_Boss_02",
        "Longbow_Female_Boss_03",
        "Longbow_Female_Boss_04",
        "Longbow_Female_Boss_05"
      ]
    },
    {
      "level": 32,
      "experience": 0,
      "display_names": [
        "Longbow Tanker"
      ],
      "costumes": [
        "Longbow_Female_Boss_01",
        "Longbow_Female_Boss_02",
        "Longbow_Female_Boss_03",
        "Longbow_Female_Boss_04",
        "Longbow_Female_Boss_05"
      ]
    },
    {
      "level": 33,
      "experience": 0,
      "display_names": [
        "Longbow Tanker"
      ],
      "costumes": [
        "Longbow_Female_Boss_01",
        "Longbow_Female_Boss_02",
        "Longbow_Female_Boss_03",
        "Longbow_Female_Boss_04",
        "Longbow_Female_Boss_05"
      ]
    },
    {
      "level": 34,
      "experience": 0,
      "display_names": [
        "Longbow Tanker"
      ],
      "costumes": [
        "Longbow_Female_Boss_01",
        "Longbow_Female_Boss_02",
        "Longbow_Female_Boss_03",
        "Longbow_Female_Boss_04",
        "Longbow_Female_Boss_05"
      ]
    },
    {
      "level": 35,
      "experience": 0,
      "display_names": [
        "Longbow Tanker"
      ],
      "costumes": [
        "Longbow_Female_Boss_01",
        "Longbow_Female_Boss_02",
        "Longbow_Female_Boss_03",
        "Longbow_Female_Boss_04",
        "Longbow_Female_Boss_05"
      ]
    },
    {
      "level": 36,
      "experience": 0,
      "display_names": [
        "Longbow Tanker"
      ],
      "costumes": [
        "Longbow_Female_Boss_01",
        "Longbow_Female_Boss_02",
        "Longbow_Female_Boss_03",
        "Longbow_Female_Boss_04",
        "Longbow_Female_Boss_05"
      ]
    },
    {
      "level": 37,
      "experience": 0,
      "display_names": [
        "Longbow Tanker"
      ],
      "costumes": [
        "Longbow_Female_Boss_01",
        "Longbow_Female_Boss_02",
        "Longbow_Female_Boss_03",
        "Longbow_Female_Boss_04",
        "Longbow_Female_Boss_05"
      ]
    },
    {
      "level": 38,
      "experience": 0,
      "display_names": [
        "Longbow Tanker"
      ],
      "costumes": [
        "Longbow_Female_Boss_01",
        "Longbow_Female_Boss_02",
        "Longbow_Female_Boss_03",
        "Longbow_Female_Boss_04",
        "Longbow_Female_Boss_05"
      ]
    },
    {
      "level": 39,
      "experience": 0,
      "display_names": [
        "Longbow Tanker"
      ],
      "costumes": [
        "Longbow_Female_Boss_01",
        "Longbow_Female_Boss_02",
        "Longbow_Female_Boss_03",
        "Longbow_Female_Boss_04",
        "Longbow_Female_Boss_05"
      ]
    },
    {
      "level": 40,
      "experience": 0,
      "display_names": [
        "Longbow Tanker"
      ],
      "costumes": [
        "Longbow_Female_Boss_01",
        "Longbow_Female_Boss_02",
        "Longbow_Female_Boss_03",
        "Longbow_Female_Boss_04",
        "Longbow_Female_Boss_05"
      ]
    }
  ]
}