{
  "name": "GenericVillains_Corruptor_Radiation_41-54",
  "gender": "GENDER_MALE",
  "description": "This is a generic Radiation/Radiation Corruptor.",
  "group_description": "Group Description",
  "display_class_name": null,
  "character_class_name": "boss_grunt",
  "ai_config": "Default_Ranged",
  "commandable_pet": false,
  "power_tags": [
    "Humanoid",
    "HumanSkeleton"
  ],
  "additional_rewards": [

  ],
  "skill_hp_rewards": [

  ],
  "skill_status_rewards": [

  ],
  "ally": null,
  "gang": null,
  "reward_scale": 1.0,
  "game_exclusion": "None",
  "inactive_state_weapon": null,
  "ignores_combat_mods": false,
  "copy_creator_mods": false,
  "spawn_limit": -1,
  "spawn_limit_mission": -1,
  "ignore_av_to_eb_scaling": false,
  "can_zone": false,
  "custom_badge_stat": null,
  "badge_stat_flags": "DefaultBadgeStat",
  "rank": "VR_BOSS",
  "power_full_names": [
    "V_GenericVillains.Radiation_Corruptor_Low.Neutrino_Bolt",
    "V_GenericVillains.Radiation_Corruptor_Low.X-Ray_Beam",
    "V_GenericVillains.Radiation_Corruptor_Low.Enervating_Field",
    "V_GenericVillains.Radiation_Corruptor_Low.Electron_Haze",
    "V_GenericVillains.Radiation_Corruptor_Low.Lingering_Radiation",
    "V_GenericVillains.Radiation_Corruptor_Low.Cosmic_Burst",
    "V_GenericVillains.Radiation_Corruptor_Low.Radiant_Aura",
    "V_GenericVillains.Radiation_Corruptor_Mid.Choking_Cloud",
    "V_GenericVillains.Radiation_Corruptor_Mid.Neutron_Bomb",
    "V_GenericVillains.Radiation_Corruptor_High.Atomic_Blast"
  ],
  "power_display_names": [
    "Neutrino Bolt",
    "X-Ray Beam",
    "Enervating Field",
    "Electron Haze",
    "Lingering Radiation",
    "Cosmic Burst",
    "Radiant Aura",
    "Choking Cloud",
    "Neutron Bomb",
    "Atomic Blast"
  ],
  "power_levels": [
    0,
    0,
    0,
    0,
    0,
    0,
    0,
    0,
    0,
    0
  ],
  "powers": [
    {
      "power_category": "V_GenericVillains",
      "power_set": "Radiation_Corruptor_Low",
      "power": "*",
      "level": 0
    },
    {
      "power_category": "V_GenericVillains",
      "power_set": "Radiation_Corruptor_Mid",
      "power": "*",
      "level": 0
    },
    {
      "power_category": "V_GenericVillains",
      "power_set": "Radiation_Corruptor_High",
      "power": "*",
      "level": 0
    }
  ],
  "levels": [
    {
      "level": 41,
      "experience": 0,
      "display_names": [
        "Corruptor"
      ],
      "costumes": [
        "Longbow_Male_Boss_01"
      ]
    },
    {
      "level": 42,
      "experience": 0,
      "display_names": [
        "Corruptor"
      ],
      "costumes": [
        "Longbow_Male_Boss_01"
      ]
    },
    {
      "level": 43,
      "experience": 0,
      "display_names": [
        "Corruptor"
      ],
      "costumes": [
        "Longbow_Male_Boss_01"
      ]
    },
    {
      "level": 44,
      "experience": 0,
      "display_names": [
        "Corruptor"
      ],
      "costumes": [
        "Longbow_Male_Boss_01"
      ]
    },
    {
      "level": 45,
      "experience": 0,
      "display_names": [
        "Corruptor"
      ],
      "costumes": [
        "Longbow_Male_Boss_01"
      ]
    },
    {
      "level": 46,
      "experience": 0,
      "display_names": [
        "Corruptor"
      ],
      "costumes": [
        "Longbow_Male_Boss_01"
      ]
    },
    {
      "level": 47,
      "experience": 0,
      "display_names": [
        "Corruptor"
      ],
      "costumes": [
        "Longbow_Male_Boss_01"
      ]
    },
    {
      "level": 48,
      "experience": 0,
      "display_names": [
        "Corruptor"
      ],
      "costumes": [
        "Longbow_Male_Boss_01"
      ]
    },
    {
      "level": 49,
      "experience": 0,
      "display_names": [
        "Corruptor"
      ],
      "costumes": [
        "Longbow_Male_Boss_01"
      ]
    },
    {
      "level": 50,
      "experience": 0,
      "display_names": [
        "Corruptor"
      ],
      "costumes": [
        "Longbow_Male_Boss_01"
      ]
    },
    {
      "level": 51,
      "experience": 0,
      "display_names": [
        "Corruptor"
      ],
      "costumes": [
        "Longbow_Male_Boss_01"
      ]
    },
    {
      "level": 52,
      "experience": 0,
      "display_names": [
        "Corruptor"
      ],
      "costumes": [
        "Longbow_Male_Boss_01"
      ]
    },
    {
      "level": 53,
      "experience": 0,
      "display_names": [
        "Corruptor"
      ],
      "costumes": [
        "Longbow_Male_Boss_01"
      ]
    },
    {
      "level": 54,
      "experience": 0,
      "display_names": [
        "Corruptor"
      ],
      "costumes": [
        "Longbow_Male_Boss_01"
      ]
    }
  ]
}