{
  "name": "GenericHeroes_MA_Scrapper_16-20",
  "gender": "GENDER_MALE",
  "description": "This is a generic Martial Arts/Super Reflexes Scrapper.",
  "group_description": "Freedom Corps",
  "display_class_name": null,
  "character_class_name": "boss_grunt",
  "ai_config": "Default_Melee",
  "commandable_pet": false,
  "power_tags": [
    "Humanoid",
    "HumanSkeleton"
  ],
  "additional_rewards": [

  ],
  "skill_hp_rewards": [

  ],
  "skill_status_rewards": [

  ],
  "ally": "Hero",
  "gang": null,
  "reward_scale": 1.0,
  "game_exclusion": "None",
  "inactive_state_weapon": null,
  "ignores_combat_mods": false,
  "copy_creator_mods": false,
  "spawn_limit": -1,
  "spawn_limit_mission": -1,
  "ignore_av_to_eb_scaling": false,
  "can_zone": false,
  "custom_badge_stat": null,
  "badge_stat_flags": "DefaultBadgeStat",
  "rank": "VR_BOSS",
  "power_full_names": [
    "V_GenericHeroes.MA_Scrapper.Thunder_Kick",
    "V_GenericHeroes.MA_Scrapper.Storm_Kick",
    "V_GenericHeroes.MA_Scrapper.Shurikens",
    "V_GenericHeroes.MA_Scrapper.Cobra_Strike",
    "V_GenericHeroes.MA_Scrapper.Focused_Fighting"
  ],
  "power_display_names": [
    "Thunder Kick",
    "Storm Kick",
    "Shurikens",
    "Cobra Strike",
    "Focused Fighting"
  ],
  "power_levels": [
    0,
    0,
    0,
    0,
    0
  ],
  "powers": [
    {
      "power_category": "V_GenericHeroes",
      "power_set": "MA_Scrapper",
      "power": "Thunder_Kick",
      "level": 0
    },
    {
      "power_category": "V_GenericHeroes",
      "power_set": "MA_Scrapper",
      "power": "Storm_Kick",
      "level": 0
    },
    {
      "power_category": "V_GenericHeroes",
      "power_set": "MA_Scrapper",
      "power": "Shurikens",
      "level": 0
    },
    {
      "power_category": "V_GenericHeroes",
      "power_set": "MA_Scrapper",
      "power": "Cobra_Strike",
      "level": 0
    },
    {
      "power_category": "V_GenericHeroes",
      "power_set": "MA_Scrapper",
      "power": "Focused_Fighting",
      "level": 0
    }
  ],
  "levels": [
    {
      "level": 16,
      "experience": 0,
      "display_names": [
        "Longbow Scrapper"
      ],
      "costumes": [
        "Longbow_Male_Boss_01",
        "Longbow_Male_Boss_02",
        "Longbow_Male_Boss_03",
        "Longbow_Male_Boss_04",
        "Longbow_Male_Boss_05"
      ]
    },
    {
      "level": 17,
      "experience": 0,
      "display_names": [
        "Longbow Scrapper"
      ],
      "costumes": [
        "Longbow_Male_Boss_01",
        "Longbow_Male_Boss_02",
        "Longbow_Male_Boss_03",
        "Longbow_Male_Boss_04",
        "Longbow_Male_Boss_05"
      ]
    },
    {
      "level": 18,
      "experience": 0,
      "display_names": [
        "Longbow Scrapper"
      ],
      "costumes": [
        "Longbow_Male_Boss_01",
        "Longbow_Male_Boss_02",
        "Longbow_Male_Boss_03",
        "Longbow_Male_Boss_04",
        "Longbow_Male_Boss_05"
      ]
    },
    {
      "level": 19,
      "experience": 0,
      "display_names": [
        "Longbow Scrapper"
      ],
      "costumes": [
        "Longbow_Male_Boss_01",
        "Longbow_Male_Boss_02",
        "Longbow_Male_Boss_03",
        "Longbow_Male_Boss_04",
        "Longbow_Male_Boss_05"
      ]
    },
    {
      "level": 20,
      "experience": 0,
      "display_names": [
        "Longbow Scrapper"
      ],
      "costumes": [
        "Longbow_Male_Boss_01",
        "Longbow_Male_Boss_02",
        "Longbow_Male_Boss_03",
        "Longbow_Male_Boss_04",
        "Longbow_Male_Boss_05"
      ]
    }
  ]
}