{
  "name": "GenericVillains_Stalker_Spines_21-30",
  "gender": "GENDER_MALE",
  "description": "This is a generic Spines/Regeneration Stalker.",
  "group_description": "Group Description",
  "display_class_name": null,
  "character_class_name": "boss_grunt",
  "ai_config": "Default_Melee",
  "commandable_pet": false,
  "power_tags": [
    "Humanoid",
    "HumanSkeleton"
  ],
  "additional_rewards": [

  ],
  "skill_hp_rewards": [

  ],
  "skill_status_rewards": [

  ],
  "ally": null,
  "gang": null,
  "reward_scale": 1.0,
  "game_exclusion": "None",
  "inactive_state_weapon": null,
  "ignores_combat_mods": false,
  "copy_creator_mods": false,
  "spawn_limit": -1,
  "spawn_limit_mission": -1,
  "ignore_av_to_eb_scaling": false,
  "can_zone": false,
  "custom_badge_stat": null,
  "badge_stat_flags": "DefaultBadgeStat",
  "rank": "VR_BOSS",
  "power_full_names": [
    "V_GenericVillains.Spines_Stalker.Barb_Swipe",
    "V_GenericVillains.Spines_Stalker.Lunge",
    "V_GenericVillains.Spines_Stalker.Spine_Burst",
    "V_GenericVillains.Spines_Stalker.Regeneration",
    "V_GenericVillains.Spines_Stalker_Low.Impale",
    "V_GenericVillains.Spines_Stalker_Mid.Quills",
    "V_GenericVillains.Spines_Stalker_Mid.Ripper"
  ],
  "power_display_names": [
    "Barb Swipe",
    "Lunge",
    "Spine Burst",
    "Regeneration",
    "Impale",
    "Quills",
    "Ripper"
  ],
  "power_levels": [
    0,
    0,
    0,
    0,
    0,
    0,
    0
  ],
  "powers": [
    {
      "power_category": "V_GenericVillains",
      "power_set": "Spines_Stalker",
      "power": "*",
      "level": 0
    },
    {
      "power_category": "V_GenericVillains",
      "power_set": "Spines_Stalker_Low",
      "power": "*",
      "level": 0
    },
    {
      "power_category": "V_GenericVillains",
      "power_set": "Spines_Stalker_Mid",
      "power": "*",
      "level": 0
    }
  ],
  "levels": [
    {
      "level": 21,
      "experience": 0,
      "display_names": [
        "Stalker"
      ],
      "costumes": [
        "Longbow_Male_Boss_01"
      ]
    },
    {
      "level": 22,
      "experience": 0,
      "display_names": [
        "Stalker"
      ],
      "costumes": [
        "Longbow_Male_Boss_01"
      ]
    },
    {
      "level": 23,
      "experience": 0,
      "display_names": [
        "Stalker"
      ],
      "costumes": [
        "Longbow_Male_Boss_01"
      ]
    },
    {
      "level": 24,
      "experience": 0,
      "display_names": [
        "Stalker"
      ],
      "costumes": [
        "Longbow_Male_Boss_01"
      ]
    },
    {
      "level": 25,
      "experience": 0,
      "display_names": [
        "Stalker"
      ],
      "costumes": [
        "Longbow_Male_Boss_01"
      ]
    },
    {
      "level": 26,
      "experience": 0,
      "display_names": [
        "Stalker"
      ],
      "costumes": [
        "Longbow_Male_Boss_01"
      ]
    },
    {
      "level": 27,
      "experience": 0,
      "display_names": [
        "Stalker"
      ],
      "costumes": [
        "Longbow_Male_Boss_01"
      ]
    },
    {
      "level": 28,
      "experience": 0,
      "display_names": [
        "Stalker"
      ],
      "costumes": [
        "Longbow_Male_Boss_01"
      ]
    },
    {
      "level": 29,
      "experience": 0,
      "display_names": [
        "Stalker"
      ],
      "costumes": [
        "Longbow_Male_Boss_01"
      ]
    },
    {
      "level": 30,
      "experience": 0,
      "display_names": [
        "Stalker"
      ],
      "costumes": [
        "Longbow_Male_Boss_01"
      ]
    }
  ]
}