{
  "name": "GenericVillains_Corruptor_Dark_41-54_Female",
  "gender": "GENDER_FEMALE",
  "description": "This is a generic Dark/Dark Corruptor.",
  "group_description": "Group Description",
  "display_class_name": null,
  "character_class_name": "boss_grunt",
  "ai_config": "Default_Ranged",
  "commandable_pet": false,
  "power_tags": [
    "Humanoid",
    "HumanSkeleton"
  ],
  "additional_rewards": [

  ],
  "skill_hp_rewards": [

  ],
  "skill_status_rewards": [

  ],
  "ally": null,
  "gang": null,
  "reward_scale": 1.0,
  "game_exclusion": "None",
  "inactive_state_weapon": null,
  "ignores_combat_mods": false,
  "copy_creator_mods": false,
  "spawn_limit": -1,
  "spawn_limit_mission": -1,
  "ignore_av_to_eb_scaling": false,
  "can_zone": false,
  "custom_badge_stat": null,
  "badge_stat_flags": "DefaultBadgeStat",
  "rank": "VR_BOSS",
  "power_full_names": [
    "V_GenericVillains.Dark_Corruptor.Gloom",
    "V_GenericVillains.Dark_Corruptor.Tenebrous_Tentacles",
    "V_GenericVillains.Dark_Corruptor.Twilight_Grasp",
    "V_GenericVillains.Dark_Corruptor.Night_Fall",
    "V_GenericVillains.Dark_Corruptor.Fearsome_Stare",
    "V_GenericVillains.Dark_Corruptor.Torrent",
    "V_GenericVillains.Dark_Corruptor_Low.Petrifying_Gaze",
    "V_GenericVillains.Dark_Corruptor_Low.Life_Drain",
    "V_GenericVillains.Dark_Corruptor_Mid.Dark_Servant",
    "V_GenericVillains.Dark_Corruptor_High.Blackstar"
  ],
  "power_display_names": [
    "Gloom",
    "Tenebrous Tentacles",
    "Twilight Grasp",
    "Night Fall",
    "Fearsome Stare",
    "Torrent",
    "Petrifying Gaze",
    "Life Drain",
    "Dark Servant",
    "Blackstar"
  ],
  "power_levels": [
    0,
    0,
    0,
    0,
    0,
    0,
    0,
    0,
    0,
    0
  ],
  "powers": [
    {
      "power_category": "V_GenericVillains",
      "power_set": "Dark_Corruptor",
      "power": "*",
      "level": 0
    },
    {
      "power_category": "V_GenericVillains",
      "power_set": "Dark_Corruptor_Low",
      "power": "*",
      "level": 0
    },
    {
      "power_category": "V_GenericVillains",
      "power_set": "Dark_Corruptor_Mid",
      "power": "*",
      "level": 0
    },
    {
      "power_category": "V_GenericVillains",
      "power_set": "Dark_Corruptor_High",
      "power": "*",
      "level": 0
    }
  ],
  "levels": [
    {
      "level": 41,
      "experience": 0,
      "display_names": [
        "Corruptor"
      ],
      "costumes": [
        "Longbow_Female_Boss_01"
      ]
    },
    {
      "level": 42,
      "experience": 0,
      "display_names": [
        "Corruptor"
      ],
      "costumes": [
        "Longbow_Female_Boss_01"
      ]
    },
    {
      "level": 43,
      "experience": 0,
      "display_names": [
        "Corruptor"
      ],
      "costumes": [
        "Longbow_Female_Boss_01"
      ]
    },
    {
      "level": 44,
      "experience": 0,
      "display_names": [
        "Corruptor"
      ],
      "costumes": [
        "Longbow_Female_Boss_01"
      ]
    },
    {
      "level": 45,
      "experience": 0,
      "display_names": [
        "Corruptor"
      ],
      "costumes": [
        "Longbow_Female_Boss_01"
      ]
    },
    {
      "level": 46,
      "experience": 0,
      "display_names": [
        "Corruptor"
      ],
      "costumes": [
        "Longbow_Female_Boss_01"
      ]
    },
    {
      "level": 47,
      "experience": 0,
      "display_names": [
        "Corruptor"
      ],
      "costumes": [
        "Longbow_Female_Boss_01"
      ]
    },
    {
      "level": 48,
      "experience": 0,
      "display_names": [
        "Corruptor"
      ],
      "costumes": [
        "Longbow_Female_Boss_01"
      ]
    },
    {
      "level": 49,
      "experience": 0,
      "display_names": [
        "Corruptor"
      ],
      "costumes": [
        "Longbow_Female_Boss_01"
      ]
    },
    {
      "level": 50,
      "experience": 0,
      "display_names": [
        "Corruptor"
      ],
      "costumes": [
        "Longbow_Female_Boss_01"
      ]
    },
    {
      "level": 51,
      "experience": 0,
      "display_names": [
        "Corruptor"
      ],
      "costumes": [
        "Longbow_Female_Boss_01"
      ]
    },
    {
      "level": 52,
      "experience": 0,
      "display_names": [
        "Corruptor"
      ],
      "costumes": [
        "Longbow_Female_Boss_01"
      ]
    },
    {
      "level": 53,
      "experience": 0,
      "display_names": [
        "Corruptor"
      ],
      "costumes": [
        "Longbow_Female_Boss_01"
      ]
    },
    {
      "level": 54,
      "experience": 0,
      "display_names": [
        "Corruptor"
      ],
      "costumes": [
        "Longbow_Female_Boss_01"
      ]
    }
  ]
}