{
  "name": "GenericVillains_Stalker_Claws_36-54_Female",
  "gender": "GENDER_FEMALE",
  "description": "This is a generic Claws/Super Reflexes Stalker.",
  "group_description": "Group Description",
  "display_class_name": null,
  "character_class_name": "boss_grunt",
  "ai_config": "Default_Melee",
  "commandable_pet": false,
  "power_tags": [
    "Humanoid",
    "HumanSkeleton"
  ],
  "additional_rewards": [

  ],
  "skill_hp_rewards": [

  ],
  "skill_status_rewards": [

  ],
  "ally": null,
  "gang": null,
  "reward_scale": 1.0,
  "game_exclusion": "None",
  "inactive_state_weapon": null,
  "ignores_combat_mods": false,
  "copy_creator_mods": false,
  "spawn_limit": -1,
  "spawn_limit_mission": -1,
  "ignore_av_to_eb_scaling": false,
  "can_zone": false,
  "custom_badge_stat": null,
  "badge_stat_flags": "DefaultBadgeStat",
  "rank": "VR_BOSS",
  "power_full_names": [
    "V_GenericVillains.Claws_Stalker.Swipe",
    "V_GenericVillains.Claws_Stalker.Strike",
    "V_GenericVillains.Claws_Stalker.Focus",
    "V_GenericVillains.Claws_Stalker.Slash",
    "V_GenericVillains.Claws_Stalker.Assassins_Claw",
    "V_GenericVillains.Claws_Stalker.Shockwave",
    "V_GenericVillains.Claws_Stalker.Inner_Focus",
    "V_GenericVillains.Claws_Stalker.Eviscerate",
    "V_GenericVillains.Claws_Stalker.Quickness",
    "V_GenericVillains.Claws_Stalker.Elude"
  ],
  "power_display_names": [
    "Swipe",
    "Strike",
    "Focus",
    "Slash",
    "Assassin's Claw",
    "Shockwave",
    "Inner Focus",
    "Eviscerate",
    "Quickness",
    "Elude"
  ],
  "power_levels": [
    0,
    0,
    0,
    0,
    0,
    0,
    0,
    0,
    0,
    0
  ],
  "powers": [
    {
      "power_category": "V_GenericVillains",
      "power_set": "Claws_Stalker",
      "power": "Swipe",
      "level": 0
    },
    {
      "power_category": "V_GenericVillains",
      "power_set": "Claws_Stalker",
      "power": "Strike",
      "level": 0
    },
    {
      "power_category": "V_GenericVillains",
      "power_set": "Claws_Stalker",
      "power": "Focus",
      "level": 0
    },
    {
      "power_category": "V_GenericVillains",
      "power_set": "Claws_Stalker",
      "power": "Slash",
      "level": 0
    },
    {
      "power_category": "V_GenericVillains",
      "power_set": "Claws_Stalker",
      "power": "Assassins_Claw",
      "level": 0
    },
    {
      "power_category": "V_GenericVillains",
      "power_set": "Claws_Stalker",
      "power": "Shockwave",
      "level": 0
    },
    {
      "power_category": "V_GenericVillains",
      "power_set": "Claws_Stalker",
      "power": "Inner_Focus",
      "level": 0
    },
    {
      "power_category": "V_GenericVillains",
      "power_set": "Claws_Stalker",
      "power": "Eviscerate",
      "level": 0
    },
    {
      "power_category": "V_GenericVillains",
      "power_set": "Claws_Stalker",
      "power": "Quickness",
      "level": 0
    },
    {
      "power_category": "V_GenericVillains",
      "power_set": "Claws_Stalker",
      "power": "Elude",
      "level": 0
    }
  ],
  "levels": [
    {
      "level": 36,
      "experience": 0,
      "display_names": [
        "Stalker"
      ],
      "costumes": [
        "Longbow_Female_Boss_01"
      ]
    },
    {
      "level": 37,
      "experience": 0,
      "display_names": [
        "Stalker"
      ],
      "costumes": [
        "Longbow_Female_Boss_01"
      ]
    },
    {
      "level": 38,
      "experience": 0,
      "display_names": [
        "Stalker"
      ],
      "costumes": [
        "Longbow_Female_Boss_01"
      ]
    },
    {
      "level": 39,
      "experience": 0,
      "display_names": [
        "Stalker"
      ],
      "costumes": [
        "Longbow_Female_Boss_01"
      ]
    },
    {
      "level": 40,
      "experience": 0,
      "display_names": [
        "Stalker"
      ],
      "costumes": [
        "Longbow_Female_Boss_01"
      ]
    },
    {
      "level": 41,
      "experience": 0,
      "display_names": [
        "Stalker"
      ],
      "costumes": [
        "Longbow_Female_Boss_01"
      ]
    },
    {
      "level": 42,
      "experience": 0,
      "display_names": [
        "Stalker"
      ],
      "costumes": [
        "Longbow_Female_Boss_01"
      ]
    },
    {
      "level": 43,
      "experience": 0,
      "display_names": [
        "Stalker"
      ],
      "costumes": [
        "Longbow_Female_Boss_01"
      ]
    },
    {
      "level": 44,
      "experience": 0,
      "display_names": [
        "Stalker"
      ],
      "costumes": [
        "Longbow_Female_Boss_01"
      ]
    },
    {
      "level": 45,
      "experience": 0,
      "display_names": [
        "Stalker"
      ],
      "costumes": [
        "Longbow_Female_Boss_01"
      ]
    },
    {
      "level": 46,
      "experience": 0,
      "display_names": [
        "Stalker"
      ],
      "costumes": [
        "Longbow_Female_Boss_01"
      ]
    },
    {
      "level": 47,
      "experience": 0,
      "display_names": [
        "Stalker"
      ],
      "costumes": [
        "Longbow_Female_Boss_01"
      ]
    },
    {
      "level": 48,
      "experience": 0,
      "display_names": [
        "Stalker"
      ],
      "costumes": [
        "Longbow_Female_Boss_01"
      ]
    },
    {
      "level": 49,
      "experience": 0,
      "display_names": [
        "Stalker"
      ],
      "costumes": [
        "Longbow_Female_Boss_01"
      ]
    },
    {
      "level": 50,
      "experience": 0,
      "display_names": [
        "Stalker"
      ],
      "costumes": [
        "Longbow_Female_Boss_01"
      ]
    },
    {
      "level": 51,
      "experience": 0,
      "display_names": [
        "Stalker"
      ],
      "costumes": [
        "Longbow_Female_Boss_01"
      ]
    },
    {
      "level": 52,
      "experience": 0,
      "display_names": [
        "Stalker"
      ],
      "costumes": [
        "Longbow_Female_Boss_01"
      ]
    },
    {
      "level": 53,
      "experience": 0,
      "display_names": [
        "Stalker"
      ],
      "costumes": [
        "Longbow_Female_Boss_01"
      ]
    },
    {
      "level": 54,
      "experience": 0,
      "display_names": [
        "Stalker"
      ],
      "costumes": [
        "Longbow_Female_Boss_01"
      ]
    }
  ]
}