{
  "name": "GenericHeroes_Agent_X_Boss",
  "gender": "GENDER_MALE",
  "description": "Agent X is a renowned Longbow super-spy. His technical skills are phenomenal, with a gadget or gizmo available for any occasion.",
  "group_description": "Longbow",
  "display_class_name": null,
  "character_class_name": "boss_grunt",
  "ai_config": "Default_Melee",
  "commandable_pet": false,
  "power_tags": [
    "Humanoid",
    "HumanSkeleton"
  ],
  "additional_rewards": [

  ],
  "skill_hp_rewards": [

  ],
  "skill_status_rewards": [

  ],
  "ally": "Hero",
  "gang": null,
  "reward_scale": 1.0,
  "game_exclusion": "None",
  "inactive_state_weapon": null,
  "ignores_combat_mods": false,
  "copy_creator_mods": false,
  "spawn_limit": -1,
  "spawn_limit_mission": -1,
  "ignore_av_to_eb_scaling": false,
  "can_zone": false,
  "custom_badge_stat": null,
  "badge_stat_flags": "DefaultBadgeStat",
  "rank": "VR_BOSS",
  "power_full_names": [
    "V_GenericHeroes.Energy_Tanker_Low.Barrage",
    "V_GenericHeroes.Energy_Tanker_Low.Energy_Punch",
    "V_GenericHeroes.Energy_Tanker_Low.Energy_Torrent",
    "V_GenericHeroes.Energy_Tanker_Low.Resistance",
    "V_GenericHeroes.Energy_Tanker_Mid.Laser_Beam_Eyes",
    "V_GenericHeroes.Energy_Tanker_Mid.Unyielding"
  ],
  "power_display_names": [
    "Barrage",
    "Energy Punch",
    "Energy Torrent",
    "Resistance",
    "Laser Beam Eyes",
    "Unyielding"
  ],
  "power_levels": [
    0,
    0,
    0,
    0,
    0,
    0
  ],
  "powers": [
    {
      "power_category": "V_GenericHeroes",
      "power_set": "Energy_Tanker_Low",
      "power": "Barrage",
      "level": 0
    },
    {
      "power_category": "V_GenericHeroes",
      "power_set": "Energy_Tanker_Low",
      "power": "Energy_Punch",
      "level": 0
    },
    {
      "power_category": "V_GenericHeroes",
      "power_set": "Energy_Tanker_Low",
      "power": "Energy_Torrent",
      "level": 0
    },
    {
      "power_category": "V_GenericHeroes",
      "power_set": "Energy_Tanker_Low",
      "power": "Resistance",
      "level": 0
    },
    {
      "power_category": "V_GenericHeroes",
      "power_set": "Energy_Tanker_Mid",
      "power": "Laser_Beam_Eyes",
      "level": 0
    },
    {
      "power_category": "V_GenericHeroes",
      "power_set": "Energy_Tanker_Mid",
      "power": "Unyielding",
      "level": 0
    }
  ],
  "levels": [
    {
      "level": 15,
      "experience": 0,
      "display_names": [
        "Agent X"
      ],
      "costumes": [
        "Model_Agent_X"
      ]
    },
    {
      "level": 16,
      "experience": 0,
      "display_names": [
        "Agent X"
      ],
      "costumes": [
        "Model_Agent_X"
      ]
    },
    {
      "level": 17,
      "experience": 0,
      "display_names": [
        "Agent X"
      ],
      "costumes": [
        "Model_Agent_X"
      ]
    },
    {
      "level": 18,
      "experience": 0,
      "display_names": [
        "Agent X"
      ],
      "costumes": [
        "Model_Agent_X"
      ]
    },
    {
      "level": 19,
      "experience": 0,
      "display_names": [
        "Agent X"
      ],
      "costumes": [
        "Model_Agent_X"
      ]
    },
    {
      "level": 20,
      "experience": 0,
      "display_names": [
        "Agent X"
      ],
      "costumes": [
        "Model_Agent_X"
      ]
    },
    {
      "level": 21,
      "experience": 0,
      "display_names": [
        "Agent X"
      ],
      "costumes": [
        "Model_Agent_X"
      ]
    },
    {
      "level": 22,
      "experience": 0,
      "display_names": [
        "Agent X"
      ],
      "costumes": [
        "Model_Agent_X"
      ]
    },
    {
      "level": 23,
      "experience": 0,
      "display_names": [
        "Agent X"
      ],
      "costumes": [
        "Model_Agent_X"
      ]
    },
    {
      "level": 24,
      "experience": 0,
      "display_names": [
        "Agent X"
      ],
      "costumes": [
        "Model_Agent_X"
      ]
    }
  ]
}