{
  "name": "GenericVillains_Brute_SS_11-20_Female",
  "gender": "GENDER_FEMALE",
  "description": "This is a generic Super Strength/Invulnerability Brute.",
  "group_description": "Group Description",
  "display_class_name": null,
  "character_class_name": "boss_grunt",
  "ai_config": "Default_Melee",
  "commandable_pet": false,
  "power_tags": [
    "Humanoid",
    "HumanSkeleton"
  ],
  "additional_rewards": [

  ],
  "skill_hp_rewards": [

  ],
  "skill_status_rewards": [

  ],
  "ally": null,
  "gang": null,
  "reward_scale": 1.0,
  "game_exclusion": "None",
  "inactive_state_weapon": null,
  "ignores_combat_mods": false,
  "copy_creator_mods": false,
  "spawn_limit": -1,
  "spawn_limit_mission": -1,
  "ignore_av_to_eb_scaling": false,
  "can_zone": false,
  "custom_badge_stat": null,
  "badge_stat_flags": "DefaultBadgeStat",
  "rank": "VR_BOSS",
  "power_full_names": [
    "V_GenericVillains.Brute_Resistance.Resistance",
    "V_GenericVillains.SS_Brute.Jab",
    "V_GenericVillains.SS_Brute.Punch",
    "V_GenericVillains.SS_Brute.Hurl",
    "V_GenericVillains.SS_Brute.Temp_Invulnerability"
  ],
  "power_display_names": [
    "Resistance",
    "Jab",
    "Punch",
    "Hurl",
    "Temp Invulnerability"
  ],
  "power_levels": [
    0,
    0,
    0,
    0,
    0
  ],
  "powers": [
    {
      "power_category": "V_GenericVillains",
      "power_set": "Brute_Resistance",
      "power": "*",
      "level": 0
    },
    {
      "power_category": "V_GenericVillains",
      "power_set": "SS_Brute",
      "power": "*",
      "level": 0
    }
  ],
  "levels": [
    {
      "level": 11,
      "experience": 0,
      "display_names": [
        "Brute"
      ],
      "costumes": [
        "Longbow_Female_Boss_01"
      ]
    },
    {
      "level": 12,
      "experience": 0,
      "display_names": [
        "Brute"
      ],
      "costumes": [
        "Longbow_Female_Boss_01"
      ]
    },
    {
      "level": 13,
      "experience": 0,
      "display_names": [
        "Brute"
      ],
      "costumes": [
        "Longbow_Female_Boss_01"
      ]
    },
    {
      "level": 14,
      "experience": 0,
      "display_names": [
        "Brute"
      ],
      "costumes": [
        "Longbow_Female_Boss_01"
      ]
    },
    {
      "level": 15,
      "experience": 0,
      "display_names": [
        "Brute"
      ],
      "costumes": [
        "Longbow_Female_Boss_01"
      ]
    },
    {
      "level": 16,
      "experience": 0,
      "display_names": [
        "Brute"
      ],
      "costumes": [
        "Longbow_Female_Boss_01"
      ]
    },
    {
      "level": 17,
      "experience": 0,
      "display_names": [
        "Brute"
      ],
      "costumes": [
        "Longbow_Female_Boss_01"
      ]
    },
    {
      "level": 18,
      "experience": 0,
      "display_names": [
        "Brute"
      ],
      "costumes": [
        "Longbow_Female_Boss_01"
      ]
    },
    {
      "level": 19,
      "experience": 0,
      "display_names": [
        "Brute"
      ],
      "costumes": [
        "Longbow_Female_Boss_01"
      ]
    },
    {
      "level": 20,
      "experience": 0,
      "display_names": [
        "Brute"
      ],
      "costumes": [
        "Longbow_Female_Boss_01"
      ]
    }
  ]
}