{
  "name": "GenericVillains_Stalker_Sword_21-25",
  "gender": "GENDER_MALE",
  "description": "This is a generic Ninja Sword/Ninjitsu Stalker.",
  "group_description": "Group Description",
  "display_class_name": null,
  "character_class_name": "boss_grunt",
  "ai_config": "Default_Melee",
  "commandable_pet": false,
  "power_tags": [
    "Humanoid",
    "HumanSkeleton"
  ],
  "additional_rewards": [

  ],
  "skill_hp_rewards": [

  ],
  "skill_status_rewards": [

  ],
  "ally": null,
  "gang": null,
  "reward_scale": 1.0,
  "game_exclusion": "None",
  "inactive_state_weapon": null,
  "ignores_combat_mods": false,
  "copy_creator_mods": false,
  "spawn_limit": -1,
  "spawn_limit_mission": -1,
  "ignore_av_to_eb_scaling": false,
  "can_zone": false,
  "custom_badge_stat": null,
  "badge_stat_flags": "DefaultBadgeStat",
  "rank": "VR_BOSS",
  "power_full_names": [
    "V_GenericVillains.Sword_Stalker.Hack",
    "V_GenericVillains.Sword_Stalker.Slash",
    "V_GenericVillains.Sword_Stalker.Shurikens",
    "V_GenericVillains.Sword_Stalker.Slice",
    "V_GenericVillains.Sword_Stalker.Caltrops",
    "V_GenericVillains.Sword_Stalker.Ninja_Reflexes",
    "V_GenericVillains.Sword_Stalker.Parry",
    "V_GenericVillains.Sword_Stalker.Exploding_Shuriken"
  ],
  "power_display_names": [
    "Sting of the Wasp",
    "Gambler's Cut",
    "Shurikens",
    "Flashing Steel",
    "Caltrops",
    "Ninja Reflexes",
    "Divine Avalanche",
    "Exploding Shuriken"
  ],
  "power_levels": [
    0,
    0,
    0,
    0,
    0,
    0,
    0,
    0
  ],
  "powers": [
    {
      "power_category": "V_GenericVillains",
      "power_set": "Sword_Stalker",
      "power": "Hack",
      "level": 0
    },
    {
      "power_category": "V_GenericVillains",
      "power_set": "Sword_Stalker",
      "power": "Slash",
      "level": 0
    },
    {
      "power_category": "V_GenericVillains",
      "power_set": "Sword_Stalker",
      "power": "Shurikens",
      "level": 0
    },
    {
      "power_category": "V_GenericVillains",
      "power_set": "Sword_Stalker",
      "power": "Slice",
      "level": 0
    },
    {
      "power_category": "V_GenericVillains",
      "power_set": "Sword_Stalker",
      "power": "Caltrops",
      "level": 0
    },
    {
      "power_category": "V_GenericVillains",
      "power_set": "Sword_Stalker",
      "power": "Ninja_Reflexes",
      "level": 0
    },
    {
      "power_category": "V_GenericVillains",
      "power_set": "Sword_Stalker",
      "power": "Parry",
      "level": 0
    },
    {
      "power_category": "V_GenericVillains",
      "power_set": "Sword_Stalker",
      "power": "Exploding_Shuriken",
      "level": 0
    }
  ],
  "levels": [
    {
      "level": 21,
      "experience": 0,
      "display_names": [
        "Stalker"
      ],
      "costumes": [
        "Longbow_Male_Boss_01"
      ]
    },
    {
      "level": 22,
      "experience": 0,
      "display_names": [
        "Stalker"
      ],
      "costumes": [
        "Longbow_Male_Boss_01"
      ]
    },
    {
      "level": 23,
      "experience": 0,
      "display_names": [
        "Stalker"
      ],
      "costumes": [
        "Longbow_Male_Boss_01"
      ]
    },
    {
      "level": 24,
      "experience": 0,
      "display_names": [
        "Stalker"
      ],
      "costumes": [
        "Longbow_Male_Boss_01"
      ]
    },
    {
      "level": 25,
      "experience": 0,
      "display_names": [
        "Stalker"
      ],
      "costumes": [
        "Longbow_Male_Boss_01"
      ]
    }
  ]
}