{
  "name": "GenericVillains_Malta_Slinger",
  "gender": "GENDER_MALE",
  "description": "Slinger is one of Malta's engineering geniuses, with excellent knowledge of advanced robotics and weapons. Some suspect he had a direct hand in the development of the infamous Titan robots.",
  "group_description": "Malta",
  "display_class_name": null,
  "character_class_name": "boss_archvillain",
  "ai_config": "Default_Ranged",
  "commandable_pet": false,
  "power_tags": [
    "Humanoid",
    "HumanSkeleton",
    "Raid"
  ],
  "additional_rewards": [

  ],
  "skill_hp_rewards": [

  ],
  "skill_status_rewards": [

  ],
  "ally": null,
  "gang": null,
  "reward_scale": 1.0,
  "game_exclusion": "None",
  "inactive_state_weapon": null,
  "ignores_combat_mods": false,
  "copy_creator_mods": false,
  "spawn_limit": -1,
  "spawn_limit_mission": -1,
  "ignore_av_to_eb_scaling": false,
  "can_zone": false,
  "custom_badge_stat": null,
  "badge_stat_flags": "DefaultBadgeStat",
  "rank": "VR_ARCHVILLAIN",
  "power_full_names": [
    "V_GenericVillains.Robotics_Mastermind.Pulse_Rifle_Blast",
    "V_GenericVillains.Robotics_Mastermind.Pulse_Rifle_Burst",
    "V_GenericVillains.Robotics_Mastermind.Photon_Grenade",
    "V_GenericVillains.Robotics_Mastermind.Battle_Drones",
    "V_GenericVillains.Robotics_Mastermind.Protector_Bots",
    "V_GenericVillains.Robotics_Mastermind.Assault_Bot",
    "V_GenericVillains.Robotics_Mastermind.Personal_Force_Field",
    "V_GenericVillains.Robotics_Mastermind.Dispersion_Bubble",
    "V_GenericVillains.Robotics_Mastermind.Repulsion_Bomb"
  ],
  "power_display_names": [
    "Pulse Rifle Blast",
    "Pulse Rifle Burst",
    "Photon Grenade",
    "Battle Drones",
    "Protector Bots",
    "Assault Bot",
    "Personal Force Field",
    "Dispersion Bubble",
    "Repulsion Bomb"
  ],
  "power_levels": [
    0,
    0,
    0,
    0,
    0,
    0,
    0,
    0,
    0
  ],
  "powers": [
    {
      "power_category": "V_GenericVillains",
      "power_set": "Robotics_Mastermind",
      "power": "*",
      "level": 0
    }
  ],
  "levels": [
    {
      "level": 41,
      "experience": 0,
      "display_names": [
        "Slinger"
      ],
      "costumes": [
        "Model_Slinger"
      ]
    },
    {
      "level": 42,
      "experience": 0,
      "display_names": [
        "Slinger"
      ],
      "costumes": [
        "Model_Slinger"
      ]
    },
    {
      "level": 43,
      "experience": 0,
      "display_names": [
        "Slinger"
      ],
      "costumes": [
        "Model_Slinger"
      ]
    },
    {
      "level": 44,
      "experience": 0,
      "display_names": [
        "Slinger"
      ],
      "costumes": [
        "Model_Slinger"
      ]
    },
    {
      "level": 45,
      "experience": 0,
      "display_names": [
        "Slinger"
      ],
      "costumes": [
        "Model_Slinger"
      ]
    },
    {
      "level": 46,
      "experience": 0,
      "display_names": [
        "Slinger"
      ],
      "costumes": [
        "Model_Slinger"
      ]
    },
    {
      "level": 47,
      "experience": 0,
      "display_names": [
        "Slinger"
      ],
      "costumes": [
        "Model_Slinger"
      ]
    },
    {
      "level": 48,
      "experience": 0,
      "display_names": [
        "Slinger"
      ],
      "costumes": [
        "Model_Slinger"
      ]
    },
    {
      "level": 49,
      "experience": 0,
      "display_names": [
        "Slinger"
      ],
      "costumes": [
        "Model_Slinger"
      ]
    },
    {
      "level": 50,
      "experience": 0,
      "display_names": [
        "Slinger"
      ],
      "costumes": [
        "Model_Slinger"
      ]
    },
    {
      "level": 51,
      "experience": 0,
      "display_names": [
        "Slinger"
      ],
      "costumes": [
        "Model_Slinger"
      ]
    },
    {
      "level": 52,
      "experience": 0,
      "display_names": [
        "Slinger"
      ],
      "costumes": [
        "Model_Slinger"
      ]
    },
    {
      "level": 53,
      "experience": 0,
      "display_names": [
        "Slinger"
      ],
      "costumes": [
        "Model_Slinger"
      ]
    },
    {
      "level": 54,
      "experience": 0,
      "display_names": [
        "Slinger"
      ],
      "costumes": [
        "Model_Slinger"
      ]
    }
  ]
}