{
  "name": "Ghosts_Minion_Female",
  "gender": "GENDER_FEMALE",
  "description": "It's unclear how long these eerie ghosts have floated along the desolate streets of Paragon City, or what force has held them to this world. One thing alone is clear: they seem to be angry with you.",
  "group_description": null,
  "display_class_name": null,
  "character_class_name": "minion_grunt",
  "ai_config": "Default_Ranged",
  "commandable_pet": false,
  "power_tags": [
    "HumanSkeleton",
    "Ghost",
    "Undead"
  ],
  "additional_rewards": [

  ],
  "skill_hp_rewards": [

  ],
  "skill_status_rewards": [

  ],
  "ally": null,
  "gang": null,
  "reward_scale": 1.0,
  "game_exclusion": "None",
  "inactive_state_weapon": null,
  "ignores_combat_mods": false,
  "copy_creator_mods": false,
  "spawn_limit": -1,
  "spawn_limit_mission": -1,
  "ignore_av_to_eb_scaling": false,
  "can_zone": false,
  "custom_badge_stat": null,
  "badge_stat_flags": "DefaultBadgeStat",
  "rank": "VR_MINION",
  "power_full_names": [
    "Portal.Ghosts.Ethereal",
    "Portal.Ghosts.Resistance",
    "Portal.Ghosts.Ghastly_Blast",
    "Portal.Ghosts.Fly"
  ],
  "power_display_names": [
    "Ethereal",
    "Resistance",
    "Ghastly Blast",
    "Fly"
  ],
  "power_levels": [
    0,
    0,
    0,
    0
  ],
  "powers": [
    {
      "power_category": "Portal",
      "power_set": "Ghosts",
      "power": "*",
      "level": 0
    }
  ],
  "levels": [
    {
      "level": 40,
      "experience": 0,
      "display_names": [
        "Spirit"
      ],
      "costumes": [
        "FemaleNPC_Villain_Ghost_01",
        "FemaleNPC_Villain_Ghost_02",
        "FemaleNPC_Villain_Ghost_03",
        "FemaleNPC_Villain_Ghost_04",
        "FemaleNPC_Villain_Ghost_05",
        "FemaleNPC_Villain_Ghost_51",
        "FemaleNPC_Villain_Ghost_52",
        "FemaleNPC_Villain_Ghost_53",
        "FemaleNPC_Villain_Ghost_54",
        "FemaleNPC_Villain_Ghost_55",
        "FemaleNPC_Villain_Ghost_110",
        "FemaleNPC_Villain_Ghost_111",
        "FemaleNPC_Villain_Ghost_112",
        "FemaleNPC_Villain_Ghost_113",
        "FemaleNPC_Villain_Ghost_114",
        "FemaleNPC_Villain_Ghost_115",
        "FemaleNPC_Villain_Ghost_200",
        "FemaleNPC_Villain_Ghost_201",
        "FemaleNPC_Villain_Ghost_220",
        "FemaleNPC_Villain_Ghost_221",
        "FemaleNPC_Villain_Ghost_222"
      ]
    },
    {
      "level": 41,
      "experience": 0,
      "display_names": [
        "Spirit"
      ],
      "costumes": [
        "FemaleNPC_Villain_Ghost_01",
        "FemaleNPC_Villain_Ghost_02",
        "FemaleNPC_Villain_Ghost_03",
        "FemaleNPC_Villain_Ghost_04",
        "FemaleNPC_Villain_Ghost_05",
        "FemaleNPC_Villain_Ghost_51",
        "FemaleNPC_Villain_Ghost_52",
        "FemaleNPC_Villain_Ghost_53",
        "FemaleNPC_Villain_Ghost_54",
        "FemaleNPC_Villain_Ghost_55",
        "FemaleNPC_Villain_Ghost_110",
        "FemaleNPC_Villain_Ghost_111",
        "FemaleNPC_Villain_Ghost_112",
        "FemaleNPC_Villain_Ghost_113",
        "FemaleNPC_Villain_Ghost_114",
        "FemaleNPC_Villain_Ghost_115",
        "FemaleNPC_Villain_Ghost_200",
        "FemaleNPC_Villain_Ghost_201",
        "FemaleNPC_Villain_Ghost_220",
        "FemaleNPC_Villain_Ghost_221",
        "FemaleNPC_Villain_Ghost_222"
      ]
    },
    {
      "level": 42,
      "experience": 0,
      "display_names": [
        "Spirit"
      ],
      "costumes": [
        "FemaleNPC_Villain_Ghost_01",
        "FemaleNPC_Villain_Ghost_02",
        "FemaleNPC_Villain_Ghost_03",
        "FemaleNPC_Villain_Ghost_04",
        "FemaleNPC_Villain_Ghost_05",
        "FemaleNPC_Villain_Ghost_51",
        "FemaleNPC_Villain_Ghost_52",
        "FemaleNPC_Villain_Ghost_53",
        "FemaleNPC_Villain_Ghost_54",
        "FemaleNPC_Villain_Ghost_55",
        "FemaleNPC_Villain_Ghost_110",
        "FemaleNPC_Villain_Ghost_111",
        "FemaleNPC_Villain_Ghost_112",
        "FemaleNPC_Villain_Ghost_113",
        "FemaleNPC_Villain_Ghost_114",
        "FemaleNPC_Villain_Ghost_115",
        "FemaleNPC_Villain_Ghost_200",
        "FemaleNPC_Villain_Ghost_201",
        "FemaleNPC_Villain_Ghost_220",
        "FemaleNPC_Villain_Ghost_221",
        "FemaleNPC_Villain_Ghost_222"
      ]
    },
    {
      "level": 43,
      "experience": 0,
      "display_names": [
        "Spirit"
      ],
      "costumes": [
        "FemaleNPC_Villain_Ghost_01",
        "FemaleNPC_Villain_Ghost_02",
        "FemaleNPC_Villain_Ghost_03",
        "FemaleNPC_Villain_Ghost_04",
        "FemaleNPC_Villain_Ghost_05",
        "FemaleNPC_Villain_Ghost_51",
        "FemaleNPC_Villain_Ghost_52",
        "FemaleNPC_Villain_Ghost_53",
        "FemaleNPC_Villain_Ghost_54",
        "FemaleNPC_Villain_Ghost_55",
        "FemaleNPC_Villain_Ghost_110",
        "FemaleNPC_Villain_Ghost_111",
        "FemaleNPC_Villain_Ghost_112",
        "FemaleNPC_Villain_Ghost_113",
        "FemaleNPC_Villain_Ghost_114",
        "FemaleNPC_Villain_Ghost_115",
        "FemaleNPC_Villain_Ghost_200",
        "FemaleNPC_Villain_Ghost_201",
        "FemaleNPC_Villain_Ghost_220",
        "FemaleNPC_Villain_Ghost_221",
        "FemaleNPC_Villain_Ghost_222"
      ]
    },
    {
      "level": 44,
      "experience": 0,
      "display_names": [
        "Spirit"
      ],
      "costumes": [
        "FemaleNPC_Villain_Ghost_01",
        "FemaleNPC_Villain_Ghost_02",
        "FemaleNPC_Villain_Ghost_03",
        "FemaleNPC_Villain_Ghost_04",
        "FemaleNPC_Villain_Ghost_05",
        "FemaleNPC_Villain_Ghost_51",
        "FemaleNPC_Villain_Ghost_52",
        "FemaleNPC_Villain_Ghost_53",
        "FemaleNPC_Villain_Ghost_54",
        "FemaleNPC_Villain_Ghost_55",
        "FemaleNPC_Villain_Ghost_110",
        "FemaleNPC_Villain_Ghost_111",
        "FemaleNPC_Villain_Ghost_112",
        "FemaleNPC_Villain_Ghost_113",
        "FemaleNPC_Villain_Ghost_114",
        "FemaleNPC_Villain_Ghost_115",
        "FemaleNPC_Villain_Ghost_200",
        "FemaleNPC_Villain_Ghost_201",
        "FemaleNPC_Villain_Ghost_220",
        "FemaleNPC_Villain_Ghost_221",
        "FemaleNPC_Villain_Ghost_222"
      ]
    },
    {
      "level": 45,
      "experience": 0,
      "display_names": [
        "Spirit"
      ],
      "costumes": [
        "FemaleNPC_Villain_Ghost_01",
        "FemaleNPC_Villain_Ghost_02",
        "FemaleNPC_Villain_Ghost_03",
        "FemaleNPC_Villain_Ghost_04",
        "FemaleNPC_Villain_Ghost_05",
        "FemaleNPC_Villain_Ghost_51",
        "FemaleNPC_Villain_Ghost_52",
        "FemaleNPC_Villain_Ghost_53",
        "FemaleNPC_Villain_Ghost_54",
        "FemaleNPC_Villain_Ghost_55",
        "FemaleNPC_Villain_Ghost_110",
        "FemaleNPC_Villain_Ghost_111",
        "FemaleNPC_Villain_Ghost_112",
        "FemaleNPC_Villain_Ghost_113",
        "FemaleNPC_Villain_Ghost_114",
        "FemaleNPC_Villain_Ghost_115",
        "FemaleNPC_Villain_Ghost_200",
        "FemaleNPC_Villain_Ghost_201",
        "FemaleNPC_Villain_Ghost_220",
        "FemaleNPC_Villain_Ghost_221",
        "FemaleNPC_Villain_Ghost_222"
      ]
    },
    {
      "level": 46,
      "experience": 0,
      "display_names": [
        "Spirit"
      ],
      "costumes": [
        "FemaleNPC_Villain_Ghost_01",
        "FemaleNPC_Villain_Ghost_02",
        "FemaleNPC_Villain_Ghost_03",
        "FemaleNPC_Villain_Ghost_04",
        "FemaleNPC_Villain_Ghost_05",
        "FemaleNPC_Villain_Ghost_51",
        "FemaleNPC_Villain_Ghost_52",
        "FemaleNPC_Villain_Ghost_53",
        "FemaleNPC_Villain_Ghost_54",
        "FemaleNPC_Villain_Ghost_55",
        "FemaleNPC_Villain_Ghost_110",
        "FemaleNPC_Villain_Ghost_111",
        "FemaleNPC_Villain_Ghost_112",
        "FemaleNPC_Villain_Ghost_113",
        "FemaleNPC_Villain_Ghost_114",
        "FemaleNPC_Villain_Ghost_115",
        "FemaleNPC_Villain_Ghost_200",
        "FemaleNPC_Villain_Ghost_201",
        "FemaleNPC_Villain_Ghost_220",
        "FemaleNPC_Villain_Ghost_221",
        "FemaleNPC_Villain_Ghost_222"
      ]
    },
    {
      "level": 47,
      "experience": 0,
      "display_names": [
        "Spirit"
      ],
      "costumes": [
        "FemaleNPC_Villain_Ghost_01",
        "FemaleNPC_Villain_Ghost_02",
        "FemaleNPC_Villain_Ghost_03",
        "FemaleNPC_Villain_Ghost_04",
        "FemaleNPC_Villain_Ghost_05",
        "FemaleNPC_Villain_Ghost_51",
        "FemaleNPC_Villain_Ghost_52",
        "FemaleNPC_Villain_Ghost_53",
        "FemaleNPC_Villain_Ghost_54",
        "FemaleNPC_Villain_Ghost_55",
        "FemaleNPC_Villain_Ghost_110",
        "FemaleNPC_Villain_Ghost_111",
        "FemaleNPC_Villain_Ghost_112",
        "FemaleNPC_Villain_Ghost_113",
        "FemaleNPC_Villain_Ghost_114",
        "FemaleNPC_Villain_Ghost_115",
        "FemaleNPC_Villain_Ghost_200",
        "FemaleNPC_Villain_Ghost_201",
        "FemaleNPC_Villain_Ghost_220",
        "FemaleNPC_Villain_Ghost_221",
        "FemaleNPC_Villain_Ghost_222"
      ]
    },
    {
      "level": 48,
      "experience": 0,
      "display_names": [
        "Spirit"
      ],
      "costumes": [
        "FemaleNPC_Villain_Ghost_01",
        "FemaleNPC_Villain_Ghost_02",
        "FemaleNPC_Villain_Ghost_03",
        "FemaleNPC_Villain_Ghost_04",
        "FemaleNPC_Villain_Ghost_05",
        "FemaleNPC_Villain_Ghost_51",
        "FemaleNPC_Villain_Ghost_52",
        "FemaleNPC_Villain_Ghost_53",
        "FemaleNPC_Villain_Ghost_54",
        "FemaleNPC_Villain_Ghost_55",
        "FemaleNPC_Villain_Ghost_110",
        "FemaleNPC_Villain_Ghost_111",
        "FemaleNPC_Villain_Ghost_112",
        "FemaleNPC_Villain_Ghost_113",
        "FemaleNPC_Villain_Ghost_114",
        "FemaleNPC_Villain_Ghost_115",
        "FemaleNPC_Villain_Ghost_200",
        "FemaleNPC_Villain_Ghost_201",
        "FemaleNPC_Villain_Ghost_220",
        "FemaleNPC_Villain_Ghost_221",
        "FemaleNPC_Villain_Ghost_222"
      ]
    },
    {
      "level": 49,
      "experience": 0,
      "display_names": [
        "Spirit"
      ],
      "costumes": [
        "FemaleNPC_Villain_Ghost_01",
        "FemaleNPC_Villain_Ghost_02",
        "FemaleNPC_Villain_Ghost_03",
        "FemaleNPC_Villain_Ghost_04",
        "FemaleNPC_Villain_Ghost_05",
        "FemaleNPC_Villain_Ghost_51",
        "FemaleNPC_Villain_Ghost_52",
        "FemaleNPC_Villain_Ghost_53",
        "FemaleNPC_Villain_Ghost_54",
        "FemaleNPC_Villain_Ghost_55",
        "FemaleNPC_Villain_Ghost_110",
        "FemaleNPC_Villain_Ghost_111",
        "FemaleNPC_Villain_Ghost_112",
        "FemaleNPC_Villain_Ghost_113",
        "FemaleNPC_Villain_Ghost_114",
        "FemaleNPC_Villain_Ghost_115",
        "FemaleNPC_Villain_Ghost_200",
        "FemaleNPC_Villain_Ghost_201",
        "FemaleNPC_Villain_Ghost_220",
        "FemaleNPC_Villain_Ghost_221",
        "FemaleNPC_Villain_Ghost_222"
      ]
    },
    {
      "level": 50,
      "experience": 0,
      "display_names": [
        "Spirit"
      ],
      "costumes": [
        "FemaleNPC_Villain_Ghost_01",
        "FemaleNPC_Villain_Ghost_02",
        "FemaleNPC_Villain_Ghost_03",
        "FemaleNPC_Villain_Ghost_04",
        "FemaleNPC_Villain_Ghost_05",
        "FemaleNPC_Villain_Ghost_51",
        "FemaleNPC_Villain_Ghost_52",
        "FemaleNPC_Villain_Ghost_53",
        "FemaleNPC_Villain_Ghost_54",
        "FemaleNPC_Villain_Ghost_55",
        "FemaleNPC_Villain_Ghost_110",
        "FemaleNPC_Villain_Ghost_111",
        "FemaleNPC_Villain_Ghost_112",
        "FemaleNPC_Villain_Ghost_113",
        "FemaleNPC_Villain_Ghost_114",
        "FemaleNPC_Villain_Ghost_115",
        "FemaleNPC_Villain_Ghost_200",
        "FemaleNPC_Villain_Ghost_201",
        "FemaleNPC_Villain_Ghost_220",
        "FemaleNPC_Villain_Ghost_221",
        "FemaleNPC_Villain_Ghost_222"
      ]
    },
    {
      "level": 51,
      "experience": 0,
      "display_names": [
        "Spirit"
      ],
      "costumes": [
        "FemaleNPC_Villain_Ghost_01",
        "FemaleNPC_Villain_Ghost_02",
        "FemaleNPC_Villain_Ghost_03",
        "FemaleNPC_Villain_Ghost_04",
        "FemaleNPC_Villain_Ghost_05",
        "FemaleNPC_Villain_Ghost_51",
        "FemaleNPC_Villain_Ghost_52",
        "FemaleNPC_Villain_Ghost_53",
        "FemaleNPC_Villain_Ghost_54",
        "FemaleNPC_Villain_Ghost_55",
        "FemaleNPC_Villain_Ghost_110",
        "FemaleNPC_Villain_Ghost_111",
        "FemaleNPC_Villain_Ghost_112",
        "FemaleNPC_Villain_Ghost_113",
        "FemaleNPC_Villain_Ghost_114",
        "FemaleNPC_Villain_Ghost_115",
        "FemaleNPC_Villain_Ghost_200",
        "FemaleNPC_Villain_Ghost_201",
        "FemaleNPC_Villain_Ghost_220",
        "FemaleNPC_Villain_Ghost_221",
        "FemaleNPC_Villain_Ghost_222"
      ]
    },
    {
      "level": 52,
      "experience": 0,
      "display_names": [
        "Spirit"
      ],
      "costumes": [
        "FemaleNPC_Villain_Ghost_01",
        "FemaleNPC_Villain_Ghost_02",
        "FemaleNPC_Villain_Ghost_03",
        "FemaleNPC_Villain_Ghost_04",
        "FemaleNPC_Villain_Ghost_05",
        "FemaleNPC_Villain_Ghost_51",
        "FemaleNPC_Villain_Ghost_52",
        "FemaleNPC_Villain_Ghost_53",
        "FemaleNPC_Villain_Ghost_54",
        "FemaleNPC_Villain_Ghost_55",
        "FemaleNPC_Villain_Ghost_110",
        "FemaleNPC_Villain_Ghost_111",
        "FemaleNPC_Villain_Ghost_112",
        "FemaleNPC_Villain_Ghost_113",
        "FemaleNPC_Villain_Ghost_114",
        "FemaleNPC_Villain_Ghost_115",
        "FemaleNPC_Villain_Ghost_200",
        "FemaleNPC_Villain_Ghost_201",
        "FemaleNPC_Villain_Ghost_220",
        "FemaleNPC_Villain_Ghost_221",
        "FemaleNPC_Villain_Ghost_222"
      ]
    },
    {
      "level": 53,
      "experience": 0,
      "display_names": [
        "Spirit"
      ],
      "costumes": [
        "FemaleNPC_Villain_Ghost_01",
        "FemaleNPC_Villain_Ghost_02",
        "FemaleNPC_Villain_Ghost_03",
        "FemaleNPC_Villain_Ghost_04",
        "FemaleNPC_Villain_Ghost_05",
        "FemaleNPC_Villain_Ghost_51",
        "FemaleNPC_Villain_Ghost_52",
        "FemaleNPC_Villain_Ghost_53",
        "FemaleNPC_Villain_Ghost_54",
        "FemaleNPC_Villain_Ghost_55",
        "FemaleNPC_Villain_Ghost_110",
        "FemaleNPC_Villain_Ghost_111",
        "FemaleNPC_Villain_Ghost_112",
        "FemaleNPC_Villain_Ghost_113",
        "FemaleNPC_Villain_Ghost_114",
        "FemaleNPC_Villain_Ghost_115",
        "FemaleNPC_Villain_Ghost_200",
        "FemaleNPC_Villain_Ghost_201",
        "FemaleNPC_Villain_Ghost_220",
        "FemaleNPC_Villain_Ghost_221",
        "FemaleNPC_Villain_Ghost_222"
      ]
    },
    {
      "level": 54,
      "experience": 0,
      "display_names": [
        "Spirit"
      ],
      "costumes": [
        "FemaleNPC_Villain_Ghost_01",
        "FemaleNPC_Villain_Ghost_02",
        "FemaleNPC_Villain_Ghost_03",
        "FemaleNPC_Villain_Ghost_04",
        "FemaleNPC_Villain_Ghost_05",
        "FemaleNPC_Villain_Ghost_51",
        "FemaleNPC_Villain_Ghost_52",
        "FemaleNPC_Villain_Ghost_53",
        "FemaleNPC_Villain_Ghost_54",
        "FemaleNPC_Villain_Ghost_55",
        "FemaleNPC_Villain_Ghost_110",
        "FemaleNPC_Villain_Ghost_111",
        "FemaleNPC_Villain_Ghost_112",
        "FemaleNPC_Villain_Ghost_113",
        "FemaleNPC_Villain_Ghost_114",
        "FemaleNPC_Villain_Ghost_115",
        "FemaleNPC_Villain_Ghost_200",
        "FemaleNPC_Villain_Ghost_201",
        "FemaleNPC_Villain_Ghost_220",
        "FemaleNPC_Villain_Ghost_221",
        "FemaleNPC_Villain_Ghost_222"
      ]
    }
  ]
}