{
  "name": "GoldBrickers_Boss_Gold_Brick_High",
  "gender": "GENDER_MALE",
  "description": "The Goldbrickers are high-tech thieves who operate in and around Cap au Diable. They're led by a notorious crime lord known only as King Midas.",
  "group_description": null,
  "display_class_name": null,
  "character_class_name": "boss_grunt",
  "ai_config": "Default_Ranged",
  "commandable_pet": false,
  "power_tags": [
    "Humanoid",
    "HumanSkeleton"
  ],
  "additional_rewards": [

  ],
  "skill_hp_rewards": [

  ],
  "skill_status_rewards": [

  ],
  "ally": null,
  "gang": null,
  "reward_scale": 1.0,
  "game_exclusion": "None",
  "inactive_state_weapon": null,
  "ignores_combat_mods": false,
  "copy_creator_mods": false,
  "spawn_limit": -1,
  "spawn_limit_mission": -1,
  "ignore_av_to_eb_scaling": false,
  "can_zone": false,
  "custom_badge_stat": null,
  "badge_stat_flags": "DefaultBadgeStat",
  "rank": "VR_BOSS",
  "power_full_names": [
    "V_GoldBrickers.Flight.Fly",
    "V_GoldBrickers.Boss_Gold_Brick.Heavy_Sonic_Blast_Cannon",
    "V_GoldBrickers.Boss_Gold_Brick.Heavy_Sonic_Wave_Cannon",
    "V_GoldBrickers.Boss_Gold_Brick.Sonic_Punch",
    "V_GoldBrickers.Boss_Gold_Brick.Gold_Skin",
    "V_GoldBrickers.Boss_Gold_Brick_High.Sonic_Haymaker"
  ],
  "power_display_names": [
    "Fly",
    "Heavy Sonic Blast Cannon",
    "Heavy Sonic Wave Cannon",
    "Sonic Punch",
    "Gold Skin",
    "Sonic Haymaker"
  ],
  "power_levels": [
    0,
    0,
    0,
    0,
    0,
    0
  ],
  "powers": [
    {
      "power_category": "V_GoldBrickers",
      "power_set": "Flight",
      "power": "*",
      "level": 0
    },
    {
      "power_category": "V_GoldBrickers",
      "power_set": "Boss_Gold_Brick",
      "power": "*",
      "level": 0
    },
    {
      "power_category": "V_GoldBrickers",
      "power_set": "Boss_Gold_Brick_High",
      "power": "*",
      "level": 0
    }
  ],
  "levels": [
    {
      "level": 15,
      "experience": 0,
      "display_names": [
        "Boomer"
      ],
      "costumes": [
        "Goldbrickers_Boss"
      ]
    },
    {
      "level": 16,
      "experience": 0,
      "display_names": [
        "Boomer"
      ],
      "costumes": [
        "Goldbrickers_Boss"
      ]
    },
    {
      "level": 17,
      "experience": 0,
      "display_names": [
        "Boomer"
      ],
      "costumes": [
        "Goldbrickers_Boss"
      ]
    },
    {
      "level": 18,
      "experience": 0,
      "display_names": [
        "Boomer"
      ],
      "costumes": [
        "Goldbrickers_Boss"
      ]
    },
    {
      "level": 19,
      "experience": 0,
      "display_names": [
        "Boomer"
      ],
      "costumes": [
        "Goldbrickers_Boss"
      ]
    },
    {
      "level": 20,
      "experience": 0,
      "display_names": [
        "Boomer"
      ],
      "costumes": [
        "Goldbrickers_Boss"
      ]
    }
  ]
}