{
  "name": "GoodTurrets_ChainGun_Turret",
  "gender": "GENDER_MALE",
  "description": "The Crey security catalog entry reads: 'Our basic model of chain-gun turret provides constant volumes of fire, capable of dissuading most intruders.'",
  "group_description": "Turrets",
  "display_class_name": null,
  "character_class_name": "minion_turret",
  "ai_config": "Turrets_Base",
  "commandable_pet": false,
  "power_tags": [
    "Electronic"
  ],
  "additional_rewards": [

  ],
  "skill_hp_rewards": [

  ],
  "skill_status_rewards": [

  ],
  "ally": "Hero",
  "gang": null,
  "reward_scale": 1.0,
  "game_exclusion": "None",
  "inactive_state_weapon": null,
  "ignores_combat_mods": false,
  "copy_creator_mods": false,
  "spawn_limit": -1,
  "spawn_limit_mission": -1,
  "ignore_av_to_eb_scaling": false,
  "can_zone": false,
  "custom_badge_stat": null,
  "badge_stat_flags": "DefaultBadgeStat",
  "rank": "VR_MINION",
  "power_full_names": [
    "Turrets.Turret_Inherent.Resistance",
    "Turrets.Gun_Turret.Chain_Gun",
    "Turrets.Gun_Turret.Explode"
  ],
  "power_display_names": [
    "Resistance",
    "Chain Gun",
    "Explode"
  ],
  "power_levels": [
    0,
    0,
    0
  ],
  "powers": [
    {
      "power_category": "Turrets",
      "power_set": "Turret_Inherent",
      "power": "*",
      "level": 0
    },
    {
      "power_category": "Turrets",
      "power_set": "Gun_Turret",
      "power": "*",
      "level": 0
    }
  ],
  "levels": [
    {
      "level": 1,
      "experience": 0,
      "display_names": [
        "Chain Gun Turret"
      ],
      "costumes": [
        "Pet_Turret"
      ]
    },
    {
      "level": 2,
      "experience": 0,
      "display_names": [
        "Chain Gun Turret"
      ],
      "costumes": [
        "Pet_Turret"
      ]
    },
    {
      "level": 3,
      "experience": 0,
      "display_names": [
        "Chain Gun Turret"
      ],
      "costumes": [
        "Pet_Turret"
      ]
    },
    {
      "level": 4,
      "experience": 0,
      "display_names": [
        "Chain Gun Turret"
      ],
      "costumes": [
        "Pet_Turret"
      ]
    },
    {
      "level": 5,
      "experience": 0,
      "display_names": [
        "Chain Gun Turret"
      ],
      "costumes": [
        "Pet_Turret"
      ]
    },
    {
      "level": 6,
      "experience": 0,
      "display_names": [
        "Chain Gun Turret"
      ],
      "costumes": [
        "Pet_Turret"
      ]
    },
    {
      "level": 7,
      "experience": 0,
      "display_names": [
        "Chain Gun Turret"
      ],
      "costumes": [
        "Pet_Turret"
      ]
    },
    {
      "level": 8,
      "experience": 0,
      "display_names": [
        "Chain Gun Turret"
      ],
      "costumes": [
        "Pet_Turret"
      ]
    },
    {
      "level": 9,
      "experience": 0,
      "display_names": [
        "Chain Gun Turret"
      ],
      "costumes": [
        "Pet_Turret"
      ]
    },
    {
      "level": 10,
      "experience": 0,
      "display_names": [
        "Chain Gun Turret"
      ],
      "costumes": [
        "Pet_Turret"
      ]
    },
    {
      "level": 11,
      "experience": 0,
      "display_names": [
        "Chain Gun Turret"
      ],
      "costumes": [
        "Pet_Turret"
      ]
    },
    {
      "level": 12,
      "experience": 0,
      "display_names": [
        "Chain Gun Turret"
      ],
      "costumes": [
        "Pet_Turret"
      ]
    },
    {
      "level": 13,
      "experience": 0,
      "display_names": [
        "Chain Gun Turret"
      ],
      "costumes": [
        "Pet_Turret"
      ]
    },
    {
      "level": 14,
      "experience": 0,
      "display_names": [
        "Chain Gun Turret"
      ],
      "costumes": [
        "Pet_Turret"
      ]
    },
    {
      "level": 15,
      "experience": 0,
      "display_names": [
        "Chain Gun Turret"
      ],
      "costumes": [
        "Pet_Turret"
      ]
    },
    {
      "level": 16,
      "experience": 0,
      "display_names": [
        "Chain Gun Turret"
      ],
      "costumes": [
        "Pet_Turret"
      ]
    },
    {
      "level": 17,
      "experience": 0,
      "display_names": [
        "Chain Gun Turret"
      ],
      "costumes": [
        "Pet_Turret"
      ]
    },
    {
      "level": 18,
      "experience": 0,
      "display_names": [
        "Chain Gun Turret"
      ],
      "costumes": [
        "Pet_Turret"
      ]
    },
    {
      "level": 19,
      "experience": 0,
      "display_names": [
        "Chain Gun Turret"
      ],
      "costumes": [
        "Pet_Turret"
      ]
    },
    {
      "level": 20,
      "experience": 0,
      "display_names": [
        "Chain Gun Turret"
      ],
      "costumes": [
        "Pet_Turret"
      ]
    },
    {
      "level": 21,
      "experience": 0,
      "display_names": [
        "Chain Gun Turret"
      ],
      "costumes": [
        "Pet_Turret"
      ]
    },
    {
      "level": 22,
      "experience": 0,
      "display_names": [
        "Chain Gun Turret"
      ],
      "costumes": [
        "Pet_Turret"
      ]
    },
    {
      "level": 23,
      "experience": 0,
      "display_names": [
        "Chain Gun Turret"
      ],
      "costumes": [
        "Pet_Turret"
      ]
    },
    {
      "level": 24,
      "experience": 0,
      "display_names": [
        "Chain Gun Turret"
      ],
      "costumes": [
        "Pet_Turret"
      ]
    },
    {
      "level": 25,
      "experience": 0,
      "display_names": [
        "Chain Gun Turret"
      ],
      "costumes": [
        "Pet_Turret"
      ]
    },
    {
      "level": 26,
      "experience": 0,
      "display_names": [
        "Chain Gun Turret"
      ],
      "costumes": [
        "Pet_Turret"
      ]
    },
    {
      "level": 27,
      "experience": 0,
      "display_names": [
        "Chain Gun Turret"
      ],
      "costumes": [
        "Pet_Turret"
      ]
    },
    {
      "level": 28,
      "experience": 0,
      "display_names": [
        "Chain Gun Turret"
      ],
      "costumes": [
        "Pet_Turret"
      ]
    },
    {
      "level": 29,
      "experience": 0,
      "display_names": [
        "Chain Gun Turret"
      ],
      "costumes": [
        "Pet_Turret"
      ]
    },
    {
      "level": 30,
      "experience": 0,
      "display_names": [
        "Chain Gun Turret"
      ],
      "costumes": [
        "Pet_Turret"
      ]
    },
    {
      "level": 31,
      "experience": 0,
      "display_names": [
        "Chain Gun Turret"
      ],
      "costumes": [
        "Pet_Turret"
      ]
    },
    {
      "level": 32,
      "experience": 0,
      "display_names": [
        "Chain Gun Turret"
      ],
      "costumes": [
        "Pet_Turret"
      ]
    },
    {
      "level": 33,
      "experience": 0,
      "display_names": [
        "Chain Gun Turret"
      ],
      "costumes": [
        "Pet_Turret"
      ]
    },
    {
      "level": 34,
      "experience": 0,
      "display_names": [
        "Chain Gun Turret"
      ],
      "costumes": [
        "Pet_Turret"
      ]
    },
    {
      "level": 35,
      "experience": 0,
      "display_names": [
        "Chain Gun Turret"
      ],
      "costumes": [
        "Pet_Turret"
      ]
    },
    {
      "level": 36,
      "experience": 0,
      "display_names": [
        "Chain Gun Turret"
      ],
      "costumes": [
        "Pet_Turret"
      ]
    },
    {
      "level": 37,
      "experience": 0,
      "display_names": [
        "Chain Gun Turret"
      ],
      "costumes": [
        "Pet_Turret"
      ]
    },
    {
      "level": 38,
      "experience": 0,
      "display_names": [
        "Chain Gun Turret"
      ],
      "costumes": [
        "Pet_Turret"
      ]
    },
    {
      "level": 39,
      "experience": 0,
      "display_names": [
        "Chain Gun Turret"
      ],
      "costumes": [
        "Pet_Turret"
      ]
    },
    {
      "level": 40,
      "experience": 0,
      "display_names": [
        "Chain Gun Turret"
      ],
      "costumes": [
        "Pet_Turret"
      ]
    },
    {
      "level": 41,
      "experience": 0,
      "display_names": [
        "Chain Gun Turret"
      ],
      "costumes": [
        "Pet_Turret"
      ]
    },
    {
      "level": 42,
      "experience": 0,
      "display_names": [
        "Chain Gun Turret"
      ],
      "costumes": [
        "Pet_Turret"
      ]
    },
    {
      "level": 43,
      "experience": 0,
      "display_names": [
        "Chain Gun Turret"
      ],
      "costumes": [
        "Pet_Turret"
      ]
    },
    {
      "level": 44,
      "experience": 0,
      "display_names": [
        "Chain Gun Turret"
      ],
      "costumes": [
        "Pet_Turret"
      ]
    },
    {
      "level": 45,
      "experience": 0,
      "display_names": [
        "Chain Gun Turret"
      ],
      "costumes": [
        "Pet_Turret"
      ]
    },
    {
      "level": 46,
      "experience": 0,
      "display_names": [
        "Chain Gun Turret"
      ],
      "costumes": [
        "Pet_Turret"
      ]
    },
    {
      "level": 47,
      "experience": 0,
      "display_names": [
        "Chain Gun Turret"
      ],
      "costumes": [
        "Pet_Turret"
      ]
    },
    {
      "level": 48,
      "experience": 0,
      "display_names": [
        "Chain Gun Turret"
      ],
      "costumes": [
        "Pet_Turret"
      ]
    },
    {
      "level": 49,
      "experience": 0,
      "display_names": [
        "Chain Gun Turret"
      ],
      "costumes": [
        "Pet_Turret"
      ]
    },
    {
      "level": 50,
      "experience": 0,
      "display_names": [
        "Chain Gun Turret"
      ],
      "costumes": [
        "Pet_Turret"
      ]
    },
    {
      "level": 51,
      "experience": 0,
      "display_names": [
        "Chain Gun Turret"
      ],
      "costumes": [
        "Pet_Turret"
      ]
    },
    {
      "level": 52,
      "experience": 0,
      "display_names": [
        "Chain Gun Turret"
      ],
      "costumes": [
        "Pet_Turret"
      ]
    },
    {
      "level": 53,
      "experience": 0,
      "display_names": [
        "Chain Gun Turret"
      ],
      "costumes": [
        "Pet_Turret"
      ]
    },
    {
      "level": 54,
      "experience": 0,
      "display_names": [
        "Chain Gun Turret"
      ],
      "costumes": [
        "Pet_Turret"
      ]
    }
  ]
}