{
  "name": "Hellions_Shotgun_Lieutenant_Trial",
  "gender": "GENDER_MALE",
  "description": "In the satanic worldview of the Hellions, falling is a good thing. The Fallen have proven their willingness to take on any power the gang's mystic artifacts can give them, no matter how twisted or base. The hellfire that burns within them protects them from fire but leaves them susceptible to cold.",
  "group_description": null,
  "display_class_name": null,
  "character_class_name": "lt_grunt",
  "ai_config": "Default_Ranged",
  "commandable_pet": false,
  "power_tags": [
    "HumanSkeleton",
    "Human"
  ],
  "additional_rewards": [

  ],
  "skill_hp_rewards": [

  ],
  "skill_status_rewards": [

  ],
  "ally": null,
  "gang": null,
  "reward_scale": 1.0,
  "game_exclusion": "None",
  "inactive_state_weapon": null,
  "ignores_combat_mods": false,
  "copy_creator_mods": false,
  "spawn_limit": 0,
  "spawn_limit_mission": 0,
  "ignore_av_to_eb_scaling": false,
  "can_zone": false,
  "custom_badge_stat": null,
  "badge_stat_flags": "DefaultBadgeStat",
  "rank": "VR_LIEUTENANT",
  "power_full_names": [
    "Hellions.Hellions_Lt_Shotgun.Shotgun",
    "Hellions.Hellions_Inherent_Defense.Resistance"
  ],
  "power_display_names": [
    "Shotgun",
    "Resistance"
  ],
  "power_levels": [
    0,
    0
  ],
  "powers": [
    {
      "power_category": "Hellions",
      "power_set": "Hellions_Lt_Shotgun",
      "power": "*",
      "level": 0
    },
    {
      "power_category": "Hellions",
      "power_set": "Hellions_Inherent_Defense",
      "power": "*",
      "level": 0
    }
  ],
  "levels": [
    {
      "level": 2,
      "experience": 0,
      "display_names": [
        "Fallen Buckshot"
      ],
      "costumes": [
        "Thug_Hellion_Boss_01",
        "Thug_Hellion_Boss_02",
        "Thug_Hellion_Boss_03"
      ]
    }
  ]
}