{
  "name": "Hellions_Arson_Bat_Thug",
  "gender": "GENDER_MALE",
  "description": "No one likes a nice, cheery blaze better than a Hellion. They like it so much, they've managed to set this entire section of the city on fire. It's up to Paragon City's heroes to rain on their parade.",
  "group_description": null,
  "display_class_name": null,
  "character_class_name": "minion_grunt",
  "ai_config": "Hellions_Melee",
  "commandable_pet": false,
  "power_tags": [
    "HumanSkeleton",
    "Human",
    "Arsonist"
  ],
  "additional_rewards": [

  ],
  "skill_hp_rewards": [

  ],
  "skill_status_rewards": [

  ],
  "ally": null,
  "gang": null,
  "reward_scale": 0.5,
  "game_exclusion": "None",
  "inactive_state_weapon": null,
  "ignores_combat_mods": false,
  "copy_creator_mods": false,
  "spawn_limit": 0,
  "spawn_limit_mission": 0,
  "ignore_av_to_eb_scaling": false,
  "can_zone": false,
  "custom_badge_stat": null,
  "badge_stat_flags": "DefaultBadgeStat",
  "rank": "VR_MINION",
  "power_full_names": [
    "Hellions.Hellions_Minion_Bat.Baseball_Bat",
    "Hellions.Hellions_Minion_Revolver.Revolver",
    "Hellions.Arson.Molotov_Cocktail",
    "Hellions.Arson.Kerosene",
    "Hellions.Hellions_Inherent_Defense.Resistance"
  ],
  "power_display_names": [
    "Baseball Bat",
    "Revolver",
    "Molotov Cocktail",
    "Kerosene",
    "Resistance"
  ],
  "power_levels": [
    0,
    0,
    0,
    0,
    0
  ],
  "powers": [
    {
      "power_category": "Hellions",
      "power_set": "Hellions_Minion_Bat",
      "power": "*",
      "level": 0
    },
    {
      "power_category": "Hellions",
      "power_set": "Hellions_Minion_Revolver",
      "power": "*",
      "level": 0
    },
    {
      "power_category": "Hellions",
      "power_set": "Arson",
      "power": "*",
      "level": 0
    },
    {
      "power_category": "Hellions",
      "power_set": "Hellions_Inherent_Defense",
      "power": "*",
      "level": 0
    }
  ],
  "levels": [
    {
      "level": 10,
      "experience": 0,
      "display_names": [
        "Blood Brother Slugger"
      ],
      "costumes": [
        "Thug_Hellion_01",
        "Thug_Hellion_02",
        "Thug_Hellion_03",
        "Thug_Hellion_04",
        "Thug_Hellion_05",
        "Thug_Hellion_06"
      ]
    },
    {
      "level": 11,
      "experience": 0,
      "display_names": [
        "Blood Brother Slugger"
      ],
      "costumes": [
        "Thug_Hellion_01",
        "Thug_Hellion_02",
        "Thug_Hellion_03",
        "Thug_Hellion_04",
        "Thug_Hellion_05",
        "Thug_Hellion_06"
      ]
    },
    {
      "level": 12,
      "experience": 0,
      "display_names": [
        "Blood Brother Slugger"
      ],
      "costumes": [
        "Thug_Hellion_01",
        "Thug_Hellion_02",
        "Thug_Hellion_03",
        "Thug_Hellion_04",
        "Thug_Hellion_05",
        "Thug_Hellion_06"
      ]
    },
    {
      "level": 13,
      "experience": 0,
      "display_names": [
        "Blood Brother Slugger"
      ],
      "costumes": [
        "Thug_Hellion_01",
        "Thug_Hellion_02",
        "Thug_Hellion_03",
        "Thug_Hellion_04",
        "Thug_Hellion_05",
        "Thug_Hellion_06"
      ]
    },
    {
      "level": 14,
      "experience": 0,
      "display_names": [
        "Blood Brother Slugger"
      ],
      "costumes": [
        "Thug_Hellion_01",
        "Thug_Hellion_02",
        "Thug_Hellion_03",
        "Thug_Hellion_04",
        "Thug_Hellion_05",
        "Thug_Hellion_06"
      ]
    },
    {
      "level": 15,
      "experience": 0,
      "display_names": [
        "Blood Brother Slugger"
      ],
      "costumes": [
        "Thug_Hellion_01",
        "Thug_Hellion_02",
        "Thug_Hellion_03",
        "Thug_Hellion_04",
        "Thug_Hellion_05",
        "Thug_Hellion_06"
      ]
    },
    {
      "level": 16,
      "experience": 0,
      "display_names": [
        "Blood Brother Slugger"
      ],
      "costumes": [
        "Thug_Hellion_01",
        "Thug_Hellion_02",
        "Thug_Hellion_03",
        "Thug_Hellion_04",
        "Thug_Hellion_05",
        "Thug_Hellion_06"
      ]
    },
    {
      "level": 17,
      "experience": 0,
      "display_names": [
        "Blood Brother Slugger"
      ],
      "costumes": [
        "Thug_Hellion_01",
        "Thug_Hellion_02",
        "Thug_Hellion_03",
        "Thug_Hellion_04",
        "Thug_Hellion_05",
        "Thug_Hellion_06"
      ]
    },
    {
      "level": 18,
      "experience": 0,
      "display_names": [
        "Blood Brother Slugger"
      ],
      "costumes": [
        "Thug_Hellion_01",
        "Thug_Hellion_02",
        "Thug_Hellion_03",
        "Thug_Hellion_04",
        "Thug_Hellion_05",
        "Thug_Hellion_06"
      ]
    },
    {
      "level": 19,
      "experience": 0,
      "display_names": [
        "Blood Brother Slugger"
      ],
      "costumes": [
        "Thug_Hellion_01",
        "Thug_Hellion_02",
        "Thug_Hellion_03",
        "Thug_Hellion_04",
        "Thug_Hellion_05",
        "Thug_Hellion_06"
      ]
    },
    {
      "level": 20,
      "experience": 0,
      "display_names": [
        "Blood Brother Slugger"
      ],
      "costumes": [
        "Thug_Hellion_01",
        "Thug_Hellion_02",
        "Thug_Hellion_03",
        "Thug_Hellion_04",
        "Thug_Hellion_05",
        "Thug_Hellion_06"
      ]
    }
  ]
}