{
  "name": "Hellions_Arson_Explosion",
  "gender": "GENDER_MALE",
  "description": "This building is going to explode!",
  "group_description": null,
  "display_class_name": "Object",
  "character_class_name": "minion_grunt",
  "ai_config": "Default_Stationary",
  "commandable_pet": false,
  "power_tags": [

  ],
  "additional_rewards": [

  ],
  "skill_hp_rewards": [

  ],
  "skill_status_rewards": [

  ],
  "ally": null,
  "gang": null,
  "reward_scale": 1.0,
  "game_exclusion": "None",
  "inactive_state_weapon": null,
  "ignores_combat_mods": true,
  "copy_creator_mods": false,
  "spawn_limit": 0,
  "spawn_limit_mission": 0,
  "ignore_av_to_eb_scaling": false,
  "can_zone": false,
  "custom_badge_stat": null,
  "badge_stat_flags": "DefaultBadgeStat",
  "rank": "VR_PET",
  "power_full_names": [
    "Pets.ResistAll.ResistAll",
    "Hellions.Building_Explosion.Immobilize",
    "Hellions.Building_Explosion.Backdraft"
  ],
  "power_display_names": [
    "ResistAll",
    "Immobilize",
    "Backdraft"
  ],
  "power_levels": [
    0,
    0,
    0
  ],
  "powers": [
    {
      "power_category": "Pets",
      "power_set": "ResistAll",
      "power": "*",
      "level": 0
    },
    {
      "power_category": "Hellions",
      "power_set": "Building_Explosion",
      "power": "*",
      "level": 0
    }
  ],
  "levels": [
    {
      "level": 10,
      "experience": 0,
      "display_names": [
        "Backdraft"
      ],
      "costumes": [
        "Puddle"
      ]
    },
    {
      "level": 11,
      "experience": 0,
      "display_names": [
        "Backdraft"
      ],
      "costumes": [
        "Puddle"
      ]
    },
    {
      "level": 12,
      "experience": 0,
      "display_names": [
        "Backdraft"
      ],
      "costumes": [
        "Puddle"
      ]
    },
    {
      "level": 13,
      "experience": 0,
      "display_names": [
        "Backdraft"
      ],
      "costumes": [
        "Puddle"
      ]
    },
    {
      "level": 14,
      "experience": 0,
      "display_names": [
        "Backdraft"
      ],
      "costumes": [
        "Puddle"
      ]
    },
    {
      "level": 15,
      "experience": 0,
      "display_names": [
        "Backdraft"
      ],
      "costumes": [
        "Puddle"
      ]
    },
    {
      "level": 16,
      "experience": 0,
      "display_names": [
        "Backdraft"
      ],
      "costumes": [
        "Puddle"
      ]
    },
    {
      "level": 17,
      "experience": 0,
      "display_names": [
        "Backdraft"
      ],
      "costumes": [
        "Puddle"
      ]
    },
    {
      "level": 18,
      "experience": 0,
      "display_names": [
        "Backdraft"
      ],
      "costumes": [
        "Puddle"
      ]
    },
    {
      "level": 19,
      "experience": 0,
      "display_names": [
        "Backdraft"
      ],
      "costumes": [
        "Puddle"
      ]
    },
    {
      "level": 20,
      "experience": 0,
      "display_names": [
        "Backdraft"
      ],
      "costumes": [
        "Puddle"
      ]
    }
  ]
}