{
  "name": "Hydra_Head_Low",
  "gender": "GENDER_MALE",
  "description": "The alien Rikti created the Hydra to guard their secret bases beneath the city. It seems programmed to attack anything that isn't Rikti. Heroes must stop this creature from growing any larger and threatening the city as a whole.",
  "group_description": null,
  "display_class_name": null,
  "character_class_name": "boss_archvillain",
  "ai_config": "Hydra_Head",
  "commandable_pet": false,
  "power_tags": [
    "Raid"
  ],
  "additional_rewards": [

  ],
  "skill_hp_rewards": [

  ],
  "skill_status_rewards": [

  ],
  "ally": null,
  "gang": null,
  "reward_scale": 1.0,
  "game_exclusion": "None",
  "inactive_state_weapon": null,
  "ignores_combat_mods": false,
  "copy_creator_mods": false,
  "spawn_limit": -1,
  "spawn_limit_mission": -1,
  "ignore_av_to_eb_scaling": true,
  "can_zone": false,
  "custom_badge_stat": null,
  "badge_stat_flags": "DefaultBadgeStat",
  "rank": "VR_ARCHVILLAIN",
  "power_full_names": [
    "V_Vindicators.Vindicator_Resistances.Resistance",
    "HydraSewerTrial.HydraPowers.GeiserPower",
    "HydraSewerTrial.HydraPowers.GasPower",
    "HydraSewerTrial.HydraPowers.BoilPower"
  ],
  "power_display_names": [
    "Resistance",
    "GeiserPower",
    "GasPower",
    "BoilPower"
  ],
  "power_levels": [
    0,
    0,
    0,
    0
  ],
  "powers": [
    {
      "power_category": "V_Vindicators",
      "power_set": "Vindicator_Resistances",
      "power": "*",
      "level": 0
    },
    {
      "power_category": "HydraSewerTrial",
      "power_set": "HydraPowers",
      "power": "*",
      "level": 0
    }
  ],
  "levels": [
    {
      "level": 6,
      "experience": 0,
      "display_names": [
        "Hydra"
      ],
      "costumes": [
        "Hydra_Head_Low"
      ]
    }
  ]
}