{
  "name": "Hydra_Faultline_Melee_Tentacle_Lt",
  "gender": "GENDER_MALE",
  "description": "For years, rumors have persisted about a giant monster living in the depths of the sewers. This strange tentacle stretches down into the mulch. Who knows what it's connected to?",
  "group_description": null,
  "display_class_name": null,
  "character_class_name": "lt_grunt",
  "ai_config": "Default_Melee",
  "commandable_pet": false,
  "power_tags": [

  ],
  "additional_rewards": [

  ],
  "skill_hp_rewards": [

  ],
  "skill_status_rewards": [

  ],
  "ally": null,
  "gang": null,
  "reward_scale": 1.0,
  "game_exclusion": "None",
  "inactive_state_weapon": null,
  "ignores_combat_mods": false,
  "copy_creator_mods": false,
  "spawn_limit": -1,
  "spawn_limit_mission": -1,
  "ignore_av_to_eb_scaling": false,
  "can_zone": false,
  "custom_badge_stat": null,
  "badge_stat_flags": "DefaultBadgeStat",
  "rank": "VR_LIEUTENANT",
  "power_full_names": [
    "Hydra.Hydra_Tentacle_Melee.Tentacle_Smash",
    "Hydra.Hydra_Tentacle_Defense.Resistance"
  ],
  "power_display_names": [
    "Tentacle Smash",
    "Resistance"
  ],
  "power_levels": [
    0,
    0
  ],
  "powers": [
    {
      "power_category": "Hydra",
      "power_set": "Hydra_Tentacle_Melee",
      "power": "*",
      "level": 0
    },
    {
      "power_category": "Hydra",
      "power_set": "Hydra_Tentacle_Defense",
      "power": "*",
      "level": 0
    }
  ],
  "levels": [
    {
      "level": 20,
      "experience": 0,
      "display_names": [
        "Tentacle"
      ],
      "costumes": [
        "Hydra_Range_Small"
      ]
    },
    {
      "level": 21,
      "experience": 0,
      "display_names": [
        "Tentacle"
      ],
      "costumes": [
        "Hydra_Range_Small"
      ]
    },
    {
      "level": 22,
      "experience": 0,
      "display_names": [
        "Tentacle"
      ],
      "costumes": [
        "Hydra_Range_Small"
      ]
    },
    {
      "level": 23,
      "experience": 0,
      "display_names": [
        "Tentacle"
      ],
      "costumes": [
        "Hydra_Range_Small"
      ]
    },
    {
      "level": 24,
      "experience": 0,
      "display_names": [
        "Tentacle"
      ],
      "costumes": [
        "Hydra_Range_Small"
      ]
    },
    {
      "level": 25,
      "experience": 0,
      "display_names": [
        "Tentacle"
      ],
      "costumes": [
        "Hydra_Range_Small"
      ]
    }
  ]
}