{
  "name": "Igneous_Pumicite_Monster",
  "gender": "GENDER_MALE",
  "description": "This massive Pumicite guards the way to Sam Wincott.",
  "group_description": null,
  "display_class_name": "Monster",
  "character_class_name": "boss_archvillain",
  "ai_config": "DevouringEarth_Boss",
  "commandable_pet": false,
  "power_tags": [
    "Raid"
  ],
  "additional_rewards": [

  ],
  "skill_hp_rewards": [

  ],
  "skill_status_rewards": [

  ],
  "ally": null,
  "gang": null,
  "reward_scale": 1.0,
  "game_exclusion": "None",
  "inactive_state_weapon": null,
  "ignores_combat_mods": false,
  "copy_creator_mods": false,
  "spawn_limit": 0,
  "spawn_limit_mission": 0,
  "ignore_av_to_eb_scaling": true,
  "can_zone": false,
  "custom_badge_stat": null,
  "badge_stat_flags": "DefaultBadgeStat",
  "rank": "VR_ARCHVILLAIN",
  "power_full_names": [
    "Igneous.Pumicite_Monster.Resistance",
    "Igneous.Pumicite_Monster.Poison_Gas",
    "Igneous.Pumicite_Monster.Stone_Claw",
    "Igneous.Pumicite_Monster.Hurl_Boulder",
    "Igneous.Pumicite_Monster.Gravel",
    "Igneous.Pumicite_Monster.Fault"
  ],
  "power_display_names": [
    "Resistance",
    "Poison Gas",
    "Stone Claw",
    "Hurl Boulder",
    "Gravel",
    "Fault"
  ],
  "power_levels": [
    0,
    0,
    0,
    0,
    0,
    0
  ],
  "powers": [
    {
      "power_category": "Igneous",
      "power_set": "Pumicite_Monster",
      "power": "*",
      "level": 0
    }
  ],
  "levels": [
    {
      "level": 5,
      "experience": 0,
      "display_names": [
        "Koago"
      ],
      "costumes": [
        "Magmite_Pumicite_Giant"
      ]
    },
    {
      "level": 6,
      "experience": 0,
      "display_names": [
        "Koago"
      ],
      "costumes": [
        "Magmite_Pumicite_Giant"
      ]
    },
    {
      "level": 7,
      "experience": 0,
      "display_names": [
        "Koago"
      ],
      "costumes": [
        "Magmite_Pumicite_Giant"
      ]
    },
    {
      "level": 8,
      "experience": 0,
      "display_names": [
        "Koago"
      ],
      "costumes": [
        "Magmite_Pumicite_Giant"
      ]
    },
    {
      "level": 9,
      "experience": 0,
      "display_names": [
        "Koago"
      ],
      "costumes": [
        "Magmite_Pumicite_Giant"
      ]
    },
    {
      "level": 10,
      "experience": 0,
      "display_names": [
        "Koago"
      ],
      "costumes": [
        "Magmite_Pumicite_Giant"
      ]
    },
    {
      "level": 11,
      "experience": 0,
      "display_names": [
        "Koago"
      ],
      "costumes": [
        "Magmite_Pumicite_Giant"
      ]
    },
    {
      "level": 12,
      "experience": 0,
      "display_names": [
        "Koago"
      ],
      "costumes": [
        "Magmite_Pumicite_Giant"
      ]
    },
    {
      "level": 13,
      "experience": 0,
      "display_names": [
        "Koago"
      ],
      "costumes": [
        "Magmite_Pumicite_Giant"
      ]
    },
    {
      "level": 14,
      "experience": 0,
      "display_names": [
        "Koago"
      ],
      "costumes": [
        "Magmite_Pumicite_Giant"
      ]
    },
    {
      "level": 15,
      "experience": 0,
      "display_names": [
        "Koago"
      ],
      "costumes": [
        "Magmite_Pumicite_Giant"
      ]
    },
    {
      "level": 16,
      "experience": 0,
      "display_names": [
        "Koago"
      ],
      "costumes": [
        "Magmite_Pumicite_Giant"
      ]
    },
    {
      "level": 17,
      "experience": 0,
      "display_names": [
        "Koago"
      ],
      "costumes": [
        "Magmite_Pumicite_Giant"
      ]
    },
    {
      "level": 18,
      "experience": 0,
      "display_names": [
        "Koago"
      ],
      "costumes": [
        "Magmite_Pumicite_Giant"
      ]
    },
    {
      "level": 19,
      "experience": 0,
      "display_names": [
        "Koago"
      ],
      "costumes": [
        "Magmite_Pumicite_Giant"
      ]
    },
    {
      "level": 20,
      "experience": 0,
      "display_names": [
        "Koago"
      ],
      "costumes": [
        "Magmite_Pumicite_Giant"
      ]
    },
    {
      "level": 21,
      "experience": 0,
      "display_names": [
        "Koago"
      ],
      "costumes": [
        "Magmite_Pumicite_Giant"
      ]
    },
    {
      "level": 22,
      "experience": 0,
      "display_names": [
        "Koago"
      ],
      "costumes": [
        "Magmite_Pumicite_Giant"
      ]
    },
    {
      "level": 23,
      "experience": 0,
      "display_names": [
        "Koago"
      ],
      "costumes": [
        "Magmite_Pumicite_Giant"
      ]
    },
    {
      "level": 24,
      "experience": 0,
      "display_names": [
        "Koago"
      ],
      "costumes": [
        "Magmite_Pumicite_Giant"
      ]
    }
  ]
}