{
  "name": "LegacyChain_Steel_Minion",
  "gender": "GENDER_MALE",
  "description": "The Legacy Chain works to ensure the mystic arts are used only for good. At the foundation of the Chain is the Legacy of the Sword. They are the strong arm of the group and protect the mystics of the other Legacies with their lives. They never retreat and willingly give their lives for their sacred cause.",
  "group_description": null,
  "display_class_name": null,
  "character_class_name": "minion_grunt",
  "ai_config": "Default_Melee",
  "commandable_pet": false,
  "power_tags": [
    "HumanSkeleton"
  ],
  "additional_rewards": [

  ],
  "skill_hp_rewards": [

  ],
  "skill_status_rewards": [

  ],
  "ally": "Hero",
  "gang": null,
  "reward_scale": 1.0,
  "game_exclusion": "None",
  "inactive_state_weapon": null,
  "ignores_combat_mods": false,
  "copy_creator_mods": false,
  "spawn_limit": -1,
  "spawn_limit_mission": -1,
  "ignore_av_to_eb_scaling": false,
  "can_zone": false,
  "custom_badge_stat": null,
  "badge_stat_flags": "DefaultBadgeStat",
  "rank": "VR_MINION",
  "power_full_names": [
    "V_LegacyChain.Minion_Steel.Slash",
    "V_LegacyChain.Minion_Steel.Throwing_Dagger"
  ],
  "power_display_names": [
    "Slash",
    "Throwing Dagger"
  ],
  "power_levels": [
    0,
    0
  ],
  "powers": [
    {
      "power_category": "V_LegacyChain",
      "power_set": "Minion_Steel",
      "power": "*",
      "level": 0
    }
  ],
  "levels": [
    {
      "level": 5,
      "experience": 0,
      "display_names": [
        "Pledged of Steel"
      ],
      "costumes": [
        "Legacy_of_Steel_Minion_01",
        "Legacy_of_Steel_Minion_02",
        "Legacy_of_Steel_Minion_03"
      ]
    },
    {
      "level": 6,
      "experience": 0,
      "display_names": [
        "Pledged of Steel"
      ],
      "costumes": [
        "Legacy_of_Steel_Minion_01",
        "Legacy_of_Steel_Minion_02",
        "Legacy_of_Steel_Minion_03"
      ]
    },
    {
      "level": 7,
      "experience": 0,
      "display_names": [
        "Pledged of Steel"
      ],
      "costumes": [
        "Legacy_of_Steel_Minion_01",
        "Legacy_of_Steel_Minion_02",
        "Legacy_of_Steel_Minion_03"
      ]
    },
    {
      "level": 8,
      "experience": 0,
      "display_names": [
        "Pledged of Steel"
      ],
      "costumes": [
        "Legacy_of_Steel_Minion_01",
        "Legacy_of_Steel_Minion_02",
        "Legacy_of_Steel_Minion_03"
      ]
    },
    {
      "level": 9,
      "experience": 0,
      "display_names": [
        "Pledged of Steel"
      ],
      "costumes": [
        "Legacy_of_Steel_Minion_01",
        "Legacy_of_Steel_Minion_02",
        "Legacy_of_Steel_Minion_03"
      ]
    },
    {
      "level": 10,
      "experience": 0,
      "display_names": [
        "Pledged of Steel"
      ],
      "costumes": [
        "Legacy_of_Steel_Minion_01",
        "Legacy_of_Steel_Minion_02",
        "Legacy_of_Steel_Minion_03"
      ]
    },
    {
      "level": 11,
      "experience": 0,
      "display_names": [
        "Pledged of Steel"
      ],
      "costumes": [
        "Legacy_of_Steel_Minion_01",
        "Legacy_of_Steel_Minion_02",
        "Legacy_of_Steel_Minion_03"
      ]
    },
    {
      "level": 12,
      "experience": 0,
      "display_names": [
        "Pledged of Steel"
      ],
      "costumes": [
        "Legacy_of_Steel_Minion_01",
        "Legacy_of_Steel_Minion_02",
        "Legacy_of_Steel_Minion_03"
      ]
    },
    {
      "level": 13,
      "experience": 0,
      "display_names": [
        "Pledged of Steel"
      ],
      "costumes": [
        "Legacy_of_Steel_Minion_01",
        "Legacy_of_Steel_Minion_02",
        "Legacy_of_Steel_Minion_03"
      ]
    },
    {
      "level": 14,
      "experience": 0,
      "display_names": [
        "Pledged of Steel"
      ],
      "costumes": [
        "Legacy_of_Steel_Minion_01",
        "Legacy_of_Steel_Minion_02",
        "Legacy_of_Steel_Minion_03"
      ]
    },
    {
      "level": 15,
      "experience": 0,
      "display_names": [
        "Pledged of Steel"
      ],
      "costumes": [
        "Legacy_of_Steel_Minion_01",
        "Legacy_of_Steel_Minion_02",
        "Legacy_of_Steel_Minion_03"
      ]
    }
  ]
}