{
  "name": "LegacyChain_Flame_Minion",
  "gender": "GENDER_MALE",
  "description": "The Legacy Chain works to ensure the mystic arts are used only for good. The Legacy of Flame has learned to harness their magic into fiery blasts.",
  "group_description": null,
  "display_class_name": null,
  "character_class_name": "minion_grunt",
  "ai_config": "Default_Melee",
  "commandable_pet": false,
  "power_tags": [
    "HumanSkeleton"
  ],
  "additional_rewards": [

  ],
  "skill_hp_rewards": [

  ],
  "skill_status_rewards": [

  ],
  "ally": "Hero",
  "gang": null,
  "reward_scale": 1.0,
  "game_exclusion": "None",
  "inactive_state_weapon": null,
  "ignores_combat_mods": false,
  "copy_creator_mods": false,
  "spawn_limit": -1,
  "spawn_limit_mission": -1,
  "ignore_av_to_eb_scaling": false,
  "can_zone": false,
  "custom_badge_stat": null,
  "badge_stat_flags": "DefaultBadgeStat",
  "rank": "VR_MINION",
  "power_full_names": [
    "V_LegacyChain.Minion_Fire_Low.Scorch",
    "V_LegacyChain.Minion_Fire_Low.Flares",
    "V_LegacyChain.Minion_Fire_Low.Resistance",
    "V_LegacyChain.Minion_Fire.Fire_Smash"
  ],
  "power_display_names": [
    "Scorch",
    "Flares",
    "Resistance",
    "Fire Smash"
  ],
  "power_levels": [
    0,
    0,
    0,
    0
  ],
  "powers": [
    {
      "power_category": "V_LegacyChain",
      "power_set": "Minion_Fire_Low",
      "power": "*",
      "level": 0
    },
    {
      "power_category": "V_LegacyChain",
      "power_set": "Minion_Fire",
      "power": "*",
      "level": 0
    }
  ],
  "levels": [
    {
      "level": 21,
      "experience": 0,
      "display_names": [
        "Ember of Flame"
      ],
      "costumes": [
        "Legacy_of_Flame_Minion_01",
        "Legacy_of_Flame_Minion_02",
        "Legacy_of_Flame_Minion_03",
        "Legacy_of_Flame_Minion_04",
        "Legacy_of_Flame_Minion_05"
      ]
    },
    {
      "level": 22,
      "experience": 0,
      "display_names": [
        "Ember of Flame"
      ],
      "costumes": [
        "Legacy_of_Flame_Minion_01",
        "Legacy_of_Flame_Minion_02",
        "Legacy_of_Flame_Minion_03",
        "Legacy_of_Flame_Minion_04",
        "Legacy_of_Flame_Minion_05"
      ]
    },
    {
      "level": 23,
      "experience": 0,
      "display_names": [
        "Ember of Flame"
      ],
      "costumes": [
        "Legacy_of_Flame_Minion_01",
        "Legacy_of_Flame_Minion_02",
        "Legacy_of_Flame_Minion_03",
        "Legacy_of_Flame_Minion_04",
        "Legacy_of_Flame_Minion_05"
      ]
    },
    {
      "level": 24,
      "experience": 0,
      "display_names": [
        "Ember of Flame"
      ],
      "costumes": [
        "Legacy_of_Flame_Minion_01",
        "Legacy_of_Flame_Minion_02",
        "Legacy_of_Flame_Minion_03",
        "Legacy_of_Flame_Minion_04",
        "Legacy_of_Flame_Minion_05"
      ]
    },
    {
      "level": 25,
      "experience": 0,
      "display_names": [
        "Ember of Flame"
      ],
      "costumes": [
        "Legacy_of_Flame_Minion_01",
        "Legacy_of_Flame_Minion_02",
        "Legacy_of_Flame_Minion_03",
        "Legacy_of_Flame_Minion_04",
        "Legacy_of_Flame_Minion_05"
      ]
    }
  ]
}