{
  "name": "Luddites_Minion_Brawl_Cutscene",
  "gender": "GENDER_MALE",
  "description": "The Luddites believe technology is leading to the ruination of civilization. Most believe Dr. Aeon and his magnificent city are to be admired, but the Luddites crusade against it, and even make ludicrous claims that Aeon's advances are at the behest of demons and other dark forces.",
  "group_description": null,
  "display_class_name": null,
  "character_class_name": "minion_grunt",
  "ai_config": "Default_Ranged",
  "commandable_pet": false,
  "power_tags": [
    "HumanSkeleton",
    "Human"
  ],
  "additional_rewards": [

  ],
  "skill_hp_rewards": [

  ],
  "skill_status_rewards": [

  ],
  "ally": "Hero",
  "gang": null,
  "reward_scale": 1.0,
  "game_exclusion": "None",
  "inactive_state_weapon": null,
  "ignores_combat_mods": false,
  "copy_creator_mods": false,
  "spawn_limit": 0,
  "spawn_limit_mission": 0,
  "ignore_av_to_eb_scaling": false,
  "can_zone": false,
  "custom_badge_stat": null,
  "badge_stat_flags": "DefaultBadgeStat",
  "rank": "VR_MINION",
  "power_full_names": [
    "V_Luddites.Minion_Brawl.Brawl",
    "V_Luddites.Minion_Crossbow.Crossbow"
  ],
  "power_display_names": [
    "Brawl",
    "Crossbow"
  ],
  "power_levels": [
    0,
    0
  ],
  "powers": [
    {
      "power_category": "V_Luddites",
      "power_set": "Minion_Brawl",
      "power": "*",
      "level": 0
    },
    {
      "power_category": "V_Luddites",
      "power_set": "Minion_Crossbow",
      "power": "*",
      "level": 0
    }
  ],
  "levels": [
    {
      "level": 1,
      "experience": 0,
      "display_names": [
        "Luddite Brawler"
      ],
      "costumes": [
        "Luddites_Minion_01",
        "Luddites_Minion_02",
        "Luddites_Minion_03",
        "Luddites_Minion_04",
        "Luddites_Minion_05"
      ]
    }
  ]
}