{
  "name": "Malaise_P_Malaise_EB",
  "gender": "GENDER_MALE",
  "description": "Jean-Pierre Lourdin has the incredible ability to trap the minds of others in a prison of their own worst nightmares. His special gift has made him impossible to track by the Seers, as every time their mind touches his own they go irrevocably mad.",
  "group_description": "Seers",
  "display_class_name": "Lunatic",
  "character_class_name": "boss_elite",
  "ai_config": "Default_Ranged",
  "commandable_pet": false,
  "power_tags": [
    "HumanSkeleton",
    "Human"
  ],
  "additional_rewards": [

  ],
  "skill_hp_rewards": [

  ],
  "skill_status_rewards": [

  ],
  "ally": null,
  "gang": null,
  "reward_scale": 1.0,
  "game_exclusion": "None",
  "inactive_state_weapon": null,
  "ignores_combat_mods": false,
  "copy_creator_mods": false,
  "spawn_limit": 0,
  "spawn_limit_mission": 0,
  "ignore_av_to_eb_scaling": false,
  "can_zone": false,
  "custom_badge_stat": null,
  "badge_stat_flags": "DefaultBadgeStat",
  "rank": "VR_ELITE",
  "power_full_names": [
    "Praetorians.Malaise.Mesmerize",
    "Praetorians.Malaise.Mass_Hypnosis",
    "Praetorians.Malaise.Dominate",
    "Praetorians.Malaise.Total_Domination",
    "Praetorians.Mother_Mayhem.Telekinetic_blast"
  ],
  "power_display_names": [
    "Mesmerize",
    "Mass Hypnosis",
    "Dominate",
    "Total Domination",
    "Telekinetic blast"
  ],
  "power_levels": [
    0,
    0,
    0,
    0,
    0
  ],
  "powers": [
    {
      "power_category": "Praetorians",
      "power_set": "Malaise",
      "power": "Mesmerize",
      "level": 0
    },
    {
      "power_category": "Praetorians",
      "power_set": "Malaise",
      "power": "Mass_Hypnosis",
      "level": 0
    },
    {
      "power_category": "Praetorians",
      "power_set": "Malaise",
      "power": "Dominate",
      "level": 0
    },
    {
      "power_category": "Praetorians",
      "power_set": "Malaise",
      "power": "Total_Domination",
      "level": 0
    },
    {
      "power_category": "Praetorians",
      "power_set": "Mother_Mayhem",
      "power": "Telekinetic_Blast",
      "level": 0
    }
  ],
  "levels": [
    {
      "level": 15,
      "experience": 0,
      "display_names": [
        "Jean-Pierre Lourdin"
      ],
      "costumes": [
        "Malaise"
      ]
    },
    {
      "level": 16,
      "experience": 0,
      "display_names": [
        "Jean-Pierre Lourdin"
      ],
      "costumes": [
        "Malaise"
      ]
    },
    {
      "level": 17,
      "experience": 0,
      "display_names": [
        "Jean-Pierre Lourdin"
      ],
      "costumes": [
        "Malaise"
      ]
    },
    {
      "level": 18,
      "experience": 0,
      "display_names": [
        "Jean-Pierre Lourdin"
      ],
      "costumes": [
        "Malaise"
      ]
    },
    {
      "level": 19,
      "experience": 0,
      "display_names": [
        "Jean-Pierre Lourdin"
      ],
      "costumes": [
        "Malaise"
      ]
    },
    {
      "level": 20,
      "experience": 0,
      "display_names": [
        "Jean-Pierre Lourdin"
      ],
      "costumes": [
        "Malaise"
      ]
    },
    {
      "level": 21,
      "experience": 0,
      "display_names": [
        "Jean-Pierre Lourdin"
      ],
      "costumes": [
        "Malaise"
      ]
    },
    {
      "level": 22,
      "experience": 0,
      "display_names": [
        "Jean-Pierre Lourdin"
      ],
      "costumes": [
        "Malaise"
      ]
    },
    {
      "level": 23,
      "experience": 0,
      "display_names": [
        "Jean-Pierre Lourdin"
      ],
      "costumes": [
        "Malaise"
      ]
    },
    {
      "level": 24,
      "experience": 0,
      "display_names": [
        "Jean-Pierre Lourdin"
      ],
      "costumes": [
        "Malaise"
      ]
    }
  ]
}