{
  "name": "Malaise_Nightmare_Weakened_LIWW",
  "gender": "GENDER_MALE",
  "description": "Malaise has created a Nightmare, drawing from the experiences of those whom he battles. This Nightmare has the appearance of the Lichen Infested War Walker.",
  "group_description": "Nightmare",
  "display_class_name": null,
  "character_class_name": "boss_praetoriangrunt",
  "ai_config": "Signatures_Melee",
  "commandable_pet": false,
  "power_tags": [
    "HumanSkeleton",
    "Electronic",
    "Raid"
  ],
  "additional_rewards": [

  ],
  "skill_hp_rewards": [

  ],
  "skill_status_rewards": [

  ],
  "ally": null,
  "gang": null,
  "reward_scale": 1.0,
  "game_exclusion": "None",
  "inactive_state_weapon": null,
  "ignores_combat_mods": false,
  "copy_creator_mods": false,
  "spawn_limit": 0,
  "spawn_limit_mission": 0,
  "ignore_av_to_eb_scaling": false,
  "can_zone": false,
  "custom_badge_stat": null,
  "badge_stat_flags": "DefaultBadgeStat",
  "rank": "VR_BOSS",
  "power_full_names": [
    "MindsOfMayhem.LIWW.Particle_Lance",
    "MindsOfMayhem.LIWW.Particle_Burst",
    "MindsOfMayhem.LIWW.Sweeping_Laser",
    "MindsOfMayhem.LIWW.Ground_Slam",
    "MindsOfMayhem.LIWW.Smash",
    "MindsOfMayhem.LIWW.Pummel",
    "MindsOfMayhem.Nightmare_General.Damage_Reduction",
    "MindsOfMayhem.Tilman_Suppression.Create_Suppressor",
    "GenericVillains.Translucent_Aura.Aura"
  ],
  "power_display_names": [
    "Particle Lance",
    "Particle Burst",
    "Sweeping Laser",
    "Foot Stomp",
    "Smash",
    "Pummel",
    "Residual Memory",
    "Create Suppressor",
    "Aura"
  ],
  "power_levels": [
    0,
    0,
    0,
    0,
    0,
    0,
    0,
    0,
    0
  ],
  "powers": [
    {
      "power_category": "MindsOfMayhem",
      "power_set": "LIWW",
      "power": "*",
      "level": 0
    },
    {
      "power_category": "MindsOfMayhem",
      "power_set": "Nightmare_General",
      "power": "*",
      "level": 0
    },
    {
      "power_category": "MindsOfMayhem",
      "power_set": "Tilman_Suppression",
      "power": "Create_Suppressor",
      "level": 0
    },
    {
      "power_category": "GenericVillains",
      "power_set": "Translucent_Aura",
      "power": "*",
      "level": 0
    }
  ],
  "levels": [
    {
      "level": 54,
      "experience": 0,
      "display_names": [
        "Lichen-Infested Extinction War Walker"
      ],
      "costumes": [
        "MindsOfMayhem_LIWW"
      ]
    }
  ]
}