{
  "name": "Malta_Sapper",
  "gender": "GENDER_MALE",
  "description": "It has not yet been fully determined how the Bio-Energy Feedback Inducer utilized by the Malta Sappers works, but it certainly does so efficiently. It is clear this weapon was designed specifically for hunting down and neutralizing super powered beings of all sorts. Heroes in combat with them should be very wary.",
  "group_description": null,
  "display_class_name": null,
  "character_class_name": "minion_grunt",
  "ai_config": "Default_Ranged",
  "commandable_pet": false,
  "power_tags": [
    "HumanSkeleton",
    "Human"
  ],
  "additional_rewards": [

  ],
  "skill_hp_rewards": [

  ],
  "skill_status_rewards": [

  ],
  "ally": null,
  "gang": null,
  "reward_scale": 1.0,
  "game_exclusion": "None",
  "inactive_state_weapon": null,
  "ignores_combat_mods": false,
  "copy_creator_mods": false,
  "spawn_limit": 1,
  "spawn_limit_mission": 1,
  "ignore_av_to_eb_scaling": false,
  "can_zone": false,
  "custom_badge_stat": null,
  "badge_stat_flags": "DefaultBadgeStat",
  "rank": "VR_MINION",
  "power_full_names": [
    "Malta.Malta_Sapper.Tech_Armor",
    "Malta.Malta_Sapper.Sapper",
    "Malta.Malta_Sapper.Sapper_Overload",
    "Malta.Malta_Sapper.Sapp_Stick",
    "Malta.Malta_Sapper.Fly",
    "Malta.Malta_Sapper.Fly_fx"
  ],
  "power_display_names": [
    "Tech Armor",
    "Sapper",
    "Sapper Overload",
    "Sapp Stick",
    "Fly",
    "Fly fx"
  ],
  "power_levels": [
    0,
    0,
    0,
    0,
    0,
    0
  ],
  "powers": [
    {
      "power_category": "Malta",
      "power_set": "Malta_Sapper",
      "power": "*",
      "level": 0
    }
  ],
  "levels": [
    {
      "level": 41,
      "experience": 0,
      "display_names": [
        "Sapper"
      ],
      "costumes": [
        "Malta_Tac_Team_Sapper_01",
        "Malta_Tac_Team_Sapper_02",
        "Malta_Tac_Team_Sapper_03"
      ]
    },
    {
      "level": 42,
      "experience": 0,
      "display_names": [
        "Sapper"
      ],
      "costumes": [
        "Malta_Tac_Team_Sapper_01",
        "Malta_Tac_Team_Sapper_02",
        "Malta_Tac_Team_Sapper_03"
      ]
    },
    {
      "level": 43,
      "experience": 0,
      "display_names": [
        "Sapper"
      ],
      "costumes": [
        "Malta_Tac_Team_Sapper_01",
        "Malta_Tac_Team_Sapper_02",
        "Malta_Tac_Team_Sapper_03"
      ]
    },
    {
      "level": 44,
      "experience": 0,
      "display_names": [
        "Sapper"
      ],
      "costumes": [
        "Malta_Tac_Team_Sapper_01",
        "Malta_Tac_Team_Sapper_02",
        "Malta_Tac_Team_Sapper_03"
      ]
    },
    {
      "level": 45,
      "experience": 0,
      "display_names": [
        "Sapper"
      ],
      "costumes": [
        "Malta_Tac_Team_Sapper_01",
        "Malta_Tac_Team_Sapper_02",
        "Malta_Tac_Team_Sapper_03"
      ]
    },
    {
      "level": 46,
      "experience": 0,
      "display_names": [
        "Sapper"
      ],
      "costumes": [
        "Malta_Tac_Team_Sapper_01",
        "Malta_Tac_Team_Sapper_02",
        "Malta_Tac_Team_Sapper_03"
      ]
    },
    {
      "level": 47,
      "experience": 0,
      "display_names": [
        "Sapper"
      ],
      "costumes": [
        "Malta_Tac_Team_Sapper_01",
        "Malta_Tac_Team_Sapper_02",
        "Malta_Tac_Team_Sapper_03"
      ]
    },
    {
      "level": 48,
      "experience": 0,
      "display_names": [
        "Sapper"
      ],
      "costumes": [
        "Malta_Tac_Team_Sapper_01",
        "Malta_Tac_Team_Sapper_02",
        "Malta_Tac_Team_Sapper_03"
      ]
    },
    {
      "level": 49,
      "experience": 0,
      "display_names": [
        "Sapper"
      ],
      "costumes": [
        "Malta_Tac_Team_Sapper_01",
        "Malta_Tac_Team_Sapper_02",
        "Malta_Tac_Team_Sapper_03"
      ]
    },
    {
      "level": 50,
      "experience": 0,
      "display_names": [
        "Sapper"
      ],
      "costumes": [
        "Malta_Tac_Team_Sapper_01",
        "Malta_Tac_Team_Sapper_02",
        "Malta_Tac_Team_Sapper_03"
      ]
    },
    {
      "level": 51,
      "experience": 0,
      "display_names": [
        "Sapper"
      ],
      "costumes": [
        "Malta_Tac_Team_Sapper_01",
        "Malta_Tac_Team_Sapper_02",
        "Malta_Tac_Team_Sapper_03"
      ]
    },
    {
      "level": 52,
      "experience": 0,
      "display_names": [
        "Sapper"
      ],
      "costumes": [
        "Malta_Tac_Team_Sapper_01",
        "Malta_Tac_Team_Sapper_02",
        "Malta_Tac_Team_Sapper_03"
      ]
    },
    {
      "level": 53,
      "experience": 0,
      "display_names": [
        "Sapper"
      ],
      "costumes": [
        "Malta_Tac_Team_Sapper_01",
        "Malta_Tac_Team_Sapper_02",
        "Malta_Tac_Team_Sapper_03"
      ]
    },
    {
      "level": 54,
      "experience": 0,
      "display_names": [
        "Sapper"
      ],
      "costumes": [
        "Malta_Tac_Team_Sapper_01",
        "Malta_Tac_Team_Sapper_02",
        "Malta_Tac_Team_Sapper_03"
      ]
    }
  ]
}