{
  "name": "MaltaEndgame_Tactical_Ops_Lt",
  "gender": "GENDER_MALE",
  "description": "These are the backbone of the military presence of the Malta Group. The Tac Ops cells are trained to operate independently and are almost never aware of each others activity. Machine guns, grenades of varying kinds and other modern weaponry are their stock in trade.",
  "group_description": null,
  "display_class_name": null,
  "character_class_name": "lt_praetoriangrunt",
  "ai_config": "Default_Ranged",
  "commandable_pet": false,
  "power_tags": [
    "HumanSkeleton",
    "Human"
  ],
  "additional_rewards": [

  ],
  "skill_hp_rewards": [

  ],
  "skill_status_rewards": [

  ],
  "ally": null,
  "gang": null,
  "reward_scale": 1.0,
  "game_exclusion": "None",
  "inactive_state_weapon": null,
  "ignores_combat_mods": false,
  "copy_creator_mods": false,
  "spawn_limit": -1,
  "spawn_limit_mission": -1,
  "ignore_av_to_eb_scaling": false,
  "can_zone": false,
  "custom_badge_stat": null,
  "badge_stat_flags": "DefaultBadgeStat",
  "rank": "VR_LIEUTENANT",
  "power_full_names": [
    "Malta.Malta_Ops.Kevlar",
    "Malta.Malta_Ops.Brawl",
    "Malta.Malta_Ops.Taser",
    "Malta.Malta_Ops.Adv_Assault_Rifle",
    "Malta.Malta_Ops.Frag_Grenade",
    "Malta.Malta_Ops_Lt.Stun_Grenades"
  ],
  "power_display_names": [
    "Kevlar",
    "Brawl",
    "Taser",
    "Adv Assault Rifle",
    "Frag Grenade",
    "Stun Grenades"
  ],
  "power_levels": [
    0,
    0,
    0,
    0,
    0,
    0
  ],
  "powers": [
    {
      "power_category": "Malta",
      "power_set": "Malta_Ops",
      "power": "*",
      "level": 0
    },
    {
      "power_category": "Malta",
      "power_set": "Malta_Ops_Lt",
      "power": "*",
      "level": 0
    }
  ],
  "levels": [
    {
      "level": 50,
      "experience": 0,
      "display_names": [
        "Operation Officer"
      ],
      "costumes": [
        "Malta_Tac_Team_Lt_01",
        "Malta_Tac_Team_Lt_02",
        "Malta_Tac_Team_Lt_03"
      ]
    },
    {
      "level": 51,
      "experience": 0,
      "display_names": [
        "Operation Officer"
      ],
      "costumes": [
        "Malta_Tac_Team_Lt_01",
        "Malta_Tac_Team_Lt_02",
        "Malta_Tac_Team_Lt_03"
      ]
    },
    {
      "level": 52,
      "experience": 0,
      "display_names": [
        "Operation Officer"
      ],
      "costumes": [
        "Malta_Tac_Team_Lt_01",
        "Malta_Tac_Team_Lt_02",
        "Malta_Tac_Team_Lt_03"
      ]
    },
    {
      "level": 53,
      "experience": 0,
      "display_names": [
        "Operation Officer"
      ],
      "costumes": [
        "Malta_Tac_Team_Lt_01",
        "Malta_Tac_Team_Lt_02",
        "Malta_Tac_Team_Lt_03"
      ]
    },
    {
      "level": 54,
      "experience": 0,
      "display_names": [
        "Operation Officer"
      ],
      "costumes": [
        "Malta_Tac_Team_Lt_01",
        "Malta_Tac_Team_Lt_02",
        "Malta_Tac_Team_Lt_03"
      ]
    }
  ]
}