{
  "name": "Midnight_Squad_Mercedes_Sheldon",
  "gender": "GENDER_FEMALE",
  "description": "While the Midnight Squad does not heavily practice the dark arts, there are a handful that see it as a useful way to defend themselves against those who would try and do their group harm.",
  "group_description": null,
  "display_class_name": "Rogue",
  "character_class_name": "boss_archvillain",
  "ai_config": "Default_Ranged",
  "commandable_pet": false,
  "power_tags": [
    "HumanSkeleton",
    "Human",
    "Raid"
  ],
  "additional_rewards": [

  ],
  "skill_hp_rewards": [

  ],
  "skill_status_rewards": [

  ],
  "ally": null,
  "gang": null,
  "reward_scale": 1.0,
  "game_exclusion": "None",
  "inactive_state_weapon": null,
  "ignores_combat_mods": false,
  "copy_creator_mods": false,
  "spawn_limit": 0,
  "spawn_limit_mission": 0,
  "ignore_av_to_eb_scaling": false,
  "can_zone": false,
  "custom_badge_stat": null,
  "badge_stat_flags": "DefaultBadgeStat",
  "rank": "VR_ARCHVILLAIN",
  "power_full_names": [
    "V_Vindicators.Vindicator_Resistances.Resistance",
    "Incarnate_I20.Mercedes_Sheldon.Twilight_Grasp",
    "Incarnate_I20.Mercedes_Sheldon.Gloom",
    "Incarnate_I20.Mercedes_Sheldon.Summon_Exorcist"
  ],
  "power_display_names": [
    "Resistance",
    "Twilight Grasp",
    "Gloom",
    "Summon Exorcist"
  ],
  "power_levels": [
    0,
    0,
    0,
    0
  ],
  "powers": [
    {
      "power_category": "V_Vindicators",
      "power_set": "Vindicator_Resistances",
      "power": "*",
      "level": 0
    },
    {
      "power_category": "Incarnate_I20",
      "power_set": "Mercedes_Sheldon",
      "power": "*",
      "level": 0
    }
  ],
  "levels": [
    {
      "level": 20,
      "experience": 0,
      "display_names": [
        "Mercedes Sheldon"
      ],
      "costumes": [
        "Midnight_Mercedes_Sheldon_NoRing"
      ]
    },
    {
      "level": 21,
      "experience": 0,
      "display_names": [
        "Mercedes Sheldon"
      ],
      "costumes": [
        "Midnight_Mercedes_Sheldon_NoRing"
      ]
    },
    {
      "level": 22,
      "experience": 0,
      "display_names": [
        "Mercedes Sheldon"
      ],
      "costumes": [
        "Midnight_Mercedes_Sheldon_NoRing"
      ]
    },
    {
      "level": 23,
      "experience": 0,
      "display_names": [
        "Mercedes Sheldon"
      ],
      "costumes": [
        "Midnight_Mercedes_Sheldon_NoRing"
      ]
    },
    {
      "level": 24,
      "experience": 0,
      "display_names": [
        "Mercedes Sheldon"
      ],
      "costumes": [
        "Midnight_Mercedes_Sheldon_NoRing"
      ]
    },
    {
      "level": 25,
      "experience": 0,
      "display_names": [
        "Mercedes Sheldon"
      ],
      "costumes": [
        "Midnight_Mercedes_Sheldon_NoRing"
      ]
    },
    {
      "level": 26,
      "experience": 0,
      "display_names": [
        "Mercedes Sheldon"
      ],
      "costumes": [
        "Midnight_Mercedes_Sheldon_NoRing"
      ]
    },
    {
      "level": 27,
      "experience": 0,
      "display_names": [
        "Mercedes Sheldon"
      ],
      "costumes": [
        "Midnight_Mercedes_Sheldon_NoRing"
      ]
    },
    {
      "level": 28,
      "experience": 0,
      "display_names": [
        "Mercedes Sheldon"
      ],
      "costumes": [
        "Midnight_Mercedes_Sheldon_NoRing"
      ]
    },
    {
      "level": 29,
      "experience": 0,
      "display_names": [
        "Mercedes Sheldon"
      ],
      "costumes": [
        "Midnight_Mercedes_Sheldon_NoRing"
      ]
    },
    {
      "level": 30,
      "experience": 0,
      "display_names": [
        "Mercedes Sheldon"
      ],
      "costumes": [
        "Midnight_Mercedes_Sheldon_NoRing"
      ]
    },
    {
      "level": 31,
      "experience": 0,
      "display_names": [
        "Mercedes Sheldon"
      ],
      "costumes": [
        "Midnight_Mercedes_Sheldon_NoRing"
      ]
    },
    {
      "level": 32,
      "experience": 0,
      "display_names": [
        "Mercedes Sheldon"
      ],
      "costumes": [
        "Midnight_Mercedes_Sheldon_NoRing"
      ]
    },
    {
      "level": 33,
      "experience": 0,
      "display_names": [
        "Mercedes Sheldon"
      ],
      "costumes": [
        "Midnight_Mercedes_Sheldon_NoRing"
      ]
    },
    {
      "level": 34,
      "experience": 0,
      "display_names": [
        "Mercedes Sheldon"
      ],
      "costumes": [
        "Midnight_Mercedes_Sheldon_NoRing"
      ]
    },
    {
      "level": 35,
      "experience": 0,
      "display_names": [
        "Mercedes Sheldon"
      ],
      "costumes": [
        "Midnight_Mercedes_Sheldon_NoRing"
      ]
    },
    {
      "level": 36,
      "experience": 0,
      "display_names": [
        "Mercedes Sheldon"
      ],
      "costumes": [
        "Midnight_Mercedes_Sheldon_NoRing"
      ]
    },
    {
      "level": 37,
      "experience": 0,
      "display_names": [
        "Mercedes Sheldon"
      ],
      "costumes": [
        "Midnight_Mercedes_Sheldon_NoRing"
      ]
    },
    {
      "level": 38,
      "experience": 0,
      "display_names": [
        "Mercedes Sheldon"
      ],
      "costumes": [
        "Midnight_Mercedes_Sheldon_NoRing"
      ]
    },
    {
      "level": 39,
      "experience": 0,
      "display_names": [
        "Mercedes Sheldon"
      ],
      "costumes": [
        "Midnight_Mercedes_Sheldon_NoRing"
      ]
    },
    {
      "level": 40,
      "experience": 0,
      "display_names": [
        "Mercedes Sheldon"
      ],
      "costumes": [
        "Midnight_Mercedes_Sheldon_NoRing"
      ]
    },
    {
      "level": 41,
      "experience": 0,
      "display_names": [
        "Mercedes Sheldon"
      ],
      "costumes": [
        "Midnight_Mercedes_Sheldon_NoRing"
      ]
    },
    {
      "level": 42,
      "experience": 0,
      "display_names": [
        "Mercedes Sheldon"
      ],
      "costumes": [
        "Midnight_Mercedes_Sheldon_NoRing"
      ]
    },
    {
      "level": 43,
      "experience": 0,
      "display_names": [
        "Mercedes Sheldon"
      ],
      "costumes": [
        "Midnight_Mercedes_Sheldon_NoRing"
      ]
    },
    {
      "level": 44,
      "experience": 0,
      "display_names": [
        "Mercedes Sheldon"
      ],
      "costumes": [
        "Midnight_Mercedes_Sheldon_NoRing"
      ]
    }
  ]
}