{
  "name": "MotherMayhem_Clone_MN_CitizenMale",
  "gender": "GENDER_MALE",
  "description": "This is Mother Mayhem, isn't it? Maybe its just some unfortunate citizen whose mind has been taken over Shalice Tilman as she stretches her control over the whole world? In the psychic nightmare of the Seer Network, it's hard to tell what is real and what isn't.",
  "group_description": null,
  "display_class_name": null,
  "character_class_name": "minion_praetoriangrunt",
  "ai_config": "Default_Ranged",
  "commandable_pet": false,
  "power_tags": [
    "HumanSkeleton",
    "Human"
  ],
  "additional_rewards": [

  ],
  "skill_hp_rewards": [

  ],
  "skill_status_rewards": [

  ],
  "ally": null,
  "gang": null,
  "reward_scale": 1.0,
  "game_exclusion": "None",
  "inactive_state_weapon": null,
  "ignores_combat_mods": false,
  "copy_creator_mods": false,
  "spawn_limit": 0,
  "spawn_limit_mission": 0,
  "ignore_av_to_eb_scaling": false,
  "can_zone": false,
  "custom_badge_stat": null,
  "badge_stat_flags": "DefaultBadgeStat",
  "rank": "VR_MINION",
  "power_full_names": [
    "MindsOfMayhem.Clone_Costume.Guise_of_Mayhem",
    "MindsOfMayhem.Mother_Mayhem_Minion.Mental_Blast",
    "MindsOfMayhem.Mother_Mayhem_Minion.Telekinetic_blast",
    "MindsOfMayhem.Mother_Mayhem_Minion.Resistance"
  ],
  "power_display_names": [
    "Guise of Mayhem",
    "Mental Blast",
    "Telekinetic blast",
    "Resistance"
  ],
  "power_levels": [
    0,
    0,
    0,
    0
  ],
  "powers": [
    {
      "power_category": "MindsOfMayhem",
      "power_set": "Clone_Costume",
      "power": "*",
      "level": 0
    },
    {
      "power_category": "MindsOfMayhem",
      "power_set": "Mother_Mayhem_Minion",
      "power": "*",
      "level": 0
    }
  ],
  "levels": [
    {
      "level": 50,
      "experience": 0,
      "display_names": [
        "Mother Mayhem"
      ],
      "costumes": [
        "Citizen_Biz_Male_01",
        "Citizen_Biz_Male_02",
        "Citizen_Biz_Male_03",
        "Citizen_Biz_Male_04",
        "Citizen_Biz_Male_05",
        "Citizen_Biz_Male_06",
        "Citizen_Biz_Male_07",
        "Citizen_Biz_Male_08",
        "Citizen_Biz_Male_09",
        "Citizen_Biz_Male_10",
        "Citizen_Biz_Male_11",
        "Citizen_Biz_Male_12",
        "Citizen_Biz_Male_13",
        "Citizen_Biz_Male_14",
        "Citizen_Biz_Male_15",
        "Citizen_Biz_Male_16",
        "Citizen_Biz_Male_17",
        "Citizen_Biz_Male_18",
        "Citizen_Biz_Male_19",
        "Citizen_Biz_Male_20",
        "Citizen_Biz_Male_21",
        "Citizen_Biz_Male_22",
        "Citizen_Biz_Male_23",
        "Citizen_Biz_Male_24",
        "Citizen_Biz_Male_25",
        "Citizen_Biz_Male_25",
        "Citizen_Biz_Male_27",
        "Citizen_Biz_Male_28",
        "Citizen_Biz_Male_29",
        "Citizen_Biz_Male_30",
        "Citizen_Biz_Male_31",
        "Citizen_Biz_Male_32",
        "Citizen_Biz_Male_33",
        "Citizen_Biz_Male_34",
        "Citizen_Biz_Male_35",
        "Citizen_Biz_Male_36",
        "Citizen_Biz_Male_37",
        "Citizen_Biz_Male_38",
        "Citizen_Biz_Male_39",
        "Citizen_Biz_Male_40",
        "Citizen_Biz_Male_41",
        "Citizen_Biz_Male_42",
        "Citizen_Biz_Male_43",
        "Citizen_Biz_Male_44",
        "Citizen_Biz_Male_45",
        "Citizen_Biz_Male_46",
        "Citizen_Biz_Male_47",
        "Citizen_Biz_Male_48",
        "Citizen_Biz_Male_49",
        "Citizen_Biz_Male_50"
      ]
    },
    {
      "level": 51,
      "experience": 0,
      "display_names": [
        "Mother Mayhem"
      ],
      "costumes": [
        "Citizen_Biz_Male_01",
        "Citizen_Biz_Male_02",
        "Citizen_Biz_Male_03",
        "Citizen_Biz_Male_04",
        "Citizen_Biz_Male_05",
        "Citizen_Biz_Male_06",
        "Citizen_Biz_Male_07",
        "Citizen_Biz_Male_08",
        "Citizen_Biz_Male_09",
        "Citizen_Biz_Male_10",
        "Citizen_Biz_Male_11",
        "Citizen_Biz_Male_12",
        "Citizen_Biz_Male_13",
        "Citizen_Biz_Male_14",
        "Citizen_Biz_Male_15",
        "Citizen_Biz_Male_16",
        "Citizen_Biz_Male_17",
        "Citizen_Biz_Male_18",
        "Citizen_Biz_Male_19",
        "Citizen_Biz_Male_20",
        "Citizen_Biz_Male_21",
        "Citizen_Biz_Male_22",
        "Citizen_Biz_Male_23",
        "Citizen_Biz_Male_24",
        "Citizen_Biz_Male_25",
        "Citizen_Biz_Male_25",
        "Citizen_Biz_Male_27",
        "Citizen_Biz_Male_28",
        "Citizen_Biz_Male_29",
        "Citizen_Biz_Male_30",
        "Citizen_Biz_Male_31",
        "Citizen_Biz_Male_32",
        "Citizen_Biz_Male_33",
        "Citizen_Biz_Male_34",
        "Citizen_Biz_Male_35",
        "Citizen_Biz_Male_36",
        "Citizen_Biz_Male_37",
        "Citizen_Biz_Male_38",
        "Citizen_Biz_Male_39",
        "Citizen_Biz_Male_40",
        "Citizen_Biz_Male_41",
        "Citizen_Biz_Male_42",
        "Citizen_Biz_Male_43",
        "Citizen_Biz_Male_44",
        "Citizen_Biz_Male_45",
        "Citizen_Biz_Male_46",
        "Citizen_Biz_Male_47",
        "Citizen_Biz_Male_48",
        "Citizen_Biz_Male_49",
        "Citizen_Biz_Male_50"
      ]
    },
    {
      "level": 52,
      "experience": 0,
      "display_names": [
        "Mother Mayhem"
      ],
      "costumes": [
        "Citizen_Biz_Male_01",
        "Citizen_Biz_Male_02",
        "Citizen_Biz_Male_03",
        "Citizen_Biz_Male_04",
        "Citizen_Biz_Male_05",
        "Citizen_Biz_Male_06",
        "Citizen_Biz_Male_07",
        "Citizen_Biz_Male_08",
        "Citizen_Biz_Male_09",
        "Citizen_Biz_Male_10",
        "Citizen_Biz_Male_11",
        "Citizen_Biz_Male_12",
        "Citizen_Biz_Male_13",
        "Citizen_Biz_Male_14",
        "Citizen_Biz_Male_15",
        "Citizen_Biz_Male_16",
        "Citizen_Biz_Male_17",
        "Citizen_Biz_Male_18",
        "Citizen_Biz_Male_19",
        "Citizen_Biz_Male_20",
        "Citizen_Biz_Male_21",
        "Citizen_Biz_Male_22",
        "Citizen_Biz_Male_23",
        "Citizen_Biz_Male_24",
        "Citizen_Biz_Male_25",
        "Citizen_Biz_Male_25",
        "Citizen_Biz_Male_27",
        "Citizen_Biz_Male_28",
        "Citizen_Biz_Male_29",
        "Citizen_Biz_Male_30",
        "Citizen_Biz_Male_31",
        "Citizen_Biz_Male_32",
        "Citizen_Biz_Male_33",
        "Citizen_Biz_Male_34",
        "Citizen_Biz_Male_35",
        "Citizen_Biz_Male_36",
        "Citizen_Biz_Male_37",
        "Citizen_Biz_Male_38",
        "Citizen_Biz_Male_39",
        "Citizen_Biz_Male_40",
        "Citizen_Biz_Male_41",
        "Citizen_Biz_Male_42",
        "Citizen_Biz_Male_43",
        "Citizen_Biz_Male_44",
        "Citizen_Biz_Male_45",
        "Citizen_Biz_Male_46",
        "Citizen_Biz_Male_47",
        "Citizen_Biz_Male_48",
        "Citizen_Biz_Male_49",
        "Citizen_Biz_Male_50"
      ]
    },
    {
      "level": 53,
      "experience": 0,
      "display_names": [
        "Mother Mayhem"
      ],
      "costumes": [
        "Citizen_Biz_Male_01",
        "Citizen_Biz_Male_02",
        "Citizen_Biz_Male_03",
        "Citizen_Biz_Male_04",
        "Citizen_Biz_Male_05",
        "Citizen_Biz_Male_06",
        "Citizen_Biz_Male_07",
        "Citizen_Biz_Male_08",
        "Citizen_Biz_Male_09",
        "Citizen_Biz_Male_10",
        "Citizen_Biz_Male_11",
        "Citizen_Biz_Male_12",
        "Citizen_Biz_Male_13",
        "Citizen_Biz_Male_14",
        "Citizen_Biz_Male_15",
        "Citizen_Biz_Male_16",
        "Citizen_Biz_Male_17",
        "Citizen_Biz_Male_18",
        "Citizen_Biz_Male_19",
        "Citizen_Biz_Male_20",
        "Citizen_Biz_Male_21",
        "Citizen_Biz_Male_22",
        "Citizen_Biz_Male_23",
        "Citizen_Biz_Male_24",
        "Citizen_Biz_Male_25",
        "Citizen_Biz_Male_25",
        "Citizen_Biz_Male_27",
        "Citizen_Biz_Male_28",
        "Citizen_Biz_Male_29",
        "Citizen_Biz_Male_30",
        "Citizen_Biz_Male_31",
        "Citizen_Biz_Male_32",
        "Citizen_Biz_Male_33",
        "Citizen_Biz_Male_34",
        "Citizen_Biz_Male_35",
        "Citizen_Biz_Male_36",
        "Citizen_Biz_Male_37",
        "Citizen_Biz_Male_38",
        "Citizen_Biz_Male_39",
        "Citizen_Biz_Male_40",
        "Citizen_Biz_Male_41",
        "Citizen_Biz_Male_42",
        "Citizen_Biz_Male_43",
        "Citizen_Biz_Male_44",
        "Citizen_Biz_Male_45",
        "Citizen_Biz_Male_46",
        "Citizen_Biz_Male_47",
        "Citizen_Biz_Male_48",
        "Citizen_Biz_Male_49",
        "Citizen_Biz_Male_50"
      ]
    },
    {
      "level": 54,
      "experience": 0,
      "display_names": [
        "Mother Mayhem"
      ],
      "costumes": [
        "Citizen_Biz_Male_01",
        "Citizen_Biz_Male_02",
        "Citizen_Biz_Male_03",
        "Citizen_Biz_Male_04",
        "Citizen_Biz_Male_05",
        "Citizen_Biz_Male_06",
        "Citizen_Biz_Male_07",
        "Citizen_Biz_Male_08",
        "Citizen_Biz_Male_09",
        "Citizen_Biz_Male_10",
        "Citizen_Biz_Male_11",
        "Citizen_Biz_Male_12",
        "Citizen_Biz_Male_13",
        "Citizen_Biz_Male_14",
        "Citizen_Biz_Male_15",
        "Citizen_Biz_Male_16",
        "Citizen_Biz_Male_17",
        "Citizen_Biz_Male_18",
        "Citizen_Biz_Male_19",
        "Citizen_Biz_Male_20",
        "Citizen_Biz_Male_21",
        "Citizen_Biz_Male_22",
        "Citizen_Biz_Male_23",
        "Citizen_Biz_Male_24",
        "Citizen_Biz_Male_25",
        "Citizen_Biz_Male_25",
        "Citizen_Biz_Male_27",
        "Citizen_Biz_Male_28",
        "Citizen_Biz_Male_29",
        "Citizen_Biz_Male_30",
        "Citizen_Biz_Male_31",
        "Citizen_Biz_Male_32",
        "Citizen_Biz_Male_33",
        "Citizen_Biz_Male_34",
        "Citizen_Biz_Male_35",
        "Citizen_Biz_Male_36",
        "Citizen_Biz_Male_37",
        "Citizen_Biz_Male_38",
        "Citizen_Biz_Male_39",
        "Citizen_Biz_Male_40",
        "Citizen_Biz_Male_41",
        "Citizen_Biz_Male_42",
        "Citizen_Biz_Male_43",
        "Citizen_Biz_Male_44",
        "Citizen_Biz_Male_45",
        "Citizen_Biz_Male_46",
        "Citizen_Biz_Male_47",
        "Citizen_Biz_Male_48",
        "Citizen_Biz_Male_49",
        "Citizen_Biz_Male_50"
      ]
    }
  ]
}