{
  "name": "MotherMayhem_Clone_LT_Resistance_CommandoFemale",
  "gender": "GENDER_FEMALE",
  "description": "This is Mother Mayhem, isn't it? Maybe its just some unfortunate citizen whose mind has been taken over Shalice Tilman as she stretches her control over the whole world? In the psychic nightmare of the Seer Network, it's hard to tell what is real and what isn't.",
  "group_description": null,
  "display_class_name": null,
  "character_class_name": "lt_praetoriangrunt",
  "ai_config": "Default_Ranged",
  "commandable_pet": false,
  "power_tags": [
    "HumanSkeleton",
    "Human"
  ],
  "additional_rewards": [

  ],
  "skill_hp_rewards": [

  ],
  "skill_status_rewards": [

  ],
  "ally": null,
  "gang": null,
  "reward_scale": 1.0,
  "game_exclusion": "None",
  "inactive_state_weapon": null,
  "ignores_combat_mods": false,
  "copy_creator_mods": false,
  "spawn_limit": 0,
  "spawn_limit_mission": 0,
  "ignore_av_to_eb_scaling": false,
  "can_zone": false,
  "custom_badge_stat": null,
  "badge_stat_flags": "DefaultBadgeStat",
  "rank": "VR_LIEUTENANT",
  "power_full_names": [
    "MindsOfMayhem.Clone_Costume.Guise_of_Mayhem",
    "MindsOfMayhem.Mother_Mayhem_Minion.Mental_Blast",
    "MindsOfMayhem.Mother_Mayhem_Minion.Telekinetic_blast",
    "MindsOfMayhem.Mother_Mayhem_Minion.Resistance"
  ],
  "power_display_names": [
    "Guise of Mayhem",
    "Mental Blast",
    "Telekinetic blast",
    "Resistance"
  ],
  "power_levels": [
    0,
    0,
    0,
    0
  ],
  "powers": [
    {
      "power_category": "MindsOfMayhem",
      "power_set": "Clone_Costume",
      "power": "*",
      "level": 0
    },
    {
      "power_category": "MindsOfMayhem",
      "power_set": "Mother_Mayhem_Minion",
      "power": "*",
      "level": 0
    }
  ],
  "levels": [
    {
      "level": 50,
      "experience": 0,
      "display_names": [
        "Mother Mayhem"
      ],
      "costumes": [
        "Resistance_Fem_Commando_01",
        "Resistance_Fem_Commando_02",
        "Resistance_Fem_Commando_03"
      ]
    },
    {
      "level": 51,
      "experience": 0,
      "display_names": [
        "Mother Mayhem"
      ],
      "costumes": [
        "Resistance_Fem_Commando_01",
        "Resistance_Fem_Commando_02",
        "Resistance_Fem_Commando_03"
      ]
    },
    {
      "level": 52,
      "experience": 0,
      "display_names": [
        "Mother Mayhem"
      ],
      "costumes": [
        "Resistance_Fem_Commando_01",
        "Resistance_Fem_Commando_02",
        "Resistance_Fem_Commando_03"
      ]
    },
    {
      "level": 53,
      "experience": 0,
      "display_names": [
        "Mother Mayhem"
      ],
      "costumes": [
        "Resistance_Fem_Commando_01",
        "Resistance_Fem_Commando_02",
        "Resistance_Fem_Commando_03"
      ]
    },
    {
      "level": 54,
      "experience": 0,
      "display_names": [
        "Mother Mayhem"
      ],
      "costumes": [
        "Resistance_Fem_Commando_01",
        "Resistance_Fem_Commando_02",
        "Resistance_Fem_Commando_03"
      ]
    }
  ]
}