{
  "name": "Nemesis_Arachnos_Soldier",
  "gender": "GENDER_MALE",
  "description": "Something about these Arachnos troops seems kind of strange. Their crisp movements are overly orderly, and almost mechanical.",
  "group_description": null,
  "display_class_name": null,
  "character_class_name": "minion_grunt",
  "ai_config": "Default_Ranged",
  "commandable_pet": false,
  "power_tags": [
    "HumanSkeleton"
  ],
  "additional_rewards": [

  ],
  "skill_hp_rewards": [

  ],
  "skill_status_rewards": [

  ],
  "ally": null,
  "gang": null,
  "reward_scale": 1.0,
  "game_exclusion": "None",
  "inactive_state_weapon": null,
  "ignores_combat_mods": false,
  "copy_creator_mods": false,
  "spawn_limit": 0,
  "spawn_limit_mission": 0,
  "ignore_av_to_eb_scaling": false,
  "can_zone": false,
  "custom_badge_stat": null,
  "badge_stat_flags": "DefaultBadgeStat",
  "rank": "VR_MINION",
  "power_full_names": [
    "Nemesis.Nemesis_Line_Melee.Bayonet",
    "Nemesis.Nemesis_Line_Ranged.Nemesis_Rifle",
    "Nemesis.Nemesis_Soldier_Defense.Resistance"
  ],
  "power_display_names": [
    "Bayonet",
    "Nemesis Rifle",
    "Resistance"
  ],
  "power_levels": [
    0,
    0,
    0
  ],
  "powers": [
    {
      "power_category": "Nemesis",
      "power_set": "Nemesis_Line_Melee",
      "power": "*",
      "level": 0
    },
    {
      "power_category": "Nemesis",
      "power_set": "Nemesis_Line_Ranged",
      "power": "*",
      "level": 0
    },
    {
      "power_category": "Nemesis",
      "power_set": "Nemesis_Soldier_Defense",
      "power": "*",
      "level": 0
    }
  ],
  "levels": [
    {
      "level": 45,
      "experience": 0,
      "display_names": [
        "Bane Spider Commando"
      ],
      "costumes": [
        "Arachnos_Bane_Minion"
      ]
    },
    {
      "level": 46,
      "experience": 0,
      "display_names": [
        "Bane Spider Commando"
      ],
      "costumes": [
        "Arachnos_Bane_Minion"
      ]
    },
    {
      "level": 47,
      "experience": 0,
      "display_names": [
        "Bane Spider Commando"
      ],
      "costumes": [
        "Arachnos_Bane_Minion"
      ]
    },
    {
      "level": 48,
      "experience": 0,
      "display_names": [
        "Bane Spider Commando"
      ],
      "costumes": [
        "Arachnos_Bane_Minion"
      ]
    },
    {
      "level": 49,
      "experience": 0,
      "display_names": [
        "Bane Spider Commando"
      ],
      "costumes": [
        "Arachnos_Bane_Minion"
      ]
    },
    {
      "level": 50,
      "experience": 0,
      "display_names": [
        "Bane Spider Commando"
      ],
      "costumes": [
        "Arachnos_Bane_Minion"
      ]
    },
    {
      "level": 51,
      "experience": 0,
      "display_names": [
        "Bane Spider Commando"
      ],
      "costumes": [
        "Arachnos_Bane_Minion"
      ]
    },
    {
      "level": 52,
      "experience": 0,
      "display_names": [
        "Bane Spider Commando"
      ],
      "costumes": [
        "Arachnos_Bane_Minion"
      ]
    },
    {
      "level": 53,
      "experience": 0,
      "display_names": [
        "Bane Spider Commando"
      ],
      "costumes": [
        "Arachnos_Bane_Minion"
      ]
    },
    {
      "level": 54,
      "experience": 0,
      "display_names": [
        "Bane Spider Commando"
      ],
      "costumes": [
        "Arachnos_Bane_Minion"
      ]
    }
  ]
}