{
  "name": "Neuron_Boss",
  "gender": "GENDER_MALE",
  "description": "The Inhibitors are sometimes said to be the most difficult of Neurons creations to deal with. They are built to make it difficult for any opponent to do what they are good at. This ability to negate the strengths of their foe make the Inhibitors a frustrating, and potentially deadly opponent.",
  "group_description": "Praetorians",
  "display_class_name": null,
  "character_class_name": "boss_grunt",
  "ai_config": "Default_Ranged",
  "commandable_pet": false,
  "power_tags": [
    "Electronic"
  ],
  "additional_rewards": [

  ],
  "skill_hp_rewards": [

  ],
  "skill_status_rewards": [

  ],
  "ally": null,
  "gang": null,
  "reward_scale": 1.0,
  "game_exclusion": "None",
  "inactive_state_weapon": null,
  "ignores_combat_mods": false,
  "copy_creator_mods": false,
  "spawn_limit": -1,
  "spawn_limit_mission": -1,
  "ignore_av_to_eb_scaling": false,
  "can_zone": false,
  "custom_badge_stat": null,
  "badge_stat_flags": "DefaultBadgeStat",
  "rank": "VR_BOSS",
  "power_full_names": [
    "Praetorians.Neuron_Clockwork_Inherent.Resistance",
    "Praetorians.Neuron_Clockwork_Inherent.Charged_Bolts",
    "Praetorians.Neuron_Clockwork_Inherent.Charged_Brawl",
    "Praetorians.Neuron_Clockwork_Inherent.Pummel",
    "Praetorians.Neuron_Clockwork_Controller.Tesla_Cage",
    "Praetorians.Neuron_Clockwork_Controller.Lightning_Field"
  ],
  "power_display_names": [
    "Resistance",
    "Charged Bolts",
    "Charged Brawl",
    "Pummel",
    "Tesla Cage",
    "Lightning Field"
  ],
  "power_levels": [
    0,
    0,
    0,
    0,
    0,
    0
  ],
  "powers": [
    {
      "power_category": "Praetorians",
      "power_set": "Neuron_Clockwork_Inherent",
      "power": "*",
      "level": 0
    },
    {
      "power_category": "Praetorians",
      "power_set": "Neuron_Clockwork_Controller",
      "power": "*",
      "level": 0
    }
  ],
  "levels": [
    {
      "level": 40,
      "experience": 0,
      "display_names": [
        "Inhibitor"
      ],
      "costumes": [
        "Neuron_Minions"
      ]
    },
    {
      "level": 41,
      "experience": 0,
      "display_names": [
        "Inhibitor"
      ],
      "costumes": [
        "Neuron_Minions"
      ]
    },
    {
      "level": 42,
      "experience": 0,
      "display_names": [
        "Inhibitor"
      ],
      "costumes": [
        "Neuron_Minions"
      ]
    },
    {
      "level": 43,
      "experience": 0,
      "display_names": [
        "Inhibitor"
      ],
      "costumes": [
        "Neuron_Minions"
      ]
    },
    {
      "level": 44,
      "experience": 0,
      "display_names": [
        "Inhibitor"
      ],
      "costumes": [
        "Neuron_Minions"
      ]
    },
    {
      "level": 45,
      "experience": 0,
      "display_names": [
        "Inhibitor"
      ],
      "costumes": [
        "Neuron_Minions"
      ]
    },
    {
      "level": 46,
      "experience": 0,
      "display_names": [
        "Inhibitor"
      ],
      "costumes": [
        "Neuron_Minions"
      ]
    },
    {
      "level": 47,
      "experience": 0,
      "display_names": [
        "Inhibitor"
      ],
      "costumes": [
        "Neuron_Minions"
      ]
    },
    {
      "level": 48,
      "experience": 0,
      "display_names": [
        "Inhibitor"
      ],
      "costumes": [
        "Neuron_Minions"
      ]
    },
    {
      "level": 49,
      "experience": 0,
      "display_names": [
        "Inhibitor"
      ],
      "costumes": [
        "Neuron_Minions"
      ]
    },
    {
      "level": 50,
      "experience": 0,
      "display_names": [
        "Inhibitor"
      ],
      "costumes": [
        "Neuron_Minions"
      ]
    },
    {
      "level": 51,
      "experience": 0,
      "display_names": [
        "Inhibitor"
      ],
      "costumes": [
        "Neuron_Minions"
      ]
    },
    {
      "level": 52,
      "experience": 0,
      "display_names": [
        "Inhibitor"
      ],
      "costumes": [
        "Neuron_Minions"
      ]
    },
    {
      "level": 53,
      "experience": 0,
      "display_names": [
        "Inhibitor"
      ],
      "costumes": [
        "Neuron_Minions"
      ]
    },
    {
      "level": 54,
      "experience": 0,
      "display_names": [
        "Inhibitor"
      ],
      "costumes": [
        "Neuron_Minions"
      ]
    }
  ]
}