{
  "name": "NewPraetorians_Marauder_Boss",
  "gender": "GENDER_MALE",
  "description": "Michael White grew up with one rule: the strong make the rules. He was once a Praetor within Praetoria, but that all came crashing down during the Praetorian War. He attempted to hold the line in the battle for Lambda Sector with the support of Praetor Berry's 'super serum'. White was defeated and forced to retreat. He found out later that Berry's serum came at a grave cost; his strength and stamina were both sapped from him; White could barely run twenty feet without getting winded. Provost Marchand and a super powered individual rescued White from the clutches of Hamidon and White was put under Provost Marchand's care for probation. Michael White defected to the Council to have his abilities restored, then delivered key information to Provost Marchand, revealing that he was merely using them for his own gain. Michael White is now a member of the New Praetorians, though he knows that he is one move away from being placed in the Zig.",
  "group_description": null,
  "display_class_name": null,
  "character_class_name": "boss_grunt",
  "ai_config": "Signatures_Ranged",
  "commandable_pet": false,
  "power_tags": [
    "HumanSkeleton",
    "Human"
  ],
  "additional_rewards": [

  ],
  "skill_hp_rewards": [

  ],
  "skill_status_rewards": [

  ],
  "ally": null,
  "gang": null,
  "reward_scale": 1.0,
  "game_exclusion": "None",
  "inactive_state_weapon": null,
  "ignores_combat_mods": false,
  "copy_creator_mods": false,
  "spawn_limit": 0,
  "spawn_limit_mission": 0,
  "ignore_av_to_eb_scaling": true,
  "can_zone": false,
  "custom_badge_stat": null,
  "badge_stat_flags": "DefaultBadgeStat",
  "rank": "VR_BOSS",
  "power_full_names": [
    "NewPraetorians.Marauder.Punch",
    "NewPraetorians.Marauder.Haymaker",
    "NewPraetorians.Marauder.Uppercut",
    "NewPraetorians.Marauder.Nova_Fist",
    "NewPraetorians.Marauder.Hand_Clap",
    "NewPraetorians.Marauder.Foot_Stomp",
    "NewPraetorians.Marauder.Hurl",
    "NewPraetorians.Marauder.Chemical_Grenade"
  ],
  "power_display_names": [
    "Punch",
    "Haymaker",
    "Uppercut",
    "Nova Fist",
    "Hand Clap",
    "Foot Stomp",
    "Hurl",
    "Chemical Grenade"
  ],
  "power_levels": [
    0,
    0,
    0,
    0,
    0,
    0,
    0,
    0
  ],
  "powers": [
    {
      "power_category": "NewPraetorians",
      "power_set": "Marauder",
      "power": "*",
      "level": 0
    }
  ],
  "levels": [
    {
      "level": 30,
      "experience": 0,
      "display_names": [
        "Marauder"
      ],
      "costumes": [
        "Signature_Marauder_Lambda_NoRing"
      ]
    },
    {
      "level": 31,
      "experience": 0,
      "display_names": [
        "Marauder"
      ],
      "costumes": [
        "Signature_Marauder_Lambda_NoRing"
      ]
    },
    {
      "level": 32,
      "experience": 0,
      "display_names": [
        "Marauder"
      ],
      "costumes": [
        "Signature_Marauder_Lambda_NoRing"
      ]
    },
    {
      "level": 33,
      "experience": 0,
      "display_names": [
        "Marauder"
      ],
      "costumes": [
        "Signature_Marauder_Lambda_NoRing"
      ]
    },
    {
      "level": 34,
      "experience": 0,
      "display_names": [
        "Marauder"
      ],
      "costumes": [
        "Signature_Marauder_Lambda_NoRing"
      ]
    },
    {
      "level": 35,
      "experience": 0,
      "display_names": [
        "Marauder"
      ],
      "costumes": [
        "Signature_Marauder_Lambda_NoRing"
      ]
    },
    {
      "level": 36,
      "experience": 0,
      "display_names": [
        "Marauder"
      ],
      "costumes": [
        "Signature_Marauder_Lambda_NoRing"
      ]
    },
    {
      "level": 37,
      "experience": 0,
      "display_names": [
        "Marauder"
      ],
      "costumes": [
        "Signature_Marauder_Lambda_NoRing"
      ]
    },
    {
      "level": 38,
      "experience": 0,
      "display_names": [
        "Marauder"
      ],
      "costumes": [
        "Signature_Marauder_Lambda_NoRing"
      ]
    },
    {
      "level": 39,
      "experience": 0,
      "display_names": [
        "Marauder"
      ],
      "costumes": [
        "Signature_Marauder_Lambda_NoRing"
      ]
    },
    {
      "level": 40,
      "experience": 0,
      "display_names": [
        "Marauder"
      ],
      "costumes": [
        "Signature_Marauder_Lambda_NoRing"
      ]
    },
    {
      "level": 41,
      "experience": 0,
      "display_names": [
        "Marauder"
      ],
      "costumes": [
        "Signature_Marauder_Lambda_NoRing"
      ]
    },
    {
      "level": 42,
      "experience": 0,
      "display_names": [
        "Marauder"
      ],
      "costumes": [
        "Signature_Marauder_Lambda_NoRing"
      ]
    },
    {
      "level": 43,
      "experience": 0,
      "display_names": [
        "Marauder"
      ],
      "costumes": [
        "Signature_Marauder_Lambda_NoRing"
      ]
    },
    {
      "level": 44,
      "experience": 0,
      "display_names": [
        "Marauder"
      ],
      "costumes": [
        "Signature_Marauder_Lambda_NoRing"
      ]
    },
    {
      "level": 45,
      "experience": 0,
      "display_names": [
        "Marauder"
      ],
      "costumes": [
        "Signature_Marauder_Lambda_NoRing"
      ]
    },
    {
      "level": 46,
      "experience": 0,
      "display_names": [
        "Marauder"
      ],
      "costumes": [
        "Signature_Marauder_Lambda_NoRing"
      ]
    },
    {
      "level": 47,
      "experience": 0,
      "display_names": [
        "Marauder"
      ],
      "costumes": [
        "Signature_Marauder_Lambda_NoRing"
      ]
    },
    {
      "level": 48,
      "experience": 0,
      "display_names": [
        "Marauder"
      ],
      "costumes": [
        "Signature_Marauder_Lambda_NoRing"
      ]
    },
    {
      "level": 49,
      "experience": 0,
      "display_names": [
        "Marauder"
      ],
      "costumes": [
        "Signature_Marauder_Lambda_NoRing"
      ]
    },
    {
      "level": 50,
      "experience": 0,
      "display_names": [
        "Marauder"
      ],
      "costumes": [
        "Signature_Marauder_Lambda_NoRing"
      ]
    },
    {
      "level": 51,
      "experience": 0,
      "display_names": [
        "Marauder"
      ],
      "costumes": [
        "Signature_Marauder_Lambda_NoRing"
      ]
    },
    {
      "level": 52,
      "experience": 0,
      "display_names": [
        "Marauder"
      ],
      "costumes": [
        "Signature_Marauder_Lambda_NoRing"
      ]
    },
    {
      "level": 53,
      "experience": 0,
      "display_names": [
        "Marauder"
      ],
      "costumes": [
        "Signature_Marauder_Lambda_NoRing"
      ]
    },
    {
      "level": 54,
      "experience": 0,
      "display_names": [
        "Marauder"
      ],
      "costumes": [
        "Signature_Marauder_Lambda_NoRing"
      ]
    }
  ]
}