{
  "name": "Nictus_Nictus_Hunter_Minion",
  "gender": "GENDER_MALE",
  "description": "Void Seekers are the lowest rank among the deadly Void Hunter mercenaries, serving mostly as scouts to detect possibly Kheldian activity. They carry a powerful Quantum Array gun specially designed to damage and disrupt Kheldian energy signatures, and have special Nictus fragment implants that protect them from energy attacks.",
  "group_description": "Void Hunters",
  "display_class_name": null,
  "character_class_name": "minion_grunt",
  "ai_config": "Default_Ranged",
  "commandable_pet": false,
  "power_tags": [
    "HumanSkeleton",
    "Human",
    "Nictus"
  ],
  "additional_rewards": [

  ],
  "skill_hp_rewards": [

  ],
  "skill_status_rewards": [

  ],
  "ally": null,
  "gang": null,
  "reward_scale": 1.0,
  "game_exclusion": "None",
  "inactive_state_weapon": null,
  "ignores_combat_mods": false,
  "copy_creator_mods": false,
  "spawn_limit": -1,
  "spawn_limit_mission": -1,
  "ignore_av_to_eb_scaling": false,
  "can_zone": false,
  "custom_badge_stat": null,
  "badge_stat_flags": "DefaultBadgeStat",
  "rank": "VR_MINION",
  "power_full_names": [
    "Nictus.Hunter.Brawl",
    "Nictus.Hunter.Quantum_Array_gun",
    "Nictus.Hunter.Absorption",
    "Nictus.Hunter.Umbral_Shield"
  ],
  "power_display_names": [
    "Brawl",
    "Quantum Array gun",
    "Absorption",
    "Umbral Shield"
  ],
  "power_levels": [
    0,
    0,
    0,
    0
  ],
  "powers": [
    {
      "power_category": "Nictus",
      "power_set": "Hunter",
      "power": "*",
      "level": 0
    }
  ],
  "levels": [
    {
      "level": 1,
      "experience": 0,
      "display_names": [
        "Void Seeker"
      ],
      "costumes": [
        "Nictus_Hunter"
      ]
    },
    {
      "level": 2,
      "experience": 0,
      "display_names": [
        "Void Seeker"
      ],
      "costumes": [
        "Nictus_Hunter"
      ]
    },
    {
      "level": 3,
      "experience": 0,
      "display_names": [
        "Void Seeker"
      ],
      "costumes": [
        "Nictus_Hunter"
      ]
    },
    {
      "level": 4,
      "experience": 0,
      "display_names": [
        "Void Seeker"
      ],
      "costumes": [
        "Nictus_Hunter"
      ]
    },
    {
      "level": 5,
      "experience": 0,
      "display_names": [
        "Void Seeker"
      ],
      "costumes": [
        "Nictus_Hunter"
      ]
    },
    {
      "level": 6,
      "experience": 0,
      "display_names": [
        "Void Seeker"
      ],
      "costumes": [
        "Nictus_Hunter"
      ]
    },
    {
      "level": 7,
      "experience": 0,
      "display_names": [
        "Void Seeker"
      ],
      "costumes": [
        "Nictus_Hunter"
      ]
    },
    {
      "level": 8,
      "experience": 0,
      "display_names": [
        "Void Seeker"
      ],
      "costumes": [
        "Nictus_Hunter"
      ]
    },
    {
      "level": 9,
      "experience": 0,
      "display_names": [
        "Void Seeker"
      ],
      "costumes": [
        "Nictus_Hunter"
      ]
    },
    {
      "level": 10,
      "experience": 0,
      "display_names": [
        "Void Seeker"
      ],
      "costumes": [
        "Nictus_Hunter"
      ]
    },
    {
      "level": 11,
      "experience": 0,
      "display_names": [
        "Void Seeker"
      ],
      "costumes": [
        "Nictus_Hunter"
      ]
    },
    {
      "level": 12,
      "experience": 0,
      "display_names": [
        "Void Seeker"
      ],
      "costumes": [
        "Nictus_Hunter"
      ]
    },
    {
      "level": 13,
      "experience": 0,
      "display_names": [
        "Void Seeker"
      ],
      "costumes": [
        "Nictus_Hunter"
      ]
    },
    {
      "level": 14,
      "experience": 0,
      "display_names": [
        "Void Seeker"
      ],
      "costumes": [
        "Nictus_Hunter"
      ]
    },
    {
      "level": 15,
      "experience": 0,
      "display_names": [
        "Void Seeker"
      ],
      "costumes": [
        "Nictus_Hunter"
      ]
    },
    {
      "level": 16,
      "experience": 0,
      "display_names": [
        "Void Seeker"
      ],
      "costumes": [
        "Nictus_Hunter"
      ]
    },
    {
      "level": 17,
      "experience": 0,
      "display_names": [
        "Void Seeker"
      ],
      "costumes": [
        "Nictus_Hunter"
      ]
    },
    {
      "level": 18,
      "experience": 0,
      "display_names": [
        "Void Seeker"
      ],
      "costumes": [
        "Nictus_Hunter"
      ]
    },
    {
      "level": 19,
      "experience": 0,
      "display_names": [
        "Void Seeker"
      ],
      "costumes": [
        "Nictus_Hunter"
      ]
    },
    {
      "level": 20,
      "experience": 0,
      "display_names": [
        "Void Seeker"
      ],
      "costumes": [
        "Nictus_Hunter"
      ]
    },
    {
      "level": 21,
      "experience": 0,
      "display_names": [
        "Void Seeker"
      ],
      "costumes": [
        "Nictus_Hunter"
      ]
    },
    {
      "level": 22,
      "experience": 0,
      "display_names": [
        "Void Seeker"
      ],
      "costumes": [
        "Nictus_Hunter"
      ]
    },
    {
      "level": 23,
      "experience": 0,
      "display_names": [
        "Void Seeker"
      ],
      "costumes": [
        "Nictus_Hunter"
      ]
    },
    {
      "level": 24,
      "experience": 0,
      "display_names": [
        "Void Seeker"
      ],
      "costumes": [
        "Nictus_Hunter"
      ]
    },
    {
      "level": 25,
      "experience": 0,
      "display_names": [
        "Void Seeker"
      ],
      "costumes": [
        "Nictus_Hunter"
      ]
    },
    {
      "level": 26,
      "experience": 0,
      "display_names": [
        "Void Seeker"
      ],
      "costumes": [
        "Nictus_Hunter"
      ]
    },
    {
      "level": 27,
      "experience": 0,
      "display_names": [
        "Void Seeker"
      ],
      "costumes": [
        "Nictus_Hunter"
      ]
    },
    {
      "level": 28,
      "experience": 0,
      "display_names": [
        "Void Seeker"
      ],
      "costumes": [
        "Nictus_Hunter"
      ]
    },
    {
      "level": 29,
      "experience": 0,
      "display_names": [
        "Void Seeker"
      ],
      "costumes": [
        "Nictus_Hunter"
      ]
    },
    {
      "level": 30,
      "experience": 0,
      "display_names": [
        "Void Seeker"
      ],
      "costumes": [
        "Nictus_Hunter"
      ]
    },
    {
      "level": 31,
      "experience": 0,
      "display_names": [
        "Void Seeker"
      ],
      "costumes": [
        "Nictus_Hunter"
      ]
    },
    {
      "level": 32,
      "experience": 0,
      "display_names": [
        "Void Seeker"
      ],
      "costumes": [
        "Nictus_Hunter"
      ]
    },
    {
      "level": 33,
      "experience": 0,
      "display_names": [
        "Void Seeker"
      ],
      "costumes": [
        "Nictus_Hunter"
      ]
    },
    {
      "level": 34,
      "experience": 0,
      "display_names": [
        "Void Seeker"
      ],
      "costumes": [
        "Nictus_Hunter"
      ]
    },
    {
      "level": 35,
      "experience": 0,
      "display_names": [
        "Void Seeker"
      ],
      "costumes": [
        "Nictus_Hunter"
      ]
    },
    {
      "level": 36,
      "experience": 0,
      "display_names": [
        "Void Seeker"
      ],
      "costumes": [
        "Nictus_Hunter"
      ]
    },
    {
      "level": 37,
      "experience": 0,
      "display_names": [
        "Void Seeker"
      ],
      "costumes": [
        "Nictus_Hunter"
      ]
    },
    {
      "level": 38,
      "experience": 0,
      "display_names": [
        "Void Seeker"
      ],
      "costumes": [
        "Nictus_Hunter"
      ]
    },
    {
      "level": 39,
      "experience": 0,
      "display_names": [
        "Void Seeker"
      ],
      "costumes": [
        "Nictus_Hunter"
      ]
    },
    {
      "level": 40,
      "experience": 0,
      "display_names": [
        "Void Seeker"
      ],
      "costumes": [
        "Nictus_Hunter"
      ]
    },
    {
      "level": 41,
      "experience": 0,
      "display_names": [
        "Void Seeker"
      ],
      "costumes": [
        "Nictus_Hunter"
      ]
    },
    {
      "level": 42,
      "experience": 0,
      "display_names": [
        "Void Seeker"
      ],
      "costumes": [
        "Nictus_Hunter"
      ]
    },
    {
      "level": 43,
      "experience": 0,
      "display_names": [
        "Void Seeker"
      ],
      "costumes": [
        "Nictus_Hunter"
      ]
    },
    {
      "level": 44,
      "experience": 0,
      "display_names": [
        "Void Seeker"
      ],
      "costumes": [
        "Nictus_Hunter"
      ]
    },
    {
      "level": 45,
      "experience": 0,
      "display_names": [
        "Void Seeker"
      ],
      "costumes": [
        "Nictus_Hunter"
      ]
    },
    {
      "level": 46,
      "experience": 0,
      "display_names": [
        "Void Seeker"
      ],
      "costumes": [
        "Nictus_Hunter"
      ]
    },
    {
      "level": 47,
      "experience": 0,
      "display_names": [
        "Void Seeker"
      ],
      "costumes": [
        "Nictus_Hunter"
      ]
    },
    {
      "level": 48,
      "experience": 0,
      "display_names": [
        "Void Seeker"
      ],
      "costumes": [
        "Nictus_Hunter"
      ]
    },
    {
      "level": 49,
      "experience": 0,
      "display_names": [
        "Void Seeker"
      ],
      "costumes": [
        "Nictus_Hunter"
      ]
    },
    {
      "level": 50,
      "experience": 0,
      "display_names": [
        "Void Seeker"
      ],
      "costumes": [
        "Nictus_Hunter"
      ]
    },
    {
      "level": 51,
      "experience": 0,
      "display_names": [
        "Void Seeker"
      ],
      "costumes": [
        "Nictus_Hunter"
      ]
    },
    {
      "level": 52,
      "experience": 0,
      "display_names": [
        "Void Seeker"
      ],
      "costumes": [
        "Nictus_Hunter"
      ]
    },
    {
      "level": 53,
      "experience": 0,
      "display_names": [
        "Void Seeker"
      ],
      "costumes": [
        "Nictus_Hunter"
      ]
    },
    {
      "level": 54,
      "experience": 0,
      "display_names": [
        "Void Seeker"
      ],
      "costumes": [
        "Nictus_Hunter"
      ]
    }
  ]
}