{
  "name": "Nictus_Do_Not_Use_Except_For_Cutscene",
  "gender": "GENDER_MALE",
  "description": "These free-floating Nictus have been drawn to Earth from somewhere in the Cosmos, bridging the distance through a Shadow Cyst. They have not yet joined with or possessed a host, and normally could not survive on a planet's surface for long. However, the dark energies of the Shadow Cyst sustain them, allowing them to hunt for hosts on their own.",
  "group_description": null,
  "display_class_name": null,
  "character_class_name": "boss_grunt",
  "ai_config": "Default_Ranged",
  "commandable_pet": false,
  "power_tags": [
    "Nictus"
  ],
  "additional_rewards": [

  ],
  "skill_hp_rewards": [

  ],
  "skill_status_rewards": [

  ],
  "ally": null,
  "gang": null,
  "reward_scale": 1.0,
  "game_exclusion": "None",
  "inactive_state_weapon": null,
  "ignores_combat_mods": false,
  "copy_creator_mods": false,
  "spawn_limit": 0,
  "spawn_limit_mission": 0,
  "ignore_av_to_eb_scaling": false,
  "can_zone": false,
  "custom_badge_stat": null,
  "badge_stat_flags": "DefaultBadgeStat",
  "rank": "VR_PET",
  "power_full_names": [
    "Temporary_Powers.Temporary_Powers.Nictus_Transformation"
  ],
  "power_display_names": [
    "Nictus Transformation"
  ],
  "power_levels": [
    0
  ],
  "powers": [
    {
      "power_category": "Temporary_Powers",
      "power_set": "Temporary_Powers",
      "power": "Nictus_Transformation",
      "level": 0
    }
  ],
  "levels": [
    {
      "level": 1,
      "experience": 0,
      "display_names": [
        "Greater Unbound Nictus"
      ],
      "costumes": [
        "Nictus_RomulusTransformation"
      ]
    },
    {
      "level": 2,
      "experience": 0,
      "display_names": [
        "Greater Unbound Nictus"
      ],
      "costumes": [
        "Nictus_RomulusTransformation"
      ]
    },
    {
      "level": 3,
      "experience": 0,
      "display_names": [
        "Greater Unbound Nictus"
      ],
      "costumes": [
        "Nictus_RomulusTransformation"
      ]
    },
    {
      "level": 4,
      "experience": 0,
      "display_names": [
        "Greater Unbound Nictus"
      ],
      "costumes": [
        "Nictus_RomulusTransformation"
      ]
    },
    {
      "level": 5,
      "experience": 0,
      "display_names": [
        "Greater Unbound Nictus"
      ],
      "costumes": [
        "Nictus_RomulusTransformation"
      ]
    },
    {
      "level": 6,
      "experience": 0,
      "display_names": [
        "Greater Unbound Nictus"
      ],
      "costumes": [
        "Nictus_RomulusTransformation"
      ]
    },
    {
      "level": 7,
      "experience": 0,
      "display_names": [
        "Greater Unbound Nictus"
      ],
      "costumes": [
        "Nictus_RomulusTransformation"
      ]
    },
    {
      "level": 8,
      "experience": 0,
      "display_names": [
        "Greater Unbound Nictus"
      ],
      "costumes": [
        "Nictus_RomulusTransformation"
      ]
    },
    {
      "level": 9,
      "experience": 0,
      "display_names": [
        "Greater Unbound Nictus"
      ],
      "costumes": [
        "Nictus_RomulusTransformation"
      ]
    },
    {
      "level": 10,
      "experience": 0,
      "display_names": [
        "Greater Unbound Nictus"
      ],
      "costumes": [
        "Nictus_RomulusTransformation"
      ]
    },
    {
      "level": 11,
      "experience": 0,
      "display_names": [
        "Greater Unbound Nictus"
      ],
      "costumes": [
        "Nictus_RomulusTransformation"
      ]
    },
    {
      "level": 12,
      "experience": 0,
      "display_names": [
        "Greater Unbound Nictus"
      ],
      "costumes": [
        "Nictus_RomulusTransformation"
      ]
    },
    {
      "level": 13,
      "experience": 0,
      "display_names": [
        "Greater Unbound Nictus"
      ],
      "costumes": [
        "Nictus_RomulusTransformation"
      ]
    },
    {
      "level": 14,
      "experience": 0,
      "display_names": [
        "Greater Unbound Nictus"
      ],
      "costumes": [
        "Nictus_RomulusTransformation"
      ]
    },
    {
      "level": 15,
      "experience": 0,
      "display_names": [
        "Greater Unbound Nictus"
      ],
      "costumes": [
        "Nictus_RomulusTransformation"
      ]
    },
    {
      "level": 16,
      "experience": 0,
      "display_names": [
        "Greater Unbound Nictus"
      ],
      "costumes": [
        "Nictus_RomulusTransformation"
      ]
    },
    {
      "level": 17,
      "experience": 0,
      "display_names": [
        "Greater Unbound Nictus"
      ],
      "costumes": [
        "Nictus_RomulusTransformation"
      ]
    },
    {
      "level": 18,
      "experience": 0,
      "display_names": [
        "Greater Unbound Nictus"
      ],
      "costumes": [
        "Nictus_RomulusTransformation"
      ]
    },
    {
      "level": 19,
      "experience": 0,
      "display_names": [
        "Greater Unbound Nictus"
      ],
      "costumes": [
        "Nictus_RomulusTransformation"
      ]
    },
    {
      "level": 20,
      "experience": 0,
      "display_names": [
        "Greater Unbound Nictus"
      ],
      "costumes": [
        "Nictus_RomulusTransformation"
      ]
    },
    {
      "level": 21,
      "experience": 0,
      "display_names": [
        "Greater Unbound Nictus"
      ],
      "costumes": [
        "Nictus_RomulusTransformation"
      ]
    },
    {
      "level": 22,
      "experience": 0,
      "display_names": [
        "Greater Unbound Nictus"
      ],
      "costumes": [
        "Nictus_RomulusTransformation"
      ]
    },
    {
      "level": 23,
      "experience": 0,
      "display_names": [
        "Greater Unbound Nictus"
      ],
      "costumes": [
        "Nictus_RomulusTransformation"
      ]
    },
    {
      "level": 24,
      "experience": 0,
      "display_names": [
        "Greater Unbound Nictus"
      ],
      "costumes": [
        "Nictus_RomulusTransformation"
      ]
    },
    {
      "level": 25,
      "experience": 0,
      "display_names": [
        "Greater Unbound Nictus"
      ],
      "costumes": [
        "Nictus_RomulusTransformation"
      ]
    },
    {
      "level": 26,
      "experience": 0,
      "display_names": [
        "Greater Unbound Nictus"
      ],
      "costumes": [
        "Nictus_RomulusTransformation"
      ]
    },
    {
      "level": 27,
      "experience": 0,
      "display_names": [
        "Greater Unbound Nictus"
      ],
      "costumes": [
        "Nictus_RomulusTransformation"
      ]
    },
    {
      "level": 28,
      "experience": 0,
      "display_names": [
        "Greater Unbound Nictus"
      ],
      "costumes": [
        "Nictus_RomulusTransformation"
      ]
    },
    {
      "level": 29,
      "experience": 0,
      "display_names": [
        "Greater Unbound Nictus"
      ],
      "costumes": [
        "Nictus_RomulusTransformation"
      ]
    },
    {
      "level": 30,
      "experience": 0,
      "display_names": [
        "Greater Unbound Nictus"
      ],
      "costumes": [
        "Nictus_RomulusTransformation"
      ]
    },
    {
      "level": 31,
      "experience": 0,
      "display_names": [
        "Greater Unbound Nictus"
      ],
      "costumes": [
        "Nictus_RomulusTransformation"
      ]
    },
    {
      "level": 32,
      "experience": 0,
      "display_names": [
        "Greater Unbound Nictus"
      ],
      "costumes": [
        "Nictus_RomulusTransformation"
      ]
    },
    {
      "level": 33,
      "experience": 0,
      "display_names": [
        "Greater Unbound Nictus"
      ],
      "costumes": [
        "Nictus_RomulusTransformation"
      ]
    },
    {
      "level": 34,
      "experience": 0,
      "display_names": [
        "Greater Unbound Nictus"
      ],
      "costumes": [
        "Nictus_RomulusTransformation"
      ]
    },
    {
      "level": 35,
      "experience": 0,
      "display_names": [
        "Greater Unbound Nictus"
      ],
      "costumes": [
        "Nictus_RomulusTransformation"
      ]
    },
    {
      "level": 36,
      "experience": 0,
      "display_names": [
        "Greater Unbound Nictus"
      ],
      "costumes": [
        "Nictus_RomulusTransformation"
      ]
    },
    {
      "level": 37,
      "experience": 0,
      "display_names": [
        "Greater Unbound Nictus"
      ],
      "costumes": [
        "Nictus_RomulusTransformation"
      ]
    },
    {
      "level": 38,
      "experience": 0,
      "display_names": [
        "Greater Unbound Nictus"
      ],
      "costumes": [
        "Nictus_RomulusTransformation"
      ]
    },
    {
      "level": 39,
      "experience": 0,
      "display_names": [
        "Greater Unbound Nictus"
      ],
      "costumes": [
        "Nictus_RomulusTransformation"
      ]
    },
    {
      "level": 40,
      "experience": 0,
      "display_names": [
        "Greater Unbound Nictus"
      ],
      "costumes": [
        "Nictus_RomulusTransformation"
      ]
    },
    {
      "level": 41,
      "experience": 0,
      "display_names": [
        "Greater Unbound Nictus"
      ],
      "costumes": [
        "Nictus_RomulusTransformation"
      ]
    },
    {
      "level": 42,
      "experience": 0,
      "display_names": [
        "Greater Unbound Nictus"
      ],
      "costumes": [
        "Nictus_RomulusTransformation"
      ]
    },
    {
      "level": 43,
      "experience": 0,
      "display_names": [
        "Greater Unbound Nictus"
      ],
      "costumes": [
        "Nictus_RomulusTransformation"
      ]
    },
    {
      "level": 44,
      "experience": 0,
      "display_names": [
        "Greater Unbound Nictus"
      ],
      "costumes": [
        "Nictus_RomulusTransformation"
      ]
    },
    {
      "level": 45,
      "experience": 0,
      "display_names": [
        "Greater Unbound Nictus"
      ],
      "costumes": [
        "Nictus_RomulusTransformation"
      ]
    },
    {
      "level": 46,
      "experience": 0,
      "display_names": [
        "Greater Unbound Nictus"
      ],
      "costumes": [
        "Nictus_RomulusTransformation"
      ]
    },
    {
      "level": 47,
      "experience": 0,
      "display_names": [
        "Greater Unbound Nictus"
      ],
      "costumes": [
        "Nictus_RomulusTransformation"
      ]
    },
    {
      "level": 48,
      "experience": 0,
      "display_names": [
        "Greater Unbound Nictus"
      ],
      "costumes": [
        "Nictus_RomulusTransformation"
      ]
    },
    {
      "level": 49,
      "experience": 0,
      "display_names": [
        "Greater Unbound Nictus"
      ],
      "costumes": [
        "Nictus_RomulusTransformation"
      ]
    },
    {
      "level": 50,
      "experience": 0,
      "display_names": [
        "Greater Unbound Nictus"
      ],
      "costumes": [
        "Nictus_RomulusTransformation"
      ]
    },
    {
      "level": 51,
      "experience": 0,
      "display_names": [
        "Greater Unbound Nictus"
      ],
      "costumes": [
        "Nictus_RomulusTransformation"
      ]
    },
    {
      "level": 52,
      "experience": 0,
      "display_names": [
        "Greater Unbound Nictus"
      ],
      "costumes": [
        "Nictus_RomulusTransformation"
      ]
    },
    {
      "level": 53,
      "experience": 0,
      "display_names": [
        "Greater Unbound Nictus"
      ],
      "costumes": [
        "Nictus_RomulusTransformation"
      ]
    },
    {
      "level": 54,
      "experience": 0,
      "display_names": [
        "Greater Unbound Nictus"
      ],
      "costumes": [
        "Nictus_RomulusTransformation"
      ]
    }
  ]
}