{
  "name": "NPC_Civilians_Professor_Lovelethe",
  "gender": "GENDER_MALE",
  "description": "This esteemed scientist was captured by the Devouring Earth. His partner, Dr. Theron, is still missing.",
  "group_description": "Scientist",
  "display_class_name": "Lieutenant",
  "character_class_name": "minion_pets",
  "ai_config": "Default_Ranged",
  "commandable_pet": false,
  "power_tags": [
    "HumanSkeleton",
    "Human"
  ],
  "additional_rewards": [

  ],
  "skill_hp_rewards": [

  ],
  "skill_status_rewards": [

  ],
  "ally": null,
  "gang": null,
  "reward_scale": 1.0,
  "game_exclusion": "None",
  "inactive_state_weapon": null,
  "ignores_combat_mods": false,
  "copy_creator_mods": false,
  "spawn_limit": 0,
  "spawn_limit_mission": 0,
  "ignore_av_to_eb_scaling": false,
  "can_zone": false,
  "custom_badge_stat": null,
  "badge_stat_flags": "DefaultBadgeStat",
  "rank": "VR_PET",
  "power_full_names": [
    "Mission_Pets.Professor_LoveLethe.Tranq_Dart",
    "Mission_Pets.Professor_LoveLethe.Mass_Hypnosis",
    "Mission_Pets.Professor_LoveLethe.Dominate"
  ],
  "power_display_names": [
    "Tranq Dart",
    "Mass Hypnosis",
    "Dominate"
  ],
  "power_levels": [
    0,
    0,
    0
  ],
  "powers": [
    {
      "power_category": "Mission_Pets",
      "power_set": "Professor_Lovelethe",
      "power": "*",
      "level": 0
    }
  ],
  "levels": [
    {
      "level": 1,
      "experience": 0,
      "display_names": [
        "Professor Lovelethe"
      ],
      "costumes": [
        "Model_RichardTodd"
      ]
    },
    {
      "level": 2,
      "experience": 0,
      "display_names": [
        "Professor Lovelethe"
      ],
      "costumes": [
        "Model_RichardTodd"
      ]
    },
    {
      "level": 3,
      "experience": 0,
      "display_names": [
        "Professor Lovelethe"
      ],
      "costumes": [
        "Model_RichardTodd"
      ]
    },
    {
      "level": 4,
      "experience": 0,
      "display_names": [
        "Professor Lovelethe"
      ],
      "costumes": [
        "Model_RichardTodd"
      ]
    },
    {
      "level": 5,
      "experience": 0,
      "display_names": [
        "Professor Lovelethe"
      ],
      "costumes": [
        "Model_RichardTodd"
      ]
    },
    {
      "level": 6,
      "experience": 0,
      "display_names": [
        "Professor Lovelethe"
      ],
      "costumes": [
        "Model_RichardTodd"
      ]
    },
    {
      "level": 7,
      "experience": 0,
      "display_names": [
        "Professor Lovelethe"
      ],
      "costumes": [
        "Model_RichardTodd"
      ]
    },
    {
      "level": 8,
      "experience": 0,
      "display_names": [
        "Professor Lovelethe"
      ],
      "costumes": [
        "Model_RichardTodd"
      ]
    },
    {
      "level": 9,
      "experience": 0,
      "display_names": [
        "Professor Lovelethe"
      ],
      "costumes": [
        "Model_RichardTodd"
      ]
    },
    {
      "level": 10,
      "experience": 0,
      "display_names": [
        "Professor Lovelethe"
      ],
      "costumes": [
        "Model_RichardTodd"
      ]
    },
    {
      "level": 11,
      "experience": 0,
      "display_names": [
        "Professor Lovelethe"
      ],
      "costumes": [
        "Model_RichardTodd"
      ]
    },
    {
      "level": 12,
      "experience": 0,
      "display_names": [
        "Professor Lovelethe"
      ],
      "costumes": [
        "Model_RichardTodd"
      ]
    },
    {
      "level": 13,
      "experience": 0,
      "display_names": [
        "Professor Lovelethe"
      ],
      "costumes": [
        "Model_RichardTodd"
      ]
    },
    {
      "level": 14,
      "experience": 0,
      "display_names": [
        "Professor Lovelethe"
      ],
      "costumes": [
        "Model_RichardTodd"
      ]
    },
    {
      "level": 15,
      "experience": 0,
      "display_names": [
        "Professor Lovelethe"
      ],
      "costumes": [
        "Model_RichardTodd"
      ]
    },
    {
      "level": 16,
      "experience": 0,
      "display_names": [
        "Professor Lovelethe"
      ],
      "costumes": [
        "Model_RichardTodd"
      ]
    },
    {
      "level": 17,
      "experience": 0,
      "display_names": [
        "Professor Lovelethe"
      ],
      "costumes": [
        "Model_RichardTodd"
      ]
    },
    {
      "level": 18,
      "experience": 0,
      "display_names": [
        "Professor Lovelethe"
      ],
      "costumes": [
        "Model_RichardTodd"
      ]
    },
    {
      "level": 19,
      "experience": 0,
      "display_names": [
        "Professor Lovelethe"
      ],
      "costumes": [
        "Model_RichardTodd"
      ]
    },
    {
      "level": 20,
      "experience": 0,
      "display_names": [
        "Professor Lovelethe"
      ],
      "costumes": [
        "Model_RichardTodd"
      ]
    },
    {
      "level": 21,
      "experience": 0,
      "display_names": [
        "Professor Lovelethe"
      ],
      "costumes": [
        "Model_RichardTodd"
      ]
    },
    {
      "level": 22,
      "experience": 0,
      "display_names": [
        "Professor Lovelethe"
      ],
      "costumes": [
        "Model_RichardTodd"
      ]
    },
    {
      "level": 23,
      "experience": 0,
      "display_names": [
        "Professor Lovelethe"
      ],
      "costumes": [
        "Model_RichardTodd"
      ]
    },
    {
      "level": 24,
      "experience": 0,
      "display_names": [
        "Professor Lovelethe"
      ],
      "costumes": [
        "Model_RichardTodd"
      ]
    },
    {
      "level": 25,
      "experience": 0,
      "display_names": [
        "Professor Lovelethe"
      ],
      "costumes": [
        "Model_RichardTodd"
      ]
    },
    {
      "level": 26,
      "experience": 0,
      "display_names": [
        "Professor Lovelethe"
      ],
      "costumes": [
        "Model_RichardTodd"
      ]
    },
    {
      "level": 27,
      "experience": 0,
      "display_names": [
        "Professor Lovelethe"
      ],
      "costumes": [
        "Model_RichardTodd"
      ]
    },
    {
      "level": 28,
      "experience": 0,
      "display_names": [
        "Professor Lovelethe"
      ],
      "costumes": [
        "Model_RichardTodd"
      ]
    },
    {
      "level": 29,
      "experience": 0,
      "display_names": [
        "Professor Lovelethe"
      ],
      "costumes": [
        "Model_RichardTodd"
      ]
    },
    {
      "level": 30,
      "experience": 0,
      "display_names": [
        "Professor Lovelethe"
      ],
      "costumes": [
        "Model_RichardTodd"
      ]
    },
    {
      "level": 31,
      "experience": 0,
      "display_names": [
        "Professor Lovelethe"
      ],
      "costumes": [
        "Model_RichardTodd"
      ]
    },
    {
      "level": 32,
      "experience": 0,
      "display_names": [
        "Professor Lovelethe"
      ],
      "costumes": [
        "Model_RichardTodd"
      ]
    },
    {
      "level": 33,
      "experience": 0,
      "display_names": [
        "Professor Lovelethe"
      ],
      "costumes": [
        "Model_RichardTodd"
      ]
    },
    {
      "level": 34,
      "experience": 0,
      "display_names": [
        "Professor Lovelethe"
      ],
      "costumes": [
        "Model_RichardTodd"
      ]
    },
    {
      "level": 35,
      "experience": 0,
      "display_names": [
        "Professor Lovelethe"
      ],
      "costumes": [
        "Model_RichardTodd"
      ]
    },
    {
      "level": 36,
      "experience": 0,
      "display_names": [
        "Professor Lovelethe"
      ],
      "costumes": [
        "Model_RichardTodd"
      ]
    },
    {
      "level": 37,
      "experience": 0,
      "display_names": [
        "Professor Lovelethe"
      ],
      "costumes": [
        "Model_RichardTodd"
      ]
    },
    {
      "level": 38,
      "experience": 0,
      "display_names": [
        "Professor Lovelethe"
      ],
      "costumes": [
        "Model_RichardTodd"
      ]
    },
    {
      "level": 39,
      "experience": 0,
      "display_names": [
        "Professor Lovelethe"
      ],
      "costumes": [
        "Model_RichardTodd"
      ]
    },
    {
      "level": 40,
      "experience": 0,
      "display_names": [
        "Professor Lovelethe"
      ],
      "costumes": [
        "Model_RichardTodd"
      ]
    },
    {
      "level": 41,
      "experience": 0,
      "display_names": [
        "Professor Lovelethe"
      ],
      "costumes": [
        "Model_RichardTodd"
      ]
    },
    {
      "level": 42,
      "experience": 0,
      "display_names": [
        "Professor Lovelethe"
      ],
      "costumes": [
        "Model_RichardTodd"
      ]
    },
    {
      "level": 43,
      "experience": 0,
      "display_names": [
        "Professor Lovelethe"
      ],
      "costumes": [
        "Model_RichardTodd"
      ]
    },
    {
      "level": 44,
      "experience": 0,
      "display_names": [
        "Professor Lovelethe"
      ],
      "costumes": [
        "Model_RichardTodd"
      ]
    },
    {
      "level": 45,
      "experience": 0,
      "display_names": [
        "Professor Lovelethe"
      ],
      "costumes": [
        "Model_RichardTodd"
      ]
    },
    {
      "level": 46,
      "experience": 0,
      "display_names": [
        "Professor Lovelethe"
      ],
      "costumes": [
        "Model_RichardTodd"
      ]
    },
    {
      "level": 47,
      "experience": 0,
      "display_names": [
        "Professor Lovelethe"
      ],
      "costumes": [
        "Model_RichardTodd"
      ]
    },
    {
      "level": 48,
      "experience": 0,
      "display_names": [
        "Professor Lovelethe"
      ],
      "costumes": [
        "Model_RichardTodd"
      ]
    },
    {
      "level": 49,
      "experience": 0,
      "display_names": [
        "Professor Lovelethe"
      ],
      "costumes": [
        "Model_RichardTodd"
      ]
    },
    {
      "level": 50,
      "experience": 0,
      "display_names": [
        "Professor Lovelethe"
      ],
      "costumes": [
        "Model_RichardTodd"
      ]
    },
    {
      "level": 51,
      "experience": 0,
      "display_names": [
        "Professor Lovelethe"
      ],
      "costumes": [
        "Model_RichardTodd"
      ]
    },
    {
      "level": 52,
      "experience": 0,
      "display_names": [
        "Professor Lovelethe"
      ],
      "costumes": [
        "Model_RichardTodd"
      ]
    },
    {
      "level": 53,
      "experience": 0,
      "display_names": [
        "Professor Lovelethe"
      ],
      "costumes": [
        "Model_RichardTodd"
      ]
    },
    {
      "level": 54,
      "experience": 0,
      "display_names": [
        "Professor Lovelethe"
      ],
      "costumes": [
        "Model_RichardTodd"
      ]
    }
  ]
}