{
  "name": "Objects_MM_Trash_Can_Villain",
  "gender": "GENDER_MALE",
  "description": "A large outdoor trash can.",
  "group_description": "Object",
  "display_class_name": "Object",
  "character_class_name": "minion_small",
  "ai_config": "InanimateObject",
  "commandable_pet": false,
  "power_tags": [

  ],
  "additional_rewards": [

  ],
  "skill_hp_rewards": [

  ],
  "skill_status_rewards": [

  ],
  "ally": "Villain",
  "gang": null,
  "reward_scale": 0.0,
  "game_exclusion": "None",
  "inactive_state_weapon": null,
  "ignores_combat_mods": false,
  "copy_creator_mods": false,
  "spawn_limit": -1,
  "spawn_limit_mission": -1,
  "ignore_av_to_eb_scaling": false,
  "can_zone": false,
  "custom_badge_stat": null,
  "badge_stat_flags": "DefaultBadgeStat",
  "rank": "VR_DESTRUCTIBLE",
  "power_full_names": [
    "Objects.Inherent.Resistance",
    "Objects.Highly_Vulnerable.Resistance",
    "Objects.Mayhem_Mission_Defense.Defense"
  ],
  "power_display_names": [
    "Resistance",
    "Resistance",
    "Defense"
  ],
  "power_levels": [
    0,
    0,
    0
  ],
  "powers": [
    {
      "power_category": "Objects",
      "power_set": "Inherent",
      "power": "*",
      "level": 0
    },
    {
      "power_category": "Objects",
      "power_set": "Highly_Vulnerable",
      "power": "*",
      "level": 0
    },
    {
      "power_category": "Objects",
      "power_set": "Mayhem_Mission_Defense",
      "power": "*",
      "level": 0
    }
  ],
  "levels": [
    {
      "level": 5,
      "experience": 0,
      "display_names": [
        "Trash Can"
      ],
      "costumes": [
        "TrashCan"
      ]
    }
  ]
}