{
  "name": "Objects_Rikti_Grate",
  "gender": "GENDER_MALE",
  "description": "This grate covers important ship parts.",
  "group_description": "Object",
  "display_class_name": "Object",
  "character_class_name": "lt_grunt",
  "ai_config": "InanimateObject",
  "commandable_pet": false,
  "power_tags": [

  ],
  "additional_rewards": [

  ],
  "skill_hp_rewards": [

  ],
  "skill_status_rewards": [

  ],
  "ally": null,
  "gang": null,
  "reward_scale": 1.0,
  "game_exclusion": "None",
  "inactive_state_weapon": null,
  "ignores_combat_mods": false,
  "copy_creator_mods": false,
  "spawn_limit": -1,
  "spawn_limit_mission": -1,
  "ignore_av_to_eb_scaling": false,
  "can_zone": false,
  "custom_badge_stat": null,
  "badge_stat_flags": "DefaultBadgeStat",
  "rank": "VR_DESTRUCTIBLE",
  "power_full_names": [
    "Objects.Inherent.Resistance"
  ],
  "power_display_names": [
    "Resistance"
  ],
  "power_levels": [
    0
  ],
  "powers": [
    {
      "power_category": "Objects",
      "power_set": "Inherent",
      "power": "*",
      "level": 0
    }
  ],
  "levels": [
    {
      "level": 35,
      "experience": 0,
      "display_names": [
        "Grate"
      ],
      "costumes": [
        "Rikti_Ship_Grate"
      ]
    },
    {
      "level": 36,
      "experience": 0,
      "display_names": [
        "Grate"
      ],
      "costumes": [
        "Rikti_Ship_Grate"
      ]
    },
    {
      "level": 37,
      "experience": 0,
      "display_names": [
        "Grate"
      ],
      "costumes": [
        "Rikti_Ship_Grate"
      ]
    },
    {
      "level": 38,
      "experience": 0,
      "display_names": [
        "Grate"
      ],
      "costumes": [
        "Rikti_Ship_Grate"
      ]
    },
    {
      "level": 39,
      "experience": 0,
      "display_names": [
        "Grate"
      ],
      "costumes": [
        "Rikti_Ship_Grate"
      ]
    },
    {
      "level": 40,
      "experience": 0,
      "display_names": [
        "Grate"
      ],
      "costumes": [
        "Rikti_Ship_Grate"
      ]
    },
    {
      "level": 41,
      "experience": 0,
      "display_names": [
        "Grate"
      ],
      "costumes": [
        "Rikti_Ship_Grate"
      ]
    },
    {
      "level": 42,
      "experience": 0,
      "display_names": [
        "Grate"
      ],
      "costumes": [
        "Rikti_Ship_Grate"
      ]
    },
    {
      "level": 43,
      "experience": 0,
      "display_names": [
        "Grate"
      ],
      "costumes": [
        "Rikti_Ship_Grate"
      ]
    },
    {
      "level": 44,
      "experience": 0,
      "display_names": [
        "Grate"
      ],
      "costumes": [
        "Rikti_Ship_Grate"
      ]
    },
    {
      "level": 45,
      "experience": 0,
      "display_names": [
        "Grate"
      ],
      "costumes": [
        "Rikti_Ship_Grate"
      ]
    },
    {
      "level": 46,
      "experience": 0,
      "display_names": [
        "Grate"
      ],
      "costumes": [
        "Rikti_Ship_Grate"
      ]
    },
    {
      "level": 47,
      "experience": 0,
      "display_names": [
        "Grate"
      ],
      "costumes": [
        "Rikti_Ship_Grate"
      ]
    },
    {
      "level": 48,
      "experience": 0,
      "display_names": [
        "Grate"
      ],
      "costumes": [
        "Rikti_Ship_Grate"
      ]
    },
    {
      "level": 49,
      "experience": 0,
      "display_names": [
        "Grate"
      ],
      "costumes": [
        "Rikti_Ship_Grate"
      ]
    },
    {
      "level": 50,
      "experience": 0,
      "display_names": [
        "Grate"
      ],
      "costumes": [
        "Rikti_Ship_Grate"
      ]
    },
    {
      "level": 51,
      "experience": 0,
      "display_names": [
        "Grate"
      ],
      "costumes": [
        "Rikti_Ship_Grate"
      ]
    },
    {
      "level": 52,
      "experience": 0,
      "display_names": [
        "Grate"
      ],
      "costumes": [
        "Rikti_Ship_Grate"
      ]
    },
    {
      "level": 53,
      "experience": 0,
      "display_names": [
        "Grate"
      ],
      "costumes": [
        "Rikti_Ship_Grate"
      ]
    },
    {
      "level": 54,
      "experience": 0,
      "display_names": [
        "Grate"
      ],
      "costumes": [
        "Rikti_Ship_Grate"
      ]
    }
  ]
}