{
  "name": "Objects_DD_LifegivingEssence",
  "gender": "GENDER_MALE",
  "description": "As a master of death, Diabolique is able to coalesce the energy of all those defeated, destroyed or otherwise absorbed by Mot into swirling masses of lifegiving energy. She uses these essences to restore herself within the shadow realm, but they can only give her their boon if they survive long enough for her to consume them.",
  "group_description": "Essence",
  "display_class_name": null,
  "character_class_name": "lt_grunt",
  "ai_config": "Signatures_Ranged_AlwaysFly",
  "commandable_pet": false,
  "power_tags": [

  ],
  "additional_rewards": [

  ],
  "skill_hp_rewards": [

  ],
  "skill_status_rewards": [

  ],
  "ally": null,
  "gang": null,
  "reward_scale": 1.0,
  "game_exclusion": "None",
  "inactive_state_weapon": null,
  "ignores_combat_mods": false,
  "copy_creator_mods": false,
  "spawn_limit": 0,
  "spawn_limit_mission": 0,
  "ignore_av_to_eb_scaling": false,
  "can_zone": false,
  "custom_badge_stat": null,
  "badge_stat_flags": "DefaultBadgeStat",
  "rank": "VR_DESTRUCTIBLE",
  "power_full_names": [
    "DilemmaDiabolique.Lifegiving_Essence.Restoration",
    "GenericVillains.Flight.Fly"
  ],
  "power_display_names": [
    "Restoration",
    "Fly"
  ],
  "power_levels": [
    0,
    0
  ],
  "powers": [
    {
      "power_category": "DilemmaDiabolique",
      "power_set": "Lifegiving_Essence",
      "power": "*",
      "level": 0
    },
    {
      "power_category": "GenericVillains",
      "power_set": "Flight",
      "power": "Fly",
      "level": 0
    }
  ],
  "levels": [
    {
      "level": 54,
      "experience": 0,
      "display_names": [
        "Lifegiving Essence"
      ],
      "costumes": [
        "Lifegiving_Essence"
      ]
    }
  ]
}