{
  "name": "Objects_KR_Metal_Crate_Hero",
  "gender": "GENDER_MALE",
  "description": "This large crate is used to transport various types of goods.",
  "group_description": "Object",
  "display_class_name": "Object",
  "character_class_name": "minion_grunt",
  "ai_config": "InanimateObject",
  "commandable_pet": false,
  "power_tags": [

  ],
  "additional_rewards": [

  ],
  "skill_hp_rewards": [

  ],
  "skill_status_rewards": [

  ],
  "ally": "Hero",
  "gang": null,
  "reward_scale": 0.0,
  "game_exclusion": "None",
  "inactive_state_weapon": null,
  "ignores_combat_mods": false,
  "copy_creator_mods": false,
  "spawn_limit": -1,
  "spawn_limit_mission": -1,
  "ignore_av_to_eb_scaling": false,
  "can_zone": false,
  "custom_badge_stat": null,
  "badge_stat_flags": "DefaultBadgeStat",
  "rank": "VR_DESTRUCTIBLE",
  "power_full_names": [
    "Objects.Inherent.Resistance",
    "Objects.Mayhem_Mission_Defense.Defense",
    "Objects.Highly_Visible.Negative_Stealth"
  ],
  "power_display_names": [
    "Resistance",
    "Defense",
    "Negative Stealth"
  ],
  "power_levels": [
    0,
    0,
    0
  ],
  "powers": [
    {
      "power_category": "Objects",
      "power_set": "Inherent",
      "power": "*",
      "level": 0
    },
    {
      "power_category": "Objects",
      "power_set": "Mayhem_Mission_Defense",
      "power": "*",
      "level": 0
    },
    {
      "power_category": "Objects",
      "power_set": "Highly_Visible",
      "power": "*",
      "level": 0
    }
  ],
  "levels": [
    {
      "level": 10,
      "experience": 0,
      "display_names": [
        "Metal Crate"
      ],
      "costumes": [
        "V_Mayhem_Crates_Metal_Sml01",
        "V_Mayhem_Crates_Metal_Sml02",
        "V_Mayhem_Crates_Metal_Sml03"
      ]
    }
  ]
}