{
  "name": "Objects_ReviveNightStarAndSiege",
  "gender": "GENDER_MALE",
  "description": "This entity Revives Nightstar and Siege",
  "group_description": null,
  "display_class_name": "Object",
  "character_class_name": "minion_grunt",
  "ai_config": "InanimateObject",
  "commandable_pet": false,
  "power_tags": [

  ],
  "additional_rewards": [

  ],
  "skill_hp_rewards": [

  ],
  "skill_status_rewards": [

  ],
  "ally": null,
  "gang": null,
  "reward_scale": 1.0,
  "game_exclusion": "None",
  "inactive_state_weapon": null,
  "ignores_combat_mods": true,
  "copy_creator_mods": false,
  "spawn_limit": 0,
  "spawn_limit_mission": 0,
  "ignore_av_to_eb_scaling": false,
  "can_zone": false,
  "custom_badge_stat": null,
  "badge_stat_flags": "DefaultBadgeStat",
  "rank": "VR_DESTRUCTIBLE",
  "power_full_names": [
    "Objects.Inherent.Resistance",
    "Praetorians.Revive.Revive",
    "Praetorians.Revive.Cleanup"
  ],
  "power_display_names": [
    "Resistance",
    "Revive",
    "Cleanup"
  ],
  "power_levels": [
    0,
    0,
    0
  ],
  "powers": [
    {
      "power_category": "Objects",
      "power_set": "Inherent",
      "power": "*",
      "level": 0
    },
    {
      "power_category": "Praetorians",
      "power_set": "Revive",
      "power": "*",
      "level": 0
    }
  ],
  "levels": [
    {
      "level": 54,
      "experience": 0,
      "display_names": [
        "Revivication"
      ],
      "costumes": [
        "Puddle"
      ]
    }
  ]
}