{
  "name": "OnGoingTrainingCharacters_H_Flambeaux_EB",
  "gender": "GENDER_FEMALE",
  "description": "Flambeaux is a fiery-haired hero who developed a process to turn her body energies into biochemical fire she can project at her enemies.",
  "group_description": "Shining Stars",
  "display_class_name": null,
  "character_class_name": "boss_praetorianelite",
  "ai_config": "Default_Ranged",
  "commandable_pet": false,
  "power_tags": [
    "Humanoid",
    "HumanSkeleton"
  ],
  "additional_rewards": [

  ],
  "skill_hp_rewards": [

  ],
  "skill_status_rewards": [

  ],
  "ally": "Hero",
  "gang": null,
  "reward_scale": 1.0,
  "game_exclusion": "None",
  "inactive_state_weapon": null,
  "ignores_combat_mods": true,
  "copy_creator_mods": false,
  "spawn_limit": -1,
  "spawn_limit_mission": -1,
  "ignore_av_to_eb_scaling": false,
  "can_zone": false,
  "custom_badge_stat": null,
  "badge_stat_flags": "DefaultBadgeStat",
  "rank": "VR_BOSS",
  "power_full_names": [
    "OnGoingTrainingCharacters.Flambeaux_Powers.Flares",
    "OnGoingTrainingCharacters.Flambeaux_Powers.Fire_Blast",
    "OnGoingTrainingCharacters.Flambeaux_Powers.Fire_Ball",
    "OnGoingTrainingCharacters.Flambeaux_Powers.Fire_Sword",
    "OnGoingTrainingCharacters.Flambeaux_Powers.Fire_Breath"
  ],
  "power_display_names": [
    "Flares",
    "Fire Blast",
    "Fire Ball",
    "Fire Sword",
    "Fire Breath"
  ],
  "power_levels": [
    0,
    0,
    0,
    0,
    0
  ],
  "powers": [
    {
      "power_category": "OnGoingTrainingCharacters",
      "power_set": "Flambeaux_Powers",
      "power": "*",
      "level": 0
    }
  ],
  "levels": [
    {
      "level": 14,
      "experience": 0,
      "display_names": [
        "Flambeaux"
      ],
      "costumes": [
        "Model_Flambeaux"
      ]
    },
    {
      "level": 15,
      "experience": 0,
      "display_names": [
        "Flambeaux"
      ],
      "costumes": [
        "Model_Flambeaux"
      ]
    },
    {
      "level": 16,
      "experience": 0,
      "display_names": [
        "Flambeaux"
      ],
      "costumes": [
        "Model_Flambeaux"
      ]
    },
    {
      "level": 17,
      "experience": 0,
      "display_names": [
        "Flambeaux"
      ],
      "costumes": [
        "Model_Flambeaux"
      ]
    },
    {
      "level": 18,
      "experience": 0,
      "display_names": [
        "Flambeaux"
      ],
      "costumes": [
        "Model_Flambeaux"
      ]
    },
    {
      "level": 19,
      "experience": 0,
      "display_names": [
        "Flambeaux"
      ],
      "costumes": [
        "Model_Flambeaux"
      ]
    },
    {
      "level": 20,
      "experience": 0,
      "display_names": [
        "Flambeaux"
      ],
      "costumes": [
        "Model_Flambeaux"
      ]
    }
  ]
}