{
  "name": "ParagonPolice_Sergeant_Lt_High",
  "gender": "GENDER_MALE",
  "description": "The Paragon Police Department is charged with the unending duty of keeping the streets of the city safe for its citizens. These brave men and women watch over Paragon City, dedicating their lives to make it a better place.",
  "group_description": null,
  "display_class_name": null,
  "character_class_name": "lt_grunt",
  "ai_config": "Default_Ranged",
  "commandable_pet": false,
  "power_tags": [
    "Humanoid",
    "HumanSkeleton"
  ],
  "additional_rewards": [

  ],
  "skill_hp_rewards": [

  ],
  "skill_status_rewards": [

  ],
  "ally": "Hero",
  "gang": null,
  "reward_scale": 1.0,
  "game_exclusion": "None",
  "inactive_state_weapon": null,
  "ignores_combat_mods": false,
  "copy_creator_mods": false,
  "spawn_limit": 0,
  "spawn_limit_mission": 0,
  "ignore_av_to_eb_scaling": false,
  "can_zone": false,
  "custom_badge_stat": null,
  "badge_stat_flags": "DefaultBadgeStat",
  "rank": "VR_LIEUTENANT",
  "power_full_names": [
    "V_ParagonPolice.Police_Dual_Pistols.Single_Shot",
    "V_ParagonPolice.Police_Dual_Pistols.Double_Shot",
    "V_ParagonPolice.Police_Dual_Pistols.Wild_Shot"
  ],
  "power_display_names": [
    "Single Shot",
    "Double Shot",
    "Wild Shot"
  ],
  "power_levels": [
    0,
    0,
    0
  ],
  "powers": [
    {
      "power_category": "V_ParagonPolice",
      "power_set": "Police_Dual_Pistols",
      "power": "*",
      "level": 0
    }
  ],
  "levels": [
    {
      "level": 11,
      "experience": 0,
      "display_names": [
        "PPD Sergeant"
      ],
      "costumes": [
        "PPD_Sergeant_LT_01",
        "PPD_Sergeant_LT_02",
        "PPD_Sergeant_LT_03",
        "PPD_Sergeant_LT_04"
      ]
    },
    {
      "level": 12,
      "experience": 0,
      "display_names": [
        "PPD Sergeant"
      ],
      "costumes": [
        "PPD_Sergeant_LT_01",
        "PPD_Sergeant_LT_02",
        "PPD_Sergeant_LT_03",
        "PPD_Sergeant_LT_04"
      ]
    },
    {
      "level": 13,
      "experience": 0,
      "display_names": [
        "PPD Sergeant"
      ],
      "costumes": [
        "PPD_Sergeant_LT_01",
        "PPD_Sergeant_LT_02",
        "PPD_Sergeant_LT_03",
        "PPD_Sergeant_LT_04"
      ]
    },
    {
      "level": 14,
      "experience": 0,
      "display_names": [
        "PPD Sergeant"
      ],
      "costumes": [
        "PPD_Sergeant_LT_01",
        "PPD_Sergeant_LT_02",
        "PPD_Sergeant_LT_03",
        "PPD_Sergeant_LT_04"
      ]
    },
    {
      "level": 15,
      "experience": 0,
      "display_names": [
        "PPD Sergeant"
      ],
      "costumes": [
        "PPD_Sergeant_LT_01",
        "PPD_Sergeant_LT_02",
        "PPD_Sergeant_LT_03",
        "PPD_Sergeant_LT_04"
      ]
    },
    {
      "level": 16,
      "experience": 0,
      "display_names": [
        "PPD Sergeant"
      ],
      "costumes": [
        "PPD_Sergeant_LT_01",
        "PPD_Sergeant_LT_02",
        "PPD_Sergeant_LT_03",
        "PPD_Sergeant_LT_04"
      ]
    },
    {
      "level": 17,
      "experience": 0,
      "display_names": [
        "PPD Sergeant"
      ],
      "costumes": [
        "PPD_Sergeant_LT_01",
        "PPD_Sergeant_LT_02",
        "PPD_Sergeant_LT_03",
        "PPD_Sergeant_LT_04"
      ]
    },
    {
      "level": 18,
      "experience": 0,
      "display_names": [
        "PPD Sergeant"
      ],
      "costumes": [
        "PPD_Sergeant_LT_01",
        "PPD_Sergeant_LT_02",
        "PPD_Sergeant_LT_03",
        "PPD_Sergeant_LT_04"
      ]
    },
    {
      "level": 19,
      "experience": 0,
      "display_names": [
        "PPD Sergeant"
      ],
      "costumes": [
        "PPD_Sergeant_LT_01",
        "PPD_Sergeant_LT_02",
        "PPD_Sergeant_LT_03",
        "PPD_Sergeant_LT_04"
      ]
    },
    {
      "level": 20,
      "experience": 0,
      "display_names": [
        "PPD Sergeant"
      ],
      "costumes": [
        "PPD_Sergeant_LT_01",
        "PPD_Sergeant_LT_02",
        "PPD_Sergeant_LT_03",
        "PPD_Sergeant_LT_04"
      ]
    },
    {
      "level": 21,
      "experience": 0,
      "display_names": [
        "PPD Sergeant"
      ],
      "costumes": [
        "PPD_Sergeant_LT_01",
        "PPD_Sergeant_LT_02",
        "PPD_Sergeant_LT_03",
        "PPD_Sergeant_LT_04"
      ]
    },
    {
      "level": 22,
      "experience": 0,
      "display_names": [
        "PPD Sergeant"
      ],
      "costumes": [
        "PPD_Sergeant_LT_01",
        "PPD_Sergeant_LT_02",
        "PPD_Sergeant_LT_03",
        "PPD_Sergeant_LT_04"
      ]
    },
    {
      "level": 23,
      "experience": 0,
      "display_names": [
        "PPD Sergeant"
      ],
      "costumes": [
        "PPD_Sergeant_LT_01",
        "PPD_Sergeant_LT_02",
        "PPD_Sergeant_LT_03",
        "PPD_Sergeant_LT_04"
      ]
    },
    {
      "level": 24,
      "experience": 0,
      "display_names": [
        "PPD Sergeant"
      ],
      "costumes": [
        "PPD_Sergeant_LT_01",
        "PPD_Sergeant_LT_02",
        "PPD_Sergeant_LT_03",
        "PPD_Sergeant_LT_04"
      ]
    },
    {
      "level": 25,
      "experience": 0,
      "display_names": [
        "PPD Sergeant"
      ],
      "costumes": [
        "PPD_Sergeant_LT_01",
        "PPD_Sergeant_LT_02",
        "PPD_Sergeant_LT_03",
        "PPD_Sergeant_LT_04"
      ]
    }
  ]
}