{
  "name": "ParagonProtectors_Nictus_Hunter_Hero_Clone_Lt_Female",
  "gender": "GENDER_FEMALE",
  "description": "No one knows who these helmet clad heroes are, or where they come from. The only thing that's certain is their loyalty to Crey. The Power Paragon Protectors can generate powerful blasts of energy in both melee and ranged combat situations.",
  "group_description": null,
  "display_class_name": null,
  "character_class_name": "lt_grunt",
  "ai_config": "Nictus_Hunter",
  "commandable_pet": false,
  "power_tags": [
    "HumanSkeleton",
    "Human"
  ],
  "additional_rewards": [

  ],
  "skill_hp_rewards": [

  ],
  "skill_status_rewards": [

  ],
  "ally": null,
  "gang": null,
  "reward_scale": 1.4,
  "game_exclusion": "None",
  "inactive_state_weapon": null,
  "ignores_combat_mods": false,
  "copy_creator_mods": false,
  "spawn_limit": 0,
  "spawn_limit_mission": 0,
  "ignore_av_to_eb_scaling": false,
  "can_zone": false,
  "custom_badge_stat": null,
  "badge_stat_flags": "DefaultBadgeStat",
  "rank": "VR_LIEUTENANT",
  "power_full_names": [
    "Nictus.Hunter.Quantum_Array_gun",
    "Crey.Crey_Boss_Hero_Clone_Power.Dull_Pain",
    "Crey.Crey_Boss_Hero_Clone_Power.Moment_of_Glory",
    "Crey.Crey_Boss_Hero_Clone_Movement.Fly",
    "Crey.Crey_Boss_Hero_Clone_Movement.Fly_fx"
  ],
  "power_display_names": [
    "Quantum Array gun",
    "Dull Pain",
    "Moment of Glory",
    "Fly",
    "Fly fx"
  ],
  "power_levels": [
    0,
    0,
    0,
    0,
    0
  ],
  "powers": [
    {
      "power_category": "Nictus",
      "power_set": "Hunter",
      "power": "Quantum_Array_gun",
      "level": 0
    },
    {
      "power_category": "Crey",
      "power_set": "Crey_Boss_Hero_Clone_Power",
      "power": "Dull_Pain",
      "level": 0
    },
    {
      "power_category": "Crey",
      "power_set": "Crey_Boss_Hero_Clone_Power",
      "power": "Moment_of_Glory",
      "level": 0
    },
    {
      "power_category": "Crey",
      "power_set": "Crey_Boss_Hero_Clone_Movement",
      "power": "*",
      "level": 0
    }
  ],
  "levels": [
    {
      "level": 29,
      "experience": 0,
      "display_names": [
        "Quantum Paragon Protector"
      ],
      "costumes": [
        "CMR"
      ]
    },
    {
      "level": 30,
      "experience": 0,
      "display_names": [
        "Quantum Paragon Protector"
      ],
      "costumes": [
        "CFR"
      ]
    },
    {
      "level": 31,
      "experience": 0,
      "display_names": [
        "Quantum Paragon Protector"
      ],
      "costumes": [
        "CFR"
      ]
    },
    {
      "level": 32,
      "experience": 0,
      "display_names": [
        "Quantum Paragon Protector"
      ],
      "costumes": [
        "CFR"
      ]
    },
    {
      "level": 33,
      "experience": 0,
      "display_names": [
        "Quantum Paragon Protector"
      ],
      "costumes": [
        "CFR"
      ]
    },
    {
      "level": 34,
      "experience": 0,
      "display_names": [
        "Quantum Paragon Protector"
      ],
      "costumes": [
        "CFR"
      ]
    },
    {
      "level": 35,
      "experience": 0,
      "display_names": [
        "Quantum Paragon Protector"
      ],
      "costumes": [
        "CFR"
      ]
    },
    {
      "level": 36,
      "experience": 0,
      "display_names": [
        "Quantum Paragon Protector"
      ],
      "costumes": [
        "CFR"
      ]
    },
    {
      "level": 37,
      "experience": 0,
      "display_names": [
        "Quantum Paragon Protector"
      ],
      "costumes": [
        "CFR"
      ]
    },
    {
      "level": 38,
      "experience": 0,
      "display_names": [
        "Quantum Paragon Protector"
      ],
      "costumes": [
        "CFR"
      ]
    },
    {
      "level": 39,
      "experience": 0,
      "display_names": [
        "Quantum Paragon Protector"
      ],
      "costumes": [
        "CFR"
      ]
    },
    {
      "level": 40,
      "experience": 0,
      "display_names": [
        "Quantum Paragon Protector"
      ],
      "costumes": [
        "CFR"
      ]
    },
    {
      "level": 41,
      "experience": 0,
      "display_names": [
        "Quantum Paragon Protector"
      ],
      "costumes": [
        "CFR"
      ]
    },
    {
      "level": 42,
      "experience": 0,
      "display_names": [
        "Quantum Paragon Protector"
      ],
      "costumes": [
        "CFR"
      ]
    },
    {
      "level": 43,
      "experience": 0,
      "display_names": [
        "Quantum Paragon Protector"
      ],
      "costumes": [
        "CFR"
      ]
    },
    {
      "level": 44,
      "experience": 0,
      "display_names": [
        "Quantum Paragon Protector"
      ],
      "costumes": [
        "CFR"
      ]
    },
    {
      "level": 45,
      "experience": 0,
      "display_names": [
        "Quantum Paragon Protector"
      ],
      "costumes": [
        "CFR"
      ]
    },
    {
      "level": 46,
      "experience": 0,
      "display_names": [
        "Quantum Paragon Protector"
      ],
      "costumes": [
        "CFR"
      ]
    },
    {
      "level": 47,
      "experience": 0,
      "display_names": [
        "Quantum Paragon Protector"
      ],
      "costumes": [
        "CFR"
      ]
    },
    {
      "level": 48,
      "experience": 0,
      "display_names": [
        "Quantum Paragon Protector"
      ],
      "costumes": [
        "CFR"
      ]
    },
    {
      "level": 49,
      "experience": 0,
      "display_names": [
        "Quantum Paragon Protector"
      ],
      "costumes": [
        "CFR"
      ]
    },
    {
      "level": 50,
      "experience": 0,
      "display_names": [
        "Quantum Paragon Protector"
      ],
      "costumes": [
        "CFR"
      ]
    },
    {
      "level": 51,
      "experience": 0,
      "display_names": [
        "Quantum Paragon Protector"
      ],
      "costumes": [
        "CFR"
      ]
    },
    {
      "level": 52,
      "experience": 0,
      "display_names": [
        "Quantum Paragon Protector"
      ],
      "costumes": [
        "CFR"
      ]
    },
    {
      "level": 53,
      "experience": 0,
      "display_names": [
        "Quantum Paragon Protector"
      ],
      "costumes": [
        "CFR"
      ]
    },
    {
      "level": 54,
      "experience": 0,
      "display_names": [
        "Quantum Paragon Protector"
      ],
      "costumes": [
        "CFR"
      ]
    }
  ]
}