{
  "name": "ParagonPolice_Cop_Pistol_High",
  "gender": "GENDER_MALE",
  "description": "The Paragon Police Department is charged with the unending duty of keeping the streets of the city safe for its citizens. These brave men and women watch over Paragon City, dedicating their lives to make it a better place.",
  "group_description": null,
  "display_class_name": null,
  "character_class_name": "minion_grunt",
  "ai_config": "Default_Ranged",
  "commandable_pet": false,
  "power_tags": [
    "Humanoid",
    "HumanSkeleton"
  ],
  "additional_rewards": [

  ],
  "skill_hp_rewards": [

  ],
  "skill_status_rewards": [

  ],
  "ally": "Hero",
  "gang": null,
  "reward_scale": 1.0,
  "game_exclusion": "None",
  "inactive_state_weapon": null,
  "ignores_combat_mods": false,
  "copy_creator_mods": false,
  "spawn_limit": -1,
  "spawn_limit_mission": -1,
  "ignore_av_to_eb_scaling": false,
  "can_zone": false,
  "custom_badge_stat": null,
  "badge_stat_flags": "DefaultBadgeStat",
  "rank": "VR_MINION",
  "power_full_names": [
    "V_ParagonPolice.Police_Heavy_Pistol.Heavy_Pistol",
    "V_ParagonPolice.Police_Brawl.Brawl"
  ],
  "power_display_names": [
    "Heavy Pistol",
    "Brawl"
  ],
  "power_levels": [
    0,
    0
  ],
  "powers": [
    {
      "power_category": "V_ParagonPolice",
      "power_set": "Police_Heavy_Pistol",
      "power": "*",
      "level": 0
    },
    {
      "power_category": "V_ParagonPolice",
      "power_set": "Police_Brawl",
      "power": "*",
      "level": 0
    }
  ],
  "levels": [
    {
      "level": 6,
      "experience": 0,
      "display_names": [
        "PPD Cop"
      ],
      "costumes": [
        "PPD_Cop_01",
        "PPD_Cop_02",
        "PPD_Cop_03",
        "PPD_Cop_04",
        "PPD_Cop_05"
      ]
    },
    {
      "level": 7,
      "experience": 0,
      "display_names": [
        "PPD Cop"
      ],
      "costumes": [
        "PPD_Cop_01",
        "PPD_Cop_02",
        "PPD_Cop_03",
        "PPD_Cop_04",
        "PPD_Cop_05"
      ]
    },
    {
      "level": 8,
      "experience": 0,
      "display_names": [
        "PPD Cop"
      ],
      "costumes": [
        "PPD_Cop_01",
        "PPD_Cop_02",
        "PPD_Cop_03",
        "PPD_Cop_04",
        "PPD_Cop_05"
      ]
    },
    {
      "level": 9,
      "experience": 0,
      "display_names": [
        "PPD Cop"
      ],
      "costumes": [
        "PPD_Cop_01",
        "PPD_Cop_02",
        "PPD_Cop_03",
        "PPD_Cop_04",
        "PPD_Cop_05"
      ]
    },
    {
      "level": 10,
      "experience": 0,
      "display_names": [
        "PPD Cop"
      ],
      "costumes": [
        "PPD_Cop_01",
        "PPD_Cop_02",
        "PPD_Cop_03",
        "PPD_Cop_04",
        "PPD_Cop_05"
      ]
    }
  ]
}