{
  "name": "ParagonHeroes_Luna",
  "gender": "GENDER_FEMALE",
  "description": "",
  "group_description": "Paragon Heroes",
  "display_class_name": "Hero",
  "character_class_name": "boss_grunt",
  "ai_config": "Default_Ranged",
  "commandable_pet": false,
  "power_tags": [
    "Humanoid",
    "HumanSkeleton"
  ],
  "additional_rewards": [

  ],
  "skill_hp_rewards": [

  ],
  "skill_status_rewards": [

  ],
  "ally": "Hero",
  "gang": null,
  "reward_scale": 1.0,
  "game_exclusion": "None",
  "inactive_state_weapon": null,
  "ignores_combat_mods": false,
  "copy_creator_mods": false,
  "spawn_limit": 0,
  "spawn_limit_mission": 0,
  "ignore_av_to_eb_scaling": false,
  "can_zone": false,
  "custom_badge_stat": null,
  "badge_stat_flags": "DefaultBadgeStat",
  "rank": "VR_BOSS",
  "power_full_names": [
    "Mission_Maker_Attacks.Dual_Blades.Nimble_Slash",
    "Mission_Maker_Attacks.Dual_Blades.Power_Slice",
    "Mission_Maker_Attacks.Dual_Blades.Ablating_Strike",
    "Mission_Maker_Attacks.Dual_Blades.Throwing_Knives",
    "Mission_Maker_Attacks.Dual_Blades.Typhoons_Edge",
    "Mission_Maker_Attacks.Dual_Blades.Blinding_Feint",
    "Mission_Maker_Attacks.Dual_Blades.Vengeful_Slice",
    "Mission_Maker_Attacks.Dual_Blades.Sweeping_Strike",
    "Mission_Maker_Attacks.Dual_Blades.One_Thousand_Cuts",
    "Mission_Maker_Secondary.Regeneration.Fast_Healing",
    "Mission_Maker_Secondary.Regeneration.Reconstruction",
    "Mission_Maker_Secondary.Regeneration.Quick_Recovery",
    "Mission_Maker_Secondary.Regeneration.Dull_Pain",
    "Mission_Maker_Secondary.Regeneration.Integration",
    "Mission_Maker_Secondary.Regeneration.Resilience",
    "Mission_Maker_Secondary.Regeneration.Instant_Healing",
    "Mission_Maker_Secondary.Regeneration.Revive",
    "Mission_Maker_Secondary.Regeneration.Moment_of_Glory",
    "Mission_Maker_Movement.Flight.Fly"
  ],
  "power_display_names": [
    "Nimble Slash",
    "Power Slice",
    "Ablating Strike",
    "Throwing Knives",
    "Typhoon's Edge",
    "Blinding Feint",
    "Vengeful Slice",
    "Sweeping Strike",
    "One Thousand Cuts",
    "Fast Healing",
    "Reconstruction",
    "Quick Recovery",
    "Dull Pain",
    "Integration",
    "Resilience",
    "Instant Healing",
    "Revive",
    "Moment of Glory",
    "Fly"
  ],
  "power_levels": [
    0,
    0,
    0,
    0,
    0,
    0,
    0,
    0,
    0,
    0,
    0,
    0,
    0,
    0,
    0,
    0,
    0,
    0,
    0
  ],
  "powers": [
    {
      "power_category": "Mission_Maker_Attacks",
      "power_set": "Dual_Blades",
      "power": "*",
      "level": 0
    },
    {
      "power_category": "Mission_Maker_Secondary",
      "power_set": "Regeneration",
      "power": "*",
      "level": 0
    },
    {
      "power_category": "Mission_Maker_Movement",
      "power_set": "Flight",
      "power": "*",
      "level": 0
    }
  ],
  "levels": [
    {
      "level": 50,
      "experience": 0,
      "display_names": [
        "Luna"
      ],
      "costumes": [
        "Model_Luna_NoRing"
      ]
    }
  ]
}