{
  "name": "ParagonPolice_SWAT_Grenadier_Low",
  "gender": "GENDER_MALE",
  "description": "Keeping the peace in Paragon City is not easy by any stretch of the imagination, and the PPD has to be clever and innovative to keep up with would be criminals. When things get dicey, PPD SWAT answers the call. These heavily armored officers have extensive training with the newest tactics and weaponry to combat their often super powered foes.",
  "group_description": null,
  "display_class_name": null,
  "character_class_name": "boss_grunt",
  "ai_config": "Default_Ranged",
  "commandable_pet": false,
  "power_tags": [
    "Humanoid",
    "HumanSkeleton"
  ],
  "additional_rewards": [

  ],
  "skill_hp_rewards": [

  ],
  "skill_status_rewards": [

  ],
  "ally": "Hero",
  "gang": null,
  "reward_scale": 1.0,
  "game_exclusion": "None",
  "inactive_state_weapon": null,
  "ignores_combat_mods": false,
  "copy_creator_mods": false,
  "spawn_limit": -1,
  "spawn_limit_mission": -1,
  "ignore_av_to_eb_scaling": false,
  "can_zone": false,
  "custom_badge_stat": null,
  "badge_stat_flags": "DefaultBadgeStat",
  "rank": "VR_BOSS",
  "power_full_names": [
    "V_ParagonPolice.Grenade_Launcher.Grenade",
    "V_ParagonPolice.Grenade_Launcher.Heavy_Grenade",
    "V_ParagonPolice.SWAT_Resists.Resistances"
  ],
  "power_display_names": [
    "Grenade",
    "Heavy Grenade",
    "Resistances"
  ],
  "power_levels": [
    0,
    0,
    0
  ],
  "powers": [
    {
      "power_category": "V_ParagonPolice",
      "power_set": "Grenade_Launcher",
      "power": "Grenade",
      "level": 0
    },
    {
      "power_category": "V_ParagonPolice",
      "power_set": "Grenade_Launcher",
      "power": "Heavy_Grenade",
      "level": 0
    },
    {
      "power_category": "V_ParagonPolice",
      "power_set": "SWAT_Resists",
      "power": "*",
      "level": 0
    }
  ],
  "levels": [
    {
      "level": 16,
      "experience": 0,
      "display_names": [
        "SWAT Grenadier"
      ],
      "costumes": [
        "Swat_Grenadier"
      ]
    },
    {
      "level": 17,
      "experience": 0,
      "display_names": [
        "SWAT Grenadier"
      ],
      "costumes": [
        "Swat_Grenadier"
      ]
    },
    {
      "level": 18,
      "experience": 0,
      "display_names": [
        "SWAT Grenadier"
      ],
      "costumes": [
        "Swat_Grenadier"
      ]
    },
    {
      "level": 19,
      "experience": 0,
      "display_names": [
        "SWAT Grenadier"
      ],
      "costumes": [
        "Swat_Grenadier"
      ]
    },
    {
      "level": 20,
      "experience": 0,
      "display_names": [
        "SWAT Grenadier"
      ],
      "costumes": [
        "Swat_Grenadier"
      ]
    }
  ]
}