{
  "name": "ParagonHeroes_Polar_Shift",
  "gender": "GENDER_FEMALE",
  "description": "Polar Shift was orphaned when a tragic avalanche buried her parent's cabin. She barely survived by becoming one with the bone chilling ice, changing her life forever.",
  "group_description": "Paragon Heroes",
  "display_class_name": null,
  "character_class_name": "boss_grunt",
  "ai_config": "Default_Ranged",
  "commandable_pet": false,
  "power_tags": [
    "Humanoid",
    "HumanSkeleton"
  ],
  "additional_rewards": [

  ],
  "skill_hp_rewards": [

  ],
  "skill_status_rewards": [

  ],
  "ally": "Hero",
  "gang": null,
  "reward_scale": 1.0,
  "game_exclusion": "None",
  "inactive_state_weapon": null,
  "ignores_combat_mods": false,
  "copy_creator_mods": false,
  "spawn_limit": -1,
  "spawn_limit_mission": -1,
  "ignore_av_to_eb_scaling": false,
  "can_zone": false,
  "custom_badge_stat": null,
  "badge_stat_flags": "DefaultBadgeStat",
  "rank": "VR_BOSS",
  "power_full_names": [
    "V_GenericHeroes.Ice_Blaster_Low.Ice_Bolt",
    "V_GenericHeroes.Ice_Blaster_Low.Ice_Blast",
    "V_GenericHeroes.Ice_Blaster_Low.Fire_Sword",
    "V_GenericHeroes.Ice_Blaster_Low.Frost_Breath"
  ],
  "power_display_names": [
    "Ice Bolt",
    "Ice Blast",
    "Fire Sword",
    "Frost Breath"
  ],
  "power_levels": [
    0,
    0,
    0,
    0
  ],
  "powers": [
    {
      "power_category": "V_GenericHeroes",
      "power_set": "Ice_Blaster_Low",
      "power": "*",
      "level": 0
    }
  ],
  "levels": [
    {
      "level": 1,
      "experience": 0,
      "display_names": [
        "Polar Shift"
      ],
      "costumes": [
        "Model_Polar_Shift"
      ]
    },
    {
      "level": 2,
      "experience": 0,
      "display_names": [
        "Polar Shift"
      ],
      "costumes": [
        "Model_Polar_Shift"
      ]
    },
    {
      "level": 3,
      "experience": 0,
      "display_names": [
        "Polar Shift"
      ],
      "costumes": [
        "Model_Polar_Shift"
      ]
    },
    {
      "level": 4,
      "experience": 0,
      "display_names": [
        "Polar Shift"
      ],
      "costumes": [
        "Model_Polar_Shift"
      ]
    },
    {
      "level": 5,
      "experience": 0,
      "display_names": [
        "Polar Shift"
      ],
      "costumes": [
        "Model_Polar_Shift"
      ]
    },
    {
      "level": 6,
      "experience": 0,
      "display_names": [
        "Polar Shift"
      ],
      "costumes": [
        "Model_Polar_Shift"
      ]
    },
    {
      "level": 7,
      "experience": 0,
      "display_names": [
        "Polar Shift"
      ],
      "costumes": [
        "Model_Polar_Shift"
      ]
    },
    {
      "level": 8,
      "experience": 0,
      "display_names": [
        "Polar Shift"
      ],
      "costumes": [
        "Model_Polar_Shift"
      ]
    },
    {
      "level": 9,
      "experience": 0,
      "display_names": [
        "Polar Shift"
      ],
      "costumes": [
        "Model_Polar_Shift"
      ]
    },
    {
      "level": 10,
      "experience": 0,
      "display_names": [
        "Polar Shift"
      ],
      "costumes": [
        "Model_Polar_Shift"
      ]
    }
  ]
}