{
  "name": "ParagonHeroes_Ms_Shock_NoXP",
  "gender": "GENDER_FEMALE",
  "description": "Ms. Shock is a mutant with the ability to store and discharge electrical energy. She uses her powers to counter super-powered threats.",
  "group_description": "Paragon Heroes",
  "display_class_name": null,
  "character_class_name": "boss_grunt",
  "ai_config": "Default_Ranged",
  "commandable_pet": false,
  "power_tags": [
    "Humanoid",
    "HumanSkeleton"
  ],
  "additional_rewards": [

  ],
  "skill_hp_rewards": [

  ],
  "skill_status_rewards": [

  ],
  "ally": "Hero",
  "gang": null,
  "reward_scale": 0.0,
  "game_exclusion": "None",
  "inactive_state_weapon": null,
  "ignores_combat_mods": false,
  "copy_creator_mods": false,
  "spawn_limit": -1,
  "spawn_limit_mission": -1,
  "ignore_av_to_eb_scaling": false,
  "can_zone": false,
  "custom_badge_stat": null,
  "badge_stat_flags": "DefaultBadgeStat",
  "rank": "VR_BOSS",
  "power_full_names": [
    "V_GenericHeroes.Electric_Blaster_Low.Charged_Bolts",
    "V_GenericHeroes.Electric_Blaster_Low.Charged_Brawl",
    "V_GenericHeroes.Electric_Blaster_Low.Lightning_Bolt",
    "V_GenericHeroes.Electric_Blaster_Low.Ball_Lightning",
    "V_GenericHeroes.Electric_Blaster_Mid.Tesla_Cage",
    "V_GenericHeroes.Electric_Blaster_Mid.Havoc_Punch",
    "V_GenericHeroes.Electric_Blaster_High.Short_Circuit",
    "V_GenericHeroes.Hero_Flight.Fly",
    "V_GenericHeroes.Hero_Flight.Fly_fx"
  ],
  "power_display_names": [
    "Charged Bolts",
    "Charged Brawl",
    "Lightning Bolt",
    "Ball Lightning",
    "Tesla Cage",
    "Havoc Punch",
    "Short Circuit",
    "Fly",
    "Fly fx"
  ],
  "power_levels": [
    0,
    0,
    0,
    0,
    0,
    0,
    0,
    0,
    0
  ],
  "powers": [
    {
      "power_category": "V_GenericHeroes",
      "power_set": "Electric_Blaster_Low",
      "power": "*",
      "level": 0
    },
    {
      "power_category": "V_GenericHeroes",
      "power_set": "Electric_Blaster_Mid",
      "power": "*",
      "level": 0
    },
    {
      "power_category": "V_GenericHeroes",
      "power_set": "Electric_Blaster_High",
      "power": "*",
      "level": 0
    },
    {
      "power_category": "V_GenericHeroes",
      "power_set": "Hero_Flight",
      "power": "*",
      "level": 0
    }
  ],
  "levels": [
    {
      "level": 21,
      "experience": 0,
      "display_names": [
        "Ms. Shock"
      ],
      "costumes": [
        "Model_Ms_Shock"
      ]
    },
    {
      "level": 22,
      "experience": 0,
      "display_names": [
        "Ms. Shock"
      ],
      "costumes": [
        "Model_Ms_Shock"
      ]
    },
    {
      "level": 23,
      "experience": 0,
      "display_names": [
        "Ms. Shock"
      ],
      "costumes": [
        "Model_Ms_Shock"
      ]
    },
    {
      "level": 24,
      "experience": 0,
      "display_names": [
        "Ms. Shock"
      ],
      "costumes": [
        "Model_Ms_Shock"
      ]
    },
    {
      "level": 25,
      "experience": 0,
      "display_names": [
        "Ms. Shock"
      ],
      "costumes": [
        "Model_Ms_Shock"
      ]
    },
    {
      "level": 26,
      "experience": 0,
      "display_names": [
        "Ms. Shock"
      ],
      "costumes": [
        "Model_Ms_Shock"
      ]
    },
    {
      "level": 27,
      "experience": 0,
      "display_names": [
        "Ms. Shock"
      ],
      "costumes": [
        "Model_Ms_Shock"
      ]
    },
    {
      "level": 28,
      "experience": 0,
      "display_names": [
        "Ms. Shock"
      ],
      "costumes": [
        "Model_Ms_Shock"
      ]
    },
    {
      "level": 29,
      "experience": 0,
      "display_names": [
        "Ms. Shock"
      ],
      "costumes": [
        "Model_Ms_Shock"
      ]
    },
    {
      "level": 30,
      "experience": 0,
      "display_names": [
        "Ms. Shock"
      ],
      "costumes": [
        "Model_Ms_Shock"
      ]
    }
  ]
}