{
  "name": "ParagonPolice_PPD_Quantum",
  "gender": "GENDER_MALE",
  "description": "Though the PPD has vowed to protect the city without seeking alliances or help from the numerous hero organizations, they have created an elite and controversial unit out of desperation in order to handle the most powerful enemies. Carefully tested and screened officers have volunteered to merge with like minded Kheldians in order to augment their powers.Their effectiveness on the field is unparalleled. Few enemies can stand up to the might of even the lesser merged, let alone a full transcended Quantum.",
  "group_description": null,
  "display_class_name": null,
  "character_class_name": "boss_grunt",
  "ai_config": "Default_Ranged",
  "commandable_pet": false,
  "power_tags": [
    "Humanoid",
    "HumanSkeleton"
  ],
  "additional_rewards": [

  ],
  "skill_hp_rewards": [

  ],
  "skill_status_rewards": [

  ],
  "ally": "Hero",
  "gang": null,
  "reward_scale": 1.0,
  "game_exclusion": "None",
  "inactive_state_weapon": null,
  "ignores_combat_mods": false,
  "copy_creator_mods": false,
  "spawn_limit": -1,
  "spawn_limit_mission": -1,
  "ignore_av_to_eb_scaling": false,
  "can_zone": false,
  "custom_badge_stat": null,
  "badge_stat_flags": "DefaultBadgeStat",
  "rank": "VR_BOSS",
  "power_full_names": [
    "V_ParagonPolice.Awakened_Common.Gleaming_Blast",
    "V_ParagonPolice.Awakened_Common.Radiant_Strike",
    "V_ParagonPolice.Awakened_Common.Energy_Flight",
    "V_ParagonPolice.Awakened_Common.Incandescence",
    "V_ParagonPolice.Quantum.Restore_Essence",
    "V_ParagonPolice.Quantum.Proton_Scatter",
    "V_ParagonPolice.Quantum.Luminous_Detonation",
    "V_ParagonPolice.Quantum.Incandescent_Strike",
    "V_ParagonPolice.Quantum.Pulsar",
    "V_ParagonPolice.Quantum.Photon_Seekers",
    "V_ParagonPolice.Quantum.Shining_Shield",
    "V_ParagonPolice.Quantum.Maneuvers",
    "V_ParagonPolice.Quantum.Assault",
    "V_ParagonPolice.Quantum.Tactics",
    "V_ParagonPolice.Quantum.Light_Form",
    "V_ParagonPolice.Quantum.White_Dwarf"
  ],
  "power_display_names": [
    "Gleaming Blast",
    "Radiant Strike",
    "Energy Flight",
    "Incandescence",
    "Restore Essence",
    "Proton Scatter",
    "Luminous Detonation",
    "Incandescent Strike",
    "Pulsar",
    "Photon Seekers",
    "Shining Shield",
    "Maneuvers",
    "Assault",
    "Tactics",
    "Light Form",
    "White Dwarf"
  ],
  "power_levels": [
    0,
    0,
    0,
    0,
    0,
    0,
    0,
    0,
    0,
    0,
    0,
    0,
    0,
    0,
    0,
    0
  ],
  "powers": [
    {
      "power_category": "V_ParagonPolice",
      "power_set": "Awakened_Common",
      "power": "*",
      "level": 0
    },
    {
      "power_category": "V_ParagonPolice",
      "power_set": "Quantum",
      "power": "*",
      "level": 0
    }
  ],
  "levels": [
    {
      "level": 46,
      "experience": 0,
      "display_names": [
        "PPD Quantum"
      ],
      "costumes": [
        "PPD_Transcended_02"
      ]
    },
    {
      "level": 47,
      "experience": 0,
      "display_names": [
        "PPD Quantum"
      ],
      "costumes": [
        "PPD_Transcended_02"
      ]
    },
    {
      "level": 48,
      "experience": 0,
      "display_names": [
        "PPD Quantum"
      ],
      "costumes": [
        "PPD_Transcended_02"
      ]
    },
    {
      "level": 49,
      "experience": 0,
      "display_names": [
        "PPD Quantum"
      ],
      "costumes": [
        "PPD_Transcended_02"
      ]
    },
    {
      "level": 50,
      "experience": 0,
      "display_names": [
        "PPD Quantum"
      ],
      "costumes": [
        "PPD_Transcended_02"
      ]
    },
    {
      "level": 51,
      "experience": 0,
      "display_names": [
        "PPD Quantum"
      ],
      "costumes": [
        "PPD_Transcended_02"
      ]
    },
    {
      "level": 52,
      "experience": 0,
      "display_names": [
        "PPD Quantum"
      ],
      "costumes": [
        "PPD_Transcended_02"
      ]
    },
    {
      "level": 53,
      "experience": 0,
      "display_names": [
        "PPD Quantum"
      ],
      "costumes": [
        "PPD_Transcended_02"
      ]
    },
    {
      "level": 54,
      "experience": 0,
      "display_names": [
        "PPD Quantum"
      ],
      "costumes": [
        "PPD_Transcended_02"
      ]
    }
  ]
}