{
  "name": "Pets_Plant_Beast",
  "gender": "GENDER_MALE",
  "description": "These horrid perversions of normal flora have become one of the most identifiable monsters in the Devouring Earth's maniacal menagerie. In addition to their astonishing mobility, they can fire swarms of thorns at their enemies, tearing flesh to shreds in an instant.",
  "group_description": null,
  "display_class_name": null,
  "character_class_name": "minion_pets",
  "ai_config": "DevouringEarth_Minion",
  "commandable_pet": false,
  "power_tags": [

  ],
  "additional_rewards": [

  ],
  "skill_hp_rewards": [

  ],
  "skill_status_rewards": [

  ],
  "ally": null,
  "gang": null,
  "reward_scale": 1.0,
  "game_exclusion": "None",
  "inactive_state_weapon": null,
  "ignores_combat_mods": false,
  "copy_creator_mods": false,
  "spawn_limit": -1,
  "spawn_limit_mission": -1,
  "ignore_av_to_eb_scaling": false,
  "can_zone": false,
  "custom_badge_stat": null,
  "badge_stat_flags": "DefaultBadgeStat",
  "rank": "VR_PET",
  "power_full_names": [
    "DevouringEarth.Devouring_Earth_All_Melee.Pummel",
    "DevouringEarth.Devouring_Earth_Plant_Ranged.Thorn_Blast",
    "DevouringEarth.Devouring_Earth_Plant_Ranged.Spur",
    "DevouringEarth.Devouring_Earth_Plant_Defense.Resistance"
  ],
  "power_display_names": [
    "Pummel",
    "Thorn Blast",
    "Spur",
    "Resistance"
  ],
  "power_levels": [
    0,
    0,
    0,
    0
  ],
  "powers": [
    {
      "power_category": "DevouringEarth",
      "power_set": "Devouring_Earth_All_Melee",
      "power": "*",
      "level": 0
    },
    {
      "power_category": "DevouringEarth",
      "power_set": "Devouring_Earth_Plant_Ranged",
      "power": "*",
      "level": 0
    },
    {
      "power_category": "DevouringEarth",
      "power_set": "Devouring_Earth_Plant_Defense",
      "power": "*",
      "level": 0
    }
  ],
  "levels": [
    {
      "level": 1,
      "experience": 0,
      "display_names": [
        "Bladegrass"
      ],
      "costumes": [
        "Plant_Beast_01"
      ]
    },
    {
      "level": 2,
      "experience": 0,
      "display_names": [
        "Bladegrass"
      ],
      "costumes": [
        "Plant_Beast_01"
      ]
    },
    {
      "level": 3,
      "experience": 0,
      "display_names": [
        "Bladegrass"
      ],
      "costumes": [
        "Plant_Beast_01"
      ]
    },
    {
      "level": 4,
      "experience": 0,
      "display_names": [
        "Bladegrass"
      ],
      "costumes": [
        "Plant_Beast_01"
      ]
    },
    {
      "level": 5,
      "experience": 0,
      "display_names": [
        "Bladegrass"
      ],
      "costumes": [
        "Plant_Beast_01"
      ]
    },
    {
      "level": 6,
      "experience": 0,
      "display_names": [
        "Bladegrass"
      ],
      "costumes": [
        "Plant_Beast_01"
      ]
    },
    {
      "level": 7,
      "experience": 0,
      "display_names": [
        "Bladegrass"
      ],
      "costumes": [
        "Plant_Beast_01"
      ]
    },
    {
      "level": 8,
      "experience": 0,
      "display_names": [
        "Bladegrass"
      ],
      "costumes": [
        "Plant_Beast_01"
      ]
    },
    {
      "level": 9,
      "experience": 0,
      "display_names": [
        "Bladegrass"
      ],
      "costumes": [
        "Plant_Beast_01"
      ]
    },
    {
      "level": 10,
      "experience": 0,
      "display_names": [
        "Bladegrass"
      ],
      "costumes": [
        "Plant_Beast_01"
      ]
    },
    {
      "level": 11,
      "experience": 0,
      "display_names": [
        "Bladegrass"
      ],
      "costumes": [
        "Plant_Beast_01"
      ]
    },
    {
      "level": 12,
      "experience": 0,
      "display_names": [
        "Bladegrass"
      ],
      "costumes": [
        "Plant_Beast_01"
      ]
    },
    {
      "level": 13,
      "experience": 0,
      "display_names": [
        "Bladegrass"
      ],
      "costumes": [
        "Plant_Beast_01"
      ]
    },
    {
      "level": 14,
      "experience": 0,
      "display_names": [
        "Bladegrass"
      ],
      "costumes": [
        "Plant_Beast_01"
      ]
    },
    {
      "level": 15,
      "experience": 0,
      "display_names": [
        "Bladegrass"
      ],
      "costumes": [
        "Plant_Beast_01"
      ]
    },
    {
      "level": 16,
      "experience": 0,
      "display_names": [
        "Bladegrass"
      ],
      "costumes": [
        "Plant_Beast_01"
      ]
    },
    {
      "level": 17,
      "experience": 0,
      "display_names": [
        "Bladegrass"
      ],
      "costumes": [
        "Plant_Beast_01"
      ]
    },
    {
      "level": 18,
      "experience": 0,
      "display_names": [
        "Bladegrass"
      ],
      "costumes": [
        "Plant_Beast_01"
      ]
    },
    {
      "level": 19,
      "experience": 0,
      "display_names": [
        "Bladegrass"
      ],
      "costumes": [
        "Plant_Beast_01"
      ]
    },
    {
      "level": 20,
      "experience": 0,
      "display_names": [
        "Bladegrass"
      ],
      "costumes": [
        "Plant_Beast_01"
      ]
    },
    {
      "level": 21,
      "experience": 0,
      "display_names": [
        "Bladegrass"
      ],
      "costumes": [
        "Plant_Beast_01"
      ]
    },
    {
      "level": 22,
      "experience": 0,
      "display_names": [
        "Bladegrass"
      ],
      "costumes": [
        "Plant_Beast_01"
      ]
    },
    {
      "level": 23,
      "experience": 0,
      "display_names": [
        "Bladegrass"
      ],
      "costumes": [
        "Plant_Beast_01"
      ]
    },
    {
      "level": 24,
      "experience": 0,
      "display_names": [
        "Bladegrass"
      ],
      "costumes": [
        "Plant_Beast_01"
      ]
    },
    {
      "level": 25,
      "experience": 0,
      "display_names": [
        "Bladegrass"
      ],
      "costumes": [
        "Plant_Beast_01"
      ]
    },
    {
      "level": 26,
      "experience": 0,
      "display_names": [
        "Bladegrass"
      ],
      "costumes": [
        "Plant_Beast_01"
      ]
    },
    {
      "level": 27,
      "experience": 0,
      "display_names": [
        "Bladegrass"
      ],
      "costumes": [
        "Plant_Beast_01"
      ]
    },
    {
      "level": 28,
      "experience": 0,
      "display_names": [
        "Bladegrass"
      ],
      "costumes": [
        "Plant_Beast_01"
      ]
    },
    {
      "level": 29,
      "experience": 0,
      "display_names": [
        "Bladegrass"
      ],
      "costumes": [
        "Plant_Beast_01"
      ]
    },
    {
      "level": 30,
      "experience": 0,
      "display_names": [
        "Bladegrass"
      ],
      "costumes": [
        "Plant_Beast_01"
      ]
    },
    {
      "level": 31,
      "experience": 0,
      "display_names": [
        "Razorvine"
      ],
      "costumes": [
        "Plant_Beast_02"
      ]
    },
    {
      "level": 32,
      "experience": 0,
      "display_names": [
        "Razorvine"
      ],
      "costumes": [
        "Plant_Beast_02"
      ]
    },
    {
      "level": 33,
      "experience": 0,
      "display_names": [
        "Razorvine"
      ],
      "costumes": [
        "Plant_Beast_02"
      ]
    },
    {
      "level": 34,
      "experience": 0,
      "display_names": [
        "Razorvine"
      ],
      "costumes": [
        "Plant_Beast_02"
      ]
    },
    {
      "level": 35,
      "experience": 0,
      "display_names": [
        "Razorvine"
      ],
      "costumes": [
        "Plant_Beast_02"
      ]
    },
    {
      "level": 36,
      "experience": 0,
      "display_names": [
        "Razorvine"
      ],
      "costumes": [
        "Plant_Beast_02"
      ]
    },
    {
      "level": 37,
      "experience": 0,
      "display_names": [
        "Blackrose"
      ],
      "costumes": [
        "Plant_Beast_03"
      ]
    },
    {
      "level": 38,
      "experience": 0,
      "display_names": [
        "Blackrose"
      ],
      "costumes": [
        "Plant_Beast_03"
      ]
    },
    {
      "level": 39,
      "experience": 0,
      "display_names": [
        "Blackrose"
      ],
      "costumes": [
        "Plant_Beast_03"
      ]
    },
    {
      "level": 40,
      "experience": 0,
      "display_names": [
        "Blackrose"
      ],
      "costumes": [
        "Plant_Beast_03"
      ]
    },
    {
      "level": 41,
      "experience": 0,
      "display_names": [
        "Blackrose"
      ],
      "costumes": [
        "Plant_Beast_03"
      ]
    },
    {
      "level": 42,
      "experience": 0,
      "display_names": [
        "Blackrose"
      ],
      "costumes": [
        "Plant_Beast_03"
      ]
    },
    {
      "level": 43,
      "experience": 0,
      "display_names": [
        "Deathblossom"
      ],
      "costumes": [
        "Plant_Beast_04"
      ]
    },
    {
      "level": 44,
      "experience": 0,
      "display_names": [
        "Deathblossom"
      ],
      "costumes": [
        "Plant_Beast_04"
      ]
    },
    {
      "level": 45,
      "experience": 0,
      "display_names": [
        "Deathblossom"
      ],
      "costumes": [
        "Plant_Beast_04"
      ]
    },
    {
      "level": 46,
      "experience": 0,
      "display_names": [
        "Deathblossom"
      ],
      "costumes": [
        "Plant_Beast_04"
      ]
    },
    {
      "level": 47,
      "experience": 0,
      "display_names": [
        "Deathblossom"
      ],
      "costumes": [
        "Plant_Beast_04"
      ]
    }
  ]
}