{
  "name": "Pets_SignatureSummon_GhostWidow",
  "gender": "GENDER_MALE",
  "description": "Beautiful, mysterious, and deadly. Ghost Widow appears to be an actual spirit from beyond the grave rather than a super with some sort of incorporeal power. Some have said she was once a rising star in the Night Widows when she was slain. Her thirst for vengeance must have been great, for she returned from the void and now serves at Recluse's side. There are rumors that her service isn't entirely voluntary, however.",
  "group_description": null,
  "display_class_name": null,
  "character_class_name": "boss_elite",
  "ai_config": "Pets_Ranged",
  "commandable_pet": false,
  "power_tags": [

  ],
  "additional_rewards": [

  ],
  "skill_hp_rewards": [

  ],
  "skill_status_rewards": [

  ],
  "ally": null,
  "gang": null,
  "reward_scale": 1.0,
  "game_exclusion": "None",
  "inactive_state_weapon": null,
  "ignores_combat_mods": false,
  "copy_creator_mods": false,
  "spawn_limit": 0,
  "spawn_limit_mission": 0,
  "ignore_av_to_eb_scaling": false,
  "can_zone": false,
  "custom_badge_stat": null,
  "badge_stat_flags": "DefaultBadgeStat",
  "rank": "VR_PET",
  "power_full_names": [
    "Signature_Summon.Ghost_Widow.Life_Drain",
    "Signature_Summon.Ghost_Widow.Dark_Blast",
    "Signature_Summon.Ghost_Widow.Gloom",
    "Signature_Summon.Ghost_Widow.Soul_Tentacles",
    "Signature_Summon.Ghost_Widow.Soul_Storm",
    "Signature_Summon.Ghost_Widow.Dark_Obliteration",
    "Signature_Summon.Ghost_Widow.Twilight_Grasp",
    "Signature_Summon.Ghost_Widow.Resistance",
    "Signature_Summon.Ghost_Widow.Fly",
    "Signature_Summon.Ghost_Widow.Fly_fx"
  ],
  "power_display_names": [
    "Life Drain",
    "Dark Blast",
    "Gloom",
    "Soul Tentacles",
    "Soul Storm",
    "Dark Obliteration",
    "Twilight Grasp",
    "Resistance",
    "Fly",
    "Fly fx"
  ],
  "power_levels": [
    0,
    0,
    0,
    0,
    0,
    0,
    0,
    0,
    0,
    0
  ],
  "powers": [
    {
      "power_category": "Signature_Summon",
      "power_set": "Ghost_Widow",
      "power": "*",
      "level": 0
    }
  ],
  "levels": [
    {
      "level": 1,
      "experience": 0,
      "display_names": [
        "Echo of Ghost Widow"
      ],
      "costumes": [
        "Signature_Ghost_Widow"
      ]
    },
    {
      "level": 2,
      "experience": 0,
      "display_names": [
        "Echo of Ghost Widow"
      ],
      "costumes": [
        "Signature_Ghost_Widow"
      ]
    },
    {
      "level": 3,
      "experience": 0,
      "display_names": [
        "Echo of Ghost Widow"
      ],
      "costumes": [
        "Signature_Ghost_Widow"
      ]
    },
    {
      "level": 4,
      "experience": 0,
      "display_names": [
        "Echo of Ghost Widow"
      ],
      "costumes": [
        "Signature_Ghost_Widow"
      ]
    },
    {
      "level": 5,
      "experience": 0,
      "display_names": [
        "Echo of Ghost Widow"
      ],
      "costumes": [
        "Signature_Ghost_Widow"
      ]
    },
    {
      "level": 6,
      "experience": 0,
      "display_names": [
        "Echo of Ghost Widow"
      ],
      "costumes": [
        "Signature_Ghost_Widow"
      ]
    },
    {
      "level": 7,
      "experience": 0,
      "display_names": [
        "Echo of Ghost Widow"
      ],
      "costumes": [
        "Signature_Ghost_Widow"
      ]
    },
    {
      "level": 8,
      "experience": 0,
      "display_names": [
        "Echo of Ghost Widow"
      ],
      "costumes": [
        "Signature_Ghost_Widow"
      ]
    },
    {
      "level": 9,
      "experience": 0,
      "display_names": [
        "Echo of Ghost Widow"
      ],
      "costumes": [
        "Signature_Ghost_Widow"
      ]
    },
    {
      "level": 10,
      "experience": 0,
      "display_names": [
        "Echo of Ghost Widow"
      ],
      "costumes": [
        "Signature_Ghost_Widow"
      ]
    },
    {
      "level": 11,
      "experience": 0,
      "display_names": [
        "Echo of Ghost Widow"
      ],
      "costumes": [
        "Signature_Ghost_Widow"
      ]
    },
    {
      "level": 12,
      "experience": 0,
      "display_names": [
        "Echo of Ghost Widow"
      ],
      "costumes": [
        "Signature_Ghost_Widow"
      ]
    },
    {
      "level": 13,
      "experience": 0,
      "display_names": [
        "Echo of Ghost Widow"
      ],
      "costumes": [
        "Signature_Ghost_Widow"
      ]
    },
    {
      "level": 14,
      "experience": 0,
      "display_names": [
        "Echo of Ghost Widow"
      ],
      "costumes": [
        "Signature_Ghost_Widow"
      ]
    },
    {
      "level": 15,
      "experience": 0,
      "display_names": [
        "Echo of Ghost Widow"
      ],
      "costumes": [
        "Signature_Ghost_Widow"
      ]
    },
    {
      "level": 16,
      "experience": 0,
      "display_names": [
        "Echo of Ghost Widow"
      ],
      "costumes": [
        "Signature_Ghost_Widow"
      ]
    },
    {
      "level": 17,
      "experience": 0,
      "display_names": [
        "Echo of Ghost Widow"
      ],
      "costumes": [
        "Signature_Ghost_Widow"
      ]
    },
    {
      "level": 18,
      "experience": 0,
      "display_names": [
        "Echo of Ghost Widow"
      ],
      "costumes": [
        "Signature_Ghost_Widow"
      ]
    },
    {
      "level": 19,
      "experience": 0,
      "display_names": [
        "Echo of Ghost Widow"
      ],
      "costumes": [
        "Signature_Ghost_Widow"
      ]
    },
    {
      "level": 20,
      "experience": 0,
      "display_names": [
        "Echo of Ghost Widow"
      ],
      "costumes": [
        "Signature_Ghost_Widow"
      ]
    },
    {
      "level": 21,
      "experience": 0,
      "display_names": [
        "Echo of Ghost Widow"
      ],
      "costumes": [
        "Signature_Ghost_Widow"
      ]
    },
    {
      "level": 22,
      "experience": 0,
      "display_names": [
        "Echo of Ghost Widow"
      ],
      "costumes": [
        "Signature_Ghost_Widow"
      ]
    },
    {
      "level": 23,
      "experience": 0,
      "display_names": [
        "Echo of Ghost Widow"
      ],
      "costumes": [
        "Signature_Ghost_Widow"
      ]
    },
    {
      "level": 24,
      "experience": 0,
      "display_names": [
        "Echo of Ghost Widow"
      ],
      "costumes": [
        "Signature_Ghost_Widow"
      ]
    },
    {
      "level": 25,
      "experience": 0,
      "display_names": [
        "Echo of Ghost Widow"
      ],
      "costumes": [
        "Signature_Ghost_Widow"
      ]
    },
    {
      "level": 26,
      "experience": 0,
      "display_names": [
        "Echo of Ghost Widow"
      ],
      "costumes": [
        "Signature_Ghost_Widow"
      ]
    },
    {
      "level": 27,
      "experience": 0,
      "display_names": [
        "Echo of Ghost Widow"
      ],
      "costumes": [
        "Signature_Ghost_Widow"
      ]
    },
    {
      "level": 28,
      "experience": 0,
      "display_names": [
        "Echo of Ghost Widow"
      ],
      "costumes": [
        "Signature_Ghost_Widow"
      ]
    },
    {
      "level": 29,
      "experience": 0,
      "display_names": [
        "Echo of Ghost Widow"
      ],
      "costumes": [
        "Signature_Ghost_Widow"
      ]
    },
    {
      "level": 30,
      "experience": 0,
      "display_names": [
        "Echo of Ghost Widow"
      ],
      "costumes": [
        "Signature_Ghost_Widow"
      ]
    },
    {
      "level": 31,
      "experience": 0,
      "display_names": [
        "Echo of Ghost Widow"
      ],
      "costumes": [
        "Signature_Ghost_Widow"
      ]
    },
    {
      "level": 32,
      "experience": 0,
      "display_names": [
        "Echo of Ghost Widow"
      ],
      "costumes": [
        "Signature_Ghost_Widow"
      ]
    },
    {
      "level": 33,
      "experience": 0,
      "display_names": [
        "Echo of Ghost Widow"
      ],
      "costumes": [
        "Signature_Ghost_Widow"
      ]
    },
    {
      "level": 34,
      "experience": 0,
      "display_names": [
        "Echo of Ghost Widow"
      ],
      "costumes": [
        "Signature_Ghost_Widow"
      ]
    },
    {
      "level": 35,
      "experience": 0,
      "display_names": [
        "Echo of Ghost Widow"
      ],
      "costumes": [
        "Signature_Ghost_Widow"
      ]
    },
    {
      "level": 36,
      "experience": 0,
      "display_names": [
        "Echo of Ghost Widow"
      ],
      "costumes": [
        "Signature_Ghost_Widow"
      ]
    },
    {
      "level": 37,
      "experience": 0,
      "display_names": [
        "Echo of Ghost Widow"
      ],
      "costumes": [
        "Signature_Ghost_Widow"
      ]
    },
    {
      "level": 38,
      "experience": 0,
      "display_names": [
        "Echo of Ghost Widow"
      ],
      "costumes": [
        "Signature_Ghost_Widow"
      ]
    },
    {
      "level": 39,
      "experience": 0,
      "display_names": [
        "Echo of Ghost Widow"
      ],
      "costumes": [
        "Signature_Ghost_Widow"
      ]
    },
    {
      "level": 40,
      "experience": 0,
      "display_names": [
        "Echo of Ghost Widow"
      ],
      "costumes": [
        "Signature_Ghost_Widow"
      ]
    },
    {
      "level": 41,
      "experience": 0,
      "display_names": [
        "Echo of Ghost Widow"
      ],
      "costumes": [
        "Signature_Ghost_Widow"
      ]
    },
    {
      "level": 42,
      "experience": 0,
      "display_names": [
        "Echo of Ghost Widow"
      ],
      "costumes": [
        "Signature_Ghost_Widow"
      ]
    },
    {
      "level": 43,
      "experience": 0,
      "display_names": [
        "Echo of Ghost Widow"
      ],
      "costumes": [
        "Signature_Ghost_Widow"
      ]
    },
    {
      "level": 44,
      "experience": 0,
      "display_names": [
        "Echo of Ghost Widow"
      ],
      "costumes": [
        "Signature_Ghost_Widow"
      ]
    },
    {
      "level": 45,
      "experience": 0,
      "display_names": [
        "Echo of Ghost Widow"
      ],
      "costumes": [
        "Signature_Ghost_Widow"
      ]
    },
    {
      "level": 46,
      "experience": 0,
      "display_names": [
        "Echo of Ghost Widow"
      ],
      "costumes": [
        "Signature_Ghost_Widow"
      ]
    },
    {
      "level": 47,
      "experience": 0,
      "display_names": [
        "Echo of Ghost Widow"
      ],
      "costumes": [
        "Signature_Ghost_Widow"
      ]
    },
    {
      "level": 48,
      "experience": 0,
      "display_names": [
        "Echo of Ghost Widow"
      ],
      "costumes": [
        "Signature_Ghost_Widow"
      ]
    },
    {
      "level": 49,
      "experience": 0,
      "display_names": [
        "Echo of Ghost Widow"
      ],
      "costumes": [
        "Signature_Ghost_Widow"
      ]
    },
    {
      "level": 50,
      "experience": 0,
      "display_names": [
        "Echo of Ghost Widow"
      ],
      "costumes": [
        "Signature_Ghost_Widow"
      ]
    },
    {
      "level": 51,
      "experience": 0,
      "display_names": [
        "Echo of Ghost Widow"
      ],
      "costumes": [
        "Signature_Ghost_Widow"
      ]
    },
    {
      "level": 52,
      "experience": 0,
      "display_names": [
        "Echo of Ghost Widow"
      ],
      "costumes": [
        "Signature_Ghost_Widow"
      ]
    },
    {
      "level": 53,
      "experience": 0,
      "display_names": [
        "Echo of Ghost Widow"
      ],
      "costumes": [
        "Signature_Ghost_Widow"
      ]
    },
    {
      "level": 54,
      "experience": 0,
      "display_names": [
        "Echo of Ghost Widow"
      ],
      "costumes": [
        "Signature_Ghost_Widow"
      ]
    }
  ]
}