{
  "name": "Pets_Bane_Spider_Boss",
  "gender": "GENDER_MALE",
  "description": "Only the most trusted Arachnos agents are allowed to lead the Bane Spiders. An agent must be ruthless and efficient to become one of Lord Recluse's personal guardsmen. It is a great honor to be promoted to the position of a Bane Spider Executioner.",
  "group_description": "Arachnos",
  "display_class_name": null,
  "character_class_name": "minion_pets",
  "ai_config": "Default",
  "commandable_pet": false,
  "power_tags": [

  ],
  "additional_rewards": [

  ],
  "skill_hp_rewards": [

  ],
  "skill_status_rewards": [

  ],
  "ally": null,
  "gang": null,
  "reward_scale": 1.0,
  "game_exclusion": "None",
  "inactive_state_weapon": null,
  "ignores_combat_mods": false,
  "copy_creator_mods": false,
  "spawn_limit": -1,
  "spawn_limit_mission": -1,
  "ignore_av_to_eb_scaling": false,
  "can_zone": false,
  "custom_badge_stat": null,
  "badge_stat_flags": "DefaultBadgeStat",
  "rank": "VR_PET",
  "power_full_names": [
    "V_Arachnos.Bane_Spider_Boss.Bash",
    "V_Arachnos.Bane_Spider_Boss.Pulverize",
    "V_Arachnos.Bane_Spider_Boss.Clobber",
    "V_Arachnos.Bane_Spider_Boss.Whirling_Mace",
    "V_Arachnos.Bane_Spider_Boss.Crowd_Control",
    "V_Arachnos.Bane_Spider_Boss.Poisonous_Ray_Burst",
    "V_Arachnos.Bane_Spider_Boss.Mace_Beam_Volley",
    "V_Arachnos.Bane_Spider_Boss.Mace_Beam_Blast",
    "V_Arachnos.Bane_Spider_Boss.Wide_Area_Web_Grenade",
    "V_Arachnos.Bane_Spider_Boss.Cocoon",
    "V_Arachnos.Bane_Spider_Minion.Body_Armor"
  ],
  "power_display_names": [
    "Bash",
    "Pulverize",
    "Clobber",
    "Whirling Mace",
    "Crowd Control",
    "Poisonous Ray Burst",
    "Mace Beam Volley",
    "Mace Beam Blast",
    "Wide Area Web Grenade",
    "Cocoon",
    "Body Armor"
  ],
  "power_levels": [
    0,
    0,
    0,
    0,
    0,
    0,
    0,
    0,
    0,
    0,
    0
  ],
  "powers": [
    {
      "power_category": "V_Arachnos",
      "power_set": "Bane_Spider_Boss",
      "power": "*",
      "level": 0
    },
    {
      "power_category": "V_Arachnos",
      "power_set": "Bane_Spider_Minion",
      "power": "Body_Armor",
      "level": 0
    }
  ],
  "levels": [
    {
      "level": 1,
      "experience": 0,
      "display_names": [
        "Bane Spider Executioner"
      ],
      "costumes": [
        "Arachnos_Bane_Boss"
      ]
    },
    {
      "level": 2,
      "experience": 0,
      "display_names": [
        "Bane Spider Executioner"
      ],
      "costumes": [
        "Arachnos_Bane_Boss"
      ]
    },
    {
      "level": 3,
      "experience": 0,
      "display_names": [
        "Bane Spider Executioner"
      ],
      "costumes": [
        "Arachnos_Bane_Boss"
      ]
    },
    {
      "level": 4,
      "experience": 0,
      "display_names": [
        "Bane Spider Executioner"
      ],
      "costumes": [
        "Arachnos_Bane_Boss"
      ]
    },
    {
      "level": 5,
      "experience": 0,
      "display_names": [
        "Bane Spider Executioner"
      ],
      "costumes": [
        "Arachnos_Bane_Boss"
      ]
    },
    {
      "level": 6,
      "experience": 0,
      "display_names": [
        "Bane Spider Executioner"
      ],
      "costumes": [
        "Arachnos_Bane_Boss"
      ]
    },
    {
      "level": 7,
      "experience": 0,
      "display_names": [
        "Bane Spider Executioner"
      ],
      "costumes": [
        "Arachnos_Bane_Boss"
      ]
    },
    {
      "level": 8,
      "experience": 0,
      "display_names": [
        "Bane Spider Executioner"
      ],
      "costumes": [
        "Arachnos_Bane_Boss"
      ]
    },
    {
      "level": 9,
      "experience": 0,
      "display_names": [
        "Bane Spider Executioner"
      ],
      "costumes": [
        "Arachnos_Bane_Boss"
      ]
    },
    {
      "level": 10,
      "experience": 0,
      "display_names": [
        "Bane Spider Executioner"
      ],
      "costumes": [
        "Arachnos_Bane_Boss"
      ]
    },
    {
      "level": 11,
      "experience": 0,
      "display_names": [
        "Bane Spider Executioner"
      ],
      "costumes": [
        "Arachnos_Bane_Boss"
      ]
    },
    {
      "level": 12,
      "experience": 0,
      "display_names": [
        "Bane Spider Executioner"
      ],
      "costumes": [
        "Arachnos_Bane_Boss"
      ]
    },
    {
      "level": 13,
      "experience": 0,
      "display_names": [
        "Bane Spider Executioner"
      ],
      "costumes": [
        "Arachnos_Bane_Boss"
      ]
    },
    {
      "level": 14,
      "experience": 0,
      "display_names": [
        "Bane Spider Executioner"
      ],
      "costumes": [
        "Arachnos_Bane_Boss"
      ]
    },
    {
      "level": 15,
      "experience": 0,
      "display_names": [
        "Bane Spider Executioner"
      ],
      "costumes": [
        "Arachnos_Bane_Boss"
      ]
    },
    {
      "level": 16,
      "experience": 0,
      "display_names": [
        "Bane Spider Executioner"
      ],
      "costumes": [
        "Arachnos_Bane_Boss"
      ]
    },
    {
      "level": 17,
      "experience": 0,
      "display_names": [
        "Bane Spider Executioner"
      ],
      "costumes": [
        "Arachnos_Bane_Boss"
      ]
    },
    {
      "level": 18,
      "experience": 0,
      "display_names": [
        "Bane Spider Executioner"
      ],
      "costumes": [
        "Arachnos_Bane_Boss"
      ]
    },
    {
      "level": 19,
      "experience": 0,
      "display_names": [
        "Bane Spider Executioner"
      ],
      "costumes": [
        "Arachnos_Bane_Boss"
      ]
    },
    {
      "level": 20,
      "experience": 0,
      "display_names": [
        "Bane Spider Executioner"
      ],
      "costumes": [
        "Arachnos_Bane_Boss"
      ]
    },
    {
      "level": 21,
      "experience": 0,
      "display_names": [
        "Bane Spider Executioner"
      ],
      "costumes": [
        "Arachnos_Bane_Boss"
      ]
    },
    {
      "level": 22,
      "experience": 0,
      "display_names": [
        "Bane Spider Executioner"
      ],
      "costumes": [
        "Arachnos_Bane_Boss"
      ]
    },
    {
      "level": 23,
      "experience": 0,
      "display_names": [
        "Bane Spider Executioner"
      ],
      "costumes": [
        "Arachnos_Bane_Boss"
      ]
    },
    {
      "level": 24,
      "experience": 0,
      "display_names": [
        "Bane Spider Executioner"
      ],
      "costumes": [
        "Arachnos_Bane_Boss"
      ]
    },
    {
      "level": 25,
      "experience": 0,
      "display_names": [
        "Bane Spider Executioner"
      ],
      "costumes": [
        "Arachnos_Bane_Boss"
      ]
    },
    {
      "level": 26,
      "experience": 0,
      "display_names": [
        "Bane Spider Executioner"
      ],
      "costumes": [
        "Arachnos_Bane_Boss"
      ]
    },
    {
      "level": 27,
      "experience": 0,
      "display_names": [
        "Bane Spider Executioner"
      ],
      "costumes": [
        "Arachnos_Bane_Boss"
      ]
    },
    {
      "level": 28,
      "experience": 0,
      "display_names": [
        "Bane Spider Executioner"
      ],
      "costumes": [
        "Arachnos_Bane_Boss"
      ]
    },
    {
      "level": 29,
      "experience": 0,
      "display_names": [
        "Bane Spider Executioner"
      ],
      "costumes": [
        "Arachnos_Bane_Boss"
      ]
    },
    {
      "level": 30,
      "experience": 0,
      "display_names": [
        "Bane Spider Executioner"
      ],
      "costumes": [
        "Arachnos_Bane_Boss"
      ]
    },
    {
      "level": 31,
      "experience": 0,
      "display_names": [
        "Bane Spider Executioner"
      ],
      "costumes": [
        "Arachnos_Bane_Boss"
      ]
    },
    {
      "level": 32,
      "experience": 0,
      "display_names": [
        "Bane Spider Executioner"
      ],
      "costumes": [
        "Arachnos_Bane_Boss"
      ]
    },
    {
      "level": 33,
      "experience": 0,
      "display_names": [
        "Bane Spider Executioner"
      ],
      "costumes": [
        "Arachnos_Bane_Boss"
      ]
    },
    {
      "level": 34,
      "experience": 0,
      "display_names": [
        "Bane Spider Executioner"
      ],
      "costumes": [
        "Arachnos_Bane_Boss"
      ]
    },
    {
      "level": 35,
      "experience": 0,
      "display_names": [
        "Bane Spider Executioner"
      ],
      "costumes": [
        "Arachnos_Bane_Boss"
      ]
    },
    {
      "level": 36,
      "experience": 0,
      "display_names": [
        "Bane Spider Executioner"
      ],
      "costumes": [
        "Arachnos_Bane_Boss"
      ]
    },
    {
      "level": 37,
      "experience": 0,
      "display_names": [
        "Bane Spider Executioner"
      ],
      "costumes": [
        "Arachnos_Bane_Boss"
      ]
    },
    {
      "level": 38,
      "experience": 0,
      "display_names": [
        "Bane Spider Executioner"
      ],
      "costumes": [
        "Arachnos_Bane_Boss"
      ]
    },
    {
      "level": 39,
      "experience": 0,
      "display_names": [
        "Bane Spider Executioner"
      ],
      "costumes": [
        "Arachnos_Bane_Boss"
      ]
    },
    {
      "level": 40,
      "experience": 0,
      "display_names": [
        "Bane Spider Executioner"
      ],
      "costumes": [
        "Arachnos_Bane_Boss"
      ]
    },
    {
      "level": 41,
      "experience": 0,
      "display_names": [
        "Bane Spider Executioner"
      ],
      "costumes": [
        "Arachnos_Bane_Boss"
      ]
    },
    {
      "level": 42,
      "experience": 0,
      "display_names": [
        "Bane Spider Executioner"
      ],
      "costumes": [
        "Arachnos_Bane_Boss"
      ]
    },
    {
      "level": 43,
      "experience": 0,
      "display_names": [
        "Bane Spider Executioner"
      ],
      "costumes": [
        "Arachnos_Bane_Boss"
      ]
    },
    {
      "level": 44,
      "experience": 0,
      "display_names": [
        "Bane Spider Executioner"
      ],
      "costumes": [
        "Arachnos_Bane_Boss"
      ]
    },
    {
      "level": 45,
      "experience": 0,
      "display_names": [
        "Bane Spider Executioner"
      ],
      "costumes": [
        "Arachnos_Bane_Boss"
      ]
    },
    {
      "level": 46,
      "experience": 0,
      "display_names": [
        "Bane Spider Executioner"
      ],
      "costumes": [
        "Arachnos_Bane_Boss"
      ]
    },
    {
      "level": 47,
      "experience": 0,
      "display_names": [
        "Bane Spider Executioner"
      ],
      "costumes": [
        "Arachnos_Bane_Boss"
      ]
    },
    {
      "level": 48,
      "experience": 0,
      "display_names": [
        "Bane Spider Executioner"
      ],
      "costumes": [
        "Arachnos_Bane_Boss"
      ]
    },
    {
      "level": 49,
      "experience": 0,
      "display_names": [
        "Bane Spider Executioner"
      ],
      "costumes": [
        "Arachnos_Bane_Boss"
      ]
    },
    {
      "level": 50,
      "experience": 0,
      "display_names": [
        "Bane Spider Executioner"
      ],
      "costumes": [
        "Arachnos_Bane_Boss"
      ]
    },
    {
      "level": 51,
      "experience": 0,
      "display_names": [
        "Bane Spider Executioner"
      ],
      "costumes": [
        "Arachnos_Bane_Boss"
      ]
    },
    {
      "level": 52,
      "experience": 0,
      "display_names": [
        "Bane Spider Executioner"
      ],
      "costumes": [
        "Arachnos_Bane_Boss"
      ]
    },
    {
      "level": 53,
      "experience": 0,
      "display_names": [
        "Bane Spider Executioner"
      ],
      "costumes": [
        "Arachnos_Bane_Boss"
      ]
    },
    {
      "level": 54,
      "experience": 0,
      "display_names": [
        "Bane Spider Executioner"
      ],
      "costumes": [
        "Arachnos_Bane_Boss"
      ]
    }
  ]
}