{
  "name": "PraetorianResistance_Fighter_EndgameRunner_Female",
  "gender": "GENDER_FEMALE",
  "description": "Resistance Fighters are experienced resistance recruits who have learned by doing rather than training. They are equipped with outdated military firearms that have been hastily upgraded with power packs and other accessories to give them a heavy enough punch to threaten the PPD.",
  "group_description": null,
  "display_class_name": null,
  "character_class_name": "minion_grunt",
  "ai_config": "Default_Ranged",
  "commandable_pet": false,
  "power_tags": [
    "HumanSkeleton",
    "Human"
  ],
  "additional_rewards": [

  ],
  "skill_hp_rewards": [

  ],
  "skill_status_rewards": [

  ],
  "ally": null,
  "gang": null,
  "reward_scale": 0.25,
  "game_exclusion": "None",
  "inactive_state_weapon": null,
  "ignores_combat_mods": false,
  "copy_creator_mods": false,
  "spawn_limit": 0,
  "spawn_limit_mission": 0,
  "ignore_av_to_eb_scaling": false,
  "can_zone": false,
  "custom_badge_stat": null,
  "badge_stat_flags": "DefaultBadgeStat",
  "rank": "VR_MINION",
  "power_full_names": [
    "PraetorianResistance.Minion.Power_Punch",
    "PraetorianResistance.Minion.Power_Punch2",
    "PraetorianResistance.Minion.Burst",
    "PraetorianResistance.Minion.Heavy_Burst",
    "PraetorianResistance.Mindwash_Contagion.Mindwash_Contagion",
    "PraetorianResistance.Mindwash_Contagion.SpawnCounter",
    "PraetorianResistance.Endgame_Gadgets.Targeting_Drone",
    "PraetorianResistance.Endgame_Hardened.Phase_Resistance"
  ],
  "power_display_names": [
    "Power Punch",
    "Power Punch",
    "Burst",
    "Heavy Burst",
    "Mindwash Contagion",
    "SpawnCounter",
    "Targeting Drone",
    "Phase Resistance"
  ],
  "power_levels": [
    0,
    0,
    0,
    0,
    0,
    0,
    0,
    0
  ],
  "powers": [
    {
      "power_category": "PraetorianResistance",
      "power_set": "Minion",
      "power": "*",
      "level": 0
    },
    {
      "power_category": "PraetorianResistance",
      "power_set": "Mindwash_Contagion",
      "power": "*",
      "level": 0
    },
    {
      "power_category": "PraetorianResistance",
      "power_set": "Endgame_Gadgets",
      "power": "Targeting_Drone",
      "level": 0
    },
    {
      "power_category": "PraetorianResistance",
      "power_set": "Endgame_Hardened",
      "power": "Phase_Resistance",
      "level": 0
    }
  ],
  "levels": [
    {
      "level": 54,
      "experience": 0,
      "display_names": [
        "Mindwashed Resistance Fighter"
      ],
      "costumes": [
        "Resistance_RunnerFem_Fighter_01",
        "Resistance_RunnerFem_Fighter_02",
        "Resistance_RunnerFem_Fighter_03"
      ]
    }
  ]
}