{
  "name": "PraetorianSeers_Ranger_Pet",
  "gender": "GENDER_MALE",
  "description": "Tyrant's Imperial Defense Force troopers are the most advanced soldiers in his arsenal. The IDF Rangers are equipped with an upgraded Plasma Glove and Power Armor, making them resistant to all types of damage.",
  "group_description": null,
  "display_class_name": null,
  "character_class_name": "minion_grunt",
  "ai_config": "Default_Ranged",
  "commandable_pet": false,
  "power_tags": [
    "HumanSkeleton",
    "Human"
  ],
  "additional_rewards": [

  ],
  "skill_hp_rewards": [

  ],
  "skill_status_rewards": [

  ],
  "ally": null,
  "gang": null,
  "reward_scale": 1.0,
  "game_exclusion": "None",
  "inactive_state_weapon": null,
  "ignores_combat_mods": false,
  "copy_creator_mods": false,
  "spawn_limit": 0,
  "spawn_limit_mission": 0,
  "ignore_av_to_eb_scaling": false,
  "can_zone": false,
  "custom_badge_stat": null,
  "badge_stat_flags": "DefaultBadgeStat",
  "rank": "VR_MINION",
  "power_full_names": [
    "PraetorianIDF.Trooper_Standard.Plasma_Smasher",
    "PraetorianIDF.Trooper_Standard.Plasma_Blast",
    "PraetorianIDF.Trooper_Ranged.Plasma_Spray",
    "PraetorianIDF.Trooper_Ranged.Plasma_Burst",
    "PraetorianIDF.Trooper_Minion_Armor.IDF_Armor"
  ],
  "power_display_names": [
    "Plasma Smasher",
    "Plasma Blast",
    "Plasma Spray",
    "Plasma Burst",
    "IDF Armor"
  ],
  "power_levels": [
    0,
    0,
    0,
    0,
    0
  ],
  "powers": [
    {
      "power_category": "PraetorianIDF",
      "power_set": "Trooper_Standard",
      "power": "*",
      "level": 0
    },
    {
      "power_category": "PraetorianIDF",
      "power_set": "Trooper_Ranged",
      "power": "*",
      "level": 0
    },
    {
      "power_category": "PraetorianIDF",
      "power_set": "Trooper_Minion_Armor",
      "power": "*",
      "level": 0
    }
  ],
  "levels": [
    {
      "level": 20,
      "experience": 0,
      "display_names": [
        "Ranger"
      ],
      "costumes": [
        "Pratoria_Ranger_01",
        "Pratoria_Ranger_02",
        "Pratoria_Ranger_03",
        "Pratoria_Ranger_04",
        "Pratoria_Ranger_05"
      ]
    },
    {
      "level": 21,
      "experience": 0,
      "display_names": [
        "Ranger"
      ],
      "costumes": [
        "Pratoria_Ranger_01",
        "Pratoria_Ranger_02",
        "Pratoria_Ranger_03",
        "Pratoria_Ranger_04",
        "Pratoria_Ranger_05"
      ]
    },
    {
      "level": 22,
      "experience": 0,
      "display_names": [
        "Ranger"
      ],
      "costumes": [
        "Pratoria_Ranger_01",
        "Pratoria_Ranger_02",
        "Pratoria_Ranger_03",
        "Pratoria_Ranger_04",
        "Pratoria_Ranger_05"
      ]
    },
    {
      "level": 23,
      "experience": 0,
      "display_names": [
        "Ranger"
      ],
      "costumes": [
        "Pratoria_Ranger_01",
        "Pratoria_Ranger_02",
        "Pratoria_Ranger_03",
        "Pratoria_Ranger_04",
        "Pratoria_Ranger_05"
      ]
    },
    {
      "level": 24,
      "experience": 0,
      "display_names": [
        "Ranger"
      ],
      "costumes": [
        "Pratoria_Ranger_01",
        "Pratoria_Ranger_02",
        "Pratoria_Ranger_03",
        "Pratoria_Ranger_04",
        "Pratoria_Ranger_05"
      ]
    },
    {
      "level": 25,
      "experience": 0,
      "display_names": [
        "Ranger"
      ],
      "costumes": [
        "Pratoria_Ranger_01",
        "Pratoria_Ranger_02",
        "Pratoria_Ranger_03",
        "Pratoria_Ranger_04",
        "Pratoria_Ranger_05"
      ]
    },
    {
      "level": 26,
      "experience": 0,
      "display_names": [
        "Ranger"
      ],
      "costumes": [
        "Pratoria_Ranger_01",
        "Pratoria_Ranger_02",
        "Pratoria_Ranger_03",
        "Pratoria_Ranger_04",
        "Pratoria_Ranger_05"
      ]
    },
    {
      "level": 27,
      "experience": 0,
      "display_names": [
        "Ranger"
      ],
      "costumes": [
        "Pratoria_Ranger_01",
        "Pratoria_Ranger_02",
        "Pratoria_Ranger_03",
        "Pratoria_Ranger_04",
        "Pratoria_Ranger_05"
      ]
    },
    {
      "level": 28,
      "experience": 0,
      "display_names": [
        "Ranger"
      ],
      "costumes": [
        "Pratoria_Ranger_01",
        "Pratoria_Ranger_02",
        "Pratoria_Ranger_03",
        "Pratoria_Ranger_04",
        "Pratoria_Ranger_05"
      ]
    },
    {
      "level": 29,
      "experience": 0,
      "display_names": [
        "Ranger"
      ],
      "costumes": [
        "Pratoria_Ranger_01",
        "Pratoria_Ranger_02",
        "Pratoria_Ranger_03",
        "Pratoria_Ranger_04",
        "Pratoria_Ranger_05"
      ]
    },
    {
      "level": 30,
      "experience": 0,
      "display_names": [
        "Ranger"
      ],
      "costumes": [
        "Pratoria_Ranger_01",
        "Pratoria_Ranger_02",
        "Pratoria_Ranger_03",
        "Pratoria_Ranger_04",
        "Pratoria_Ranger_05"
      ]
    },
    {
      "level": 31,
      "experience": 0,
      "display_names": [
        "Ranger"
      ],
      "costumes": [
        "Pratoria_Ranger_01",
        "Pratoria_Ranger_02",
        "Pratoria_Ranger_03",
        "Pratoria_Ranger_04",
        "Pratoria_Ranger_05"
      ]
    },
    {
      "level": 32,
      "experience": 0,
      "display_names": [
        "Ranger"
      ],
      "costumes": [
        "Pratoria_Ranger_01",
        "Pratoria_Ranger_02",
        "Pratoria_Ranger_03",
        "Pratoria_Ranger_04",
        "Pratoria_Ranger_05"
      ]
    },
    {
      "level": 33,
      "experience": 0,
      "display_names": [
        "Ranger"
      ],
      "costumes": [
        "Pratoria_Ranger_01",
        "Pratoria_Ranger_02",
        "Pratoria_Ranger_03",
        "Pratoria_Ranger_04",
        "Pratoria_Ranger_05"
      ]
    },
    {
      "level": 34,
      "experience": 0,
      "display_names": [
        "Ranger"
      ],
      "costumes": [
        "Pratoria_Ranger_01",
        "Pratoria_Ranger_02",
        "Pratoria_Ranger_03",
        "Pratoria_Ranger_04",
        "Pratoria_Ranger_05"
      ]
    },
    {
      "level": 35,
      "experience": 0,
      "display_names": [
        "Ranger"
      ],
      "costumes": [
        "Pratoria_Ranger_01",
        "Pratoria_Ranger_02",
        "Pratoria_Ranger_03",
        "Pratoria_Ranger_04",
        "Pratoria_Ranger_05"
      ]
    },
    {
      "level": 36,
      "experience": 0,
      "display_names": [
        "Ranger"
      ],
      "costumes": [
        "Pratoria_Ranger_01",
        "Pratoria_Ranger_02",
        "Pratoria_Ranger_03",
        "Pratoria_Ranger_04",
        "Pratoria_Ranger_05"
      ]
    },
    {
      "level": 37,
      "experience": 0,
      "display_names": [
        "Ranger"
      ],
      "costumes": [
        "Pratoria_Ranger_01",
        "Pratoria_Ranger_02",
        "Pratoria_Ranger_03",
        "Pratoria_Ranger_04",
        "Pratoria_Ranger_05"
      ]
    },
    {
      "level": 38,
      "experience": 0,
      "display_names": [
        "Ranger"
      ],
      "costumes": [
        "Pratoria_Ranger_01",
        "Pratoria_Ranger_02",
        "Pratoria_Ranger_03",
        "Pratoria_Ranger_04",
        "Pratoria_Ranger_05"
      ]
    },
    {
      "level": 39,
      "experience": 0,
      "display_names": [
        "Ranger"
      ],
      "costumes": [
        "Pratoria_Ranger_01",
        "Pratoria_Ranger_02",
        "Pratoria_Ranger_03",
        "Pratoria_Ranger_04",
        "Pratoria_Ranger_05"
      ]
    },
    {
      "level": 40,
      "experience": 0,
      "display_names": [
        "Ranger"
      ],
      "costumes": [
        "Pratoria_Ranger_01",
        "Pratoria_Ranger_02",
        "Pratoria_Ranger_03",
        "Pratoria_Ranger_04",
        "Pratoria_Ranger_05"
      ]
    },
    {
      "level": 41,
      "experience": 0,
      "display_names": [
        "Ranger"
      ],
      "costumes": [
        "Pratoria_Ranger_01",
        "Pratoria_Ranger_02",
        "Pratoria_Ranger_03",
        "Pratoria_Ranger_04",
        "Pratoria_Ranger_05"
      ]
    },
    {
      "level": 42,
      "experience": 0,
      "display_names": [
        "Ranger"
      ],
      "costumes": [
        "Pratoria_Ranger_01",
        "Pratoria_Ranger_02",
        "Pratoria_Ranger_03",
        "Pratoria_Ranger_04",
        "Pratoria_Ranger_05"
      ]
    },
    {
      "level": 43,
      "experience": 0,
      "display_names": [
        "Ranger"
      ],
      "costumes": [
        "Pratoria_Ranger_01",
        "Pratoria_Ranger_02",
        "Pratoria_Ranger_03",
        "Pratoria_Ranger_04",
        "Pratoria_Ranger_05"
      ]
    },
    {
      "level": 44,
      "experience": 0,
      "display_names": [
        "Ranger"
      ],
      "costumes": [
        "Pratoria_Ranger_01",
        "Pratoria_Ranger_02",
        "Pratoria_Ranger_03",
        "Pratoria_Ranger_04",
        "Pratoria_Ranger_05"
      ]
    },
    {
      "level": 45,
      "experience": 0,
      "display_names": [
        "Ranger"
      ],
      "costumes": [
        "Pratoria_Ranger_01",
        "Pratoria_Ranger_02",
        "Pratoria_Ranger_03",
        "Pratoria_Ranger_04",
        "Pratoria_Ranger_05"
      ]
    },
    {
      "level": 46,
      "experience": 0,
      "display_names": [
        "Ranger"
      ],
      "costumes": [
        "Pratoria_Ranger_01",
        "Pratoria_Ranger_02",
        "Pratoria_Ranger_03",
        "Pratoria_Ranger_04",
        "Pratoria_Ranger_05"
      ]
    },
    {
      "level": 47,
      "experience": 0,
      "display_names": [
        "Ranger"
      ],
      "costumes": [
        "Pratoria_Ranger_01",
        "Pratoria_Ranger_02",
        "Pratoria_Ranger_03",
        "Pratoria_Ranger_04",
        "Pratoria_Ranger_05"
      ]
    },
    {
      "level": 48,
      "experience": 0,
      "display_names": [
        "Ranger"
      ],
      "costumes": [
        "Pratoria_Ranger_01",
        "Pratoria_Ranger_02",
        "Pratoria_Ranger_03",
        "Pratoria_Ranger_04",
        "Pratoria_Ranger_05"
      ]
    },
    {
      "level": 49,
      "experience": 0,
      "display_names": [
        "Ranger"
      ],
      "costumes": [
        "Pratoria_Ranger_01",
        "Pratoria_Ranger_02",
        "Pratoria_Ranger_03",
        "Pratoria_Ranger_04",
        "Pratoria_Ranger_05"
      ]
    },
    {
      "level": 50,
      "experience": 0,
      "display_names": [
        "Ranger"
      ],
      "costumes": [
        "Pratoria_Ranger_01",
        "Pratoria_Ranger_02",
        "Pratoria_Ranger_03",
        "Pratoria_Ranger_04",
        "Pratoria_Ranger_05"
      ]
    },
    {
      "level": 51,
      "experience": 0,
      "display_names": [
        "Ranger"
      ],
      "costumes": [
        "Pratoria_Ranger_01",
        "Pratoria_Ranger_02",
        "Pratoria_Ranger_03",
        "Pratoria_Ranger_04",
        "Pratoria_Ranger_05"
      ]
    },
    {
      "level": 52,
      "experience": 0,
      "display_names": [
        "Ranger"
      ],
      "costumes": [
        "Pratoria_Ranger_01",
        "Pratoria_Ranger_02",
        "Pratoria_Ranger_03",
        "Pratoria_Ranger_04",
        "Pratoria_Ranger_05"
      ]
    },
    {
      "level": 53,
      "experience": 0,
      "display_names": [
        "Ranger"
      ],
      "costumes": [
        "Pratoria_Ranger_01",
        "Pratoria_Ranger_02",
        "Pratoria_Ranger_03",
        "Pratoria_Ranger_04",
        "Pratoria_Ranger_05"
      ]
    },
    {
      "level": 54,
      "experience": 0,
      "display_names": [
        "Ranger"
      ],
      "costumes": [
        "Pratoria_Ranger_01",
        "Pratoria_Ranger_02",
        "Pratoria_Ranger_03",
        "Pratoria_Ranger_04",
        "Pratoria_Ranger_05"
      ]
    }
  ]
}