{
  "name": "PraetorianResistance_Vagabond",
  "gender": "GENDER_MALE",
  "description": "Vagabond is a man who has stared into the face of death and laughed at it. He is regarded highly in the Resistance and is willing to do whatever it takes to bring down Cole and his regime.",
  "group_description": null,
  "display_class_name": "Veteran",
  "character_class_name": "boss_grunt",
  "ai_config": "Default_Ranged",
  "commandable_pet": false,
  "power_tags": [
    "HumanSkeleton",
    "Human"
  ],
  "additional_rewards": [

  ],
  "skill_hp_rewards": [

  ],
  "skill_status_rewards": [

  ],
  "ally": null,
  "gang": null,
  "reward_scale": 1.0,
  "game_exclusion": "None",
  "inactive_state_weapon": null,
  "ignores_combat_mods": false,
  "copy_creator_mods": false,
  "spawn_limit": 0,
  "spawn_limit_mission": 0,
  "ignore_av_to_eb_scaling": false,
  "can_zone": false,
  "custom_badge_stat": null,
  "badge_stat_flags": "DefaultBadgeStat",
  "rank": "VR_BOSS",
  "power_full_names": [
    "PraetorianResistance.Boss_Officer.Snap_Shots",
    "PraetorianResistance.Boss_Officer.Aimed_Shot",
    "PraetorianResistance.Boss_Officer.Overcharged_Shots",
    "PraetorianResistance.Boss_Officer.Fusillade",
    "PraetorianResistance.Boss_Officer.Leadership_Low",
    "PraetorianResistance.Boss_Officer.Leadership_Mid",
    "PraetorianResistance.Boss_Officer.Leadership_High"
  ],
  "power_display_names": [
    "Snap Shots",
    "Aimed Shot",
    "Overcharged Shots",
    "Fusillade",
    "Leadership",
    "Leadership",
    "Leadership"
  ],
  "power_levels": [
    0,
    0,
    0,
    0,
    0,
    0,
    0
  ],
  "powers": [
    {
      "power_category": "PraetorianResistance",
      "power_set": "Boss_Officer",
      "power": "*",
      "level": 0
    }
  ],
  "levels": [
    {
      "level": 1,
      "experience": 0,
      "display_names": [
        "Vagabond"
      ],
      "costumes": [
        "Model_Vagabond_NoRing"
      ]
    },
    {
      "level": 2,
      "experience": 0,
      "display_names": [
        "Vagabond"
      ],
      "costumes": [
        "Model_Vagabond_NoRing"
      ]
    },
    {
      "level": 3,
      "experience": 0,
      "display_names": [
        "Vagabond"
      ],
      "costumes": [
        "Model_Vagabond_NoRing"
      ]
    },
    {
      "level": 4,
      "experience": 0,
      "display_names": [
        "Vagabond"
      ],
      "costumes": [
        "Model_Vagabond_NoRing"
      ]
    },
    {
      "level": 5,
      "experience": 0,
      "display_names": [
        "Vagabond"
      ],
      "costumes": [
        "Model_Vagabond_NoRing"
      ]
    },
    {
      "level": 6,
      "experience": 0,
      "display_names": [
        "Vagabond"
      ],
      "costumes": [
        "Model_Vagabond_NoRing"
      ]
    },
    {
      "level": 7,
      "experience": 0,
      "display_names": [
        "Vagabond"
      ],
      "costumes": [
        "Model_Vagabond_NoRing"
      ]
    },
    {
      "level": 8,
      "experience": 0,
      "display_names": [
        "Vagabond"
      ],
      "costumes": [
        "Model_Vagabond_NoRing"
      ]
    },
    {
      "level": 9,
      "experience": 0,
      "display_names": [
        "Vagabond"
      ],
      "costumes": [
        "Model_Vagabond_NoRing"
      ]
    },
    {
      "level": 10,
      "experience": 0,
      "display_names": [
        "Vagabond"
      ],
      "costumes": [
        "Model_Vagabond_NoRing"
      ]
    },
    {
      "level": 11,
      "experience": 0,
      "display_names": [
        "Vagabond"
      ],
      "costumes": [
        "Model_Vagabond_NoRing"
      ]
    },
    {
      "level": 12,
      "experience": 0,
      "display_names": [
        "Vagabond"
      ],
      "costumes": [
        "Model_Vagabond_NoRing"
      ]
    },
    {
      "level": 13,
      "experience": 0,
      "display_names": [
        "Vagabond"
      ],
      "costumes": [
        "Model_Vagabond_NoRing"
      ]
    },
    {
      "level": 14,
      "experience": 0,
      "display_names": [
        "Vagabond"
      ],
      "costumes": [
        "Model_Vagabond_NoRing"
      ]
    },
    {
      "level": 15,
      "experience": 0,
      "display_names": [
        "Vagabond"
      ],
      "costumes": [
        "Model_Vagabond_NoRing"
      ]
    },
    {
      "level": 16,
      "experience": 0,
      "display_names": [
        "Vagabond"
      ],
      "costumes": [
        "Model_Vagabond_NoRing"
      ]
    },
    {
      "level": 17,
      "experience": 0,
      "display_names": [
        "Vagabond"
      ],
      "costumes": [
        "Model_Vagabond_NoRing"
      ]
    },
    {
      "level": 18,
      "experience": 0,
      "display_names": [
        "Vagabond"
      ],
      "costumes": [
        "Model_Vagabond_NoRing"
      ]
    },
    {
      "level": 19,
      "experience": 0,
      "display_names": [
        "Vagabond"
      ],
      "costumes": [
        "Model_Vagabond_NoRing"
      ]
    },
    {
      "level": 20,
      "experience": 0,
      "display_names": [
        "Vagabond"
      ],
      "costumes": [
        "Model_Vagabond_NoRing"
      ]
    },
    {
      "level": 21,
      "experience": 0,
      "display_names": [
        "Vagabond"
      ],
      "costumes": [
        "Model_Vagabond_NoRing"
      ]
    },
    {
      "level": 22,
      "experience": 0,
      "display_names": [
        "Vagabond"
      ],
      "costumes": [
        "Model_Vagabond_NoRing"
      ]
    },
    {
      "level": 23,
      "experience": 0,
      "display_names": [
        "Vagabond"
      ],
      "costumes": [
        "Model_Vagabond_NoRing"
      ]
    },
    {
      "level": 24,
      "experience": 0,
      "display_names": [
        "Vagabond"
      ],
      "costumes": [
        "Model_Vagabond_NoRing"
      ]
    }
  ]
}