{
  "name": "PraetorianAngryCitizens_Dissident_Boss_Female_ZE",
  "gender": "GENDER_FEMALE",
  "description": "This Praetorian Citizen has developed a reputation amongst the rabble for spouting anti-Cole propaganda. They've become an outward symbol of the Resistance's futile struggle, but are still limited to improvised weapons and their own charisma.",
  "group_description": null,
  "display_class_name": null,
  "character_class_name": "boss_grunt",
  "ai_config": null,
  "commandable_pet": false,
  "power_tags": [
    "HumanSkeleton",
    "Human"
  ],
  "additional_rewards": [

  ],
  "skill_hp_rewards": [

  ],
  "skill_status_rewards": [

  ],
  "ally": null,
  "gang": null,
  "reward_scale": 0.0,
  "game_exclusion": "None",
  "inactive_state_weapon": null,
  "ignores_combat_mods": true,
  "copy_creator_mods": false,
  "spawn_limit": 0,
  "spawn_limit_mission": 0,
  "ignore_av_to_eb_scaling": false,
  "can_zone": false,
  "custom_badge_stat": null,
  "badge_stat_flags": "DefaultBadgeStat",
  "rank": "VR_BOSS",
  "power_full_names": [
    "P_Citizens.Citizen_Boss.Rock",
    "P_Citizens.Citizen_Boss.Molotov_Cocktail",
    "P_Citizens.Citizen_Boss.Brawl",
    "P_Citizens.Citizen_Boss.Vengeance"
  ],
  "power_display_names": [
    "Rock",
    "Molotov Cocktail",
    "Brawl",
    "Vengeance"
  ],
  "power_levels": [
    0,
    0,
    0,
    0
  ],
  "powers": [
    {
      "power_category": "P_Citizens",
      "power_set": "Citizen_Boss",
      "power": "*",
      "level": 0
    }
  ],
  "levels": [
    {
      "level": 2,
      "experience": 0,
      "display_names": [
        "Dissident"
      ],
      "costumes": [
        "Citizen_Biz_Fem_01",
        "Citizen_Biz_Fem_02",
        "Citizen_Biz_Fem_03",
        "Citizen_Biz_Fem_04",
        "Citizen_Biz_Fem_05",
        "Citizen_Biz_Fem_06",
        "Citizen_Biz_Fem_07",
        "Citizen_Biz_Fem_08",
        "Citizen_Biz_Fem_09",
        "Citizen_Biz_Fem_10",
        "Citizen_Biz_Fem_11",
        "Citizen_Biz_Fem_12",
        "Citizen_Biz_Fem_13",
        "Citizen_Biz_Fem_14",
        "Citizen_Biz_Fem_15",
        "Citizen_Biz_Fem_16",
        "Citizen_Biz_Fem_17",
        "Citizen_Biz_Fem_18",
        "Citizen_Biz_Fem_19",
        "Citizen_Biz_Fem_20",
        "Citizen_Biz_Fem_21",
        "Citizen_Biz_Fem_22",
        "Citizen_Biz_Fem_23",
        "Citizen_Biz_Fem_24",
        "Citizen_Biz_Fem_25",
        "Citizen_Biz_Fem_25",
        "Citizen_Biz_Fem_27",
        "Citizen_Biz_Fem_28",
        "Citizen_Biz_Fem_29",
        "Citizen_Biz_Fem_30",
        "Citizen_Biz_Fem_31",
        "Citizen_Biz_Fem_32",
        "Citizen_Biz_Fem_33",
        "Citizen_Biz_Fem_34",
        "Citizen_Biz_Fem_35",
        "Citizen_Biz_Fem_36",
        "Citizen_Biz_Fem_37",
        "Citizen_Biz_Fem_38",
        "Citizen_Biz_Fem_39",
        "Citizen_Biz_Fem_40",
        "Citizen_Biz_Fem_41",
        "Citizen_Biz_Fem_42",
        "Citizen_Biz_Fem_43",
        "Citizen_Biz_Fem_44",
        "Citizen_Biz_Fem_45",
        "Citizen_Biz_Fem_46",
        "Citizen_Biz_Fem_47",
        "Citizen_Biz_Fem_48",
        "Citizen_Biz_Fem_49",
        "Citizen_Biz_Fem_50"
      ]
    }
  ]
}