{
  "name": "PraetorianSeers_Seer_Seeker",
  "gender": "GENDER_FEMALE",
  "description": "Seekers are among the elite of Mother Mayhem's Seers. They make up the rank and file combatants among the elite. Seekers have the ability to mend others wounds with their minds as well as augment their allies with mental wards.",
  "group_description": null,
  "display_class_name": null,
  "character_class_name": "minion_grunt",
  "ai_config": "Default_Ranged",
  "commandable_pet": false,
  "power_tags": [
    "Humanoid",
    "HumanSkeleton"
  ],
  "additional_rewards": [

  ],
  "skill_hp_rewards": [

  ],
  "skill_status_rewards": [

  ],
  "ally": null,
  "gang": null,
  "reward_scale": 1.0,
  "game_exclusion": "None",
  "inactive_state_weapon": null,
  "ignores_combat_mods": false,
  "copy_creator_mods": false,
  "spawn_limit": -1,
  "spawn_limit_mission": -1,
  "ignore_av_to_eb_scaling": false,
  "can_zone": false,
  "custom_badge_stat": null,
  "badge_stat_flags": "DefaultBadgeStat",
  "rank": "VR_MINION",
  "power_full_names": [
    "P_Seers.Seer_Minion_Resistance.Resistance",
    "P_Seers.Seeker_Powers.Mental_Blast",
    "P_Seers.Seeker_Powers.Soothe_Mind",
    "P_Seers.Seeker_Powers.Fortitude",
    "P_Seers.Seeker_Powers.Fortune"
  ],
  "power_display_names": [
    "Resistance",
    "Mental Blast",
    "Soothe Mind",
    "Fortitude",
    "Fortune"
  ],
  "power_levels": [
    0,
    0,
    0,
    0,
    0
  ],
  "powers": [
    {
      "power_category": "P_Seers",
      "power_set": "Seer_Minion_Resistance",
      "power": "*",
      "level": 0
    },
    {
      "power_category": "P_Seers",
      "power_set": "Seeker_Powers",
      "power": "*",
      "level": 0
    }
  ],
  "levels": [
    {
      "level": 20,
      "experience": 0,
      "display_names": [
        "Seeker"
      ],
      "costumes": [
        "Seer_Seeker_01"
      ]
    },
    {
      "level": 21,
      "experience": 0,
      "display_names": [
        "Seeker"
      ],
      "costumes": [
        "Seer_Seeker_01"
      ]
    },
    {
      "level": 22,
      "experience": 0,
      "display_names": [
        "Seeker"
      ],
      "costumes": [
        "Seer_Seeker_01"
      ]
    },
    {
      "level": 23,
      "experience": 0,
      "display_names": [
        "Seeker"
      ],
      "costumes": [
        "Seer_Seeker_01"
      ]
    },
    {
      "level": 24,
      "experience": 0,
      "display_names": [
        "Seeker"
      ],
      "costumes": [
        "Seer_Seeker_01"
      ]
    },
    {
      "level": 25,
      "experience": 0,
      "display_names": [
        "Seeker"
      ],
      "costumes": [
        "Seer_Seeker_01"
      ]
    },
    {
      "level": 26,
      "experience": 0,
      "display_names": [
        "Seeker"
      ],
      "costumes": [
        "Seer_Seeker_01"
      ]
    },
    {
      "level": 27,
      "experience": 0,
      "display_names": [
        "Seeker"
      ],
      "costumes": [
        "Seer_Seeker_01"
      ]
    },
    {
      "level": 28,
      "experience": 0,
      "display_names": [
        "Seeker"
      ],
      "costumes": [
        "Seer_Seeker_01"
      ]
    },
    {
      "level": 29,
      "experience": 0,
      "display_names": [
        "Seeker"
      ],
      "costumes": [
        "Seer_Seeker_01"
      ]
    },
    {
      "level": 30,
      "experience": 0,
      "display_names": [
        "Seeker"
      ],
      "costumes": [
        "Seer_Seeker_01"
      ]
    },
    {
      "level": 31,
      "experience": 0,
      "display_names": [
        "Seeker"
      ],
      "costumes": [
        "Seer_Seeker_01"
      ]
    },
    {
      "level": 32,
      "experience": 0,
      "display_names": [
        "Seeker"
      ],
      "costumes": [
        "Seer_Seeker_01"
      ]
    },
    {
      "level": 33,
      "experience": 0,
      "display_names": [
        "Seeker"
      ],
      "costumes": [
        "Seer_Seeker_01"
      ]
    },
    {
      "level": 34,
      "experience": 0,
      "display_names": [
        "Seeker"
      ],
      "costumes": [
        "Seer_Seeker_01"
      ]
    },
    {
      "level": 35,
      "experience": 0,
      "display_names": [
        "Seeker"
      ],
      "costumes": [
        "Seer_Seeker_01"
      ]
    },
    {
      "level": 36,
      "experience": 0,
      "display_names": [
        "Seeker"
      ],
      "costumes": [
        "Seer_Seeker_01"
      ]
    },
    {
      "level": 37,
      "experience": 0,
      "display_names": [
        "Seeker"
      ],
      "costumes": [
        "Seer_Seeker_01"
      ]
    },
    {
      "level": 38,
      "experience": 0,
      "display_names": [
        "Seeker"
      ],
      "costumes": [
        "Seer_Seeker_01"
      ]
    },
    {
      "level": 39,
      "experience": 0,
      "display_names": [
        "Seeker"
      ],
      "costumes": [
        "Seer_Seeker_01"
      ]
    },
    {
      "level": 40,
      "experience": 0,
      "display_names": [
        "Seeker"
      ],
      "costumes": [
        "Seer_Seeker_01"
      ]
    },
    {
      "level": 41,
      "experience": 0,
      "display_names": [
        "Seeker"
      ],
      "costumes": [
        "Seer_Seeker_01"
      ]
    },
    {
      "level": 42,
      "experience": 0,
      "display_names": [
        "Seeker"
      ],
      "costumes": [
        "Seer_Seeker_01"
      ]
    },
    {
      "level": 43,
      "experience": 0,
      "display_names": [
        "Seeker"
      ],
      "costumes": [
        "Seer_Seeker_01"
      ]
    },
    {
      "level": 44,
      "experience": 0,
      "display_names": [
        "Seeker"
      ],
      "costumes": [
        "Seer_Seeker_01"
      ]
    },
    {
      "level": 45,
      "experience": 0,
      "display_names": [
        "Seeker"
      ],
      "costumes": [
        "Seer_Seeker_01"
      ]
    },
    {
      "level": 46,
      "experience": 0,
      "display_names": [
        "Seeker"
      ],
      "costumes": [
        "Seer_Seeker_01"
      ]
    },
    {
      "level": 47,
      "experience": 0,
      "display_names": [
        "Seeker"
      ],
      "costumes": [
        "Seer_Seeker_01"
      ]
    },
    {
      "level": 48,
      "experience": 0,
      "display_names": [
        "Seeker"
      ],
      "costumes": [
        "Seer_Seeker_01"
      ]
    },
    {
      "level": 49,
      "experience": 0,
      "display_names": [
        "Seeker"
      ],
      "costumes": [
        "Seer_Seeker_01"
      ]
    },
    {
      "level": 50,
      "experience": 0,
      "display_names": [
        "Seeker"
      ],
      "costumes": [
        "Seer_Seeker_01"
      ]
    },
    {
      "level": 51,
      "experience": 0,
      "display_names": [
        "Seeker"
      ],
      "costumes": [
        "Seer_Seeker_01"
      ]
    },
    {
      "level": 52,
      "experience": 0,
      "display_names": [
        "Seeker"
      ],
      "costumes": [
        "Seer_Seeker_01"
      ]
    },
    {
      "level": 53,
      "experience": 0,
      "display_names": [
        "Seeker"
      ],
      "costumes": [
        "Seer_Seeker_01"
      ]
    },
    {
      "level": 54,
      "experience": 0,
      "display_names": [
        "Seeker"
      ],
      "costumes": [
        "Seer_Seeker_01"
      ]
    }
  ]
}