{
  "name": "PraetorianIDF_Warworks_Drone",
  "gender": "GENDER_MALE",
  "description": "Warworks Drones are rapid assault weapons dispatched by the Warworks Drone Carriers equipped with highly advanced plasma weapons capable of weakening even the toughest of super powered beings.",
  "group_description": null,
  "display_class_name": null,
  "character_class_name": "minion_pets",
  "ai_config": "Default_Ranged",
  "commandable_pet": false,
  "power_tags": [
    "Electronic"
  ],
  "additional_rewards": [

  ],
  "skill_hp_rewards": [

  ],
  "skill_status_rewards": [

  ],
  "ally": null,
  "gang": null,
  "reward_scale": 1.0,
  "game_exclusion": "None",
  "inactive_state_weapon": null,
  "ignores_combat_mods": false,
  "copy_creator_mods": false,
  "spawn_limit": 0,
  "spawn_limit_mission": 0,
  "ignore_av_to_eb_scaling": false,
  "can_zone": false,
  "custom_badge_stat": null,
  "badge_stat_flags": "DefaultBadgeStat",
  "rank": "VR_MINION",
  "power_full_names": [
    "PraetorianIDF.Warworks_Drone.Plasma_Beam",
    "PraetorianIDF.Warworks_Drone.Plasma_Shot",
    "PraetorianIDF.Warworks_Drone.Force_Barrier"
  ],
  "power_display_names": [
    "Plasma Beam",
    "Plasma Shot",
    "Force Barrier"
  ],
  "power_levels": [
    0,
    0,
    0
  ],
  "powers": [
    {
      "power_category": "PraetorianIDF",
      "power_set": "Warworks_Drone",
      "power": "*",
      "level": 0
    }
  ],
  "levels": [
    {
      "level": 21,
      "experience": 0,
      "display_names": [
        "Drone"
      ],
      "costumes": [
        "V_Antimatter_TurretA"
      ]
    },
    {
      "level": 22,
      "experience": 0,
      "display_names": [
        "Drone"
      ],
      "costumes": [
        "V_Antimatter_TurretA"
      ]
    },
    {
      "level": 23,
      "experience": 0,
      "display_names": [
        "Drone"
      ],
      "costumes": [
        "V_Antimatter_TurretA"
      ]
    },
    {
      "level": 24,
      "experience": 0,
      "display_names": [
        "Drone"
      ],
      "costumes": [
        "V_Antimatter_TurretA"
      ]
    },
    {
      "level": 25,
      "experience": 0,
      "display_names": [
        "Drone"
      ],
      "costumes": [
        "V_Antimatter_TurretA"
      ]
    },
    {
      "level": 26,
      "experience": 0,
      "display_names": [
        "Drone"
      ],
      "costumes": [
        "V_Antimatter_TurretA"
      ]
    },
    {
      "level": 27,
      "experience": 0,
      "display_names": [
        "Drone"
      ],
      "costumes": [
        "V_Antimatter_TurretA"
      ]
    },
    {
      "level": 28,
      "experience": 0,
      "display_names": [
        "Drone"
      ],
      "costumes": [
        "V_Antimatter_TurretA"
      ]
    },
    {
      "level": 29,
      "experience": 0,
      "display_names": [
        "Drone"
      ],
      "costumes": [
        "V_Antimatter_TurretA"
      ]
    },
    {
      "level": 30,
      "experience": 0,
      "display_names": [
        "Drone"
      ],
      "costumes": [
        "V_Antimatter_TurretA"
      ]
    },
    {
      "level": 31,
      "experience": 0,
      "display_names": [
        "Drone"
      ],
      "costumes": [
        "V_Antimatter_TurretA"
      ]
    },
    {
      "level": 32,
      "experience": 0,
      "display_names": [
        "Drone"
      ],
      "costumes": [
        "V_Antimatter_TurretA"
      ]
    },
    {
      "level": 33,
      "experience": 0,
      "display_names": [
        "Drone"
      ],
      "costumes": [
        "V_Antimatter_TurretA"
      ]
    },
    {
      "level": 34,
      "experience": 0,
      "display_names": [
        "Drone"
      ],
      "costumes": [
        "V_Antimatter_TurretA"
      ]
    },
    {
      "level": 35,
      "experience": 0,
      "display_names": [
        "Drone"
      ],
      "costumes": [
        "V_Antimatter_TurretA"
      ]
    },
    {
      "level": 36,
      "experience": 0,
      "display_names": [
        "Drone"
      ],
      "costumes": [
        "V_Antimatter_TurretA"
      ]
    },
    {
      "level": 37,
      "experience": 0,
      "display_names": [
        "Drone"
      ],
      "costumes": [
        "V_Antimatter_TurretA"
      ]
    },
    {
      "level": 38,
      "experience": 0,
      "display_names": [
        "Drone"
      ],
      "costumes": [
        "V_Antimatter_TurretA"
      ]
    },
    {
      "level": 39,
      "experience": 0,
      "display_names": [
        "Drone"
      ],
      "costumes": [
        "V_Antimatter_TurretA"
      ]
    },
    {
      "level": 40,
      "experience": 0,
      "display_names": [
        "Drone"
      ],
      "costumes": [
        "V_Antimatter_TurretA"
      ]
    },
    {
      "level": 41,
      "experience": 0,
      "display_names": [
        "Drone"
      ],
      "costumes": [
        "V_Antimatter_TurretA"
      ]
    },
    {
      "level": 42,
      "experience": 0,
      "display_names": [
        "Drone"
      ],
      "costumes": [
        "V_Antimatter_TurretA"
      ]
    },
    {
      "level": 43,
      "experience": 0,
      "display_names": [
        "Drone"
      ],
      "costumes": [
        "V_Antimatter_TurretA"
      ]
    },
    {
      "level": 44,
      "experience": 0,
      "display_names": [
        "Drone"
      ],
      "costumes": [
        "V_Antimatter_TurretA"
      ]
    },
    {
      "level": 45,
      "experience": 0,
      "display_names": [
        "Drone"
      ],
      "costumes": [
        "V_Antimatter_TurretA"
      ]
    },
    {
      "level": 46,
      "experience": 0,
      "display_names": [
        "Drone"
      ],
      "costumes": [
        "V_Antimatter_TurretA"
      ]
    },
    {
      "level": 47,
      "experience": 0,
      "display_names": [
        "Drone"
      ],
      "costumes": [
        "V_Antimatter_TurretA"
      ]
    },
    {
      "level": 48,
      "experience": 0,
      "display_names": [
        "Drone"
      ],
      "costumes": [
        "V_Antimatter_TurretA"
      ]
    },
    {
      "level": 49,
      "experience": 0,
      "display_names": [
        "Drone"
      ],
      "costumes": [
        "V_Antimatter_TurretA"
      ]
    },
    {
      "level": 50,
      "experience": 0,
      "display_names": [
        "Drone"
      ],
      "costumes": [
        "V_Antimatter_TurretA"
      ]
    },
    {
      "level": 51,
      "experience": 0,
      "display_names": [
        "Drone"
      ],
      "costumes": [
        "V_Antimatter_TurretA"
      ]
    },
    {
      "level": 52,
      "experience": 0,
      "display_names": [
        "Drone"
      ],
      "costumes": [
        "V_Antimatter_TurretA"
      ]
    },
    {
      "level": 53,
      "experience": 0,
      "display_names": [
        "Drone"
      ],
      "costumes": [
        "V_Antimatter_TurretA"
      ]
    },
    {
      "level": 54,
      "experience": 0,
      "display_names": [
        "Drone"
      ],
      "costumes": [
        "V_Antimatter_TurretA"
      ]
    }
  ]
}