{
  "name": "PraetorianIDFEndgame_Warworks_BCU_B",
  "gender": "GENDER_MALE",
  "description": "The most basic unit in the Warworks arsenal. These models are equipped with a heavy assault PGMP Rifle and both nano-repair technology and force fields.",
  "group_description": null,
  "display_class_name": null,
  "character_class_name": "minion_praetoriangrunt",
  "ai_config": "Default_Ranged",
  "commandable_pet": false,
  "power_tags": [
    "Humanoid",
    "HumanSkeleton",
    "Electronic"
  ],
  "additional_rewards": [

  ],
  "skill_hp_rewards": [

  ],
  "skill_status_rewards": [

  ],
  "ally": null,
  "gang": null,
  "reward_scale": 1.0,
  "game_exclusion": "None",
  "inactive_state_weapon": null,
  "ignores_combat_mods": false,
  "copy_creator_mods": false,
  "spawn_limit": -1,
  "spawn_limit_mission": -1,
  "ignore_av_to_eb_scaling": false,
  "can_zone": false,
  "custom_badge_stat": null,
  "badge_stat_flags": "DefaultBadgeStat",
  "rank": "VR_MINION",
  "power_full_names": [
    "PraetorianIDF.Warworks_BCU.Single_Plasma_Shot",
    "PraetorianIDF.Warworks_BCU.Plasma_Rifle_Burst",
    "PraetorianIDF.Warworks_BCU.Fusion_Grenade",
    "PraetorianIDF.Warworks_BCU.Force_Barrier",
    "PraetorianIDF.Warworks_SelfDestruct.Meltdown"
  ],
  "power_display_names": [
    "Single Plasma Shot",
    "Plasma Rifle Burst",
    "Fusion Grenade",
    "Force Barrier",
    "Meltdown"
  ],
  "power_levels": [
    0,
    0,
    0,
    0,
    0
  ],
  "powers": [
    {
      "power_category": "PraetorianIDF",
      "power_set": "Warworks_BCU",
      "power": "*",
      "level": 0
    },
    {
      "power_category": "PraetorianIDF",
      "power_set": "Warworks_SelfDestruct",
      "power": "Meltdown",
      "level": 0
    }
  ],
  "levels": [
    {
      "level": 20,
      "experience": 0,
      "display_names": [
        "BCU"
      ],
      "costumes": [
        "Clockwork_Loyalist_BCU_01",
        "Clockwork_Loyalist_BCU_02"
      ]
    },
    {
      "level": 21,
      "experience": 0,
      "display_names": [
        "BCU"
      ],
      "costumes": [
        "Clockwork_Loyalist_BCU_01",
        "Clockwork_Loyalist_BCU_02"
      ]
    },
    {
      "level": 22,
      "experience": 0,
      "display_names": [
        "BCU"
      ],
      "costumes": [
        "Clockwork_Loyalist_BCU_01",
        "Clockwork_Loyalist_BCU_02"
      ]
    },
    {
      "level": 23,
      "experience": 0,
      "display_names": [
        "BCU"
      ],
      "costumes": [
        "Clockwork_Loyalist_BCU_01",
        "Clockwork_Loyalist_BCU_02"
      ]
    },
    {
      "level": 24,
      "experience": 0,
      "display_names": [
        "BCU"
      ],
      "costumes": [
        "Clockwork_Loyalist_BCU_01",
        "Clockwork_Loyalist_BCU_02"
      ]
    },
    {
      "level": 25,
      "experience": 0,
      "display_names": [
        "BCU"
      ],
      "costumes": [
        "Clockwork_Loyalist_BCU_01",
        "Clockwork_Loyalist_BCU_02"
      ]
    },
    {
      "level": 26,
      "experience": 0,
      "display_names": [
        "BCU"
      ],
      "costumes": [
        "Clockwork_Loyalist_BCU_01",
        "Clockwork_Loyalist_BCU_02"
      ]
    },
    {
      "level": 27,
      "experience": 0,
      "display_names": [
        "BCU"
      ],
      "costumes": [
        "Clockwork_Loyalist_BCU_01",
        "Clockwork_Loyalist_BCU_02"
      ]
    },
    {
      "level": 28,
      "experience": 0,
      "display_names": [
        "BCU"
      ],
      "costumes": [
        "Clockwork_Loyalist_BCU_01",
        "Clockwork_Loyalist_BCU_02"
      ]
    },
    {
      "level": 29,
      "experience": 0,
      "display_names": [
        "BCU"
      ],
      "costumes": [
        "Clockwork_Loyalist_BCU_01",
        "Clockwork_Loyalist_BCU_02"
      ]
    },
    {
      "level": 30,
      "experience": 0,
      "display_names": [
        "BCU"
      ],
      "costumes": [
        "Clockwork_Loyalist_BCU_01",
        "Clockwork_Loyalist_BCU_02"
      ]
    },
    {
      "level": 31,
      "experience": 0,
      "display_names": [
        "BCU"
      ],
      "costumes": [
        "Clockwork_Loyalist_BCU_01",
        "Clockwork_Loyalist_BCU_02"
      ]
    },
    {
      "level": 32,
      "experience": 0,
      "display_names": [
        "BCU"
      ],
      "costumes": [
        "Clockwork_Loyalist_BCU_01",
        "Clockwork_Loyalist_BCU_02"
      ]
    },
    {
      "level": 33,
      "experience": 0,
      "display_names": [
        "BCU"
      ],
      "costumes": [
        "Clockwork_Loyalist_BCU_01",
        "Clockwork_Loyalist_BCU_02"
      ]
    },
    {
      "level": 34,
      "experience": 0,
      "display_names": [
        "BCU"
      ],
      "costumes": [
        "Clockwork_Loyalist_BCU_01",
        "Clockwork_Loyalist_BCU_02"
      ]
    },
    {
      "level": 35,
      "experience": 0,
      "display_names": [
        "BCU"
      ],
      "costumes": [
        "Clockwork_Loyalist_BCU_01",
        "Clockwork_Loyalist_BCU_02"
      ]
    },
    {
      "level": 36,
      "experience": 0,
      "display_names": [
        "BCU"
      ],
      "costumes": [
        "Clockwork_Loyalist_BCU_01",
        "Clockwork_Loyalist_BCU_02"
      ]
    },
    {
      "level": 37,
      "experience": 0,
      "display_names": [
        "BCU"
      ],
      "costumes": [
        "Clockwork_Loyalist_BCU_01",
        "Clockwork_Loyalist_BCU_02"
      ]
    },
    {
      "level": 38,
      "experience": 0,
      "display_names": [
        "BCU"
      ],
      "costumes": [
        "Clockwork_Loyalist_BCU_01",
        "Clockwork_Loyalist_BCU_02"
      ]
    },
    {
      "level": 39,
      "experience": 0,
      "display_names": [
        "BCU"
      ],
      "costumes": [
        "Clockwork_Loyalist_BCU_01",
        "Clockwork_Loyalist_BCU_02"
      ]
    },
    {
      "level": 40,
      "experience": 0,
      "display_names": [
        "BCU"
      ],
      "costumes": [
        "Clockwork_Loyalist_BCU_01",
        "Clockwork_Loyalist_BCU_02"
      ]
    },
    {
      "level": 41,
      "experience": 0,
      "display_names": [
        "BCU"
      ],
      "costumes": [
        "Clockwork_Loyalist_BCU_01",
        "Clockwork_Loyalist_BCU_02"
      ]
    },
    {
      "level": 42,
      "experience": 0,
      "display_names": [
        "BCU"
      ],
      "costumes": [
        "Clockwork_Loyalist_BCU_01",
        "Clockwork_Loyalist_BCU_02"
      ]
    },
    {
      "level": 43,
      "experience": 0,
      "display_names": [
        "BCU"
      ],
      "costumes": [
        "Clockwork_Loyalist_BCU_01",
        "Clockwork_Loyalist_BCU_02"
      ]
    },
    {
      "level": 44,
      "experience": 0,
      "display_names": [
        "BCU"
      ],
      "costumes": [
        "Clockwork_Loyalist_BCU_01",
        "Clockwork_Loyalist_BCU_02"
      ]
    },
    {
      "level": 45,
      "experience": 0,
      "display_names": [
        "BCU"
      ],
      "costumes": [
        "Clockwork_Loyalist_BCU_01",
        "Clockwork_Loyalist_BCU_02"
      ]
    },
    {
      "level": 46,
      "experience": 0,
      "display_names": [
        "BCU"
      ],
      "costumes": [
        "Clockwork_Loyalist_BCU_01",
        "Clockwork_Loyalist_BCU_02"
      ]
    },
    {
      "level": 47,
      "experience": 0,
      "display_names": [
        "BCU"
      ],
      "costumes": [
        "Clockwork_Loyalist_BCU_01",
        "Clockwork_Loyalist_BCU_02"
      ]
    },
    {
      "level": 48,
      "experience": 0,
      "display_names": [
        "BCU"
      ],
      "costumes": [
        "Clockwork_Loyalist_BCU_01",
        "Clockwork_Loyalist_BCU_02"
      ]
    },
    {
      "level": 49,
      "experience": 0,
      "display_names": [
        "BCU"
      ],
      "costumes": [
        "Clockwork_Loyalist_BCU_01",
        "Clockwork_Loyalist_BCU_02"
      ]
    },
    {
      "level": 50,
      "experience": 0,
      "display_names": [
        "BCU"
      ],
      "costumes": [
        "Clockwork_Loyalist_BCU_01",
        "Clockwork_Loyalist_BCU_02"
      ]
    },
    {
      "level": 51,
      "experience": 0,
      "display_names": [
        "BCU"
      ],
      "costumes": [
        "Clockwork_Loyalist_BCU_01",
        "Clockwork_Loyalist_BCU_02"
      ]
    },
    {
      "level": 52,
      "experience": 0,
      "display_names": [
        "BCU"
      ],
      "costumes": [
        "Clockwork_Loyalist_BCU_01",
        "Clockwork_Loyalist_BCU_02"
      ]
    },
    {
      "level": 53,
      "experience": 0,
      "display_names": [
        "BCU"
      ],
      "costumes": [
        "Clockwork_Loyalist_BCU_01",
        "Clockwork_Loyalist_BCU_02"
      ]
    },
    {
      "level": 54,
      "experience": 0,
      "display_names": [
        "BCU"
      ],
      "costumes": [
        "Clockwork_Loyalist_BCU_01",
        "Clockwork_Loyalist_BCU_02"
      ]
    }
  ]
}