{
  "name": "PraetorianShepherds_Cult_Worshipper",
  "gender": "GENDER_MALE",
  "description": "Often driven to the Shepherds to enact vigilante justice upon the slavers and derelicts of First Ward, these formerly harmless citizens are now fanatically loyal cult members.",
  "group_description": null,
  "display_class_name": null,
  "character_class_name": "minion_grunt",
  "ai_config": "Default_Melee",
  "commandable_pet": false,
  "power_tags": [
    "HumanSkeleton",
    "Human"
  ],
  "additional_rewards": [

  ],
  "skill_hp_rewards": [

  ],
  "skill_status_rewards": [

  ],
  "ally": null,
  "gang": null,
  "reward_scale": 1.0,
  "game_exclusion": "None",
  "inactive_state_weapon": null,
  "ignores_combat_mods": false,
  "copy_creator_mods": false,
  "spawn_limit": -1,
  "spawn_limit_mission": -1,
  "ignore_av_to_eb_scaling": false,
  "can_zone": false,
  "custom_badge_stat": null,
  "badge_stat_flags": "DefaultBadgeStat",
  "rank": "VR_MINION",
  "power_full_names": [
    "PraetorianShepherds.Resistances.Damage_MN",
    "PraetorianShepherds.Cult_Worshipper.Hack",
    "PraetorianShepherds.Cult_Worshipper.Slice",
    "PraetorianShepherds.Cult_Worshipper.Hand_Crossbow"
  ],
  "power_display_names": [
    "Damage Resistance",
    "Hack",
    "Slice",
    "Hand Crossbow"
  ],
  "power_levels": [
    0,
    0,
    0,
    0
  ],
  "powers": [
    {
      "power_category": "PraetorianShepherds",
      "power_set": "Resistances",
      "power": "Damage_MN",
      "level": 0
    },
    {
      "power_category": "PraetorianShepherds",
      "power_set": "Cult_Worshipper",
      "power": "*",
      "level": 0
    }
  ],
  "levels": [
    {
      "level": 20,
      "experience": 0,
      "display_names": [
        "Cult Worshipper"
      ],
      "costumes": [
        "ShepherdMalMin1",
        "ShepherdMalMin2",
        "ShepherdMalMin3",
        "ShepherdMalMin4",
        "ShepherdMalMin5",
        "ShepherdMalMin6"
      ]
    },
    {
      "level": 21,
      "experience": 0,
      "display_names": [
        "Cult Worshipper"
      ],
      "costumes": [
        "ShepherdMalMin1",
        "ShepherdMalMin2",
        "ShepherdMalMin3",
        "ShepherdMalMin4",
        "ShepherdMalMin5",
        "ShepherdMalMin6"
      ]
    },
    {
      "level": 22,
      "experience": 0,
      "display_names": [
        "Cult Worshipper"
      ],
      "costumes": [
        "ShepherdMalMin1",
        "ShepherdMalMin2",
        "ShepherdMalMin3",
        "ShepherdMalMin4",
        "ShepherdMalMin5",
        "ShepherdMalMin6"
      ]
    },
    {
      "level": 23,
      "experience": 0,
      "display_names": [
        "Cult Worshipper"
      ],
      "costumes": [
        "ShepherdMalMin1",
        "ShepherdMalMin2",
        "ShepherdMalMin3",
        "ShepherdMalMin4",
        "ShepherdMalMin5",
        "ShepherdMalMin6"
      ]
    },
    {
      "level": 24,
      "experience": 0,
      "display_names": [
        "Cult Worshipper"
      ],
      "costumes": [
        "ShepherdMalMin1",
        "ShepherdMalMin2",
        "ShepherdMalMin3",
        "ShepherdMalMin4",
        "ShepherdMalMin5",
        "ShepherdMalMin6"
      ]
    },
    {
      "level": 25,
      "experience": 0,
      "display_names": [
        "Cult Worshipper"
      ],
      "costumes": [
        "ShepherdMalMin1",
        "ShepherdMalMin2",
        "ShepherdMalMin3",
        "ShepherdMalMin4",
        "ShepherdMalMin5",
        "ShepherdMalMin6"
      ]
    },
    {
      "level": 26,
      "experience": 0,
      "display_names": [
        "Cult Worshipper"
      ],
      "costumes": [
        "ShepherdMalMin1",
        "ShepherdMalMin2",
        "ShepherdMalMin3",
        "ShepherdMalMin4",
        "ShepherdMalMin5",
        "ShepherdMalMin6"
      ]
    },
    {
      "level": 27,
      "experience": 0,
      "display_names": [
        "Cult Worshipper"
      ],
      "costumes": [
        "ShepherdMalMin1",
        "ShepherdMalMin2",
        "ShepherdMalMin3",
        "ShepherdMalMin4",
        "ShepherdMalMin5",
        "ShepherdMalMin6"
      ]
    },
    {
      "level": 28,
      "experience": 0,
      "display_names": [
        "Cult Worshipper"
      ],
      "costumes": [
        "ShepherdMalMin1",
        "ShepherdMalMin2",
        "ShepherdMalMin3",
        "ShepherdMalMin4",
        "ShepherdMalMin5",
        "ShepherdMalMin6"
      ]
    },
    {
      "level": 29,
      "experience": 0,
      "display_names": [
        "Cult Worshipper"
      ],
      "costumes": [
        "ShepherdMalMin1",
        "ShepherdMalMin2",
        "ShepherdMalMin3",
        "ShepherdMalMin4",
        "ShepherdMalMin5",
        "ShepherdMalMin6"
      ]
    },
    {
      "level": 30,
      "experience": 0,
      "display_names": [
        "Cult Worshipper"
      ],
      "costumes": [
        "ShepherdMalMin1",
        "ShepherdMalMin2",
        "ShepherdMalMin3",
        "ShepherdMalMin4",
        "ShepherdMalMin5",
        "ShepherdMalMin6"
      ]
    },
    {
      "level": 31,
      "experience": 0,
      "display_names": [
        "Cult Worshipper"
      ],
      "costumes": [
        "ShepherdMalMin1",
        "ShepherdMalMin2",
        "ShepherdMalMin3",
        "ShepherdMalMin4",
        "ShepherdMalMin5",
        "ShepherdMalMin6"
      ]
    },
    {
      "level": 32,
      "experience": 0,
      "display_names": [
        "Cult Worshipper"
      ],
      "costumes": [
        "ShepherdMalMin1",
        "ShepherdMalMin2",
        "ShepherdMalMin3",
        "ShepherdMalMin4",
        "ShepherdMalMin5",
        "ShepherdMalMin6"
      ]
    },
    {
      "level": 33,
      "experience": 0,
      "display_names": [
        "Cult Worshipper"
      ],
      "costumes": [
        "ShepherdMalMin1",
        "ShepherdMalMin2",
        "ShepherdMalMin3",
        "ShepherdMalMin4",
        "ShepherdMalMin5",
        "ShepherdMalMin6"
      ]
    },
    {
      "level": 34,
      "experience": 0,
      "display_names": [
        "Cult Worshipper"
      ],
      "costumes": [
        "ShepherdMalMin1",
        "ShepherdMalMin2",
        "ShepherdMalMin3",
        "ShepherdMalMin4",
        "ShepherdMalMin5",
        "ShepherdMalMin6"
      ]
    }
  ]
}