{
  "name": "PraetorianResistance_Heavy_Hands",
  "gender": "GENDER_MALE",
  "description": "Resistance Heavy Hands are walking wrecking crews. Their exo-skeleton provides them with the strength to fight with their massive clockwork construction arms, and the addition of welded on steel plating enables them to withstand just about any fire on their way into melee, and any punishment their foes can dish out.",
  "group_description": null,
  "display_class_name": null,
  "character_class_name": "lt_grunt",
  "ai_config": "Default_Melee",
  "commandable_pet": false,
  "power_tags": [
    "HumanSkeleton",
    "Human"
  ],
  "additional_rewards": [

  ],
  "skill_hp_rewards": [

  ],
  "skill_status_rewards": [

  ],
  "ally": null,
  "gang": null,
  "reward_scale": 1.0,
  "game_exclusion": "None",
  "inactive_state_weapon": null,
  "ignores_combat_mods": false,
  "copy_creator_mods": false,
  "spawn_limit": -1,
  "spawn_limit_mission": -1,
  "ignore_av_to_eb_scaling": false,
  "can_zone": false,
  "custom_badge_stat": null,
  "badge_stat_flags": "DefaultBadgeStat",
  "rank": "VR_LIEUTENANT",
  "power_full_names": [
    "PraetorianResistance.LT_Hands.Power_Punch",
    "PraetorianResistance.LT_Hands.Bone_Smasher",
    "PraetorianResistance.LT_Hands.Heavy_Burst",
    "PraetorianResistance.LT_Heavy.Resist_Physical_Damage"
  ],
  "power_display_names": [
    "Power Punch",
    "Bone Smasher",
    "Heavy Burst",
    "Resist Physical Damage"
  ],
  "power_levels": [
    0,
    0,
    0,
    0
  ],
  "powers": [
    {
      "power_category": "PraetorianResistance",
      "power_set": "LT_Hands",
      "power": "*",
      "level": 0
    },
    {
      "power_category": "PraetorianResistance",
      "power_set": "LT_Heavy",
      "power": "*",
      "level": 0
    }
  ],
  "levels": [
    {
      "level": 6,
      "experience": 0,
      "display_names": [
        "Resistance Heavy Hands"
      ],
      "costumes": [
        "Resistance_Heavy_Hands_01",
        "Resistance_Heavy_Hands_02",
        "Resistance_Heavy_Hands_03"
      ]
    },
    {
      "level": 7,
      "experience": 0,
      "display_names": [
        "Resistance Heavy Hands"
      ],
      "costumes": [
        "Resistance_Heavy_Hands_01",
        "Resistance_Heavy_Hands_02",
        "Resistance_Heavy_Hands_03"
      ]
    },
    {
      "level": 8,
      "experience": 0,
      "display_names": [
        "Resistance Heavy Hands"
      ],
      "costumes": [
        "Resistance_Heavy_Hands_01",
        "Resistance_Heavy_Hands_02",
        "Resistance_Heavy_Hands_03"
      ]
    },
    {
      "level": 9,
      "experience": 0,
      "display_names": [
        "Resistance Heavy Hands"
      ],
      "costumes": [
        "Resistance_Heavy_Hands_01",
        "Resistance_Heavy_Hands_02",
        "Resistance_Heavy_Hands_03"
      ]
    },
    {
      "level": 10,
      "experience": 0,
      "display_names": [
        "Resistance Heavy Hands"
      ],
      "costumes": [
        "Resistance_Heavy_Hands_01",
        "Resistance_Heavy_Hands_02",
        "Resistance_Heavy_Hands_03"
      ]
    },
    {
      "level": 11,
      "experience": 0,
      "display_names": [
        "Resistance Heavy Hands"
      ],
      "costumes": [
        "Resistance_Heavy_Hands_01",
        "Resistance_Heavy_Hands_02",
        "Resistance_Heavy_Hands_03"
      ]
    },
    {
      "level": 12,
      "experience": 0,
      "display_names": [
        "Resistance Heavy Hands"
      ],
      "costumes": [
        "Resistance_Heavy_Hands_01",
        "Resistance_Heavy_Hands_02",
        "Resistance_Heavy_Hands_03"
      ]
    },
    {
      "level": 13,
      "experience": 0,
      "display_names": [
        "Resistance Heavy Hands"
      ],
      "costumes": [
        "Resistance_Heavy_Hands_01",
        "Resistance_Heavy_Hands_02",
        "Resistance_Heavy_Hands_03"
      ]
    },
    {
      "level": 14,
      "experience": 0,
      "display_names": [
        "Resistance Heavy Hands"
      ],
      "costumes": [
        "Resistance_Heavy_Hands_01",
        "Resistance_Heavy_Hands_02",
        "Resistance_Heavy_Hands_03"
      ]
    },
    {
      "level": 15,
      "experience": 0,
      "display_names": [
        "Resistance Heavy Hands"
      ],
      "costumes": [
        "Resistance_Heavy_Hands_01",
        "Resistance_Heavy_Hands_02",
        "Resistance_Heavy_Hands_03"
      ]
    },
    {
      "level": 16,
      "experience": 0,
      "display_names": [
        "Resistance Heavy Hands"
      ],
      "costumes": [
        "Resistance_Heavy_Hands_01",
        "Resistance_Heavy_Hands_02",
        "Resistance_Heavy_Hands_03"
      ]
    },
    {
      "level": 17,
      "experience": 0,
      "display_names": [
        "Resistance Heavy Hands"
      ],
      "costumes": [
        "Resistance_Heavy_Hands_01",
        "Resistance_Heavy_Hands_02",
        "Resistance_Heavy_Hands_03"
      ]
    },
    {
      "level": 18,
      "experience": 0,
      "display_names": [
        "Resistance Heavy Hands"
      ],
      "costumes": [
        "Resistance_Heavy_Hands_01",
        "Resistance_Heavy_Hands_02",
        "Resistance_Heavy_Hands_03"
      ]
    },
    {
      "level": 19,
      "experience": 0,
      "display_names": [
        "Resistance Heavy Hands"
      ],
      "costumes": [
        "Resistance_Heavy_Hands_01",
        "Resistance_Heavy_Hands_02",
        "Resistance_Heavy_Hands_03"
      ]
    },
    {
      "level": 20,
      "experience": 0,
      "display_names": [
        "Resistance Heavy Hands"
      ],
      "costumes": [
        "Resistance_Heavy_Hands_01",
        "Resistance_Heavy_Hands_02",
        "Resistance_Heavy_Hands_03"
      ]
    },
    {
      "level": 21,
      "experience": 0,
      "display_names": [
        "Resistance Heavy Hands"
      ],
      "costumes": [
        "Resistance_Heavy_Hands_01",
        "Resistance_Heavy_Hands_02",
        "Resistance_Heavy_Hands_03"
      ]
    },
    {
      "level": 22,
      "experience": 0,
      "display_names": [
        "Resistance Heavy Hands"
      ],
      "costumes": [
        "Resistance_Heavy_Hands_01",
        "Resistance_Heavy_Hands_02",
        "Resistance_Heavy_Hands_03"
      ]
    },
    {
      "level": 23,
      "experience": 0,
      "display_names": [
        "Resistance Heavy Hands"
      ],
      "costumes": [
        "Resistance_Heavy_Hands_01",
        "Resistance_Heavy_Hands_02",
        "Resistance_Heavy_Hands_03"
      ]
    },
    {
      "level": 24,
      "experience": 0,
      "display_names": [
        "Resistance Heavy Hands"
      ],
      "costumes": [
        "Resistance_Heavy_Hands_01",
        "Resistance_Heavy_Hands_02",
        "Resistance_Heavy_Hands_03"
      ]
    },
    {
      "level": 25,
      "experience": 0,
      "display_names": [
        "Resistance Heavy Hands"
      ],
      "costumes": [
        "Resistance_Heavy_Hands_01",
        "Resistance_Heavy_Hands_02",
        "Resistance_Heavy_Hands_03"
      ]
    },
    {
      "level": 26,
      "experience": 0,
      "display_names": [
        "Resistance Heavy Hands"
      ],
      "costumes": [
        "Resistance_Heavy_Hands_01",
        "Resistance_Heavy_Hands_02",
        "Resistance_Heavy_Hands_03"
      ]
    },
    {
      "level": 27,
      "experience": 0,
      "display_names": [
        "Resistance Heavy Hands"
      ],
      "costumes": [
        "Resistance_Heavy_Hands_01",
        "Resistance_Heavy_Hands_02",
        "Resistance_Heavy_Hands_03"
      ]
    },
    {
      "level": 28,
      "experience": 0,
      "display_names": [
        "Resistance Heavy Hands"
      ],
      "costumes": [
        "Resistance_Heavy_Hands_01",
        "Resistance_Heavy_Hands_02",
        "Resistance_Heavy_Hands_03"
      ]
    },
    {
      "level": 29,
      "experience": 0,
      "display_names": [
        "Resistance Heavy Hands"
      ],
      "costumes": [
        "Resistance_Heavy_Hands_01",
        "Resistance_Heavy_Hands_02",
        "Resistance_Heavy_Hands_03"
      ]
    },
    {
      "level": 30,
      "experience": 0,
      "display_names": [
        "Resistance Heavy Hands"
      ],
      "costumes": [
        "Resistance_Heavy_Hands_01",
        "Resistance_Heavy_Hands_02",
        "Resistance_Heavy_Hands_03"
      ]
    },
    {
      "level": 31,
      "experience": 0,
      "display_names": [
        "Resistance Heavy Hands"
      ],
      "costumes": [
        "Resistance_Heavy_Hands_01",
        "Resistance_Heavy_Hands_02",
        "Resistance_Heavy_Hands_03"
      ]
    },
    {
      "level": 32,
      "experience": 0,
      "display_names": [
        "Resistance Heavy Hands"
      ],
      "costumes": [
        "Resistance_Heavy_Hands_01",
        "Resistance_Heavy_Hands_02",
        "Resistance_Heavy_Hands_03"
      ]
    },
    {
      "level": 33,
      "experience": 0,
      "display_names": [
        "Resistance Heavy Hands"
      ],
      "costumes": [
        "Resistance_Heavy_Hands_01",
        "Resistance_Heavy_Hands_02",
        "Resistance_Heavy_Hands_03"
      ]
    },
    {
      "level": 34,
      "experience": 0,
      "display_names": [
        "Resistance Heavy Hands"
      ],
      "costumes": [
        "Resistance_Heavy_Hands_01",
        "Resistance_Heavy_Hands_02",
        "Resistance_Heavy_Hands_03"
      ]
    }
  ]
}