{
  "name": "PraetorianResistance_Crow",
  "gender": "GENDER_MALE",
  "description": "Crow is the only surviving member of an elite military unit that was subjected to one of Neuron's experiments. Though he does not excuse Neuron of his carelessness, it is his commander, Colonel Duray, that is the focus of his vengeace.",
  "group_description": null,
  "display_class_name": null,
  "character_class_name": "boss_grunt",
  "ai_config": "Default_Ranged",
  "commandable_pet": false,
  "power_tags": [
    "HumanSkeleton",
    "Human"
  ],
  "additional_rewards": [

  ],
  "skill_hp_rewards": [

  ],
  "skill_status_rewards": [

  ],
  "ally": null,
  "gang": null,
  "reward_scale": 1.0,
  "game_exclusion": "None",
  "inactive_state_weapon": null,
  "ignores_combat_mods": false,
  "copy_creator_mods": false,
  "spawn_limit": 0,
  "spawn_limit_mission": 0,
  "ignore_av_to_eb_scaling": false,
  "can_zone": false,
  "custom_badge_stat": null,
  "badge_stat_flags": "DefaultBadgeStat",
  "rank": "VR_BOSS",
  "power_full_names": [
    "PraetorianResistance.LT_Rifle.Single_Shot",
    "PraetorianResistance.LT_Rifle.Heavy_Burst",
    "PraetorianResistance.LT_Rifle.Covering_Fire",
    "V_GenericVillains.Energy_Brute_Low.Barrage",
    "V_GenericVillains.Energy_Brute_Low.Energy_Punch",
    "PraetorianResistance.Boss_Officer_Leadership.Leadership_Low",
    "PraetorianResistance.Boss_Officer_Leadership.Leadership_Mid",
    "PraetorianResistance.Boss_Officer_Leadership.Leadership_High"
  ],
  "power_display_names": [
    "Single Shot",
    "Heavy Burst",
    "Covering Fire",
    "Barrage",
    "Energy Punch",
    "Leadership",
    "Leadership",
    "Leadership"
  ],
  "power_levels": [
    0,
    0,
    0,
    0,
    0,
    0,
    0,
    0
  ],
  "powers": [
    {
      "power_category": "PraetorianResistance",
      "power_set": "LT_Rifle",
      "power": "Single_Shot",
      "level": 0
    },
    {
      "power_category": "PraetorianResistance",
      "power_set": "LT_Rifle",
      "power": "Heavy_Burst",
      "level": 0
    },
    {
      "power_category": "PraetorianResistance",
      "power_set": "LT_Rifle",
      "power": "Covering_Fire",
      "level": 0
    },
    {
      "power_category": "V_GenericVillains",
      "power_set": "Energy_Brute_Low",
      "power": "Barrage",
      "level": 0
    },
    {
      "power_category": "V_GenericVillains",
      "power_set": "Energy_Brute_Low",
      "power": "Energy_Punch",
      "level": 0
    },
    {
      "power_category": "PraetorianResistance",
      "power_set": "Boss_Officer_Leadership",
      "power": "*",
      "level": 0
    }
  ],
  "levels": [
    {
      "level": 1,
      "experience": 0,
      "display_names": [
        "Crow"
      ],
      "costumes": [
        "Model_Crow_NoRing"
      ]
    },
    {
      "level": 2,
      "experience": 0,
      "display_names": [
        "Crow"
      ],
      "costumes": [
        "Model_Crow_NoRing"
      ]
    },
    {
      "level": 3,
      "experience": 0,
      "display_names": [
        "Crow"
      ],
      "costumes": [
        "Model_Crow_NoRing"
      ]
    },
    {
      "level": 4,
      "experience": 0,
      "display_names": [
        "Crow"
      ],
      "costumes": [
        "Model_Crow_NoRing"
      ]
    },
    {
      "level": 5,
      "experience": 0,
      "display_names": [
        "Crow"
      ],
      "costumes": [
        "Model_Crow_NoRing"
      ]
    },
    {
      "level": 6,
      "experience": 0,
      "display_names": [
        "Crow"
      ],
      "costumes": [
        "Model_Crow_NoRing"
      ]
    },
    {
      "level": 7,
      "experience": 0,
      "display_names": [
        "Crow"
      ],
      "costumes": [
        "Model_Crow_NoRing"
      ]
    },
    {
      "level": 8,
      "experience": 0,
      "display_names": [
        "Crow"
      ],
      "costumes": [
        "Model_Crow_NoRing"
      ]
    },
    {
      "level": 9,
      "experience": 0,
      "display_names": [
        "Crow"
      ],
      "costumes": [
        "Model_Crow_NoRing"
      ]
    },
    {
      "level": 10,
      "experience": 0,
      "display_names": [
        "Crow"
      ],
      "costumes": [
        "Model_Crow_NoRing"
      ]
    },
    {
      "level": 11,
      "experience": 0,
      "display_names": [
        "Crow"
      ],
      "costumes": [
        "Model_Crow_NoRing"
      ]
    },
    {
      "level": 12,
      "experience": 0,
      "display_names": [
        "Crow"
      ],
      "costumes": [
        "Model_Crow_NoRing"
      ]
    },
    {
      "level": 13,
      "experience": 0,
      "display_names": [
        "Crow"
      ],
      "costumes": [
        "Model_Crow_NoRing"
      ]
    },
    {
      "level": 14,
      "experience": 0,
      "display_names": [
        "Crow"
      ],
      "costumes": [
        "Model_Crow_NoRing"
      ]
    },
    {
      "level": 15,
      "experience": 0,
      "display_names": [
        "Crow"
      ],
      "costumes": [
        "Model_Crow_NoRing"
      ]
    },
    {
      "level": 16,
      "experience": 0,
      "display_names": [
        "Crow"
      ],
      "costumes": [
        "Model_Crow_NoRing"
      ]
    },
    {
      "level": 17,
      "experience": 0,
      "display_names": [
        "Crow"
      ],
      "costumes": [
        "Model_Crow_NoRing"
      ]
    },
    {
      "level": 18,
      "experience": 0,
      "display_names": [
        "Crow"
      ],
      "costumes": [
        "Model_Crow_NoRing"
      ]
    },
    {
      "level": 19,
      "experience": 0,
      "display_names": [
        "Crow"
      ],
      "costumes": [
        "Model_Crow_NoRing"
      ]
    },
    {
      "level": 20,
      "experience": 0,
      "display_names": [
        "Crow"
      ],
      "costumes": [
        "Model_Crow_NoRing"
      ]
    },
    {
      "level": 21,
      "experience": 0,
      "display_names": [
        "Crow"
      ],
      "costumes": [
        "Model_Crow_NoRing"
      ]
    },
    {
      "level": 22,
      "experience": 0,
      "display_names": [
        "Crow"
      ],
      "costumes": [
        "Model_Crow_NoRing"
      ]
    },
    {
      "level": 23,
      "experience": 0,
      "display_names": [
        "Crow"
      ],
      "costumes": [
        "Model_Crow_NoRing"
      ]
    },
    {
      "level": 24,
      "experience": 0,
      "display_names": [
        "Crow"
      ],
      "costumes": [
        "Model_Crow_NoRing"
      ]
    }
  ]
}