{
  "name": "PraetorianShepherds_Soothsayer_Female",
  "gender": "GENDER_FEMALE",
  "description": "Soothsayers are charismatic leaders of the Shepherds. Their unwavering belief in the group's purpose as guardians of First Ward spurs their followers to great success in the face of adversity.",
  "group_description": null,
  "display_class_name": null,
  "character_class_name": "lt_grunt",
  "ai_config": "Default_Ranged",
  "commandable_pet": false,
  "power_tags": [
    "HumanSkeleton",
    "Human"
  ],
  "additional_rewards": [

  ],
  "skill_hp_rewards": [

  ],
  "skill_status_rewards": [

  ],
  "ally": null,
  "gang": null,
  "reward_scale": 1.0,
  "game_exclusion": "None",
  "inactive_state_weapon": null,
  "ignores_combat_mods": false,
  "copy_creator_mods": false,
  "spawn_limit": -1,
  "spawn_limit_mission": -1,
  "ignore_av_to_eb_scaling": false,
  "can_zone": false,
  "custom_badge_stat": null,
  "badge_stat_flags": "DefaultBadgeStat",
  "rank": "VR_LIEUTENANT",
  "power_full_names": [
    "PraetorianShepherds.Resistances.Damage_LT",
    "PraetorianShepherds.Soothsayer.Vengeance",
    "PraetorianShepherds.Soothsayer.Night_Fall",
    "PraetorianShepherds.Soothsayer.Gloom",
    "PraetorianShepherds.Soothsayer.Blackwand"
  ],
  "power_display_names": [
    "Damage Resistance",
    "Vengeance",
    "Night Fall",
    "Gloom",
    "Blackwand"
  ],
  "power_levels": [
    0,
    0,
    0,
    0,
    0
  ],
  "powers": [
    {
      "power_category": "PraetorianShepherds",
      "power_set": "Resistances",
      "power": "Damage_LT",
      "level": 0
    },
    {
      "power_category": "PraetorianShepherds",
      "power_set": "Soothsayer",
      "power": "*",
      "level": 0
    }
  ],
  "levels": [
    {
      "level": 20,
      "experience": 0,
      "display_names": [
        "Soothsayer"
      ],
      "costumes": [
        "ShepherdFemLT1",
        "ShepherdFemLT2",
        "ShepherdFemLT3",
        "ShepherdFemLT4"
      ]
    },
    {
      "level": 21,
      "experience": 0,
      "display_names": [
        "Soothsayer"
      ],
      "costumes": [
        "ShepherdFemLT1",
        "ShepherdFemLT2",
        "ShepherdFemLT3",
        "ShepherdFemLT4"
      ]
    },
    {
      "level": 22,
      "experience": 0,
      "display_names": [
        "Soothsayer"
      ],
      "costumes": [
        "ShepherdFemLT1",
        "ShepherdFemLT2",
        "ShepherdFemLT3",
        "ShepherdFemLT4"
      ]
    },
    {
      "level": 23,
      "experience": 0,
      "display_names": [
        "Soothsayer"
      ],
      "costumes": [
        "ShepherdFemLT1",
        "ShepherdFemLT2",
        "ShepherdFemLT3",
        "ShepherdFemLT4"
      ]
    },
    {
      "level": 24,
      "experience": 0,
      "display_names": [
        "Soothsayer"
      ],
      "costumes": [
        "ShepherdFemLT1",
        "ShepherdFemLT2",
        "ShepherdFemLT3",
        "ShepherdFemLT4"
      ]
    },
    {
      "level": 25,
      "experience": 0,
      "display_names": [
        "Soothsayer"
      ],
      "costumes": [
        "ShepherdFemLT1",
        "ShepherdFemLT2",
        "ShepherdFemLT3",
        "ShepherdFemLT4"
      ]
    },
    {
      "level": 26,
      "experience": 0,
      "display_names": [
        "Soothsayer"
      ],
      "costumes": [
        "ShepherdFemLT1",
        "ShepherdFemLT2",
        "ShepherdFemLT3",
        "ShepherdFemLT4"
      ]
    },
    {
      "level": 27,
      "experience": 0,
      "display_names": [
        "Soothsayer"
      ],
      "costumes": [
        "ShepherdFemLT1",
        "ShepherdFemLT2",
        "ShepherdFemLT3",
        "ShepherdFemLT4"
      ]
    },
    {
      "level": 28,
      "experience": 0,
      "display_names": [
        "Soothsayer"
      ],
      "costumes": [
        "ShepherdFemLT1",
        "ShepherdFemLT2",
        "ShepherdFemLT3",
        "ShepherdFemLT4"
      ]
    },
    {
      "level": 29,
      "experience": 0,
      "display_names": [
        "Soothsayer"
      ],
      "costumes": [
        "ShepherdFemLT1",
        "ShepherdFemLT2",
        "ShepherdFemLT3",
        "ShepherdFemLT4"
      ]
    },
    {
      "level": 30,
      "experience": 0,
      "display_names": [
        "Soothsayer"
      ],
      "costumes": [
        "ShepherdFemLT1",
        "ShepherdFemLT2",
        "ShepherdFemLT3",
        "ShepherdFemLT4"
      ]
    },
    {
      "level": 31,
      "experience": 0,
      "display_names": [
        "Soothsayer"
      ],
      "costumes": [
        "ShepherdFemLT1",
        "ShepherdFemLT2",
        "ShepherdFemLT3",
        "ShepherdFemLT4"
      ]
    },
    {
      "level": 32,
      "experience": 0,
      "display_names": [
        "Soothsayer"
      ],
      "costumes": [
        "ShepherdFemLT1",
        "ShepherdFemLT2",
        "ShepherdFemLT3",
        "ShepherdFemLT4"
      ]
    },
    {
      "level": 33,
      "experience": 0,
      "display_names": [
        "Soothsayer"
      ],
      "costumes": [
        "ShepherdFemLT1",
        "ShepherdFemLT2",
        "ShepherdFemLT3",
        "ShepherdFemLT4"
      ]
    },
    {
      "level": 34,
      "experience": 0,
      "display_names": [
        "Soothsayer"
      ],
      "costumes": [
        "ShepherdFemLT1",
        "ShepherdFemLT2",
        "ShepherdFemLT3",
        "ShepherdFemLT4"
      ]
    }
  ]
}