{
  "name": "PraetorianResistance_Recruit_Tutorial_End",
  "gender": "GENDER_MALE",
  "description": "Resistance Recruits are largely untrained, fresh-faced recruits in the Resistance fighting force. They are equipped with outdated military firearms that have been hastily upgraded with power packs and other accessories to give them a heavy enough punch to threaten the PPD.",
  "group_description": null,
  "display_class_name": null,
  "character_class_name": "lt_grunt",
  "ai_config": "Default_Ranged",
  "commandable_pet": false,
  "power_tags": [
    "HumanSkeleton",
    "Human"
  ],
  "additional_rewards": [

  ],
  "skill_hp_rewards": [

  ],
  "skill_status_rewards": [

  ],
  "ally": null,
  "gang": null,
  "reward_scale": 0.0,
  "game_exclusion": "None",
  "inactive_state_weapon": null,
  "ignores_combat_mods": false,
  "copy_creator_mods": false,
  "spawn_limit": 0,
  "spawn_limit_mission": 0,
  "ignore_av_to_eb_scaling": false,
  "can_zone": false,
  "custom_badge_stat": null,
  "badge_stat_flags": "DefaultBadgeStat",
  "rank": "VR_MINION",
  "power_full_names": [
    "PraetorianResistance.Minion_Low_Tutorial.Burst",
    "PraetorianResistance.Minion_Low_Tutorial.Reduced_Health"
  ],
  "power_display_names": [
    "Burst",
    "Reduced Health"
  ],
  "power_levels": [
    0,
    0
  ],
  "powers": [
    {
      "power_category": "PraetorianResistance",
      "power_set": "Minion_Low_Tutorial",
      "power": "*",
      "level": 0
    }
  ],
  "levels": [
    {
      "level": 1,
      "experience": 0,
      "display_names": [
        "Resistance Recruit"
      ],
      "costumes": [
        "Resistance_Recruit_02"
      ]
    },
    {
      "level": 2,
      "experience": 0,
      "display_names": [
        "Resistance Recruit"
      ],
      "costumes": [
        "Resistance_Recruit_02"
      ]
    },
    {
      "level": 3,
      "experience": 0,
      "display_names": [
        "Resistance Recruit"
      ],
      "costumes": [
        "Resistance_Recruit_02"
      ]
    },
    {
      "level": 4,
      "experience": 0,
      "display_names": [
        "Resistance Recruit"
      ],
      "costumes": [
        "Resistance_Recruit_02"
      ]
    },
    {
      "level": 5,
      "experience": 0,
      "display_names": [
        "Resistance Recruit"
      ],
      "costumes": [
        "Resistance_Recruit_02"
      ]
    }
  ]
}