{
  "name": "PraetorianResistance_Fighter_PrimalMission_Male",
  "gender": "GENDER_MALE",
  "description": "Resistance Fighters are experienced resistance recruits who have learned by doing rather than training. They are equipped with outdated military firearms that have been hastily upgraded with power packs and other accessories to give them a heavy enough punch to threaten the PPD.",
  "group_description": null,
  "display_class_name": null,
  "character_class_name": "minion_grunt",
  "ai_config": "Default_Ranged",
  "commandable_pet": false,
  "power_tags": [
    "HumanSkeleton",
    "Human"
  ],
  "additional_rewards": [

  ],
  "skill_hp_rewards": [

  ],
  "skill_status_rewards": [

  ],
  "ally": null,
  "gang": null,
  "reward_scale": 0.75,
  "game_exclusion": "None",
  "inactive_state_weapon": null,
  "ignores_combat_mods": false,
  "copy_creator_mods": false,
  "spawn_limit": -1,
  "spawn_limit_mission": -1,
  "ignore_av_to_eb_scaling": false,
  "can_zone": false,
  "custom_badge_stat": null,
  "badge_stat_flags": "DefaultBadgeStat",
  "rank": "VR_MINION",
  "power_full_names": [
    "PraetorianResistance.Minion.Power_Punch",
    "PraetorianResistance.Minion.Power_Punch2",
    "PraetorianResistance.Minion.Burst",
    "PraetorianResistance.Minion.Heavy_Burst",
    "PraetorianResistance.Endgame_Gadgets.Targeting_Drone",
    "PraetorianResistance.Endgame_Training.Survivor"
  ],
  "power_display_names": [
    "Power Punch",
    "Power Punch",
    "Burst",
    "Heavy Burst",
    "Targeting Drone",
    "Survivor"
  ],
  "power_levels": [
    0,
    0,
    0,
    0,
    0,
    0
  ],
  "powers": [
    {
      "power_category": "PraetorianResistance",
      "power_set": "Minion",
      "power": "*",
      "level": 0
    },
    {
      "power_category": "PraetorianResistance",
      "power_set": "Endgame_Gadgets",
      "power": "Targeting_Drone",
      "level": 0
    },
    {
      "power_category": "PraetorianResistance",
      "power_set": "Endgame_Training",
      "power": "*",
      "level": 0
    }
  ],
  "levels": [
    {
      "level": 35,
      "experience": 0,
      "display_names": [
        "Elite Resistance Fighter"
      ],
      "costumes": [
        "Resistance_Fighter_01",
        "Resistance_Fighter_02",
        "Resistance_Fighter_03"
      ]
    },
    {
      "level": 36,
      "experience": 0,
      "display_names": [
        "Elite Resistance Fighter"
      ],
      "costumes": [
        "Resistance_Fighter_01",
        "Resistance_Fighter_02",
        "Resistance_Fighter_03"
      ]
    },
    {
      "level": 37,
      "experience": 0,
      "display_names": [
        "Elite Resistance Fighter"
      ],
      "costumes": [
        "Resistance_Fighter_01",
        "Resistance_Fighter_02",
        "Resistance_Fighter_03"
      ]
    },
    {
      "level": 38,
      "experience": 0,
      "display_names": [
        "Elite Resistance Fighter"
      ],
      "costumes": [
        "Resistance_Fighter_01",
        "Resistance_Fighter_02",
        "Resistance_Fighter_03"
      ]
    },
    {
      "level": 39,
      "experience": 0,
      "display_names": [
        "Elite Resistance Fighter"
      ],
      "costumes": [
        "Resistance_Fighter_01",
        "Resistance_Fighter_02",
        "Resistance_Fighter_03"
      ]
    },
    {
      "level": 40,
      "experience": 0,
      "display_names": [
        "Elite Resistance Fighter"
      ],
      "costumes": [
        "Resistance_Fighter_01",
        "Resistance_Fighter_02",
        "Resistance_Fighter_03"
      ]
    },
    {
      "level": 41,
      "experience": 0,
      "display_names": [
        "Elite Resistance Fighter"
      ],
      "costumes": [
        "Resistance_Fighter_01",
        "Resistance_Fighter_02",
        "Resistance_Fighter_03"
      ]
    },
    {
      "level": 42,
      "experience": 0,
      "display_names": [
        "Elite Resistance Fighter"
      ],
      "costumes": [
        "Resistance_Fighter_01",
        "Resistance_Fighter_02",
        "Resistance_Fighter_03"
      ]
    },
    {
      "level": 43,
      "experience": 0,
      "display_names": [
        "Elite Resistance Fighter"
      ],
      "costumes": [
        "Resistance_Fighter_01",
        "Resistance_Fighter_02",
        "Resistance_Fighter_03"
      ]
    },
    {
      "level": 44,
      "experience": 0,
      "display_names": [
        "Elite Resistance Fighter"
      ],
      "costumes": [
        "Resistance_Fighter_01",
        "Resistance_Fighter_02",
        "Resistance_Fighter_03"
      ]
    },
    {
      "level": 45,
      "experience": 0,
      "display_names": [
        "Elite Resistance Fighter"
      ],
      "costumes": [
        "Resistance_Fighter_01",
        "Resistance_Fighter_02",
        "Resistance_Fighter_03"
      ]
    },
    {
      "level": 46,
      "experience": 0,
      "display_names": [
        "Elite Resistance Fighter"
      ],
      "costumes": [
        "Resistance_Fighter_01",
        "Resistance_Fighter_02",
        "Resistance_Fighter_03"
      ]
    },
    {
      "level": 47,
      "experience": 0,
      "display_names": [
        "Elite Resistance Fighter"
      ],
      "costumes": [
        "Resistance_Fighter_01",
        "Resistance_Fighter_02",
        "Resistance_Fighter_03"
      ]
    },
    {
      "level": 48,
      "experience": 0,
      "display_names": [
        "Elite Resistance Fighter"
      ],
      "costumes": [
        "Resistance_Fighter_01",
        "Resistance_Fighter_02",
        "Resistance_Fighter_03"
      ]
    },
    {
      "level": 49,
      "experience": 0,
      "display_names": [
        "Elite Resistance Fighter"
      ],
      "costumes": [
        "Resistance_Fighter_01",
        "Resistance_Fighter_02",
        "Resistance_Fighter_03"
      ]
    },
    {
      "level": 50,
      "experience": 0,
      "display_names": [
        "Elite Resistance Fighter"
      ],
      "costumes": [
        "Resistance_Fighter_01",
        "Resistance_Fighter_02",
        "Resistance_Fighter_03"
      ]
    },
    {
      "level": 51,
      "experience": 0,
      "display_names": [
        "Elite Resistance Fighter"
      ],
      "costumes": [
        "Resistance_Fighter_01",
        "Resistance_Fighter_02",
        "Resistance_Fighter_03"
      ]
    },
    {
      "level": 52,
      "experience": 0,
      "display_names": [
        "Elite Resistance Fighter"
      ],
      "costumes": [
        "Resistance_Fighter_01",
        "Resistance_Fighter_02",
        "Resistance_Fighter_03"
      ]
    },
    {
      "level": 53,
      "experience": 0,
      "display_names": [
        "Elite Resistance Fighter"
      ],
      "costumes": [
        "Resistance_Fighter_01",
        "Resistance_Fighter_02",
        "Resistance_Fighter_03"
      ]
    },
    {
      "level": 54,
      "experience": 0,
      "display_names": [
        "Elite Resistance Fighter"
      ],
      "costumes": [
        "Resistance_Fighter_01",
        "Resistance_Fighter_02",
        "Resistance_Fighter_03"
      ]
    }
  ]
}