{
  "name": "Prisoners_SubmachineGun_Prisoners_Boss",
  "gender": "GENDER_MALE",
  "description": "In some jailbreaks, the toughest of the prisoners manage to overpower the Zig's security guards and grab their weapons.",
  "group_description": null,
  "display_class_name": null,
  "character_class_name": "boss_grunt",
  "ai_config": "Default_Ranged",
  "commandable_pet": false,
  "power_tags": [
    "HumanSkeleton",
    "Human"
  ],
  "additional_rewards": [

  ],
  "skill_hp_rewards": [

  ],
  "skill_status_rewards": [

  ],
  "ally": null,
  "gang": null,
  "reward_scale": 2.0,
  "game_exclusion": "None",
  "inactive_state_weapon": null,
  "ignores_combat_mods": false,
  "copy_creator_mods": false,
  "spawn_limit": -1,
  "spawn_limit_mission": -1,
  "ignore_av_to_eb_scaling": false,
  "can_zone": false,
  "custom_badge_stat": null,
  "badge_stat_flags": "DefaultBadgeStat",
  "rank": "VR_LIEUTENANT",
  "power_full_names": [
    "Prisoners.Prisoners_Boss_SubmachineGun.Submachine_Gun"
  ],
  "power_display_names": [
    "Submachine Gun"
  ],
  "power_levels": [
    0
  ],
  "powers": [
    {
      "power_category": "Prisoners",
      "power_set": "Prisoners_Boss_SubmachineGun",
      "power": "*",
      "level": 0
    }
  ],
  "levels": [
    {
      "level": 30,
      "experience": 0,
      "display_names": [
        "Needles",
        "Nails",
        "Big Al",
        "Jack",
        "Smelly Mel",
        "J.P. Mason",
        "Stevie Greene",
        "Danny-24",
        "Tommy Fontana",
        "Davie",
        "Beastly Keetsoth",
        "Ninja Ray",
        "Dee Nutz",
        "Ennerl",
        "Caro",
        "The Grub",
        "Tia",
        "Bruce"
      ],
      "costumes": [
        "Boss_Prisoner_01",
        "Boss_Prisoner_02",
        "Boss_Prisoner_03",
        "Boss_Prisoner_04",
        "Boss_Prisoner_05",
        "Boss_Prisoner_06"
      ]
    },
    {
      "level": 31,
      "experience": 0,
      "display_names": [
        "Needles",
        "Nails",
        "Big Al",
        "Jack",
        "Smelly Mel",
        "J.P. Mason",
        "Stevie Greene",
        "Danny-24",
        "Tommy Fontana",
        "Davie",
        "Beastly Keetsoth",
        "Ninja Ray",
        "Dee Nutz",
        "Ennerl",
        "Caro",
        "The Grub",
        "Tia",
        "Bruce"
      ],
      "costumes": [
        "Boss_Prisoner_01",
        "Boss_Prisoner_02",
        "Boss_Prisoner_03",
        "Boss_Prisoner_04",
        "Boss_Prisoner_05",
        "Boss_Prisoner_06"
      ]
    },
    {
      "level": 32,
      "experience": 0,
      "display_names": [
        "Needles",
        "Nails",
        "Big Al",
        "Jack",
        "Smelly Mel",
        "J.P. Mason",
        "Stevie Greene",
        "Danny-24",
        "Tommy Fontana",
        "Davie",
        "Beastly Keetsoth",
        "Ninja Ray",
        "Dee Nutz",
        "Ennerl",
        "Caro",
        "The Grub",
        "Tia",
        "Bruce"
      ],
      "costumes": [
        "Boss_Prisoner_01",
        "Boss_Prisoner_02",
        "Boss_Prisoner_03",
        "Boss_Prisoner_04",
        "Boss_Prisoner_05",
        "Boss_Prisoner_06"
      ]
    },
    {
      "level": 33,
      "experience": 0,
      "display_names": [
        "Needles",
        "Nails",
        "Big Al",
        "Jack",
        "Smelly Mel",
        "J.P. Mason",
        "Stevie Greene",
        "Danny-24",
        "Tommy Fontana",
        "Davie",
        "Beastly Keetsoth",
        "Ninja Ray",
        "Dee Nutz",
        "Ennerl",
        "Caro",
        "The Grub",
        "Tia",
        "Bruce"
      ],
      "costumes": [
        "Boss_Prisoner_01",
        "Boss_Prisoner_02",
        "Boss_Prisoner_03",
        "Boss_Prisoner_04",
        "Boss_Prisoner_05",
        "Boss_Prisoner_06"
      ]
    },
    {
      "level": 34,
      "experience": 0,
      "display_names": [
        "Needles",
        "Nails",
        "Big Al",
        "Jack",
        "Smelly Mel",
        "J.P. Mason",
        "Stevie Greene",
        "Danny-24",
        "Tommy Fontana",
        "Davie",
        "Beastly Keetsoth",
        "Ninja Ray",
        "Dee Nutz",
        "Ennerl",
        "Caro",
        "The Grub",
        "Tia",
        "Bruce"
      ],
      "costumes": [
        "Boss_Prisoner_01",
        "Boss_Prisoner_02",
        "Boss_Prisoner_03",
        "Boss_Prisoner_04",
        "Boss_Prisoner_05",
        "Boss_Prisoner_06"
      ]
    },
    {
      "level": 35,
      "experience": 0,
      "display_names": [
        "Needles",
        "Nails",
        "Big Al",
        "Jack",
        "Smelly Mel",
        "J.P. Mason",
        "Stevie Greene",
        "Danny-24",
        "Tommy Fontana",
        "Davie",
        "Beastly Keetsoth",
        "Ninja Ray",
        "Dee Nutz",
        "Ennerl",
        "Caro",
        "The Grub",
        "Tia",
        "Bruce"
      ],
      "costumes": [
        "Boss_Prisoner_01",
        "Boss_Prisoner_02",
        "Boss_Prisoner_03",
        "Boss_Prisoner_04",
        "Boss_Prisoner_05",
        "Boss_Prisoner_06"
      ]
    },
    {
      "level": 36,
      "experience": 0,
      "display_names": [
        "Needles",
        "Nails",
        "Big Al",
        "Jack",
        "Smelly Mel",
        "J.P. Mason",
        "Stevie Greene",
        "Danny-24",
        "Tommy Fontana",
        "Davie",
        "Beastly Keetsoth",
        "Ninja Ray",
        "Dee Nutz",
        "Ennerl",
        "Caro",
        "The Grub",
        "Tia",
        "Bruce"
      ],
      "costumes": [
        "Boss_Prisoner_01",
        "Boss_Prisoner_02",
        "Boss_Prisoner_03",
        "Boss_Prisoner_04",
        "Boss_Prisoner_05",
        "Boss_Prisoner_06"
      ]
    },
    {
      "level": 37,
      "experience": 0,
      "display_names": [
        "Needles",
        "Nails",
        "Big Al",
        "Jack",
        "Smelly Mel",
        "J.P. Mason",
        "Stevie Greene",
        "Danny-24",
        "Tommy Fontana",
        "Davie",
        "Beastly Keetsoth",
        "Ninja Ray",
        "Dee Nutz",
        "Ennerl",
        "Caro",
        "The Grub",
        "Tia",
        "Bruce"
      ],
      "costumes": [
        "Boss_Prisoner_01",
        "Boss_Prisoner_02",
        "Boss_Prisoner_03",
        "Boss_Prisoner_04",
        "Boss_Prisoner_05",
        "Boss_Prisoner_06"
      ]
    },
    {
      "level": 38,
      "experience": 0,
      "display_names": [
        "Needles",
        "Nails",
        "Big Al",
        "Jack",
        "Smelly Mel",
        "J.P. Mason",
        "Stevie Greene",
        "Danny-24",
        "Tommy Fontana",
        "Davie",
        "Beastly Keetsoth",
        "Ninja Ray",
        "Dee Nutz",
        "Ennerl",
        "Caro",
        "The Grub",
        "Tia",
        "Bruce"
      ],
      "costumes": [
        "Boss_Prisoner_01",
        "Boss_Prisoner_02",
        "Boss_Prisoner_03",
        "Boss_Prisoner_04",
        "Boss_Prisoner_05",
        "Boss_Prisoner_06"
      ]
    }
  ]
}