{
  "name": "Reflections_Penumbra_Elite_Martial_Arts",
  "gender": "GENDER_MALE",
  "description": "The Reflections seem to echo the villains of other worlds, not just in appearance, but also in demeanor. These Reflections of Council agents are expert soldiers, as skilled and deadly as any Navy SEAL.",
  "group_description": "Shadow Shard Reflections",
  "display_class_name": null,
  "character_class_name": "minion_grunt",
  "ai_config": "5thColumn_Fog_Base",
  "commandable_pet": false,
  "power_tags": [
    "HumanSkeleton"
  ],
  "additional_rewards": [

  ],
  "skill_hp_rewards": [

  ],
  "skill_status_rewards": [

  ],
  "ally": null,
  "gang": null,
  "reward_scale": 1.0,
  "game_exclusion": "None",
  "inactive_state_weapon": null,
  "ignores_combat_mods": false,
  "copy_creator_mods": false,
  "spawn_limit": -1,
  "spawn_limit_mission": -1,
  "ignore_av_to_eb_scaling": false,
  "can_zone": false,
  "custom_badge_stat": null,
  "badge_stat_flags": "DefaultBadgeStat",
  "rank": "VR_MINION",
  "power_full_names": [
    "Rularuu.Reflections.Resistance",
    "Council.Soldier_Melee.Brawl",
    "Council.Sonic_Rifle.Sonic_Blast"
  ],
  "power_display_names": [
    "Resistance",
    "Brawl",
    "Sonic Blast"
  ],
  "power_levels": [
    0,
    0,
    0
  ],
  "powers": [
    {
      "power_category": "Rularuu",
      "power_set": "Reflections",
      "power": "*",
      "level": 0
    },
    {
      "power_category": "Council",
      "power_set": "Soldier_Melee",
      "power": "*",
      "level": 0
    },
    {
      "power_category": "Council",
      "power_set": "Sonic_Rifle",
      "power": "*",
      "level": 0
    }
  ],
  "levels": [
    {
      "level": 41,
      "experience": 0,
      "display_names": [
        "Penumbra Elite Sonic"
      ],
      "costumes": [
        "Council_Penumbra_Khaki_01"
      ]
    },
    {
      "level": 42,
      "experience": 0,
      "display_names": [
        "Penumbra Elite Sonic"
      ],
      "costumes": [
        "Council_Penumbra_Khaki_01"
      ]
    },
    {
      "level": 43,
      "experience": 0,
      "display_names": [
        "Penumbra Elite Sonic"
      ],
      "costumes": [
        "Council_Penumbra_Khaki_01"
      ]
    },
    {
      "level": 44,
      "experience": 0,
      "display_names": [
        "Penumbra Elite Sonic"
      ],
      "costumes": [
        "Council_Penumbra_Khaki_01"
      ]
    },
    {
      "level": 45,
      "experience": 0,
      "display_names": [
        "Penumbra Elite Sonic"
      ],
      "costumes": [
        "Council_Penumbra_Khaki_01"
      ]
    },
    {
      "level": 46,
      "experience": 0,
      "display_names": [
        "Penumbra Elite Sonic"
      ],
      "costumes": [
        "Council_Penumbra_Khaki_01"
      ]
    },
    {
      "level": 47,
      "experience": 0,
      "display_names": [
        "Penumbra Elite Sonic"
      ],
      "costumes": [
        "Council_Penumbra_Khaki_01"
      ]
    },
    {
      "level": 48,
      "experience": 0,
      "display_names": [
        "Penumbra Elite Sonic"
      ],
      "costumes": [
        "Council_Penumbra_Khaki_01"
      ]
    },
    {
      "level": 49,
      "experience": 0,
      "display_names": [
        "Penumbra Elite Sonic"
      ],
      "costumes": [
        "Council_Penumbra_Khaki_01"
      ]
    },
    {
      "level": 50,
      "experience": 0,
      "display_names": [
        "Penumbra Elite Sonic"
      ],
      "costumes": [
        "Council_Penumbra_Khaki_01"
      ]
    },
    {
      "level": 51,
      "experience": 0,
      "display_names": [
        "Penumbra Elite Sonic"
      ],
      "costumes": [
        "Council_Penumbra_Khaki_01"
      ]
    },
    {
      "level": 52,
      "experience": 0,
      "display_names": [
        "Penumbra Elite Sonic"
      ],
      "costumes": [
        "Council_Penumbra_Khaki_01"
      ]
    },
    {
      "level": 53,
      "experience": 0,
      "display_names": [
        "Penumbra Elite Sonic"
      ],
      "costumes": [
        "Council_Penumbra_Khaki_01"
      ]
    },
    {
      "level": 54,
      "experience": 0,
      "display_names": [
        "Penumbra Elite Sonic"
      ],
      "costumes": [
        "Council_Penumbra_Khaki_01"
      ]
    }
  ]
}