{
  "name": "Reflections_The_High_Life",
  "gender": "GENDER_MALE",
  "description": "The Reflections seem to be exact copies of the terrors that exist on other worlds. It is unknown whether these mystics are Reflections of Paragon City's Circle of Thorns, or of the Oranbegans from some other dimension. What is certain is that they fight with the same utter disregard for life that Paragon City's heroes have witnessed many a time.",
  "group_description": "Shadow Shard Reflections",
  "display_class_name": null,
  "character_class_name": "lt_grunt",
  "ai_config": "Default_Ranged",
  "commandable_pet": false,
  "power_tags": [
    "HumanSkeleton"
  ],
  "additional_rewards": [

  ],
  "skill_hp_rewards": [

  ],
  "skill_status_rewards": [

  ],
  "ally": null,
  "gang": null,
  "reward_scale": 1.0,
  "game_exclusion": "None",
  "inactive_state_weapon": null,
  "ignores_combat_mods": false,
  "copy_creator_mods": false,
  "spawn_limit": -1,
  "spawn_limit_mission": -1,
  "ignore_av_to_eb_scaling": false,
  "can_zone": false,
  "custom_badge_stat": null,
  "badge_stat_flags": "DefaultBadgeStat",
  "rank": "VR_LIEUTENANT",
  "power_full_names": [
    "Rularuu.Reflections.Resistance",
    "CircleOfThorns.Circle_High_Melee.Brawl",
    "CircleOfThorns.Circle_High_Life_Ranged.Poison_Staff",
    "CircleOfThorns.Circle_Kamakaze.Kamikaze"
  ],
  "power_display_names": [
    "Resistance",
    "Brawl",
    "Poison Staff",
    "Kamikaze"
  ],
  "power_levels": [
    0,
    0,
    0,
    0
  ],
  "powers": [
    {
      "power_category": "Rularuu",
      "power_set": "Reflections",
      "power": "*",
      "level": 0
    },
    {
      "power_category": "CircleOfThorns",
      "power_set": "Circle_High_Melee",
      "power": "*",
      "level": 0
    },
    {
      "power_category": "CircleOfThorns",
      "power_set": "Circle_High_Life_Ranged",
      "power": "*",
      "level": 0
    },
    {
      "power_category": "CircleOfThorns",
      "power_set": "Circle_Kamakaze",
      "power": "*",
      "level": 0
    }
  ],
  "levels": [
    {
      "level": 41,
      "experience": 0,
      "display_names": [
        "Life Mage"
      ],
      "costumes": [
        "CoT_Lt_01",
        "CoT_Lt_02",
        "CoT_Lt_03"
      ]
    },
    {
      "level": 42,
      "experience": 0,
      "display_names": [
        "Life Mage"
      ],
      "costumes": [
        "CoT_Lt_01",
        "CoT_Lt_02",
        "CoT_Lt_03"
      ]
    },
    {
      "level": 43,
      "experience": 0,
      "display_names": [
        "Life Mage"
      ],
      "costumes": [
        "CoT_Lt_01",
        "CoT_Lt_02",
        "CoT_Lt_03"
      ]
    },
    {
      "level": 44,
      "experience": 0,
      "display_names": [
        "Life Mage"
      ],
      "costumes": [
        "CoT_Lt_01",
        "CoT_Lt_02",
        "CoT_Lt_03"
      ]
    },
    {
      "level": 45,
      "experience": 0,
      "display_names": [
        "Life Mage"
      ],
      "costumes": [
        "CoT_Lt_01",
        "CoT_Lt_02",
        "CoT_Lt_03"
      ]
    },
    {
      "level": 46,
      "experience": 0,
      "display_names": [
        "Life Mage"
      ],
      "costumes": [
        "CoT_Lt_01",
        "CoT_Lt_02",
        "CoT_Lt_03"
      ]
    },
    {
      "level": 47,
      "experience": 0,
      "display_names": [
        "Life Mage"
      ],
      "costumes": [
        "CoT_Lt_01",
        "CoT_Lt_02",
        "CoT_Lt_03"
      ]
    },
    {
      "level": 48,
      "experience": 0,
      "display_names": [
        "Life Mage"
      ],
      "costumes": [
        "CoT_Lt_01",
        "CoT_Lt_02",
        "CoT_Lt_03"
      ]
    },
    {
      "level": 49,
      "experience": 0,
      "display_names": [
        "Life Mage"
      ],
      "costumes": [
        "CoT_Lt_01",
        "CoT_Lt_02",
        "CoT_Lt_03"
      ]
    },
    {
      "level": 50,
      "experience": 0,
      "display_names": [
        "Life Mage"
      ],
      "costumes": [
        "CoT_Lt_01",
        "CoT_Lt_02",
        "CoT_Lt_03"
      ]
    },
    {
      "level": 51,
      "experience": 0,
      "display_names": [
        "Life Mage"
      ],
      "costumes": [
        "CoT_Lt_01",
        "CoT_Lt_02",
        "CoT_Lt_03"
      ]
    },
    {
      "level": 52,
      "experience": 0,
      "display_names": [
        "Life Mage"
      ],
      "costumes": [
        "CoT_Lt_01",
        "CoT_Lt_02",
        "CoT_Lt_03"
      ]
    },
    {
      "level": 53,
      "experience": 0,
      "display_names": [
        "Life Mage"
      ],
      "costumes": [
        "CoT_Lt_01",
        "CoT_Lt_02",
        "CoT_Lt_03"
      ]
    },
    {
      "level": 54,
      "experience": 0,
      "display_names": [
        "Life Mage"
      ],
      "costumes": [
        "CoT_Lt_01",
        "CoT_Lt_02",
        "CoT_Lt_03"
      ]
    }
  ]
}