{
  "name": "Reflections_Cryo_Scientist_Lt",
  "gender": "GENDER_MALE",
  "description": "The Reflections seem to echo the villains of other dimensions not just in appearance, but in demeanor as well. These Reflections of Crey scientists are every bit as clinical and cold-hearted as those from Paragon City. Like their predecessors, they are also extremely well-armed.",
  "group_description": "Shadow Shard Reflections",
  "display_class_name": null,
  "character_class_name": "lt_grunt",
  "ai_config": "Default_Ranged",
  "commandable_pet": false,
  "power_tags": [
    "HumanSkeleton"
  ],
  "additional_rewards": [

  ],
  "skill_hp_rewards": [

  ],
  "skill_status_rewards": [

  ],
  "ally": null,
  "gang": null,
  "reward_scale": 1.0,
  "game_exclusion": "None",
  "inactive_state_weapon": null,
  "ignores_combat_mods": false,
  "copy_creator_mods": false,
  "spawn_limit": 2,
  "spawn_limit_mission": 2,
  "ignore_av_to_eb_scaling": false,
  "can_zone": false,
  "custom_badge_stat": null,
  "badge_stat_flags": "DefaultBadgeStat",
  "rank": "VR_LIEUTENANT",
  "power_full_names": [
    "Rularuu.Reflections.Resistance",
    "Crey.Crey_Minion_Lt_Scientist_Melee.Brawl",
    "Crey.Scientist_Lt_Heavy_Rifle.Heavy_Cryo_Rifle"
  ],
  "power_display_names": [
    "Resistance",
    "Brawl",
    "Heavy Cryo Rifle"
  ],
  "power_levels": [
    0,
    0,
    0
  ],
  "powers": [
    {
      "power_category": "Rularuu",
      "power_set": "Reflections",
      "power": "*",
      "level": 0
    },
    {
      "power_category": "Crey",
      "power_set": "Crey_Minion_Lt_Scientist_Melee",
      "power": "*",
      "level": 0
    },
    {
      "power_category": "Crey",
      "power_set": "Scientist_Lt_Heavy_Rifle",
      "power": "*",
      "level": 0
    }
  ],
  "levels": [
    {
      "level": 41,
      "experience": 0,
      "display_names": [
        "Chief Cryo Scientist"
      ],
      "costumes": [
        "CSC_05",
        "CSC_06"
      ]
    },
    {
      "level": 42,
      "experience": 0,
      "display_names": [
        "Chief Cryo Scientist"
      ],
      "costumes": [
        "CSC_05",
        "CSC_06"
      ]
    },
    {
      "level": 43,
      "experience": 0,
      "display_names": [
        "Chief Cryo Scientist"
      ],
      "costumes": [
        "CSC_05",
        "CSC_06"
      ]
    },
    {
      "level": 44,
      "experience": 0,
      "display_names": [
        "Chief Cryo Scientist"
      ],
      "costumes": [
        "CSC_05",
        "CSC_06"
      ]
    },
    {
      "level": 45,
      "experience": 0,
      "display_names": [
        "Chief Cryo Scientist"
      ],
      "costumes": [
        "CSC_05",
        "CSC_06"
      ]
    },
    {
      "level": 46,
      "experience": 0,
      "display_names": [
        "Chief Cryo Scientist"
      ],
      "costumes": [
        "CSC_05",
        "CSC_06"
      ]
    },
    {
      "level": 47,
      "experience": 0,
      "display_names": [
        "Chief Cryo Scientist"
      ],
      "costumes": [
        "CSC_05",
        "CSC_06"
      ]
    },
    {
      "level": 48,
      "experience": 0,
      "display_names": [
        "Chief Cryo Scientist"
      ],
      "costumes": [
        "CSC_05",
        "CSC_06"
      ]
    },
    {
      "level": 49,
      "experience": 0,
      "display_names": [
        "Chief Cryo Scientist"
      ],
      "costumes": [
        "CSC_05",
        "CSC_06"
      ]
    },
    {
      "level": 50,
      "experience": 0,
      "display_names": [
        "Chief Cryo Scientist"
      ],
      "costumes": [
        "CSC_05",
        "CSC_06"
      ]
    },
    {
      "level": 51,
      "experience": 0,
      "display_names": [
        "Chief Cryo Scientist"
      ],
      "costumes": [
        "CSC_05",
        "CSC_06"
      ]
    },
    {
      "level": 52,
      "experience": 0,
      "display_names": [
        "Chief Cryo Scientist"
      ],
      "costumes": [
        "CSC_05",
        "CSC_06"
      ]
    },
    {
      "level": 53,
      "experience": 0,
      "display_names": [
        "Chief Cryo Scientist"
      ],
      "costumes": [
        "CSC_05",
        "CSC_06"
      ]
    },
    {
      "level": 54,
      "experience": 0,
      "display_names": [
        "Chief Cryo Scientist"
      ],
      "costumes": [
        "CSC_05",
        "CSC_06"
      ]
    }
  ]
}