{
  "name": "Rikti_Nictus_Hunter_Lt",
  "gender": "GENDER_MALE",
  "description": "The Rikti battle armor is more advanced than any armor found on Earth. It offers the alien invaders protection from most normal kinds of physical attack. Armed with powerful energy weapons, these armored soldiers continue to pose a deadly threat to humans everywhere.",
  "group_description": "Rikti",
  "display_class_name": null,
  "character_class_name": "lt_grunt",
  "ai_config": "Nictus_Hunter",
  "commandable_pet": false,
  "power_tags": [

  ],
  "additional_rewards": [

  ],
  "skill_hp_rewards": [

  ],
  "skill_status_rewards": [

  ],
  "ally": null,
  "gang": null,
  "reward_scale": 1.0,
  "game_exclusion": "None",
  "inactive_state_weapon": null,
  "ignores_combat_mods": false,
  "copy_creator_mods": false,
  "spawn_limit": 0,
  "spawn_limit_mission": 0,
  "ignore_av_to_eb_scaling": false,
  "can_zone": false,
  "custom_badge_stat": null,
  "badge_stat_flags": "DefaultBadgeStat",
  "rank": "VR_LIEUTENANT",
  "power_full_names": [
    "Nictus.Hunter.Quantum_Array_gun",
    "Rikti.Rikti_Boss_Defense.Resistance"
  ],
  "power_display_names": [
    "Quantum Array gun",
    "Resistance"
  ],
  "power_levels": [
    0,
    0
  ],
  "powers": [
    {
      "power_category": "Nictus",
      "power_set": "Hunter",
      "power": "Quantum_Array_gun",
      "level": 0
    },
    {
      "power_category": "Rikti",
      "power_set": "Rikti_Boss_Defense",
      "power": "*",
      "level": 0
    }
  ],
  "levels": [
    {
      "level": 1,
      "experience": 0,
      "display_names": [
        "Headman Quantum Soldier"
      ],
      "costumes": [
        "Rikti_Armour_Minion_06"
      ]
    },
    {
      "level": 2,
      "experience": 0,
      "display_names": [
        "Headman Quantum Soldier"
      ],
      "costumes": [
        "Rikti_Armour_Minion_06"
      ]
    },
    {
      "level": 3,
      "experience": 0,
      "display_names": [
        "Headman Quantum Soldier"
      ],
      "costumes": [
        "Rikti_Armour_Minion_06"
      ]
    },
    {
      "level": 4,
      "experience": 0,
      "display_names": [
        "Headman Quantum Soldier"
      ],
      "costumes": [
        "Rikti_Armour_Minion_06"
      ]
    },
    {
      "level": 5,
      "experience": 0,
      "display_names": [
        "Headman Quantum Soldier"
      ],
      "costumes": [
        "Rikti_Armour_Minion_06"
      ]
    },
    {
      "level": 6,
      "experience": 0,
      "display_names": [
        "Headman Quantum Soldier"
      ],
      "costumes": [
        "Rikti_Armour_Minion_06"
      ]
    },
    {
      "level": 7,
      "experience": 0,
      "display_names": [
        "Headman Quantum Soldier"
      ],
      "costumes": [
        "Rikti_Armour_Minion_06"
      ]
    },
    {
      "level": 8,
      "experience": 0,
      "display_names": [
        "Headman Quantum Soldier"
      ],
      "costumes": [
        "Rikti_Armour_Minion_06"
      ]
    },
    {
      "level": 9,
      "experience": 0,
      "display_names": [
        "Headman Quantum Soldier"
      ],
      "costumes": [
        "Rikti_Armour_Minion_06"
      ]
    },
    {
      "level": 10,
      "experience": 0,
      "display_names": [
        "Headman Quantum Soldier"
      ],
      "costumes": [
        "Rikti_Armour_Minion_06"
      ]
    },
    {
      "level": 11,
      "experience": 0,
      "display_names": [
        "Headman Quantum Soldier"
      ],
      "costumes": [
        "Rikti_Armour_Minion_06"
      ]
    },
    {
      "level": 12,
      "experience": 0,
      "display_names": [
        "Headman Quantum Soldier"
      ],
      "costumes": [
        "Rikti_Armour_Minion_06"
      ]
    },
    {
      "level": 13,
      "experience": 0,
      "display_names": [
        "Headman Quantum Soldier"
      ],
      "costumes": [
        "Rikti_Armour_Minion_06"
      ]
    },
    {
      "level": 14,
      "experience": 0,
      "display_names": [
        "Headman Quantum Soldier"
      ],
      "costumes": [
        "Rikti_Armour_Minion_06"
      ]
    },
    {
      "level": 15,
      "experience": 0,
      "display_names": [
        "Headman Quantum Soldier"
      ],
      "costumes": [
        "Rikti_Armour_Minion_06"
      ]
    },
    {
      "level": 16,
      "experience": 0,
      "display_names": [
        "Headman Quantum Soldier"
      ],
      "costumes": [
        "Rikti_Armour_Minion_06"
      ]
    },
    {
      "level": 17,
      "experience": 0,
      "display_names": [
        "Headman Quantum Soldier"
      ],
      "costumes": [
        "Rikti_Armour_Minion_06"
      ]
    },
    {
      "level": 18,
      "experience": 0,
      "display_names": [
        "Headman Quantum Soldier"
      ],
      "costumes": [
        "Rikti_Armour_Minion_06"
      ]
    },
    {
      "level": 19,
      "experience": 0,
      "display_names": [
        "Headman Quantum Soldier"
      ],
      "costumes": [
        "Rikti_Armour_Minion_06"
      ]
    },
    {
      "level": 20,
      "experience": 0,
      "display_names": [
        "Headman Quantum Soldier"
      ],
      "costumes": [
        "Rikti_Armour_Minion_06"
      ]
    },
    {
      "level": 21,
      "experience": 0,
      "display_names": [
        "Headman Quantum Soldier"
      ],
      "costumes": [
        "Rikti_Armour_Minion_06"
      ]
    },
    {
      "level": 22,
      "experience": 0,
      "display_names": [
        "Headman Quantum Soldier"
      ],
      "costumes": [
        "Rikti_Armour_Minion_06"
      ]
    },
    {
      "level": 23,
      "experience": 0,
      "display_names": [
        "Headman Quantum Soldier"
      ],
      "costumes": [
        "Rikti_Armour_Minion_06"
      ]
    },
    {
      "level": 24,
      "experience": 0,
      "display_names": [
        "Headman Quantum Soldier"
      ],
      "costumes": [
        "Rikti_Armour_Minion_06"
      ]
    },
    {
      "level": 25,
      "experience": 0,
      "display_names": [
        "Headman Quantum Soldier"
      ],
      "costumes": [
        "Rikti_Armour_Minion_06"
      ]
    },
    {
      "level": 26,
      "experience": 0,
      "display_names": [
        "Headman Quantum Soldier"
      ],
      "costumes": [
        "Rikti_Armour_Minion_06"
      ]
    },
    {
      "level": 27,
      "experience": 0,
      "display_names": [
        "Headman Quantum Soldier"
      ],
      "costumes": [
        "Rikti_Armour_Minion_06"
      ]
    },
    {
      "level": 28,
      "experience": 0,
      "display_names": [
        "Headman Quantum Soldier"
      ],
      "costumes": [
        "Rikti_Armour_Minion_06"
      ]
    },
    {
      "level": 29,
      "experience": 0,
      "display_names": [
        "Headman Quantum Soldier"
      ],
      "costumes": [
        "Rikti_Armour_Minion_06"
      ]
    },
    {
      "level": 30,
      "experience": 0,
      "display_names": [
        "Headman Quantum Soldier"
      ],
      "costumes": [
        "Rikti_Armour_Minion_06"
      ]
    },
    {
      "level": 31,
      "experience": 0,
      "display_names": [
        "Headman Quantum Soldier"
      ],
      "costumes": [
        "Rikti_Armour_Minion_06"
      ]
    },
    {
      "level": 32,
      "experience": 0,
      "display_names": [
        "Headman Quantum Soldier"
      ],
      "costumes": [
        "Rikti_Armour_Minion_06"
      ]
    },
    {
      "level": 33,
      "experience": 0,
      "display_names": [
        "Headman Quantum Soldier"
      ],
      "costumes": [
        "Rikti_Armour_Minion_06"
      ]
    },
    {
      "level": 34,
      "experience": 0,
      "display_names": [
        "Headman Quantum Soldier"
      ],
      "costumes": [
        "Rikti_Armour_Minion_06"
      ]
    },
    {
      "level": 35,
      "experience": 0,
      "display_names": [
        "Headman Quantum Soldier"
      ],
      "costumes": [
        "Rikti_Armour_Minion_06"
      ]
    },
    {
      "level": 36,
      "experience": 0,
      "display_names": [
        "Headman Quantum Soldier"
      ],
      "costumes": [
        "Rikti_Armour_Minion_06"
      ]
    },
    {
      "level": 37,
      "experience": 0,
      "display_names": [
        "Headman Quantum Soldier"
      ],
      "costumes": [
        "Rikti_Armour_Minion_06"
      ]
    },
    {
      "level": 38,
      "experience": 0,
      "display_names": [
        "Headman Quantum Soldier"
      ],
      "costumes": [
        "Rikti_Armour_Minion_06"
      ]
    },
    {
      "level": 39,
      "experience": 0,
      "display_names": [
        "Headman Quantum Soldier"
      ],
      "costumes": [
        "Rikti_Armour_Minion_06"
      ]
    },
    {
      "level": 40,
      "experience": 0,
      "display_names": [
        "Headman Quantum Soldier"
      ],
      "costumes": [
        "Rikti_Armour_Minion_06"
      ]
    },
    {
      "level": 41,
      "experience": 0,
      "display_names": [
        "Headman Quantum Soldier"
      ],
      "costumes": [
        "Rikti_Armour_Minion_06"
      ]
    },
    {
      "level": 42,
      "experience": 0,
      "display_names": [
        "Headman Quantum Soldier"
      ],
      "costumes": [
        "Rikti_Armour_Minion_06"
      ]
    },
    {
      "level": 43,
      "experience": 0,
      "display_names": [
        "Headman Quantum Soldier"
      ],
      "costumes": [
        "Rikti_Armour_Minion_06"
      ]
    },
    {
      "level": 44,
      "experience": 0,
      "display_names": [
        "Headman Quantum Soldier"
      ],
      "costumes": [
        "Rikti_Armour_Minion_06"
      ]
    },
    {
      "level": 45,
      "experience": 0,
      "display_names": [
        "Headman Quantum Soldier"
      ],
      "costumes": [
        "Rikti_Armour_Minion_06"
      ]
    },
    {
      "level": 46,
      "experience": 0,
      "display_names": [
        "Headman Quantum Soldier"
      ],
      "costumes": [
        "Rikti_Armour_Minion_06"
      ]
    },
    {
      "level": 47,
      "experience": 0,
      "display_names": [
        "Headman Quantum Soldier"
      ],
      "costumes": [
        "Rikti_Armour_Minion_06"
      ]
    },
    {
      "level": 48,
      "experience": 0,
      "display_names": [
        "Headman Quantum Soldier"
      ],
      "costumes": [
        "Rikti_Armour_Minion_06"
      ]
    },
    {
      "level": 49,
      "experience": 0,
      "display_names": [
        "Headman Quantum Soldier"
      ],
      "costumes": [
        "Rikti_Armour_Minion_06"
      ]
    },
    {
      "level": 50,
      "experience": 0,
      "display_names": [
        "Headman Quantum Soldier"
      ],
      "costumes": [
        "Rikti_Armour_Minion_06"
      ]
    },
    {
      "level": 51,
      "experience": 0,
      "display_names": [
        "Headman Quantum Soldier"
      ],
      "costumes": [
        "Rikti_Armour_Minion_06"
      ]
    },
    {
      "level": 52,
      "experience": 0,
      "display_names": [
        "Headman Quantum Soldier"
      ],
      "costumes": [
        "Rikti_Armour_Minion_06"
      ]
    },
    {
      "level": 53,
      "experience": 0,
      "display_names": [
        "Headman Quantum Soldier"
      ],
      "costumes": [
        "Rikti_Armour_Minion_06"
      ]
    },
    {
      "level": 54,
      "experience": 0,
      "display_names": [
        "Headman Quantum Soldier"
      ],
      "costumes": [
        "Rikti_Armour_Minion_06"
      ]
    }
  ]
}