{
  "name": "Rikti_Unarmored_Rikti_Defender",
  "gender": "GENDER_MALE",
  "description": "The Rikti have come to stand for everything humans hate and fear in the universe. Their unprovoked invasion of Earth has left much of the planet traumatized and angry. Even out of their battle armor, their high-tech weaponry makes Rikti dangerous opponents.",
  "group_description": "Rikti",
  "display_class_name": null,
  "character_class_name": "minion_grunt",
  "ai_config": "Default_Ranged",
  "commandable_pet": false,
  "power_tags": [

  ],
  "additional_rewards": [

  ],
  "skill_hp_rewards": [

  ],
  "skill_status_rewards": [

  ],
  "ally": null,
  "gang": null,
  "reward_scale": 1.2,
  "game_exclusion": "None",
  "inactive_state_weapon": null,
  "ignores_combat_mods": false,
  "copy_creator_mods": false,
  "spawn_limit": -1,
  "spawn_limit_mission": -1,
  "ignore_av_to_eb_scaling": false,
  "can_zone": false,
  "custom_badge_stat": null,
  "badge_stat_flags": "DefaultBadgeStat",
  "rank": "VR_MINION",
  "power_full_names": [
    "Rikti.Rikti_Pistol.Rikti_Pistol",
    "Rikti.Rikti_Defender.Radiation_Emission",
    "Rikti.Rikti_Defender.Accelerate_Metabolism",
    "Rikti.Rikti_Defender.Protection_Shield"
  ],
  "power_display_names": [
    "Rikti Pistol",
    "Radiation Emission",
    "Accelerate Metabolism",
    "Protection Shield"
  ],
  "power_levels": [
    0,
    0,
    0,
    0
  ],
  "powers": [
    {
      "power_category": "Rikti",
      "power_set": "Rikti_Pistol",
      "power": "*",
      "level": 0
    },
    {
      "power_category": "Rikti",
      "power_set": "Rikti_Defender",
      "power": "*",
      "level": 0
    }
  ],
  "levels": [
    {
      "level": 30,
      "experience": 0,
      "display_names": [
        "Guardian"
      ],
      "costumes": [
        "Rikti_Flesh_02"
      ]
    },
    {
      "level": 31,
      "experience": 0,
      "display_names": [
        "Guardian"
      ],
      "costumes": [
        "Rikti_Flesh_02"
      ]
    },
    {
      "level": 32,
      "experience": 0,
      "display_names": [
        "Guardian"
      ],
      "costumes": [
        "Rikti_Flesh_02"
      ]
    },
    {
      "level": 33,
      "experience": 0,
      "display_names": [
        "Guardian"
      ],
      "costumes": [
        "Rikti_Flesh_02"
      ]
    },
    {
      "level": 34,
      "experience": 0,
      "display_names": [
        "Guardian"
      ],
      "costumes": [
        "Rikti_Flesh_02"
      ]
    },
    {
      "level": 35,
      "experience": 0,
      "display_names": [
        "Guardian"
      ],
      "costumes": [
        "Rikti_Flesh_02"
      ]
    },
    {
      "level": 36,
      "experience": 0,
      "display_names": [
        "Guardian"
      ],
      "costumes": [
        "Rikti_Flesh_02"
      ]
    },
    {
      "level": 37,
      "experience": 0,
      "display_names": [
        "Guardian"
      ],
      "costumes": [
        "Rikti_Flesh_02"
      ]
    },
    {
      "level": 38,
      "experience": 0,
      "display_names": [
        "Guardian"
      ],
      "costumes": [
        "Rikti_Flesh_02"
      ]
    },
    {
      "level": 39,
      "experience": 0,
      "display_names": [
        "Guardian"
      ],
      "costumes": [
        "Rikti_Flesh_02"
      ]
    },
    {
      "level": 40,
      "experience": 0,
      "display_names": [
        "Guardian"
      ],
      "costumes": [
        "Rikti_Flesh_02"
      ]
    },
    {
      "level": 41,
      "experience": 0,
      "display_names": [
        "Guardian"
      ],
      "costumes": [
        "Rikti_Flesh_02"
      ]
    },
    {
      "level": 42,
      "experience": 0,
      "display_names": [
        "Guardian"
      ],
      "costumes": [
        "Rikti_Flesh_02"
      ]
    },
    {
      "level": 43,
      "experience": 0,
      "display_names": [
        "Guardian"
      ],
      "costumes": [
        "Rikti_Flesh_02"
      ]
    },
    {
      "level": 44,
      "experience": 0,
      "display_names": [
        "Guardian"
      ],
      "costumes": [
        "Rikti_Flesh_02"
      ]
    },
    {
      "level": 45,
      "experience": 0,
      "display_names": [
        "Guardian"
      ],
      "costumes": [
        "Rikti_Flesh_02"
      ]
    },
    {
      "level": 46,
      "experience": 0,
      "display_names": [
        "Guardian"
      ],
      "costumes": [
        "Rikti_Flesh_02"
      ]
    },
    {
      "level": 47,
      "experience": 0,
      "display_names": [
        "Guardian"
      ],
      "costumes": [
        "Rikti_Flesh_02"
      ]
    },
    {
      "level": 48,
      "experience": 0,
      "display_names": [
        "Guardian"
      ],
      "costumes": [
        "Rikti_Flesh_02"
      ]
    },
    {
      "level": 49,
      "experience": 0,
      "display_names": [
        "Guardian"
      ],
      "costumes": [
        "Rikti_Flesh_02"
      ]
    },
    {
      "level": 50,
      "experience": 0,
      "display_names": [
        "Guardian"
      ],
      "costumes": [
        "Rikti_Flesh_02"
      ]
    },
    {
      "level": 51,
      "experience": 0,
      "display_names": [
        "Guardian"
      ],
      "costumes": [
        "Rikti_Flesh_02"
      ]
    },
    {
      "level": 52,
      "experience": 0,
      "display_names": [
        "Guardian"
      ],
      "costumes": [
        "Rikti_Flesh_02"
      ]
    },
    {
      "level": 53,
      "experience": 0,
      "display_names": [
        "Guardian"
      ],
      "costumes": [
        "Rikti_Flesh_02"
      ]
    },
    {
      "level": 54,
      "experience": 0,
      "display_names": [
        "Guardian"
      ],
      "costumes": [
        "Rikti_Flesh_02"
      ]
    }
  ]
}