{
  "name": "Rikti_Sewer_Trial_Unarmored_Rikti_Infantry",
  "gender": "GENDER_MALE",
  "description": "The Rikti have come to stand for everything humans hate and fear in the universe. Their unprovoked invasion of Earth has left much of the planet traumatized and angry. Even out of their battle armor, their high-tech weaponry makes Rikti dangerous opponents.",
  "group_description": "Rikti",
  "display_class_name": null,
  "character_class_name": "minion_grunt",
  "ai_config": "Default_Melee",
  "commandable_pet": false,
  "power_tags": [

  ],
  "additional_rewards": [

  ],
  "skill_hp_rewards": [

  ],
  "skill_status_rewards": [

  ],
  "ally": null,
  "gang": null,
  "reward_scale": 1.2,
  "game_exclusion": "None",
  "inactive_state_weapon": null,
  "ignores_combat_mods": false,
  "copy_creator_mods": false,
  "spawn_limit": 0,
  "spawn_limit_mission": 0,
  "ignore_av_to_eb_scaling": false,
  "can_zone": false,
  "custom_badge_stat": null,
  "badge_stat_flags": "DefaultBadgeStat",
  "rank": "VR_MINION",
  "power_full_names": [
    "Rikti.Rikti_Sword.Rikti_Sword",
    "Rikti.Rikti_Pistol.Rikti_Pistol"
  ],
  "power_display_names": [
    "Rikti Sword",
    "Rikti Pistol"
  ],
  "power_levels": [
    0,
    0
  ],
  "powers": [
    {
      "power_category": "Rikti",
      "power_set": "Rikti_Sword",
      "power": "*",
      "level": 0
    },
    {
      "power_category": "Rikti",
      "power_set": "Rikti_Pistol",
      "power": "*",
      "level": 0
    }
  ],
  "levels": [
    {
      "level": 42,
      "experience": 0,
      "display_names": [
        "Infantry"
      ],
      "costumes": [
        "Rikti_Flesh_03"
      ]
    },
    {
      "level": 43,
      "experience": 0,
      "display_names": [
        "Infantry"
      ],
      "costumes": [
        "Rikti_Flesh_03"
      ]
    },
    {
      "level": 44,
      "experience": 0,
      "display_names": [
        "Infantry"
      ],
      "costumes": [
        "Rikti_Flesh_03"
      ]
    },
    {
      "level": 45,
      "experience": 0,
      "display_names": [
        "Infantry"
      ],
      "costumes": [
        "Rikti_Flesh_03"
      ]
    },
    {
      "level": 46,
      "experience": 0,
      "display_names": [
        "Infantry"
      ],
      "costumes": [
        "Rikti_Flesh_03"
      ]
    },
    {
      "level": 47,
      "experience": 0,
      "display_names": [
        "Infantry"
      ],
      "costumes": [
        "Rikti_Flesh_03"
      ]
    },
    {
      "level": 48,
      "experience": 0,
      "display_names": [
        "Infantry"
      ],
      "costumes": [
        "Rikti_Flesh_03"
      ]
    },
    {
      "level": 49,
      "experience": 0,
      "display_names": [
        "Infantry"
      ],
      "costumes": [
        "Rikti_Flesh_03"
      ]
    },
    {
      "level": 50,
      "experience": 0,
      "display_names": [
        "Infantry"
      ],
      "costumes": [
        "Rikti_Flesh_03"
      ]
    },
    {
      "level": 51,
      "experience": 0,
      "display_names": [
        "Infantry"
      ],
      "costumes": [
        "Rikti_Flesh_03"
      ]
    },
    {
      "level": 52,
      "experience": 0,
      "display_names": [
        "Infantry"
      ],
      "costumes": [
        "Rikti_Flesh_03"
      ]
    },
    {
      "level": 53,
      "experience": 0,
      "display_names": [
        "Infantry"
      ],
      "costumes": [
        "Rikti_Flesh_03"
      ]
    },
    {
      "level": 54,
      "experience": 0,
      "display_names": [
        "Infantry"
      ],
      "costumes": [
        "Rikti_Flesh_03"
      ]
    }
  ]
}