{
  "name": "Rikti_Hro_Dtohz_Teleporting",
  "gender": "GENDER_MALE",
  "description": "The Supreme Commander of the Rikti Lineage of War, Hro'Dtohz is the one responsible for commanding the vast power of the Rikti Military in the war against Earth. A ruthless tactical genius with his own twisted code of honor, he is set on humanity's extermination or subsumption.",
  "group_description": "Rikti",
  "display_class_name": null,
  "character_class_name": "boss_archvillain",
  "ai_config": "Default_Melee",
  "commandable_pet": false,
  "power_tags": [

  ],
  "additional_rewards": [

  ],
  "skill_hp_rewards": [

  ],
  "skill_status_rewards": [

  ],
  "ally": null,
  "gang": null,
  "reward_scale": 1.0,
  "game_exclusion": "None",
  "inactive_state_weapon": null,
  "ignores_combat_mods": false,
  "copy_creator_mods": false,
  "spawn_limit": 0,
  "spawn_limit_mission": 0,
  "ignore_av_to_eb_scaling": false,
  "can_zone": false,
  "custom_badge_stat": null,
  "badge_stat_flags": "DefaultBadgeStat",
  "rank": "VR_ARCHVILLAIN",
  "power_full_names": [
    "Rikti.Hro_Dtohz_Teleport.Blade_Swing",
    "Rikti.Hro_Dtohz_Teleport.Blade_Eviscerate",
    "Rikti.Hro_Dtohz_Teleport.Blade_Slice",
    "Rikti.Hro_Dtohz_Teleport.Blade_Carve",
    "Rikti.Hro_Dtohz_Teleport.Transponder",
    "Rikti.Hro_Dtohz_Teleport.Teleport",
    "Rikti.Hro_Dtohz_Teleport.Resistance",
    "Rikti.Rikti_Rifle.Rikti_Rifle"
  ],
  "power_display_names": [
    "Blade Swing",
    "Blade Eviscerate",
    "Blade Slice",
    "Blade Carve",
    "Transponder",
    "Teleport",
    "Resistance",
    "Rikti Rifle"
  ],
  "power_levels": [
    0,
    0,
    0,
    0,
    0,
    0,
    0,
    0
  ],
  "powers": [
    {
      "power_category": "Rikti",
      "power_set": "Hro_Dtohz_Teleport",
      "power": "*",
      "level": 0
    },
    {
      "power_category": "Rikti",
      "power_set": "Rikti_Rifle",
      "power": "*",
      "level": 0
    }
  ],
  "levels": [
    {
      "level": 40,
      "experience": 0,
      "display_names": [
        "Hro'Dtohz"
      ],
      "costumes": [
        "Rikti_Hro_Dtohz_01_TeleportDeath"
      ]
    },
    {
      "level": 41,
      "experience": 0,
      "display_names": [
        "Hro'Dtohz"
      ],
      "costumes": [
        "Rikti_Hro_Dtohz_01_TeleportDeath"
      ]
    },
    {
      "level": 42,
      "experience": 0,
      "display_names": [
        "Hro'Dtohz"
      ],
      "costumes": [
        "Rikti_Hro_Dtohz_01_TeleportDeath"
      ]
    },
    {
      "level": 43,
      "experience": 0,
      "display_names": [
        "Hro'Dtohz"
      ],
      "costumes": [
        "Rikti_Hro_Dtohz_01_TeleportDeath"
      ]
    },
    {
      "level": 44,
      "experience": 0,
      "display_names": [
        "Hro'Dtohz"
      ],
      "costumes": [
        "Rikti_Hro_Dtohz_01_TeleportDeath"
      ]
    },
    {
      "level": 45,
      "experience": 0,
      "display_names": [
        "Hro'Dtohz"
      ],
      "costumes": [
        "Rikti_Hro_Dtohz_01_TeleportDeath"
      ]
    },
    {
      "level": 46,
      "experience": 0,
      "display_names": [
        "Hro'Dtohz"
      ],
      "costumes": [
        "Rikti_Hro_Dtohz_01_TeleportDeath"
      ]
    },
    {
      "level": 47,
      "experience": 0,
      "display_names": [
        "Hro'Dtohz"
      ],
      "costumes": [
        "Rikti_Hro_Dtohz_01_TeleportDeath"
      ]
    },
    {
      "level": 48,
      "experience": 0,
      "display_names": [
        "Hro'Dtohz"
      ],
      "costumes": [
        "Rikti_Hro_Dtohz_01_TeleportDeath"
      ]
    },
    {
      "level": 49,
      "experience": 0,
      "display_names": [
        "Hro'Dtohz"
      ],
      "costumes": [
        "Rikti_Hro_Dtohz_01_TeleportDeath"
      ]
    },
    {
      "level": 50,
      "experience": 0,
      "display_names": [
        "Hro'Dtohz"
      ],
      "costumes": [
        "Rikti_Hro_Dtohz_01_TeleportDeath"
      ]
    },
    {
      "level": 51,
      "experience": 0,
      "display_names": [
        "Hro'Dtohz"
      ],
      "costumes": [
        "Rikti_Hro_Dtohz_01_TeleportDeath"
      ]
    },
    {
      "level": 52,
      "experience": 0,
      "display_names": [
        "Hro'Dtohz"
      ],
      "costumes": [
        "Rikti_Hro_Dtohz_01_TeleportDeath"
      ]
    },
    {
      "level": 53,
      "experience": 0,
      "display_names": [
        "Hro'Dtohz"
      ],
      "costumes": [
        "Rikti_Hro_Dtohz_01_TeleportDeath"
      ]
    },
    {
      "level": 54,
      "experience": 0,
      "display_names": [
        "Hro'Dtohz"
      ],
      "costumes": [
        "Rikti_Hro_Dtohz_01_TeleportDeath"
      ]
    }
  ]
}