{
  "name": "RoguesGallery_LowLevel_MartinHenri",
  "gender": "GENDER_MALE",
  "description": "Martin Henri is the leader of the ragtag group of anti-technology cultists known as the Luddites. His mad hatred for all things created by modern science is his only passion, and it is this devotion that has drawn followers to his cause. Whatever anyone says about Martin Henri and his Luddites, it is clear that he is a true believer in his own cause.",
  "group_description": "Luddites",
  "display_class_name": null,
  "character_class_name": "boss_grunt",
  "ai_config": "Default_Ranged",
  "commandable_pet": false,
  "power_tags": [
    "Humanoid",
    "HumanSkeleton"
  ],
  "additional_rewards": [

  ],
  "skill_hp_rewards": [

  ],
  "skill_status_rewards": [

  ],
  "ally": null,
  "gang": null,
  "reward_scale": 1.0,
  "game_exclusion": "None",
  "inactive_state_weapon": null,
  "ignores_combat_mods": false,
  "copy_creator_mods": false,
  "spawn_limit": 0,
  "spawn_limit_mission": 0,
  "ignore_av_to_eb_scaling": true,
  "can_zone": false,
  "custom_badge_stat": null,
  "badge_stat_flags": "DefaultBadgeStat",
  "rank": "VR_BOSS",
  "power_full_names": [
    "RoguesGallery.Martin_Henri.Slash",
    "RoguesGallery.Martin_Henri.Slice",
    "RoguesGallery.Martin_Henri.Luddite_Armor",
    "RoguesGallery.Martin_Henri.Fire_Blast",
    "RoguesGallery.Martin_Henri.Flash_Stomp",
    "RoguesGallery.Martin_Henri.Fire_Breath"
  ],
  "power_display_names": [
    "Slash",
    "Slice",
    "Luddite Armor",
    "Fire Blast",
    "Flash Stomp",
    "Fire Breath"
  ],
  "power_levels": [
    0,
    0,
    0,
    0,
    0,
    0
  ],
  "powers": [
    {
      "power_category": "RoguesGallery",
      "power_set": "Martin_Henri",
      "power": "*",
      "level": 0
    }
  ],
  "levels": [
    {
      "level": 15,
      "experience": 0,
      "display_names": [
        "Martin Henri"
      ],
      "costumes": [
        "Model_MartinHenri"
      ]
    },
    {
      "level": 16,
      "experience": 0,
      "display_names": [
        "Martin Henri"
      ],
      "costumes": [
        "Model_MartinHenri"
      ]
    },
    {
      "level": 17,
      "experience": 0,
      "display_names": [
        "Martin Henri"
      ],
      "costumes": [
        "Model_MartinHenri"
      ]
    },
    {
      "level": 18,
      "experience": 0,
      "display_names": [
        "Martin Henri"
      ],
      "costumes": [
        "Model_MartinHenri"
      ]
    },
    {
      "level": 19,
      "experience": 0,
      "display_names": [
        "Martin Henri"
      ],
      "costumes": [
        "Model_MartinHenri"
      ]
    },
    {
      "level": 20,
      "experience": 0,
      "display_names": [
        "Martin Henri"
      ],
      "costumes": [
        "Model_MartinHenri"
      ]
    },
    {
      "level": 21,
      "experience": 0,
      "display_names": [
        "Martin Henri"
      ],
      "costumes": [
        "Model_MartinHenri"
      ]
    },
    {
      "level": 22,
      "experience": 0,
      "display_names": [
        "Martin Henri"
      ],
      "costumes": [
        "Model_MartinHenri"
      ]
    },
    {
      "level": 23,
      "experience": 0,
      "display_names": [
        "Martin Henri"
      ],
      "costumes": [
        "Model_MartinHenri"
      ]
    },
    {
      "level": 24,
      "experience": 0,
      "display_names": [
        "Martin Henri"
      ],
      "costumes": [
        "Model_MartinHenri"
      ]
    }
  ]
}