{
  "name": "RoguesGallery_LowLevel_SunXiong",
  "gender": "GENDER_MALE",
  "description": "Sun Xiong is the son of Pha Xiong, the ancient martial arts master who taught Tub Ci his technique of applying mystical tattoos. Sun Xiong is also a powerful martial artist, and retains a loyal following within the Tsoo.",
  "group_description": "Tsoo",
  "display_class_name": null,
  "character_class_name": "boss_grunt",
  "ai_config": "Default_Melee",
  "commandable_pet": false,
  "power_tags": [
    "Humanoid",
    "HumanSkeleton"
  ],
  "additional_rewards": [

  ],
  "skill_hp_rewards": [

  ],
  "skill_status_rewards": [

  ],
  "ally": null,
  "gang": null,
  "reward_scale": 1.0,
  "game_exclusion": "None",
  "inactive_state_weapon": null,
  "ignores_combat_mods": false,
  "copy_creator_mods": false,
  "spawn_limit": 0,
  "spawn_limit_mission": 0,
  "ignore_av_to_eb_scaling": true,
  "can_zone": false,
  "custom_badge_stat": null,
  "badge_stat_flags": "DefaultBadgeStat",
  "rank": "VR_BOSS",
  "power_full_names": [
    "RoguesGallery.Sun_Xiong.Mercurial_Blow",
    "RoguesGallery.Sun_Xiong.Precise_Strike",
    "RoguesGallery.Sun_Xiong.Guarded_Spin",
    "RoguesGallery.Sun_Xiong.Serpents_Reach",
    "RoguesGallery.Sun_Xiong.Focused_Fighting",
    "RoguesGallery.Sun_Xiong.Focused_Senses"
  ],
  "power_display_names": [
    "Mercurial Blow",
    "Precise Strike",
    "Guarded Spin",
    "Serpent's Reach",
    "Focused Fighting",
    "Focused Senses"
  ],
  "power_levels": [
    0,
    0,
    0,
    0,
    0,
    0
  ],
  "powers": [
    {
      "power_category": "RoguesGallery",
      "power_set": "Sun_Xiong",
      "power": "*",
      "level": 0
    }
  ],
  "levels": [
    {
      "level": 15,
      "experience": 0,
      "display_names": [
        "Sun Xiong"
      ],
      "costumes": [
        "Model_SunXiong"
      ]
    },
    {
      "level": 16,
      "experience": 0,
      "display_names": [
        "Sun Xiong"
      ],
      "costumes": [
        "Model_SunXiong"
      ]
    },
    {
      "level": 17,
      "experience": 0,
      "display_names": [
        "Sun Xiong"
      ],
      "costumes": [
        "Model_SunXiong"
      ]
    },
    {
      "level": 18,
      "experience": 0,
      "display_names": [
        "Sun Xiong"
      ],
      "costumes": [
        "Model_SunXiong"
      ]
    },
    {
      "level": 19,
      "experience": 0,
      "display_names": [
        "Sun Xiong"
      ],
      "costumes": [
        "Model_SunXiong"
      ]
    },
    {
      "level": 20,
      "experience": 0,
      "display_names": [
        "Sun Xiong"
      ],
      "costumes": [
        "Model_SunXiong"
      ]
    },
    {
      "level": 21,
      "experience": 0,
      "display_names": [
        "Sun Xiong"
      ],
      "costumes": [
        "Model_SunXiong"
      ]
    },
    {
      "level": 22,
      "experience": 0,
      "display_names": [
        "Sun Xiong"
      ],
      "costumes": [
        "Model_SunXiong"
      ]
    },
    {
      "level": 23,
      "experience": 0,
      "display_names": [
        "Sun Xiong"
      ],
      "costumes": [
        "Model_SunXiong"
      ]
    },
    {
      "level": 24,
      "experience": 0,
      "display_names": [
        "Sun Xiong"
      ],
      "costumes": [
        "Model_SunXiong"
      ]
    },
    {
      "level": 25,
      "experience": 0,
      "display_names": [
        "Sun Xiong"
      ],
      "costumes": [
        "Model_SunXiong"
      ]
    },
    {
      "level": 26,
      "experience": 0,
      "display_names": [
        "Sun Xiong"
      ],
      "costumes": [
        "Model_SunXiong"
      ]
    },
    {
      "level": 27,
      "experience": 0,
      "display_names": [
        "Sun Xiong"
      ],
      "costumes": [
        "Model_SunXiong"
      ]
    },
    {
      "level": 28,
      "experience": 0,
      "display_names": [
        "Sun Xiong"
      ],
      "costumes": [
        "Model_SunXiong"
      ]
    },
    {
      "level": 29,
      "experience": 0,
      "display_names": [
        "Sun Xiong"
      ],
      "costumes": [
        "Model_SunXiong"
      ]
    },
    {
      "level": 30,
      "experience": 0,
      "display_names": [
        "Sun Xiong"
      ],
      "costumes": [
        "Model_SunXiong"
      ]
    },
    {
      "level": 31,
      "experience": 0,
      "display_names": [
        "Sun Xiong"
      ],
      "costumes": [
        "Model_SunXiong"
      ]
    },
    {
      "level": 32,
      "experience": 0,
      "display_names": [
        "Sun Xiong"
      ],
      "costumes": [
        "Model_SunXiong"
      ]
    },
    {
      "level": 33,
      "experience": 0,
      "display_names": [
        "Sun Xiong"
      ],
      "costumes": [
        "Model_SunXiong"
      ]
    },
    {
      "level": 34,
      "experience": 0,
      "display_names": [
        "Sun Xiong"
      ],
      "costumes": [
        "Model_SunXiong"
      ]
    }
  ]
}