{
  "name": "RoguesGallery_Johnny_Power_SL6-7",
  "gender": "GENDER_MALE",
  "description": "One of the Nuclear 90, Johnny Power was a rising star that was corrupted by his fame, and betrayed by his ego. When his 500 million dollar movie 'The Power', starring Johnny Power, as himself, completely tanked, he turned to crime to pay the bills. When he realized it was more profitable to keep the money, however, Johnny fled to the Rogue Isles where he enjoyed no shortage of opportunities to use his extraordinary abilities for personal gain.",
  "group_description": null,
  "display_class_name": null,
  "character_class_name": "boss_grunt",
  "ai_config": "Default_Melee",
  "commandable_pet": false,
  "power_tags": [
    "Humanoid",
    "HumanSkeleton"
  ],
  "additional_rewards": [

  ],
  "skill_hp_rewards": [

  ],
  "skill_status_rewards": [

  ],
  "ally": null,
  "gang": null,
  "reward_scale": 1.0,
  "game_exclusion": "None",
  "inactive_state_weapon": null,
  "ignores_combat_mods": false,
  "copy_creator_mods": false,
  "spawn_limit": 0,
  "spawn_limit_mission": 0,
  "ignore_av_to_eb_scaling": false,
  "can_zone": false,
  "custom_badge_stat": null,
  "badge_stat_flags": "DefaultBadgeStat",
  "rank": "VR_BOSS",
  "power_full_names": [
    "V_GenericVillains.Brute_Resistance.Resistance",
    "V_GenericVillains.Energy_Brute_Low.Barrage",
    "V_GenericVillains.Energy_Brute_Low.Energy_Punch",
    "V_GenericVillains.Energy_Brute_Low.Power_Blast",
    "V_GenericVillains.Energy_Brute_Low.Bone_Smasher",
    "V_GenericVillains.Energy_Brute_Low.Kinetic_Shield",
    "V_GenericVillains.Energy_Brute_Mid.Laser_Beam_Eyes",
    "V_GenericVillains.Energy_Brute_Mid.Whirling_Hands",
    "V_GenericVillains.Energy_Brute_Mid.Entropy_Shield"
  ],
  "power_display_names": [
    "Resistance",
    "Barrage",
    "Energy Punch",
    "Power Blast",
    "Bone Smasher",
    "Kinetic Shield",
    "Laser Beam Eyes",
    "Whirling Hands",
    "Entropy Shield"
  ],
  "power_levels": [
    0,
    0,
    0,
    0,
    0,
    0,
    0,
    0,
    0
  ],
  "powers": [
    {
      "power_category": "V_GenericVillains",
      "power_set": "Brute_Resistance",
      "power": "*",
      "level": 0
    },
    {
      "power_category": "V_GenericVillains",
      "power_set": "Energy_Brute_Low",
      "power": "*",
      "level": 0
    },
    {
      "power_category": "V_GenericVillains",
      "power_set": "Energy_Brute_Mid",
      "power": "*",
      "level": 0
    }
  ],
  "levels": [
    {
      "level": 29,
      "experience": 0,
      "display_names": [
        "Johnny Power"
      ],
      "costumes": [
        "Primal_Villain_JohnnyPower_01"
      ]
    },
    {
      "level": 30,
      "experience": 0,
      "display_names": [
        "Johnny Power"
      ],
      "costumes": [
        "Primal_Villain_JohnnyPower_01"
      ]
    },
    {
      "level": 31,
      "experience": 0,
      "display_names": [
        "Johnny Power"
      ],
      "costumes": [
        "Primal_Villain_JohnnyPower_01"
      ]
    },
    {
      "level": 32,
      "experience": 0,
      "display_names": [
        "Johnny Power"
      ],
      "costumes": [
        "Primal_Villain_JohnnyPower_01"
      ]
    },
    {
      "level": 33,
      "experience": 0,
      "display_names": [
        "Johnny Power"
      ],
      "costumes": [
        "Primal_Villain_JohnnyPower_01"
      ]
    },
    {
      "level": 34,
      "experience": 0,
      "display_names": [
        "Johnny Power"
      ],
      "costumes": [
        "Primal_Villain_JohnnyPower_01"
      ]
    },
    {
      "level": 35,
      "experience": 0,
      "display_names": [
        "Johnny Power"
      ],
      "costumes": [
        "Primal_Villain_JohnnyPower_01"
      ]
    },
    {
      "level": 36,
      "experience": 0,
      "display_names": [
        "Johnny Power"
      ],
      "costumes": [
        "Primal_Villain_JohnnyPower_01"
      ]
    },
    {
      "level": 37,
      "experience": 0,
      "display_names": [
        "Johnny Power"
      ],
      "costumes": [
        "Primal_Villain_JohnnyPower_01"
      ]
    },
    {
      "level": 38,
      "experience": 0,
      "display_names": [
        "Johnny Power"
      ],
      "costumes": [
        "Primal_Villain_JohnnyPower_01"
      ]
    },
    {
      "level": 39,
      "experience": 0,
      "display_names": [
        "Johnny Power"
      ],
      "costumes": [
        "Primal_Villain_JohnnyPower_01"
      ]
    },
    {
      "level": 40,
      "experience": 0,
      "display_names": [
        "Johnny Power"
      ],
      "costumes": [
        "Primal_Villain_JohnnyPower_01"
      ]
    },
    {
      "level": 41,
      "experience": 0,
      "display_names": [
        "Johnny Power"
      ],
      "costumes": [
        "Primal_Villain_JohnnyPower_01"
      ]
    },
    {
      "level": 42,
      "experience": 0,
      "display_names": [
        "Johnny Power"
      ],
      "costumes": [
        "Primal_Villain_JohnnyPower_01"
      ]
    },
    {
      "level": 43,
      "experience": 0,
      "display_names": [
        "Johnny Power"
      ],
      "costumes": [
        "Primal_Villain_JohnnyPower_01"
      ]
    },
    {
      "level": 44,
      "experience": 0,
      "display_names": [
        "Johnny Power"
      ],
      "costumes": [
        "Primal_Villain_JohnnyPower_01"
      ]
    }
  ]
}