{
  "name": "RogueArachnos_Mu_Guardian_Low",
  "gender": "GENDER_MALE",
  "description": "Mu Guardians pulse with the blood of their slaughtered ancestors in their veins. They have read unholy tomes, visited other planes of existence, and performed dark sacrifices too terrible to mention to become masters of the mystic arts.",
  "group_description": null,
  "display_class_name": null,
  "character_class_name": "boss_grunt",
  "ai_config": "Default_Melee",
  "commandable_pet": false,
  "power_tags": [
    "Humanoid",
    "HumanSkeleton"
  ],
  "additional_rewards": [

  ],
  "skill_hp_rewards": [

  ],
  "skill_status_rewards": [

  ],
  "ally": null,
  "gang": null,
  "reward_scale": 1.0,
  "game_exclusion": "None",
  "inactive_state_weapon": null,
  "ignores_combat_mods": false,
  "copy_creator_mods": false,
  "spawn_limit": -1,
  "spawn_limit_mission": -1,
  "ignore_av_to_eb_scaling": false,
  "can_zone": false,
  "custom_badge_stat": null,
  "badge_stat_flags": "DefaultBadgeStat",
  "rank": "VR_BOSS",
  "power_full_names": [
    "V_Arachnos.Mu_Small_Attack.Lightning_Bolt",
    "V_Arachnos.Mu_Ball.Ball_Lightning",
    "V_Arachnos.Mu_Cone.Static_Discharge",
    "V_Arachnos.Mu_Heal.Touch_of_the_Storm",
    "V_Arachnos.Mu_Flight.Fly",
    "V_Arachnos.Mu_Defense.Lightning_Armor",
    "V_Arachnos.Mu_Inherent.Resistance"
  ],
  "power_display_names": [
    "Lightning Bolt",
    "Ball Lightning",
    "Static Discharge",
    "Touch of the Storm",
    "Fly",
    "Lightning Armor",
    "Resistance"
  ],
  "power_levels": [
    0,
    0,
    0,
    0,
    0,
    0,
    0
  ],
  "powers": [
    {
      "power_category": "V_Arachnos",
      "power_set": "Mu_Small_Attack",
      "power": "*",
      "level": 0
    },
    {
      "power_category": "V_Arachnos",
      "power_set": "Mu_Ball",
      "power": "*",
      "level": 0
    },
    {
      "power_category": "V_Arachnos",
      "power_set": "Mu_Cone",
      "power": "*",
      "level": 0
    },
    {
      "power_category": "V_Arachnos",
      "power_set": "Mu_Heal",
      "power": "*",
      "level": 0
    },
    {
      "power_category": "V_Arachnos",
      "power_set": "Mu_Flight",
      "power": "*",
      "level": 0
    },
    {
      "power_category": "V_Arachnos",
      "power_set": "Mu_Defense",
      "power": "*",
      "level": 0
    },
    {
      "power_category": "V_Arachnos",
      "power_set": "Mu_Inherent",
      "power": "*",
      "level": 0
    }
  ],
  "levels": [
    {
      "level": 15,
      "experience": 0,
      "display_names": [
        "Rogue Mu Guardian"
      ],
      "costumes": [
        "Rogue_Mu_Striker"
      ]
    },
    {
      "level": 16,
      "experience": 0,
      "display_names": [
        "Rogue Mu Guardian"
      ],
      "costumes": [
        "Rogue_Mu_Striker"
      ]
    },
    {
      "level": 17,
      "experience": 0,
      "display_names": [
        "Rogue Mu Guardian"
      ],
      "costumes": [
        "Rogue_Mu_Striker"
      ]
    },
    {
      "level": 18,
      "experience": 0,
      "display_names": [
        "Rogue Mu Guardian"
      ],
      "costumes": [
        "Rogue_Mu_Striker"
      ]
    },
    {
      "level": 19,
      "experience": 0,
      "display_names": [
        "Rogue Mu Guardian"
      ],
      "costumes": [
        "Rogue_Mu_Striker"
      ]
    },
    {
      "level": 20,
      "experience": 0,
      "display_names": [
        "Rogue Mu Guardian"
      ],
      "costumes": [
        "Rogue_Mu_Striker"
      ]
    }
  ]
}