{
  "name": "RoguesGallery_Desdemona_Underground_Living_Hellfire",
  "gender": "GENDER_NEUTER",
  "description": "Living Hellfire are demons attracted to the material plane by terrible violence. They can only exist on the material plane for a short time before returning to the Abyss.",
  "group_description": "Demon Summoning",
  "display_class_name": null,
  "character_class_name": "minion_praetoriansmall",
  "ai_config": "Pets_Melee",
  "commandable_pet": false,
  "power_tags": [
    "HumanSkeleton",
    "Demon"
  ],
  "additional_rewards": [

  ],
  "skill_hp_rewards": [

  ],
  "skill_status_rewards": [

  ],
  "ally": null,
  "gang": "1",
  "reward_scale": 0.0,
  "game_exclusion": "None",
  "inactive_state_weapon": null,
  "ignores_combat_mods": false,
  "copy_creator_mods": false,
  "spawn_limit": 0,
  "spawn_limit_mission": 0,
  "ignore_av_to_eb_scaling": false,
  "can_zone": false,
  "custom_badge_stat": null,
  "badge_stat_flags": "DefaultBadgeStat",
  "rank": "VR_PET",
  "power_full_names": [
    "Mission_Maker_Pets.Living_Hellfire.Resistance",
    "Mission_Maker_Pets.Living_Hellfire.Self_Destruct",
    "Mission_Maker_Pets.Living_Hellfire.Claw_Rake"
  ],
  "power_display_names": [
    "Resistance",
    "Self Destruct",
    "Claw Rake"
  ],
  "power_levels": [
    0,
    0,
    0
  ],
  "powers": [
    {
      "power_category": "Mission_Maker_Pets",
      "power_set": "Living_Hellfire",
      "power": "*",
      "level": 0
    }
  ],
  "levels": [
    {
      "level": 1,
      "experience": 0,
      "display_names": [
        "Living Hellfire"
      ],
      "costumes": [
        "Mastermind_Demon_LivingHellfire01"
      ]
    },
    {
      "level": 2,
      "experience": 0,
      "display_names": [
        "Living Hellfire"
      ],
      "costumes": [
        "Mastermind_Demon_LivingHellfire01"
      ]
    },
    {
      "level": 3,
      "experience": 0,
      "display_names": [
        "Living Hellfire"
      ],
      "costumes": [
        "Mastermind_Demon_LivingHellfire01"
      ]
    },
    {
      "level": 4,
      "experience": 0,
      "display_names": [
        "Living Hellfire"
      ],
      "costumes": [
        "Mastermind_Demon_LivingHellfire01"
      ]
    },
    {
      "level": 5,
      "experience": 0,
      "display_names": [
        "Living Hellfire"
      ],
      "costumes": [
        "Mastermind_Demon_LivingHellfire01"
      ]
    },
    {
      "level": 6,
      "experience": 0,
      "display_names": [
        "Living Hellfire"
      ],
      "costumes": [
        "Mastermind_Demon_LivingHellfire01"
      ]
    },
    {
      "level": 7,
      "experience": 0,
      "display_names": [
        "Living Hellfire"
      ],
      "costumes": [
        "Mastermind_Demon_LivingHellfire01"
      ]
    },
    {
      "level": 8,
      "experience": 0,
      "display_names": [
        "Living Hellfire"
      ],
      "costumes": [
        "Mastermind_Demon_LivingHellfire01"
      ]
    },
    {
      "level": 9,
      "experience": 0,
      "display_names": [
        "Living Hellfire"
      ],
      "costumes": [
        "Mastermind_Demon_LivingHellfire01"
      ]
    },
    {
      "level": 10,
      "experience": 0,
      "display_names": [
        "Living Hellfire"
      ],
      "costumes": [
        "Mastermind_Demon_LivingHellfire01"
      ]
    },
    {
      "level": 11,
      "experience": 0,
      "display_names": [
        "Living Hellfire"
      ],
      "costumes": [
        "Mastermind_Demon_LivingHellfire01"
      ]
    },
    {
      "level": 12,
      "experience": 0,
      "display_names": [
        "Living Hellfire"
      ],
      "costumes": [
        "Mastermind_Demon_LivingHellfire01"
      ]
    },
    {
      "level": 13,
      "experience": 0,
      "display_names": [
        "Living Hellfire"
      ],
      "costumes": [
        "Mastermind_Demon_LivingHellfire01"
      ]
    },
    {
      "level": 14,
      "experience": 0,
      "display_names": [
        "Living Hellfire"
      ],
      "costumes": [
        "Mastermind_Demon_LivingHellfire01"
      ]
    },
    {
      "level": 15,
      "experience": 0,
      "display_names": [
        "Living Hellfire"
      ],
      "costumes": [
        "Mastermind_Demon_LivingHellfire01"
      ]
    },
    {
      "level": 16,
      "experience": 0,
      "display_names": [
        "Living Hellfire"
      ],
      "costumes": [
        "Mastermind_Demon_LivingHellfire01"
      ]
    },
    {
      "level": 17,
      "experience": 0,
      "display_names": [
        "Living Hellfire"
      ],
      "costumes": [
        "Mastermind_Demon_LivingHellfire01"
      ]
    },
    {
      "level": 18,
      "experience": 0,
      "display_names": [
        "Living Hellfire"
      ],
      "costumes": [
        "Mastermind_Demon_LivingHellfire01"
      ]
    },
    {
      "level": 19,
      "experience": 0,
      "display_names": [
        "Living Hellfire"
      ],
      "costumes": [
        "Mastermind_Demon_LivingHellfire01"
      ]
    },
    {
      "level": 20,
      "experience": 0,
      "display_names": [
        "Living Hellfire"
      ],
      "costumes": [
        "Mastermind_Demon_LivingHellfire01"
      ]
    },
    {
      "level": 21,
      "experience": 0,
      "display_names": [
        "Living Hellfire"
      ],
      "costumes": [
        "Mastermind_Demon_LivingHellfire01"
      ]
    },
    {
      "level": 22,
      "experience": 0,
      "display_names": [
        "Living Hellfire"
      ],
      "costumes": [
        "Mastermind_Demon_LivingHellfire01"
      ]
    },
    {
      "level": 23,
      "experience": 0,
      "display_names": [
        "Living Hellfire"
      ],
      "costumes": [
        "Mastermind_Demon_LivingHellfire01"
      ]
    },
    {
      "level": 24,
      "experience": 0,
      "display_names": [
        "Living Hellfire"
      ],
      "costumes": [
        "Mastermind_Demon_LivingHellfire01"
      ]
    },
    {
      "level": 25,
      "experience": 0,
      "display_names": [
        "Living Hellfire"
      ],
      "costumes": [
        "Mastermind_Demon_LivingHellfire01"
      ]
    },
    {
      "level": 26,
      "experience": 0,
      "display_names": [
        "Living Hellfire"
      ],
      "costumes": [
        "Mastermind_Demon_LivingHellfire01"
      ]
    },
    {
      "level": 27,
      "experience": 0,
      "display_names": [
        "Living Hellfire"
      ],
      "costumes": [
        "Mastermind_Demon_LivingHellfire01"
      ]
    },
    {
      "level": 28,
      "experience": 0,
      "display_names": [
        "Living Hellfire"
      ],
      "costumes": [
        "Mastermind_Demon_LivingHellfire01"
      ]
    },
    {
      "level": 29,
      "experience": 0,
      "display_names": [
        "Living Hellfire"
      ],
      "costumes": [
        "Mastermind_Demon_LivingHellfire01"
      ]
    },
    {
      "level": 30,
      "experience": 0,
      "display_names": [
        "Living Hellfire"
      ],
      "costumes": [
        "Mastermind_Demon_LivingHellfire01"
      ]
    },
    {
      "level": 31,
      "experience": 0,
      "display_names": [
        "Living Hellfire"
      ],
      "costumes": [
        "Mastermind_Demon_LivingHellfire01"
      ]
    },
    {
      "level": 32,
      "experience": 0,
      "display_names": [
        "Living Hellfire"
      ],
      "costumes": [
        "Mastermind_Demon_LivingHellfire01"
      ]
    },
    {
      "level": 33,
      "experience": 0,
      "display_names": [
        "Living Hellfire"
      ],
      "costumes": [
        "Mastermind_Demon_LivingHellfire01"
      ]
    },
    {
      "level": 34,
      "experience": 0,
      "display_names": [
        "Living Hellfire"
      ],
      "costumes": [
        "Mastermind_Demon_LivingHellfire01"
      ]
    },
    {
      "level": 35,
      "experience": 0,
      "display_names": [
        "Living Hellfire"
      ],
      "costumes": [
        "Mastermind_Demon_LivingHellfire01"
      ]
    },
    {
      "level": 36,
      "experience": 0,
      "display_names": [
        "Living Hellfire"
      ],
      "costumes": [
        "Mastermind_Demon_LivingHellfire01"
      ]
    },
    {
      "level": 37,
      "experience": 0,
      "display_names": [
        "Living Hellfire"
      ],
      "costumes": [
        "Mastermind_Demon_LivingHellfire01"
      ]
    },
    {
      "level": 38,
      "experience": 0,
      "display_names": [
        "Living Hellfire"
      ],
      "costumes": [
        "Mastermind_Demon_LivingHellfire01"
      ]
    },
    {
      "level": 39,
      "experience": 0,
      "display_names": [
        "Living Hellfire"
      ],
      "costumes": [
        "Mastermind_Demon_LivingHellfire01"
      ]
    },
    {
      "level": 40,
      "experience": 0,
      "display_names": [
        "Living Hellfire"
      ],
      "costumes": [
        "Mastermind_Demon_LivingHellfire01"
      ]
    },
    {
      "level": 41,
      "experience": 0,
      "display_names": [
        "Living Hellfire"
      ],
      "costumes": [
        "Mastermind_Demon_LivingHellfire01"
      ]
    },
    {
      "level": 42,
      "experience": 0,
      "display_names": [
        "Living Hellfire"
      ],
      "costumes": [
        "Mastermind_Demon_LivingHellfire01"
      ]
    },
    {
      "level": 43,
      "experience": 0,
      "display_names": [
        "Living Hellfire"
      ],
      "costumes": [
        "Mastermind_Demon_LivingHellfire01"
      ]
    },
    {
      "level": 44,
      "experience": 0,
      "display_names": [
        "Living Hellfire"
      ],
      "costumes": [
        "Mastermind_Demon_LivingHellfire01"
      ]
    },
    {
      "level": 45,
      "experience": 0,
      "display_names": [
        "Living Hellfire"
      ],
      "costumes": [
        "Mastermind_Demon_LivingHellfire01"
      ]
    },
    {
      "level": 46,
      "experience": 0,
      "display_names": [
        "Living Hellfire"
      ],
      "costumes": [
        "Mastermind_Demon_LivingHellfire01"
      ]
    },
    {
      "level": 47,
      "experience": 0,
      "display_names": [
        "Living Hellfire"
      ],
      "costumes": [
        "Mastermind_Demon_LivingHellfire01"
      ]
    },
    {
      "level": 48,
      "experience": 0,
      "display_names": [
        "Living Hellfire"
      ],
      "costumes": [
        "Mastermind_Demon_LivingHellfire01"
      ]
    },
    {
      "level": 49,
      "experience": 0,
      "display_names": [
        "Living Hellfire"
      ],
      "costumes": [
        "Mastermind_Demon_LivingHellfire01"
      ]
    },
    {
      "level": 50,
      "experience": 0,
      "display_names": [
        "Living Hellfire"
      ],
      "costumes": [
        "Mastermind_Demon_LivingHellfire01"
      ]
    },
    {
      "level": 51,
      "experience": 0,
      "display_names": [
        "Living Hellfire"
      ],
      "costumes": [
        "Mastermind_Demon_LivingHellfire01"
      ]
    },
    {
      "level": 52,
      "experience": 0,
      "display_names": [
        "Living Hellfire"
      ],
      "costumes": [
        "Mastermind_Demon_LivingHellfire01"
      ]
    },
    {
      "level": 53,
      "experience": 0,
      "display_names": [
        "Living Hellfire"
      ],
      "costumes": [
        "Mastermind_Demon_LivingHellfire01"
      ]
    },
    {
      "level": 54,
      "experience": 0,
      "display_names": [
        "Living Hellfire"
      ],
      "costumes": [
        "Mastermind_Demon_LivingHellfire01"
      ]
    }
  ]
}