{
  "name": "RoguesGallery_Miss_Thystle_SL8-9",
  "gender": "GENDER_FEMALE",
  "description": "This woman was just born into the wrong family. Her parents being her role model she decided that she wanted it all in life, without the hassle of working for it. Miss Thystle doesn't care how she gets what she wants, just as long as she gets it.",
  "group_description": null,
  "display_class_name": null,
  "character_class_name": "boss_grunt",
  "ai_config": "Default_Melee",
  "commandable_pet": false,
  "power_tags": [
    "Humanoid",
    "HumanSkeleton"
  ],
  "additional_rewards": [

  ],
  "skill_hp_rewards": [

  ],
  "skill_status_rewards": [

  ],
  "ally": null,
  "gang": null,
  "reward_scale": 1.0,
  "game_exclusion": "None",
  "inactive_state_weapon": null,
  "ignores_combat_mods": false,
  "copy_creator_mods": false,
  "spawn_limit": 0,
  "spawn_limit_mission": 0,
  "ignore_av_to_eb_scaling": false,
  "can_zone": false,
  "custom_badge_stat": null,
  "badge_stat_flags": "DefaultBadgeStat",
  "rank": "VR_BOSS",
  "power_full_names": [
    "V_GenericVillains.Brute_Resistance.Resistance",
    "V_GenericVillains.SS_Brute.Jab",
    "V_GenericVillains.SS_Brute.Punch",
    "V_GenericVillains.SS_Brute.Hurl",
    "V_GenericVillains.SS_Brute_Low.Haymaker",
    "V_GenericVillains.SS_Brute_Low.Hand_Clap",
    "V_GenericVillains.SS_Brute_Low.Unyielding",
    "V_GenericVillains.SS_Brute_Mid.Knockout_Blow",
    "V_GenericVillains.SS_Brute_Mid.Foot_Stomp",
    "V_GenericVillains.SS_Brute_High.Unstoppable"
  ],
  "power_display_names": [
    "Resistance",
    "Jab",
    "Punch",
    "Hurl",
    "Haymaker",
    "Hand Clap",
    "Unyielding",
    "Knockout Blow",
    "Foot Stomp",
    "Unstoppable"
  ],
  "power_levels": [
    0,
    0,
    0,
    0,
    0,
    0,
    0,
    0,
    0,
    0
  ],
  "powers": [
    {
      "power_category": "V_GenericVillains",
      "power_set": "Brute_Resistance",
      "power": "*",
      "level": 0
    },
    {
      "power_category": "V_GenericVillains",
      "power_set": "SS_Brute",
      "power": "Jab",
      "level": 0
    },
    {
      "power_category": "V_GenericVillains",
      "power_set": "SS_Brute",
      "power": "Punch",
      "level": 0
    },
    {
      "power_category": "V_GenericVillains",
      "power_set": "SS_Brute",
      "power": "Hurl",
      "level": 0
    },
    {
      "power_category": "V_GenericVillains",
      "power_set": "SS_Brute_Low",
      "power": "*",
      "level": 0
    },
    {
      "power_category": "V_GenericVillains",
      "power_set": "SS_Brute_Mid",
      "power": "*",
      "level": 0
    },
    {
      "power_category": "V_GenericVillains",
      "power_set": "SS_Brute_High",
      "power": "*",
      "level": 0
    }
  ],
  "levels": [
    {
      "level": 39,
      "experience": 0,
      "display_names": [
        "Miss Thystle"
      ],
      "costumes": [
        "Model_Miss_Thysle"
      ]
    },
    {
      "level": 40,
      "experience": 0,
      "display_names": [
        "Miss Thystle"
      ],
      "costumes": [
        "Model_Miss_Thysle"
      ]
    },
    {
      "level": 41,
      "experience": 0,
      "display_names": [
        "Miss Thystle"
      ],
      "costumes": [
        "Model_Miss_Thysle"
      ]
    },
    {
      "level": 42,
      "experience": 0,
      "display_names": [
        "Miss Thystle"
      ],
      "costumes": [
        "Model_Miss_Thysle"
      ]
    },
    {
      "level": 43,
      "experience": 0,
      "display_names": [
        "Miss Thystle"
      ],
      "costumes": [
        "Model_Miss_Thysle"
      ]
    },
    {
      "level": 44,
      "experience": 0,
      "display_names": [
        "Miss Thystle"
      ],
      "costumes": [
        "Model_Miss_Thysle"
      ]
    },
    {
      "level": 45,
      "experience": 0,
      "display_names": [
        "Miss Thystle"
      ],
      "costumes": [
        "Model_Miss_Thysle"
      ]
    },
    {
      "level": 46,
      "experience": 0,
      "display_names": [
        "Miss Thystle"
      ],
      "costumes": [
        "Model_Miss_Thysle"
      ]
    },
    {
      "level": 47,
      "experience": 0,
      "display_names": [
        "Miss Thystle"
      ],
      "costumes": [
        "Model_Miss_Thysle"
      ]
    },
    {
      "level": 48,
      "experience": 0,
      "display_names": [
        "Miss Thystle"
      ],
      "costumes": [
        "Model_Miss_Thysle"
      ]
    },
    {
      "level": 49,
      "experience": 0,
      "display_names": [
        "Miss Thystle"
      ],
      "costumes": [
        "Model_Miss_Thysle"
      ]
    },
    {
      "level": 50,
      "experience": 0,
      "display_names": [
        "Miss Thystle"
      ],
      "costumes": [
        "Model_Miss_Thysle"
      ]
    },
    {
      "level": 51,
      "experience": 0,
      "display_names": [
        "Miss Thystle"
      ],
      "costumes": [
        "Model_Miss_Thysle"
      ]
    },
    {
      "level": 52,
      "experience": 0,
      "display_names": [
        "Miss Thystle"
      ],
      "costumes": [
        "Model_Miss_Thysle"
      ]
    },
    {
      "level": 53,
      "experience": 0,
      "display_names": [
        "Miss Thystle"
      ],
      "costumes": [
        "Model_Miss_Thysle"
      ]
    },
    {
      "level": 54,
      "experience": 0,
      "display_names": [
        "Miss Thystle"
      ],
      "costumes": [
        "Model_Miss_Thysle"
      ]
    }
  ]
}