{
  "name": "RogueIslandPolice_Captain_LowHigh",
  "gender": "GENDER_MALE",
  "description": "Working as a private security guard in a 'city of villains' must be a very tough job.",
  "group_description": null,
  "display_class_name": null,
  "character_class_name": "boss_grunt",
  "ai_config": "Default_Ranged",
  "commandable_pet": false,
  "power_tags": [
    "Humanoid",
    "HumanSkeleton"
  ],
  "additional_rewards": [

  ],
  "skill_hp_rewards": [

  ],
  "skill_status_rewards": [

  ],
  "ally": "Monster",
  "gang": null,
  "reward_scale": 1.0,
  "game_exclusion": "None",
  "inactive_state_weapon": null,
  "ignores_combat_mods": false,
  "copy_creator_mods": false,
  "spawn_limit": -1,
  "spawn_limit_mission": -1,
  "ignore_av_to_eb_scaling": false,
  "can_zone": false,
  "custom_badge_stat": null,
  "badge_stat_flags": "DefaultBadgeStat",
  "rank": "VR_BOSS",
  "power_full_names": [
    "V_Security_Guards.Security_Guard_Advanced_SubmachineGun.Burst",
    "V_Security_Guards.Security_Guard_Advanced_SubmachineGun_Boss.Single_Shot",
    "V_Security_Guards.Security_Guard_Advanced_SubmachineGun_Boss.Spray_Lead",
    "V_Security_Guards.Security_Guard_Grenade.Frag_Grenade",
    "V_Security_Guards.Security_Guard_Leadership_Assault.Assault",
    "V_Security_Guards.Security_Guard_Leadership_Maneuvers.Maneuvers"
  ],
  "power_display_names": [
    "Burst",
    "Single Shot",
    "Spray Lead",
    "Frag Grenade",
    "Assault",
    "Maneuvers"
  ],
  "power_levels": [
    0,
    0,
    0,
    0,
    0,
    0
  ],
  "powers": [
    {
      "power_category": "V_Security_Guards",
      "power_set": "Security_Guard_Advanced_SubmachineGun",
      "power": "*",
      "level": 0
    },
    {
      "power_category": "V_Security_Guards",
      "power_set": "Security_Guard_Advanced_SubmachineGun_Boss",
      "power": "*",
      "level": 0
    },
    {
      "power_category": "V_Security_Guards",
      "power_set": "Security_Guard_Grenade",
      "power": "*",
      "level": 0
    },
    {
      "power_category": "V_Security_Guards",
      "power_set": "Security_Guard_Leadership_Assault",
      "power": "*",
      "level": 0
    },
    {
      "power_category": "V_Security_Guards",
      "power_set": "Security_Guard_Leadership_Maneuvers",
      "power": "*",
      "level": 0
    }
  ],
  "levels": [
    {
      "level": 5,
      "experience": 0,
      "display_names": [
        "Deadly Ripper"
      ],
      "costumes": [
        "Villain_Isle_Deadly_Ripper_01",
        "Villain_Isle_Deadly_Ripper_02",
        "Villain_Isle_Deadly_Ripper_03"
      ]
    },
    {
      "level": 6,
      "experience": 0,
      "display_names": [
        "Deadly Ripper"
      ],
      "costumes": [
        "Villain_Isle_Deadly_Ripper_01",
        "Villain_Isle_Deadly_Ripper_02",
        "Villain_Isle_Deadly_Ripper_03"
      ]
    },
    {
      "level": 7,
      "experience": 0,
      "display_names": [
        "Deadly Ripper"
      ],
      "costumes": [
        "Villain_Isle_Deadly_Ripper_01",
        "Villain_Isle_Deadly_Ripper_02",
        "Villain_Isle_Deadly_Ripper_03"
      ]
    },
    {
      "level": 8,
      "experience": 0,
      "display_names": [
        "Deadly Ripper"
      ],
      "costumes": [
        "Villain_Isle_Deadly_Ripper_01",
        "Villain_Isle_Deadly_Ripper_02",
        "Villain_Isle_Deadly_Ripper_03"
      ]
    },
    {
      "level": 9,
      "experience": 0,
      "display_names": [
        "Deadly Ripper"
      ],
      "costumes": [
        "Villain_Isle_Deadly_Ripper_01",
        "Villain_Isle_Deadly_Ripper_02",
        "Villain_Isle_Deadly_Ripper_03"
      ]
    }
  ]
}