{
  "name": "Rularuu_RulaWade",
  "gender": "GENDER_MALE",
  "description": "INSERT BIO HERE",
  "group_description": null,
  "display_class_name": null,
  "character_class_name": "boss_elite",
  "ai_config": "Default_Ranged",
  "commandable_pet": false,
  "power_tags": [

  ],
  "additional_rewards": [

  ],
  "skill_hp_rewards": [

  ],
  "skill_status_rewards": [

  ],
  "ally": null,
  "gang": null,
  "reward_scale": 1.0,
  "game_exclusion": "None",
  "inactive_state_weapon": null,
  "ignores_combat_mods": false,
  "copy_creator_mods": false,
  "spawn_limit": 0,
  "spawn_limit_mission": 0,
  "ignore_av_to_eb_scaling": false,
  "can_zone": false,
  "custom_badge_stat": null,
  "badge_stat_flags": "DefaultBadgeStat",
  "rank": "VR_ELITE",
  "power_full_names": [
    "OneWillDie_Issue3Powers.RulaWade.Absorb_Rularuu",
    "OneWillDie_Issue3Powers.RulaWade.Psionic_Disturbance",
    "Rularuu.Wisp_Boss.Psionic_Tornado",
    "Rularuu.Wisp_Lt_Boss.Telekinetic_blast",
    "V_Vindicators.Aurora_Borealis.Psychic_Scream",
    "Rularuu.Brute_Boss.Degradation_Blast",
    "Rularuu.Brute_Lt.Energy_Blast",
    "Rularuu.Natterlings.Fly",
    "V_FreedomPhalanx.Statesman.Resistance",
    "V_FreedomPhalanx.Numina.Psychic_Wail"
  ],
  "power_display_names": [
    "Absorb Rularuu",
    "Psionic Disturbance",
    "Psionic Tornado",
    "Telekinetic blast",
    "Psychic Scream",
    "Degradation Blast",
    "Energy Blast",
    "Fly",
    "Resistance",
    "Psychic Wail"
  ],
  "power_levels": [
    0,
    0,
    0,
    0,
    0,
    0,
    0,
    0,
    0,
    0
  ],
  "powers": [
    {
      "power_category": "OneWillDie_Issue3Powers",
      "power_set": "RulaWade",
      "power": "*",
      "level": 0
    },
    {
      "power_category": "Rularuu",
      "power_set": "Wisp_Boss",
      "power": "Psionic_Tornado",
      "level": 0
    },
    {
      "power_category": "Rularuu",
      "power_set": "Wisp_Lt_Boss",
      "power": "Telekinetic_Blast",
      "level": 0
    },
    {
      "power_category": "V_Vindicators",
      "power_set": "Aurora_Borealis",
      "power": "Psychic_Scream",
      "level": 0
    },
    {
      "power_category": "Rularuu",
      "power_set": "Brute_Boss",
      "power": "Degradation_Blast",
      "level": 0
    },
    {
      "power_category": "Rularuu",
      "power_set": "Brute_Lt",
      "power": "Energy_Blast",
      "level": 0
    },
    {
      "power_category": "Rularuu",
      "power_set": "Natterlings",
      "power": "Fly",
      "level": 0
    },
    {
      "power_category": "V_FreedomPhalanx",
      "power_set": "Statesman",
      "power": "Resistance",
      "level": 0
    },
    {
      "power_category": "V_FreedomPhalanx",
      "power_set": "Numina",
      "power": "Psychic_Wail",
      "level": 0
    }
  ],
  "levels": [
    {
      "level": 39,
      "experience": 0,
      "display_names": [
        "RulaWade"
      ],
      "costumes": [
        "Rularuu_RulaWade"
      ]
    },
    {
      "level": 40,
      "experience": 0,
      "display_names": [
        "RulaWade"
      ],
      "costumes": [
        "Rularuu_RulaWade"
      ]
    },
    {
      "level": 41,
      "experience": 0,
      "display_names": [
        "RulaWade"
      ],
      "costumes": [
        "Rularuu_RulaWade"
      ]
    },
    {
      "level": 42,
      "experience": 0,
      "display_names": [
        "RulaWade"
      ],
      "costumes": [
        "Rularuu_RulaWade"
      ]
    },
    {
      "level": 43,
      "experience": 0,
      "display_names": [
        "RulaWade"
      ],
      "costumes": [
        "Rularuu_RulaWade"
      ]
    },
    {
      "level": 44,
      "experience": 0,
      "display_names": [
        "RulaWade"
      ],
      "costumes": [
        "Rularuu_RulaWade"
      ]
    },
    {
      "level": 45,
      "experience": 0,
      "display_names": [
        "RulaWade"
      ],
      "costumes": [
        "Rularuu_RulaWade"
      ]
    },
    {
      "level": 46,
      "experience": 0,
      "display_names": [
        "RulaWade"
      ],
      "costumes": [
        "Rularuu_RulaWade"
      ]
    },
    {
      "level": 47,
      "experience": 0,
      "display_names": [
        "RulaWade"
      ],
      "costumes": [
        "Rularuu_RulaWade"
      ]
    },
    {
      "level": 48,
      "experience": 0,
      "display_names": [
        "RulaWade"
      ],
      "costumes": [
        "Rularuu_RulaWade"
      ]
    },
    {
      "level": 49,
      "experience": 0,
      "display_names": [
        "RulaWade"
      ],
      "costumes": [
        "Rularuu_RulaWade"
      ]
    },
    {
      "level": 50,
      "experience": 0,
      "display_names": [
        "RulaWade"
      ],
      "costumes": [
        "Rularuu_RulaWade"
      ]
    },
    {
      "level": 51,
      "experience": 0,
      "display_names": [
        "RulaWade"
      ],
      "costumes": [
        "Rularuu_RulaWade"
      ]
    },
    {
      "level": 52,
      "experience": 0,
      "display_names": [
        "RulaWade"
      ],
      "costumes": [
        "Rularuu_RulaWade"
      ]
    },
    {
      "level": 53,
      "experience": 0,
      "display_names": [
        "RulaWade"
      ],
      "costumes": [
        "Rularuu_RulaWade"
      ]
    },
    {
      "level": 54,
      "experience": 0,
      "display_names": [
        "RulaWade"
      ],
      "costumes": [
        "Rularuu_RulaWade"
      ]
    }
  ]
}