{
  "name": "Rularuu_Faathim",
  "gender": "GENDER_MALE",
  "description": "Faathim the Kind's sole purpose in life is to protect the innocents of the Shadow Shard. He has worked hard to maintain his independence from Rularuu, despite his imprisonment in the Chantry. He has limited means of rebellion, but he uses his mighty healing powers to assist champions of good when he can.",
  "group_description": null,
  "display_class_name": null,
  "character_class_name": "boss_rularuufm",
  "ai_config": "Default_Ranged",
  "commandable_pet": false,
  "power_tags": [
    "Raid"
  ],
  "additional_rewards": [

  ],
  "skill_hp_rewards": [

  ],
  "skill_status_rewards": [

  ],
  "ally": null,
  "gang": null,
  "reward_scale": 1.0,
  "game_exclusion": "None",
  "inactive_state_weapon": null,
  "ignores_combat_mods": false,
  "copy_creator_mods": false,
  "spawn_limit": -1,
  "spawn_limit_mission": -1,
  "ignore_av_to_eb_scaling": false,
  "can_zone": false,
  "custom_badge_stat": null,
  "badge_stat_flags": "DefaultBadgeStat",
  "rank": "VR_ARCHVILLAIN",
  "power_full_names": [
    "Rularuu.Faathim.Resistance",
    "Rularuu.Faathim.SummonFX",
    "Rularuu.Faathim.Fly",
    "Rularuu.Faathim.Heal_Other",
    "Rularuu.Faathim.Healing_Aura",
    "Rularuu.Faathim.Fortitude",
    "Rularuu.Faathim.Siphon_Power",
    "Rularuu.Faathim.Fulcrum_Shift",
    "Rularuu.Faathim.Dispersion_Bubble",
    "Rularuu.Faathim.Protection_Shield"
  ],
  "power_display_names": [
    "Resistance",
    "SummonFX",
    "Fly",
    "Heal Other",
    "Healing Aura",
    "Fortitude",
    "Siphon Power",
    "Fulcrum Shift",
    "Dispersion Bubble",
    "Protection Shield"
  ],
  "power_levels": [
    0,
    0,
    0,
    0,
    0,
    0,
    0,
    0,
    0,
    0
  ],
  "powers": [
    {
      "power_category": "Rularuu",
      "power_set": "Faathim",
      "power": "*",
      "level": 0
    }
  ],
  "levels": [
    {
      "level": 47,
      "experience": 0,
      "display_names": [
        "Faathim the Kind"
      ],
      "costumes": [
        "Rularuu_Faathim"
      ]
    },
    {
      "level": 48,
      "experience": 0,
      "display_names": [
        "Faathim the Kind"
      ],
      "costumes": [
        "Rularuu_Faathim"
      ]
    },
    {
      "level": 49,
      "experience": 0,
      "display_names": [
        "Faathim the Kind"
      ],
      "costumes": [
        "Rularuu_Faathim"
      ]
    },
    {
      "level": 50,
      "experience": 0,
      "display_names": [
        "Faathim the Kind"
      ],
      "costumes": [
        "Rularuu_Faathim"
      ]
    },
    {
      "level": 51,
      "experience": 0,
      "display_names": [
        "Faathim the Kind"
      ],
      "costumes": [
        "Rularuu_Faathim"
      ]
    },
    {
      "level": 52,
      "experience": 0,
      "display_names": [
        "Faathim the Kind"
      ],
      "costumes": [
        "Rularuu_Faathim"
      ]
    },
    {
      "level": 53,
      "experience": 0,
      "display_names": [
        "Faathim the Kind"
      ],
      "costumes": [
        "Rularuu_Faathim"
      ]
    },
    {
      "level": 54,
      "experience": 0,
      "display_names": [
        "Faathim the Kind"
      ],
      "costumes": [
        "Rularuu_Faathim"
      ]
    }
  ]
}