{
  "name": "Rularuu_Sentry_Boss",
  "gender": "GENDER_MALE",
  "description": "The Sentries may look like mindless monsters, but their army is organized and adept. At Firebase Zulu it is theorized that the Sentries communicate through some form of telepathy, since their leaders are able to instantly summon reinforcements when things look grim.",
  "group_description": null,
  "display_class_name": null,
  "character_class_name": "boss_grunt",
  "ai_config": "Default_Ranged",
  "commandable_pet": false,
  "power_tags": [

  ],
  "additional_rewards": [

  ],
  "skill_hp_rewards": [

  ],
  "skill_status_rewards": [

  ],
  "ally": null,
  "gang": null,
  "reward_scale": 1.0,
  "game_exclusion": "None",
  "inactive_state_weapon": null,
  "ignores_combat_mods": false,
  "copy_creator_mods": false,
  "spawn_limit": -1,
  "spawn_limit_mission": -1,
  "ignore_av_to_eb_scaling": false,
  "can_zone": false,
  "custom_badge_stat": null,
  "badge_stat_flags": "DefaultBadgeStat",
  "rank": "VR_BOSS",
  "power_full_names": [
    "Rularuu.Sentry.Resistance",
    "Rularuu.Sentry.Fly",
    "Rularuu.Sentry.Quill_Blast",
    "Rularuu.Sentry.Chomp",
    "Rularuu.Sentry_Lt_Boss.Paralytic_Gaze",
    "Rularuu.Sentry_Lt_Boss.Optic_Blast",
    "Rularuu.Sentry_Boss.Summon_Sentries"
  ],
  "power_display_names": [
    "Resistance",
    "Fly",
    "Quill Blast",
    "Chomp",
    "Paralytic Gaze",
    "Optic Blast",
    "Summon Sentries"
  ],
  "power_levels": [
    0,
    0,
    0,
    0,
    0,
    0,
    0
  ],
  "powers": [
    {
      "power_category": "Rularuu",
      "power_set": "Sentry",
      "power": "*",
      "level": 0
    },
    {
      "power_category": "Rularuu",
      "power_set": "Sentry_Lt_Boss",
      "power": "*",
      "level": 0
    },
    {
      "power_category": "Rularuu",
      "power_set": "Sentry_Boss",
      "power": "*",
      "level": 0
    }
  ],
  "levels": [
    {
      "level": 41,
      "experience": 0,
      "display_names": [
        "Overseer"
      ],
      "costumes": [
        "Rularuu_Sentinel_03"
      ]
    },
    {
      "level": 42,
      "experience": 0,
      "display_names": [
        "Overseer"
      ],
      "costumes": [
        "Rularuu_Sentinel_03"
      ]
    },
    {
      "level": 43,
      "experience": 0,
      "display_names": [
        "Overseer"
      ],
      "costumes": [
        "Rularuu_Sentinel_03"
      ]
    },
    {
      "level": 44,
      "experience": 0,
      "display_names": [
        "Overseer"
      ],
      "costumes": [
        "Rularuu_Sentinel_03"
      ]
    },
    {
      "level": 45,
      "experience": 0,
      "display_names": [
        "Overseer"
      ],
      "costumes": [
        "Rularuu_Sentinel_03"
      ]
    },
    {
      "level": 46,
      "experience": 0,
      "display_names": [
        "Overseer"
      ],
      "costumes": [
        "Rularuu_Sentinel_03"
      ]
    },
    {
      "level": 47,
      "experience": 0,
      "display_names": [
        "Overseer"
      ],
      "costumes": [
        "Rularuu_Sentinel_03"
      ]
    },
    {
      "level": 48,
      "experience": 0,
      "display_names": [
        "Overseer"
      ],
      "costumes": [
        "Rularuu_Sentinel_03"
      ]
    },
    {
      "level": 49,
      "experience": 0,
      "display_names": [
        "Overseer"
      ],
      "costumes": [
        "Rularuu_Sentinel_03"
      ]
    },
    {
      "level": 50,
      "experience": 0,
      "display_names": [
        "Overseer"
      ],
      "costumes": [
        "Rularuu_Sentinel_03"
      ]
    },
    {
      "level": 51,
      "experience": 0,
      "display_names": [
        "Overseer"
      ],
      "costumes": [
        "Rularuu_Sentinel_03"
      ]
    },
    {
      "level": 52,
      "experience": 0,
      "display_names": [
        "Overseer"
      ],
      "costumes": [
        "Rularuu_Sentinel_03"
      ]
    },
    {
      "level": 53,
      "experience": 0,
      "display_names": [
        "Overseer"
      ],
      "costumes": [
        "Rularuu_Sentinel_03"
      ]
    },
    {
      "level": 54,
      "experience": 0,
      "display_names": [
        "Overseer"
      ],
      "costumes": [
        "Rularuu_Sentinel_03"
      ]
    }
  ]
}