{
  "name": "Rularuu_Brute_Boss",
  "gender": "GENDER_MALE",
  "description": "The most powerful Brutes know that it's best to weaken the enemy before charging into the fray. These creatures love to drain their enemies' Endurance before entering battle. Another favorite tactic is to use the power of their crystals to slow their foes' movement and attack speed.",
  "group_description": null,
  "display_class_name": null,
  "character_class_name": "boss_grunt",
  "ai_config": "Default_Melee",
  "commandable_pet": false,
  "power_tags": [

  ],
  "additional_rewards": [

  ],
  "skill_hp_rewards": [

  ],
  "skill_status_rewards": [

  ],
  "ally": null,
  "gang": null,
  "reward_scale": 1.0,
  "game_exclusion": "None",
  "inactive_state_weapon": null,
  "ignores_combat_mods": false,
  "copy_creator_mods": false,
  "spawn_limit": -1,
  "spawn_limit_mission": -1,
  "ignore_av_to_eb_scaling": false,
  "can_zone": false,
  "custom_badge_stat": "kills.Rularuu_Brutes_Boss",
  "badge_stat_flags": "DefaultBadgeStat",
  "rank": "VR_BOSS",
  "power_full_names": [
    "Rularuu.Brute.Resistance",
    "Rularuu.Brute.Pummel",
    "Rularuu.Brute_Boss.Crystal_of_Corruption_Cast",
    "Rularuu.Brute_Boss.Degradation_Blast",
    "Rularuu.Brute_Boss.Energy_Blast",
    "Rularuu.Brute_Boss.Energy_Salvo"
  ],
  "power_display_names": [
    "Resistance",
    "Pummel",
    "Crystal of Corruption Cast",
    "Degradation Blast",
    "Energy Blast",
    "Energy Salvo"
  ],
  "power_levels": [
    0,
    0,
    0,
    0,
    0,
    0
  ],
  "powers": [
    {
      "power_category": "Rularuu",
      "power_set": "Brute",
      "power": "*",
      "level": 0
    },
    {
      "power_category": "Rularuu",
      "power_set": "Brute_Boss",
      "power": "*",
      "level": 0
    }
  ],
  "levels": [
    {
      "level": 41,
      "experience": 0,
      "display_names": [
        "Honored Brute"
      ],
      "costumes": [
        "Rularuu_Brute_03"
      ]
    },
    {
      "level": 42,
      "experience": 0,
      "display_names": [
        "Honored Brute"
      ],
      "costumes": [
        "Rularuu_Brute_03"
      ]
    },
    {
      "level": 43,
      "experience": 0,
      "display_names": [
        "Honored Brute"
      ],
      "costumes": [
        "Rularuu_Brute_03"
      ]
    },
    {
      "level": 44,
      "experience": 0,
      "display_names": [
        "Honored Brute"
      ],
      "costumes": [
        "Rularuu_Brute_03"
      ]
    },
    {
      "level": 45,
      "experience": 0,
      "display_names": [
        "Honored Brute"
      ],
      "costumes": [
        "Rularuu_Brute_03"
      ]
    },
    {
      "level": 46,
      "experience": 0,
      "display_names": [
        "Honored Brute"
      ],
      "costumes": [
        "Rularuu_Brute_03"
      ]
    },
    {
      "level": 47,
      "experience": 0,
      "display_names": [
        "Honored Brute"
      ],
      "costumes": [
        "Rularuu_Brute_03"
      ]
    },
    {
      "level": 48,
      "experience": 0,
      "display_names": [
        "Honored Brute"
      ],
      "costumes": [
        "Rularuu_Brute_03"
      ]
    },
    {
      "level": 49,
      "experience": 0,
      "display_names": [
        "Honored Brute"
      ],
      "costumes": [
        "Rularuu_Brute_03"
      ]
    },
    {
      "level": 50,
      "experience": 0,
      "display_names": [
        "Honored Brute"
      ],
      "costumes": [
        "Rularuu_Brute_03"
      ]
    },
    {
      "level": 51,
      "experience": 0,
      "display_names": [
        "Honored Brute"
      ],
      "costumes": [
        "Rularuu_Brute_03"
      ]
    },
    {
      "level": 52,
      "experience": 0,
      "display_names": [
        "Honored Brute"
      ],
      "costumes": [
        "Rularuu_Brute_03"
      ]
    },
    {
      "level": 53,
      "experience": 0,
      "display_names": [
        "Honored Brute"
      ],
      "costumes": [
        "Rularuu_Brute_03"
      ]
    },
    {
      "level": 54,
      "experience": 0,
      "display_names": [
        "Honored Brute"
      ],
      "costumes": [
        "Rularuu_Brute_03"
      ]
    }
  ]
}