{
  "name": "Shivan_Decimator_Tutorial_Huge",
  "gender": "GENDER_MALE",
  "description": "This Decimator seems to pulse with ectoplasmic destruction and hate. Its grotesque form and radiant energy makes your skin crawl.",
  "group_description": null,
  "display_class_name": null,
  "character_class_name": "boss_elite",
  "ai_config": null,
  "commandable_pet": false,
  "power_tags": [
    "Undead"
  ],
  "additional_rewards": [

  ],
  "skill_hp_rewards": [

  ],
  "skill_status_rewards": [

  ],
  "ally": null,
  "gang": null,
  "reward_scale": 1.0,
  "game_exclusion": "None",
  "inactive_state_weapon": null,
  "ignores_combat_mods": false,
  "copy_creator_mods": false,
  "spawn_limit": 0,
  "spawn_limit_mission": 0,
  "ignore_av_to_eb_scaling": false,
  "can_zone": false,
  "custom_badge_stat": null,
  "badge_stat_flags": "DefaultBadgeStat",
  "rank": "VR_PET",
  "power_full_names": [
    "V_Shivan.Shivan_Boss.Radioactive_Smash",
    "Pets.Shivan_Summon_FX.Summon",
    "Syndicate.Syndicate_Resistance.Resist_Knockaround"
  ],
  "power_display_names": [
    "Radioactive Smash",
    "Summon",
    "Incomparable Balance"
  ],
  "power_levels": [
    0,
    0,
    0
  ],
  "powers": [
    {
      "power_category": "V_Shivan",
      "power_set": "Shivan_Boss",
      "power": "Radioactive_Smash",
      "level": 0
    },
    {
      "power_category": "Pets",
      "power_set": "Shivan_Summon_FX",
      "power": "*",
      "level": 0
    },
    {
      "power_category": "Syndicate",
      "power_set": "Syndicate_Resistance",
      "power": "*",
      "level": 0
    }
  ],
  "levels": [
    {
      "level": 30,
      "experience": 0,
      "display_names": [
        "Shivan Decimator"
      ],
      "costumes": [
        "Shivan_MediumGiant"
      ]
    }
  ]
}