{
  "name": "Shivan_Tutorial_Shivan_Smash",
  "gender": "GENDER_MALE",
  "description": "Look out!",
  "group_description": null,
  "display_class_name": null,
  "character_class_name": "minion_pets",
  "ai_config": "Pets_Ignore",
  "commandable_pet": false,
  "power_tags": [

  ],
  "additional_rewards": [

  ],
  "skill_hp_rewards": [

  ],
  "skill_status_rewards": [

  ],
  "ally": null,
  "gang": null,
  "reward_scale": 0.0,
  "game_exclusion": "None",
  "inactive_state_weapon": null,
  "ignores_combat_mods": false,
  "copy_creator_mods": false,
  "spawn_limit": 0,
  "spawn_limit_mission": 0,
  "ignore_av_to_eb_scaling": false,
  "can_zone": false,
  "custom_badge_stat": null,
  "badge_stat_flags": "DefaultBadgeStat",
  "rank": "VR_PET",
  "power_full_names": [
    "N_Tutorial_Shivan.Shivan_Melee.Shivan_Smash_Hit",
    "Pets.ResistAll.ResistAll"
  ],
  "power_display_names": [
    "Shivan Smash Hit",
    "ResistAll"
  ],
  "power_levels": [
    0,
    0
  ],
  "powers": [
    {
      "power_category": "N_Tutorial_Shivan",
      "power_set": "Shivan_Melee",
      "power": "Shivan_Smash_Hit",
      "level": 0
    },
    {
      "power_category": "Pets",
      "power_set": "ResistAll",
      "power": "*",
      "level": 0
    }
  ],
  "levels": [
    {
      "level": 1,
      "experience": 0,
      "display_names": [
        "Shivan"
      ],
      "costumes": [
        "Puddle"
      ]
    },
    {
      "level": 2,
      "experience": 0,
      "display_names": [
        "Shivan"
      ],
      "costumes": [
        "Puddle"
      ]
    }
  ]
}