{
  "name": "Siege_Boss",
  "gender": "GENDER_MALE",
  "description": "The most recent Robotic Attack Module poses the greatest threat. Neuron abandoned his old plans and concentrated on making these units powerful and durable. With that focus the Series III easily became the most successful of the RAM units.",
  "group_description": "Praetorians",
  "display_class_name": null,
  "character_class_name": "boss_grunt",
  "ai_config": "Default_Ranged",
  "commandable_pet": false,
  "power_tags": [
    "Electronic"
  ],
  "additional_rewards": [

  ],
  "skill_hp_rewards": [

  ],
  "skill_status_rewards": [

  ],
  "ally": null,
  "gang": null,
  "reward_scale": 1.0,
  "game_exclusion": "None",
  "inactive_state_weapon": null,
  "ignores_combat_mods": false,
  "copy_creator_mods": false,
  "spawn_limit": -1,
  "spawn_limit_mission": -1,
  "ignore_av_to_eb_scaling": false,
  "can_zone": false,
  "custom_badge_stat": null,
  "badge_stat_flags": "DefaultBadgeStat",
  "rank": "VR_BOSS",
  "power_full_names": [
    "Praetorians.Siege_Nightstar_Minions.Power_Bolt",
    "Praetorians.Siege_Nightstar_Minions.Power_Blast",
    "Praetorians.Siege_Nightstar_Minions.Explosive_Blast",
    "Praetorians.Siege_Nightstar_Minions.Power_Burst",
    "Praetorians.Siege_Nightstar_Minions.Energy_Punch",
    "Praetorians.Siege_Nightstar_Minions.Resistance"
  ],
  "power_display_names": [
    "Power Bolt",
    "Power Blast",
    "Explosive Blast",
    "Power Burst",
    "Energy Punch",
    "Resistance"
  ],
  "power_levels": [
    0,
    0,
    0,
    0,
    0,
    0
  ],
  "powers": [
    {
      "power_category": "Praetorians",
      "power_set": "Siege_Nightstar_Minions",
      "power": "*",
      "level": 0
    }
  ],
  "levels": [
    {
      "level": 45,
      "experience": 0,
      "display_names": [
        "RAM Series III"
      ],
      "costumes": [
        "Siege_Minions"
      ]
    },
    {
      "level": 46,
      "experience": 0,
      "display_names": [
        "RAM Series III"
      ],
      "costumes": [
        "Siege_Minions"
      ]
    },
    {
      "level": 47,
      "experience": 0,
      "display_names": [
        "RAM Series III"
      ],
      "costumes": [
        "Siege_Minions"
      ]
    },
    {
      "level": 48,
      "experience": 0,
      "display_names": [
        "RAM Series III"
      ],
      "costumes": [
        "Siege_Minions"
      ]
    },
    {
      "level": 49,
      "experience": 0,
      "display_names": [
        "RAM Series III"
      ],
      "costumes": [
        "Siege_Minions"
      ]
    },
    {
      "level": 50,
      "experience": 0,
      "display_names": [
        "RAM Series III"
      ],
      "costumes": [
        "Siege_Minions"
      ]
    },
    {
      "level": 51,
      "experience": 0,
      "display_names": [
        "RAM Series III"
      ],
      "costumes": [
        "Siege_Minions"
      ]
    },
    {
      "level": 52,
      "experience": 0,
      "display_names": [
        "RAM Series III"
      ],
      "costumes": [
        "Siege_Minions"
      ]
    },
    {
      "level": 53,
      "experience": 0,
      "display_names": [
        "RAM Series III"
      ],
      "costumes": [
        "Siege_Minions"
      ]
    },
    {
      "level": 54,
      "experience": 0,
      "display_names": [
        "RAM Series III"
      ],
      "costumes": [
        "Siege_Minions"
      ]
    }
  ]
}