{
  "name": "Skulls_Bat_Thug",
  "gender": "GENDER_MALE",
  "description": "The Skulls worship death in a very personal, creepy way. The Gravediggers are the gang's foot soldiers - wannabes who must prove their skill with knives and guns before they (literally) earn their bones.",
  "group_description": null,
  "display_class_name": null,
  "character_class_name": "minion_grunt",
  "ai_config": "Default_Melee",
  "commandable_pet": false,
  "power_tags": [
    "HumanSkeleton",
    "Human"
  ],
  "additional_rewards": [

  ],
  "skill_hp_rewards": [

  ],
  "skill_status_rewards": [

  ],
  "ally": null,
  "gang": null,
  "reward_scale": 1.0,
  "game_exclusion": "None",
  "inactive_state_weapon": null,
  "ignores_combat_mods": false,
  "copy_creator_mods": false,
  "spawn_limit": -1,
  "spawn_limit_mission": -1,
  "ignore_av_to_eb_scaling": false,
  "can_zone": false,
  "custom_badge_stat": null,
  "badge_stat_flags": "DefaultBadgeStat",
  "rank": "VR_MINION",
  "power_full_names": [
    "Skulls.Skulls_Minion_Bat.Baseball_Bat",
    "Skulls.Skulls_Minion_Revolver.Revolver",
    "Skulls.Skulls_Inherent_Defense.Resistance"
  ],
  "power_display_names": [
    "Baseball Bat",
    "Revolver",
    "Resistance"
  ],
  "power_levels": [
    0,
    0,
    0
  ],
  "powers": [
    {
      "power_category": "Skulls",
      "power_set": "Skulls_Minion_Bat",
      "power": "*",
      "level": 0
    },
    {
      "power_category": "Skulls",
      "power_set": "Skulls_Minion_Revolver",
      "power": "*",
      "level": 0
    },
    {
      "power_category": "Skulls",
      "power_set": "Skulls_Inherent_Defense",
      "power": "Resistance",
      "level": 0
    }
  ],
  "levels": [
    {
      "level": 1,
      "experience": 0,
      "display_names": [
        "Gravedigger Slugger"
      ],
      "costumes": [
        "Thug_Skull_Male_Minion_01",
        "Thug_Skull_Male_Minion_02",
        "Thug_Skull_Male_Minion_03",
        "Thug_Skull_Male_Minion_04",
        "Thug_Skull_Male_Minion_05",
        "Thug_Skull_Male_Minion_06",
        "Thug_Skull_Male_Minion_07",
        "Thug_Skull_Male_Minion_08",
        "Thug_Skull_Male_Minion_09",
        "Thug_Skull_Male_Minion_10"
      ]
    },
    {
      "level": 2,
      "experience": 0,
      "display_names": [
        "Gravedigger Slugger"
      ],
      "costumes": [
        "Thug_Skull_Male_Minion_01",
        "Thug_Skull_Male_Minion_02",
        "Thug_Skull_Male_Minion_03",
        "Thug_Skull_Male_Minion_04",
        "Thug_Skull_Male_Minion_05",
        "Thug_Skull_Male_Minion_06",
        "Thug_Skull_Male_Minion_07",
        "Thug_Skull_Male_Minion_08",
        "Thug_Skull_Male_Minion_09",
        "Thug_Skull_Male_Minion_10"
      ]
    },
    {
      "level": 3,
      "experience": 0,
      "display_names": [
        "Gravedigger Slugger"
      ],
      "costumes": [
        "Thug_Skull_Male_Minion_01",
        "Thug_Skull_Male_Minion_02",
        "Thug_Skull_Male_Minion_03",
        "Thug_Skull_Male_Minion_04",
        "Thug_Skull_Male_Minion_05",
        "Thug_Skull_Male_Minion_06",
        "Thug_Skull_Male_Minion_07",
        "Thug_Skull_Male_Minion_08",
        "Thug_Skull_Male_Minion_09",
        "Thug_Skull_Male_Minion_10"
      ]
    },
    {
      "level": 4,
      "experience": 0,
      "display_names": [
        "Gravedigger Slugger"
      ],
      "costumes": [
        "Thug_Skull_Male_Minion_01",
        "Thug_Skull_Male_Minion_02",
        "Thug_Skull_Male_Minion_03",
        "Thug_Skull_Male_Minion_04",
        "Thug_Skull_Male_Minion_05",
        "Thug_Skull_Male_Minion_06",
        "Thug_Skull_Male_Minion_07",
        "Thug_Skull_Male_Minion_08",
        "Thug_Skull_Male_Minion_09",
        "Thug_Skull_Male_Minion_10"
      ]
    },
    {
      "level": 5,
      "experience": 0,
      "display_names": [
        "Gravedigger Slugger"
      ],
      "costumes": [
        "Thug_Skull_Male_Minion_01",
        "Thug_Skull_Male_Minion_02",
        "Thug_Skull_Male_Minion_03",
        "Thug_Skull_Male_Minion_04",
        "Thug_Skull_Male_Minion_05",
        "Thug_Skull_Male_Minion_06",
        "Thug_Skull_Male_Minion_07",
        "Thug_Skull_Male_Minion_08",
        "Thug_Skull_Male_Minion_09",
        "Thug_Skull_Male_Minion_10"
      ]
    },
    {
      "level": 6,
      "experience": 0,
      "display_names": [
        "Gravedigger Slugger"
      ],
      "costumes": [
        "Thug_Skull_Male_Minion_01",
        "Thug_Skull_Male_Minion_02",
        "Thug_Skull_Male_Minion_03",
        "Thug_Skull_Male_Minion_04",
        "Thug_Skull_Male_Minion_05",
        "Thug_Skull_Male_Minion_06",
        "Thug_Skull_Male_Minion_07",
        "Thug_Skull_Male_Minion_08",
        "Thug_Skull_Male_Minion_09",
        "Thug_Skull_Male_Minion_10"
      ]
    },
    {
      "level": 7,
      "experience": 0,
      "display_names": [
        "Gravedigger Slugger"
      ],
      "costumes": [
        "Thug_Skull_Male_Minion_01",
        "Thug_Skull_Male_Minion_02",
        "Thug_Skull_Male_Minion_03",
        "Thug_Skull_Male_Minion_04",
        "Thug_Skull_Male_Minion_05",
        "Thug_Skull_Male_Minion_06",
        "Thug_Skull_Male_Minion_07",
        "Thug_Skull_Male_Minion_08",
        "Thug_Skull_Male_Minion_09",
        "Thug_Skull_Male_Minion_10"
      ]
    },
    {
      "level": 8,
      "experience": 0,
      "display_names": [
        "Gravedigger Slugger"
      ],
      "costumes": [
        "Thug_Skull_Male_Minion_01",
        "Thug_Skull_Male_Minion_02",
        "Thug_Skull_Male_Minion_03",
        "Thug_Skull_Male_Minion_04",
        "Thug_Skull_Male_Minion_05",
        "Thug_Skull_Male_Minion_06",
        "Thug_Skull_Male_Minion_07",
        "Thug_Skull_Male_Minion_08",
        "Thug_Skull_Male_Minion_09",
        "Thug_Skull_Male_Minion_10"
      ]
    },
    {
      "level": 9,
      "experience": 0,
      "display_names": [
        "Gravedigger Slugger"
      ],
      "costumes": [
        "Thug_Skull_Male_Minion_01",
        "Thug_Skull_Male_Minion_02",
        "Thug_Skull_Male_Minion_03",
        "Thug_Skull_Male_Minion_04",
        "Thug_Skull_Male_Minion_05",
        "Thug_Skull_Male_Minion_06",
        "Thug_Skull_Male_Minion_07",
        "Thug_Skull_Male_Minion_08",
        "Thug_Skull_Male_Minion_09",
        "Thug_Skull_Male_Minion_10"
      ]
    },
    {
      "level": 10,
      "experience": 0,
      "display_names": [
        "Gravedigger Slugger"
      ],
      "costumes": [
        "Thug_Skull_Male_Minion_01",
        "Thug_Skull_Male_Minion_02",
        "Thug_Skull_Male_Minion_03",
        "Thug_Skull_Male_Minion_04",
        "Thug_Skull_Male_Minion_05",
        "Thug_Skull_Male_Minion_06",
        "Thug_Skull_Male_Minion_07",
        "Thug_Skull_Male_Minion_08",
        "Thug_Skull_Male_Minion_09",
        "Thug_Skull_Male_Minion_10"
      ]
    },
    {
      "level": 11,
      "experience": 0,
      "display_names": [
        "Gravedigger Slugger"
      ],
      "costumes": [
        "Thug_Skull_Male_Minion_01",
        "Thug_Skull_Male_Minion_02",
        "Thug_Skull_Male_Minion_03",
        "Thug_Skull_Male_Minion_04",
        "Thug_Skull_Male_Minion_05",
        "Thug_Skull_Male_Minion_06",
        "Thug_Skull_Male_Minion_07",
        "Thug_Skull_Male_Minion_08",
        "Thug_Skull_Male_Minion_09",
        "Thug_Skull_Male_Minion_10"
      ]
    },
    {
      "level": 12,
      "experience": 0,
      "display_names": [
        "Gravedigger Slugger"
      ],
      "costumes": [
        "Thug_Skull_Male_Minion_01",
        "Thug_Skull_Male_Minion_02",
        "Thug_Skull_Male_Minion_03",
        "Thug_Skull_Male_Minion_04",
        "Thug_Skull_Male_Minion_05",
        "Thug_Skull_Male_Minion_06",
        "Thug_Skull_Male_Minion_07",
        "Thug_Skull_Male_Minion_08",
        "Thug_Skull_Male_Minion_09",
        "Thug_Skull_Male_Minion_10"
      ]
    },
    {
      "level": 13,
      "experience": 0,
      "display_names": [
        "Gravedigger Slugger"
      ],
      "costumes": [
        "Thug_Skull_Male_Minion_01",
        "Thug_Skull_Male_Minion_02",
        "Thug_Skull_Male_Minion_03",
        "Thug_Skull_Male_Minion_04",
        "Thug_Skull_Male_Minion_05",
        "Thug_Skull_Male_Minion_06",
        "Thug_Skull_Male_Minion_07",
        "Thug_Skull_Male_Minion_08",
        "Thug_Skull_Male_Minion_09",
        "Thug_Skull_Male_Minion_10"
      ]
    },
    {
      "level": 14,
      "experience": 0,
      "display_names": [
        "Gravedigger Slugger"
      ],
      "costumes": [
        "Thug_Skull_Male_Minion_01",
        "Thug_Skull_Male_Minion_02",
        "Thug_Skull_Male_Minion_03",
        "Thug_Skull_Male_Minion_04",
        "Thug_Skull_Male_Minion_05",
        "Thug_Skull_Male_Minion_06",
        "Thug_Skull_Male_Minion_07",
        "Thug_Skull_Male_Minion_08",
        "Thug_Skull_Male_Minion_09",
        "Thug_Skull_Male_Minion_10"
      ]
    },
    {
      "level": 15,
      "experience": 0,
      "display_names": [
        "Gravedigger Slugger"
      ],
      "costumes": [
        "Thug_Skull_Male_Minion_01",
        "Thug_Skull_Male_Minion_02",
        "Thug_Skull_Male_Minion_03",
        "Thug_Skull_Male_Minion_04",
        "Thug_Skull_Male_Minion_05",
        "Thug_Skull_Male_Minion_06",
        "Thug_Skull_Male_Minion_07",
        "Thug_Skull_Male_Minion_08",
        "Thug_Skull_Male_Minion_09",
        "Thug_Skull_Male_Minion_10"
      ]
    },
    {
      "level": 16,
      "experience": 0,
      "display_names": [
        "Gravedigger Slugger"
      ],
      "costumes": [
        "Thug_Skull_Male_Minion_01",
        "Thug_Skull_Male_Minion_02",
        "Thug_Skull_Male_Minion_03",
        "Thug_Skull_Male_Minion_04",
        "Thug_Skull_Male_Minion_05",
        "Thug_Skull_Male_Minion_06",
        "Thug_Skull_Male_Minion_07",
        "Thug_Skull_Male_Minion_08",
        "Thug_Skull_Male_Minion_09",
        "Thug_Skull_Male_Minion_10"
      ]
    },
    {
      "level": 17,
      "experience": 0,
      "display_names": [
        "Gravedigger Slugger"
      ],
      "costumes": [
        "Thug_Skull_Male_Minion_01",
        "Thug_Skull_Male_Minion_02",
        "Thug_Skull_Male_Minion_03",
        "Thug_Skull_Male_Minion_04",
        "Thug_Skull_Male_Minion_05",
        "Thug_Skull_Male_Minion_06",
        "Thug_Skull_Male_Minion_07",
        "Thug_Skull_Male_Minion_08",
        "Thug_Skull_Male_Minion_09",
        "Thug_Skull_Male_Minion_10"
      ]
    },
    {
      "level": 18,
      "experience": 0,
      "display_names": [
        "Gravedigger Slugger"
      ],
      "costumes": [
        "Thug_Skull_Male_Minion_01",
        "Thug_Skull_Male_Minion_02",
        "Thug_Skull_Male_Minion_03",
        "Thug_Skull_Male_Minion_04",
        "Thug_Skull_Male_Minion_05",
        "Thug_Skull_Male_Minion_06",
        "Thug_Skull_Male_Minion_07",
        "Thug_Skull_Male_Minion_08",
        "Thug_Skull_Male_Minion_09",
        "Thug_Skull_Male_Minion_10"
      ]
    },
    {
      "level": 19,
      "experience": 0,
      "display_names": [
        "Gravedigger Slugger"
      ],
      "costumes": [
        "Thug_Skull_Male_Minion_01",
        "Thug_Skull_Male_Minion_02",
        "Thug_Skull_Male_Minion_03",
        "Thug_Skull_Male_Minion_04",
        "Thug_Skull_Male_Minion_05",
        "Thug_Skull_Male_Minion_06",
        "Thug_Skull_Male_Minion_07",
        "Thug_Skull_Male_Minion_08",
        "Thug_Skull_Male_Minion_09",
        "Thug_Skull_Male_Minion_10"
      ]
    },
    {
      "level": 20,
      "experience": 0,
      "display_names": [
        "Gravedigger Slugger"
      ],
      "costumes": [
        "Thug_Skull_Male_Minion_01",
        "Thug_Skull_Male_Minion_02",
        "Thug_Skull_Male_Minion_03",
        "Thug_Skull_Male_Minion_04",
        "Thug_Skull_Male_Minion_05",
        "Thug_Skull_Male_Minion_06",
        "Thug_Skull_Male_Minion_07",
        "Thug_Skull_Male_Minion_08",
        "Thug_Skull_Male_Minion_09",
        "Thug_Skull_Male_Minion_10"
      ]
    },
    {
      "level": 21,
      "experience": 0,
      "display_names": [
        "Gravedigger Slugger"
      ],
      "costumes": [
        "Thug_Skull_Male_Minion_01",
        "Thug_Skull_Male_Minion_02",
        "Thug_Skull_Male_Minion_03",
        "Thug_Skull_Male_Minion_04",
        "Thug_Skull_Male_Minion_05",
        "Thug_Skull_Male_Minion_06",
        "Thug_Skull_Male_Minion_07",
        "Thug_Skull_Male_Minion_08",
        "Thug_Skull_Male_Minion_09",
        "Thug_Skull_Male_Minion_10"
      ]
    },
    {
      "level": 22,
      "experience": 0,
      "display_names": [
        "Gravedigger Slugger"
      ],
      "costumes": [
        "Thug_Skull_Male_Minion_01",
        "Thug_Skull_Male_Minion_02",
        "Thug_Skull_Male_Minion_03",
        "Thug_Skull_Male_Minion_04",
        "Thug_Skull_Male_Minion_05",
        "Thug_Skull_Male_Minion_06",
        "Thug_Skull_Male_Minion_07",
        "Thug_Skull_Male_Minion_08",
        "Thug_Skull_Male_Minion_09",
        "Thug_Skull_Male_Minion_10"
      ]
    },
    {
      "level": 23,
      "experience": 0,
      "display_names": [
        "Gravedigger Slugger"
      ],
      "costumes": [
        "Thug_Skull_Male_Minion_01",
        "Thug_Skull_Male_Minion_02",
        "Thug_Skull_Male_Minion_03",
        "Thug_Skull_Male_Minion_04",
        "Thug_Skull_Male_Minion_05",
        "Thug_Skull_Male_Minion_06",
        "Thug_Skull_Male_Minion_07",
        "Thug_Skull_Male_Minion_08",
        "Thug_Skull_Male_Minion_09",
        "Thug_Skull_Male_Minion_10"
      ]
    },
    {
      "level": 24,
      "experience": 0,
      "display_names": [
        "Gravedigger Slugger"
      ],
      "costumes": [
        "Thug_Skull_Male_Minion_01",
        "Thug_Skull_Male_Minion_02",
        "Thug_Skull_Male_Minion_03",
        "Thug_Skull_Male_Minion_04",
        "Thug_Skull_Male_Minion_05",
        "Thug_Skull_Male_Minion_06",
        "Thug_Skull_Male_Minion_07",
        "Thug_Skull_Male_Minion_08",
        "Thug_Skull_Male_Minion_09",
        "Thug_Skull_Male_Minion_10"
      ]
    }
  ]
}