{
  "name": "SkyRaiders_Sky_Raider_Lt_High",
  "gender": "GENDER_MALE",
  "description": "The Sky Raiders officer corps consists of combat veterans who fought both before and during the Rikti War. They've become disenchanted with the government and its current reliance on super-powered heroes, but they haven't lost any of their military ability or discipline.",
  "group_description": null,
  "display_class_name": null,
  "character_class_name": "lt_grunt",
  "ai_config": null,
  "commandable_pet": false,
  "power_tags": [
    "HumanSkeleton",
    "Human"
  ],
  "additional_rewards": [

  ],
  "skill_hp_rewards": [

  ],
  "skill_status_rewards": [

  ],
  "ally": null,
  "gang": null,
  "reward_scale": 1.0,
  "game_exclusion": "None",
  "inactive_state_weapon": null,
  "ignores_combat_mods": false,
  "copy_creator_mods": false,
  "spawn_limit": -1,
  "spawn_limit_mission": -1,
  "ignore_av_to_eb_scaling": false,
  "can_zone": false,
  "custom_badge_stat": null,
  "badge_stat_flags": "DefaultBadgeStat",
  "rank": "VR_LIEUTENANT",
  "power_full_names": [
    "SkyRaiders.Sky_Raider_Minion_Melee.Brawl",
    "SkyRaiders.Sky_Raider_Minion_Melee.Machete",
    "SkyRaiders.Sky_Raider_AssaultRifle.Adv_Assault_Rifle"
  ],
  "power_display_names": [
    "Brawl",
    "Machete",
    "Adv Assault Rifle"
  ],
  "power_levels": [
    0,
    0,
    0
  ],
  "powers": [
    {
      "power_category": "SkyRaiders",
      "power_set": "Sky_Raider_Minion_Melee",
      "power": "*",
      "level": 0
    },
    {
      "power_category": "SkyRaiders",
      "power_set": "Sky_Raider_AssaultRifle",
      "power": "*",
      "level": 0
    }
  ],
  "levels": [
    {
      "level": 36,
      "experience": 0,
      "display_names": [
        "Captain"
      ],
      "costumes": [
        "Sky_Raiders_01"
      ]
    },
    {
      "level": 37,
      "experience": 0,
      "display_names": [
        "Captain"
      ],
      "costumes": [
        "Sky_Raiders_01"
      ]
    },
    {
      "level": 38,
      "experience": 0,
      "display_names": [
        "Captain"
      ],
      "costumes": [
        "Sky_Raiders_01"
      ]
    },
    {
      "level": 39,
      "experience": 0,
      "display_names": [
        "Captain"
      ],
      "costumes": [
        "Sky_Raiders_01"
      ]
    },
    {
      "level": 40,
      "experience": 0,
      "display_names": [
        "Captain"
      ],
      "costumes": [
        "Sky_Raiders_01"
      ]
    },
    {
      "level": 41,
      "experience": 0,
      "display_names": [
        "Captain"
      ],
      "costumes": [
        "Sky_Raiders_01"
      ]
    },
    {
      "level": 42,
      "experience": 0,
      "display_names": [
        "Captain"
      ],
      "costumes": [
        "Sky_Raiders_01"
      ]
    },
    {
      "level": 43,
      "experience": 0,
      "display_names": [
        "Captain"
      ],
      "costumes": [
        "Sky_Raiders_01"
      ]
    },
    {
      "level": 44,
      "experience": 0,
      "display_names": [
        "Captain"
      ],
      "costumes": [
        "Sky_Raiders_01"
      ]
    },
    {
      "level": 45,
      "experience": 0,
      "display_names": [
        "Captain"
      ],
      "costumes": [
        "Sky_Raiders_01"
      ]
    },
    {
      "level": 46,
      "experience": 0,
      "display_names": [
        "Captain"
      ],
      "costumes": [
        "Sky_Raiders_01"
      ]
    },
    {
      "level": 47,
      "experience": 0,
      "display_names": [
        "Captain"
      ],
      "costumes": [
        "Sky_Raiders_01"
      ]
    },
    {
      "level": 48,
      "experience": 0,
      "display_names": [
        "Captain"
      ],
      "costumes": [
        "Sky_Raiders_01"
      ]
    },
    {
      "level": 49,
      "experience": 0,
      "display_names": [
        "Captain"
      ],
      "costumes": [
        "Sky_Raiders_01"
      ]
    },
    {
      "level": 50,
      "experience": 0,
      "display_names": [
        "Captain"
      ],
      "costumes": [
        "Sky_Raiders_01"
      ]
    }
  ]
}