{
  "name": "SkyRaiders_ForceGenerator",
  "gender": "GENDER_MALE",
  "description": "The Sky Raiders have created effective force field generators to protect their fast moving troops.",
  "group_description": null,
  "display_class_name": null,
  "character_class_name": "minion_grunt",
  "ai_config": "SkyRaiders_ForceGenerator",
  "commandable_pet": false,
  "power_tags": [
    "Electronic"
  ],
  "additional_rewards": [

  ],
  "skill_hp_rewards": [

  ],
  "skill_status_rewards": [

  ],
  "ally": null,
  "gang": null,
  "reward_scale": 1.0,
  "game_exclusion": "None",
  "inactive_state_weapon": null,
  "ignores_combat_mods": false,
  "copy_creator_mods": false,
  "spawn_limit": 0,
  "spawn_limit_mission": 0,
  "ignore_av_to_eb_scaling": false,
  "can_zone": false,
  "custom_badge_stat": null,
  "badge_stat_flags": "DefaultBadgeStat",
  "rank": "VR_SMALL",
  "power_full_names": [
    "SkyRaiders.ForceGenerator.Generator",
    "SkyRaiders.ForceGenerator.Resistance",
    "SkyRaiders.Sky_Raider_Wings_Movement.Fly",
    "SkyRaiders.Sky_Raider_Wings_Movement.Fly_fx",
    "SkyRaiders.Sky_Raider_Jump_Bot_Defense.Explode"
  ],
  "power_display_names": [
    "Generator",
    "Resistance",
    "Fly",
    "Fly fx",
    "Explode"
  ],
  "power_levels": [
    0,
    0,
    0,
    0,
    0
  ],
  "powers": [
    {
      "power_category": "SkyRaiders",
      "power_set": "ForceGenerator",
      "power": "*",
      "level": 0
    },
    {
      "power_category": "SkyRaiders",
      "power_set": "Sky_Raider_Wings_Movement",
      "power": "*",
      "level": 0
    },
    {
      "power_category": "SkyRaiders",
      "power_set": "Sky_Raider_Jump_Bot_Defense",
      "power": "Explode",
      "level": 0
    }
  ],
  "levels": [
    {
      "level": 1,
      "experience": 0,
      "display_names": [
        "Force Field Generator"
      ],
      "costumes": [
        "Sky_Raiders_Drone"
      ]
    },
    {
      "level": 2,
      "experience": 0,
      "display_names": [
        "Force Field Generator"
      ],
      "costumes": [
        "Sky_Raiders_Drone"
      ]
    },
    {
      "level": 3,
      "experience": 0,
      "display_names": [
        "Force Field Generator"
      ],
      "costumes": [
        "Sky_Raiders_Drone"
      ]
    },
    {
      "level": 4,
      "experience": 0,
      "display_names": [
        "Force Field Generator"
      ],
      "costumes": [
        "Sky_Raiders_Drone"
      ]
    },
    {
      "level": 5,
      "experience": 0,
      "display_names": [
        "Force Field Generator"
      ],
      "costumes": [
        "Sky_Raiders_Drone"
      ]
    },
    {
      "level": 6,
      "experience": 0,
      "display_names": [
        "Force Field Generator"
      ],
      "costumes": [
        "Sky_Raiders_Drone"
      ]
    },
    {
      "level": 7,
      "experience": 0,
      "display_names": [
        "Force Field Generator"
      ],
      "costumes": [
        "Sky_Raiders_Drone"
      ]
    },
    {
      "level": 8,
      "experience": 0,
      "display_names": [
        "Force Field Generator"
      ],
      "costumes": [
        "Sky_Raiders_Drone"
      ]
    },
    {
      "level": 9,
      "experience": 0,
      "display_names": [
        "Force Field Generator"
      ],
      "costumes": [
        "Sky_Raiders_Drone"
      ]
    },
    {
      "level": 10,
      "experience": 0,
      "display_names": [
        "Force Field Generator"
      ],
      "costumes": [
        "Sky_Raiders_Drone"
      ]
    },
    {
      "level": 11,
      "experience": 0,
      "display_names": [
        "Force Field Generator"
      ],
      "costumes": [
        "Sky_Raiders_Drone"
      ]
    },
    {
      "level": 12,
      "experience": 0,
      "display_names": [
        "Force Field Generator"
      ],
      "costumes": [
        "Sky_Raiders_Drone"
      ]
    },
    {
      "level": 13,
      "experience": 0,
      "display_names": [
        "Force Field Generator"
      ],
      "costumes": [
        "Sky_Raiders_Drone"
      ]
    },
    {
      "level": 14,
      "experience": 0,
      "display_names": [
        "Force Field Generator"
      ],
      "costumes": [
        "Sky_Raiders_Drone"
      ]
    },
    {
      "level": 15,
      "experience": 0,
      "display_names": [
        "Force Field Generator"
      ],
      "costumes": [
        "Sky_Raiders_Drone"
      ]
    },
    {
      "level": 16,
      "experience": 0,
      "display_names": [
        "Force Field Generator"
      ],
      "costumes": [
        "Sky_Raiders_Drone"
      ]
    },
    {
      "level": 17,
      "experience": 0,
      "display_names": [
        "Force Field Generator"
      ],
      "costumes": [
        "Sky_Raiders_Drone"
      ]
    },
    {
      "level": 18,
      "experience": 0,
      "display_names": [
        "Force Field Generator"
      ],
      "costumes": [
        "Sky_Raiders_Drone"
      ]
    },
    {
      "level": 19,
      "experience": 0,
      "display_names": [
        "Force Field Generator"
      ],
      "costumes": [
        "Sky_Raiders_Drone"
      ]
    },
    {
      "level": 20,
      "experience": 0,
      "display_names": [
        "Force Field Generator"
      ],
      "costumes": [
        "Sky_Raiders_Drone"
      ]
    },
    {
      "level": 21,
      "experience": 0,
      "display_names": [
        "Force Field Generator"
      ],
      "costumes": [
        "Sky_Raiders_Drone"
      ]
    },
    {
      "level": 22,
      "experience": 0,
      "display_names": [
        "Force Field Generator"
      ],
      "costumes": [
        "Sky_Raiders_Drone"
      ]
    },
    {
      "level": 23,
      "experience": 0,
      "display_names": [
        "Force Field Generator"
      ],
      "costumes": [
        "Sky_Raiders_Drone"
      ]
    },
    {
      "level": 24,
      "experience": 0,
      "display_names": [
        "Force Field Generator"
      ],
      "costumes": [
        "Sky_Raiders_Drone"
      ]
    },
    {
      "level": 25,
      "experience": 0,
      "display_names": [
        "Force Field Generator"
      ],
      "costumes": [
        "Sky_Raiders_Drone"
      ]
    },
    {
      "level": 26,
      "experience": 0,
      "display_names": [
        "Force Field Generator"
      ],
      "costumes": [
        "Sky_Raiders_Drone"
      ]
    },
    {
      "level": 27,
      "experience": 0,
      "display_names": [
        "Force Field Generator"
      ],
      "costumes": [
        "Sky_Raiders_Drone"
      ]
    },
    {
      "level": 28,
      "experience": 0,
      "display_names": [
        "Force Field Generator"
      ],
      "costumes": [
        "Sky_Raiders_Drone"
      ]
    },
    {
      "level": 29,
      "experience": 0,
      "display_names": [
        "Force Field Generator"
      ],
      "costumes": [
        "Sky_Raiders_Drone"
      ]
    },
    {
      "level": 30,
      "experience": 0,
      "display_names": [
        "Force Field Generator"
      ],
      "costumes": [
        "Sky_Raiders_Drone"
      ]
    },
    {
      "level": 31,
      "experience": 0,
      "display_names": [
        "Force Field Generator"
      ],
      "costumes": [
        "Sky_Raiders_Drone"
      ]
    },
    {
      "level": 32,
      "experience": 0,
      "display_names": [
        "Force Field Generator"
      ],
      "costumes": [
        "Sky_Raiders_Drone"
      ]
    },
    {
      "level": 33,
      "experience": 0,
      "display_names": [
        "Force Field Generator"
      ],
      "costumes": [
        "Sky_Raiders_Drone"
      ]
    },
    {
      "level": 34,
      "experience": 0,
      "display_names": [
        "Force Field Generator"
      ],
      "costumes": [
        "Sky_Raiders_Drone"
      ]
    },
    {
      "level": 35,
      "experience": 0,
      "display_names": [
        "Force Field Generator"
      ],
      "costumes": [
        "Sky_Raiders_Drone"
      ]
    },
    {
      "level": 36,
      "experience": 0,
      "display_names": [
        "Force Field Generator"
      ],
      "costumes": [
        "Sky_Raiders_Drone"
      ]
    },
    {
      "level": 37,
      "experience": 0,
      "display_names": [
        "Force Field Generator"
      ],
      "costumes": [
        "Sky_Raiders_Drone"
      ]
    },
    {
      "level": 38,
      "experience": 0,
      "display_names": [
        "Force Field Generator"
      ],
      "costumes": [
        "Sky_Raiders_Drone"
      ]
    },
    {
      "level": 39,
      "experience": 0,
      "display_names": [
        "Force Field Generator"
      ],
      "costumes": [
        "Sky_Raiders_Drone"
      ]
    },
    {
      "level": 40,
      "experience": 0,
      "display_names": [
        "Force Field Generator"
      ],
      "costumes": [
        "Sky_Raiders_Drone"
      ]
    },
    {
      "level": 41,
      "experience": 0,
      "display_names": [
        "Force Field Generator"
      ],
      "costumes": [
        "Sky_Raiders_Drone"
      ]
    },
    {
      "level": 42,
      "experience": 0,
      "display_names": [
        "Force Field Generator"
      ],
      "costumes": [
        "Sky_Raiders_Drone"
      ]
    },
    {
      "level": 43,
      "experience": 0,
      "display_names": [
        "Force Field Generator"
      ],
      "costumes": [
        "Sky_Raiders_Drone"
      ]
    },
    {
      "level": 44,
      "experience": 0,
      "display_names": [
        "Force Field Generator"
      ],
      "costumes": [
        "Sky_Raiders_Drone"
      ]
    },
    {
      "level": 45,
      "experience": 0,
      "display_names": [
        "Force Field Generator"
      ],
      "costumes": [
        "Sky_Raiders_Drone"
      ]
    },
    {
      "level": 46,
      "experience": 0,
      "display_names": [
        "Force Field Generator"
      ],
      "costumes": [
        "Sky_Raiders_Drone"
      ]
    },
    {
      "level": 47,
      "experience": 0,
      "display_names": [
        "Force Field Generator"
      ],
      "costumes": [
        "Sky_Raiders_Drone"
      ]
    },
    {
      "level": 48,
      "experience": 0,
      "display_names": [
        "Force Field Generator"
      ],
      "costumes": [
        "Sky_Raiders_Drone"
      ]
    },
    {
      "level": 49,
      "experience": 0,
      "display_names": [
        "Force Field Generator"
      ],
      "costumes": [
        "Sky_Raiders_Drone"
      ]
    },
    {
      "level": 50,
      "experience": 0,
      "display_names": [
        "Force Field Generator"
      ],
      "costumes": [
        "Sky_Raiders_Drone"
      ]
    },
    {
      "level": 51,
      "experience": 0,
      "display_names": [
        "Force Field Generator"
      ],
      "costumes": [
        "Sky_Raiders_Drone"
      ]
    },
    {
      "level": 52,
      "experience": 0,
      "display_names": [
        "Force Field Generator"
      ],
      "costumes": [
        "Sky_Raiders_Drone"
      ]
    },
    {
      "level": 53,
      "experience": 0,
      "display_names": [
        "Force Field Generator"
      ],
      "costumes": [
        "Sky_Raiders_Drone"
      ]
    },
    {
      "level": 54,
      "experience": 0,
      "display_names": [
        "Force Field Generator"
      ],
      "costumes": [
        "Sky_Raiders_Drone"
      ]
    }
  ]
}