{
  "name": "SkyRaiders_Porter_Lt_SSA2",
  "gender": "GENDER_MALE",
  "description": "Because they have a relatively small number of men, the Sky Raiders rely on speed and maneuverability to win battles. No one is faster than the Porters, special forces who can teleport directly into or out of battle, allowing them to strike where the enemy's weakest and retreat from dire situations.",
  "group_description": null,
  "display_class_name": null,
  "character_class_name": "lt_grunt",
  "ai_config": "SkyRaiders_Porter",
  "commandable_pet": false,
  "power_tags": [
    "HumanSkeleton",
    "Human"
  ],
  "additional_rewards": [

  ],
  "skill_hp_rewards": [

  ],
  "skill_status_rewards": [

  ],
  "ally": null,
  "gang": null,
  "reward_scale": 1.0,
  "game_exclusion": "None",
  "inactive_state_weapon": null,
  "ignores_combat_mods": false,
  "copy_creator_mods": false,
  "spawn_limit": 0,
  "spawn_limit_mission": 0,
  "ignore_av_to_eb_scaling": false,
  "can_zone": false,
  "custom_badge_stat": null,
  "badge_stat_flags": "DefaultBadgeStat",
  "rank": "VR_LIEUTENANT",
  "power_full_names": [
    "SkyRaiders.Sky_Raider_Wings_Porter_Melee.Brawl",
    "SkyRaiders.Sky_Raider_Wings_Porter_Melee.Machete",
    "SkyRaiders.Sky_Raider_AssaultRifle.Adv_Assault_Rifle",
    "SkyRaiders.Sky_Raider_Porters_Movement.Teleport"
  ],
  "power_display_names": [
    "Brawl",
    "Machete",
    "Adv Assault Rifle",
    "Teleport"
  ],
  "power_levels": [
    0,
    0,
    0,
    0
  ],
  "powers": [
    {
      "power_category": "SkyRaiders",
      "power_set": "Sky_Raider_Wings_Porter_Melee",
      "power": "*",
      "level": 0
    },
    {
      "power_category": "SkyRaiders",
      "power_set": "Sky_Raider_AssaultRifle",
      "power": "*",
      "level": 0
    },
    {
      "power_category": "SkyRaiders",
      "power_set": "Sky_Raider_Porters_Movement",
      "power": "*",
      "level": 0
    }
  ],
  "levels": [
    {
      "level": 30,
      "experience": 0,
      "display_names": [
        "Porter"
      ],
      "costumes": [
        "Sky_Raiders_04"
      ]
    },
    {
      "level": 31,
      "experience": 0,
      "display_names": [
        "Porter"
      ],
      "costumes": [
        "Sky_Raiders_04"
      ]
    },
    {
      "level": 32,
      "experience": 0,
      "display_names": [
        "Porter"
      ],
      "costumes": [
        "Sky_Raiders_04"
      ]
    },
    {
      "level": 33,
      "experience": 0,
      "display_names": [
        "Porter"
      ],
      "costumes": [
        "Sky_Raiders_04"
      ]
    },
    {
      "level": 34,
      "experience": 0,
      "display_names": [
        "Porter"
      ],
      "costumes": [
        "Sky_Raiders_04"
      ]
    },
    {
      "level": 35,
      "experience": 0,
      "display_names": [
        "Porter"
      ],
      "costumes": [
        "Sky_Raiders_04"
      ]
    },
    {
      "level": 36,
      "experience": 0,
      "display_names": [
        "Porter"
      ],
      "costumes": [
        "Sky_Raiders_04"
      ]
    },
    {
      "level": 37,
      "experience": 0,
      "display_names": [
        "Porter"
      ],
      "costumes": [
        "Sky_Raiders_04"
      ]
    },
    {
      "level": 38,
      "experience": 0,
      "display_names": [
        "Porter"
      ],
      "costumes": [
        "Sky_Raiders_04"
      ]
    },
    {
      "level": 39,
      "experience": 0,
      "display_names": [
        "Porter"
      ],
      "costumes": [
        "Sky_Raiders_04"
      ]
    },
    {
      "level": 40,
      "experience": 0,
      "display_names": [
        "Porter"
      ],
      "costumes": [
        "Sky_Raiders_04"
      ]
    },
    {
      "level": 41,
      "experience": 0,
      "display_names": [
        "Porter"
      ],
      "costumes": [
        "Sky_Raiders_04"
      ]
    },
    {
      "level": 42,
      "experience": 0,
      "display_names": [
        "Porter"
      ],
      "costumes": [
        "Sky_Raiders_04"
      ]
    },
    {
      "level": 43,
      "experience": 0,
      "display_names": [
        "Porter"
      ],
      "costumes": [
        "Sky_Raiders_04"
      ]
    },
    {
      "level": 44,
      "experience": 0,
      "display_names": [
        "Porter"
      ],
      "costumes": [
        "Sky_Raiders_04"
      ]
    },
    {
      "level": 45,
      "experience": 0,
      "display_names": [
        "Porter"
      ],
      "costumes": [
        "Sky_Raiders_04"
      ]
    },
    {
      "level": 46,
      "experience": 0,
      "display_names": [
        "Porter"
      ],
      "costumes": [
        "Sky_Raiders_04"
      ]
    },
    {
      "level": 47,
      "experience": 0,
      "display_names": [
        "Porter"
      ],
      "costumes": [
        "Sky_Raiders_04"
      ]
    },
    {
      "level": 48,
      "experience": 0,
      "display_names": [
        "Porter"
      ],
      "costumes": [
        "Sky_Raiders_04"
      ]
    },
    {
      "level": 49,
      "experience": 0,
      "display_names": [
        "Porter"
      ],
      "costumes": [
        "Sky_Raiders_04"
      ]
    },
    {
      "level": 50,
      "experience": 0,
      "display_names": [
        "Porter"
      ],
      "costumes": [
        "Sky_Raiders_04"
      ]
    },
    {
      "level": 51,
      "experience": 0,
      "display_names": [
        "Porter"
      ],
      "costumes": [
        "Sky_Raiders_04"
      ]
    },
    {
      "level": 52,
      "experience": 0,
      "display_names": [
        "Porter"
      ],
      "costumes": [
        "Sky_Raiders_04"
      ]
    },
    {
      "level": 53,
      "experience": 0,
      "display_names": [
        "Porter"
      ],
      "costumes": [
        "Sky_Raiders_04"
      ]
    },
    {
      "level": 54,
      "experience": 0,
      "display_names": [
        "Porter"
      ],
      "costumes": [
        "Sky_Raiders_04"
      ]
    }
  ]
}