{
  "name": "SlagGolems_Minion_Slag_Heap",
  "gender": "GENDER_MALE",
  "description": "What strange forces gave life to these heaps of cast-off metal? There are those who say they are guardians of this island, born to stop the Cage Consortium's rampant destruction. Beware their incredible strength and near-indestructible hides.",
  "group_description": null,
  "display_class_name": null,
  "character_class_name": "minion_grunt",
  "ai_config": "Default_Melee",
  "commandable_pet": false,
  "power_tags": [

  ],
  "additional_rewards": [

  ],
  "skill_hp_rewards": [

  ],
  "skill_status_rewards": [

  ],
  "ally": null,
  "gang": null,
  "reward_scale": 1.0,
  "game_exclusion": "None",
  "inactive_state_weapon": null,
  "ignores_combat_mods": false,
  "copy_creator_mods": false,
  "spawn_limit": -1,
  "spawn_limit_mission": -1,
  "ignore_av_to_eb_scaling": false,
  "can_zone": false,
  "custom_badge_stat": null,
  "badge_stat_flags": "DefaultBadgeStat",
  "rank": "VR_MINION",
  "power_full_names": [
    "V_SlagGolems.Resistances.Resistance",
    "V_SlagGolems.Minion_Slag_Heap.Slash",
    "V_SlagGolems.Minion_Slag_Heap.Throw_Debris"
  ],
  "power_display_names": [
    "Resistance",
    "Slash",
    "Throw Debris"
  ],
  "power_levels": [
    0,
    0,
    0
  ],
  "powers": [
    {
      "power_category": "V_SlagGolems",
      "power_set": "Resistances",
      "power": "*",
      "level": 0
    },
    {
      "power_category": "V_SlagGolems",
      "power_set": "Minion_Slag_Heap",
      "power": "*",
      "level": 0
    }
  ],
  "levels": [
    {
      "level": 20,
      "experience": 0,
      "display_names": [
        "Slag Heap"
      ],
      "costumes": [
        "Slag_Golem_Minion_01",
        "Slag_Golem_Minion_02",
        "Slag_Golem_Minion_03"
      ]
    },
    {
      "level": 21,
      "experience": 0,
      "display_names": [
        "Slag Heap"
      ],
      "costumes": [
        "Slag_Golem_Minion_01",
        "Slag_Golem_Minion_02",
        "Slag_Golem_Minion_03"
      ]
    },
    {
      "level": 22,
      "experience": 0,
      "display_names": [
        "Slag Heap"
      ],
      "costumes": [
        "Slag_Golem_Minion_01",
        "Slag_Golem_Minion_02",
        "Slag_Golem_Minion_03"
      ]
    },
    {
      "level": 23,
      "experience": 0,
      "display_names": [
        "Slag Heap"
      ],
      "costumes": [
        "Slag_Golem_Minion_01",
        "Slag_Golem_Minion_02",
        "Slag_Golem_Minion_03"
      ]
    },
    {
      "level": 24,
      "experience": 0,
      "display_names": [
        "Slag Heap"
      ],
      "costumes": [
        "Slag_Golem_Minion_01",
        "Slag_Golem_Minion_02",
        "Slag_Golem_Minion_03"
      ]
    },
    {
      "level": 25,
      "experience": 0,
      "display_names": [
        "Slag Heap"
      ],
      "costumes": [
        "Slag_Golem_Minion_01",
        "Slag_Golem_Minion_02",
        "Slag_Golem_Minion_03"
      ]
    },
    {
      "level": 26,
      "experience": 0,
      "display_names": [
        "Slag Heap"
      ],
      "costumes": [
        "Slag_Golem_Minion_01",
        "Slag_Golem_Minion_02",
        "Slag_Golem_Minion_03"
      ]
    },
    {
      "level": 27,
      "experience": 0,
      "display_names": [
        "Slag Heap"
      ],
      "costumes": [
        "Slag_Golem_Minion_01",
        "Slag_Golem_Minion_02",
        "Slag_Golem_Minion_03"
      ]
    },
    {
      "level": 28,
      "experience": 0,
      "display_names": [
        "Slag Heap"
      ],
      "costumes": [
        "Slag_Golem_Minion_01",
        "Slag_Golem_Minion_02",
        "Slag_Golem_Minion_03"
      ]
    },
    {
      "level": 29,
      "experience": 0,
      "display_names": [
        "Slag Heap"
      ],
      "costumes": [
        "Slag_Golem_Minion_01",
        "Slag_Golem_Minion_02",
        "Slag_Golem_Minion_03"
      ]
    },
    {
      "level": 30,
      "experience": 0,
      "display_names": [
        "Slag Heap"
      ],
      "costumes": [
        "Slag_Golem_Minion_01",
        "Slag_Golem_Minion_02",
        "Slag_Golem_Minion_03"
      ]
    }
  ]
}