{
  "name": "Snakes_Cobra_Low",
  "gender": "GENDER_MALE",
  "description": "Rumor has it that that Snakes are what's left of the long-vanished Children of Enos, the Mu cult that originally discovered the Rogue Isles. Or perhaps they were here before the Children fled the French authorities, and gobbled up the unfortunate refugees who tried to hide here on Mercy Island.",
  "group_description": null,
  "display_class_name": null,
  "character_class_name": "boss_grunt",
  "ai_config": "Default_Melee",
  "commandable_pet": false,
  "power_tags": [

  ],
  "additional_rewards": [

  ],
  "skill_hp_rewards": [

  ],
  "skill_status_rewards": [

  ],
  "ally": null,
  "gang": null,
  "reward_scale": 1.0,
  "game_exclusion": "None",
  "inactive_state_weapon": null,
  "ignores_combat_mods": false,
  "copy_creator_mods": false,
  "spawn_limit": -1,
  "spawn_limit_mission": -1,
  "ignore_av_to_eb_scaling": false,
  "can_zone": false,
  "custom_badge_stat": null,
  "badge_stat_flags": "DefaultBadgeStat",
  "rank": "VR_BOSS",
  "power_full_names": [
    "V_Snakes.Resistance.Resistance",
    "V_Snakes.Snakes_Lt_Sword.Hack",
    "V_Snakes.Boss_Low.Slice",
    "V_Snakes.Boss_Low.Venomous_Spray",
    "V_Snakes.Boss_Low.Brawl",
    "V_Snakes.Snakes_Speed.Quick",
    "V_Snakes.Snakes_Lt_Heal.Regenerate"
  ],
  "power_display_names": [
    "Resistance",
    "Hack",
    "Slice",
    "Venomous Spray",
    "Poison Bite",
    "Quick",
    "Regenerate"
  ],
  "power_levels": [
    0,
    0,
    0,
    0,
    0,
    0,
    0
  ],
  "powers": [
    {
      "power_category": "V_Snakes",
      "power_set": "Resistance",
      "power": "*",
      "level": 0
    },
    {
      "power_category": "V_Snakes",
      "power_set": "Snakes_Lt_Sword",
      "power": "*",
      "level": 0
    },
    {
      "power_category": "V_Snakes",
      "power_set": "Boss_Low",
      "power": "*",
      "level": 0
    },
    {
      "power_category": "V_Snakes",
      "power_set": "Snakes_Speed",
      "power": "*",
      "level": 0
    },
    {
      "power_category": "V_Snakes",
      "power_set": "Snakes_Lt_Heal",
      "power": "*",
      "level": 0
    }
  ],
  "levels": [
    {
      "level": 1,
      "experience": 0,
      "display_names": [
        "Cobra"
      ],
      "costumes": [
        "Snakeman_Boss_01"
      ]
    },
    {
      "level": 2,
      "experience": 0,
      "display_names": [
        "Cobra"
      ],
      "costumes": [
        "Snakeman_Boss_01"
      ]
    },
    {
      "level": 3,
      "experience": 0,
      "display_names": [
        "Cobra"
      ],
      "costumes": [
        "Snakeman_Boss_01"
      ]
    },
    {
      "level": 4,
      "experience": 0,
      "display_names": [
        "Cobra"
      ],
      "costumes": [
        "Snakeman_Boss_01"
      ]
    },
    {
      "level": 5,
      "experience": 0,
      "display_names": [
        "Cobra"
      ],
      "costumes": [
        "Snakeman_Boss_01"
      ]
    },
    {
      "level": 6,
      "experience": 0,
      "display_names": [
        "Cobra"
      ],
      "costumes": [
        "Snakeman_Boss_01"
      ]
    },
    {
      "level": 7,
      "experience": 0,
      "display_names": [
        "Cobra"
      ],
      "costumes": [
        "Snakeman_Boss_01"
      ]
    },
    {
      "level": 8,
      "experience": 0,
      "display_names": [
        "Cobra"
      ],
      "costumes": [
        "Snakeman_Boss_01"
      ]
    },
    {
      "level": 9,
      "experience": 0,
      "display_names": [
        "Cobra"
      ],
      "costumes": [
        "Snakeman_Boss_01"
      ]
    },
    {
      "level": 10,
      "experience": 0,
      "display_names": [
        "Cobra"
      ],
      "costumes": [
        "Snakeman_Boss_01"
      ]
    }
  ]
}