{
  "name": "SpetsnazCommandos_Boss",
  "gender": "GENDER_MALE",
  "description": "The Spetsnaz are Russian special forces soldiers. They are experts in close-combat and conventional weapons, and have a reputation for ruthlessness.",
  "group_description": null,
  "display_class_name": null,
  "character_class_name": "boss_grunt",
  "ai_config": "Default_Ranged",
  "commandable_pet": false,
  "power_tags": [
    "HumanSkeleton",
    "Human"
  ],
  "additional_rewards": [

  ],
  "skill_hp_rewards": [

  ],
  "skill_status_rewards": [

  ],
  "ally": null,
  "gang": null,
  "reward_scale": 1.0,
  "game_exclusion": "None",
  "inactive_state_weapon": null,
  "ignores_combat_mods": false,
  "copy_creator_mods": false,
  "spawn_limit": -1,
  "spawn_limit_mission": -1,
  "ignore_av_to_eb_scaling": false,
  "can_zone": false,
  "custom_badge_stat": null,
  "badge_stat_flags": "DefaultBadgeStat",
  "rank": "VR_BOSS",
  "power_full_names": [
    "V_SpetsnazCommandos.Boss.Chain_gun",
    "V_SpetsnazCommandos.Boss.Chain_gun_Short_Burst",
    "V_SpetsnazCommandos.Boss.Frag_Grenade",
    "V_SpetsnazCommandos.Boss.Rifle_Butt",
    "V_SpetsnazCommandos.Boss.Brawl",
    "V_SpetsnazCommandos.Boss.Gamblers_Cut",
    "V_SpetsnazCommandos.Boss.Auto_Turret"
  ],
  "power_display_names": [
    "Chain gun",
    "Chain gun Short Burst",
    "Frag Grenade",
    "Rifle Butt",
    "Brawl",
    "Gambler's Cut",
    "Auto Turret"
  ],
  "power_levels": [
    0,
    0,
    0,
    0,
    0,
    0,
    0
  ],
  "powers": [
    {
      "power_category": "V_SpetsnazCommandos",
      "power_set": "Boss",
      "power": "*",
      "level": 0
    }
  ],
  "levels": [
    {
      "level": 10,
      "experience": 0,
      "display_names": [
        "Serzhant"
      ],
      "costumes": [
        "Model_Spetsnaz_Serzhant_01",
        "Model_Spetsnaz_Serzhant_02"
      ]
    },
    {
      "level": 11,
      "experience": 0,
      "display_names": [
        "Serzhant"
      ],
      "costumes": [
        "Model_Spetsnaz_Serzhant_01",
        "Model_Spetsnaz_Serzhant_02"
      ]
    },
    {
      "level": 12,
      "experience": 0,
      "display_names": [
        "Serzhant"
      ],
      "costumes": [
        "Model_Spetsnaz_Serzhant_01",
        "Model_Spetsnaz_Serzhant_02"
      ]
    },
    {
      "level": 13,
      "experience": 0,
      "display_names": [
        "Serzhant"
      ],
      "costumes": [
        "Model_Spetsnaz_Serzhant_01",
        "Model_Spetsnaz_Serzhant_02"
      ]
    },
    {
      "level": 14,
      "experience": 0,
      "display_names": [
        "Serzhant"
      ],
      "costumes": [
        "Model_Spetsnaz_Serzhant_01",
        "Model_Spetsnaz_Serzhant_02"
      ]
    },
    {
      "level": 15,
      "experience": 0,
      "display_names": [
        "Serzhant"
      ],
      "costumes": [
        "Model_Spetsnaz_Serzhant_01",
        "Model_Spetsnaz_Serzhant_02"
      ]
    },
    {
      "level": 16,
      "experience": 0,
      "display_names": [
        "Serzhant"
      ],
      "costumes": [
        "Model_Spetsnaz_Serzhant_01",
        "Model_Spetsnaz_Serzhant_02"
      ]
    }
  ]
}