{
  "name": "SummerEvent_Coliseum_Butch",
  "gender": "GENDER_NEUTER",
  "description": "One of Frank McCain's dogs, Butch is a savage yet loyal companion to his gun-toting master.",
  "group_description": "McCain's Maulers",
  "display_class_name": null,
  "character_class_name": "boss_henchman",
  "ai_config": "Pets_BeastMastery",
  "commandable_pet": false,
  "power_tags": [
    "Beast",
    "Raid"
  ],
  "additional_rewards": [

  ],
  "skill_hp_rewards": [

  ],
  "skill_status_rewards": [

  ],
  "ally": null,
  "gang": null,
  "reward_scale": 1.0,
  "game_exclusion": "None",
  "inactive_state_weapon": null,
  "ignores_combat_mods": true,
  "copy_creator_mods": false,
  "spawn_limit": 0,
  "spawn_limit_mission": 0,
  "ignore_av_to_eb_scaling": false,
  "can_zone": false,
  "custom_badge_stat": null,
  "badge_stat_flags": "DefaultBadgeStat",
  "rank": "VR_PET",
  "power_full_names": [
    "SummerEvent.GunslingerDogsButch.Vicious_Bite",
    "SummerEvent.GunslingerDogsButch.Maiming_Bite",
    "SummerEvent.GunslingerDogsButch.Throat_Bite",
    "SummerEvent.GunslingerDogsButch.Growl",
    "SummerEvent.GunslingerDogsButch.Grant_Deadly_Howl",
    "SummerEvent.GunslingerDogsUtility.Super_Leap",
    "SummerEvent.GunslingerDogsUtility.Wild_Charge",
    "SummerEvent.GunslingerDogsPostDeath.Butch"
  ],
  "power_display_names": [
    "Vicious Bite",
    "Maiming Bite",
    "Feral Charge",
    "Growl",
    "Grant Deadly Howl",
    "Super Leap",
    "Wild Charge",
    "Butch"
  ],
  "power_levels": [
    0,
    0,
    0,
    0,
    0,
    0,
    0,
    0
  ],
  "powers": [
    {
      "power_category": "SummerEvent",
      "power_set": "GunslingerDogsButch",
      "power": "*",
      "level": 0
    },
    {
      "power_category": "SummerEvent",
      "power_set": "GunslingerDogsUtility",
      "power": "*",
      "level": 0
    },
    {
      "power_category": "SummerEvent",
      "power_set": "GunslingerDogsPostDeath",
      "power": "Butch",
      "level": 0
    }
  ],
  "levels": [
    {
      "level": 29,
      "experience": 0,
      "display_names": [
        "Butch"
      ],
      "costumes": [
        "SummerEvent_Butch"
      ]
    }
  ]
}