{
  "name": "SummerEvent_Coliseum_Gotterdammerung_Finale",
  "gender": "GENDER_MALE",
  "description": "In the year 2352, a mad scientist designed a powerful doomsday weapon known as the World-Breaker Engine and crafted four robot guardians to harness and channel the destructive energies it created. Gotterdammerung was one such guardian. Fueled by the World-Breaker Engine, Gotterdammerung's powers were near limitless, along with his brethren Apocalypse, Armageddon and Gehenna. So great was their might that they could not be destroyed but were instead cast through time and scattered across the ages. Three of the four have reunited and they bide their time in the Coliseum, waiting to be reunited with their lost brother and the Engine that will fuel the end of the world.",
  "group_description": "Time Gladiator",
  "display_class_name": null,
  "character_class_name": "boss_elite",
  "ai_config": "Default_Melee",
  "commandable_pet": false,
  "power_tags": [
    "HumanSkeleton",
    "Electronic",
    "Raid"
  ],
  "additional_rewards": [

  ],
  "skill_hp_rewards": [

  ],
  "skill_status_rewards": [

  ],
  "ally": null,
  "gang": null,
  "reward_scale": 1.0,
  "game_exclusion": "None",
  "inactive_state_weapon": null,
  "ignores_combat_mods": true,
  "copy_creator_mods": false,
  "spawn_limit": 0,
  "spawn_limit_mission": 0,
  "ignore_av_to_eb_scaling": false,
  "can_zone": false,
  "custom_badge_stat": null,
  "badge_stat_flags": "DefaultBadgeStat",
  "rank": "VR_ELITE",
  "power_full_names": [
    "SummerEvent.CyberwarriorsBoss.Fusion_Smash",
    "SummerEvent.CyberwarriorsBoss.Fusion_Crush",
    "SummerEvent.CyberwarriorsBoss.Fusion_Shatter",
    "SummerEvent.CyberwarriorsBoss.Fusion_Bolt",
    "SummerEvent.CyberwarriorsBoss.Fusion_Blast",
    "SummerEvent.CyberwarriorsBoss.Fusion_Nova",
    "SummerEvent.CyberwarriorsBoss.Fusion_Torrent",
    "SummerEvent.CyberwarriorsBossSpecial.Earthshaker_Finale",
    "GenericVillains.AV_Resistance.AV_Resistance",
    "GenericVillains.Translucent_Aura.Aura"
  ],
  "power_display_names": [
    "Fusion Smash",
    "Fusion Crush",
    "Fusion Shatter",
    "Fusion Bolt",
    "Fusion Blast",
    "Fusion Nova",
    "Fusion Torrent",
    "Earthshaker",
    "Archvillain's Might",
    "Aura"
  ],
  "power_levels": [
    0,
    0,
    0,
    0,
    0,
    0,
    0,
    0,
    0,
    0
  ],
  "powers": [
    {
      "power_category": "SummerEvent",
      "power_set": "CyberwarriorsBoss",
      "power": "*",
      "level": 0
    },
    {
      "power_category": "SummerEvent",
      "power_set": "CyberwarriorsBossSpecial",
      "power": "Earthshaker_Finale",
      "level": 0
    },
    {
      "power_category": "GenericVillains",
      "power_set": "AV_Resistance",
      "power": "*",
      "level": 0
    },
    {
      "power_category": "GenericVillains",
      "power_set": "Translucent_Aura",
      "power": "*",
      "level": 0
    }
  ],
  "levels": [
    {
      "level": 29,
      "experience": 0,
      "display_names": [
        "Gotterdammerung"
      ],
      "costumes": [
        "SummerEvent_Gotterdammerung"
      ]
    }
  ]
}