{
  "name": "SummerEvent_Coliseum_Armageddon",
  "gender": "GENDER_MALE",
  "description": "In the year 2352, a mad scientist designed a powerful doomsday weapon known as the World-Breaker Engine and crafted four robot guardians to harness and channel the destructive energies it created. Armageddon was one such guardian. Fueled by the World-Breaker Engine, Armageddon's powers were near limitless, along with his brethren Apocalypse, Gotterdammerung and Gehenna. So great was their might that they could not be destroyed but were instead cast through time and scattered across the ages. Three of the four have reunited and they bide their time in the Coliseum, waiting to be reunited with their lost brother and the Engine that will fuel the end of the world.",
  "group_description": "Time Gladiator",
  "display_class_name": null,
  "character_class_name": "boss_elite",
  "ai_config": "Default_Ranged",
  "commandable_pet": false,
  "power_tags": [
    "HumanSkeleton",
    "Electronic",
    "Raid"
  ],
  "additional_rewards": [

  ],
  "skill_hp_rewards": [

  ],
  "skill_status_rewards": [

  ],
  "ally": null,
  "gang": null,
  "reward_scale": 1.0,
  "game_exclusion": "None",
  "inactive_state_weapon": null,
  "ignores_combat_mods": true,
  "copy_creator_mods": false,
  "spawn_limit": 0,
  "spawn_limit_mission": 0,
  "ignore_av_to_eb_scaling": false,
  "can_zone": false,
  "custom_badge_stat": null,
  "badge_stat_flags": "DefaultBadgeStat",
  "rank": "VR_ELITE",
  "power_full_names": [
    "SummerEvent.Cyberwarriors.Power_Bolt",
    "SummerEvent.Cyberwarriors.Power_Blast",
    "SummerEvent.Cyberwarriors.Energy_Torrent",
    "SummerEvent.Cyberwarriors.Power_Burst",
    "SummerEvent.Cyberwarriors.Aim",
    "SummerEvent.Cyberwarriors.Explosive_Blast",
    "SummerEvent.Cyberwarriors.Nova",
    "SummerEvent.Cyberwarriors.Grant_Deadly_Burst",
    "SummerEvent.CyberwarriorsPostDeath.Armageddon",
    "GenericVillains.AV_Resistance.AV_Resistance"
  ],
  "power_display_names": [
    "Power Bolt",
    "Power Blast",
    "Energy Torrent",
    "Power Burst",
    "Aim",
    "Explosive Blast",
    "Nova",
    "Grant Deadly Burst",
    "Armageddon",
    "Archvillain's Might"
  ],
  "power_levels": [
    0,
    0,
    0,
    0,
    0,
    0,
    0,
    0,
    0,
    0
  ],
  "powers": [
    {
      "power_category": "SummerEvent",
      "power_set": "Cyberwarriors",
      "power": "*",
      "level": 0
    },
    {
      "power_category": "SummerEvent",
      "power_set": "CyberwarriorsPostDeath",
      "power": "Armageddon",
      "level": 0
    },
    {
      "power_category": "GenericVillains",
      "power_set": "AV_Resistance",
      "power": "*",
      "level": 0
    }
  ],
  "levels": [
    {
      "level": 29,
      "experience": 0,
      "display_names": [
        "Armageddon"
      ],
      "costumes": [
        "SummerEvent_Armageddon"
      ]
    }
  ]
}