{
  "name": "Syndicate_Sword_Initiate_Female",
  "gender": "GENDER_FEMALE",
  "description": "The Syndicate has survived by recruiting only those with at least some psychic potential. The initiates are the bottom rung of Syndicate ladder, they have yet to prove themselves and ascend to the ranks of Adept.",
  "group_description": null,
  "display_class_name": null,
  "character_class_name": "minion_grunt",
  "ai_config": "Default_Melee",
  "commandable_pet": false,
  "power_tags": [
    "Human",
    "HumanSkeleton"
  ],
  "additional_rewards": [

  ],
  "skill_hp_rewards": [

  ],
  "skill_status_rewards": [

  ],
  "ally": null,
  "gang": null,
  "reward_scale": 1.0,
  "game_exclusion": "None",
  "inactive_state_weapon": null,
  "ignores_combat_mods": false,
  "copy_creator_mods": false,
  "spawn_limit": -1,
  "spawn_limit_mission": -1,
  "ignore_av_to_eb_scaling": false,
  "can_zone": false,
  "custom_badge_stat": null,
  "badge_stat_flags": "DefaultBadgeStat",
  "rank": "VR_MINION",
  "power_full_names": [
    "Syndicate.Minion_Resistance.Resistance_Low",
    "Syndicate.Minion_Resistance.Resistance",
    "Syndicate.Minion_Burst.Burst_Low",
    "Syndicate.Minion_Burst.Burst",
    "Syndicate.Minion_Sword.Gamblers_Cut",
    "Syndicate.Minion_Sword.Sting_of_the_Wasp"
  ],
  "power_display_names": [
    "Resistance",
    "Resistance",
    "Burst",
    "Burst",
    "Gambler's Cut",
    "Sting of the Wasp"
  ],
  "power_levels": [
    0,
    0,
    0,
    0,
    0,
    0
  ],
  "powers": [
    {
      "power_category": "Syndicate",
      "power_set": "Minion_Resistance",
      "power": "*",
      "level": 0
    },
    {
      "power_category": "Syndicate",
      "power_set": "Minion_Burst",
      "power": "*",
      "level": 0
    },
    {
      "power_category": "Syndicate",
      "power_set": "Minion_Sword",
      "power": "*",
      "level": 0
    }
  ],
  "levels": [
    {
      "level": 1,
      "experience": 0,
      "display_names": [
        "Sword Initiate"
      ],
      "costumes": [
        "Syndicate_Initiates_Female_01",
        "Syndicate_Initiates_Female_02",
        "Syndicate_Initiates_Female_03",
        "Syndicate_Initiates_Female_04"
      ]
    },
    {
      "level": 2,
      "experience": 0,
      "display_names": [
        "Sword Initiate"
      ],
      "costumes": [
        "Syndicate_Initiates_Female_01",
        "Syndicate_Initiates_Female_02",
        "Syndicate_Initiates_Female_03",
        "Syndicate_Initiates_Female_04"
      ]
    },
    {
      "level": 3,
      "experience": 0,
      "display_names": [
        "Sword Initiate"
      ],
      "costumes": [
        "Syndicate_Initiates_Female_01",
        "Syndicate_Initiates_Female_02",
        "Syndicate_Initiates_Female_03",
        "Syndicate_Initiates_Female_04"
      ]
    },
    {
      "level": 4,
      "experience": 0,
      "display_names": [
        "Sword Initiate"
      ],
      "costumes": [
        "Syndicate_Initiates_Female_01",
        "Syndicate_Initiates_Female_02",
        "Syndicate_Initiates_Female_03",
        "Syndicate_Initiates_Female_04"
      ]
    },
    {
      "level": 5,
      "experience": 0,
      "display_names": [
        "Sword Initiate"
      ],
      "costumes": [
        "Syndicate_Initiates_Female_01",
        "Syndicate_Initiates_Female_02",
        "Syndicate_Initiates_Female_03",
        "Syndicate_Initiates_Female_04"
      ]
    },
    {
      "level": 6,
      "experience": 0,
      "display_names": [
        "Sword Initiate"
      ],
      "costumes": [
        "Syndicate_Initiates_Female_01",
        "Syndicate_Initiates_Female_02",
        "Syndicate_Initiates_Female_03",
        "Syndicate_Initiates_Female_04"
      ]
    },
    {
      "level": 7,
      "experience": 0,
      "display_names": [
        "Sword Initiate"
      ],
      "costumes": [
        "Syndicate_Initiates_Female_01",
        "Syndicate_Initiates_Female_02",
        "Syndicate_Initiates_Female_03",
        "Syndicate_Initiates_Female_04"
      ]
    },
    {
      "level": 8,
      "experience": 0,
      "display_names": [
        "Sword Initiate"
      ],
      "costumes": [
        "Syndicate_Initiates_Female_01",
        "Syndicate_Initiates_Female_02",
        "Syndicate_Initiates_Female_03",
        "Syndicate_Initiates_Female_04"
      ]
    },
    {
      "level": 9,
      "experience": 0,
      "display_names": [
        "Sword Initiate"
      ],
      "costumes": [
        "Syndicate_Initiates_Female_01",
        "Syndicate_Initiates_Female_02",
        "Syndicate_Initiates_Female_03",
        "Syndicate_Initiates_Female_04"
      ]
    },
    {
      "level": 10,
      "experience": 0,
      "display_names": [
        "Sword Initiate"
      ],
      "costumes": [
        "Syndicate_Initiates_Female_01",
        "Syndicate_Initiates_Female_02",
        "Syndicate_Initiates_Female_03",
        "Syndicate_Initiates_Female_04"
      ]
    }
  ]
}