{
  "name": "TalonsOfVengeance_Prophetess_Shadow",
  "gender": "GENDER_FEMALE",
  "description": "The Prophetesses were once women who held a latent connection to the mystical elements. Rather than be twisted into a half-serpent monstrosity like their lesser kin, for whom elemental affinity was not natural, the Prophetesses retain much of their human form, with only their skin and feet showing the changes they have undergone as members of the Talons of Vengeance. They have a much greater control over the elements to which they are attuned and are capable of quickly overwhelming the unprepared with a flood of mystical energy in the form of fire, ice, shadow, lightning or earth.",
  "group_description": null,
  "display_class_name": null,
  "character_class_name": "lt_grunt",
  "ai_config": "Default_Ranged",
  "commandable_pet": false,
  "power_tags": [
    "HumanSkeleton",
    "Human"
  ],
  "additional_rewards": [

  ],
  "skill_hp_rewards": [

  ],
  "skill_status_rewards": [

  ],
  "ally": null,
  "gang": null,
  "reward_scale": 1.0,
  "game_exclusion": "None",
  "inactive_state_weapon": null,
  "ignores_combat_mods": false,
  "copy_creator_mods": false,
  "spawn_limit": -1,
  "spawn_limit_mission": -1,
  "ignore_av_to_eb_scaling": false,
  "can_zone": false,
  "custom_badge_stat": "kills.TalonsOfVengeance_Spiritualist_Shadow",
  "badge_stat_flags": "DefaultBadgeStat",
  "rank": "VR_LIEUTENANT",
  "power_full_names": [
    "TalonsOfVengeance.Oracle_General.Thunderclap",
    "TalonsOfVengeance.Oracle_Shadow.Shadow_Blast",
    "TalonsOfVengeance.Oracle_Shadow.Shadow_Gloom",
    "TalonsOfVengeance.Oracle_Shadow.Shadowfall",
    "TalonsOfVengeance.Oracle_Shadow.Shadow_Drain",
    "TalonsOfVengeance.Oracle_Shadow.Resistance",
    "TalonsOfVengeance.Talon_Blade.Talon_Blade",
    "TalonsOfVengeance.Resistances.Damage_LT"
  ],
  "power_display_names": [
    "Thunderclap",
    "Shadow Blast",
    "Shadow Gloom",
    "Shadowfall",
    "Shadow Drain",
    "Affinity",
    "Talon Blade",
    "Damage Resistance"
  ],
  "power_levels": [
    0,
    0,
    0,
    0,
    0,
    0,
    0,
    0
  ],
  "powers": [
    {
      "power_category": "TalonsOfVengeance",
      "power_set": "Oracle_General",
      "power": "*",
      "level": 0
    },
    {
      "power_category": "TalonsOfVengeance",
      "power_set": "Oracle_Shadow",
      "power": "*",
      "level": 0
    },
    {
      "power_category": "TalonsOfVengeance",
      "power_set": "Talon_Blade",
      "power": "*",
      "level": 0
    },
    {
      "power_category": "TalonsOfVengeance",
      "power_set": "Resistances",
      "power": "Damage_LT",
      "level": 0
    }
  ],
  "levels": [
    {
      "level": 45,
      "experience": 0,
      "display_names": [
        "Prophetess"
      ],
      "costumes": [
        "Talons_Oracle_Shadow_01",
        "Talons_Oracle_Shadow_02",
        "Talons_Oracle_Shadow_03"
      ]
    },
    {
      "level": 46,
      "experience": 0,
      "display_names": [
        "Prophetess"
      ],
      "costumes": [
        "Talons_Oracle_Shadow_01",
        "Talons_Oracle_Shadow_02",
        "Talons_Oracle_Shadow_03"
      ]
    },
    {
      "level": 47,
      "experience": 0,
      "display_names": [
        "Prophetess"
      ],
      "costumes": [
        "Talons_Oracle_Shadow_01",
        "Talons_Oracle_Shadow_02",
        "Talons_Oracle_Shadow_03"
      ]
    },
    {
      "level": 48,
      "experience": 0,
      "display_names": [
        "Prophetess"
      ],
      "costumes": [
        "Talons_Oracle_Shadow_01",
        "Talons_Oracle_Shadow_02",
        "Talons_Oracle_Shadow_03"
      ]
    },
    {
      "level": 49,
      "experience": 0,
      "display_names": [
        "Prophetess"
      ],
      "costumes": [
        "Talons_Oracle_Shadow_01",
        "Talons_Oracle_Shadow_02",
        "Talons_Oracle_Shadow_03"
      ]
    },
    {
      "level": 50,
      "experience": 0,
      "display_names": [
        "Prophetess"
      ],
      "costumes": [
        "Talons_Oracle_Shadow_01",
        "Talons_Oracle_Shadow_02",
        "Talons_Oracle_Shadow_03"
      ]
    },
    {
      "level": 51,
      "experience": 0,
      "display_names": [
        "Prophetess"
      ],
      "costumes": [
        "Talons_Oracle_Shadow_01",
        "Talons_Oracle_Shadow_02",
        "Talons_Oracle_Shadow_03"
      ]
    },
    {
      "level": 52,
      "experience": 0,
      "display_names": [
        "Prophetess"
      ],
      "costumes": [
        "Talons_Oracle_Shadow_01",
        "Talons_Oracle_Shadow_02",
        "Talons_Oracle_Shadow_03"
      ]
    },
    {
      "level": 53,
      "experience": 0,
      "display_names": [
        "Prophetess"
      ],
      "costumes": [
        "Talons_Oracle_Shadow_01",
        "Talons_Oracle_Shadow_02",
        "Talons_Oracle_Shadow_03"
      ]
    },
    {
      "level": 54,
      "experience": 0,
      "display_names": [
        "Prophetess"
      ],
      "costumes": [
        "Talons_Oracle_Shadow_01",
        "Talons_Oracle_Shadow_02",
        "Talons_Oracle_Shadow_03"
      ]
    }
  ]
}