{
  "name": "TalonsOfVengeance_Spiritualist_Ice",
  "gender": "GENDER_FEMALE",
  "description": "Having long ago sworn fealty to the Talons of Vengeance, the Spiritualist has been twisted into a half-human, half-serpent monstrosities. In the process of transformation, however, they gain significant aptitude with the mystical elements, allowing them to call forth a variety of elementally attuned powers. In addition, they become more resistant to the element with which they have an affinity.",
  "group_description": null,
  "display_class_name": null,
  "character_class_name": "lt_grunt",
  "ai_config": "Default_Ranged",
  "commandable_pet": false,
  "power_tags": [
    "HumanSkeleton",
    "Human"
  ],
  "additional_rewards": [

  ],
  "skill_hp_rewards": [

  ],
  "skill_status_rewards": [

  ],
  "ally": null,
  "gang": null,
  "reward_scale": 1.0,
  "game_exclusion": "None",
  "inactive_state_weapon": null,
  "ignores_combat_mods": false,
  "copy_creator_mods": false,
  "spawn_limit": -1,
  "spawn_limit_mission": -1,
  "ignore_av_to_eb_scaling": false,
  "can_zone": false,
  "custom_badge_stat": null,
  "badge_stat_flags": "DefaultBadgeStat",
  "rank": "VR_LIEUTENANT",
  "power_full_names": [
    "TalonsOfVengeance.Spiritualist_General.Thunderclap",
    "TalonsOfVengeance.Spiritualist_Ice.Ice_Bolt",
    "TalonsOfVengeance.Spiritualist_Ice.Ice_Blast",
    "TalonsOfVengeance.Spiritualist_Ice.Resistance",
    "TalonsOfVengeance.Talon_Blade_Snake.Talon_Blade",
    "TalonsOfVengeance.Resistances.Damage_LT"
  ],
  "power_display_names": [
    "Thunderclap",
    "Ice Bolt",
    "Ice Blast",
    "Affinity",
    "Talon Blade",
    "Damage Resistance"
  ],
  "power_levels": [
    0,
    0,
    0,
    0,
    0,
    0
  ],
  "powers": [
    {
      "power_category": "TalonsOfVengeance",
      "power_set": "Spiritualist_General",
      "power": "*",
      "level": 0
    },
    {
      "power_category": "TalonsOfVengeance",
      "power_set": "Spiritualist_Ice",
      "power": "*",
      "level": 0
    },
    {
      "power_category": "TalonsOfVengeance",
      "power_set": "Talon_Blade_Snake",
      "power": "*",
      "level": 0
    },
    {
      "power_category": "TalonsOfVengeance",
      "power_set": "Resistances",
      "power": "Damage_LT",
      "level": 0
    }
  ],
  "levels": [
    {
      "level": 20,
      "experience": 0,
      "display_names": [
        "Spiritualist"
      ],
      "costumes": [
        "Talons_Spiritualist_Ice_01",
        "Talons_Spiritualist_Ice_02",
        "Talons_Spiritualist_Ice_03"
      ]
    },
    {
      "level": 21,
      "experience": 0,
      "display_names": [
        "Spiritualist"
      ],
      "costumes": [
        "Talons_Spiritualist_Ice_01",
        "Talons_Spiritualist_Ice_02",
        "Talons_Spiritualist_Ice_03"
      ]
    },
    {
      "level": 22,
      "experience": 0,
      "display_names": [
        "Spiritualist"
      ],
      "costumes": [
        "Talons_Spiritualist_Ice_01",
        "Talons_Spiritualist_Ice_02",
        "Talons_Spiritualist_Ice_03"
      ]
    },
    {
      "level": 23,
      "experience": 0,
      "display_names": [
        "Spiritualist"
      ],
      "costumes": [
        "Talons_Spiritualist_Ice_01",
        "Talons_Spiritualist_Ice_02",
        "Talons_Spiritualist_Ice_03"
      ]
    },
    {
      "level": 24,
      "experience": 0,
      "display_names": [
        "Spiritualist"
      ],
      "costumes": [
        "Talons_Spiritualist_Ice_01",
        "Talons_Spiritualist_Ice_02",
        "Talons_Spiritualist_Ice_03"
      ]
    },
    {
      "level": 25,
      "experience": 0,
      "display_names": [
        "Spiritualist"
      ],
      "costumes": [
        "Talons_Spiritualist_Ice_01",
        "Talons_Spiritualist_Ice_02",
        "Talons_Spiritualist_Ice_03"
      ]
    },
    {
      "level": 26,
      "experience": 0,
      "display_names": [
        "Spiritualist"
      ],
      "costumes": [
        "Talons_Spiritualist_Ice_01",
        "Talons_Spiritualist_Ice_02",
        "Talons_Spiritualist_Ice_03"
      ]
    },
    {
      "level": 27,
      "experience": 0,
      "display_names": [
        "Spiritualist"
      ],
      "costumes": [
        "Talons_Spiritualist_Ice_01",
        "Talons_Spiritualist_Ice_02",
        "Talons_Spiritualist_Ice_03"
      ]
    },
    {
      "level": 28,
      "experience": 0,
      "display_names": [
        "Spiritualist"
      ],
      "costumes": [
        "Talons_Spiritualist_Ice_01",
        "Talons_Spiritualist_Ice_02",
        "Talons_Spiritualist_Ice_03"
      ]
    },
    {
      "level": 29,
      "experience": 0,
      "display_names": [
        "Spiritualist"
      ],
      "costumes": [
        "Talons_Spiritualist_Ice_01",
        "Talons_Spiritualist_Ice_02",
        "Talons_Spiritualist_Ice_03"
      ]
    },
    {
      "level": 30,
      "experience": 0,
      "display_names": [
        "Spiritualist"
      ],
      "costumes": [
        "Talons_Spiritualist_Ice_01",
        "Talons_Spiritualist_Ice_02",
        "Talons_Spiritualist_Ice_03"
      ]
    },
    {
      "level": 31,
      "experience": 0,
      "display_names": [
        "Spiritualist"
      ],
      "costumes": [
        "Talons_Spiritualist_Ice_01",
        "Talons_Spiritualist_Ice_02",
        "Talons_Spiritualist_Ice_03"
      ]
    },
    {
      "level": 32,
      "experience": 0,
      "display_names": [
        "Spiritualist"
      ],
      "costumes": [
        "Talons_Spiritualist_Ice_01",
        "Talons_Spiritualist_Ice_02",
        "Talons_Spiritualist_Ice_03"
      ]
    },
    {
      "level": 33,
      "experience": 0,
      "display_names": [
        "Spiritualist"
      ],
      "costumes": [
        "Talons_Spiritualist_Ice_01",
        "Talons_Spiritualist_Ice_02",
        "Talons_Spiritualist_Ice_03"
      ]
    },
    {
      "level": 34,
      "experience": 0,
      "display_names": [
        "Spiritualist"
      ],
      "costumes": [
        "Talons_Spiritualist_Ice_01",
        "Talons_Spiritualist_Ice_02",
        "Talons_Spiritualist_Ice_03"
      ]
    },
    {
      "level": 35,
      "experience": 0,
      "display_names": [
        "Spiritualist"
      ],
      "costumes": [
        "Talons_Spiritualist_Ice_01",
        "Talons_Spiritualist_Ice_02",
        "Talons_Spiritualist_Ice_03"
      ]
    },
    {
      "level": 36,
      "experience": 0,
      "display_names": [
        "Spiritualist"
      ],
      "costumes": [
        "Talons_Spiritualist_Ice_01",
        "Talons_Spiritualist_Ice_02",
        "Talons_Spiritualist_Ice_03"
      ]
    },
    {
      "level": 37,
      "experience": 0,
      "display_names": [
        "Spiritualist"
      ],
      "costumes": [
        "Talons_Spiritualist_Ice_01",
        "Talons_Spiritualist_Ice_02",
        "Talons_Spiritualist_Ice_03"
      ]
    },
    {
      "level": 38,
      "experience": 0,
      "display_names": [
        "Spiritualist"
      ],
      "costumes": [
        "Talons_Spiritualist_Ice_01",
        "Talons_Spiritualist_Ice_02",
        "Talons_Spiritualist_Ice_03"
      ]
    },
    {
      "level": 39,
      "experience": 0,
      "display_names": [
        "Spiritualist"
      ],
      "costumes": [
        "Talons_Spiritualist_Ice_01",
        "Talons_Spiritualist_Ice_02",
        "Talons_Spiritualist_Ice_03"
      ]
    },
    {
      "level": 40,
      "experience": 0,
      "display_names": [
        "Spiritualist"
      ],
      "costumes": [
        "Talons_Spiritualist_Ice_01",
        "Talons_Spiritualist_Ice_02",
        "Talons_Spiritualist_Ice_03"
      ]
    },
    {
      "level": 41,
      "experience": 0,
      "display_names": [
        "Spiritualist"
      ],
      "costumes": [
        "Talons_Spiritualist_Ice_01",
        "Talons_Spiritualist_Ice_02",
        "Talons_Spiritualist_Ice_03"
      ]
    },
    {
      "level": 42,
      "experience": 0,
      "display_names": [
        "Spiritualist"
      ],
      "costumes": [
        "Talons_Spiritualist_Ice_01",
        "Talons_Spiritualist_Ice_02",
        "Talons_Spiritualist_Ice_03"
      ]
    },
    {
      "level": 43,
      "experience": 0,
      "display_names": [
        "Spiritualist"
      ],
      "costumes": [
        "Talons_Spiritualist_Ice_01",
        "Talons_Spiritualist_Ice_02",
        "Talons_Spiritualist_Ice_03"
      ]
    },
    {
      "level": 44,
      "experience": 0,
      "display_names": [
        "Spiritualist"
      ],
      "costumes": [
        "Talons_Spiritualist_Ice_01",
        "Talons_Spiritualist_Ice_02",
        "Talons_Spiritualist_Ice_03"
      ]
    }
  ]
}