{
  "name": "TalonsOfVengeance_Gorgon",
  "gender": "GENDER_FEMALE",
  "description": "The Gorgons are among the most monstrous members of the Talons of Vengeance. They are fully transformed hybrids between woman and serpent, with almost no trace of the person they once were emerging from their hideous faces. They are extremely powerful swordswomen, capable of cutting through their enemies with speed and precision. Worse still, they make full use of their terrifying appearance to control their enemies, even to the point of turning them to stone.",
  "group_description": null,
  "display_class_name": null,
  "character_class_name": "boss_elite",
  "ai_config": "Default_Melee",
  "commandable_pet": false,
  "power_tags": [
    "HumanSkeleton",
    "Human"
  ],
  "additional_rewards": [

  ],
  "skill_hp_rewards": [

  ],
  "skill_status_rewards": [

  ],
  "ally": null,
  "gang": null,
  "reward_scale": 1.0,
  "game_exclusion": "None",
  "inactive_state_weapon": null,
  "ignores_combat_mods": false,
  "copy_creator_mods": false,
  "spawn_limit": -1,
  "spawn_limit_mission": -1,
  "ignore_av_to_eb_scaling": false,
  "can_zone": false,
  "custom_badge_stat": null,
  "badge_stat_flags": "DefaultBadgeStat",
  "rank": "VR_ELITE",
  "power_full_names": [
    "TalonsOfVengeance.Gorgon.Slash",
    "TalonsOfVengeance.Gorgon.Hack",
    "TalonsOfVengeance.Gorgon.Throwing_Knives",
    "TalonsOfVengeance.Gorgon.Savage_Slice",
    "TalonsOfVengeance.Gorgon.Savage_Strike",
    "TalonsOfVengeance.Gorgon.Sirens_Song",
    "TalonsOfVengeance.Gorgon.Fearsome_Stare",
    "TalonsOfVengeance.Gorgon.Petrifying_Gaze",
    "TalonsOfVengeance.Resistances.Damage_EB"
  ],
  "power_display_names": [
    "Slash",
    "Hack",
    "Throwing Knives",
    "Savage Slice",
    "Savage Strike",
    "Siren's Song",
    "Fearsome Stare",
    "Petrifying Gaze",
    "Damage Resistance"
  ],
  "power_levels": [
    0,
    0,
    0,
    0,
    0,
    0,
    0,
    0,
    0
  ],
  "powers": [
    {
      "power_category": "TalonsOfVengeance",
      "power_set": "Gorgon",
      "power": "*",
      "level": 0
    },
    {
      "power_category": "TalonsOfVengeance",
      "power_set": "Resistances",
      "power": "Damage_EB",
      "level": 0
    }
  ],
  "levels": [
    {
      "level": 20,
      "experience": 0,
      "display_names": [
        "Gorgon"
      ],
      "costumes": [
        "Talons_Gorgon_01",
        "Talons_Gorgon_02"
      ]
    },
    {
      "level": 21,
      "experience": 0,
      "display_names": [
        "Gorgon"
      ],
      "costumes": [
        "Talons_Gorgon_01",
        "Talons_Gorgon_02"
      ]
    },
    {
      "level": 22,
      "experience": 0,
      "display_names": [
        "Gorgon"
      ],
      "costumes": [
        "Talons_Gorgon_01",
        "Talons_Gorgon_02"
      ]
    },
    {
      "level": 23,
      "experience": 0,
      "display_names": [
        "Gorgon"
      ],
      "costumes": [
        "Talons_Gorgon_01",
        "Talons_Gorgon_02"
      ]
    },
    {
      "level": 24,
      "experience": 0,
      "display_names": [
        "Gorgon"
      ],
      "costumes": [
        "Talons_Gorgon_01",
        "Talons_Gorgon_02"
      ]
    },
    {
      "level": 25,
      "experience": 0,
      "display_names": [
        "Gorgon"
      ],
      "costumes": [
        "Talons_Gorgon_01",
        "Talons_Gorgon_02"
      ]
    },
    {
      "level": 26,
      "experience": 0,
      "display_names": [
        "Gorgon"
      ],
      "costumes": [
        "Talons_Gorgon_01",
        "Talons_Gorgon_02"
      ]
    },
    {
      "level": 27,
      "experience": 0,
      "display_names": [
        "Gorgon"
      ],
      "costumes": [
        "Talons_Gorgon_01",
        "Talons_Gorgon_02"
      ]
    },
    {
      "level": 28,
      "experience": 0,
      "display_names": [
        "Gorgon"
      ],
      "costumes": [
        "Talons_Gorgon_01",
        "Talons_Gorgon_02"
      ]
    },
    {
      "level": 29,
      "experience": 0,
      "display_names": [
        "Gorgon"
      ],
      "costumes": [
        "Talons_Gorgon_01",
        "Talons_Gorgon_02"
      ]
    },
    {
      "level": 30,
      "experience": 0,
      "display_names": [
        "Gorgon"
      ],
      "costumes": [
        "Talons_Gorgon_01",
        "Talons_Gorgon_02"
      ]
    },
    {
      "level": 31,
      "experience": 0,
      "display_names": [
        "Gorgon"
      ],
      "costumes": [
        "Talons_Gorgon_01",
        "Talons_Gorgon_02"
      ]
    },
    {
      "level": 32,
      "experience": 0,
      "display_names": [
        "Gorgon"
      ],
      "costumes": [
        "Talons_Gorgon_01",
        "Talons_Gorgon_02"
      ]
    },
    {
      "level": 33,
      "experience": 0,
      "display_names": [
        "Gorgon"
      ],
      "costumes": [
        "Talons_Gorgon_01",
        "Talons_Gorgon_02"
      ]
    },
    {
      "level": 34,
      "experience": 0,
      "display_names": [
        "Gorgon"
      ],
      "costumes": [
        "Talons_Gorgon_01",
        "Talons_Gorgon_02"
      ]
    },
    {
      "level": 35,
      "experience": 0,
      "display_names": [
        "Gorgon"
      ],
      "costumes": [
        "Talons_Gorgon_01",
        "Talons_Gorgon_02"
      ]
    },
    {
      "level": 36,
      "experience": 0,
      "display_names": [
        "Gorgon"
      ],
      "costumes": [
        "Talons_Gorgon_01",
        "Talons_Gorgon_02"
      ]
    },
    {
      "level": 37,
      "experience": 0,
      "display_names": [
        "Gorgon"
      ],
      "costumes": [
        "Talons_Gorgon_01",
        "Talons_Gorgon_02"
      ]
    },
    {
      "level": 38,
      "experience": 0,
      "display_names": [
        "Gorgon"
      ],
      "costumes": [
        "Talons_Gorgon_01",
        "Talons_Gorgon_02"
      ]
    },
    {
      "level": 39,
      "experience": 0,
      "display_names": [
        "Gorgon"
      ],
      "costumes": [
        "Talons_Gorgon_01",
        "Talons_Gorgon_02"
      ]
    },
    {
      "level": 40,
      "experience": 0,
      "display_names": [
        "Gorgon"
      ],
      "costumes": [
        "Talons_Gorgon_01",
        "Talons_Gorgon_02"
      ]
    },
    {
      "level": 41,
      "experience": 0,
      "display_names": [
        "Gorgon"
      ],
      "costumes": [
        "Talons_Gorgon_01",
        "Talons_Gorgon_02"
      ]
    },
    {
      "level": 42,
      "experience": 0,
      "display_names": [
        "Gorgon"
      ],
      "costumes": [
        "Talons_Gorgon_01",
        "Talons_Gorgon_02"
      ]
    },
    {
      "level": 43,
      "experience": 0,
      "display_names": [
        "Gorgon"
      ],
      "costumes": [
        "Talons_Gorgon_01",
        "Talons_Gorgon_02"
      ]
    },
    {
      "level": 44,
      "experience": 0,
      "display_names": [
        "Gorgon"
      ],
      "costumes": [
        "Talons_Gorgon_01",
        "Talons_Gorgon_02"
      ]
    }
  ]
}