{
  "name": "TheFamily_Portal_Underboss_Boss",
  "gender": "GENDER_MALE",
  "description": "The Prima Capo is the 'Head Capo' and reports directly to the Don. In Paragon City, you don't rise to the top without a little super-powered help, and many Underbosses have heightened abilities or access to specialized gear that helps them stay on top in their cutthroat business. Some Prima Capos have become so strong that they carry around a huge chunk of concrete to show their opponents 'who is the real boss around here'. They're able to swing these huge weapons with ease and use them for intimidation, though usually it's used to bash in someone's head.",
  "group_description": null,
  "display_class_name": null,
  "character_class_name": "boss_grunt",
  "ai_config": "Default_Melee",
  "commandable_pet": false,
  "power_tags": [
    "HumanSkeleton",
    "Human"
  ],
  "additional_rewards": [

  ],
  "skill_hp_rewards": [

  ],
  "skill_status_rewards": [

  ],
  "ally": null,
  "gang": null,
  "reward_scale": 1.0,
  "game_exclusion": "None",
  "inactive_state_weapon": null,
  "ignores_combat_mods": false,
  "copy_creator_mods": false,
  "spawn_limit": -1,
  "spawn_limit_mission": -1,
  "ignore_av_to_eb_scaling": false,
  "can_zone": false,
  "custom_badge_stat": null,
  "badge_stat_flags": "DefaultBadgeStat",
  "rank": "VR_BOSS",
  "power_full_names": [
    "Family.TitanWeapon_BS.Agile_Sweep",
    "Family.TitanWeapon_BS.Crushing_Blow",
    "Family.TitanWeapon_BS.Shockwave_Strike",
    "Family.TitanWeapon_BS.Overpower",
    "Family.TitanWeapon_BS.Shatter_Armor",
    "Family.TitanWeapon_BS.Painless",
    "Family.TitanWeapon_BS.Arc_of_Devastation",
    "Family.TitanWeapon_BS.Business_Time",
    "Family.Resistances.Damage_BS"
  ],
  "power_display_names": [
    "Agile Sweep",
    "Crushing Blow",
    "Shockwave Strike",
    "Overpower",
    "Shatter Armor",
    "Painless",
    "Arc of Devastation",
    "Business Time",
    "Damage Resistance"
  ],
  "power_levels": [
    0,
    0,
    0,
    0,
    0,
    0,
    0,
    0,
    0
  ],
  "powers": [
    {
      "power_category": "Family",
      "power_set": "TitanWeapon_BS",
      "power": "*",
      "level": 0
    },
    {
      "power_category": "Family",
      "power_set": "Resistances",
      "power": "Damage_BS",
      "level": 0
    }
  ],
  "levels": [
    {
      "level": 40,
      "experience": 0,
      "display_names": [
        "Prima Capo"
      ],
      "costumes": [
        "Family_Boss_01_TW",
        "Family_Boss_02_TW"
      ]
    },
    {
      "level": 41,
      "experience": 0,
      "display_names": [
        "Prima Capo"
      ],
      "costumes": [
        "Family_Boss_01_TW",
        "Family_Boss_02_TW"
      ]
    },
    {
      "level": 42,
      "experience": 0,
      "display_names": [
        "Prima Capo"
      ],
      "costumes": [
        "Family_Boss_01_TW",
        "Family_Boss_02_TW"
      ]
    },
    {
      "level": 43,
      "experience": 0,
      "display_names": [
        "Prima Capo"
      ],
      "costumes": [
        "Family_Boss_01_TW",
        "Family_Boss_02_TW"
      ]
    },
    {
      "level": 44,
      "experience": 0,
      "display_names": [
        "Prima Capo"
      ],
      "costumes": [
        "Family_Boss_01_TW",
        "Family_Boss_02_TW"
      ]
    },
    {
      "level": 45,
      "experience": 0,
      "display_names": [
        "Prima Capo"
      ],
      "costumes": [
        "Family_Boss_01_TW",
        "Family_Boss_02_TW"
      ]
    },
    {
      "level": 46,
      "experience": 0,
      "display_names": [
        "Prima Capo"
      ],
      "costumes": [
        "Family_Boss_01_TW",
        "Family_Boss_02_TW"
      ]
    },
    {
      "level": 47,
      "experience": 0,
      "display_names": [
        "Prima Capo"
      ],
      "costumes": [
        "Family_Boss_01_TW",
        "Family_Boss_02_TW"
      ]
    },
    {
      "level": 48,
      "experience": 0,
      "display_names": [
        "Prima Capo"
      ],
      "costumes": [
        "Family_Boss_01_TW",
        "Family_Boss_02_TW"
      ]
    },
    {
      "level": 49,
      "experience": 0,
      "display_names": [
        "Prima Capo"
      ],
      "costumes": [
        "Family_Boss_01_TW",
        "Family_Boss_02_TW"
      ]
    },
    {
      "level": 50,
      "experience": 0,
      "display_names": [
        "Prima Capo"
      ],
      "costumes": [
        "Family_Boss_01_TW",
        "Family_Boss_02_TW"
      ]
    },
    {
      "level": 51,
      "experience": 0,
      "display_names": [
        "Prima Capo"
      ],
      "costumes": [
        "Family_Boss_01_TW",
        "Family_Boss_02_TW"
      ]
    },
    {
      "level": 52,
      "experience": 0,
      "display_names": [
        "Prima Capo"
      ],
      "costumes": [
        "Family_Boss_01_TW",
        "Family_Boss_02_TW"
      ]
    },
    {
      "level": 53,
      "experience": 0,
      "display_names": [
        "Prima Capo"
      ],
      "costumes": [
        "Family_Boss_01_TW",
        "Family_Boss_02_TW"
      ]
    },
    {
      "level": 54,
      "experience": 0,
      "display_names": [
        "Prima Capo"
      ],
      "costumes": [
        "Family_Boss_01_TW",
        "Family_Boss_02_TW"
      ]
    }
  ]
}