{
  "name": "TheFamily_CoV_Minion_Shotgun",
  "gender": "GENDER_MALE",
  "description": "The Family loyalists work for Emil Marcone, de facto governor of Port Oakes. They're being challenged by the Marcone's former chief consigliore, Guido 'the Mooch' Verandi.",
  "group_description": null,
  "display_class_name": null,
  "character_class_name": "minion_grunt",
  "ai_config": "Default_Ranged",
  "commandable_pet": false,
  "power_tags": [
    "HumanSkeleton",
    "Human"
  ],
  "additional_rewards": [

  ],
  "skill_hp_rewards": [

  ],
  "skill_status_rewards": [

  ],
  "ally": null,
  "gang": null,
  "reward_scale": 1.0,
  "game_exclusion": "None",
  "inactive_state_weapon": null,
  "ignores_combat_mods": false,
  "copy_creator_mods": false,
  "spawn_limit": -1,
  "spawn_limit_mission": -1,
  "ignore_av_to_eb_scaling": false,
  "can_zone": false,
  "custom_badge_stat": null,
  "badge_stat_flags": "DefaultBadgeStat",
  "rank": "VR_MINION",
  "power_full_names": [
    "Family.Family_Minion_Melee.Kick",
    "Family.Family_Minion_Melee.Boxing",
    "Family.CoV_Minion_Shotgun.12_Gauge",
    "Family.CoV_Minion_Shotgun.Slug"
  ],
  "power_display_names": [
    "Kick",
    "Boxing",
    "12 Gauge",
    "Slug"
  ],
  "power_levels": [
    0,
    0,
    0,
    0
  ],
  "powers": [
    {
      "power_category": "Family",
      "power_set": "Family_Minion_Melee",
      "power": "*",
      "level": 0
    },
    {
      "power_category": "Family",
      "power_set": "CoV_Minion_Shotgun",
      "power": "*",
      "level": 0
    }
  ],
  "levels": [
    {
      "level": 30,
      "experience": 0,
      "display_names": [
        "Marcone Buckshot"
      ],
      "costumes": [
        "Family_Minion_01",
        "Family_Minion_02",
        "Family_Minion_03",
        "Family_Minion_04",
        "Family_Minion_05",
        "Family_Minion_06"
      ]
    },
    {
      "level": 31,
      "experience": 0,
      "display_names": [
        "Marcone Buckshot"
      ],
      "costumes": [
        "Family_Minion_01",
        "Family_Minion_02",
        "Family_Minion_03",
        "Family_Minion_04",
        "Family_Minion_05",
        "Family_Minion_06"
      ]
    },
    {
      "level": 32,
      "experience": 0,
      "display_names": [
        "Marcone Buckshot"
      ],
      "costumes": [
        "Family_Minion_01",
        "Family_Minion_02",
        "Family_Minion_03",
        "Family_Minion_04",
        "Family_Minion_05",
        "Family_Minion_06"
      ]
    },
    {
      "level": 33,
      "experience": 0,
      "display_names": [
        "Marcone Buckshot"
      ],
      "costumes": [
        "Family_Minion_01",
        "Family_Minion_02",
        "Family_Minion_03",
        "Family_Minion_04",
        "Family_Minion_05",
        "Family_Minion_06"
      ]
    },
    {
      "level": 34,
      "experience": 0,
      "display_names": [
        "Marcone Buckshot"
      ],
      "costumes": [
        "Family_Minion_01",
        "Family_Minion_02",
        "Family_Minion_03",
        "Family_Minion_04",
        "Family_Minion_05",
        "Family_Minion_06"
      ]
    },
    {
      "level": 35,
      "experience": 0,
      "display_names": [
        "Marcone Buckshot"
      ],
      "costumes": [
        "Family_Minion_01",
        "Family_Minion_02",
        "Family_Minion_03",
        "Family_Minion_04",
        "Family_Minion_05",
        "Family_Minion_06"
      ]
    },
    {
      "level": 36,
      "experience": 0,
      "display_names": [
        "Marcone Buckshot"
      ],
      "costumes": [
        "Family_Minion_01",
        "Family_Minion_02",
        "Family_Minion_03",
        "Family_Minion_04",
        "Family_Minion_05",
        "Family_Minion_06"
      ]
    },
    {
      "level": 37,
      "experience": 0,
      "display_names": [
        "Marcone Buckshot"
      ],
      "costumes": [
        "Family_Minion_01",
        "Family_Minion_02",
        "Family_Minion_03",
        "Family_Minion_04",
        "Family_Minion_05",
        "Family_Minion_06"
      ]
    },
    {
      "level": 38,
      "experience": 0,
      "display_names": [
        "Marcone Buckshot"
      ],
      "costumes": [
        "Family_Minion_01",
        "Family_Minion_02",
        "Family_Minion_03",
        "Family_Minion_04",
        "Family_Minion_05",
        "Family_Minion_06"
      ]
    },
    {
      "level": 39,
      "experience": 0,
      "display_names": [
        "Marcone Buckshot"
      ],
      "costumes": [
        "Family_Minion_01",
        "Family_Minion_02",
        "Family_Minion_03",
        "Family_Minion_04",
        "Family_Minion_05",
        "Family_Minion_06"
      ]
    },
    {
      "level": 40,
      "experience": 0,
      "display_names": [
        "Marcone Buckshot"
      ],
      "costumes": [
        "Family_Minion_01",
        "Family_Minion_02",
        "Family_Minion_03",
        "Family_Minion_04",
        "Family_Minion_05",
        "Family_Minion_06"
      ]
    }
  ]
}