{
  "name": "TheFamily_CoV_Lieutenant_Low",
  "gender": "GENDER_MALE",
  "description": "The Family loyalists work for Emil Marcone, de facto governor of Port Oakes. They're being challenged by the Marcone's former chief consigliore, Guido 'the Mooch' Verandi.",
  "group_description": null,
  "display_class_name": null,
  "character_class_name": "lt_grunt",
  "ai_config": "Default_Ranged",
  "commandable_pet": false,
  "power_tags": [
    "HumanSkeleton",
    "Human"
  ],
  "additional_rewards": [

  ],
  "skill_hp_rewards": [

  ],
  "skill_status_rewards": [

  ],
  "ally": null,
  "gang": null,
  "reward_scale": 1.0,
  "game_exclusion": "None",
  "inactive_state_weapon": null,
  "ignores_combat_mods": false,
  "copy_creator_mods": false,
  "spawn_limit": -1,
  "spawn_limit_mission": -1,
  "ignore_av_to_eb_scaling": false,
  "can_zone": false,
  "custom_badge_stat": null,
  "badge_stat_flags": "DefaultBadgeStat",
  "rank": "VR_LIEUTENANT",
  "power_full_names": [
    "V_Mooks.Lt_Hitman_Low.Heavy_Brawl",
    "V_Mooks.Lt_Hitman_Low.Automatic_Pistol"
  ],
  "power_display_names": [
    "Heavy Brawl",
    "Automatic Pistol"
  ],
  "power_levels": [
    0,
    0
  ],
  "powers": [
    {
      "power_category": "V_Mooks",
      "power_set": "Lt_Hitman_Low",
      "power": "*",
      "level": 0
    }
  ],
  "levels": [
    {
      "level": 5,
      "experience": 0,
      "display_names": [
        "Marcone Hitman"
      ],
      "costumes": [
        "Family_Lt_01",
        "Family_Lt_02",
        "Family_Lt_03",
        "Family_Lt_04",
        "Family_Lt_05",
        "Family_Lt_06"
      ]
    },
    {
      "level": 6,
      "experience": 0,
      "display_names": [
        "Marcone Hitman"
      ],
      "costumes": [
        "Family_Lt_01",
        "Family_Lt_02",
        "Family_Lt_03",
        "Family_Lt_04",
        "Family_Lt_05",
        "Family_Lt_06"
      ]
    },
    {
      "level": 7,
      "experience": 0,
      "display_names": [
        "Marcone Hitman"
      ],
      "costumes": [
        "Family_Lt_01",
        "Family_Lt_02",
        "Family_Lt_03",
        "Family_Lt_04",
        "Family_Lt_05",
        "Family_Lt_06"
      ]
    },
    {
      "level": 8,
      "experience": 0,
      "display_names": [
        "Marcone Hitman"
      ],
      "costumes": [
        "Family_Lt_01",
        "Family_Lt_02",
        "Family_Lt_03",
        "Family_Lt_04",
        "Family_Lt_05",
        "Family_Lt_06"
      ]
    },
    {
      "level": 9,
      "experience": 0,
      "display_names": [
        "Marcone Hitman"
      ],
      "costumes": [
        "Family_Lt_01",
        "Family_Lt_02",
        "Family_Lt_03",
        "Family_Lt_04",
        "Family_Lt_05",
        "Family_Lt_06"
      ]
    }
  ]
}