{
  "name": "TheFamily_CoV_Boss_Low",
  "gender": "GENDER_MALE",
  "description": "The Family loyalists work for Emil Marcone, de facto governor of Port Oakes. They're being challenged by the Marcone's former chief consigliore, Guido 'the Mooch' Verandi.",
  "group_description": null,
  "display_class_name": null,
  "character_class_name": "boss_grunt",
  "ai_config": "Default_Ranged",
  "commandable_pet": false,
  "power_tags": [
    "HumanSkeleton",
    "Human"
  ],
  "additional_rewards": [

  ],
  "skill_hp_rewards": [

  ],
  "skill_status_rewards": [

  ],
  "ally": null,
  "gang": null,
  "reward_scale": 1.0,
  "game_exclusion": "None",
  "inactive_state_weapon": null,
  "ignores_combat_mods": false,
  "copy_creator_mods": false,
  "spawn_limit": -1,
  "spawn_limit_mission": -1,
  "ignore_av_to_eb_scaling": false,
  "can_zone": false,
  "custom_badge_stat": null,
  "badge_stat_flags": "DefaultBadgeStat",
  "rank": "VR_BOSS",
  "power_full_names": [
    "V_Mooks.Boss_Capo_Low.Full_Auto",
    "V_Mooks.Boss_Capo_Low.Burst",
    "V_Mooks.Boss_Capo_Low.Jab",
    "V_Mooks.Boss_Capo_Low.Punch",
    "V_Mooks.Boss_Capo_Low.Haymaker"
  ],
  "power_display_names": [
    "Full Auto",
    "Burst",
    "Jab",
    "Punch",
    "Haymaker"
  ],
  "power_levels": [
    0,
    0,
    0,
    0,
    0
  ],
  "powers": [
    {
      "power_category": "V_Mooks",
      "power_set": "Boss_Capo_Low",
      "power": "*",
      "level": 0
    }
  ],
  "levels": [
    {
      "level": 5,
      "experience": 0,
      "display_names": [
        "Marcone Capo"
      ],
      "costumes": [
        "Family_Boss_01",
        "Family_Boss_02"
      ]
    },
    {
      "level": 6,
      "experience": 0,
      "display_names": [
        "Marcone Capo"
      ],
      "costumes": [
        "Family_Boss_01",
        "Family_Boss_02"
      ]
    },
    {
      "level": 7,
      "experience": 0,
      "display_names": [
        "Marcone Capo"
      ],
      "costumes": [
        "Family_Boss_01",
        "Family_Boss_02"
      ]
    },
    {
      "level": 8,
      "experience": 0,
      "display_names": [
        "Marcone Capo"
      ],
      "costumes": [
        "Family_Boss_01",
        "Family_Boss_02"
      ]
    },
    {
      "level": 9,
      "experience": 0,
      "display_names": [
        "Marcone Capo"
      ],
      "costumes": [
        "Family_Boss_01",
        "Family_Boss_02"
      ]
    }
  ]
}