{
  "name": "TheFamily_CoV_Gun_Boss_Low",
  "gender": "GENDER_MALE",
  "description": "The Family loyalists work for Emil Marcone, de facto governor of Port Oakes. They're being challenged by the Marcone's former chief consigliore, Guido 'the Mooch' Verandi.",
  "group_description": null,
  "display_class_name": null,
  "character_class_name": "boss_grunt",
  "ai_config": "Default_Ranged",
  "commandable_pet": false,
  "power_tags": [
    "HumanSkeleton",
    "Human"
  ],
  "additional_rewards": [

  ],
  "skill_hp_rewards": [

  ],
  "skill_status_rewards": [

  ],
  "ally": null,
  "gang": null,
  "reward_scale": 1.4,
  "game_exclusion": "None",
  "inactive_state_weapon": null,
  "ignores_combat_mods": false,
  "copy_creator_mods": false,
  "spawn_limit": -1,
  "spawn_limit_mission": -1,
  "ignore_av_to_eb_scaling": false,
  "can_zone": false,
  "custom_badge_stat": null,
  "badge_stat_flags": "DefaultBadgeStat",
  "rank": "VR_BOSS",
  "power_full_names": [
    "Family.Family_Boss_Defense.Focus",
    "Family.Family_Lt_Boss_Melee.Jab",
    "Family.Family_Lt_Boss_Melee.Punch",
    "Family.Family_Lt_Boss_Melee.Haymaker",
    "Family.Family_Boss_Ranged.Crush",
    "Family.Family_Boss_Ranged.Gravity_Distortion",
    "Family.Family_Boss_Ranged.Propel",
    "Family.CoV_Boss.Crushing_Field",
    "Family.CoV_Boss.Gravity_Distortion_Field"
  ],
  "power_display_names": [
    "Focus",
    "Jab",
    "Punch",
    "Haymaker",
    "Crush",
    "Gravity Distortion",
    "Propel",
    "Crushing Field",
    "Gravity Distortion Field"
  ],
  "power_levels": [
    0,
    0,
    0,
    0,
    0,
    0,
    0,
    0,
    0
  ],
  "powers": [
    {
      "power_category": "Family",
      "power_set": "Family_Boss_Defense",
      "power": "*",
      "level": 0
    },
    {
      "power_category": "Family",
      "power_set": "Family_Lt_Boss_Melee",
      "power": "*",
      "level": 0
    },
    {
      "power_category": "Family",
      "power_set": "Family_Boss_Ranged",
      "power": "*",
      "level": 0
    },
    {
      "power_category": "Family",
      "power_set": "CoV_Boss",
      "power": "*",
      "level": 0
    }
  ],
  "levels": [
    {
      "level": 30,
      "experience": 0,
      "display_names": [
        "Marcone Consigliere"
      ],
      "costumes": [
        "Family_Boss_01",
        "Family_Boss_02"
      ]
    },
    {
      "level": 31,
      "experience": 0,
      "display_names": [
        "Marcone Consigliere"
      ],
      "costumes": [
        "Family_Boss_01",
        "Family_Boss_02"
      ]
    },
    {
      "level": 32,
      "experience": 0,
      "display_names": [
        "Marcone Consigliere"
      ],
      "costumes": [
        "Family_Boss_01",
        "Family_Boss_02"
      ]
    },
    {
      "level": 33,
      "experience": 0,
      "display_names": [
        "Marcone Consigliere"
      ],
      "costumes": [
        "Family_Boss_01",
        "Family_Boss_02"
      ]
    },
    {
      "level": 34,
      "experience": 0,
      "display_names": [
        "Marcone Consigliere"
      ],
      "costumes": [
        "Family_Boss_01",
        "Family_Boss_02"
      ]
    }
  ]
}