{
  "name": "TheFamily_Pitbull_Pet",
  "gender": "GENDER_MALE",
  "description": "Pitbull is an enforcer for the Marcone Family in Port Oakes. You've agreed to help the Marcones with a few problems they've been having, and Pitbull has been sent along to assist you.",
  "group_description": null,
  "display_class_name": null,
  "character_class_name": "minion_pets",
  "ai_config": "Default_Melee",
  "commandable_pet": false,
  "power_tags": [
    "HumanSkeleton",
    "Human"
  ],
  "additional_rewards": [

  ],
  "skill_hp_rewards": [

  ],
  "skill_status_rewards": [

  ],
  "ally": null,
  "gang": null,
  "reward_scale": 1.0,
  "game_exclusion": "None",
  "inactive_state_weapon": null,
  "ignores_combat_mods": false,
  "copy_creator_mods": false,
  "spawn_limit": 0,
  "spawn_limit_mission": 0,
  "ignore_av_to_eb_scaling": false,
  "can_zone": false,
  "custom_badge_stat": null,
  "badge_stat_flags": "DefaultBadgeStat",
  "rank": "VR_LIEUTENANT",
  "power_full_names": [
    "Family.Pitbull.12_Gauge",
    "Family.Pitbull.Slug",
    "Family.Pitbull.Jab",
    "Family.Pitbull.Punch",
    "Family.Pitbull.Haymaker"
  ],
  "power_display_names": [
    "12 Gauge",
    "Slug",
    "Jab",
    "Punch",
    "Haymaker"
  ],
  "power_levels": [
    0,
    0,
    0,
    0,
    0
  ],
  "powers": [
    {
      "power_category": "Family",
      "power_set": "Pitbull",
      "power": "*",
      "level": 0
    }
  ],
  "levels": [
    {
      "level": 5,
      "experience": 0,
      "display_names": [
        "Pitbull"
      ],
      "costumes": [
        "Model_Pitbull"
      ]
    },
    {
      "level": 6,
      "experience": 0,
      "display_names": [
        "Pitbull"
      ],
      "costumes": [
        "Model_Pitbull"
      ]
    },
    {
      "level": 7,
      "experience": 0,
      "display_names": [
        "Pitbull"
      ],
      "costumes": [
        "Model_Pitbull"
      ]
    },
    {
      "level": 8,
      "experience": 0,
      "display_names": [
        "Pitbull"
      ],
      "costumes": [
        "Model_Pitbull"
      ]
    },
    {
      "level": 9,
      "experience": 0,
      "display_names": [
        "Pitbull"
      ],
      "costumes": [
        "Model_Pitbull"
      ]
    },
    {
      "level": 10,
      "experience": 0,
      "display_names": [
        "Pitbull"
      ],
      "costumes": [
        "Model_Pitbull"
      ]
    },
    {
      "level": 11,
      "experience": 0,
      "display_names": [
        "Pitbull"
      ],
      "costumes": [
        "Model_Pitbull"
      ]
    }
  ]
}