{
  "name": "TheLost_Sewer_Trial_Monkey",
  "gender": "GENDER_MALE",
  "description": "Often referred to as ruin monkeys, these horrible creatures were created by the Rikti, then let loose in the city to wreak havoc. They roam in packs and pounce with tremendous speed and ferocity. Unfortunately, the Rikti seem to have a never-ending supply of them.",
  "group_description": "Rikti",
  "display_class_name": null,
  "character_class_name": "minion_small",
  "ai_config": "Default_Melee",
  "commandable_pet": false,
  "power_tags": [

  ],
  "additional_rewards": [

  ],
  "skill_hp_rewards": [

  ],
  "skill_status_rewards": [

  ],
  "ally": null,
  "gang": null,
  "reward_scale": 1.0,
  "game_exclusion": "None",
  "inactive_state_weapon": null,
  "ignores_combat_mods": false,
  "copy_creator_mods": false,
  "spawn_limit": 0,
  "spawn_limit_mission": 0,
  "ignore_av_to_eb_scaling": false,
  "can_zone": false,
  "custom_badge_stat": null,
  "badge_stat_flags": "DefaultBadgeStat",
  "rank": "VR_SMALL",
  "power_full_names": [
    "Rikti.Rikti_Monkey_Movement.Monkey_Jumping",
    "Rikti.Rikti_Monkey_Melee.Monkey_Brawl",
    "Rikti.Rikti_Monkey_Melee.Psychic_Dart",
    "Rikti.Rikti_Monkey_Melee.Gas"
  ],
  "power_display_names": [
    "Monkey Jumping",
    "Monkey Brawl",
    "Psychic Dart",
    "Gas"
  ],
  "power_levels": [
    0,
    0,
    0,
    0
  ],
  "powers": [
    {
      "power_category": "Rikti",
      "power_set": "Rikti_Monkey_Movement",
      "power": "*",
      "level": 0
    },
    {
      "power_category": "Rikti",
      "power_set": "Rikti_Monkey_Melee",
      "power": "*",
      "level": 0
    }
  ],
  "levels": [
    {
      "level": 42,
      "experience": 0,
      "display_names": [
        "Rikti Monkey"
      ],
      "costumes": [
        "Rikti_Monkey_01",
        "Rikti_Monkey_02",
        "Rikti_Monkey_03",
        "Rikti_Monkey_04",
        "Rikti_Monkey_05",
        "Rikti_Monkey_06",
        "Rikti_Monkey_07"
      ]
    }
  ]
}