{
  "name": "TheLost_Unarmored_Rikti_Lt",
  "gender": "GENDER_MALE",
  "description": "The Rikti have come to stand for everything humans hate and fear in the universe. Their unprovoked invasion of Earth has left much of the planet traumatized and angry. Even out of their battle armor, their high-tech weaponry makes Rikti dangerous opponents.",
  "group_description": "Rikti",
  "display_class_name": null,
  "character_class_name": "lt_grunt",
  "ai_config": "Default_Melee",
  "commandable_pet": false,
  "power_tags": [

  ],
  "additional_rewards": [

  ],
  "skill_hp_rewards": [

  ],
  "skill_status_rewards": [

  ],
  "ally": null,
  "gang": null,
  "reward_scale": 1.0,
  "game_exclusion": "None",
  "inactive_state_weapon": null,
  "ignores_combat_mods": false,
  "copy_creator_mods": false,
  "spawn_limit": -1,
  "spawn_limit_mission": -1,
  "ignore_av_to_eb_scaling": false,
  "can_zone": false,
  "custom_badge_stat": null,
  "badge_stat_flags": "DefaultBadgeStat",
  "rank": "VR_LIEUTENANT",
  "power_full_names": [
    "Rikti.Rikti_Sword.Rikti_Sword",
    "Rikti.Rikti_Rifle.Rikti_Rifle"
  ],
  "power_display_names": [
    "Rikti Sword",
    "Rikti Rifle"
  ],
  "power_levels": [
    0,
    0
  ],
  "powers": [
    {
      "power_category": "Rikti",
      "power_set": "Rikti_Sword",
      "power": "*",
      "level": 0
    },
    {
      "power_category": "Rikti",
      "power_set": "Rikti_Rifle",
      "power": "*",
      "level": 0
    }
  ],
  "levels": [
    {
      "level": 31,
      "experience": 0,
      "display_names": [
        "Headman"
      ],
      "costumes": [
        "Rikti_Flesh_02",
        "Rikti_Flesh_04",
        "Rikti_Flesh_07",
        "Rikti_Flesh_08"
      ]
    },
    {
      "level": 32,
      "experience": 0,
      "display_names": [
        "Headman"
      ],
      "costumes": [
        "Rikti_Flesh_02",
        "Rikti_Flesh_04",
        "Rikti_Flesh_07",
        "Rikti_Flesh_08"
      ]
    },
    {
      "level": 33,
      "experience": 0,
      "display_names": [
        "Headman"
      ],
      "costumes": [
        "Rikti_Flesh_02",
        "Rikti_Flesh_04",
        "Rikti_Flesh_07",
        "Rikti_Flesh_08"
      ]
    },
    {
      "level": 34,
      "experience": 0,
      "display_names": [
        "Headman"
      ],
      "costumes": [
        "Rikti_Flesh_02",
        "Rikti_Flesh_04",
        "Rikti_Flesh_07",
        "Rikti_Flesh_08"
      ]
    },
    {
      "level": 35,
      "experience": 0,
      "display_names": [
        "Headman"
      ],
      "costumes": [
        "Rikti_Flesh_02",
        "Rikti_Flesh_04",
        "Rikti_Flesh_07",
        "Rikti_Flesh_08"
      ]
    },
    {
      "level": 36,
      "experience": 0,
      "display_names": [
        "Headman"
      ],
      "costumes": [
        "Rikti_Flesh_01",
        "Rikti_Flesh_03",
        "Rikti_Flesh_05",
        "Rikti_Flesh_06"
      ]
    },
    {
      "level": 37,
      "experience": 0,
      "display_names": [
        "Headman"
      ],
      "costumes": [
        "Rikti_Flesh_01",
        "Rikti_Flesh_03",
        "Rikti_Flesh_05",
        "Rikti_Flesh_06"
      ]
    },
    {
      "level": 38,
      "experience": 0,
      "display_names": [
        "Headman"
      ],
      "costumes": [
        "Rikti_Flesh_01",
        "Rikti_Flesh_03",
        "Rikti_Flesh_05",
        "Rikti_Flesh_06"
      ]
    },
    {
      "level": 39,
      "experience": 0,
      "display_names": [
        "Headman"
      ],
      "costumes": [
        "Rikti_Flesh_01",
        "Rikti_Flesh_03",
        "Rikti_Flesh_05",
        "Rikti_Flesh_06"
      ]
    },
    {
      "level": 40,
      "experience": 0,
      "display_names": [
        "Headman"
      ],
      "costumes": [
        "Rikti_Flesh_01",
        "Rikti_Flesh_03",
        "Rikti_Flesh_05",
        "Rikti_Flesh_06"
      ]
    }
  ]
}