{
  "name": "TheLost_Anathema_Lt",
  "gender": "GENDER_MALE",
  "description": "The Anathema are members of the Lost who have undergone substantial mutation, becoming huge creatures that are barely recognizable as humans. They engage their foes with an unnatural brutality, using whatever weaponry they can find.",
  "group_description": "The Lost",
  "display_class_name": null,
  "character_class_name": "lt_grunt",
  "ai_config": null,
  "commandable_pet": false,
  "power_tags": [
    "HumanSkeleton"
  ],
  "additional_rewards": [

  ],
  "skill_hp_rewards": [

  ],
  "skill_status_rewards": [

  ],
  "ally": null,
  "gang": null,
  "reward_scale": 1.4,
  "game_exclusion": "None",
  "inactive_state_weapon": null,
  "ignores_combat_mods": false,
  "copy_creator_mods": false,
  "spawn_limit": -1,
  "spawn_limit_mission": -1,
  "ignore_av_to_eb_scaling": false,
  "can_zone": false,
  "custom_badge_stat": null,
  "badge_stat_flags": "DefaultBadgeStat",
  "rank": "VR_LIEUTENANT",
  "power_full_names": [
    "Rikti.Lost_Brawl.Brawl",
    "Rikti.Lost_RiktiSword.Rikti_Sword",
    "Rikti.Anathema_Lt_Ranged.Mental_Blast",
    "Rikti.Anathema_Lt_Ranged.Psychic_Scream",
    "Rikti.Anathema_Lt_Ranged.Telekinetic_blast",
    "Rikti.Anathema_Lt_Ranged.Subdue",
    "Rikti.Anathema_Lt_Ranged.Will_Domination",
    "Rikti.Lost_Anathema_Pariah_Defense.Resistance"
  ],
  "power_display_names": [
    "Brawl",
    "Rikti Sword",
    "Mental Blast",
    "Psychic Scream",
    "Telekinetic blast",
    "Subdue",
    "Will Domination",
    "Resistance"
  ],
  "power_levels": [
    0,
    0,
    0,
    0,
    0,
    0,
    0,
    0
  ],
  "powers": [
    {
      "power_category": "Rikti",
      "power_set": "Lost_Brawl",
      "power": "*",
      "level": 0
    },
    {
      "power_category": "Rikti",
      "power_set": "Lost_RiktiSword",
      "power": "*",
      "level": 0
    },
    {
      "power_category": "Rikti",
      "power_set": "Anathema_Lt_Ranged",
      "power": "*",
      "level": 0
    },
    {
      "power_category": "Rikti",
      "power_set": "Lost_Anathema_Pariah_Defense",
      "power": "*",
      "level": 0
    }
  ],
  "levels": [
    {
      "level": 20,
      "experience": 0,
      "display_names": [
        "Anathema"
      ],
      "costumes": [
        "Lost_40",
        "Lost_41",
        "Lost_42",
        "Lost_43",
        "Lost_44"
      ]
    },
    {
      "level": 21,
      "experience": 0,
      "display_names": [
        "Anathema"
      ],
      "costumes": [
        "Lost_40",
        "Lost_41",
        "Lost_42",
        "Lost_43",
        "Lost_44"
      ]
    },
    {
      "level": 22,
      "experience": 0,
      "display_names": [
        "Anathema"
      ],
      "costumes": [
        "Lost_40",
        "Lost_41",
        "Lost_42",
        "Lost_43",
        "Lost_44"
      ]
    },
    {
      "level": 23,
      "experience": 0,
      "display_names": [
        "Anathema"
      ],
      "costumes": [
        "Lost_40",
        "Lost_41",
        "Lost_42",
        "Lost_43",
        "Lost_44"
      ]
    },
    {
      "level": 24,
      "experience": 0,
      "display_names": [
        "Anathema"
      ],
      "costumes": [
        "Lost_40",
        "Lost_41",
        "Lost_42",
        "Lost_43",
        "Lost_44"
      ]
    },
    {
      "level": 25,
      "experience": 0,
      "display_names": [
        "Anathema"
      ],
      "costumes": [
        "Lost_40",
        "Lost_41",
        "Lost_42",
        "Lost_43",
        "Lost_44"
      ]
    },
    {
      "level": 26,
      "experience": 0,
      "display_names": [
        "Anathema"
      ],
      "costumes": [
        "Lost_40",
        "Lost_41",
        "Lost_42",
        "Lost_43",
        "Lost_44"
      ]
    },
    {
      "level": 27,
      "experience": 0,
      "display_names": [
        "Anathema"
      ],
      "costumes": [
        "Lost_40",
        "Lost_41",
        "Lost_42",
        "Lost_43",
        "Lost_44"
      ]
    },
    {
      "level": 28,
      "experience": 0,
      "display_names": [
        "Anathema"
      ],
      "costumes": [
        "Lost_40",
        "Lost_41",
        "Lost_42",
        "Lost_43",
        "Lost_44"
      ]
    },
    {
      "level": 29,
      "experience": 0,
      "display_names": [
        "Anathema"
      ],
      "costumes": [
        "Lost_40",
        "Lost_41",
        "Lost_42",
        "Lost_43",
        "Lost_44"
      ]
    }
  ]
}