{
  "name": "TheLost_Rikti_Magus",
  "gender": "GENDER_MALE",
  "description": "These radical members of the Rikti's Restructurist faction have mastered magical arts stolen from the Circle of Thorns.",
  "group_description": "Rikti",
  "display_class_name": null,
  "character_class_name": "boss_grunt",
  "ai_config": "Default_Ranged",
  "commandable_pet": false,
  "power_tags": [

  ],
  "additional_rewards": [

  ],
  "skill_hp_rewards": [

  ],
  "skill_status_rewards": [

  ],
  "ally": null,
  "gang": null,
  "reward_scale": 1.0,
  "game_exclusion": "None",
  "inactive_state_weapon": null,
  "ignores_combat_mods": false,
  "copy_creator_mods": false,
  "spawn_limit": 0,
  "spawn_limit_mission": 0,
  "ignore_av_to_eb_scaling": false,
  "can_zone": false,
  "custom_badge_stat": null,
  "badge_stat_flags": "DefaultBadgeStat",
  "rank": "VR_BOSS",
  "power_full_names": [
    "Rikti.Rikti_Sword.Rikti_Sword",
    "Rikti.Rikti_Magus.Resistance",
    "Rikti.Rikti_Magus.Fire_Ball",
    "Rikti.Rikti_Magus.Stalagmites",
    "Rikti.Rikti_Magus.Lightning_Bolt",
    "Rikti.Rikti_Magus.Block_of_Ice",
    "Rikti.Rikti_Magus.Mass_Hypnosis",
    "Rikti.Rikti_Magus.Mental_Blast"
  ],
  "power_display_names": [
    "Rikti Sword",
    "Resistance",
    "Fire Ball",
    "Stalagmites",
    "Lightning Bolt",
    "Block of Ice",
    "Mass Hypnosis",
    "Mental Blast"
  ],
  "power_levels": [
    0,
    0,
    0,
    0,
    0,
    0,
    0,
    0
  ],
  "powers": [
    {
      "power_category": "Rikti",
      "power_set": "Rikti_Sword",
      "power": "*",
      "level": 0
    },
    {
      "power_category": "Rikti",
      "power_set": "Rikti_Magus",
      "power": "*",
      "level": 0
    }
  ],
  "levels": [
    {
      "level": 40,
      "experience": 0,
      "display_names": [
        "Rikti Magus"
      ],
      "costumes": [
        "Rikti_Armour_Lieutenant_01",
        "Rikti_Armour_Lieutenant_02",
        "Rikti_Armour_Lieutenant_03",
        "Rikti_Armour_Lieutenant_04",
        "Rikti_Armour_Lieutenant_05"
      ]
    },
    {
      "level": 41,
      "experience": 0,
      "display_names": [
        "Rikti Magus"
      ],
      "costumes": [
        "Rikti_Armour_Lieutenant_01",
        "Rikti_Armour_Lieutenant_02",
        "Rikti_Armour_Lieutenant_03",
        "Rikti_Armour_Lieutenant_04",
        "Rikti_Armour_Lieutenant_05"
      ]
    },
    {
      "level": 42,
      "experience": 0,
      "display_names": [
        "Rikti Magus"
      ],
      "costumes": [
        "Rikti_Armour_Lieutenant_01",
        "Rikti_Armour_Lieutenant_02",
        "Rikti_Armour_Lieutenant_03",
        "Rikti_Armour_Lieutenant_04",
        "Rikti_Armour_Lieutenant_05"
      ]
    },
    {
      "level": 43,
      "experience": 0,
      "display_names": [
        "Rikti Magus"
      ],
      "costumes": [
        "Rikti_Armour_Lieutenant_01",
        "Rikti_Armour_Lieutenant_02",
        "Rikti_Armour_Lieutenant_03",
        "Rikti_Armour_Lieutenant_04",
        "Rikti_Armour_Lieutenant_05"
      ]
    },
    {
      "level": 44,
      "experience": 0,
      "display_names": [
        "Rikti Magus"
      ],
      "costumes": [
        "Rikti_Armour_Lieutenant_01",
        "Rikti_Armour_Lieutenant_02",
        "Rikti_Armour_Lieutenant_03",
        "Rikti_Armour_Lieutenant_04",
        "Rikti_Armour_Lieutenant_05"
      ]
    },
    {
      "level": 45,
      "experience": 0,
      "display_names": [
        "Rikti Magus"
      ],
      "costumes": [
        "Rikti_Armour_Lieutenant_01",
        "Rikti_Armour_Lieutenant_02",
        "Rikti_Armour_Lieutenant_03",
        "Rikti_Armour_Lieutenant_04",
        "Rikti_Armour_Lieutenant_05"
      ]
    }
  ]
}