{
  "name": "TheLost_Brawler_Mutate",
  "gender": "GENDER_MALE",
  "description": "After a few months in the service of the Lost, members begin to mutate, becoming distorted, grotesque looking men. Although they still use the same weapons as the Scroungers, their mutations give them increased strength and resilience, making them much more dangerous.",
  "group_description": "The Lost",
  "display_class_name": null,
  "character_class_name": "minion_grunt",
  "ai_config": "Default_Melee",
  "commandable_pet": false,
  "power_tags": [
    "HumanSkeleton"
  ],
  "additional_rewards": [

  ],
  "skill_hp_rewards": [

  ],
  "skill_status_rewards": [

  ],
  "ally": null,
  "gang": null,
  "reward_scale": 1.0,
  "game_exclusion": "None",
  "inactive_state_weapon": null,
  "ignores_combat_mods": false,
  "copy_creator_mods": false,
  "spawn_limit": -1,
  "spawn_limit_mission": -1,
  "ignore_av_to_eb_scaling": false,
  "can_zone": false,
  "custom_badge_stat": null,
  "badge_stat_flags": "DefaultBadgeStat",
  "rank": "VR_MINION",
  "power_full_names": [
    "Rikti.Lost_Brawl.Brawl",
    "Rikti.Lost_Pistol.Revolver"
  ],
  "power_display_names": [
    "Brawl",
    "Revolver"
  ],
  "power_levels": [
    0,
    0
  ],
  "powers": [
    {
      "power_category": "Rikti",
      "power_set": "Lost_Brawl",
      "power": "*",
      "level": 0
    },
    {
      "power_category": "Rikti",
      "power_set": "Lost_Pistol",
      "power": "*",
      "level": 0
    }
  ],
  "levels": [
    {
      "level": 20,
      "experience": 0,
      "display_names": [
        "Mutate Brawler"
      ],
      "costumes": [
        "Lost_20",
        "Lost_21",
        "Lost_22",
        "Lost_23",
        "Lost_24",
        "Lost_25",
        "Lost_26",
        "Lost_27",
        "Lost_28",
        "Lost_29"
      ]
    },
    {
      "level": 21,
      "experience": 0,
      "display_names": [
        "Mutate Brawler"
      ],
      "costumes": [
        "Lost_20",
        "Lost_21",
        "Lost_22",
        "Lost_23",
        "Lost_24",
        "Lost_25",
        "Lost_26",
        "Lost_27",
        "Lost_28",
        "Lost_29"
      ]
    },
    {
      "level": 22,
      "experience": 0,
      "display_names": [
        "Mutate Brawler"
      ],
      "costumes": [
        "Lost_20",
        "Lost_21",
        "Lost_22",
        "Lost_23",
        "Lost_24",
        "Lost_25",
        "Lost_26",
        "Lost_27",
        "Lost_28",
        "Lost_29"
      ]
    },
    {
      "level": 23,
      "experience": 0,
      "display_names": [
        "Mutate Brawler"
      ],
      "costumes": [
        "Lost_20",
        "Lost_21",
        "Lost_22",
        "Lost_23",
        "Lost_24",
        "Lost_25",
        "Lost_26",
        "Lost_27",
        "Lost_28",
        "Lost_29"
      ]
    },
    {
      "level": 24,
      "experience": 0,
      "display_names": [
        "Mutate Brawler"
      ],
      "costumes": [
        "Lost_20",
        "Lost_21",
        "Lost_22",
        "Lost_23",
        "Lost_24",
        "Lost_25",
        "Lost_26",
        "Lost_27",
        "Lost_28",
        "Lost_29"
      ]
    },
    {
      "level": 25,
      "experience": 0,
      "display_names": [
        "Mutate Brawler"
      ],
      "costumes": [
        "Lost_20",
        "Lost_21",
        "Lost_22",
        "Lost_23",
        "Lost_24",
        "Lost_25",
        "Lost_26",
        "Lost_27",
        "Lost_28",
        "Lost_29"
      ]
    },
    {
      "level": 26,
      "experience": 0,
      "display_names": [
        "Mutate Brawler"
      ],
      "costumes": [
        "Lost_20",
        "Lost_21",
        "Lost_22",
        "Lost_23",
        "Lost_24",
        "Lost_25",
        "Lost_26",
        "Lost_27",
        "Lost_28",
        "Lost_29"
      ]
    },
    {
      "level": 27,
      "experience": 0,
      "display_names": [
        "Mutate Brawler"
      ],
      "costumes": [
        "Lost_20",
        "Lost_21",
        "Lost_22",
        "Lost_23",
        "Lost_24",
        "Lost_25",
        "Lost_26",
        "Lost_27",
        "Lost_28",
        "Lost_29"
      ]
    },
    {
      "level": 28,
      "experience": 0,
      "display_names": [
        "Mutate Brawler"
      ],
      "costumes": [
        "Lost_20",
        "Lost_21",
        "Lost_22",
        "Lost_23",
        "Lost_24",
        "Lost_25",
        "Lost_26",
        "Lost_27",
        "Lost_28",
        "Lost_29"
      ]
    },
    {
      "level": 29,
      "experience": 0,
      "display_names": [
        "Mutate Brawler"
      ],
      "costumes": [
        "Lost_20",
        "Lost_21",
        "Lost_22",
        "Lost_23",
        "Lost_24",
        "Lost_25",
        "Lost_26",
        "Lost_27",
        "Lost_28",
        "Lost_29"
      ]
    }
  ]
}