{
  "name": "TheLost_Knife_Beggar",
  "gender": "GENDER_MALE",
  "description": "Despite their bedraggled appearance, Scroungers are actually very dangerous opponents. The Lost are organized much like a street gang or organized crime syndicate, though their weapons are often of surprisingly good quality.",
  "group_description": "The Lost",
  "display_class_name": null,
  "character_class_name": "minion_grunt",
  "ai_config": "Default_Melee",
  "commandable_pet": false,
  "power_tags": [
    "HumanSkeleton"
  ],
  "additional_rewards": [

  ],
  "skill_hp_rewards": [

  ],
  "skill_status_rewards": [

  ],
  "ally": null,
  "gang": null,
  "reward_scale": 1.0,
  "game_exclusion": "None",
  "inactive_state_weapon": null,
  "ignores_combat_mods": false,
  "copy_creator_mods": false,
  "spawn_limit": -1,
  "spawn_limit_mission": -1,
  "ignore_av_to_eb_scaling": false,
  "can_zone": false,
  "custom_badge_stat": null,
  "badge_stat_flags": "DefaultBadgeStat",
  "rank": "VR_MINION",
  "power_full_names": [
    "Rikti.Lost_Knife.Knife",
    "Rikti.Lost_Pistol.Revolver"
  ],
  "power_display_names": [
    "Knife",
    "Revolver"
  ],
  "power_levels": [
    0,
    0
  ],
  "powers": [
    {
      "power_category": "Rikti",
      "power_set": "Lost_Knife",
      "power": "*",
      "level": 0
    },
    {
      "power_category": "Rikti",
      "power_set": "Lost_Pistol",
      "power": "*",
      "level": 0
    }
  ],
  "levels": [
    {
      "level": 5,
      "experience": 0,
      "display_names": [
        "Scrounger Slicer"
      ],
      "costumes": [
        "Lost_01",
        "Lost_02",
        "Lost_03",
        "Lost_04",
        "Lost_05",
        "Lost_06",
        "Lost_07",
        "Lost_08",
        "Lost_09",
        "Lost_10",
        "Lost_11",
        "Lost_12"
      ]
    },
    {
      "level": 6,
      "experience": 0,
      "display_names": [
        "Scrounger Slicer"
      ],
      "costumes": [
        "Lost_01",
        "Lost_02",
        "Lost_03",
        "Lost_04",
        "Lost_05",
        "Lost_06",
        "Lost_07",
        "Lost_08",
        "Lost_09",
        "Lost_10",
        "Lost_11",
        "Lost_12"
      ]
    },
    {
      "level": 7,
      "experience": 0,
      "display_names": [
        "Scrounger Slicer"
      ],
      "costumes": [
        "Lost_01",
        "Lost_02",
        "Lost_03",
        "Lost_04",
        "Lost_05",
        "Lost_06",
        "Lost_07",
        "Lost_08",
        "Lost_09",
        "Lost_10",
        "Lost_11",
        "Lost_12"
      ]
    },
    {
      "level": 8,
      "experience": 0,
      "display_names": [
        "Scrounger Slicer"
      ],
      "costumes": [
        "Lost_01",
        "Lost_02",
        "Lost_03",
        "Lost_04",
        "Lost_05",
        "Lost_06",
        "Lost_07",
        "Lost_08",
        "Lost_09",
        "Lost_10",
        "Lost_11",
        "Lost_12"
      ]
    },
    {
      "level": 9,
      "experience": 0,
      "display_names": [
        "Scrounger Slicer"
      ],
      "costumes": [
        "Lost_01",
        "Lost_02",
        "Lost_03",
        "Lost_04",
        "Lost_05",
        "Lost_06",
        "Lost_07",
        "Lost_08",
        "Lost_09",
        "Lost_10",
        "Lost_11",
        "Lost_12"
      ]
    },
    {
      "level": 10,
      "experience": 0,
      "display_names": [
        "Scrounger Slicer"
      ],
      "costumes": [
        "Lost_01",
        "Lost_02",
        "Lost_03",
        "Lost_04",
        "Lost_05",
        "Lost_06",
        "Lost_07",
        "Lost_08",
        "Lost_09",
        "Lost_10",
        "Lost_11",
        "Lost_12"
      ]
    },
    {
      "level": 11,
      "experience": 0,
      "display_names": [
        "Scrounger Slicer"
      ],
      "costumes": [
        "Lost_01",
        "Lost_02",
        "Lost_03",
        "Lost_04",
        "Lost_05",
        "Lost_06",
        "Lost_07",
        "Lost_08",
        "Lost_09",
        "Lost_10",
        "Lost_11",
        "Lost_12"
      ]
    },
    {
      "level": 12,
      "experience": 0,
      "display_names": [
        "Scrounger Slicer"
      ],
      "costumes": [
        "Lost_01",
        "Lost_02",
        "Lost_03",
        "Lost_04",
        "Lost_05",
        "Lost_06",
        "Lost_07",
        "Lost_08",
        "Lost_09",
        "Lost_10",
        "Lost_11",
        "Lost_12"
      ]
    },
    {
      "level": 13,
      "experience": 0,
      "display_names": [
        "Scrounger Slicer"
      ],
      "costumes": [
        "Lost_01",
        "Lost_02",
        "Lost_03",
        "Lost_04",
        "Lost_05",
        "Lost_06",
        "Lost_07",
        "Lost_08",
        "Lost_09",
        "Lost_10",
        "Lost_11",
        "Lost_12"
      ]
    },
    {
      "level": 14,
      "experience": 0,
      "display_names": [
        "Scrounger Slicer"
      ],
      "costumes": [
        "Lost_01",
        "Lost_02",
        "Lost_03",
        "Lost_04",
        "Lost_05",
        "Lost_06",
        "Lost_07",
        "Lost_08",
        "Lost_09",
        "Lost_10",
        "Lost_11",
        "Lost_12"
      ]
    },
    {
      "level": 15,
      "experience": 0,
      "display_names": [
        "Scrounger Slicer"
      ],
      "costumes": [
        "Lost_01",
        "Lost_02",
        "Lost_03",
        "Lost_04",
        "Lost_05",
        "Lost_06",
        "Lost_07",
        "Lost_08",
        "Lost_09",
        "Lost_10",
        "Lost_11",
        "Lost_12"
      ]
    },
    {
      "level": 16,
      "experience": 0,
      "display_names": [
        "Scrounger Slicer"
      ],
      "costumes": [
        "Lost_01",
        "Lost_02",
        "Lost_03",
        "Lost_04",
        "Lost_05",
        "Lost_06",
        "Lost_07",
        "Lost_08",
        "Lost_09",
        "Lost_10",
        "Lost_11",
        "Lost_12"
      ]
    },
    {
      "level": 17,
      "experience": 0,
      "display_names": [
        "Scrounger Slicer"
      ],
      "costumes": [
        "Lost_01",
        "Lost_02",
        "Lost_03",
        "Lost_04",
        "Lost_05",
        "Lost_06",
        "Lost_07",
        "Lost_08",
        "Lost_09",
        "Lost_10",
        "Lost_11",
        "Lost_12"
      ]
    },
    {
      "level": 18,
      "experience": 0,
      "display_names": [
        "Scrounger Slicer"
      ],
      "costumes": [
        "Lost_01",
        "Lost_02",
        "Lost_03",
        "Lost_04",
        "Lost_05",
        "Lost_06",
        "Lost_07",
        "Lost_08",
        "Lost_09",
        "Lost_10",
        "Lost_11",
        "Lost_12"
      ]
    },
    {
      "level": 19,
      "experience": 0,
      "display_names": [
        "Scrounger Slicer"
      ],
      "costumes": [
        "Lost_01",
        "Lost_02",
        "Lost_03",
        "Lost_04",
        "Lost_05",
        "Lost_06",
        "Lost_07",
        "Lost_08",
        "Lost_09",
        "Lost_10",
        "Lost_11",
        "Lost_12"
      ]
    }
  ]
}