{
  "name": "TimeEchoes_Requiem",
  "gender": "GENDER_MALE",
  "description": "Requiem's Time Echo is in over its head. If you could defeat him before you became an Incarnate, what is he to you now?",
  "group_description": null,
  "display_class_name": null,
  "character_class_name": "boss_archvillain",
  "ai_config": "Default_Ranged",
  "commandable_pet": false,
  "power_tags": [
    "HumanSkeleton",
    "Human",
    "Raid"
  ],
  "additional_rewards": [

  ],
  "skill_hp_rewards": [

  ],
  "skill_status_rewards": [

  ],
  "ally": null,
  "gang": null,
  "reward_scale": 0.0,
  "game_exclusion": "None",
  "inactive_state_weapon": null,
  "ignores_combat_mods": false,
  "copy_creator_mods": false,
  "spawn_limit": 0,
  "spawn_limit_mission": 0,
  "ignore_av_to_eb_scaling": true,
  "can_zone": false,
  "custom_badge_stat": null,
  "badge_stat_flags": "DefaultBadgeStat",
  "rank": "VR_PET",
  "power_full_names": [
    "Rularuu.Reflections.Resistance",
    "5thColumn.Fifth_Column_Requiem_Defense.Resistance",
    "5thColumn.Fifth_Column_Requiem_Defense.Dark_Regeneration",
    "5thColumn.Fifth_Column_Requiem_Defense.Oppressive_Gloom",
    "5thColumn.Fifth_Column_Requiem_Melee.Shadow_Punch",
    "5thColumn.Fifth_Column_Requiem_Melee.Smite",
    "5thColumn.Fifth_Column_Requiem_Melee.Shadow_Maul",
    "5thColumn.Fifth_Column_Requiem_Ranged.Life_Drain",
    "5thColumn.Fifth_Column_Requiem_Ranged.Dark_Blast",
    "5thColumn.Fifth_Column_Requiem_Ranged.Gloom",
    "5thColumn.Fifth_Column_Requiem_Ranged.Tenebrous_Tentacles"
  ],
  "power_display_names": [
    "Resistance",
    "Resistance",
    "Dark Regeneration",
    "Oppressive Gloom",
    "Shadow Punch",
    "Smite",
    "Shadow Maul",
    "Life Drain",
    "Dark Blast",
    "Gloom",
    "Tenebrous Tentacles"
  ],
  "power_levels": [
    0,
    0,
    0,
    0,
    0,
    0,
    0,
    0,
    0,
    0,
    0
  ],
  "powers": [
    {
      "power_category": "Rularuu",
      "power_set": "Reflections",
      "power": "*",
      "level": 0
    },
    {
      "power_category": "5thColumn",
      "power_set": "Fifth_Column_Requiem_Defense",
      "power": "*",
      "level": 0
    },
    {
      "power_category": "5thColumn",
      "power_set": "Fifth_Column_Requiem_Melee",
      "power": "*",
      "level": 0
    },
    {
      "power_category": "5thColumn",
      "power_set": "Fifth_Column_Requiem_Ranged",
      "power": "*",
      "level": 0
    }
  ],
  "levels": [
    {
      "level": 50,
      "experience": 0,
      "display_names": [
        "Echo of Requiem"
      ],
      "costumes": [
        "5thRequiem"
      ]
    },
    {
      "level": 51,
      "experience": 0,
      "display_names": [
        "Echo of Requiem"
      ],
      "costumes": [
        "5thRequiem"
      ]
    },
    {
      "level": 52,
      "experience": 0,
      "display_names": [
        "Echo of Requiem"
      ],
      "costumes": [
        "5thRequiem"
      ]
    },
    {
      "level": 53,
      "experience": 0,
      "display_names": [
        "Echo of Requiem"
      ],
      "costumes": [
        "5thRequiem"
      ]
    },
    {
      "level": 54,
      "experience": 0,
      "display_names": [
        "Echo of Requiem"
      ],
      "costumes": [
        "5thRequiem"
      ]
    }
  ]
}