{
  "name": "TimeEchoes_Ruladak",
  "gender": "GENDER_MALE",
  "description": "Ruladak the Strong, one of the guardians of the Cathedrals of Pain, has been summoned forth from your mind as a Time Echo. It shall be banished back to the nothing from whence it came.",
  "group_description": null,
  "display_class_name": null,
  "character_class_name": "boss_archvillain",
  "ai_config": "Default_Ranged",
  "commandable_pet": false,
  "power_tags": [
    "Raid"
  ],
  "additional_rewards": [

  ],
  "skill_hp_rewards": [

  ],
  "skill_status_rewards": [

  ],
  "ally": null,
  "gang": null,
  "reward_scale": 0.0,
  "game_exclusion": "None",
  "inactive_state_weapon": null,
  "ignores_combat_mods": false,
  "copy_creator_mods": false,
  "spawn_limit": 0,
  "spawn_limit_mission": 0,
  "ignore_av_to_eb_scaling": true,
  "can_zone": false,
  "custom_badge_stat": null,
  "badge_stat_flags": "DefaultBadgeStat",
  "rank": "VR_PET",
  "power_full_names": [
    "Rularuu.Reflections.Resistance",
    "V_Rularuu.Ruladak_Cathedral.Resistance",
    "V_Rularuu.Ruladak_Cathedral.Fly",
    "V_Rularuu.Ruladak_Cathedral.Hand_Clap",
    "V_Rularuu.Ruladak_Cathedral.Total_Focus",
    "V_Rularuu.Ruladak_Cathedral.Power_Blast",
    "V_Rularuu.Ruladak_Cathedral.Explosive_Blast",
    "V_Rularuu.Ruladak_Cathedral.Nova",
    "V_Rularuu.Ruladak_Cathedral.Energy_Aura",
    "V_Rularuu.Ruladak_Cathedral.Crystal_of_Vigor",
    "V_Rularuu.Ruladak_Cathedral.Crystal_of_Corruption",
    "V_Rularuu.Ruladak_Cathedral.Crystal_of_Resilience"
  ],
  "power_display_names": [
    "Resistance",
    "Resistance",
    "Fly",
    "Hand Clap",
    "Total Focus",
    "Power Blast",
    "Explosive Blast",
    "Nova",
    "Energy Aura",
    "Crystal of Vigor",
    "Crystal of Corruption",
    "Crystal of Resilience"
  ],
  "power_levels": [
    0,
    0,
    0,
    0,
    0,
    0,
    0,
    0,
    0,
    0,
    0,
    0
  ],
  "powers": [
    {
      "power_category": "Rularuu",
      "power_set": "Reflections",
      "power": "*",
      "level": 0
    },
    {
      "power_category": "V_Rularuu",
      "power_set": "Ruladak_Cathedral",
      "power": "*",
      "level": 0
    }
  ],
  "levels": [
    {
      "level": 50,
      "experience": 0,
      "display_names": [
        "Echo of Ruladak the Strong"
      ],
      "costumes": [
        "Rularuu_Ruladak"
      ]
    },
    {
      "level": 51,
      "experience": 0,
      "display_names": [
        "Echo of Ruladak the Strong"
      ],
      "costumes": [
        "Rularuu_Ruladak"
      ]
    },
    {
      "level": 52,
      "experience": 0,
      "display_names": [
        "Echo of Ruladak the Strong"
      ],
      "costumes": [
        "Rularuu_Ruladak"
      ]
    },
    {
      "level": 53,
      "experience": 0,
      "display_names": [
        "Echo of Ruladak the Strong"
      ],
      "costumes": [
        "Rularuu_Ruladak"
      ]
    },
    {
      "level": 54,
      "experience": 0,
      "display_names": [
        "Echo of Ruladak the Strong"
      ],
      "costumes": [
        "Rularuu_Ruladak"
      ]
    }
  ]
}