{
  "name": "TimeEchoes_Black_Scorpion",
  "gender": "GENDER_MALE",
  "description": "This Time Echo of Black Scorpion stands little chance against your future self.",
  "group_description": null,
  "display_class_name": null,
  "character_class_name": "boss_archvillain",
  "ai_config": "Signatures_Melee",
  "commandable_pet": false,
  "power_tags": [
    "HumanSkeleton",
    "Human",
    "Electronic",
    "Raid"
  ],
  "additional_rewards": [

  ],
  "skill_hp_rewards": [

  ],
  "skill_status_rewards": [

  ],
  "ally": null,
  "gang": null,
  "reward_scale": 0.0,
  "game_exclusion": "None",
  "inactive_state_weapon": null,
  "ignores_combat_mods": false,
  "copy_creator_mods": false,
  "spawn_limit": 0,
  "spawn_limit_mission": 0,
  "ignore_av_to_eb_scaling": true,
  "can_zone": false,
  "custom_badge_stat": null,
  "badge_stat_flags": "DefaultBadgeStat",
  "rank": "VR_PET",
  "power_full_names": [
    "Rularuu.Reflections.Resistance",
    "V_Arachnos.AV_Resistances.Resistance",
    "V_Arachnos.Black_Scorpion.Punch",
    "V_Arachnos.Black_Scorpion.Haymaker",
    "V_Arachnos.Black_Scorpion.Hammer_Punch",
    "V_Arachnos.Black_Scorpion.Foot_Stomp",
    "V_Arachnos.Black_Scorpion.Arm_Blast",
    "V_Arachnos.Black_Scorpion.Tail_Blast",
    "V_Arachnos.Black_Scorpion.Tail_Sting",
    "V_Arachnos.Black_Scorpion.Tail_Lash",
    "V_Arachnos.Black_Scorpion.Taunt",
    "V_Arachnos.Black_Scorpion.Rage",
    "V_Arachnos.Black_Scorpion.Super_Leap",
    "V_Arachnos.Black_Scorpion.Resistance"
  ],
  "power_display_names": [
    "Resistance",
    "Resistance",
    "Punch",
    "Haymaker",
    "Hammer Punch",
    "Foot Stomp",
    "Arm Blast",
    "Tail Blast",
    "Tail Sting",
    "Tail Lash",
    "Taunt",
    "Rage",
    "Super Leap",
    "Resistance"
  ],
  "power_levels": [
    0,
    0,
    0,
    0,
    0,
    0,
    0,
    0,
    0,
    0,
    0,
    0,
    0,
    0
  ],
  "powers": [
    {
      "power_category": "Rularuu",
      "power_set": "Reflections",
      "power": "*",
      "level": 0
    },
    {
      "power_category": "V_Arachnos",
      "power_set": "AV_Resistances",
      "power": "*",
      "level": 0
    },
    {
      "power_category": "V_Arachnos",
      "power_set": "Black_Scorpion",
      "power": "*",
      "level": 0
    }
  ],
  "levels": [
    {
      "level": 50,
      "experience": 0,
      "display_names": [
        "Echo of Black Scorpion"
      ],
      "costumes": [
        "Signature_Black_Scorpion"
      ]
    },
    {
      "level": 51,
      "experience": 0,
      "display_names": [
        "Echo of Black Scorpion"
      ],
      "costumes": [
        "Signature_Black_Scorpion"
      ]
    },
    {
      "level": 52,
      "experience": 0,
      "display_names": [
        "Echo of Black Scorpion"
      ],
      "costumes": [
        "Signature_Black_Scorpion"
      ]
    },
    {
      "level": 53,
      "experience": 0,
      "display_names": [
        "Echo of Black Scorpion"
      ],
      "costumes": [
        "Signature_Black_Scorpion"
      ]
    },
    {
      "level": 54,
      "experience": 0,
      "display_names": [
        "Echo of Black Scorpion"
      ],
      "costumes": [
        "Signature_Black_Scorpion"
      ]
    }
  ]
}