{
  "name": "Trolls_Boxing_Thug",
  "gender": "GENDER_MALE",
  "description": "The Trolls have abused their bodies with a particularly dangerous drug called Superadine. It has begun to literally turn them into monsters. These low ranking gang members are already showing signs of changing, but they still sometimes rely on conventional weapons.",
  "group_description": null,
  "display_class_name": null,
  "character_class_name": "minion_grunt",
  "ai_config": "Default_Melee",
  "commandable_pet": false,
  "power_tags": [
    "HumanSkeleton",
    "Human"
  ],
  "additional_rewards": [

  ],
  "skill_hp_rewards": [

  ],
  "skill_status_rewards": [

  ],
  "ally": null,
  "gang": null,
  "reward_scale": 1.0,
  "game_exclusion": "None",
  "inactive_state_weapon": null,
  "ignores_combat_mods": false,
  "copy_creator_mods": false,
  "spawn_limit": -1,
  "spawn_limit_mission": -1,
  "ignore_av_to_eb_scaling": false,
  "can_zone": false,
  "custom_badge_stat": null,
  "badge_stat_flags": "DefaultBadgeStat",
  "rank": "VR_MINION",
  "power_full_names": [
    "Trolls.Trolls_All.Resistance",
    "Trolls.Trolls_Minion_Melee.Jab",
    "Trolls.Trolls_SubMachineGun.Submachine_Gun"
  ],
  "power_display_names": [
    "Resistance",
    "Jab",
    "Submachine Gun"
  ],
  "power_levels": [
    0,
    0,
    0
  ],
  "powers": [
    {
      "power_category": "Trolls",
      "power_set": "Trolls_All",
      "power": "*",
      "level": 0
    },
    {
      "power_category": "Trolls",
      "power_set": "Trolls_Minion_Melee",
      "power": "*",
      "level": 0
    },
    {
      "power_category": "Trolls",
      "power_set": "Trolls_SubMachineGun",
      "power": "*",
      "level": 0
    }
  ],
  "levels": [
    {
      "level": 11,
      "experience": 0,
      "display_names": [
        "Trollkin Gunner"
      ],
      "costumes": [
        "Thug_Troll_01",
        "Thug_Troll_02",
        "Thug_Troll_03",
        "Thug_Troll_04",
        "Thug_Troll_05",
        "Thug_Troll_06"
      ]
    },
    {
      "level": 12,
      "experience": 0,
      "display_names": [
        "Trollkin Gunner"
      ],
      "costumes": [
        "Thug_Troll_01",
        "Thug_Troll_02",
        "Thug_Troll_03",
        "Thug_Troll_04",
        "Thug_Troll_05",
        "Thug_Troll_06"
      ]
    },
    {
      "level": 13,
      "experience": 0,
      "display_names": [
        "Trollkin Gunner"
      ],
      "costumes": [
        "Thug_Troll_01",
        "Thug_Troll_02",
        "Thug_Troll_03",
        "Thug_Troll_04",
        "Thug_Troll_05",
        "Thug_Troll_06"
      ]
    },
    {
      "level": 14,
      "experience": 0,
      "display_names": [
        "Trollkin Gunner"
      ],
      "costumes": [
        "Thug_Troll_01",
        "Thug_Troll_02",
        "Thug_Troll_03",
        "Thug_Troll_04",
        "Thug_Troll_05",
        "Thug_Troll_06"
      ]
    },
    {
      "level": 15,
      "experience": 0,
      "display_names": [
        "Trollkin Gunner"
      ],
      "costumes": [
        "Thug_Troll_01",
        "Thug_Troll_02",
        "Thug_Troll_03",
        "Thug_Troll_04",
        "Thug_Troll_05",
        "Thug_Troll_06"
      ]
    },
    {
      "level": 16,
      "experience": 0,
      "display_names": [
        "Trollkin Gunner"
      ],
      "costumes": [
        "Thug_Troll_01",
        "Thug_Troll_02",
        "Thug_Troll_03",
        "Thug_Troll_04",
        "Thug_Troll_05",
        "Thug_Troll_06"
      ]
    },
    {
      "level": 17,
      "experience": 0,
      "display_names": [
        "Trollkin Gunner"
      ],
      "costumes": [
        "Thug_Troll_01",
        "Thug_Troll_02",
        "Thug_Troll_03",
        "Thug_Troll_04",
        "Thug_Troll_05",
        "Thug_Troll_06"
      ]
    },
    {
      "level": 18,
      "experience": 0,
      "display_names": [
        "Trollkin Gunner"
      ],
      "costumes": [
        "Thug_Troll_01",
        "Thug_Troll_02",
        "Thug_Troll_03",
        "Thug_Troll_04",
        "Thug_Troll_05",
        "Thug_Troll_06"
      ]
    },
    {
      "level": 19,
      "experience": 0,
      "display_names": [
        "Trollkin Gunner"
      ],
      "costumes": [
        "Thug_Troll_01",
        "Thug_Troll_02",
        "Thug_Troll_03",
        "Thug_Troll_04",
        "Thug_Troll_05",
        "Thug_Troll_06"
      ]
    },
    {
      "level": 20,
      "experience": 0,
      "display_names": [
        "Trollkin Gunner"
      ],
      "costumes": [
        "Thug_Troll_01",
        "Thug_Troll_02",
        "Thug_Troll_03",
        "Thug_Troll_04",
        "Thug_Troll_05",
        "Thug_Troll_06"
      ]
    }
  ]
}