{
  "name": "Trolls_Rave_Supa_Troll",
  "gender": "GENDER_MALE",
  "description": "This is the Supa Trolls' moment of glory, for they have become what every Troll wants to be: pure incarnations of bestial fury. They have taken so much Superadine, their strength is simply amazing.",
  "group_description": null,
  "display_class_name": null,
  "character_class_name": "lt_grunt",
  "ai_config": "Default_Melee",
  "commandable_pet": false,
  "power_tags": [
    "HumanSkeleton",
    "Human"
  ],
  "additional_rewards": [

  ],
  "skill_hp_rewards": [

  ],
  "skill_status_rewards": [

  ],
  "ally": null,
  "gang": null,
  "reward_scale": 1.0,
  "game_exclusion": "None",
  "inactive_state_weapon": null,
  "ignores_combat_mods": false,
  "copy_creator_mods": false,
  "spawn_limit": 0,
  "spawn_limit_mission": 0,
  "ignore_av_to_eb_scaling": false,
  "can_zone": false,
  "custom_badge_stat": null,
  "badge_stat_flags": "DefaultBadgeStat",
  "rank": "VR_LIEUTENANT",
  "power_full_names": [
    "Trolls.Rave_Trolls_All.Resistance",
    "Trolls.Troll_Lt_Boss_Defense.Fast_Healing",
    "Trolls.Troll_Caliban_Powers.Punch",
    "Trolls.Troll_Caliban_Powers.Haymaker",
    "Trolls.Troll_Caliban_Powers.Foot_Stomp",
    "Trolls.Troll_Caliban_Powers.Hurl_Boulder",
    "Trolls.Troll_Caliban_Powers.Invincible"
  ],
  "power_display_names": [
    "Resistance",
    "Fast Healing",
    "Punch",
    "Haymaker",
    "Foot Stomp",
    "Hurl Boulder",
    "Invincible"
  ],
  "power_levels": [
    0,
    0,
    0,
    0,
    0,
    0,
    0
  ],
  "powers": [
    {
      "power_category": "Trolls",
      "power_set": "Rave_Trolls_All",
      "power": "*",
      "level": 0
    },
    {
      "power_category": "Trolls",
      "power_set": "Troll_Lt_Boss_Defense",
      "power": "*",
      "level": 0
    },
    {
      "power_category": "Trolls",
      "power_set": "Troll_Caliban_Powers",
      "power": "*",
      "level": 0
    }
  ],
  "levels": [
    {
      "level": 13,
      "experience": 0,
      "display_names": [
        "Supa Troll"
      ],
      "costumes": [
        "Thug_Troll_Super_Troll"
      ]
    },
    {
      "level": 14,
      "experience": 0,
      "display_names": [
        "Supa Troll"
      ],
      "costumes": [
        "Thug_Troll_Super_Troll"
      ]
    },
    {
      "level": 15,
      "experience": 0,
      "display_names": [
        "Supa Troll"
      ],
      "costumes": [
        "Thug_Troll_Super_Troll"
      ]
    },
    {
      "level": 16,
      "experience": 0,
      "display_names": [
        "Supa Troll"
      ],
      "costumes": [
        "Thug_Troll_Super_Troll"
      ]
    },
    {
      "level": 17,
      "experience": 0,
      "display_names": [
        "Supa Troll"
      ],
      "costumes": [
        "Thug_Troll_Super_Troll"
      ]
    },
    {
      "level": 18,
      "experience": 0,
      "display_names": [
        "Supa Troll"
      ],
      "costumes": [
        "Thug_Troll_Super_Troll"
      ]
    },
    {
      "level": 19,
      "experience": 0,
      "display_names": [
        "Supa Troll"
      ],
      "costumes": [
        "Thug_Troll_Super_Troll"
      ]
    }
  ]
}