{
  "name": "Tsoo_Boss_06",
  "gender": "GENDER_MALE",
  "description": "The Midnight Order draws its fearsome might from the darkest places within the spirit, amplifying and focusing this darkness into a number of devastating attacks.",
  "group_description": null,
  "display_class_name": null,
  "character_class_name": "boss_grunt",
  "ai_config": "Tsoo_Minion",
  "commandable_pet": false,
  "power_tags": [
    "HumanSkeleton",
    "Human"
  ],
  "additional_rewards": [

  ],
  "skill_hp_rewards": [

  ],
  "skill_status_rewards": [

  ],
  "ally": null,
  "gang": null,
  "reward_scale": 1.2,
  "game_exclusion": "None",
  "inactive_state_weapon": null,
  "ignores_combat_mods": false,
  "copy_creator_mods": false,
  "spawn_limit": 1,
  "spawn_limit_mission": 1,
  "ignore_av_to_eb_scaling": false,
  "can_zone": false,
  "custom_badge_stat": null,
  "badge_stat_flags": "DefaultBadgeStat",
  "rank": "VR_BOSS",
  "power_full_names": [
    "Tsoo.Midnight.Shadow_Punch",
    "Tsoo.Midnight.Smite",
    "Tsoo.Midnight.Midnight_Grasp",
    "Tsoo.Midnight.Katana_Hack",
    "Tsoo.Midnight.Katana_Slash",
    "Tsoo.Midnight.Whirling_Katana",
    "Tsoo.Midnight.Dark_Blast",
    "Tsoo.Tsoo_Movement.Super_Leap",
    "Tsoo.Tsoo_InkMen_Boss_Defense.Resistance"
  ],
  "power_display_names": [
    "Shadow Punch",
    "Smite",
    "Midnight Grasp",
    "Katana Hack",
    "Katana Slash",
    "Whirling Katana",
    "Dark Blast",
    "Super Leap",
    "Resistance"
  ],
  "power_levels": [
    0,
    0,
    0,
    0,
    0,
    0,
    0,
    0,
    0
  ],
  "powers": [
    {
      "power_category": "Tsoo",
      "power_set": "Midnight",
      "power": "*",
      "level": 0
    },
    {
      "power_category": "Tsoo",
      "power_set": "Tsoo_Movement",
      "power": "*",
      "level": 0
    },
    {
      "power_category": "Tsoo",
      "power_set": "Tsoo_InkMen_Boss_Defense",
      "power": "*",
      "level": 0
    }
  ],
  "levels": [
    {
      "level": 18,
      "experience": 0,
      "display_names": [
        "Midnight"
      ],
      "costumes": [
        "Tsoo_06"
      ]
    },
    {
      "level": 19,
      "experience": 0,
      "display_names": [
        "Midnight"
      ],
      "costumes": [
        "Tsoo_06"
      ]
    },
    {
      "level": 20,
      "experience": 0,
      "display_names": [
        "Midnight"
      ],
      "costumes": [
        "Tsoo_06"
      ]
    },
    {
      "level": 21,
      "experience": 0,
      "display_names": [
        "Midnight"
      ],
      "costumes": [
        "Tsoo_06"
      ]
    },
    {
      "level": 22,
      "experience": 0,
      "display_names": [
        "Midnight"
      ],
      "costumes": [
        "Tsoo_06"
      ]
    }
  ]
}