{
  "name": "Tsoo_Boss_16",
  "gender": "GENDER_MALE",
  "description": "The masters called Heralds have sharpened their mental focus to a deadly weapon. They can use the power of their will to render their enemies helpless before their weapons.",
  "group_description": null,
  "display_class_name": null,
  "character_class_name": "boss_grunt",
  "ai_config": "Tsoo_Minion",
  "commandable_pet": false,
  "power_tags": [
    "HumanSkeleton",
    "Human"
  ],
  "additional_rewards": [

  ],
  "skill_hp_rewards": [

  ],
  "skill_status_rewards": [

  ],
  "ally": null,
  "gang": null,
  "reward_scale": 1.2,
  "game_exclusion": "None",
  "inactive_state_weapon": null,
  "ignores_combat_mods": false,
  "copy_creator_mods": false,
  "spawn_limit": 1,
  "spawn_limit_mission": 1,
  "ignore_av_to_eb_scaling": false,
  "can_zone": false,
  "custom_badge_stat": null,
  "badge_stat_flags": "DefaultBadgeStat",
  "rank": "VR_BOSS",
  "power_full_names": [
    "Tsoo.Herald.Mesmerize",
    "Tsoo.Herald.Dominate",
    "Tsoo.Herald.Kama",
    "Tsoo.Herald.Sai",
    "Tsoo.Tsoo_Movement.Super_Leap",
    "Tsoo.Tsoo_InkMen_Boss_Defense.Resistance"
  ],
  "power_display_names": [
    "Mesmerize",
    "Dominate",
    "Kama",
    "Sai",
    "Super Leap",
    "Resistance"
  ],
  "power_levels": [
    0,
    0,
    0,
    0,
    0,
    0
  ],
  "powers": [
    {
      "power_category": "Tsoo",
      "power_set": "Herald",
      "power": "*",
      "level": 0
    },
    {
      "power_category": "Tsoo",
      "power_set": "Tsoo_Movement",
      "power": "*",
      "level": 0
    },
    {
      "power_category": "Tsoo",
      "power_set": "Tsoo_InkMen_Boss_Defense",
      "power": "*",
      "level": 0
    }
  ],
  "levels": [
    {
      "level": 26,
      "experience": 0,
      "display_names": [
        "Herald"
      ],
      "costumes": [
        "Tsoo_16"
      ]
    },
    {
      "level": 27,
      "experience": 0,
      "display_names": [
        "Herald"
      ],
      "costumes": [
        "Tsoo_16"
      ]
    },
    {
      "level": 28,
      "experience": 0,
      "display_names": [
        "Herald"
      ],
      "costumes": [
        "Tsoo_16"
      ]
    },
    {
      "level": 29,
      "experience": 0,
      "display_names": [
        "Herald"
      ],
      "costumes": [
        "Tsoo_16"
      ]
    }
  ]
}