{
  "name": "TsooEndgame_Special_MN_FarFire",
  "gender": "GENDER_MALE",
  "description": "The Far Fire style utilizes the Tsoo's internal energy to burn the very air. Far Fire masters can hurl flame at enemies to burn, blind, or entrap them.",
  "group_description": null,
  "display_class_name": null,
  "character_class_name": "minion_praetoriangrunt",
  "ai_config": "Tsoo_Minion",
  "commandable_pet": false,
  "power_tags": [
    "HumanSkeleton",
    "Human"
  ],
  "additional_rewards": [

  ],
  "skill_hp_rewards": [

  ],
  "skill_status_rewards": [

  ],
  "ally": null,
  "gang": null,
  "reward_scale": 1.0,
  "game_exclusion": "None",
  "inactive_state_weapon": null,
  "ignores_combat_mods": false,
  "copy_creator_mods": false,
  "spawn_limit": 1,
  "spawn_limit_mission": 1,
  "ignore_av_to_eb_scaling": false,
  "can_zone": false,
  "custom_badge_stat": null,
  "badge_stat_flags": "DefaultBadgeStat",
  "rank": "VR_MINION",
  "power_full_names": [
    "Tsoo.Endgame_MN_FarFire.Flares",
    "Tsoo.Endgame_MN_FarFire.Ring_of_Fire",
    "Tsoo.Endgame_MN_FarFire.Fire_Katana_Hack",
    "Tsoo.Endgame_MN_FarFire.Fire_Katana_Slash",
    "Tsoo.Tsoo_Movement.Super_Leap",
    "Tsoo.Resistances.Damage_Endgame_MN"
  ],
  "power_display_names": [
    "Flares",
    "Ring of Fire",
    "Fire Katana Hack",
    "Fire Katana Slash",
    "Super Leap",
    "Damage Resistance"
  ],
  "power_levels": [
    0,
    0,
    0,
    0,
    0,
    0
  ],
  "powers": [
    {
      "power_category": "Tsoo",
      "power_set": "Endgame_MN_FarFire",
      "power": "*",
      "level": 0
    },
    {
      "power_category": "Tsoo",
      "power_set": "Tsoo_Movement",
      "power": "*",
      "level": 0
    },
    {
      "power_category": "Tsoo",
      "power_set": "Resistances",
      "power": "Damage_Endgame_MN",
      "level": 0
    }
  ],
  "levels": [
    {
      "level": 50,
      "experience": 0,
      "display_names": [
        "Far Fire"
      ],
      "costumes": [
        "Tsoo_02"
      ]
    },
    {
      "level": 51,
      "experience": 0,
      "display_names": [
        "Far Fire"
      ],
      "costumes": [
        "Tsoo_02"
      ]
    },
    {
      "level": 52,
      "experience": 0,
      "display_names": [
        "Far Fire"
      ],
      "costumes": [
        "Tsoo_02"
      ]
    },
    {
      "level": 53,
      "experience": 0,
      "display_names": [
        "Far Fire"
      ],
      "costumes": [
        "Tsoo_02"
      ]
    },
    {
      "level": 54,
      "experience": 0,
      "display_names": [
        "Far Fire"
      ],
      "costumes": [
        "Tsoo_02"
      ]
    }
  ]
}