{
  "name": "Turrets_BAF_Turret_NoDesignator",
  "gender": "GENDER_MALE",
  "description": "These high energy projection devices were designed by Anti-Matter to aid in the defense of Praetoria. They have been repurposed here to help keep order in the Behavioral Adjustment Facility.",
  "group_description": "Object",
  "display_class_name": "Object",
  "character_class_name": "boss_grunt",
  "ai_config": "Turrets_Base",
  "commandable_pet": false,
  "power_tags": [

  ],
  "additional_rewards": [

  ],
  "skill_hp_rewards": [

  ],
  "skill_status_rewards": [

  ],
  "ally": null,
  "gang": null,
  "reward_scale": 1.0,
  "game_exclusion": "None",
  "inactive_state_weapon": null,
  "ignores_combat_mods": false,
  "copy_creator_mods": false,
  "spawn_limit": 0,
  "spawn_limit_mission": 0,
  "ignore_av_to_eb_scaling": true,
  "can_zone": false,
  "custom_badge_stat": null,
  "badge_stat_flags": "DefaultBadgeStat",
  "rank": "VR_DESTRUCTIBLE",
  "power_full_names": [
    "Objects.Highly_Tough.Resistance",
    "Turrets.Turret_Inherent.Resistance",
    "Turrets.BAFTurret.Blaster",
    "Turrets.BAFConsole.Shutdown",
    "Turrets.BAFConsole2.Shutdown2"
  ],
  "power_display_names": [
    "Resistance",
    "Resistance",
    "Blaster",
    "Shutdown",
    "Shutdown2"
  ],
  "power_levels": [
    0,
    0,
    0,
    0,
    0
  ],
  "powers": [
    {
      "power_category": "Objects",
      "power_set": "Highly_Tough",
      "power": "*",
      "level": 0
    },
    {
      "power_category": "Turrets",
      "power_set": "Turret_Inherent",
      "power": "*",
      "level": 0
    },
    {
      "power_category": "Turrets",
      "power_set": "BAFTurret",
      "power": "Blaster",
      "level": 0
    },
    {
      "power_category": "Turrets",
      "power_set": "BAFConsole",
      "power": "*",
      "level": 0
    },
    {
      "power_category": "Turrets",
      "power_set": "BAFConsole2",
      "power": "*",
      "level": 0
    }
  ],
  "levels": [
    {
      "level": 54,
      "experience": 0,
      "display_names": [
        "Emergency Level Pacification Device"
      ],
      "costumes": [
        "Puddle"
      ]
    }
  ]
}