{
  "name": "Turrets_Lambda_Turret",
  "gender": "GENDER_MALE",
  "description": "Armed with plasma weaponry capable of piercing through the toughest of armor, these turrets are an incredibly effective deterrent for keeping trespassers out of the Lambda sector and other vital Praetorian military outposts.",
  "group_description": null,
  "display_class_name": null,
  "character_class_name": "boss_praetorianelite",
  "ai_config": "Default_Sniper",
  "commandable_pet": false,
  "power_tags": [
    "Electronic"
  ],
  "additional_rewards": [

  ],
  "skill_hp_rewards": [

  ],
  "skill_status_rewards": [

  ],
  "ally": null,
  "gang": null,
  "reward_scale": 1.0,
  "game_exclusion": "None",
  "inactive_state_weapon": null,
  "ignores_combat_mods": false,
  "copy_creator_mods": false,
  "spawn_limit": 0,
  "spawn_limit_mission": 0,
  "ignore_av_to_eb_scaling": false,
  "can_zone": false,
  "custom_badge_stat": null,
  "badge_stat_flags": "DefaultBadgeStat",
  "rank": "VR_ELITE",
  "power_full_names": [
    "PraetorianIDF.Lambda_Turret.Plasma_Cannon_Barrage",
    "PraetorianIDF.Lambda_Turret.Plasma_Cannon_Shell",
    "PraetorianIDF.Lambda_Turret.Rapid_Repair"
  ],
  "power_display_names": [
    "Plasma Cannon Barrage",
    "Plasma Cannon Shell",
    "Rapid Repair"
  ],
  "power_levels": [
    0,
    0,
    0
  ],
  "powers": [
    {
      "power_category": "PraetorianIDF",
      "power_set": "Lambda_Turret",
      "power": "*",
      "level": 0
    }
  ],
  "levels": [
    {
      "level": 50,
      "experience": 0,
      "display_names": [
        "Lambda Sector Turret"
      ],
      "costumes": [
        "Lambda_Sector_Turret"
      ]
    },
    {
      "level": 51,
      "experience": 0,
      "display_names": [
        "Lambda Sector Turret"
      ],
      "costumes": [
        "Lambda_Sector_Turret"
      ]
    },
    {
      "level": 52,
      "experience": 0,
      "display_names": [
        "Lambda Sector Turret"
      ],
      "costumes": [
        "Lambda_Sector_Turret"
      ]
    },
    {
      "level": 53,
      "experience": 0,
      "display_names": [
        "Lambda Sector Turret"
      ],
      "costumes": [
        "Lambda_Sector_Turret"
      ]
    },
    {
      "level": 54,
      "experience": 0,
      "display_names": [
        "Lambda Sector Turret"
      ],
      "costumes": [
        "Lambda_Sector_Turret"
      ]
    }
  ]
}