{
  "name": "Tyrant_Tyrant_Escape",
  "gender": "GENDER_MALE",
  "description": "The Olympian Guard are the most trusted and elite of Emperor Cole's super soldiers. Cloned from Tyrant's DNA, they have all of his abilities and an unswerving loyalty to the leader of Praetoria.",
  "group_description": "Praetorians",
  "display_class_name": null,
  "character_class_name": "boss_archvillain",
  "ai_config": "Signatures_Ranged",
  "commandable_pet": false,
  "power_tags": [
    "HumanSkeleton",
    "Human",
    "Raid"
  ],
  "additional_rewards": [

  ],
  "skill_hp_rewards": [

  ],
  "skill_status_rewards": [

  ],
  "ally": null,
  "gang": null,
  "reward_scale": 1.0,
  "game_exclusion": "None",
  "inactive_state_weapon": null,
  "ignores_combat_mods": false,
  "copy_creator_mods": false,
  "spawn_limit": -1,
  "spawn_limit_mission": -1,
  "ignore_av_to_eb_scaling": false,
  "can_zone": false,
  "custom_badge_stat": null,
  "badge_stat_flags": "DefaultBadgeStat",
  "rank": "VR_ARCHVILLAIN",
  "power_full_names": [
    "Praetorians.Tyrant.Resistance",
    "Praetorians.Tyrant.Fly",
    "Praetorians.Tyrant.Fly_fx",
    "Praetorians.Tyrant.Energy_Punch",
    "Praetorians.Tyrant.Bone_Smasher",
    "Praetorians.Tyrant.Whirling_Hands",
    "Praetorians.Tyrant.Stun",
    "Praetorians.Tyrant.Total_Focus",
    "Praetorians.Tyrant.Laser_Beam_Eyes",
    "Praetorians.Tyrant.Temp_Invulnerability",
    "Praetorians.Tyrant_Alt.Escape"
  ],
  "power_display_names": [
    "Resistance",
    "Fly",
    "Fly fx",
    "Energy Punch",
    "Bone Smasher",
    "Whirling Hands",
    "Stun",
    "Total Focus",
    "Laser Beam Eyes",
    "Temp Invulnerability",
    "Escape"
  ],
  "power_levels": [
    0,
    0,
    0,
    0,
    0,
    0,
    0,
    0,
    0,
    0,
    0
  ],
  "powers": [
    {
      "power_category": "Praetorians",
      "power_set": "Tyrant",
      "power": "*",
      "level": 0
    },
    {
      "power_category": "Praetorians",
      "power_set": "Tyrant_Alt",
      "power": "*",
      "level": 0
    }
  ],
  "levels": [
    {
      "level": 40,
      "experience": 0,
      "display_names": [
        "Tyrant"
      ],
      "costumes": [
        "Tyrant_Escape"
      ]
    },
    {
      "level": 41,
      "experience": 0,
      "display_names": [
        "Tyrant"
      ],
      "costumes": [
        "Tyrant_Escape"
      ]
    },
    {
      "level": 42,
      "experience": 0,
      "display_names": [
        "Tyrant"
      ],
      "costumes": [
        "Tyrant_Escape"
      ]
    },
    {
      "level": 43,
      "experience": 0,
      "display_names": [
        "Tyrant"
      ],
      "costumes": [
        "Tyrant_Escape"
      ]
    },
    {
      "level": 44,
      "experience": 0,
      "display_names": [
        "Tyrant"
      ],
      "costumes": [
        "Tyrant_Escape"
      ]
    },
    {
      "level": 45,
      "experience": 0,
      "display_names": [
        "Tyrant"
      ],
      "costumes": [
        "Tyrant_Escape"
      ]
    },
    {
      "level": 46,
      "experience": 0,
      "display_names": [
        "Tyrant"
      ],
      "costumes": [
        "Tyrant_Escape"
      ]
    },
    {
      "level": 47,
      "experience": 0,
      "display_names": [
        "Tyrant"
      ],
      "costumes": [
        "Tyrant_Escape"
      ]
    },
    {
      "level": 48,
      "experience": 0,
      "display_names": [
        "Tyrant"
      ],
      "costumes": [
        "Tyrant_Escape"
      ]
    },
    {
      "level": 49,
      "experience": 0,
      "display_names": [
        "Tyrant"
      ],
      "costumes": [
        "Tyrant_Escape"
      ]
    },
    {
      "level": 50,
      "experience": 0,
      "display_names": [
        "Tyrant"
      ],
      "costumes": [
        "Tyrant_Escape"
      ]
    },
    {
      "level": 51,
      "experience": 0,
      "display_names": [
        "Tyrant"
      ],
      "costumes": [
        "Tyrant_Escape"
      ]
    },
    {
      "level": 52,
      "experience": 0,
      "display_names": [
        "Tyrant"
      ],
      "costumes": [
        "Tyrant_Escape"
      ]
    },
    {
      "level": 53,
      "experience": 0,
      "display_names": [
        "Tyrant"
      ],
      "costumes": [
        "Tyrant_Escape"
      ]
    },
    {
      "level": 54,
      "experience": 0,
      "display_names": [
        "Tyrant"
      ],
      "costumes": [
        "Tyrant_Escape"
      ]
    }
  ]
}