{
  "name": "UnifiedPeoplesArmy_Commando_Male",
  "gender": "GENDER_MALE",
  "description": "The members of the Resistance in the Unified People's Army make up those who were loyal to Calvin Scott's vision. They were unphased when it was revealed that he had a mental disorder causing him to believe that Aurora Pena was his wife; what mattered was the goal of fighting for the freedom of a new tomorrow. They fight now in the Unified People's Army with the belief that they stand for the freedom of mankind, even if mankind doesn't realize it.",
  "group_description": null,
  "display_class_name": null,
  "character_class_name": "minion_grunt",
  "ai_config": "Default_Ranged",
  "commandable_pet": false,
  "power_tags": [
    "HumanSkeleton",
    "Human"
  ],
  "additional_rewards": [

  ],
  "skill_hp_rewards": [

  ],
  "skill_status_rewards": [

  ],
  "ally": null,
  "gang": null,
  "reward_scale": 1.0,
  "game_exclusion": "None",
  "inactive_state_weapon": null,
  "ignores_combat_mods": false,
  "copy_creator_mods": false,
  "spawn_limit": -1,
  "spawn_limit_mission": -1,
  "ignore_av_to_eb_scaling": false,
  "can_zone": false,
  "custom_badge_stat": null,
  "badge_stat_flags": "DefaultBadgeStat",
  "rank": "VR_MINION",
  "power_full_names": [
    "PraetorianResistance.LT_Rifle.Power_Punch",
    "PraetorianResistance.LT_Rifle.Power_Punch2",
    "PraetorianResistance.LT_Rifle.Single_Shot",
    "PraetorianResistance.LT_Rifle.Heavy_Burst",
    "PraetorianResistance.LT_Rifle.Covering_Fire"
  ],
  "power_display_names": [
    "Power Punch",
    "Power Punch",
    "Single Shot",
    "Heavy Burst",
    "Covering Fire"
  ],
  "power_levels": [
    0,
    0,
    0,
    0,
    0
  ],
  "powers": [
    {
      "power_category": "PraetorianResistance",
      "power_set": "LT_Rifle",
      "power": "*",
      "level": 0
    }
  ],
  "levels": [
    {
      "level": 30,
      "experience": 0,
      "display_names": [
        "Commando"
      ],
      "costumes": [
        "Resistance_Commando_01",
        "Resistance_Commando_02",
        "Resistance_Commando_03"
      ]
    },
    {
      "level": 31,
      "experience": 0,
      "display_names": [
        "Commando"
      ],
      "costumes": [
        "Resistance_Commando_01",
        "Resistance_Commando_02",
        "Resistance_Commando_03"
      ]
    },
    {
      "level": 32,
      "experience": 0,
      "display_names": [
        "Commando"
      ],
      "costumes": [
        "Resistance_Commando_01",
        "Resistance_Commando_02",
        "Resistance_Commando_03"
      ]
    },
    {
      "level": 33,
      "experience": 0,
      "display_names": [
        "Commando"
      ],
      "costumes": [
        "Resistance_Commando_01",
        "Resistance_Commando_02",
        "Resistance_Commando_03"
      ]
    },
    {
      "level": 34,
      "experience": 0,
      "display_names": [
        "Commando"
      ],
      "costumes": [
        "Resistance_Commando_01",
        "Resistance_Commando_02",
        "Resistance_Commando_03"
      ]
    },
    {
      "level": 35,
      "experience": 0,
      "display_names": [
        "Commando"
      ],
      "costumes": [
        "Resistance_Commando_01",
        "Resistance_Commando_02",
        "Resistance_Commando_03"
      ]
    },
    {
      "level": 36,
      "experience": 0,
      "display_names": [
        "Commando"
      ],
      "costumes": [
        "Resistance_Commando_01",
        "Resistance_Commando_02",
        "Resistance_Commando_03"
      ]
    },
    {
      "level": 37,
      "experience": 0,
      "display_names": [
        "Commando"
      ],
      "costumes": [
        "Resistance_Commando_01",
        "Resistance_Commando_02",
        "Resistance_Commando_03"
      ]
    },
    {
      "level": 38,
      "experience": 0,
      "display_names": [
        "Commando"
      ],
      "costumes": [
        "Resistance_Commando_01",
        "Resistance_Commando_02",
        "Resistance_Commando_03"
      ]
    },
    {
      "level": 39,
      "experience": 0,
      "display_names": [
        "Commando"
      ],
      "costumes": [
        "Resistance_Commando_01",
        "Resistance_Commando_02",
        "Resistance_Commando_03"
      ]
    },
    {
      "level": 40,
      "experience": 0,
      "display_names": [
        "Commando"
      ],
      "costumes": [
        "Resistance_Commando_01",
        "Resistance_Commando_02",
        "Resistance_Commando_03"
      ]
    },
    {
      "level": 41,
      "experience": 0,
      "display_names": [
        "Commando"
      ],
      "costumes": [
        "Resistance_Commando_01",
        "Resistance_Commando_02",
        "Resistance_Commando_03"
      ]
    },
    {
      "level": 42,
      "experience": 0,
      "display_names": [
        "Commando"
      ],
      "costumes": [
        "Resistance_Commando_01",
        "Resistance_Commando_02",
        "Resistance_Commando_03"
      ]
    },
    {
      "level": 43,
      "experience": 0,
      "display_names": [
        "Commando"
      ],
      "costumes": [
        "Resistance_Commando_01",
        "Resistance_Commando_02",
        "Resistance_Commando_03"
      ]
    },
    {
      "level": 44,
      "experience": 0,
      "display_names": [
        "Commando"
      ],
      "costumes": [
        "Resistance_Commando_01",
        "Resistance_Commando_02",
        "Resistance_Commando_03"
      ]
    },
    {
      "level": 45,
      "experience": 0,
      "display_names": [
        "Commando"
      ],
      "costumes": [
        "Resistance_Commando_01",
        "Resistance_Commando_02",
        "Resistance_Commando_03"
      ]
    },
    {
      "level": 46,
      "experience": 0,
      "display_names": [
        "Commando"
      ],
      "costumes": [
        "Resistance_Commando_01",
        "Resistance_Commando_02",
        "Resistance_Commando_03"
      ]
    },
    {
      "level": 47,
      "experience": 0,
      "display_names": [
        "Commando"
      ],
      "costumes": [
        "Resistance_Commando_01",
        "Resistance_Commando_02",
        "Resistance_Commando_03"
      ]
    },
    {
      "level": 48,
      "experience": 0,
      "display_names": [
        "Commando"
      ],
      "costumes": [
        "Resistance_Commando_01",
        "Resistance_Commando_02",
        "Resistance_Commando_03"
      ]
    },
    {
      "level": 49,
      "experience": 0,
      "display_names": [
        "Commando"
      ],
      "costumes": [
        "Resistance_Commando_01",
        "Resistance_Commando_02",
        "Resistance_Commando_03"
      ]
    },
    {
      "level": 50,
      "experience": 0,
      "display_names": [
        "Commando"
      ],
      "costumes": [
        "Resistance_Commando_01",
        "Resistance_Commando_02",
        "Resistance_Commando_03"
      ]
    },
    {
      "level": 51,
      "experience": 0,
      "display_names": [
        "Commando"
      ],
      "costumes": [
        "Resistance_Commando_01",
        "Resistance_Commando_02",
        "Resistance_Commando_03"
      ]
    },
    {
      "level": 52,
      "experience": 0,
      "display_names": [
        "Commando"
      ],
      "costumes": [
        "Resistance_Commando_01",
        "Resistance_Commando_02",
        "Resistance_Commando_03"
      ]
    },
    {
      "level": 53,
      "experience": 0,
      "display_names": [
        "Commando"
      ],
      "costumes": [
        "Resistance_Commando_01",
        "Resistance_Commando_02",
        "Resistance_Commando_03"
      ]
    },
    {
      "level": 54,
      "experience": 0,
      "display_names": [
        "Commando"
      ],
      "costumes": [
        "Resistance_Commando_01",
        "Resistance_Commando_02",
        "Resistance_Commando_03"
      ]
    }
  ]
}