{
  "name": "UnifiedPeoplesArmy_Infiltrator_Male",
  "gender": "GENDER_MALE",
  "description": "The Infiltrators are elite assassins, drawn from the ranks of both Loyalist and Resistance. They are fanatically devoted to Calvin Scott and his mission. They are equipped with advanced targeting computers that allow them to update combat assessments in real time, improving the effectiveness of their attacks and those of their allies. Infiltrators are both willing and able to take as many lives as possible in the name of bringing about their vision of the world.",
  "group_description": null,
  "display_class_name": null,
  "character_class_name": "lt_grunt",
  "ai_config": "Default_Ranged",
  "commandable_pet": false,
  "power_tags": [
    "HumanSkeleton",
    "Human"
  ],
  "additional_rewards": [

  ],
  "skill_hp_rewards": [

  ],
  "skill_status_rewards": [

  ],
  "ally": null,
  "gang": null,
  "reward_scale": 1.0,
  "game_exclusion": "None",
  "inactive_state_weapon": null,
  "ignores_combat_mods": false,
  "copy_creator_mods": false,
  "spawn_limit": -1,
  "spawn_limit_mission": -1,
  "ignore_av_to_eb_scaling": false,
  "can_zone": false,
  "custom_badge_stat": null,
  "badge_stat_flags": "DefaultBadgeStat",
  "rank": "VR_LIEUTENANT",
  "power_full_names": [
    "UnifiedPeoplesArmy.Infiltrator.Focused_Shot",
    "UnifiedPeoplesArmy.Infiltrator.Dual_Strike",
    "UnifiedPeoplesArmy.Infiltrator.Barrage",
    "UnifiedPeoplesArmy.Infiltrator.Storm_of_Bullets",
    "UnifiedPeoplesArmy.Infiltrator.Disrupting_Shot",
    "UnifiedPeoplesArmy.Infiltrator.Staggering_Shot",
    "UnifiedPeoplesArmy.Infiltrator.Targeting_Data_Acquired",
    "UnifiedPeoplesArmy.Infiltrator.Target_Designator"
  ],
  "power_display_names": [
    "Focused Shot",
    "Dual Strike",
    "Barrage",
    "Storm of Bullets",
    "Disrupting Shot",
    "Staggering Shot",
    "Targeting Data Acquired",
    "Target Designator"
  ],
  "power_levels": [
    0,
    0,
    0,
    0,
    0,
    0,
    0,
    0
  ],
  "powers": [
    {
      "power_category": "UnifiedPeoplesArmy",
      "power_set": "Infiltrator",
      "power": "*",
      "level": 0
    }
  ],
  "levels": [
    {
      "level": 30,
      "experience": 0,
      "display_names": [
        "Infiltrator"
      ],
      "costumes": [
        "UPA_Infiltrator_Male_01",
        "UPA_Infiltrator_Male_02",
        "UPA_Infiltrator_Male_03",
        "UPA_Infiltrator_Male_04"
      ]
    },
    {
      "level": 31,
      "experience": 0,
      "display_names": [
        "Infiltrator"
      ],
      "costumes": [
        "UPA_Infiltrator_Male_01",
        "UPA_Infiltrator_Male_02",
        "UPA_Infiltrator_Male_03",
        "UPA_Infiltrator_Male_04"
      ]
    },
    {
      "level": 32,
      "experience": 0,
      "display_names": [
        "Infiltrator"
      ],
      "costumes": [
        "UPA_Infiltrator_Male_01",
        "UPA_Infiltrator_Male_02",
        "UPA_Infiltrator_Male_03",
        "UPA_Infiltrator_Male_04"
      ]
    },
    {
      "level": 33,
      "experience": 0,
      "display_names": [
        "Infiltrator"
      ],
      "costumes": [
        "UPA_Infiltrator_Male_01",
        "UPA_Infiltrator_Male_02",
        "UPA_Infiltrator_Male_03",
        "UPA_Infiltrator_Male_04"
      ]
    },
    {
      "level": 34,
      "experience": 0,
      "display_names": [
        "Infiltrator"
      ],
      "costumes": [
        "UPA_Infiltrator_Male_01",
        "UPA_Infiltrator_Male_02",
        "UPA_Infiltrator_Male_03",
        "UPA_Infiltrator_Male_04"
      ]
    },
    {
      "level": 35,
      "experience": 0,
      "display_names": [
        "Infiltrator"
      ],
      "costumes": [
        "UPA_Infiltrator_Male_01",
        "UPA_Infiltrator_Male_02",
        "UPA_Infiltrator_Male_03",
        "UPA_Infiltrator_Male_04"
      ]
    },
    {
      "level": 36,
      "experience": 0,
      "display_names": [
        "Infiltrator"
      ],
      "costumes": [
        "UPA_Infiltrator_Male_01",
        "UPA_Infiltrator_Male_02",
        "UPA_Infiltrator_Male_03",
        "UPA_Infiltrator_Male_04"
      ]
    },
    {
      "level": 37,
      "experience": 0,
      "display_names": [
        "Infiltrator"
      ],
      "costumes": [
        "UPA_Infiltrator_Male_01",
        "UPA_Infiltrator_Male_02",
        "UPA_Infiltrator_Male_03",
        "UPA_Infiltrator_Male_04"
      ]
    },
    {
      "level": 38,
      "experience": 0,
      "display_names": [
        "Infiltrator"
      ],
      "costumes": [
        "UPA_Infiltrator_Male_01",
        "UPA_Infiltrator_Male_02",
        "UPA_Infiltrator_Male_03",
        "UPA_Infiltrator_Male_04"
      ]
    },
    {
      "level": 39,
      "experience": 0,
      "display_names": [
        "Infiltrator"
      ],
      "costumes": [
        "UPA_Infiltrator_Male_01",
        "UPA_Infiltrator_Male_02",
        "UPA_Infiltrator_Male_03",
        "UPA_Infiltrator_Male_04"
      ]
    },
    {
      "level": 40,
      "experience": 0,
      "display_names": [
        "Infiltrator"
      ],
      "costumes": [
        "UPA_Infiltrator_Male_01",
        "UPA_Infiltrator_Male_02",
        "UPA_Infiltrator_Male_03",
        "UPA_Infiltrator_Male_04"
      ]
    },
    {
      "level": 41,
      "experience": 0,
      "display_names": [
        "Infiltrator"
      ],
      "costumes": [
        "UPA_Infiltrator_Male_01",
        "UPA_Infiltrator_Male_02",
        "UPA_Infiltrator_Male_03",
        "UPA_Infiltrator_Male_04"
      ]
    },
    {
      "level": 42,
      "experience": 0,
      "display_names": [
        "Infiltrator"
      ],
      "costumes": [
        "UPA_Infiltrator_Male_01",
        "UPA_Infiltrator_Male_02",
        "UPA_Infiltrator_Male_03",
        "UPA_Infiltrator_Male_04"
      ]
    },
    {
      "level": 43,
      "experience": 0,
      "display_names": [
        "Infiltrator"
      ],
      "costumes": [
        "UPA_Infiltrator_Male_01",
        "UPA_Infiltrator_Male_02",
        "UPA_Infiltrator_Male_03",
        "UPA_Infiltrator_Male_04"
      ]
    },
    {
      "level": 44,
      "experience": 0,
      "display_names": [
        "Infiltrator"
      ],
      "costumes": [
        "UPA_Infiltrator_Male_01",
        "UPA_Infiltrator_Male_02",
        "UPA_Infiltrator_Male_03",
        "UPA_Infiltrator_Male_04"
      ]
    },
    {
      "level": 45,
      "experience": 0,
      "display_names": [
        "Infiltrator"
      ],
      "costumes": [
        "UPA_Infiltrator_Male_01",
        "UPA_Infiltrator_Male_02",
        "UPA_Infiltrator_Male_03",
        "UPA_Infiltrator_Male_04"
      ]
    },
    {
      "level": 46,
      "experience": 0,
      "display_names": [
        "Infiltrator"
      ],
      "costumes": [
        "UPA_Infiltrator_Male_01",
        "UPA_Infiltrator_Male_02",
        "UPA_Infiltrator_Male_03",
        "UPA_Infiltrator_Male_04"
      ]
    },
    {
      "level": 47,
      "experience": 0,
      "display_names": [
        "Infiltrator"
      ],
      "costumes": [
        "UPA_Infiltrator_Male_01",
        "UPA_Infiltrator_Male_02",
        "UPA_Infiltrator_Male_03",
        "UPA_Infiltrator_Male_04"
      ]
    },
    {
      "level": 48,
      "experience": 0,
      "display_names": [
        "Infiltrator"
      ],
      "costumes": [
        "UPA_Infiltrator_Male_01",
        "UPA_Infiltrator_Male_02",
        "UPA_Infiltrator_Male_03",
        "UPA_Infiltrator_Male_04"
      ]
    },
    {
      "level": 49,
      "experience": 0,
      "display_names": [
        "Infiltrator"
      ],
      "costumes": [
        "UPA_Infiltrator_Male_01",
        "UPA_Infiltrator_Male_02",
        "UPA_Infiltrator_Male_03",
        "UPA_Infiltrator_Male_04"
      ]
    },
    {
      "level": 50,
      "experience": 0,
      "display_names": [
        "Infiltrator"
      ],
      "costumes": [
        "UPA_Infiltrator_Male_01",
        "UPA_Infiltrator_Male_02",
        "UPA_Infiltrator_Male_03",
        "UPA_Infiltrator_Male_04"
      ]
    },
    {
      "level": 51,
      "experience": 0,
      "display_names": [
        "Infiltrator"
      ],
      "costumes": [
        "UPA_Infiltrator_Male_01",
        "UPA_Infiltrator_Male_02",
        "UPA_Infiltrator_Male_03",
        "UPA_Infiltrator_Male_04"
      ]
    },
    {
      "level": 52,
      "experience": 0,
      "display_names": [
        "Infiltrator"
      ],
      "costumes": [
        "UPA_Infiltrator_Male_01",
        "UPA_Infiltrator_Male_02",
        "UPA_Infiltrator_Male_03",
        "UPA_Infiltrator_Male_04"
      ]
    },
    {
      "level": 53,
      "experience": 0,
      "display_names": [
        "Infiltrator"
      ],
      "costumes": [
        "UPA_Infiltrator_Male_01",
        "UPA_Infiltrator_Male_02",
        "UPA_Infiltrator_Male_03",
        "UPA_Infiltrator_Male_04"
      ]
    },
    {
      "level": 54,
      "experience": 0,
      "display_names": [
        "Infiltrator"
      ],
      "costumes": [
        "UPA_Infiltrator_Male_01",
        "UPA_Infiltrator_Male_02",
        "UPA_Infiltrator_Male_03",
        "UPA_Infiltrator_Male_04"
      ]
    }
  ]
}