{
  "name": "UnifiedPeoplesArmy_ShockTrooper",
  "gender": "GENDER_MALE",
  "description": "Emperor Cole's army was divided after news of his bargain with Hamidon was spread by TPN. Many members of the IDF defected and joined the Resistance, realizing that Calvin Scott was right all along. These soldiers now believe in the cause of Calvin Scott, even if they do not believe directly in the man himself.",
  "group_description": null,
  "display_class_name": null,
  "character_class_name": "lt_grunt",
  "ai_config": "Default_Melee",
  "commandable_pet": false,
  "power_tags": [
    "HumanSkeleton",
    "Human"
  ],
  "additional_rewards": [

  ],
  "skill_hp_rewards": [

  ],
  "skill_status_rewards": [

  ],
  "ally": null,
  "gang": null,
  "reward_scale": 1.0,
  "game_exclusion": "None",
  "inactive_state_weapon": null,
  "ignores_combat_mods": false,
  "copy_creator_mods": false,
  "spawn_limit": -1,
  "spawn_limit_mission": -1,
  "ignore_av_to_eb_scaling": false,
  "can_zone": false,
  "custom_badge_stat": null,
  "badge_stat_flags": "DefaultBadgeStat",
  "rank": "VR_LIEUTENANT",
  "power_full_names": [
    "PraetorianIDF.Trooper_Standard.Plasma_Smasher",
    "PraetorianIDF.Trooper_Standard.Plasma_Blast",
    "PraetorianIDF.Trooper_Melee.Plasma_Punch",
    "PraetorianIDF.Trooper_Melee.Plasma_Vortex",
    "PraetorianIDF.Trooper_LT_Melee.Total_Focus",
    "PraetorianIDF.Summon_Battle_Orb.Summon_Battle_Orb",
    "PraetorianIDF.Trooper_LT_Armor.IDF_Armor"
  ],
  "power_display_names": [
    "Plasma Smasher",
    "Plasma Blast",
    "Plasma Punch",
    "Plasma Vortex",
    "Total Focus",
    "Summon Battle Orb",
    "IDF Armor"
  ],
  "power_levels": [
    0,
    0,
    0,
    0,
    0,
    0,
    0
  ],
  "powers": [
    {
      "power_category": "PraetorianIDF",
      "power_set": "Trooper_Standard",
      "power": "*",
      "level": 0
    },
    {
      "power_category": "PraetorianIDF",
      "power_set": "Trooper_Melee",
      "power": "*",
      "level": 0
    },
    {
      "power_category": "PraetorianIDF",
      "power_set": "Trooper_LT_Melee",
      "power": "*",
      "level": 0
    },
    {
      "power_category": "PraetorianIDF",
      "power_set": "Summon_Battle_Orb",
      "power": "*",
      "level": 0
    },
    {
      "power_category": "PraetorianIDF",
      "power_set": "Trooper_LT_Armor",
      "power": "*",
      "level": 0
    }
  ],
  "levels": [
    {
      "level": 30,
      "experience": 0,
      "display_names": [
        "Defected Shock Trooper"
      ],
      "costumes": [
        "IDF_Shock_Trooper_01"
      ]
    },
    {
      "level": 31,
      "experience": 0,
      "display_names": [
        "Defected Shock Trooper"
      ],
      "costumes": [
        "IDF_Shock_Trooper_01"
      ]
    },
    {
      "level": 32,
      "experience": 0,
      "display_names": [
        "Defected Shock Trooper"
      ],
      "costumes": [
        "IDF_Shock_Trooper_01"
      ]
    },
    {
      "level": 33,
      "experience": 0,
      "display_names": [
        "Defected Shock Trooper"
      ],
      "costumes": [
        "IDF_Shock_Trooper_01"
      ]
    },
    {
      "level": 34,
      "experience": 0,
      "display_names": [
        "Defected Shock Trooper"
      ],
      "costumes": [
        "IDF_Shock_Trooper_01"
      ]
    },
    {
      "level": 35,
      "experience": 0,
      "display_names": [
        "Defected Shock Trooper"
      ],
      "costumes": [
        "IDF_Shock_Trooper_01"
      ]
    },
    {
      "level": 36,
      "experience": 0,
      "display_names": [
        "Defected Shock Trooper"
      ],
      "costumes": [
        "IDF_Shock_Trooper_01"
      ]
    },
    {
      "level": 37,
      "experience": 0,
      "display_names": [
        "Defected Shock Trooper"
      ],
      "costumes": [
        "IDF_Shock_Trooper_01"
      ]
    },
    {
      "level": 38,
      "experience": 0,
      "display_names": [
        "Defected Shock Trooper"
      ],
      "costumes": [
        "IDF_Shock_Trooper_01"
      ]
    },
    {
      "level": 39,
      "experience": 0,
      "display_names": [
        "Defected Shock Trooper"
      ],
      "costumes": [
        "IDF_Shock_Trooper_01"
      ]
    },
    {
      "level": 40,
      "experience": 0,
      "display_names": [
        "Defected Shock Trooper"
      ],
      "costumes": [
        "IDF_Shock_Trooper_01"
      ]
    },
    {
      "level": 41,
      "experience": 0,
      "display_names": [
        "Defected Shock Trooper"
      ],
      "costumes": [
        "IDF_Shock_Trooper_01"
      ]
    },
    {
      "level": 42,
      "experience": 0,
      "display_names": [
        "Defected Shock Trooper"
      ],
      "costumes": [
        "IDF_Shock_Trooper_01"
      ]
    },
    {
      "level": 43,
      "experience": 0,
      "display_names": [
        "Defected Shock Trooper"
      ],
      "costumes": [
        "IDF_Shock_Trooper_01"
      ]
    },
    {
      "level": 44,
      "experience": 0,
      "display_names": [
        "Defected Shock Trooper"
      ],
      "costumes": [
        "IDF_Shock_Trooper_01"
      ]
    },
    {
      "level": 45,
      "experience": 0,
      "display_names": [
        "Defected Shock Trooper"
      ],
      "costumes": [
        "IDF_Shock_Trooper_01"
      ]
    },
    {
      "level": 46,
      "experience": 0,
      "display_names": [
        "Defected Shock Trooper"
      ],
      "costumes": [
        "IDF_Shock_Trooper_01"
      ]
    },
    {
      "level": 47,
      "experience": 0,
      "display_names": [
        "Defected Shock Trooper"
      ],
      "costumes": [
        "IDF_Shock_Trooper_01"
      ]
    },
    {
      "level": 48,
      "experience": 0,
      "display_names": [
        "Defected Shock Trooper"
      ],
      "costumes": [
        "IDF_Shock_Trooper_01"
      ]
    },
    {
      "level": 49,
      "experience": 0,
      "display_names": [
        "Defected Shock Trooper"
      ],
      "costumes": [
        "IDF_Shock_Trooper_01"
      ]
    },
    {
      "level": 50,
      "experience": 0,
      "display_names": [
        "Defected Shock Trooper"
      ],
      "costumes": [
        "IDF_Shock_Trooper_01"
      ]
    },
    {
      "level": 51,
      "experience": 0,
      "display_names": [
        "Defected Shock Trooper"
      ],
      "costumes": [
        "IDF_Shock_Trooper_01"
      ]
    },
    {
      "level": 52,
      "experience": 0,
      "display_names": [
        "Defected Shock Trooper"
      ],
      "costumes": [
        "IDF_Shock_Trooper_01"
      ]
    },
    {
      "level": 53,
      "experience": 0,
      "display_names": [
        "Defected Shock Trooper"
      ],
      "costumes": [
        "IDF_Shock_Trooper_01"
      ]
    },
    {
      "level": 54,
      "experience": 0,
      "display_names": [
        "Defected Shock Trooper"
      ],
      "costumes": [
        "IDF_Shock_Trooper_01"
      ]
    }
  ]
}