{
  "name": "Vahzilok_Luminous_Eidolon_Female_StartingDecay",
  "gender": "GENDER_FEMALE",
  "description": "These Luminous Eidolons are beginning to rot and decay, causing their powers to become unstable.",
  "group_description": null,
  "display_class_name": null,
  "character_class_name": "boss_grunt",
  "ai_config": "Vahzilok_Boss",
  "commandable_pet": false,
  "power_tags": [
    "HumanSkeleton",
    "Human"
  ],
  "additional_rewards": [

  ],
  "skill_hp_rewards": [

  ],
  "skill_status_rewards": [

  ],
  "ally": null,
  "gang": null,
  "reward_scale": 1.8,
  "game_exclusion": "None",
  "inactive_state_weapon": null,
  "ignores_combat_mods": false,
  "copy_creator_mods": false,
  "spawn_limit": 2,
  "spawn_limit_mission": 2,
  "ignore_av_to_eb_scaling": false,
  "can_zone": false,
  "custom_badge_stat": null,
  "badge_stat_flags": "DefaultBadgeStat",
  "rank": "VR_BOSS",
  "power_full_names": [
    "Vahzilok.Vahzilok_Luminous_Eidolon_Powers.Brawl",
    "Vahzilok.Vahzilok_Luminous_Eidolon_Powers.Neutrino_Bolt",
    "Vahzilok.Vahzilok_Luminous_Eidolon_Powers.Focus",
    "Vahzilok.Vahzilok_Luminous_Eidolon_Powers.X-Ray_Beam",
    "Vahzilok.Vahzilok_Luminous_Eidolon_Powers.Neutron_Bomb",
    "Vahzilok.Vahzilok_Luminous_Eidolon_Powers.Irradiate",
    "Vahzilok.Vahzilok_Luminous_Eidolon_Powers.Electron_Haze",
    "Vahzilok.Vahzilok_Decay_Luminous_Eidolon_Powers.Fusion",
    "Vahzilok.Vahzilok_Decay_Luminous_Eidolon_Powers.Radiation_Siphon"
  ],
  "power_display_names": [
    "Brawl",
    "Neutrino Bolt",
    "Focus",
    "X-Ray Beam",
    "Neutron Bomb",
    "Irradiate",
    "Electron Haze",
    "Fusion",
    "Radiation Siphon"
  ],
  "power_levels": [
    0,
    0,
    0,
    0,
    0,
    0,
    0,
    0,
    0
  ],
  "powers": [
    {
      "power_category": "Vahzilok",
      "power_set": "Vahzilok_Luminous_Eidolon_Powers",
      "power": "*",
      "level": 0
    },
    {
      "power_category": "Vahzilok",
      "power_set": "Vahzilok_Decay_Luminous_Eidolon_Powers",
      "power": "Fusion",
      "level": 0
    },
    {
      "power_category": "Vahzilok",
      "power_set": "Vahzilok_Decay_Luminous_Eidolon_Powers",
      "power": "Radiation_Siphon",
      "level": 0
    }
  ],
  "levels": [
    {
      "level": 21,
      "experience": 0,
      "display_names": [
        "Luminous Eidolon"
      ],
      "costumes": [
        "Eidola_Female_Decay1",
        "Eidola_Female_Decay2"
      ]
    },
    {
      "level": 22,
      "experience": 0,
      "display_names": [
        "Luminous Eidolon"
      ],
      "costumes": [
        "Eidola_Female_Decay1",
        "Eidola_Female_Decay2"
      ]
    },
    {
      "level": 23,
      "experience": 0,
      "display_names": [
        "Luminous Eidolon"
      ],
      "costumes": [
        "Eidola_Female_Decay1",
        "Eidola_Female_Decay2"
      ]
    },
    {
      "level": 24,
      "experience": 0,
      "display_names": [
        "Luminous Eidolon"
      ],
      "costumes": [
        "Eidola_Female_Decay1",
        "Eidola_Female_Decay2"
      ]
    },
    {
      "level": 25,
      "experience": 0,
      "display_names": [
        "Luminous Eidolon"
      ],
      "costumes": [
        "Eidola_Female_Decay1",
        "Eidola_Female_Decay2"
      ]
    },
    {
      "level": 26,
      "experience": 0,
      "display_names": [
        "Luminous Eidolon"
      ],
      "costumes": [
        "Eidola_Female_Decay1",
        "Eidola_Female_Decay2"
      ]
    },
    {
      "level": 27,
      "experience": 0,
      "display_names": [
        "Luminous Eidolon"
      ],
      "costumes": [
        "Eidola_Female_Decay1",
        "Eidola_Female_Decay2"
      ]
    },
    {
      "level": 28,
      "experience": 0,
      "display_names": [
        "Luminous Eidolon"
      ],
      "costumes": [
        "Eidola_Female_Decay1",
        "Eidola_Female_Decay2"
      ]
    },
    {
      "level": 29,
      "experience": 0,
      "display_names": [
        "Luminous Eidolon"
      ],
      "costumes": [
        "Eidola_Female_Decay1",
        "Eidola_Female_Decay2"
      ]
    },
    {
      "level": 30,
      "experience": 0,
      "display_names": [
        "Luminous Eidolon"
      ],
      "costumes": [
        "Eidola_Female_Decay1",
        "Eidola_Female_Decay2"
      ]
    },
    {
      "level": 31,
      "experience": 0,
      "display_names": [
        "Luminous Eidolon"
      ],
      "costumes": [
        "Eidola_Female_Decay1",
        "Eidola_Female_Decay2"
      ]
    },
    {
      "level": 32,
      "experience": 0,
      "display_names": [
        "Luminous Eidolon"
      ],
      "costumes": [
        "Eidola_Female_Decay1",
        "Eidola_Female_Decay2"
      ]
    },
    {
      "level": 33,
      "experience": 0,
      "display_names": [
        "Luminous Eidolon"
      ],
      "costumes": [
        "Eidola_Female_Decay1",
        "Eidola_Female_Decay2"
      ]
    },
    {
      "level": 34,
      "experience": 0,
      "display_names": [
        "Luminous Eidolon"
      ],
      "costumes": [
        "Eidola_Female_Decay1",
        "Eidola_Female_Decay2"
      ]
    }
  ]
}