{
  "name": "Vahzilok_Decay_Murk_Eidolon_lt",
  "gender": "GENDER_MALE",
  "description": "The Murk Eidolons from Dr. Vahzilok's festering former army have taken a more aggressive approach to their impending deaths. They have weaponized their Decomposing blood into a toxic snare to catch unprepared heroes.",
  "group_description": null,
  "display_class_name": null,
  "character_class_name": "lt_grunt",
  "ai_config": "Vahzilok_Decay_Boss",
  "commandable_pet": false,
  "power_tags": [
    "HumanSkeleton",
    "Human"
  ],
  "additional_rewards": [

  ],
  "skill_hp_rewards": [

  ],
  "skill_status_rewards": [

  ],
  "ally": null,
  "gang": null,
  "reward_scale": 1.2,
  "game_exclusion": "None",
  "inactive_state_weapon": null,
  "ignores_combat_mods": false,
  "copy_creator_mods": false,
  "spawn_limit": 2,
  "spawn_limit_mission": 2,
  "ignore_av_to_eb_scaling": false,
  "can_zone": false,
  "custom_badge_stat": null,
  "badge_stat_flags": "DefaultBadgeStat",
  "rank": "VR_LIEUTENANT",
  "power_full_names": [
    "Vahzilok.Vahzilok_Decay_Murk_Eidolon_Powers.Shadow_Punch",
    "Vahzilok.Vahzilok_Decay_Murk_Eidolon_Powers.Dark_Blast",
    "Vahzilok.Vahzilok_Decay_Murk_Eidolon_Powers.Midnight_Grasp",
    "Vahzilok.Diseased.Disease_Carrier"
  ],
  "power_display_names": [
    "Shadow Punch",
    "Dark Blast",
    "Midnight Grasp",
    "Vahzilok Wasting Disease"
  ],
  "power_levels": [
    0,
    0,
    0,
    0
  ],
  "powers": [
    {
      "power_category": "Vahzilok",
      "power_set": "Vahzilok_Decay_Murk_Eidolon_Powers",
      "power": "Shadow_Punch",
      "level": 0
    },
    {
      "power_category": "Vahzilok",
      "power_set": "Vahzilok_Decay_Murk_Eidolon_Powers",
      "power": "Dark_Blast",
      "level": 0
    },
    {
      "power_category": "Vahzilok",
      "power_set": "Vahzilok_Decay_Murk_Eidolon_Powers",
      "power": "Midnight_Grasp",
      "level": 0
    },
    {
      "power_category": "Vahzilok",
      "power_set": "Diseased",
      "power": "Disease_Carrier",
      "level": 0
    }
  ],
  "levels": [
    {
      "level": 29,
      "experience": 0,
      "display_names": [
        "Decomposing Murk Eidolon"
      ],
      "costumes": [
        "Eidola_Decaying_Male_01",
        "Eidola_Decaying_Male_02",
        "Eidola_Decaying_Male_03"
      ]
    },
    {
      "level": 30,
      "experience": 0,
      "display_names": [
        "Decomposing Murk Eidolon"
      ],
      "costumes": [
        "Eidola_Decaying_Male_01",
        "Eidola_Decaying_Male_02",
        "Eidola_Decaying_Male_03"
      ]
    },
    {
      "level": 31,
      "experience": 0,
      "display_names": [
        "Decomposing Murk Eidolon"
      ],
      "costumes": [
        "Eidola_Decaying_Male_01",
        "Eidola_Decaying_Male_02",
        "Eidola_Decaying_Male_03"
      ]
    },
    {
      "level": 32,
      "experience": 0,
      "display_names": [
        "Decomposing Murk Eidolon"
      ],
      "costumes": [
        "Eidola_Decaying_Male_01",
        "Eidola_Decaying_Male_02",
        "Eidola_Decaying_Male_03"
      ]
    },
    {
      "level": 33,
      "experience": 0,
      "display_names": [
        "Decomposing Murk Eidolon"
      ],
      "costumes": [
        "Eidola_Decaying_Male_01",
        "Eidola_Decaying_Male_02",
        "Eidola_Decaying_Male_03"
      ]
    },
    {
      "level": 34,
      "experience": 0,
      "display_names": [
        "Decomposing Murk Eidolon"
      ],
      "costumes": [
        "Eidola_Decaying_Male_01",
        "Eidola_Decaying_Male_02",
        "Eidola_Decaying_Male_03"
      ]
    },
    {
      "level": 35,
      "experience": 0,
      "display_names": [
        "Decomposing Murk Eidolon"
      ],
      "costumes": [
        "Eidola_Decaying_Male_01",
        "Eidola_Decaying_Male_02",
        "Eidola_Decaying_Male_03"
      ]
    },
    {
      "level": 36,
      "experience": 0,
      "display_names": [
        "Decomposing Murk Eidolon"
      ],
      "costumes": [
        "Eidola_Decaying_Male_01",
        "Eidola_Decaying_Male_02",
        "Eidola_Decaying_Male_03"
      ]
    },
    {
      "level": 37,
      "experience": 0,
      "display_names": [
        "Decomposing Murk Eidolon"
      ],
      "costumes": [
        "Eidola_Decaying_Male_01",
        "Eidola_Decaying_Male_02",
        "Eidola_Decaying_Male_03"
      ]
    },
    {
      "level": 38,
      "experience": 0,
      "display_names": [
        "Decomposing Murk Eidolon"
      ],
      "costumes": [
        "Eidola_Decaying_Male_01",
        "Eidola_Decaying_Male_02",
        "Eidola_Decaying_Male_03"
      ]
    },
    {
      "level": 39,
      "experience": 0,
      "display_names": [
        "Decomposing Murk Eidolon"
      ],
      "costumes": [
        "Eidola_Decaying_Male_01",
        "Eidola_Decaying_Male_02",
        "Eidola_Decaying_Male_03"
      ]
    },
    {
      "level": 40,
      "experience": 0,
      "display_names": [
        "Decomposing Murk Eidolon"
      ],
      "costumes": [
        "Eidola_Decaying_Male_01",
        "Eidola_Decaying_Male_02",
        "Eidola_Decaying_Male_03"
      ]
    },
    {
      "level": 41,
      "experience": 0,
      "display_names": [
        "Decomposing Murk Eidolon"
      ],
      "costumes": [
        "Eidola_Decaying_Male_01",
        "Eidola_Decaying_Male_02",
        "Eidola_Decaying_Male_03"
      ]
    },
    {
      "level": 42,
      "experience": 0,
      "display_names": [
        "Decomposing Murk Eidolon"
      ],
      "costumes": [
        "Eidola_Decaying_Male_01",
        "Eidola_Decaying_Male_02",
        "Eidola_Decaying_Male_03"
      ]
    },
    {
      "level": 43,
      "experience": 0,
      "display_names": [
        "Decomposing Murk Eidolon"
      ],
      "costumes": [
        "Eidola_Decaying_Male_01",
        "Eidola_Decaying_Male_02",
        "Eidola_Decaying_Male_03"
      ]
    },
    {
      "level": 44,
      "experience": 0,
      "display_names": [
        "Decomposing Murk Eidolon"
      ],
      "costumes": [
        "Eidola_Decaying_Male_01",
        "Eidola_Decaying_Male_02",
        "Eidola_Decaying_Male_03"
      ]
    },
    {
      "level": 45,
      "experience": 0,
      "display_names": [
        "Decomposing Murk Eidolon"
      ],
      "costumes": [
        "Eidola_Decaying_Male_01",
        "Eidola_Decaying_Male_02",
        "Eidola_Decaying_Male_03"
      ]
    },
    {
      "level": 46,
      "experience": 0,
      "display_names": [
        "Decomposing Murk Eidolon"
      ],
      "costumes": [
        "Eidola_Decaying_Male_01",
        "Eidola_Decaying_Male_02",
        "Eidola_Decaying_Male_03"
      ]
    },
    {
      "level": 47,
      "experience": 0,
      "display_names": [
        "Decomposing Murk Eidolon"
      ],
      "costumes": [
        "Eidola_Decaying_Male_01",
        "Eidola_Decaying_Male_02",
        "Eidola_Decaying_Male_03"
      ]
    },
    {
      "level": 48,
      "experience": 0,
      "display_names": [
        "Decomposing Murk Eidolon"
      ],
      "costumes": [
        "Eidola_Decaying_Male_01",
        "Eidola_Decaying_Male_02",
        "Eidola_Decaying_Male_03"
      ]
    },
    {
      "level": 49,
      "experience": 0,
      "display_names": [
        "Decomposing Murk Eidolon"
      ],
      "costumes": [
        "Eidola_Decaying_Male_01",
        "Eidola_Decaying_Male_02",
        "Eidola_Decaying_Male_03"
      ]
    },
    {
      "level": 50,
      "experience": 0,
      "display_names": [
        "Decomposing Murk Eidolon"
      ],
      "costumes": [
        "Eidola_Decaying_Male_01",
        "Eidola_Decaying_Male_02",
        "Eidola_Decaying_Male_03"
      ]
    },
    {
      "level": 51,
      "experience": 0,
      "display_names": [
        "Decomposing Murk Eidolon"
      ],
      "costumes": [
        "Eidola_Decaying_Male_01",
        "Eidola_Decaying_Male_02",
        "Eidola_Decaying_Male_03"
      ]
    },
    {
      "level": 52,
      "experience": 0,
      "display_names": [
        "Decomposing Murk Eidolon"
      ],
      "costumes": [
        "Eidola_Decaying_Male_01",
        "Eidola_Decaying_Male_02",
        "Eidola_Decaying_Male_03"
      ]
    },
    {
      "level": 53,
      "experience": 0,
      "display_names": [
        "Decomposing Murk Eidolon"
      ],
      "costumes": [
        "Eidola_Decaying_Male_01",
        "Eidola_Decaying_Male_02",
        "Eidola_Decaying_Male_03"
      ]
    },
    {
      "level": 54,
      "experience": 0,
      "display_names": [
        "Decomposing Murk Eidolon"
      ],
      "costumes": [
        "Eidola_Decaying_Male_01",
        "Eidola_Decaying_Male_02",
        "Eidola_Decaying_Male_03"
      ]
    }
  ]
}