{
  "name": "Vahzilok_SewerTrial_EB",
  "gender": "GENDER_FEMALE",
  "description": "Some people will do anything for beauty. And then there are the Faces. Star patients of the Facemaker, they've learned the secrets of the Vahzilok and now will do anything they can to make themselves beautiful.",
  "group_description": null,
  "display_class_name": null,
  "character_class_name": "boss_archvillain",
  "ai_config": "Default_Melee",
  "commandable_pet": false,
  "power_tags": [
    "HumanSkeleton",
    "Human"
  ],
  "additional_rewards": [

  ],
  "skill_hp_rewards": [

  ],
  "skill_status_rewards": [

  ],
  "ally": null,
  "gang": null,
  "reward_scale": 1.0,
  "game_exclusion": "None",
  "inactive_state_weapon": null,
  "ignores_combat_mods": false,
  "copy_creator_mods": false,
  "spawn_limit": 0,
  "spawn_limit_mission": 0,
  "ignore_av_to_eb_scaling": false,
  "can_zone": false,
  "custom_badge_stat": null,
  "badge_stat_flags": "DefaultBadgeStat",
  "rank": "VR_ARCHVILLAIN",
  "power_full_names": [
    "Vahzilok.Vahzilok_Reaper_All_Melee.BoneSaw",
    "Vahzilok.Vahzilok_Reaper_All_Melee.Cleaver",
    "Vahzilok.Vahzilok_Reaper_All_Ranged.DartGun",
    "VahzSewerTrial.Vahzilok_EB_Rez.Resurrect_Zombie"
  ],
  "power_display_names": [
    "BoneSaw",
    "Cleaver",
    "DartGun",
    "Resurrect Zombie"
  ],
  "power_levels": [
    0,
    0,
    0,
    0
  ],
  "powers": [
    {
      "power_category": "Vahzilok",
      "power_set": "Vahzilok_Reaper_All_Melee",
      "power": "*",
      "level": 0
    },
    {
      "power_category": "Vahzilok",
      "power_set": "Vahzilok_Reaper_All_Ranged",
      "power": "*",
      "level": 0
    },
    {
      "power_category": "VahzSewerTrial",
      "power_set": "Vahzilok_EB_Rez",
      "power": "*",
      "level": 0
    }
  ],
  "levels": [
    {
      "level": 3,
      "experience": 0,
      "display_names": [
        "Dr. Meinst"
      ],
      "costumes": [
        "Vahzilok_Face_05"
      ]
    },
    {
      "level": 4,
      "experience": 0,
      "display_names": [
        "Dr. Meinst"
      ],
      "costumes": [
        "Vahzilok_Face_05"
      ]
    }
  ]
}