{
  "name": "Vahzilok_Cortex",
  "gender": "GENDER_MALE",
  "description": "Dr. Vahzilok has sent one of his most powerful disciples to ensure that his plan to poison the dam goes off without a hitch. It is rumored that Cortex was a hero once. It's hard to believe that now.",
  "group_description": null,
  "display_class_name": null,
  "character_class_name": "boss_elite",
  "ai_config": "Default_Ranged",
  "commandable_pet": false,
  "power_tags": [
    "HumanSkeleton",
    "Human"
  ],
  "additional_rewards": [

  ],
  "skill_hp_rewards": [

  ],
  "skill_status_rewards": [

  ],
  "ally": null,
  "gang": null,
  "reward_scale": 1.0,
  "game_exclusion": "None",
  "inactive_state_weapon": null,
  "ignores_combat_mods": false,
  "copy_creator_mods": false,
  "spawn_limit": 0,
  "spawn_limit_mission": 0,
  "ignore_av_to_eb_scaling": false,
  "can_zone": false,
  "custom_badge_stat": null,
  "badge_stat_flags": "DefaultBadgeStat",
  "rank": "VR_ELITE",
  "power_full_names": [
    "Mission_Pets.Cortex.Mind_Stab",
    "Mission_Pets.Cortex.Subdue",
    "Mission_Pets.Cortex.Psychic_Scream",
    "Mission_Pets.Cortex.Telekinetic_blast",
    "Mission_Pets.Cortex.Mesmerize",
    "Mission_Pets.Cortex.Dominate",
    "Mission_Pets.Cortex.Confuse",
    "Mission_Pets.Cortex.Fly",
    "Mission_Pets.Cortex.Fly_fx"
  ],
  "power_display_names": [
    "Mind Stab",
    "Subdue",
    "Psychic Scream",
    "Telekinetic blast",
    "Mesmerize",
    "Dominate",
    "Confuse",
    "Fly",
    "Fly fx"
  ],
  "power_levels": [
    0,
    0,
    0,
    0,
    0,
    0,
    0,
    0,
    0
  ],
  "powers": [
    {
      "power_category": "Mission_Pets",
      "power_set": "Cortex",
      "power": "*",
      "level": 0
    }
  ],
  "levels": [
    {
      "level": 10,
      "experience": 0,
      "display_names": [
        "Cortex"
      ],
      "costumes": [
        "Eidola_Cortex"
      ]
    },
    {
      "level": 11,
      "experience": 0,
      "display_names": [
        "Cortex"
      ],
      "costumes": [
        "Eidola_Cortex"
      ]
    },
    {
      "level": 12,
      "experience": 0,
      "display_names": [
        "Cortex"
      ],
      "costumes": [
        "Eidola_Cortex"
      ]
    },
    {
      "level": 13,
      "experience": 0,
      "display_names": [
        "Cortex"
      ],
      "costumes": [
        "Eidola_Cortex"
      ]
    },
    {
      "level": 14,
      "experience": 0,
      "display_names": [
        "Cortex"
      ],
      "costumes": [
        "Eidola_Cortex"
      ]
    },
    {
      "level": 15,
      "experience": 0,
      "display_names": [
        "Cortex"
      ],
      "costumes": [
        "Eidola_Cortex"
      ]
    },
    {
      "level": 16,
      "experience": 0,
      "display_names": [
        "Cortex"
      ],
      "costumes": [
        "Eidola_Cortex"
      ]
    },
    {
      "level": 17,
      "experience": 0,
      "display_names": [
        "Cortex"
      ],
      "costumes": [
        "Eidola_Cortex"
      ]
    },
    {
      "level": 18,
      "experience": 0,
      "display_names": [
        "Cortex"
      ],
      "costumes": [
        "Eidola_Cortex"
      ]
    },
    {
      "level": 19,
      "experience": 0,
      "display_names": [
        "Cortex"
      ],
      "costumes": [
        "Eidola_Cortex"
      ]
    },
    {
      "level": 20,
      "experience": 0,
      "display_names": [
        "Cortex"
      ],
      "costumes": [
        "Eidola_Cortex"
      ]
    },
    {
      "level": 21,
      "experience": 0,
      "display_names": [
        "Cortex"
      ],
      "costumes": [
        "Eidola_Cortex"
      ]
    },
    {
      "level": 22,
      "experience": 0,
      "display_names": [
        "Cortex"
      ],
      "costumes": [
        "Eidola_Cortex"
      ]
    },
    {
      "level": 23,
      "experience": 0,
      "display_names": [
        "Cortex"
      ],
      "costumes": [
        "Eidola_Cortex"
      ]
    },
    {
      "level": 24,
      "experience": 0,
      "display_names": [
        "Cortex"
      ],
      "costumes": [
        "Eidola_Cortex"
      ]
    },
    {
      "level": 25,
      "experience": 0,
      "display_names": [
        "Cortex"
      ],
      "costumes": [
        "Eidola_Cortex"
      ]
    },
    {
      "level": 26,
      "experience": 0,
      "display_names": [
        "Cortex"
      ],
      "costumes": [
        "Eidola_Cortex"
      ]
    },
    {
      "level": 27,
      "experience": 0,
      "display_names": [
        "Cortex"
      ],
      "costumes": [
        "Eidola_Cortex"
      ]
    },
    {
      "level": 28,
      "experience": 0,
      "display_names": [
        "Cortex"
      ],
      "costumes": [
        "Eidola_Cortex"
      ]
    },
    {
      "level": 29,
      "experience": 0,
      "display_names": [
        "Cortex"
      ],
      "costumes": [
        "Eidola_Cortex"
      ]
    },
    {
      "level": 30,
      "experience": 0,
      "display_names": [
        "Cortex"
      ],
      "costumes": [
        "Eidola_Cortex"
      ]
    },
    {
      "level": 31,
      "experience": 0,
      "display_names": [
        "Cortex"
      ],
      "costumes": [
        "Eidola_Cortex"
      ]
    },
    {
      "level": 32,
      "experience": 0,
      "display_names": [
        "Cortex"
      ],
      "costumes": [
        "Eidola_Cortex"
      ]
    },
    {
      "level": 33,
      "experience": 0,
      "display_names": [
        "Cortex"
      ],
      "costumes": [
        "Eidola_Cortex"
      ]
    },
    {
      "level": 34,
      "experience": 0,
      "display_names": [
        "Cortex"
      ],
      "costumes": [
        "Eidola_Cortex"
      ]
    }
  ]
}