{
  "name": "Vahzilok_Nictus_Hunter_Reaper",
  "gender": "GENDER_MALE",
  "description": "The Reapers seem to be the only normal humans among the ranks of Dr. Vahzilok's reanimated legions. They are trained surgeons who collect body parts with the help of poison darts and industrial strength hacksaws.",
  "group_description": null,
  "display_class_name": null,
  "character_class_name": "minion_grunt",
  "ai_config": "Vahzilok_Reaper_Base",
  "commandable_pet": false,
  "power_tags": [
    "HumanSkeleton",
    "Human"
  ],
  "additional_rewards": [

  ],
  "skill_hp_rewards": [

  ],
  "skill_status_rewards": [

  ],
  "ally": null,
  "gang": null,
  "reward_scale": 1.0,
  "game_exclusion": "None",
  "inactive_state_weapon": null,
  "ignores_combat_mods": false,
  "copy_creator_mods": false,
  "spawn_limit": 0,
  "spawn_limit_mission": 0,
  "ignore_av_to_eb_scaling": false,
  "can_zone": false,
  "custom_badge_stat": null,
  "badge_stat_flags": "DefaultBadgeStat",
  "rank": "VR_MINION",
  "power_full_names": [
    "Nictus.Hunter.Quantum_Array_gun"
  ],
  "power_display_names": [
    "Quantum Array gun"
  ],
  "power_levels": [
    0
  ],
  "powers": [
    {
      "power_category": "Nictus",
      "power_set": "Hunter",
      "power": "Quantum_Array_gun",
      "level": 0
    }
  ],
  "levels": [
    {
      "level": 1,
      "experience": 0,
      "display_names": [
        "Reaper Quantum Gunner"
      ],
      "costumes": [
        "Reaper_01",
        "Reaper_02",
        "Reaper_03",
        "Reaper_04",
        "Reaper_05",
        "Reaper_06",
        "Reaper_07",
        "Reaper_08",
        "Reaper_09",
        "Reaper_10",
        "Reaper_11",
        "Reaper_12"
      ]
    },
    {
      "level": 2,
      "experience": 0,
      "display_names": [
        "Reaper Quantum Gunner"
      ],
      "costumes": [
        "Reaper_01",
        "Reaper_02",
        "Reaper_03",
        "Reaper_04",
        "Reaper_05",
        "Reaper_06",
        "Reaper_07",
        "Reaper_08",
        "Reaper_09",
        "Reaper_10",
        "Reaper_11",
        "Reaper_12"
      ]
    },
    {
      "level": 3,
      "experience": 0,
      "display_names": [
        "Reaper Quantum Gunner"
      ],
      "costumes": [
        "Reaper_01",
        "Reaper_02",
        "Reaper_03",
        "Reaper_04",
        "Reaper_05",
        "Reaper_06",
        "Reaper_07",
        "Reaper_08",
        "Reaper_09",
        "Reaper_10",
        "Reaper_11",
        "Reaper_12"
      ]
    },
    {
      "level": 4,
      "experience": 0,
      "display_names": [
        "Reaper Quantum Gunner"
      ],
      "costumes": [
        "Reaper_01",
        "Reaper_02",
        "Reaper_03",
        "Reaper_04",
        "Reaper_05",
        "Reaper_06",
        "Reaper_07",
        "Reaper_08",
        "Reaper_09",
        "Reaper_10",
        "Reaper_11",
        "Reaper_12"
      ]
    },
    {
      "level": 5,
      "experience": 0,
      "display_names": [
        "Reaper Quantum Gunner"
      ],
      "costumes": [
        "Reaper_01",
        "Reaper_02",
        "Reaper_03",
        "Reaper_04",
        "Reaper_05",
        "Reaper_06",
        "Reaper_07",
        "Reaper_08",
        "Reaper_09",
        "Reaper_10",
        "Reaper_11",
        "Reaper_12"
      ]
    },
    {
      "level": 6,
      "experience": 0,
      "display_names": [
        "Reaper Quantum Gunner"
      ],
      "costumes": [
        "Reaper_01",
        "Reaper_02",
        "Reaper_03",
        "Reaper_04",
        "Reaper_05",
        "Reaper_06",
        "Reaper_07",
        "Reaper_08",
        "Reaper_09",
        "Reaper_10",
        "Reaper_11",
        "Reaper_12"
      ]
    },
    {
      "level": 7,
      "experience": 0,
      "display_names": [
        "Reaper Quantum Gunner"
      ],
      "costumes": [
        "Reaper_01",
        "Reaper_02",
        "Reaper_03",
        "Reaper_04",
        "Reaper_05",
        "Reaper_06",
        "Reaper_07",
        "Reaper_08",
        "Reaper_09",
        "Reaper_10",
        "Reaper_11",
        "Reaper_12"
      ]
    },
    {
      "level": 8,
      "experience": 0,
      "display_names": [
        "Reaper Quantum Gunner"
      ],
      "costumes": [
        "Reaper_01",
        "Reaper_02",
        "Reaper_03",
        "Reaper_04",
        "Reaper_05",
        "Reaper_06",
        "Reaper_07",
        "Reaper_08",
        "Reaper_09",
        "Reaper_10",
        "Reaper_11",
        "Reaper_12"
      ]
    },
    {
      "level": 9,
      "experience": 0,
      "display_names": [
        "Reaper Quantum Gunner"
      ],
      "costumes": [
        "Reaper_01",
        "Reaper_02",
        "Reaper_03",
        "Reaper_04",
        "Reaper_05",
        "Reaper_06",
        "Reaper_07",
        "Reaper_08",
        "Reaper_09",
        "Reaper_10",
        "Reaper_11",
        "Reaper_12"
      ]
    },
    {
      "level": 10,
      "experience": 0,
      "display_names": [
        "Reaper Quantum Gunner"
      ],
      "costumes": [
        "Reaper_01",
        "Reaper_02",
        "Reaper_03",
        "Reaper_04",
        "Reaper_05",
        "Reaper_06",
        "Reaper_07",
        "Reaper_08",
        "Reaper_09",
        "Reaper_10",
        "Reaper_11",
        "Reaper_12"
      ]
    },
    {
      "level": 11,
      "experience": 0,
      "display_names": [
        "Reaper Quantum Gunner"
      ],
      "costumes": [
        "Reaper_01",
        "Reaper_02",
        "Reaper_03",
        "Reaper_04",
        "Reaper_05",
        "Reaper_06",
        "Reaper_07",
        "Reaper_08",
        "Reaper_09",
        "Reaper_10",
        "Reaper_11",
        "Reaper_12"
      ]
    },
    {
      "level": 12,
      "experience": 0,
      "display_names": [
        "Reaper Quantum Gunner"
      ],
      "costumes": [
        "Reaper_01",
        "Reaper_02",
        "Reaper_03",
        "Reaper_04",
        "Reaper_05",
        "Reaper_06",
        "Reaper_07",
        "Reaper_08",
        "Reaper_09",
        "Reaper_10",
        "Reaper_11",
        "Reaper_12"
      ]
    },
    {
      "level": 13,
      "experience": 0,
      "display_names": [
        "Reaper Quantum Gunner"
      ],
      "costumes": [
        "Reaper_01",
        "Reaper_02",
        "Reaper_03",
        "Reaper_04",
        "Reaper_05",
        "Reaper_06",
        "Reaper_07",
        "Reaper_08",
        "Reaper_09",
        "Reaper_10",
        "Reaper_11",
        "Reaper_12"
      ]
    },
    {
      "level": 14,
      "experience": 0,
      "display_names": [
        "Reaper Quantum Gunner"
      ],
      "costumes": [
        "Reaper_01",
        "Reaper_02",
        "Reaper_03",
        "Reaper_04",
        "Reaper_05",
        "Reaper_06",
        "Reaper_07",
        "Reaper_08",
        "Reaper_09",
        "Reaper_10",
        "Reaper_11",
        "Reaper_12"
      ]
    },
    {
      "level": 15,
      "experience": 0,
      "display_names": [
        "Reaper Quantum Gunner"
      ],
      "costumes": [
        "Reaper_01",
        "Reaper_02",
        "Reaper_03",
        "Reaper_04",
        "Reaper_05",
        "Reaper_06",
        "Reaper_07",
        "Reaper_08",
        "Reaper_09",
        "Reaper_10",
        "Reaper_11",
        "Reaper_12"
      ]
    },
    {
      "level": 16,
      "experience": 0,
      "display_names": [
        "Reaper Quantum Gunner"
      ],
      "costumes": [
        "Reaper_01",
        "Reaper_02",
        "Reaper_03",
        "Reaper_04",
        "Reaper_05",
        "Reaper_06",
        "Reaper_07",
        "Reaper_08",
        "Reaper_09",
        "Reaper_10",
        "Reaper_11",
        "Reaper_12"
      ]
    },
    {
      "level": 17,
      "experience": 0,
      "display_names": [
        "Reaper Quantum Gunner"
      ],
      "costumes": [
        "Reaper_01",
        "Reaper_02",
        "Reaper_03",
        "Reaper_04",
        "Reaper_05",
        "Reaper_06",
        "Reaper_07",
        "Reaper_08",
        "Reaper_09",
        "Reaper_10",
        "Reaper_11",
        "Reaper_12"
      ]
    },
    {
      "level": 18,
      "experience": 0,
      "display_names": [
        "Reaper Quantum Gunner"
      ],
      "costumes": [
        "Reaper_01",
        "Reaper_02",
        "Reaper_03",
        "Reaper_04",
        "Reaper_05",
        "Reaper_06",
        "Reaper_07",
        "Reaper_08",
        "Reaper_09",
        "Reaper_10",
        "Reaper_11",
        "Reaper_12"
      ]
    },
    {
      "level": 19,
      "experience": 0,
      "display_names": [
        "Reaper Quantum Gunner"
      ],
      "costumes": [
        "Reaper_01",
        "Reaper_02",
        "Reaper_03",
        "Reaper_04",
        "Reaper_05",
        "Reaper_06",
        "Reaper_07",
        "Reaper_08",
        "Reaper_09",
        "Reaper_10",
        "Reaper_11",
        "Reaper_12"
      ]
    },
    {
      "level": 20,
      "experience": 0,
      "display_names": [
        "Reaper Quantum Gunner"
      ],
      "costumes": [
        "Reaper_01",
        "Reaper_02",
        "Reaper_03",
        "Reaper_04",
        "Reaper_05",
        "Reaper_06",
        "Reaper_07",
        "Reaper_08",
        "Reaper_09",
        "Reaper_10",
        "Reaper_11",
        "Reaper_12"
      ]
    },
    {
      "level": 21,
      "experience": 0,
      "display_names": [
        "Reaper Quantum Gunner"
      ],
      "costumes": [
        "Reaper_01",
        "Reaper_02",
        "Reaper_03",
        "Reaper_04",
        "Reaper_05",
        "Reaper_06",
        "Reaper_07",
        "Reaper_08",
        "Reaper_09",
        "Reaper_10",
        "Reaper_11",
        "Reaper_12"
      ]
    },
    {
      "level": 22,
      "experience": 0,
      "display_names": [
        "Reaper Quantum Gunner"
      ],
      "costumes": [
        "Reaper_01",
        "Reaper_02",
        "Reaper_03",
        "Reaper_04",
        "Reaper_05",
        "Reaper_06",
        "Reaper_07",
        "Reaper_08",
        "Reaper_09",
        "Reaper_10",
        "Reaper_11",
        "Reaper_12"
      ]
    },
    {
      "level": 23,
      "experience": 0,
      "display_names": [
        "Reaper Quantum Gunner"
      ],
      "costumes": [
        "Reaper_01",
        "Reaper_02",
        "Reaper_03",
        "Reaper_04",
        "Reaper_05",
        "Reaper_06",
        "Reaper_07",
        "Reaper_08",
        "Reaper_09",
        "Reaper_10",
        "Reaper_11",
        "Reaper_12"
      ]
    },
    {
      "level": 24,
      "experience": 0,
      "display_names": [
        "Reaper Quantum Gunner"
      ],
      "costumes": [
        "Reaper_01",
        "Reaper_02",
        "Reaper_03",
        "Reaper_04",
        "Reaper_05",
        "Reaper_06",
        "Reaper_07",
        "Reaper_08",
        "Reaper_09",
        "Reaper_10",
        "Reaper_11",
        "Reaper_12"
      ]
    },
    {
      "level": 25,
      "experience": 0,
      "display_names": [
        "Reaper Quantum Gunner"
      ],
      "costumes": [
        "Reaper_01",
        "Reaper_02",
        "Reaper_03",
        "Reaper_04",
        "Reaper_05",
        "Reaper_06",
        "Reaper_07",
        "Reaper_08",
        "Reaper_09",
        "Reaper_10",
        "Reaper_11",
        "Reaper_12"
      ]
    },
    {
      "level": 26,
      "experience": 0,
      "display_names": [
        "Reaper Quantum Gunner"
      ],
      "costumes": [
        "Reaper_01",
        "Reaper_02",
        "Reaper_03",
        "Reaper_04",
        "Reaper_05",
        "Reaper_06",
        "Reaper_07",
        "Reaper_08",
        "Reaper_09",
        "Reaper_10",
        "Reaper_11",
        "Reaper_12"
      ]
    },
    {
      "level": 27,
      "experience": 0,
      "display_names": [
        "Reaper Quantum Gunner"
      ],
      "costumes": [
        "Reaper_01",
        "Reaper_02",
        "Reaper_03",
        "Reaper_04",
        "Reaper_05",
        "Reaper_06",
        "Reaper_07",
        "Reaper_08",
        "Reaper_09",
        "Reaper_10",
        "Reaper_11",
        "Reaper_12"
      ]
    },
    {
      "level": 28,
      "experience": 0,
      "display_names": [
        "Reaper Quantum Gunner"
      ],
      "costumes": [
        "Reaper_01",
        "Reaper_02",
        "Reaper_03",
        "Reaper_04",
        "Reaper_05",
        "Reaper_06",
        "Reaper_07",
        "Reaper_08",
        "Reaper_09",
        "Reaper_10",
        "Reaper_11",
        "Reaper_12"
      ]
    },
    {
      "level": 29,
      "experience": 0,
      "display_names": [
        "Reaper Quantum Gunner"
      ],
      "costumes": [
        "Reaper_01",
        "Reaper_02",
        "Reaper_03",
        "Reaper_04",
        "Reaper_05",
        "Reaper_06",
        "Reaper_07",
        "Reaper_08",
        "Reaper_09",
        "Reaper_10",
        "Reaper_11",
        "Reaper_12"
      ]
    },
    {
      "level": 30,
      "experience": 0,
      "display_names": [
        "Reaper Quantum Gunner"
      ],
      "costumes": [
        "Reaper_01",
        "Reaper_02",
        "Reaper_03",
        "Reaper_04",
        "Reaper_05",
        "Reaper_06",
        "Reaper_07",
        "Reaper_08",
        "Reaper_09",
        "Reaper_10",
        "Reaper_11",
        "Reaper_12"
      ]
    },
    {
      "level": 31,
      "experience": 0,
      "display_names": [
        "Reaper Quantum Gunner"
      ],
      "costumes": [
        "Reaper_01",
        "Reaper_02",
        "Reaper_03",
        "Reaper_04",
        "Reaper_05",
        "Reaper_06",
        "Reaper_07",
        "Reaper_08",
        "Reaper_09",
        "Reaper_10",
        "Reaper_11",
        "Reaper_12"
      ]
    },
    {
      "level": 32,
      "experience": 0,
      "display_names": [
        "Reaper Quantum Gunner"
      ],
      "costumes": [
        "Reaper_01",
        "Reaper_02",
        "Reaper_03",
        "Reaper_04",
        "Reaper_05",
        "Reaper_06",
        "Reaper_07",
        "Reaper_08",
        "Reaper_09",
        "Reaper_10",
        "Reaper_11",
        "Reaper_12"
      ]
    },
    {
      "level": 33,
      "experience": 0,
      "display_names": [
        "Reaper Quantum Gunner"
      ],
      "costumes": [
        "Reaper_01",
        "Reaper_02",
        "Reaper_03",
        "Reaper_04",
        "Reaper_05",
        "Reaper_06",
        "Reaper_07",
        "Reaper_08",
        "Reaper_09",
        "Reaper_10",
        "Reaper_11",
        "Reaper_12"
      ]
    },
    {
      "level": 34,
      "experience": 0,
      "display_names": [
        "Reaper Quantum Gunner"
      ],
      "costumes": [
        "Reaper_01",
        "Reaper_02",
        "Reaper_03",
        "Reaper_04",
        "Reaper_05",
        "Reaper_06",
        "Reaper_07",
        "Reaper_08",
        "Reaper_09",
        "Reaper_10",
        "Reaper_11",
        "Reaper_12"
      ]
    },
    {
      "level": 35,
      "experience": 0,
      "display_names": [
        "Reaper Quantum Gunner"
      ],
      "costumes": [
        "Reaper_01",
        "Reaper_02",
        "Reaper_03",
        "Reaper_04",
        "Reaper_05",
        "Reaper_06",
        "Reaper_07",
        "Reaper_08",
        "Reaper_09",
        "Reaper_10",
        "Reaper_11",
        "Reaper_12"
      ]
    }
  ]
}