{
  "name": "Vahzilok_PathogenNormal",
  "gender": "GENDER_MALE",
  "description": "The Reapers seem to be the only normal humans among the ranks of Dr. Vahzilok's reanimated legions. They are trained surgeons who collect body parts with the help of poison darts and industrial strength hacksaws.",
  "group_description": null,
  "display_class_name": null,
  "character_class_name": "boss_grunt",
  "ai_config": "Default_NeverAfraid",
  "commandable_pet": false,
  "power_tags": [
    "HumanSkeleton",
    "Human"
  ],
  "additional_rewards": [

  ],
  "skill_hp_rewards": [

  ],
  "skill_status_rewards": [

  ],
  "ally": null,
  "gang": null,
  "reward_scale": 1.4,
  "game_exclusion": "None",
  "inactive_state_weapon": null,
  "ignores_combat_mods": false,
  "copy_creator_mods": false,
  "spawn_limit": 0,
  "spawn_limit_mission": 0,
  "ignore_av_to_eb_scaling": false,
  "can_zone": false,
  "custom_badge_stat": null,
  "badge_stat_flags": "DefaultBadgeStat",
  "rank": "VR_BOSS",
  "power_full_names": [
    "Vahzilok.Pathogen_Stage1.Sleep_Dart_Stage1",
    "Vahzilok.Pathogen_Stage1.Quickness_Stage1",
    "Vahzilok.Pathogen_Stage1.Poison_Dart_Stage1",
    "Vahzilok.Pathogen_Stage1.Paralytic_Dart_Stage1",
    "Vahzilok.Pathogen_Stage1.Toxic_Dart_Stage1",
    "Vahzilok.Pathogen_Stage1.Corrosive_Vial_Stage1",
    "Vahzilok.Pathogen_Stage1.Weaken_Stage1",
    "Vahzilok.Pathogen_Stage1.BoneSaw_Stage1",
    "Vahzilok.Pathogen_Stage1.Cleaver_Stage1",
    "Vahzilok.Pathogen_Stage1.Resistance_Stage1"
  ],
  "power_display_names": [
    "Sleep Dart",
    "Quickness",
    "Poison Dart",
    "Paralytic Dart",
    "Toxic Dart",
    "Corrosive Vial",
    "Weaken",
    "BoneSaw",
    "Cleaver",
    "Resistance"
  ],
  "power_levels": [
    0,
    0,
    0,
    0,
    0,
    0,
    0,
    0,
    0,
    0
  ],
  "powers": [
    {
      "power_category": "Vahzilok",
      "power_set": "Pathogen_Stage1",
      "power": "*",
      "level": 0
    }
  ],
  "levels": [
    {
      "level": 20,
      "experience": 0,
      "display_names": [
        "Pathogen"
      ],
      "costumes": [
        "Pathogen_Normal"
      ]
    },
    {
      "level": 21,
      "experience": 0,
      "display_names": [
        "Pathogen"
      ],
      "costumes": [
        "Pathogen_Normal"
      ]
    },
    {
      "level": 22,
      "experience": 0,
      "display_names": [
        "Pathogen"
      ],
      "costumes": [
        "Pathogen_Normal"
      ]
    },
    {
      "level": 23,
      "experience": 0,
      "display_names": [
        "Pathogen"
      ],
      "costumes": [
        "Pathogen_Normal"
      ]
    },
    {
      "level": 24,
      "experience": 0,
      "display_names": [
        "Pathogen"
      ],
      "costumes": [
        "Pathogen_Normal"
      ]
    },
    {
      "level": 25,
      "experience": 0,
      "display_names": [
        "Pathogen"
      ],
      "costumes": [
        "Pathogen_Normal"
      ]
    },
    {
      "level": 26,
      "experience": 0,
      "display_names": [
        "Pathogen"
      ],
      "costumes": [
        "Pathogen_Normal"
      ]
    },
    {
      "level": 27,
      "experience": 0,
      "display_names": [
        "Pathogen"
      ],
      "costumes": [
        "Pathogen_Normal"
      ]
    },
    {
      "level": 28,
      "experience": 0,
      "display_names": [
        "Pathogen"
      ],
      "costumes": [
        "Pathogen_Normal"
      ]
    },
    {
      "level": 29,
      "experience": 0,
      "display_names": [
        "Pathogen"
      ],
      "costumes": [
        "Pathogen_Normal"
      ]
    },
    {
      "level": 30,
      "experience": 0,
      "display_names": [
        "Pathogen"
      ],
      "costumes": [
        "Pathogen_Normal"
      ]
    },
    {
      "level": 31,
      "experience": 0,
      "display_names": [
        "Pathogen"
      ],
      "costumes": [
        "Pathogen_Normal"
      ]
    },
    {
      "level": 32,
      "experience": 0,
      "display_names": [
        "Pathogen"
      ],
      "costumes": [
        "Pathogen_Normal"
      ]
    },
    {
      "level": 33,
      "experience": 0,
      "display_names": [
        "Pathogen"
      ],
      "costumes": [
        "Pathogen_Normal"
      ]
    },
    {
      "level": 34,
      "experience": 0,
      "display_names": [
        "Pathogen"
      ],
      "costumes": [
        "Pathogen_Normal"
      ]
    },
    {
      "level": 35,
      "experience": 0,
      "display_names": [
        "Pathogen"
      ],
      "costumes": [
        "Pathogen_Normal"
      ]
    }
  ]
}