{
  "name": "Vanguard_Shield_Fusionette_Formal",
  "gender": "GENDER_FEMALE",
  "description": "Fusionette is one of the Nuclear 90; 90 children from around the world all born in one year with an unusual mutation that gives them natural magnetic nuclear fusion reactors for hearts, and the ability to channel energy from their internal reactor for a variety of super powers. Like many of the Nuclear 90, Fusionette has decided to use her powers for the betterment of mankind as a hero. She has recently joined the Vanguard along with her boyfriend Faultline in order to help fight the Rikti.",
  "group_description": "Vanguard Shield",
  "display_class_name": "Hero",
  "character_class_name": "boss_signature_pets",
  "ai_config": "Default_Ranged",
  "commandable_pet": false,
  "power_tags": [

  ],
  "additional_rewards": [

  ],
  "skill_hp_rewards": [

  ],
  "skill_status_rewards": [

  ],
  "ally": null,
  "gang": "1",
  "reward_scale": 1.0,
  "game_exclusion": "None",
  "inactive_state_weapon": null,
  "ignores_combat_mods": false,
  "copy_creator_mods": false,
  "spawn_limit": 0,
  "spawn_limit_mission": 0,
  "ignore_av_to_eb_scaling": false,
  "can_zone": false,
  "custom_badge_stat": null,
  "badge_stat_flags": "DefaultBadgeStat",
  "rank": "VR_PET",
  "power_full_names": [
    "Vanguard.Fusionette.Power_Bolt",
    "Vanguard.Fusionette.Power_Blast",
    "Vanguard.Fusionette.Power_Beam",
    "Vanguard.Fusionette.Explosive_Blast",
    "Vanguard.Fusionette.Power_Burst",
    "V_Vindicators.Vindicator_Resistances.Resistance"
  ],
  "power_display_names": [
    "Power Bolt",
    "Power Blast",
    "Power Beam",
    "Explosive Blast",
    "Power Burst",
    "Resistance"
  ],
  "power_levels": [
    0,
    0,
    0,
    0,
    0,
    0
  ],
  "powers": [
    {
      "power_category": "Vanguard",
      "power_set": "Fusionette",
      "power": "*",
      "level": 0
    },
    {
      "power_category": "V_Vindicators",
      "power_set": "Vindicator_Resistances",
      "power": "*",
      "level": 0
    }
  ],
  "levels": [
    {
      "level": 30,
      "experience": 0,
      "display_names": [
        "Fusionette"
      ],
      "costumes": [
        "Model_Fusionette_Formal_01"
      ]
    },
    {
      "level": 31,
      "experience": 0,
      "display_names": [
        "Fusionette"
      ],
      "costumes": [
        "Model_Fusionette_Formal_01"
      ]
    },
    {
      "level": 32,
      "experience": 0,
      "display_names": [
        "Fusionette"
      ],
      "costumes": [
        "Model_Fusionette_Formal_01"
      ]
    },
    {
      "level": 33,
      "experience": 0,
      "display_names": [
        "Fusionette"
      ],
      "costumes": [
        "Model_Fusionette_Formal_01"
      ]
    },
    {
      "level": 34,
      "experience": 0,
      "display_names": [
        "Fusionette"
      ],
      "costumes": [
        "Model_Fusionette_Formal_01"
      ]
    },
    {
      "level": 35,
      "experience": 0,
      "display_names": [
        "Fusionette"
      ],
      "costumes": [
        "Model_Fusionette_Formal_01"
      ]
    },
    {
      "level": 36,
      "experience": 0,
      "display_names": [
        "Fusionette"
      ],
      "costumes": [
        "Model_Fusionette_Formal_01"
      ]
    },
    {
      "level": 37,
      "experience": 0,
      "display_names": [
        "Fusionette"
      ],
      "costumes": [
        "Model_Fusionette_Formal_01"
      ]
    },
    {
      "level": 38,
      "experience": 0,
      "display_names": [
        "Fusionette"
      ],
      "costumes": [
        "Model_Fusionette_Formal_01"
      ]
    },
    {
      "level": 39,
      "experience": 0,
      "display_names": [
        "Fusionette"
      ],
      "costumes": [
        "Model_Fusionette_Formal_01"
      ]
    },
    {
      "level": 40,
      "experience": 0,
      "display_names": [
        "Fusionette"
      ],
      "costumes": [
        "Model_Fusionette_Formal_01"
      ]
    },
    {
      "level": 41,
      "experience": 0,
      "display_names": [
        "Fusionette"
      ],
      "costumes": [
        "Model_Fusionette_Formal_01"
      ]
    },
    {
      "level": 42,
      "experience": 0,
      "display_names": [
        "Fusionette"
      ],
      "costumes": [
        "Model_Fusionette_Formal_01"
      ]
    },
    {
      "level": 43,
      "experience": 0,
      "display_names": [
        "Fusionette"
      ],
      "costumes": [
        "Model_Fusionette_Formal_01"
      ]
    },
    {
      "level": 44,
      "experience": 0,
      "display_names": [
        "Fusionette"
      ],
      "costumes": [
        "Model_Fusionette_Formal_01"
      ]
    },
    {
      "level": 45,
      "experience": 0,
      "display_names": [
        "Fusionette"
      ],
      "costumes": [
        "Model_Fusionette_Formal_01"
      ]
    },
    {
      "level": 46,
      "experience": 0,
      "display_names": [
        "Fusionette"
      ],
      "costumes": [
        "Model_Fusionette_Formal_01"
      ]
    },
    {
      "level": 47,
      "experience": 0,
      "display_names": [
        "Fusionette"
      ],
      "costumes": [
        "Model_Fusionette_Formal_01"
      ]
    },
    {
      "level": 48,
      "experience": 0,
      "display_names": [
        "Fusionette"
      ],
      "costumes": [
        "Model_Fusionette_Formal_01"
      ]
    },
    {
      "level": 49,
      "experience": 0,
      "display_names": [
        "Fusionette"
      ],
      "costumes": [
        "Model_Fusionette_Formal_01"
      ]
    },
    {
      "level": 50,
      "experience": 0,
      "display_names": [
        "Fusionette"
      ],
      "costumes": [
        "Model_Fusionette_Formal_01"
      ]
    },
    {
      "level": 51,
      "experience": 0,
      "display_names": [
        "Fusionette"
      ],
      "costumes": [
        "Model_Fusionette_Formal_01"
      ]
    },
    {
      "level": 52,
      "experience": 0,
      "display_names": [
        "Fusionette"
      ],
      "costumes": [
        "Model_Fusionette_Formal_01"
      ]
    },
    {
      "level": 53,
      "experience": 0,
      "display_names": [
        "Fusionette"
      ],
      "costumes": [
        "Model_Fusionette_Formal_01"
      ]
    },
    {
      "level": 54,
      "experience": 0,
      "display_names": [
        "Fusionette"
      ],
      "costumes": [
        "Model_Fusionette_Formal_01"
      ]
    }
  ]
}