{
  "name": "Vanguard_Sword_General_Alito",
  "gender": "GENDER_MALE",
  "description": "General Alito was once one of the leaders of a rogue faction of Vanguard. His plans were stopped by a super-powered individual, and he was put in a Vanguard prison afterwards. His escape went unnoticed due to Vanguard's focus on repelling the Praetorian invasion. Now, Alito wishes to build up his power once more, believing that he was in the right the entire time, and that one day Vanguard will pay for crushing him.",
  "group_description": "Rogue Vanguard",
  "display_class_name": null,
  "character_class_name": "boss_grunt",
  "ai_config": "Default_Ranged",
  "commandable_pet": false,
  "power_tags": [
    "HumanSkeleton",
    "Human"
  ],
  "additional_rewards": [

  ],
  "skill_hp_rewards": [

  ],
  "skill_status_rewards": [

  ],
  "ally": null,
  "gang": null,
  "reward_scale": 1.0,
  "game_exclusion": "None",
  "inactive_state_weapon": null,
  "ignores_combat_mods": false,
  "copy_creator_mods": false,
  "spawn_limit": 0,
  "spawn_limit_mission": 0,
  "ignore_av_to_eb_scaling": false,
  "can_zone": false,
  "custom_badge_stat": null,
  "badge_stat_flags": "DefaultBadgeStat",
  "rank": "VR_BOSS",
  "power_full_names": [
    "Vanguard.Staff_of_the_MAGI.Life_Drain",
    "Vanguard.Staff_of_the_MAGI.Freezing_Sphere",
    "Vanguard.Staff_of_the_MAGI.Ice_Blast",
    "Vanguard.Staff_of_the_MAGI.Ball_Lightning",
    "Vanguard.Staff_of_the_MAGI.Defense_Aura",
    "Vanguard.Tactics.Tactics",
    "Vanguard.Heavy_Armor.Impervium_Armor"
  ],
  "power_display_names": [
    "Life Drain",
    "Freezing Sphere",
    "Ice Blast",
    "Ball Lightning",
    "Defense Aura",
    "Tactics",
    "Impervium Armor"
  ],
  "power_levels": [
    0,
    0,
    0,
    0,
    0,
    0,
    0
  ],
  "powers": [
    {
      "power_category": "Vanguard",
      "power_set": "Staff_of_the_MAGI",
      "power": "*",
      "level": 0
    },
    {
      "power_category": "Vanguard",
      "power_set": "Tactics",
      "power": "*",
      "level": 0
    },
    {
      "power_category": "Vanguard",
      "power_set": "Heavy_Armor",
      "power": "*",
      "level": 0
    }
  ],
  "levels": [
    {
      "level": 30,
      "experience": 0,
      "display_names": [
        "General Alito"
      ],
      "costumes": [
        "Vanguard_General_Alito"
      ]
    },
    {
      "level": 31,
      "experience": 0,
      "display_names": [
        "General Alito"
      ],
      "costumes": [
        "Vanguard_General_Alito"
      ]
    },
    {
      "level": 32,
      "experience": 0,
      "display_names": [
        "General Alito"
      ],
      "costumes": [
        "Vanguard_General_Alito"
      ]
    },
    {
      "level": 33,
      "experience": 0,
      "display_names": [
        "General Alito"
      ],
      "costumes": [
        "Vanguard_General_Alito"
      ]
    },
    {
      "level": 34,
      "experience": 0,
      "display_names": [
        "General Alito"
      ],
      "costumes": [
        "Vanguard_General_Alito"
      ]
    },
    {
      "level": 35,
      "experience": 0,
      "display_names": [
        "General Alito"
      ],
      "costumes": [
        "Vanguard_General_Alito"
      ]
    },
    {
      "level": 36,
      "experience": 0,
      "display_names": [
        "General Alito"
      ],
      "costumes": [
        "Vanguard_General_Alito"
      ]
    },
    {
      "level": 37,
      "experience": 0,
      "display_names": [
        "General Alito"
      ],
      "costumes": [
        "Vanguard_General_Alito"
      ]
    },
    {
      "level": 38,
      "experience": 0,
      "display_names": [
        "General Alito"
      ],
      "costumes": [
        "Vanguard_General_Alito"
      ]
    },
    {
      "level": 39,
      "experience": 0,
      "display_names": [
        "General Alito"
      ],
      "costumes": [
        "Vanguard_General_Alito"
      ]
    },
    {
      "level": 40,
      "experience": 0,
      "display_names": [
        "General Alito"
      ],
      "costumes": [
        "Vanguard_General_Alito"
      ]
    },
    {
      "level": 41,
      "experience": 0,
      "display_names": [
        "General Alito"
      ],
      "costumes": [
        "Vanguard_General_Alito"
      ]
    },
    {
      "level": 42,
      "experience": 0,
      "display_names": [
        "General Alito"
      ],
      "costumes": [
        "Vanguard_General_Alito"
      ]
    },
    {
      "level": 43,
      "experience": 0,
      "display_names": [
        "General Alito"
      ],
      "costumes": [
        "Vanguard_General_Alito"
      ]
    },
    {
      "level": 44,
      "experience": 0,
      "display_names": [
        "General Alito"
      ],
      "costumes": [
        "Vanguard_General_Alito"
      ]
    },
    {
      "level": 45,
      "experience": 0,
      "display_names": [
        "General Alito"
      ],
      "costumes": [
        "Vanguard_General_Alito"
      ]
    },
    {
      "level": 46,
      "experience": 0,
      "display_names": [
        "General Alito"
      ],
      "costumes": [
        "Vanguard_General_Alito"
      ]
    },
    {
      "level": 47,
      "experience": 0,
      "display_names": [
        "General Alito"
      ],
      "costumes": [
        "Vanguard_General_Alito"
      ]
    },
    {
      "level": 48,
      "experience": 0,
      "display_names": [
        "General Alito"
      ],
      "costumes": [
        "Vanguard_General_Alito"
      ]
    },
    {
      "level": 49,
      "experience": 0,
      "display_names": [
        "General Alito"
      ],
      "costumes": [
        "Vanguard_General_Alito"
      ]
    },
    {
      "level": 50,
      "experience": 0,
      "display_names": [
        "General Alito"
      ],
      "costumes": [
        "Vanguard_General_Alito"
      ]
    },
    {
      "level": 51,
      "experience": 0,
      "display_names": [
        "General Alito"
      ],
      "costumes": [
        "Vanguard_General_Alito"
      ]
    },
    {
      "level": 52,
      "experience": 0,
      "display_names": [
        "General Alito"
      ],
      "costumes": [
        "Vanguard_General_Alito"
      ]
    },
    {
      "level": 53,
      "experience": 0,
      "display_names": [
        "General Alito"
      ],
      "costumes": [
        "Vanguard_General_Alito"
      ]
    },
    {
      "level": 54,
      "experience": 0,
      "display_names": [
        "General Alito"
      ],
      "costumes": [
        "Vanguard_General_Alito"
      ]
    }
  ]
}