{
  "name": "Vanguard_Shield_Sergeant_2",
  "gender": "GENDER_FEMALE",
  "description": "Vanguard is a group backed by the United Nations, and headed up by Lady Grey. Their soldiers are specifically outfitted in Impervium armor and with high-tech as well as magical weaponry to fight the Rikti. Everything they do is centered around containing the Rikti menace on our world.",
  "group_description": "Vanguard Shield",
  "display_class_name": null,
  "character_class_name": "lt_grunt",
  "ai_config": "Default_Ranged",
  "commandable_pet": false,
  "power_tags": [
    "HumanSkeleton",
    "Human"
  ],
  "additional_rewards": [

  ],
  "skill_hp_rewards": [

  ],
  "skill_status_rewards": [

  ],
  "ally": null,
  "gang": "1",
  "reward_scale": 1.0,
  "game_exclusion": "None",
  "inactive_state_weapon": null,
  "ignores_combat_mods": false,
  "copy_creator_mods": false,
  "spawn_limit": -1,
  "spawn_limit_mission": -1,
  "ignore_av_to_eb_scaling": false,
  "can_zone": false,
  "custom_badge_stat": null,
  "badge_stat_flags": "DefaultBadgeStat",
  "rank": "VR_LIEUTENANT",
  "power_full_names": [
    "Vanguard.SR71_Rifle.Bayonet",
    "Vanguard.SR71_Rifle.Burst",
    "Vanguard.SR71_Rifle.Willie_Pete_Round",
    "Vanguard.Medium_Armor.Impervium_Armor"
  ],
  "power_display_names": [
    "Bayonet",
    "Burst",
    "Willie Pete Round",
    "Impervium Armor"
  ],
  "power_levels": [
    0,
    0,
    0,
    0
  ],
  "powers": [
    {
      "power_category": "Vanguard",
      "power_set": "SR71_Rifle",
      "power": "Bayonet",
      "level": 0
    },
    {
      "power_category": "Vanguard",
      "power_set": "SR71_Rifle",
      "power": "Burst",
      "level": 0
    },
    {
      "power_category": "Vanguard",
      "power_set": "SR71_Rifle",
      "power": "Willie_Pete_Round",
      "level": 0
    },
    {
      "power_category": "Vanguard",
      "power_set": "Medium_Armor",
      "power": "*",
      "level": 0
    }
  ],
  "levels": [
    {
      "level": 30,
      "experience": 0,
      "display_names": [
        "Vanguard Sergeant"
      ],
      "costumes": [
        "Vanguard_Shield_Female_Lt_01"
      ]
    },
    {
      "level": 31,
      "experience": 0,
      "display_names": [
        "Vanguard Sergeant"
      ],
      "costumes": [
        "Vanguard_Shield_Female_Lt_01"
      ]
    },
    {
      "level": 32,
      "experience": 0,
      "display_names": [
        "Vanguard Sergeant"
      ],
      "costumes": [
        "Vanguard_Shield_Female_Lt_01"
      ]
    },
    {
      "level": 33,
      "experience": 0,
      "display_names": [
        "Vanguard Sergeant"
      ],
      "costumes": [
        "Vanguard_Shield_Female_Lt_01"
      ]
    },
    {
      "level": 34,
      "experience": 0,
      "display_names": [
        "Vanguard Sergeant"
      ],
      "costumes": [
        "Vanguard_Shield_Female_Lt_01"
      ]
    },
    {
      "level": 35,
      "experience": 0,
      "display_names": [
        "Vanguard Sergeant"
      ],
      "costumes": [
        "Vanguard_Shield_Female_Lt_01"
      ]
    },
    {
      "level": 36,
      "experience": 0,
      "display_names": [
        "Vanguard Sergeant"
      ],
      "costumes": [
        "Vanguard_Shield_Female_Lt_01"
      ]
    },
    {
      "level": 37,
      "experience": 0,
      "display_names": [
        "Vanguard Sergeant"
      ],
      "costumes": [
        "Vanguard_Shield_Female_Lt_01"
      ]
    },
    {
      "level": 38,
      "experience": 0,
      "display_names": [
        "Vanguard Sergeant"
      ],
      "costumes": [
        "Vanguard_Shield_Female_Lt_01"
      ]
    },
    {
      "level": 39,
      "experience": 0,
      "display_names": [
        "Vanguard Sergeant"
      ],
      "costumes": [
        "Vanguard_Shield_Female_Lt_01"
      ]
    },
    {
      "level": 40,
      "experience": 0,
      "display_names": [
        "Vanguard Sergeant"
      ],
      "costumes": [
        "Vanguard_Shield_Female_Lt_01"
      ]
    },
    {
      "level": 41,
      "experience": 0,
      "display_names": [
        "Vanguard Sergeant"
      ],
      "costumes": [
        "Vanguard_Shield_Female_Lt_01"
      ]
    },
    {
      "level": 42,
      "experience": 0,
      "display_names": [
        "Vanguard Sergeant"
      ],
      "costumes": [
        "Vanguard_Shield_Female_Lt_01"
      ]
    },
    {
      "level": 43,
      "experience": 0,
      "display_names": [
        "Vanguard Sergeant"
      ],
      "costumes": [
        "Vanguard_Shield_Female_Lt_01"
      ]
    },
    {
      "level": 44,
      "experience": 0,
      "display_names": [
        "Vanguard Sergeant"
      ],
      "costumes": [
        "Vanguard_Shield_Female_Lt_01"
      ]
    },
    {
      "level": 45,
      "experience": 0,
      "display_names": [
        "Vanguard Sergeant"
      ],
      "costumes": [
        "Vanguard_Shield_Female_Lt_01"
      ]
    },
    {
      "level": 46,
      "experience": 0,
      "display_names": [
        "Vanguard Sergeant"
      ],
      "costumes": [
        "Vanguard_Shield_Female_Lt_01"
      ]
    },
    {
      "level": 47,
      "experience": 0,
      "display_names": [
        "Vanguard Sergeant"
      ],
      "costumes": [
        "Vanguard_Shield_Female_Lt_01"
      ]
    },
    {
      "level": 48,
      "experience": 0,
      "display_names": [
        "Vanguard Sergeant"
      ],
      "costumes": [
        "Vanguard_Shield_Female_Lt_01"
      ]
    },
    {
      "level": 49,
      "experience": 0,
      "display_names": [
        "Vanguard Sergeant"
      ],
      "costumes": [
        "Vanguard_Shield_Female_Lt_01"
      ]
    },
    {
      "level": 50,
      "experience": 0,
      "display_names": [
        "Vanguard Sergeant"
      ],
      "costumes": [
        "Vanguard_Shield_Female_Lt_01"
      ]
    },
    {
      "level": 51,
      "experience": 0,
      "display_names": [
        "Vanguard Sergeant"
      ],
      "costumes": [
        "Vanguard_Shield_Female_Lt_01"
      ]
    },
    {
      "level": 52,
      "experience": 0,
      "display_names": [
        "Vanguard Sergeant"
      ],
      "costumes": [
        "Vanguard_Shield_Female_Lt_01"
      ]
    },
    {
      "level": 53,
      "experience": 0,
      "display_names": [
        "Vanguard Sergeant"
      ],
      "costumes": [
        "Vanguard_Shield_Female_Lt_01"
      ]
    },
    {
      "level": 54,
      "experience": 0,
      "display_names": [
        "Vanguard Sergeant"
      ],
      "costumes": [
        "Vanguard_Shield_Female_Lt_01"
      ]
    }
  ]
}