{
  "name": "Vindicators_Mynx_Boss_NoScale",
  "gender": "GENDER_FEMALE",
  "description": "Katherine Stevens was a young college student who was transformed against her will by cruel Crey experimentation. After escaping from Crey, she was discovered on the streets by Synapse of the Freedom Phalanx, who helped her regain control and recover her memory. Now she uses her superhuman reflexes and implanted battle claws to hunt crime in the urban jungle of Paragon City.",
  "group_description": null,
  "display_class_name": "Hero",
  "character_class_name": "boss_grunt",
  "ai_config": "Signatures_Melee",
  "commandable_pet": false,
  "power_tags": [
    "HumanSkeleton"
  ],
  "additional_rewards": [

  ],
  "skill_hp_rewards": [

  ],
  "skill_status_rewards": [

  ],
  "ally": null,
  "gang": null,
  "reward_scale": 1.0,
  "game_exclusion": "None",
  "inactive_state_weapon": null,
  "ignores_combat_mods": false,
  "copy_creator_mods": false,
  "spawn_limit": 0,
  "spawn_limit_mission": 0,
  "ignore_av_to_eb_scaling": true,
  "can_zone": false,
  "custom_badge_stat": null,
  "badge_stat_flags": "DefaultBadgeStat",
  "rank": "VR_BOSS",
  "power_full_names": [
    "V_Vindicators.Vindicator_Resistances.Resistance",
    "V_Vindicators.Mynx_Low.Strike",
    "V_Vindicators.Mynx_Low.Slash",
    "V_Vindicators.Mynx_Low.Spin",
    "V_Vindicators.Mynx_Low.Follow_Up",
    "V_Vindicators.Mynx_Low.Focus",
    "V_Vindicators.Mynx_Low.Shockwave",
    "V_Vindicators.Mynx_Low.Focused_Fighting",
    "V_Vindicators.Mynx_Low.Feral_Flurry",
    "V_Vindicators.Mynx_Low.Super_Leap"
  ],
  "power_display_names": [
    "Resistance",
    "Strike",
    "Slash",
    "Spin",
    "Follow Up",
    "Focus",
    "Shockwave",
    "Focused Fighting",
    "Feral Flurry",
    "Super Leap"
  ],
  "power_levels": [
    0,
    0,
    0,
    0,
    0,
    0,
    0,
    0,
    0,
    0
  ],
  "powers": [
    {
      "power_category": "V_Vindicators",
      "power_set": "Vindicator_Resistances",
      "power": "*",
      "level": 0
    },
    {
      "power_category": "V_Vindicators",
      "power_set": "Mynx_Low",
      "power": "*",
      "level": 0
    }
  ],
  "levels": [
    {
      "level": 40,
      "experience": 0,
      "display_names": [
        "Mynx"
      ],
      "costumes": [
        "Model_Minx"
      ]
    },
    {
      "level": 41,
      "experience": 0,
      "display_names": [
        "Mynx"
      ],
      "costumes": [
        "Model_Minx"
      ]
    },
    {
      "level": 42,
      "experience": 0,
      "display_names": [
        "Mynx"
      ],
      "costumes": [
        "Model_Minx"
      ]
    },
    {
      "level": 43,
      "experience": 0,
      "display_names": [
        "Mynx"
      ],
      "costumes": [
        "Model_Minx"
      ]
    },
    {
      "level": 44,
      "experience": 0,
      "display_names": [
        "Mynx"
      ],
      "costumes": [
        "Model_Minx"
      ]
    },
    {
      "level": 45,
      "experience": 0,
      "display_names": [
        "Mynx"
      ],
      "costumes": [
        "Model_Minx"
      ]
    },
    {
      "level": 46,
      "experience": 0,
      "display_names": [
        "Mynx"
      ],
      "costumes": [
        "Model_Minx"
      ]
    },
    {
      "level": 47,
      "experience": 0,
      "display_names": [
        "Mynx"
      ],
      "costumes": [
        "Model_Minx"
      ]
    },
    {
      "level": 48,
      "experience": 0,
      "display_names": [
        "Mynx"
      ],
      "costumes": [
        "Model_Minx"
      ]
    },
    {
      "level": 49,
      "experience": 0,
      "display_names": [
        "Mynx"
      ],
      "costumes": [
        "Model_Minx"
      ]
    },
    {
      "level": 50,
      "experience": 0,
      "display_names": [
        "Mynx"
      ],
      "costumes": [
        "Model_Minx"
      ]
    },
    {
      "level": 51,
      "experience": 0,
      "display_names": [
        "Mynx"
      ],
      "costumes": [
        "Model_Minx"
      ]
    },
    {
      "level": 52,
      "experience": 0,
      "display_names": [
        "Mynx"
      ],
      "costumes": [
        "Model_Minx"
      ]
    },
    {
      "level": 53,
      "experience": 0,
      "display_names": [
        "Mynx"
      ],
      "costumes": [
        "Model_Minx"
      ]
    },
    {
      "level": 54,
      "experience": 0,
      "display_names": [
        "Mynx"
      ],
      "costumes": [
        "Model_Minx"
      ]
    }
  ]
}