{
  "name": "Vindicators_Tuatha_Lt",
  "gender": "GENDER_MALE",
  "description": "These beastly creatures follow the call of their master, Woodsman.",
  "group_description": "Woodsman",
  "display_class_name": null,
  "character_class_name": "lt_grunt",
  "ai_config": "Default_Ranged",
  "commandable_pet": false,
  "power_tags": [
    "Fey"
  ],
  "additional_rewards": [

  ],
  "skill_hp_rewards": [

  ],
  "skill_status_rewards": [

  ],
  "ally": null,
  "gang": null,
  "reward_scale": 1.0,
  "game_exclusion": "None",
  "inactive_state_weapon": null,
  "ignores_combat_mods": false,
  "copy_creator_mods": false,
  "spawn_limit": 0,
  "spawn_limit_mission": 0,
  "ignore_av_to_eb_scaling": false,
  "can_zone": false,
  "custom_badge_stat": null,
  "badge_stat_flags": "DefaultBadgeStat",
  "rank": "VR_LIEUTENANT",
  "power_full_names": [
    "Tuatha.Tuatha_Lt_Resists.Resistance",
    "Tuatha.Tuatha_Lt_Melee.Smash",
    "Tuatha.Tuatha_Lt_Melee.Head_Butt",
    "Tuatha.Tuatha_Lt_Defender.Tremor",
    "Tuatha.Tuatha_Lt_Defender.Earths_Embrace",
    "Tuatha.Tuatha_Lt_Defender.Root_Throw"
  ],
  "power_display_names": [
    "Resistance",
    "Smash",
    "Head Butt",
    "Tremor",
    "Earth's Embrace",
    "Root Throw"
  ],
  "power_levels": [
    0,
    0,
    0,
    0,
    0,
    0
  ],
  "powers": [
    {
      "power_category": "Tuatha",
      "power_set": "Tuatha_Lt_Resists",
      "power": "*",
      "level": 0
    },
    {
      "power_category": "Tuatha",
      "power_set": "Tuatha_Lt_Melee",
      "power": "*",
      "level": 0
    },
    {
      "power_category": "Tuatha",
      "power_set": "Tuatha_Lt_Defender",
      "power": "*",
      "level": 0
    }
  ],
  "levels": [
    {
      "level": 1,
      "experience": 0,
      "display_names": [
        "Champion"
      ],
      "costumes": [
        "Croatoa_Tuatha_Lieutenant_01",
        "Croatoa_Tuatha_Lieutenant_02",
        "Croatoa_Tuatha_Lieutenant_03"
      ]
    },
    {
      "level": 2,
      "experience": 0,
      "display_names": [
        "Champion"
      ],
      "costumes": [
        "Croatoa_Tuatha_Lieutenant_01",
        "Croatoa_Tuatha_Lieutenant_02",
        "Croatoa_Tuatha_Lieutenant_03"
      ]
    },
    {
      "level": 3,
      "experience": 0,
      "display_names": [
        "Champion"
      ],
      "costumes": [
        "Croatoa_Tuatha_Lieutenant_01",
        "Croatoa_Tuatha_Lieutenant_02",
        "Croatoa_Tuatha_Lieutenant_03"
      ]
    },
    {
      "level": 4,
      "experience": 0,
      "display_names": [
        "Champion"
      ],
      "costumes": [
        "Croatoa_Tuatha_Lieutenant_01",
        "Croatoa_Tuatha_Lieutenant_02",
        "Croatoa_Tuatha_Lieutenant_03"
      ]
    },
    {
      "level": 5,
      "experience": 0,
      "display_names": [
        "Champion"
      ],
      "costumes": [
        "Croatoa_Tuatha_Lieutenant_01",
        "Croatoa_Tuatha_Lieutenant_02",
        "Croatoa_Tuatha_Lieutenant_03"
      ]
    },
    {
      "level": 6,
      "experience": 0,
      "display_names": [
        "Champion"
      ],
      "costumes": [
        "Croatoa_Tuatha_Lieutenant_01",
        "Croatoa_Tuatha_Lieutenant_02",
        "Croatoa_Tuatha_Lieutenant_03"
      ]
    },
    {
      "level": 7,
      "experience": 0,
      "display_names": [
        "Champion"
      ],
      "costumes": [
        "Croatoa_Tuatha_Lieutenant_01",
        "Croatoa_Tuatha_Lieutenant_02",
        "Croatoa_Tuatha_Lieutenant_03"
      ]
    },
    {
      "level": 8,
      "experience": 0,
      "display_names": [
        "Champion"
      ],
      "costumes": [
        "Croatoa_Tuatha_Lieutenant_01",
        "Croatoa_Tuatha_Lieutenant_02",
        "Croatoa_Tuatha_Lieutenant_03"
      ]
    },
    {
      "level": 9,
      "experience": 0,
      "display_names": [
        "Champion"
      ],
      "costumes": [
        "Croatoa_Tuatha_Lieutenant_01",
        "Croatoa_Tuatha_Lieutenant_02",
        "Croatoa_Tuatha_Lieutenant_03"
      ]
    },
    {
      "level": 10,
      "experience": 0,
      "display_names": [
        "Champion"
      ],
      "costumes": [
        "Croatoa_Tuatha_Lieutenant_01",
        "Croatoa_Tuatha_Lieutenant_02",
        "Croatoa_Tuatha_Lieutenant_03"
      ]
    },
    {
      "level": 11,
      "experience": 0,
      "display_names": [
        "Champion"
      ],
      "costumes": [
        "Croatoa_Tuatha_Lieutenant_01",
        "Croatoa_Tuatha_Lieutenant_02",
        "Croatoa_Tuatha_Lieutenant_03"
      ]
    },
    {
      "level": 12,
      "experience": 0,
      "display_names": [
        "Champion"
      ],
      "costumes": [
        "Croatoa_Tuatha_Lieutenant_01",
        "Croatoa_Tuatha_Lieutenant_02",
        "Croatoa_Tuatha_Lieutenant_03"
      ]
    },
    {
      "level": 13,
      "experience": 0,
      "display_names": [
        "Champion"
      ],
      "costumes": [
        "Croatoa_Tuatha_Lieutenant_01",
        "Croatoa_Tuatha_Lieutenant_02",
        "Croatoa_Tuatha_Lieutenant_03"
      ]
    },
    {
      "level": 14,
      "experience": 0,
      "display_names": [
        "Champion"
      ],
      "costumes": [
        "Croatoa_Tuatha_Lieutenant_01",
        "Croatoa_Tuatha_Lieutenant_02",
        "Croatoa_Tuatha_Lieutenant_03"
      ]
    },
    {
      "level": 15,
      "experience": 0,
      "display_names": [
        "Champion"
      ],
      "costumes": [
        "Croatoa_Tuatha_Lieutenant_01",
        "Croatoa_Tuatha_Lieutenant_02",
        "Croatoa_Tuatha_Lieutenant_03"
      ]
    },
    {
      "level": 16,
      "experience": 0,
      "display_names": [
        "Champion"
      ],
      "costumes": [
        "Croatoa_Tuatha_Lieutenant_01",
        "Croatoa_Tuatha_Lieutenant_02",
        "Croatoa_Tuatha_Lieutenant_03"
      ]
    },
    {
      "level": 17,
      "experience": 0,
      "display_names": [
        "Champion"
      ],
      "costumes": [
        "Croatoa_Tuatha_Lieutenant_01",
        "Croatoa_Tuatha_Lieutenant_02",
        "Croatoa_Tuatha_Lieutenant_03"
      ]
    },
    {
      "level": 18,
      "experience": 0,
      "display_names": [
        "Champion"
      ],
      "costumes": [
        "Croatoa_Tuatha_Lieutenant_01",
        "Croatoa_Tuatha_Lieutenant_02",
        "Croatoa_Tuatha_Lieutenant_03"
      ]
    },
    {
      "level": 19,
      "experience": 0,
      "display_names": [
        "Champion"
      ],
      "costumes": [
        "Croatoa_Tuatha_Lieutenant_01",
        "Croatoa_Tuatha_Lieutenant_02",
        "Croatoa_Tuatha_Lieutenant_03"
      ]
    },
    {
      "level": 20,
      "experience": 0,
      "display_names": [
        "Champion"
      ],
      "costumes": [
        "Croatoa_Tuatha_Lieutenant_01",
        "Croatoa_Tuatha_Lieutenant_02",
        "Croatoa_Tuatha_Lieutenant_03"
      ]
    },
    {
      "level": 21,
      "experience": 0,
      "display_names": [
        "Champion"
      ],
      "costumes": [
        "Croatoa_Tuatha_Lieutenant_01",
        "Croatoa_Tuatha_Lieutenant_02",
        "Croatoa_Tuatha_Lieutenant_03"
      ]
    },
    {
      "level": 22,
      "experience": 0,
      "display_names": [
        "Champion"
      ],
      "costumes": [
        "Croatoa_Tuatha_Lieutenant_01",
        "Croatoa_Tuatha_Lieutenant_02",
        "Croatoa_Tuatha_Lieutenant_03"
      ]
    },
    {
      "level": 23,
      "experience": 0,
      "display_names": [
        "Champion"
      ],
      "costumes": [
        "Croatoa_Tuatha_Lieutenant_01",
        "Croatoa_Tuatha_Lieutenant_02",
        "Croatoa_Tuatha_Lieutenant_03"
      ]
    },
    {
      "level": 24,
      "experience": 0,
      "display_names": [
        "Champion"
      ],
      "costumes": [
        "Croatoa_Tuatha_Lieutenant_01",
        "Croatoa_Tuatha_Lieutenant_02",
        "Croatoa_Tuatha_Lieutenant_03"
      ]
    },
    {
      "level": 25,
      "experience": 0,
      "display_names": [
        "Champion"
      ],
      "costumes": [
        "Croatoa_Tuatha_Lieutenant_01",
        "Croatoa_Tuatha_Lieutenant_02",
        "Croatoa_Tuatha_Lieutenant_03"
      ]
    },
    {
      "level": 26,
      "experience": 0,
      "display_names": [
        "Champion"
      ],
      "costumes": [
        "Croatoa_Tuatha_Lieutenant_01",
        "Croatoa_Tuatha_Lieutenant_02",
        "Croatoa_Tuatha_Lieutenant_03"
      ]
    },
    {
      "level": 27,
      "experience": 0,
      "display_names": [
        "Champion"
      ],
      "costumes": [
        "Croatoa_Tuatha_Lieutenant_01",
        "Croatoa_Tuatha_Lieutenant_02",
        "Croatoa_Tuatha_Lieutenant_03"
      ]
    },
    {
      "level": 28,
      "experience": 0,
      "display_names": [
        "Champion"
      ],
      "costumes": [
        "Croatoa_Tuatha_Lieutenant_01",
        "Croatoa_Tuatha_Lieutenant_02",
        "Croatoa_Tuatha_Lieutenant_03"
      ]
    },
    {
      "level": 29,
      "experience": 0,
      "display_names": [
        "Champion"
      ],
      "costumes": [
        "Croatoa_Tuatha_Lieutenant_01",
        "Croatoa_Tuatha_Lieutenant_02",
        "Croatoa_Tuatha_Lieutenant_03"
      ]
    },
    {
      "level": 30,
      "experience": 0,
      "display_names": [
        "Champion"
      ],
      "costumes": [
        "Croatoa_Tuatha_Lieutenant_01",
        "Croatoa_Tuatha_Lieutenant_02",
        "Croatoa_Tuatha_Lieutenant_03"
      ]
    },
    {
      "level": 31,
      "experience": 0,
      "display_names": [
        "Champion"
      ],
      "costumes": [
        "Croatoa_Tuatha_Lieutenant_01",
        "Croatoa_Tuatha_Lieutenant_02",
        "Croatoa_Tuatha_Lieutenant_03"
      ]
    },
    {
      "level": 32,
      "experience": 0,
      "display_names": [
        "Champion"
      ],
      "costumes": [
        "Croatoa_Tuatha_Lieutenant_01",
        "Croatoa_Tuatha_Lieutenant_02",
        "Croatoa_Tuatha_Lieutenant_03"
      ]
    },
    {
      "level": 33,
      "experience": 0,
      "display_names": [
        "Champion"
      ],
      "costumes": [
        "Croatoa_Tuatha_Lieutenant_01",
        "Croatoa_Tuatha_Lieutenant_02",
        "Croatoa_Tuatha_Lieutenant_03"
      ]
    },
    {
      "level": 34,
      "experience": 0,
      "display_names": [
        "Champion"
      ],
      "costumes": [
        "Croatoa_Tuatha_Lieutenant_01",
        "Croatoa_Tuatha_Lieutenant_02",
        "Croatoa_Tuatha_Lieutenant_03"
      ]
    },
    {
      "level": 35,
      "experience": 0,
      "display_names": [
        "Champion"
      ],
      "costumes": [
        "Croatoa_Tuatha_Lieutenant_01",
        "Croatoa_Tuatha_Lieutenant_02",
        "Croatoa_Tuatha_Lieutenant_03"
      ]
    },
    {
      "level": 36,
      "experience": 0,
      "display_names": [
        "Champion"
      ],
      "costumes": [
        "Croatoa_Tuatha_Lieutenant_01",
        "Croatoa_Tuatha_Lieutenant_02",
        "Croatoa_Tuatha_Lieutenant_03"
      ]
    },
    {
      "level": 37,
      "experience": 0,
      "display_names": [
        "Champion"
      ],
      "costumes": [
        "Croatoa_Tuatha_Lieutenant_01",
        "Croatoa_Tuatha_Lieutenant_02",
        "Croatoa_Tuatha_Lieutenant_03"
      ]
    },
    {
      "level": 38,
      "experience": 0,
      "display_names": [
        "Champion"
      ],
      "costumes": [
        "Croatoa_Tuatha_Lieutenant_01",
        "Croatoa_Tuatha_Lieutenant_02",
        "Croatoa_Tuatha_Lieutenant_03"
      ]
    },
    {
      "level": 39,
      "experience": 0,
      "display_names": [
        "Champion"
      ],
      "costumes": [
        "Croatoa_Tuatha_Lieutenant_01",
        "Croatoa_Tuatha_Lieutenant_02",
        "Croatoa_Tuatha_Lieutenant_03"
      ]
    },
    {
      "level": 40,
      "experience": 0,
      "display_names": [
        "Champion"
      ],
      "costumes": [
        "Croatoa_Tuatha_Lieutenant_01",
        "Croatoa_Tuatha_Lieutenant_02",
        "Croatoa_Tuatha_Lieutenant_03"
      ]
    },
    {
      "level": 41,
      "experience": 0,
      "display_names": [
        "Champion"
      ],
      "costumes": [
        "Croatoa_Tuatha_Lieutenant_01",
        "Croatoa_Tuatha_Lieutenant_02",
        "Croatoa_Tuatha_Lieutenant_03"
      ]
    },
    {
      "level": 42,
      "experience": 0,
      "display_names": [
        "Champion"
      ],
      "costumes": [
        "Croatoa_Tuatha_Lieutenant_01",
        "Croatoa_Tuatha_Lieutenant_02",
        "Croatoa_Tuatha_Lieutenant_03"
      ]
    },
    {
      "level": 43,
      "experience": 0,
      "display_names": [
        "Champion"
      ],
      "costumes": [
        "Croatoa_Tuatha_Lieutenant_01",
        "Croatoa_Tuatha_Lieutenant_02",
        "Croatoa_Tuatha_Lieutenant_03"
      ]
    },
    {
      "level": 44,
      "experience": 0,
      "display_names": [
        "Champion"
      ],
      "costumes": [
        "Croatoa_Tuatha_Lieutenant_01",
        "Croatoa_Tuatha_Lieutenant_02",
        "Croatoa_Tuatha_Lieutenant_03"
      ]
    },
    {
      "level": 45,
      "experience": 0,
      "display_names": [
        "Champion"
      ],
      "costumes": [
        "Croatoa_Tuatha_Lieutenant_01",
        "Croatoa_Tuatha_Lieutenant_02",
        "Croatoa_Tuatha_Lieutenant_03"
      ]
    },
    {
      "level": 46,
      "experience": 0,
      "display_names": [
        "Champion"
      ],
      "costumes": [
        "Croatoa_Tuatha_Lieutenant_01",
        "Croatoa_Tuatha_Lieutenant_02",
        "Croatoa_Tuatha_Lieutenant_03"
      ]
    },
    {
      "level": 47,
      "experience": 0,
      "display_names": [
        "Champion"
      ],
      "costumes": [
        "Croatoa_Tuatha_Lieutenant_01",
        "Croatoa_Tuatha_Lieutenant_02",
        "Croatoa_Tuatha_Lieutenant_03"
      ]
    },
    {
      "level": 48,
      "experience": 0,
      "display_names": [
        "Champion"
      ],
      "costumes": [
        "Croatoa_Tuatha_Lieutenant_01",
        "Croatoa_Tuatha_Lieutenant_02",
        "Croatoa_Tuatha_Lieutenant_03"
      ]
    },
    {
      "level": 49,
      "experience": 0,
      "display_names": [
        "Champion"
      ],
      "costumes": [
        "Croatoa_Tuatha_Lieutenant_01",
        "Croatoa_Tuatha_Lieutenant_02",
        "Croatoa_Tuatha_Lieutenant_03"
      ]
    },
    {
      "level": 50,
      "experience": 0,
      "display_names": [
        "Champion"
      ],
      "costumes": [
        "Croatoa_Tuatha_Lieutenant_01",
        "Croatoa_Tuatha_Lieutenant_02",
        "Croatoa_Tuatha_Lieutenant_03"
      ]
    },
    {
      "level": 51,
      "experience": 0,
      "display_names": [
        "Champion"
      ],
      "costumes": [
        "Croatoa_Tuatha_Lieutenant_01",
        "Croatoa_Tuatha_Lieutenant_02",
        "Croatoa_Tuatha_Lieutenant_03"
      ]
    },
    {
      "level": 52,
      "experience": 0,
      "display_names": [
        "Champion"
      ],
      "costumes": [
        "Croatoa_Tuatha_Lieutenant_01",
        "Croatoa_Tuatha_Lieutenant_02",
        "Croatoa_Tuatha_Lieutenant_03"
      ]
    },
    {
      "level": 53,
      "experience": 0,
      "display_names": [
        "Champion"
      ],
      "costumes": [
        "Croatoa_Tuatha_Lieutenant_01",
        "Croatoa_Tuatha_Lieutenant_02",
        "Croatoa_Tuatha_Lieutenant_03"
      ]
    },
    {
      "level": 54,
      "experience": 0,
      "display_names": [
        "Champion"
      ],
      "costumes": [
        "Croatoa_Tuatha_Lieutenant_01",
        "Croatoa_Tuatha_Lieutenant_02",
        "Croatoa_Tuatha_Lieutenant_03"
      ]
    }
  ]
}