{
  "name": "Vindicators_Ms_Liberty_Dream",
  "gender": "GENDER_FEMALE",
  "description": "Megan is the daughter of the original Miss Liberty from the Golden Age. She has taken up the mantle to fight for freedom, in this specific case to free Paragon City from its infestation of villains. She has heightened strength and endurance as well as the power of the Liberty Belt, which was passed on to her by her grandmother.",
  "group_description": "Guardian Images",
  "display_class_name": "Hero",
  "character_class_name": "boss_grunt",
  "ai_config": "Signatures_Melee",
  "commandable_pet": false,
  "power_tags": [
    "HumanSkeleton",
    "Human",
    "Raid"
  ],
  "additional_rewards": [

  ],
  "skill_hp_rewards": [

  ],
  "skill_status_rewards": [

  ],
  "ally": null,
  "gang": null,
  "reward_scale": 1.0,
  "game_exclusion": "None",
  "inactive_state_weapon": null,
  "ignores_combat_mods": false,
  "copy_creator_mods": false,
  "spawn_limit": 0,
  "spawn_limit_mission": 0,
  "ignore_av_to_eb_scaling": false,
  "can_zone": false,
  "custom_badge_stat": null,
  "badge_stat_flags": "DefaultBadgeStat",
  "rank": "VR_BOSS",
  "power_full_names": [
    "Mission_Maker_Movement.Reflections_Effects.Fly",
    "V_Vindicators.Vindicator_Resistances.Resistance",
    "V_Vindicators.Ms_Liberty_Low.Thunder_Kick",
    "V_Vindicators.Ms_Liberty_Low.Storm_Kick",
    "V_Vindicators.Ms_Liberty_Low.Cobra_Strike",
    "V_Vindicators.Ms_Liberty_Low.Crane_Kick",
    "V_Vindicators.Ms_Liberty_Low.Crippling_Axe_Kick",
    "V_Vindicators.Ms_Liberty_Low.Eagles_Claw",
    "V_Vindicators.Ms_Liberty_Low.Temp_Invulnerability",
    "V_Vindicators.Ms_Liberty_Low.Dull_Pain",
    "V_Vindicators.Ms_Liberty_Low.Lightning_Bolt",
    "V_Vindicators.Ms_Liberty_Low.Thunder_Strike",
    "V_Vindicators.Ms_Liberty_Low.Super_Leap",
    "V_Vindicators.Ms_Liberty_Low.Resistance"
  ],
  "power_display_names": [
    "Fly",
    "Resistance",
    "Thunder Kick",
    "Storm Kick",
    "Cobra Strike",
    "Crane Kick",
    "Crippling Axe Kick",
    "Eagles Claw",
    "Temp Invulnerability",
    "Dull Pain",
    "Lightning Bolt",
    "Thunder Strike",
    "Super Leap",
    "Resistance"
  ],
  "power_levels": [
    0,
    0,
    0,
    0,
    0,
    0,
    0,
    0,
    0,
    0,
    0,
    0,
    0,
    0
  ],
  "powers": [
    {
      "power_category": "Mission_Maker_Movement",
      "power_set": "Reflections_Effects",
      "power": "*",
      "level": 0
    },
    {
      "power_category": "V_Vindicators",
      "power_set": "Vindicator_Resistances",
      "power": "*",
      "level": 0
    },
    {
      "power_category": "V_Vindicators",
      "power_set": "Ms_Liberty_Low",
      "power": "*",
      "level": 0
    }
  ],
  "levels": [
    {
      "level": 29,
      "experience": 0,
      "display_names": [
        "Ms. Liberty"
      ],
      "costumes": [
        "Model_MsLiberty_NoRing"
      ]
    },
    {
      "level": 30,
      "experience": 0,
      "display_names": [
        "Ms. Liberty"
      ],
      "costumes": [
        "Model_MsLiberty_NoRing"
      ]
    },
    {
      "level": 31,
      "experience": 0,
      "display_names": [
        "Ms. Liberty"
      ],
      "costumes": [
        "Model_MsLiberty_NoRing"
      ]
    },
    {
      "level": 32,
      "experience": 0,
      "display_names": [
        "Ms. Liberty"
      ],
      "costumes": [
        "Model_MsLiberty_NoRing"
      ]
    },
    {
      "level": 33,
      "experience": 0,
      "display_names": [
        "Ms. Liberty"
      ],
      "costumes": [
        "Model_MsLiberty_NoRing"
      ]
    },
    {
      "level": 34,
      "experience": 0,
      "display_names": [
        "Ms. Liberty"
      ],
      "costumes": [
        "Model_MsLiberty_NoRing"
      ]
    },
    {
      "level": 35,
      "experience": 0,
      "display_names": [
        "Ms. Liberty"
      ],
      "costumes": [
        "Model_MsLiberty_NoRing"
      ]
    },
    {
      "level": 36,
      "experience": 0,
      "display_names": [
        "Ms. Liberty"
      ],
      "costumes": [
        "Model_MsLiberty_NoRing"
      ]
    },
    {
      "level": 37,
      "experience": 0,
      "display_names": [
        "Ms. Liberty"
      ],
      "costumes": [
        "Model_MsLiberty_NoRing"
      ]
    },
    {
      "level": 38,
      "experience": 0,
      "display_names": [
        "Ms. Liberty"
      ],
      "costumes": [
        "Model_MsLiberty_NoRing"
      ]
    },
    {
      "level": 39,
      "experience": 0,
      "display_names": [
        "Ms. Liberty"
      ],
      "costumes": [
        "Model_MsLiberty_NoRing"
      ]
    },
    {
      "level": 40,
      "experience": 0,
      "display_names": [
        "Ms. Liberty"
      ],
      "costumes": [
        "Model_MsLiberty_NoRing"
      ]
    },
    {
      "level": 41,
      "experience": 0,
      "display_names": [
        "Ms. Liberty"
      ],
      "costumes": [
        "Model_MsLiberty_NoRing"
      ]
    },
    {
      "level": 42,
      "experience": 0,
      "display_names": [
        "Ms. Liberty"
      ],
      "costumes": [
        "Model_MsLiberty_NoRing"
      ]
    },
    {
      "level": 43,
      "experience": 0,
      "display_names": [
        "Ms. Liberty"
      ],
      "costumes": [
        "Model_MsLiberty_NoRing"
      ]
    },
    {
      "level": 44,
      "experience": 0,
      "display_names": [
        "Ms. Liberty"
      ],
      "costumes": [
        "Model_MsLiberty_NoRing"
      ]
    }
  ]
}