{
  "name": "Warriors_Axe_Lieutenant_SSA2",
  "gender": "GENDER_MALE",
  "description": "The age-old axe has always been a popular weapon, especially for those looking to quickly cause great amounts of gruesome damage with both speed and finesse. That descriptions sums up the Hewers perfectly.",
  "group_description": null,
  "display_class_name": null,
  "character_class_name": "lt_grunt",
  "ai_config": "Default_Melee",
  "commandable_pet": false,
  "power_tags": [
    "HumanSkeleton",
    "Human"
  ],
  "additional_rewards": [

  ],
  "skill_hp_rewards": [

  ],
  "skill_status_rewards": [

  ],
  "ally": null,
  "gang": null,
  "reward_scale": 1.0,
  "game_exclusion": "None",
  "inactive_state_weapon": null,
  "ignores_combat_mods": false,
  "copy_creator_mods": false,
  "spawn_limit": 0,
  "spawn_limit_mission": 0,
  "ignore_av_to_eb_scaling": false,
  "can_zone": false,
  "custom_badge_stat": null,
  "badge_stat_flags": "DefaultBadgeStat",
  "rank": "VR_LIEUTENANT",
  "power_full_names": [
    "Warriors.Warrior_Bow.Bow",
    "Warriors.Warrior_Lt_Boss_BattleAxe_Melee.Gash",
    "Warriors.Warrior_Lt_Boss_BattleAxe_Melee.Chop",
    "Warriors.Warrior_Lt_Boss_BattleAxe_Melee.Beheader",
    "Warriors.Warrior_Lt_Boss_BattleAxe_Melee.Pendulum",
    "Warriors.Warrior_Lt_Boss_Defense.Resistance",
    "PandorasBox_Issue1Powers.Troll_Toughness.High_Pain_Tolerance"
  ],
  "power_display_names": [
    "Bow",
    "Gash",
    "Chop",
    "Beheader",
    "Pendulum",
    "Resistance",
    "High Pain Tolerance"
  ],
  "power_levels": [
    0,
    0,
    0,
    0,
    0,
    0,
    0
  ],
  "powers": [
    {
      "power_category": "Warriors",
      "power_set": "Warrior_Bow",
      "power": "*",
      "level": 0
    },
    {
      "power_category": "Warriors",
      "power_set": "Warrior_Lt_Boss_BattleAxe_Melee",
      "power": "*",
      "level": 0
    },
    {
      "power_category": "Warriors",
      "power_set": "Warrior_Lt_Boss_Defense",
      "power": "*",
      "level": 0
    },
    {
      "power_category": "PandorasBox_Issue1Powers",
      "power_set": "Troll_Toughness",
      "power": "*",
      "level": 0
    }
  ],
  "levels": [
    {
      "level": 30,
      "experience": 0,
      "display_names": [
        "Hewer"
      ],
      "costumes": [
        "Thug_Warrior_Boss_03"
      ]
    },
    {
      "level": 31,
      "experience": 0,
      "display_names": [
        "Hewer"
      ],
      "costumes": [
        "Thug_Warrior_Boss_03"
      ]
    },
    {
      "level": 32,
      "experience": 0,
      "display_names": [
        "Hewer"
      ],
      "costumes": [
        "Thug_Warrior_Boss_03"
      ]
    },
    {
      "level": 33,
      "experience": 0,
      "display_names": [
        "Hewer"
      ],
      "costumes": [
        "Thug_Warrior_Boss_03"
      ]
    },
    {
      "level": 34,
      "experience": 0,
      "display_names": [
        "Hewer"
      ],
      "costumes": [
        "Thug_Warrior_Boss_03"
      ]
    },
    {
      "level": 35,
      "experience": 0,
      "display_names": [
        "Hewer"
      ],
      "costumes": [
        "Thug_Warrior_Boss_03"
      ]
    },
    {
      "level": 36,
      "experience": 0,
      "display_names": [
        "Hewer"
      ],
      "costumes": [
        "Thug_Warrior_Boss_03"
      ]
    },
    {
      "level": 37,
      "experience": 0,
      "display_names": [
        "Hewer"
      ],
      "costumes": [
        "Thug_Warrior_Boss_03"
      ]
    },
    {
      "level": 38,
      "experience": 0,
      "display_names": [
        "Hewer"
      ],
      "costumes": [
        "Thug_Warrior_Boss_03"
      ]
    },
    {
      "level": 39,
      "experience": 0,
      "display_names": [
        "Hewer"
      ],
      "costumes": [
        "Thug_Warrior_Boss_03"
      ]
    },
    {
      "level": 40,
      "experience": 0,
      "display_names": [
        "Hewer"
      ],
      "costumes": [
        "Thug_Warrior_Boss_03"
      ]
    },
    {
      "level": 41,
      "experience": 0,
      "display_names": [
        "Hewer"
      ],
      "costumes": [
        "Thug_Warrior_Boss_03"
      ]
    },
    {
      "level": 42,
      "experience": 0,
      "display_names": [
        "Hewer"
      ],
      "costumes": [
        "Thug_Warrior_Boss_03"
      ]
    },
    {
      "level": 43,
      "experience": 0,
      "display_names": [
        "Hewer"
      ],
      "costumes": [
        "Thug_Warrior_Boss_03"
      ]
    },
    {
      "level": 44,
      "experience": 0,
      "display_names": [
        "Hewer"
      ],
      "costumes": [
        "Thug_Warrior_Boss_03"
      ]
    },
    {
      "level": 45,
      "experience": 0,
      "display_names": [
        "Hewer"
      ],
      "costumes": [
        "Thug_Warrior_Boss_03"
      ]
    },
    {
      "level": 46,
      "experience": 0,
      "display_names": [
        "Hewer"
      ],
      "costumes": [
        "Thug_Warrior_Boss_03"
      ]
    },
    {
      "level": 47,
      "experience": 0,
      "display_names": [
        "Hewer"
      ],
      "costumes": [
        "Thug_Warrior_Boss_03"
      ]
    },
    {
      "level": 48,
      "experience": 0,
      "display_names": [
        "Hewer"
      ],
      "costumes": [
        "Thug_Warrior_Boss_03"
      ]
    },
    {
      "level": 49,
      "experience": 0,
      "display_names": [
        "Hewer"
      ],
      "costumes": [
        "Thug_Warrior_Boss_03"
      ]
    },
    {
      "level": 50,
      "experience": 0,
      "display_names": [
        "Hewer"
      ],
      "costumes": [
        "Thug_Warrior_Boss_03"
      ]
    },
    {
      "level": 51,
      "experience": 0,
      "display_names": [
        "Hewer"
      ],
      "costumes": [
        "Thug_Warrior_Boss_03"
      ]
    },
    {
      "level": 52,
      "experience": 0,
      "display_names": [
        "Hewer"
      ],
      "costumes": [
        "Thug_Warrior_Boss_03"
      ]
    },
    {
      "level": 53,
      "experience": 0,
      "display_names": [
        "Hewer"
      ],
      "costumes": [
        "Thug_Warrior_Boss_03"
      ]
    },
    {
      "level": 54,
      "experience": 0,
      "display_names": [
        "Hewer"
      ],
      "costumes": [
        "Thug_Warrior_Boss_03"
      ]
    }
  ]
}