{
  "name": "Warriors_Axe_Boss_High",
  "gender": "GENDER_MALE",
  "description": "Those Warriors most experienced with the axe can work themselves into a wild frenzy as they heedlessly chop through the opposition. The more damage they do, the more confident and resilient they become, shaking off damage in their berserker blood lust.",
  "group_description": null,
  "display_class_name": null,
  "character_class_name": "boss_grunt",
  "ai_config": "Default_Melee",
  "commandable_pet": false,
  "power_tags": [
    "HumanSkeleton",
    "Human"
  ],
  "additional_rewards": [

  ],
  "skill_hp_rewards": [

  ],
  "skill_status_rewards": [

  ],
  "ally": null,
  "gang": null,
  "reward_scale": 1.0,
  "game_exclusion": "None",
  "inactive_state_weapon": null,
  "ignores_combat_mods": false,
  "copy_creator_mods": false,
  "spawn_limit": -1,
  "spawn_limit_mission": -1,
  "ignore_av_to_eb_scaling": false,
  "can_zone": false,
  "custom_badge_stat": null,
  "badge_stat_flags": "DefaultBadgeStat",
  "rank": "VR_BOSS",
  "power_full_names": [
    "Warriors.Warrior_Boss_Ranged.Crossbow",
    "Warriors.Warrior_Lt_Boss_BattleAxe_Melee.Gash",
    "Warriors.Warrior_Lt_Boss_BattleAxe_Melee.Chop",
    "Warriors.Warrior_Lt_Boss_BattleAxe_Melee.Beheader",
    "Warriors.Warrior_Lt_Boss_BattleAxe_Melee.Pendulum",
    "Warriors.Warrior_Lt_Boss_Defense.Resistance"
  ],
  "power_display_names": [
    "Crossbow",
    "Gash",
    "Chop",
    "Beheader",
    "Pendulum",
    "Resistance"
  ],
  "power_levels": [
    0,
    0,
    0,
    0,
    0,
    0
  ],
  "powers": [
    {
      "power_category": "Warriors",
      "power_set": "Warrior_Boss_Ranged",
      "power": "*",
      "level": 0
    },
    {
      "power_category": "Warriors",
      "power_set": "Warrior_Lt_Boss_BattleAxe_Melee",
      "power": "*",
      "level": 0
    },
    {
      "power_category": "Warriors",
      "power_set": "Warrior_Lt_Boss_Defense",
      "power": "*",
      "level": 0
    }
  ],
  "levels": [
    {
      "level": 30,
      "experience": 0,
      "display_names": [
        "Hewer Elite"
      ],
      "costumes": [
        "Thug_Warrior_Boss_03"
      ]
    },
    {
      "level": 31,
      "experience": 0,
      "display_names": [
        "Hewer Elite"
      ],
      "costumes": [
        "Thug_Warrior_Boss_03"
      ]
    },
    {
      "level": 32,
      "experience": 0,
      "display_names": [
        "Hewer Elite"
      ],
      "costumes": [
        "Thug_Warrior_Boss_03"
      ]
    },
    {
      "level": 33,
      "experience": 0,
      "display_names": [
        "Hewer Elite"
      ],
      "costumes": [
        "Thug_Warrior_Boss_03"
      ]
    },
    {
      "level": 34,
      "experience": 0,
      "display_names": [
        "Hewer Elite"
      ],
      "costumes": [
        "Thug_Warrior_Boss_03"
      ]
    },
    {
      "level": 35,
      "experience": 0,
      "display_names": [
        "Hewer Elite"
      ],
      "costumes": [
        "Thug_Warrior_Boss_03"
      ]
    },
    {
      "level": 36,
      "experience": 0,
      "display_names": [
        "Hewer Elite"
      ],
      "costumes": [
        "Thug_Warrior_Boss_03"
      ]
    },
    {
      "level": 37,
      "experience": 0,
      "display_names": [
        "Hewer Elite"
      ],
      "costumes": [
        "Thug_Warrior_Boss_03"
      ]
    },
    {
      "level": 38,
      "experience": 0,
      "display_names": [
        "Hewer Elite"
      ],
      "costumes": [
        "Thug_Warrior_Boss_03"
      ]
    },
    {
      "level": 39,
      "experience": 0,
      "display_names": [
        "Hewer Elite"
      ],
      "costumes": [
        "Thug_Warrior_Boss_03"
      ]
    },
    {
      "level": 40,
      "experience": 0,
      "display_names": [
        "Hewer Elite"
      ],
      "costumes": [
        "Thug_Warrior_Boss_03"
      ]
    },
    {
      "level": 41,
      "experience": 0,
      "display_names": [
        "Hewer Elite"
      ],
      "costumes": [
        "Thug_Warrior_Boss_03"
      ]
    },
    {
      "level": 42,
      "experience": 0,
      "display_names": [
        "Hewer Elite"
      ],
      "costumes": [
        "Thug_Warrior_Boss_03"
      ]
    },
    {
      "level": 43,
      "experience": 0,
      "display_names": [
        "Hewer Elite"
      ],
      "costumes": [
        "Thug_Warrior_Boss_03"
      ]
    },
    {
      "level": 44,
      "experience": 0,
      "display_names": [
        "Hewer Elite"
      ],
      "costumes": [
        "Thug_Warrior_Boss_03"
      ]
    }
  ]
}