{
  "name": "WinterHorde_Winter_Guardian",
  "gender": "GENDER_MALE",
  "description": "This manifestation of Lord Winter exists to protect his master from taking any damage. While he stands, Lord Winter is immune to all form of damage. In this way, he aids Lord Winter's cause of bring endless night on our world.",
  "group_description": "Winter Horde",
  "display_class_name": null,
  "character_class_name": "boss_monster",
  "ai_config": "Default_GiantMonster",
  "commandable_pet": false,
  "power_tags": [
    "Raid"
  ],
  "additional_rewards": [

  ],
  "skill_hp_rewards": [

  ],
  "skill_status_rewards": [

  ],
  "ally": null,
  "gang": null,
  "reward_scale": 1.0,
  "game_exclusion": "None",
  "inactive_state_weapon": null,
  "ignores_combat_mods": true,
  "copy_creator_mods": false,
  "spawn_limit": 0,
  "spawn_limit_mission": 0,
  "ignore_av_to_eb_scaling": false,
  "can_zone": false,
  "custom_badge_stat": null,
  "badge_stat_flags": "DefaultBadgeStat",
  "rank": "VR_BIGMONSTER",
  "power_full_names": [
    "Event.Snowbeast_Greater_Monster.Resistance",
    "Event.Snowbeast_Greater_Monster.Flash_Freeze",
    "Event.Snowbeast_Greater_Monster.Snow_Men",
    "Event.Snowbeast_Monster.Chill",
    "Event.Snowbeast_Monster.Ice_Shield",
    "Event.Snowbeast_Monster.Foot_Stomp",
    "Event.Snowbeast_Monster.Greater_Ice_Sword",
    "Event.Snowbeast_Monster.Ice_Blast",
    "Event.Snowbeast_Monster.Freeze_Ray",
    "Event.Snowbeast_Monster.Blizzard",
    "Event.Snowbeast_Monster.Shiver",
    "Event.Snowbeast_Monster.Ice_Slick",
    "Event.Winter_Storm.Winter_Storm"
  ],
  "power_display_names": [
    "Resistance",
    "Flash Freeze",
    "Snow Men",
    "Chill",
    "Ice Shield",
    "Foot Stomp",
    "Greater Ice Sword",
    "Ice Blast",
    "Freeze Ray",
    "Blizzard",
    "Shiver",
    "Ice Slick",
    "Winter Storm"
  ],
  "power_levels": [
    0,
    0,
    0,
    0,
    0,
    0,
    0,
    0,
    0,
    0,
    0,
    0,
    0
  ],
  "powers": [
    {
      "power_category": "Event",
      "power_set": "Snowbeast_Greater_Monster",
      "power": "*",
      "level": 0
    },
    {
      "power_category": "Event",
      "power_set": "Snowbeast_Monster",
      "power": "*",
      "level": 0
    },
    {
      "power_category": "Event",
      "power_set": "Winter_Storm",
      "power": "*",
      "level": 0
    }
  ],
  "levels": [
    {
      "level": 18,
      "experience": 0,
      "display_names": [
        "Winter Guardian"
      ],
      "costumes": [
        "Abominable_Snowman_Giant_02"
      ]
    },
    {
      "level": 19,
      "experience": 0,
      "display_names": [
        "Winter Guardian"
      ],
      "costumes": [
        "Abominable_Snowman_Giant_02"
      ]
    },
    {
      "level": 20,
      "experience": 0,
      "display_names": [
        "Winter Guardian"
      ],
      "costumes": [
        "Abominable_Snowman_Giant_02"
      ]
    },
    {
      "level": 21,
      "experience": 0,
      "display_names": [
        "Winter Guardian"
      ],
      "costumes": [
        "Abominable_Snowman_Giant_02"
      ]
    },
    {
      "level": 22,
      "experience": 0,
      "display_names": [
        "Winter Guardian"
      ],
      "costumes": [
        "Abominable_Snowman_Giant_02"
      ]
    },
    {
      "level": 23,
      "experience": 0,
      "display_names": [
        "Winter Guardian"
      ],
      "costumes": [
        "Abominable_Snowman_Giant_02"
      ]
    },
    {
      "level": 24,
      "experience": 0,
      "display_names": [
        "Winter Guardian"
      ],
      "costumes": [
        "Abominable_Snowman_Giant_02"
      ]
    },
    {
      "level": 25,
      "experience": 0,
      "display_names": [
        "Winter Guardian"
      ],
      "costumes": [
        "Abominable_Snowman_Giant_02"
      ]
    },
    {
      "level": 26,
      "experience": 0,
      "display_names": [
        "Winter Guardian"
      ],
      "costumes": [
        "Abominable_Snowman_Giant_02"
      ]
    },
    {
      "level": 27,
      "experience": 0,
      "display_names": [
        "Winter Guardian"
      ],
      "costumes": [
        "Abominable_Snowman_Giant_02"
      ]
    },
    {
      "level": 28,
      "experience": 0,
      "display_names": [
        "Winter Guardian"
      ],
      "costumes": [
        "Abominable_Snowman_Giant_02"
      ]
    },
    {
      "level": 29,
      "experience": 0,
      "display_names": [
        "Winter Guardian"
      ],
      "costumes": [
        "Abominable_Snowman_Giant_02"
      ]
    },
    {
      "level": 30,
      "experience": 0,
      "display_names": [
        "Winter Guardian"
      ],
      "costumes": [
        "Abominable_Snowman_Giant_02"
      ]
    },
    {
      "level": 31,
      "experience": 0,
      "display_names": [
        "Winter Guardian"
      ],
      "costumes": [
        "Abominable_Snowman_Giant_02"
      ]
    },
    {
      "level": 32,
      "experience": 0,
      "display_names": [
        "Winter Guardian"
      ],
      "costumes": [
        "Abominable_Snowman_Giant_02"
      ]
    },
    {
      "level": 33,
      "experience": 0,
      "display_names": [
        "Winter Guardian"
      ],
      "costumes": [
        "Abominable_Snowman_Giant_02"
      ]
    },
    {
      "level": 34,
      "experience": 0,
      "display_names": [
        "Winter Guardian"
      ],
      "costumes": [
        "Abominable_Snowman_Giant_02"
      ]
    },
    {
      "level": 35,
      "experience": 0,
      "display_names": [
        "Winter Guardian"
      ],
      "costumes": [
        "Abominable_Snowman_Giant_02"
      ]
    },
    {
      "level": 36,
      "experience": 0,
      "display_names": [
        "Winter Guardian"
      ],
      "costumes": [
        "Abominable_Snowman_Giant_02"
      ]
    },
    {
      "level": 37,
      "experience": 0,
      "display_names": [
        "Winter Guardian"
      ],
      "costumes": [
        "Abominable_Snowman_Giant_02"
      ]
    },
    {
      "level": 38,
      "experience": 0,
      "display_names": [
        "Winter Guardian"
      ],
      "costumes": [
        "Abominable_Snowman_Giant_02"
      ]
    },
    {
      "level": 39,
      "experience": 0,
      "display_names": [
        "Winter Guardian"
      ],
      "costumes": [
        "Abominable_Snowman_Giant_02"
      ]
    },
    {
      "level": 40,
      "experience": 0,
      "display_names": [
        "Winter Guardian"
      ],
      "costumes": [
        "Abominable_Snowman_Giant_02"
      ]
    },
    {
      "level": 41,
      "experience": 0,
      "display_names": [
        "Winter Guardian"
      ],
      "costumes": [
        "Abominable_Snowman_Giant_02"
      ]
    },
    {
      "level": 42,
      "experience": 0,
      "display_names": [
        "Winter Guardian"
      ],
      "costumes": [
        "Abominable_Snowman_Giant_02"
      ]
    },
    {
      "level": 43,
      "experience": 0,
      "display_names": [
        "Winter Guardian"
      ],
      "costumes": [
        "Abominable_Snowman_Giant_02"
      ]
    },
    {
      "level": 44,
      "experience": 0,
      "display_names": [
        "Winter Guardian"
      ],
      "costumes": [
        "Abominable_Snowman_Giant_02"
      ]
    },
    {
      "level": 45,
      "experience": 0,
      "display_names": [
        "Winter Guardian"
      ],
      "costumes": [
        "Abominable_Snowman_Giant_02"
      ]
    },
    {
      "level": 46,
      "experience": 0,
      "display_names": [
        "Winter Guardian"
      ],
      "costumes": [
        "Abominable_Snowman_Giant_02"
      ]
    },
    {
      "level": 47,
      "experience": 0,
      "display_names": [
        "Winter Guardian"
      ],
      "costumes": [
        "Abominable_Snowman_Giant_02"
      ]
    },
    {
      "level": 48,
      "experience": 0,
      "display_names": [
        "Winter Guardian"
      ],
      "costumes": [
        "Abominable_Snowman_Giant_02"
      ]
    },
    {
      "level": 49,
      "experience": 0,
      "display_names": [
        "Winter Guardian"
      ],
      "costumes": [
        "Abominable_Snowman_Giant_02"
      ]
    },
    {
      "level": 50,
      "experience": 0,
      "display_names": [
        "Winter Guardian"
      ],
      "costumes": [
        "Abominable_Snowman_Giant_02"
      ]
    },
    {
      "level": 51,
      "experience": 0,
      "display_names": [
        "Winter Guardian"
      ],
      "costumes": [
        "Abominable_Snowman_Giant_02"
      ]
    },
    {
      "level": 52,
      "experience": 0,
      "display_names": [
        "Winter Guardian"
      ],
      "costumes": [
        "Abominable_Snowman_Giant_02"
      ]
    },
    {
      "level": 53,
      "experience": 0,
      "display_names": [
        "Winter Guardian"
      ],
      "costumes": [
        "Abominable_Snowman_Giant_02"
      ]
    },
    {
      "level": 54,
      "experience": 0,
      "display_names": [
        "Winter Guardian"
      ],
      "costumes": [
        "Abominable_Snowman_Giant_02"
      ]
    }
  ]
}