{
  "name": "WinterHorde_Snowman_Lt",
  "gender": "GENDER_MALE",
  "description": "A Blight is a Frostling that has served the Winter Lord long and successfully enough to be granted additional power.",
  "group_description": "Winter Horde",
  "display_class_name": null,
  "character_class_name": "lt_grunt",
  "ai_config": "Default_Ranged",
  "commandable_pet": false,
  "power_tags": [

  ],
  "additional_rewards": [

  ],
  "skill_hp_rewards": [

  ],
  "skill_status_rewards": [

  ],
  "ally": null,
  "gang": null,
  "reward_scale": 1.0,
  "game_exclusion": "None",
  "inactive_state_weapon": null,
  "ignores_combat_mods": false,
  "copy_creator_mods": false,
  "spawn_limit": 0,
  "spawn_limit_mission": 0,
  "ignore_av_to_eb_scaling": false,
  "can_zone": false,
  "custom_badge_stat": null,
  "badge_stat_flags": "DefaultBadgeStat",
  "rank": "VR_LIEUTENANT",
  "power_full_names": [
    "Event.Snowbeast_Inherent_Resistance.Resistance",
    "Event.Snowbeast_Lt.Chilblain",
    "Event.Snowbeast_Lt.Ice_Bolt",
    "Event.Snowbeast_Lt.Ice_Blast",
    "Event.Snowbeast_Lt.Frozen_Fists"
  ],
  "power_display_names": [
    "Resistance",
    "Chilblain",
    "Ice Bolt",
    "Ice Blast",
    "Frozen Fists"
  ],
  "power_levels": [
    0,
    0,
    0,
    0,
    0
  ],
  "powers": [
    {
      "power_category": "Event",
      "power_set": "Snowbeast_Inherent_Resistance",
      "power": "*",
      "level": 0
    },
    {
      "power_category": "Event",
      "power_set": "Snowbeast_Lt",
      "power": "*",
      "level": 0
    }
  ],
  "levels": [
    {
      "level": 1,
      "experience": 0,
      "display_names": [
        "Blight"
      ],
      "costumes": [
        "Abominable_Snowman_Lieutenant"
      ]
    },
    {
      "level": 2,
      "experience": 0,
      "display_names": [
        "Blight"
      ],
      "costumes": [
        "Abominable_Snowman_Lieutenant"
      ]
    },
    {
      "level": 3,
      "experience": 0,
      "display_names": [
        "Blight"
      ],
      "costumes": [
        "Abominable_Snowman_Lieutenant"
      ]
    },
    {
      "level": 4,
      "experience": 0,
      "display_names": [
        "Blight"
      ],
      "costumes": [
        "Abominable_Snowman_Lieutenant"
      ]
    },
    {
      "level": 5,
      "experience": 0,
      "display_names": [
        "Blight"
      ],
      "costumes": [
        "Abominable_Snowman_Lieutenant"
      ]
    },
    {
      "level": 6,
      "experience": 0,
      "display_names": [
        "Blight"
      ],
      "costumes": [
        "Abominable_Snowman_Lieutenant"
      ]
    },
    {
      "level": 7,
      "experience": 0,
      "display_names": [
        "Blight"
      ],
      "costumes": [
        "Abominable_Snowman_Lieutenant"
      ]
    },
    {
      "level": 8,
      "experience": 0,
      "display_names": [
        "Blight"
      ],
      "costumes": [
        "Abominable_Snowman_Lieutenant"
      ]
    },
    {
      "level": 9,
      "experience": 0,
      "display_names": [
        "Blight"
      ],
      "costumes": [
        "Abominable_Snowman_Lieutenant"
      ]
    },
    {
      "level": 10,
      "experience": 0,
      "display_names": [
        "Blight"
      ],
      "costumes": [
        "Abominable_Snowman_Lieutenant"
      ]
    },
    {
      "level": 11,
      "experience": 0,
      "display_names": [
        "Blight"
      ],
      "costumes": [
        "Abominable_Snowman_Lieutenant"
      ]
    },
    {
      "level": 12,
      "experience": 0,
      "display_names": [
        "Blight"
      ],
      "costumes": [
        "Abominable_Snowman_Lieutenant"
      ]
    },
    {
      "level": 13,
      "experience": 0,
      "display_names": [
        "Blight"
      ],
      "costumes": [
        "Abominable_Snowman_Lieutenant"
      ]
    },
    {
      "level": 14,
      "experience": 0,
      "display_names": [
        "Blight"
      ],
      "costumes": [
        "Abominable_Snowman_Lieutenant"
      ]
    },
    {
      "level": 15,
      "experience": 0,
      "display_names": [
        "Blight"
      ],
      "costumes": [
        "Abominable_Snowman_Lieutenant"
      ]
    },
    {
      "level": 16,
      "experience": 0,
      "display_names": [
        "Blight"
      ],
      "costumes": [
        "Abominable_Snowman_Lieutenant"
      ]
    },
    {
      "level": 17,
      "experience": 0,
      "display_names": [
        "Blight"
      ],
      "costumes": [
        "Abominable_Snowman_Lieutenant"
      ]
    },
    {
      "level": 18,
      "experience": 0,
      "display_names": [
        "Blight"
      ],
      "costumes": [
        "Abominable_Snowman_Lieutenant"
      ]
    },
    {
      "level": 19,
      "experience": 0,
      "display_names": [
        "Blight"
      ],
      "costumes": [
        "Abominable_Snowman_Lieutenant"
      ]
    },
    {
      "level": 20,
      "experience": 0,
      "display_names": [
        "Blight"
      ],
      "costumes": [
        "Abominable_Snowman_Lieutenant"
      ]
    },
    {
      "level": 21,
      "experience": 0,
      "display_names": [
        "Blight"
      ],
      "costumes": [
        "Abominable_Snowman_Lieutenant"
      ]
    },
    {
      "level": 22,
      "experience": 0,
      "display_names": [
        "Blight"
      ],
      "costumes": [
        "Abominable_Snowman_Lieutenant"
      ]
    },
    {
      "level": 23,
      "experience": 0,
      "display_names": [
        "Blight"
      ],
      "costumes": [
        "Abominable_Snowman_Lieutenant"
      ]
    },
    {
      "level": 24,
      "experience": 0,
      "display_names": [
        "Blight"
      ],
      "costumes": [
        "Abominable_Snowman_Lieutenant"
      ]
    },
    {
      "level": 25,
      "experience": 0,
      "display_names": [
        "Blight"
      ],
      "costumes": [
        "Abominable_Snowman_Lieutenant"
      ]
    },
    {
      "level": 26,
      "experience": 0,
      "display_names": [
        "Blight"
      ],
      "costumes": [
        "Abominable_Snowman_Lieutenant"
      ]
    },
    {
      "level": 27,
      "experience": 0,
      "display_names": [
        "Blight"
      ],
      "costumes": [
        "Abominable_Snowman_Lieutenant"
      ]
    },
    {
      "level": 28,
      "experience": 0,
      "display_names": [
        "Blight"
      ],
      "costumes": [
        "Abominable_Snowman_Lieutenant"
      ]
    },
    {
      "level": 29,
      "experience": 0,
      "display_names": [
        "Blight"
      ],
      "costumes": [
        "Abominable_Snowman_Lieutenant"
      ]
    },
    {
      "level": 30,
      "experience": 0,
      "display_names": [
        "Blight"
      ],
      "costumes": [
        "Abominable_Snowman_Lieutenant"
      ]
    },
    {
      "level": 31,
      "experience": 0,
      "display_names": [
        "Blight"
      ],
      "costumes": [
        "Abominable_Snowman_Lieutenant"
      ]
    },
    {
      "level": 32,
      "experience": 0,
      "display_names": [
        "Blight"
      ],
      "costumes": [
        "Abominable_Snowman_Lieutenant"
      ]
    },
    {
      "level": 33,
      "experience": 0,
      "display_names": [
        "Blight"
      ],
      "costumes": [
        "Abominable_Snowman_Lieutenant"
      ]
    },
    {
      "level": 34,
      "experience": 0,
      "display_names": [
        "Blight"
      ],
      "costumes": [
        "Abominable_Snowman_Lieutenant"
      ]
    },
    {
      "level": 35,
      "experience": 0,
      "display_names": [
        "Blight"
      ],
      "costumes": [
        "Abominable_Snowman_Lieutenant"
      ]
    },
    {
      "level": 36,
      "experience": 0,
      "display_names": [
        "Blight"
      ],
      "costumes": [
        "Abominable_Snowman_Lieutenant"
      ]
    },
    {
      "level": 37,
      "experience": 0,
      "display_names": [
        "Blight"
      ],
      "costumes": [
        "Abominable_Snowman_Lieutenant"
      ]
    },
    {
      "level": 38,
      "experience": 0,
      "display_names": [
        "Blight"
      ],
      "costumes": [
        "Abominable_Snowman_Lieutenant"
      ]
    },
    {
      "level": 39,
      "experience": 0,
      "display_names": [
        "Blight"
      ],
      "costumes": [
        "Abominable_Snowman_Lieutenant"
      ]
    },
    {
      "level": 40,
      "experience": 0,
      "display_names": [
        "Blight"
      ],
      "costumes": [
        "Abominable_Snowman_Lieutenant"
      ]
    },
    {
      "level": 41,
      "experience": 0,
      "display_names": [
        "Blight"
      ],
      "costumes": [
        "Abominable_Snowman_Lieutenant"
      ]
    },
    {
      "level": 42,
      "experience": 0,
      "display_names": [
        "Blight"
      ],
      "costumes": [
        "Abominable_Snowman_Lieutenant"
      ]
    },
    {
      "level": 43,
      "experience": 0,
      "display_names": [
        "Blight"
      ],
      "costumes": [
        "Abominable_Snowman_Lieutenant"
      ]
    },
    {
      "level": 44,
      "experience": 0,
      "display_names": [
        "Blight"
      ],
      "costumes": [
        "Abominable_Snowman_Lieutenant"
      ]
    },
    {
      "level": 45,
      "experience": 0,
      "display_names": [
        "Blight"
      ],
      "costumes": [
        "Abominable_Snowman_Lieutenant"
      ]
    },
    {
      "level": 46,
      "experience": 0,
      "display_names": [
        "Blight"
      ],
      "costumes": [
        "Abominable_Snowman_Lieutenant"
      ]
    },
    {
      "level": 47,
      "experience": 0,
      "display_names": [
        "Blight"
      ],
      "costumes": [
        "Abominable_Snowman_Lieutenant"
      ]
    },
    {
      "level": 48,
      "experience": 0,
      "display_names": [
        "Blight"
      ],
      "costumes": [
        "Abominable_Snowman_Lieutenant"
      ]
    },
    {
      "level": 49,
      "experience": 0,
      "display_names": [
        "Blight"
      ],
      "costumes": [
        "Abominable_Snowman_Lieutenant"
      ]
    },
    {
      "level": 50,
      "experience": 0,
      "display_names": [
        "Blight"
      ],
      "costumes": [
        "Abominable_Snowman_Lieutenant"
      ]
    },
    {
      "level": 51,
      "experience": 0,
      "display_names": [
        "Blight"
      ],
      "costumes": [
        "Abominable_Snowman_Lieutenant"
      ]
    },
    {
      "level": 52,
      "experience": 0,
      "display_names": [
        "Blight"
      ],
      "costumes": [
        "Abominable_Snowman_Lieutenant"
      ]
    },
    {
      "level": 53,
      "experience": 0,
      "display_names": [
        "Blight"
      ],
      "costumes": [
        "Abominable_Snowman_Lieutenant"
      ]
    },
    {
      "level": 54,
      "experience": 0,
      "display_names": [
        "Blight"
      ],
      "costumes": [
        "Abominable_Snowman_Lieutenant"
      ]
    }
  ]
}