{
  "name": "Wyvern_Minion_Talon_Low",
  "gender": "GENDER_MALE",
  "description": "Wyvern is a private agency dedicated to eliminating problems Freedom Corps hasn't or won't deal with. Talon agents are young operatives who have yet to prove themselves in the field. They are given the simplest assignments until they prove their worth, but are extensively trained in close combat knife fighting, as well as archery.",
  "group_description": null,
  "display_class_name": null,
  "character_class_name": "minion_grunt",
  "ai_config": "Default_Ranged",
  "commandable_pet": false,
  "power_tags": [
    "HumanSkeleton"
  ],
  "additional_rewards": [

  ],
  "skill_hp_rewards": [

  ],
  "skill_status_rewards": [

  ],
  "ally": "Hero",
  "gang": null,
  "reward_scale": 1.0,
  "game_exclusion": "None",
  "inactive_state_weapon": null,
  "ignores_combat_mods": false,
  "copy_creator_mods": false,
  "spawn_limit": -1,
  "spawn_limit_mission": -1,
  "ignore_av_to_eb_scaling": false,
  "can_zone": false,
  "custom_badge_stat": null,
  "badge_stat_flags": "DefaultBadgeStat",
  "rank": "VR_MINION",
  "power_full_names": [
    "V_Wyvern.Minion_Talon_Low.Talon_Strike",
    "V_Wyvern.Minion_Talon_Low.Talon_Snap_Shot"
  ],
  "power_display_names": [
    "Talon Strike",
    "Talon Snap Shot"
  ],
  "power_levels": [
    0,
    0
  ],
  "powers": [
    {
      "power_category": "V_Wyvern",
      "power_set": "Minion_Talon_Low",
      "power": "*",
      "level": 0
    }
  ],
  "levels": [
    {
      "level": 5,
      "experience": 0,
      "display_names": [
        "Talon Agent"
      ],
      "costumes": [
        "Villain_Wyvern_Talon_Agent_01",
        "Villain_Wyvern_Talon_Agent_02",
        "Villain_Wyvern_Talon_Agent_03",
        "Villain_Wyvern_Talon_Agent_04",
        "Villain_Wyvern_Talon_Agent_05"
      ]
    },
    {
      "level": 6,
      "experience": 0,
      "display_names": [
        "Talon Agent"
      ],
      "costumes": [
        "Villain_Wyvern_Talon_Agent_01",
        "Villain_Wyvern_Talon_Agent_02",
        "Villain_Wyvern_Talon_Agent_03",
        "Villain_Wyvern_Talon_Agent_04",
        "Villain_Wyvern_Talon_Agent_05"
      ]
    },
    {
      "level": 7,
      "experience": 0,
      "display_names": [
        "Talon Agent"
      ],
      "costumes": [
        "Villain_Wyvern_Talon_Agent_01",
        "Villain_Wyvern_Talon_Agent_02",
        "Villain_Wyvern_Talon_Agent_03",
        "Villain_Wyvern_Talon_Agent_04",
        "Villain_Wyvern_Talon_Agent_05"
      ]
    },
    {
      "level": 8,
      "experience": 0,
      "display_names": [
        "Talon Agent"
      ],
      "costumes": [
        "Villain_Wyvern_Talon_Agent_01",
        "Villain_Wyvern_Talon_Agent_02",
        "Villain_Wyvern_Talon_Agent_03",
        "Villain_Wyvern_Talon_Agent_04",
        "Villain_Wyvern_Talon_Agent_05"
      ]
    },
    {
      "level": 9,
      "experience": 0,
      "display_names": [
        "Talon Agent"
      ],
      "costumes": [
        "Villain_Wyvern_Talon_Agent_01",
        "Villain_Wyvern_Talon_Agent_02",
        "Villain_Wyvern_Talon_Agent_03",
        "Villain_Wyvern_Talon_Agent_04",
        "Villain_Wyvern_Talon_Agent_05"
      ]
    }
  ]
}