{
  "name": "Crafted_Focused_Smite_E",
  "display_name": "Crafted Focused Smite E",
  "display_fullname": "Boosts.Crafted Focused Smite E",
  "display_help": "Enhances the accuracy of a power by {Boost.Attrib.Accuracy.Scale}% and damage by {Boost.Attrib.Damage.Scale}% and reduces recharge time by {Boost.Attrib.RechargeTime.Scale}%.",
  "display_short_help": "Set: Focused Smite",
  "available_level": [
    0
  ],
  "source_file": "DEFS/POWERS/BOOSTS/CRAFTED_FOCUSED_SMITE_E.POWERSETS",
  "requires": "",
  "power_names": [
    "Boosts.Crafted_Focused_Smite_E.Crafted_Focused_Smite_E"
  ],
  "power_display_names": [
    "Focused Smite: Accuracy/Damage/Recharge"
  ]
}