{
  "name": "Crafted_Volley_Fire_C",
  "display_name": "Crafted Volley Fire C",
  "display_fullname": "Boosts.Crafted Volley Fire C",
  "display_help": "Enhances the damage of a power by {Boost.Attrib.Damage.Scale}% and reduces recharge time by {Boost.Attrib.RechargeTime.Scale}%.",
  "display_short_help": "Set: Volley Fire",
  "available_level": [
    0
  ],
  "source_file": "DEFS/POWERS/BOOSTS/CRAFTED_VOLLEY_FIRE_C.POWERSETS",
  "requires": "",
  "power_names": [
    "Boosts.Crafted_Volley_Fire_C.Crafted_Volley_Fire_C"
  ],
  "power_display_names": [
    "Volley Fire: Damage/Recharge"
  ]
}