{
  "name": "Hydra_Travel_Endurance_Discount",
  "display_name": "Hydra Travel Endurance Discount",
  "display_fullname": "Boosts.Hydra Travel Endurance Discount",
  "display_help": "Increases the speed of a travel and reduces the endurance cost of a power.",
  "display_short_help": "Hydra (All Origins)",
  "available_level": [
    0
  ],
  "source_file": "DEFS/POWERS/BOOSTS/HYDRA_TRAVEL_ENDURANCE_DISCOUNT.POWERSETS",
  "requires": "",
  "power_names": [
    "Boosts.Hydra_Travel_Endurance_Discount.Hydra_Travel_Endurance_Discount"
  ],
  "power_display_names": [
    "Theta Exposure (End/Fly/Jump/Run)"
  ]
}