{
  "name": "Superior_Attuned_Entomb_F",
  "display_name": "Superior Attuned Entomb F",
  "display_fullname": "Boosts.Superior Attuned Entomb F",
  "display_help": "UNIQUE -- Reduces recharge time of a power by {Boost.Attrib.RechargeTime.Scale}% and has a chance to apply a minor Damage Absorb effect on the caster. This enhancement's chance to trigger is equal to approximately 3 times per minute.",
  "display_short_help": "Set: Superior Entomb",
  "available_level": [
    0
  ],
  "source_file": "DEFS/POWERS/BOOSTS/SUPERIOR_ATTUNED_ENTOMB_F.POWERSETS",
  "requires": "",
  "power_names": [
    "Boosts.Superior_Attuned_Entomb_F.Superior_Attuned_Entomb_F"
  ],
  "power_display_names": [
    "Superior Entomb: Rech/Chance for +Absorb"
  ]
}