{
  "name": "Skulls",
  "display_name": "Skulls",
  "source_file": "DEFS/POWERS/SKULLS.CATEGORIES",
  "archetypes": [
    "lt_henchman",
    "minion_henchman"
  ],
  "display_help": null,
  "display_short_help": null,
  "powerset_names": [
    "skulls.chernobog",
    "skulls.deathwalker",
    "skulls.ghost",
    "skulls.graveknight",
    "skulls.lich",
    "skulls.morana",
    "skulls.skulls_boss_melee_powers",
    "skulls.skulls_brawl",
    "skulls.skulls_inherent_defense",
    "skulls.skulls_lt_assaultrifle",
    "skulls.skulls_lt_shotgun",
    "skulls.skulls_lt_submachinegun",
    "skulls.skulls_mn_dualpistol",
    "skulls.skulls_mn_submachinegun",
    "skulls.skulls_minion_axe",
    "skulls.skulls_minion_bat",
    "skulls.skulls_minion_knife",
    "skulls.skulls_minion_revolver",
    "skulls.skulls_minion_sledgehammer",
    "skulls.veles"
  ],
  "powerset_display_names": [
    "Chernobog",
    "Deathwalker",
    "Ghost",
    "Grave Knight",
    "Lich",
    "Morana",
    "Skulls_Boss_Melee_Powers",
    "Skulls_Brawl",
    "Skulls_Inherent_Defense",
    "Skulls_LT_AssaultRifle",
    "Skulls_Lt_Shotgun",
    "Skulls_Lt_SubmachineGun",
    "Skulls_MN_DualPistol",
    "Skulls_MN_SubmachineGun",
    "Skulls_Minion_Axe",
    "Skulls_Minion_Bat",
    "Skulls_Minion_Knife",
    "Skulls_Minion_Revolver",
    "Skulls_Minion_Sledgehammer",
    "Veles"
  ]
}