{
  "name": "Crafted_Devastation_E",
  "display_name": "Crafted Devastation E",
  "display_fullname": "Boosts.Crafted Devastation E",
  "display_help": "Enhances the accuracy of a power by {Boost.Attrib.Accuracy.Scale}%, damage by {Boost.Attrib.Damage.Scale}%, reduces endurance cost by {Boost.Attrib.Endurance.Scale}% and reduces recharge time by {Boost.Attrib.RechargeTime.Scale}%.",
  "display_short_help": "Set: Devastation",
  "available_level": [
    0
  ],
  "source_file": "DEFS/POWERS/BOOSTS/CRAFTED_DEVASTATION_E.POWERSETS",
  "requires": "",
  "power_names": [
    "Boosts.Crafted_Devastation_E.Crafted_Devastation_E"
  ],
  "power_display_names": [
    "Devastation: Accuracy/Damage/Endurance/Recharge"
  ]
}