{
  "name": "Circle_Explosion",
  "display_name": "Circle_Explosion",
  "display_fullname": "CircleOfThorns.Circle Explosion",
  "display_help": "Circle of Thorns",
  "display_short_help": "Circle of Thorns",
  "available_level": [
    0
  ],
  "source_file": "DEFS/POWERS/CIRCLEOFTHORNS/CIRCLE_EXPLOSION.POWERSETS",
  "requires": "",
  "power_names": [
    "CircleOfThorns.Circle_Explosion.Explosion"
  ],
  "power_display_names": [
    "Explosion"
  ]
}