{
  "tag": "ASTeamCrit",
  "bears": [
    [
      "Epic.Blaze Mastery.Char",
      "epic.blaze_mastery.char"
    ],
    [
      "Epic.Blaze Mastery.Fire Ball",
      "epic.blaze_mastery.fire_ball"
    ],
    [
      "Epic.Blaze Mastery.Fire Blast",
      "epic.blaze_mastery.fire_blast"
    ],
    [
      "Epic.Blaze Mastery.Ring of Fire",
      "epic.blaze_mastery.ring_of_fire"
    ],
    [
      "Epic.Body Mastery.Energy Torrent",
      "epic.body_mastery.energy_torrent"
    ],
    [
      "Epic.Body Mastery.Energy Torrent",
      "epic.body_mastery_stalker.energy_torrent"
    ],
    [
      "Epic.Body Mastery.Laser Beam Eyes",
      "epic.body_mastery.laser_beam_eyes"
    ],
    [
      "Epic.Body Mastery.Laser Beam Eyes",
      "epic.body_mastery_stalker.laser_beam_eyes"
    ],
    [
      "Epic.Darkness Mastery.Dark Blast",
      "epic.darkness_mastery.dark_blast"
    ],
    [
      "Epic.Darkness Mastery.Night Fall",
      "epic.darkness_mastery.night_fall"
    ],
    [
      "Epic.Darkness Mastery.Tenebrous Tentacles",
      "epic.darkness_mastery.tenebrous_tentacles"
    ],
    [
      "Epic.Darkness Mastery.Torrent",
      "epic.darkness_mastery.torrent"
    ],
    [
      "Epic.Leviathan Mastery.Spirit Shark",
      "epic.stalker_leviathan_mastery.spirit_shark"
    ],
    [
      "Epic.Leviathan Mastery.Spirit Shark Jaws",
      "epic.stalker_leviathan_mastery.spirit_shark_jaws"
    ],
    [
      "Epic.Mace Mastery.Disruptor Blast",
      "epic.stalker_mace_mastery.disruptor_blast"
    ],
    [
      "Epic.Mace Mastery.Mace Blast",
      "epic.stalker_mace_mastery.mace_blast"
    ],
    [
      "Epic.Mace Mastery.Web Cocoon",
      "epic.stalker_mace_mastery.web_cocoon"
    ],
    [
      "Epic.Mu Mastery.Ball Lightning",
      "epic.stalker_mu_mastery.ball_lightning"
    ],
    [
      "Epic.Mu Mastery.Electric Shackles",
      "epic.stalker_mu_mastery.electric_shackles"
    ],
    [
      "Epic.Mu Mastery.Mu Bolts",
      "epic.stalker_mu_mastery.mu_bolts"
    ],
    [
      "Epic.Soul Mastery.Dark Blast",
      "epic.stalker_soul_mastery.dark_blast"
    ],
    [
      "Epic.Soul Mastery.Soul Storm",
      "epic.stalker_soul_mastery.soul_storm"
    ],
    [
      "Epic.Weapon Mastery.Exploding Shuriken",
      "epic.weapon_mastery.exploding_shuriken"
    ],
    [
      "Epic.Weapon Mastery.Exploding Shuriken",
      "epic.weapon_mastery_stalker.exploding_shuriken"
    ],
    [
      "Epic.Weapon Mastery.Shuriken",
      "epic.weapon_mastery.shuriken"
    ],
    [
      "Epic.Weapon Mastery.Shuriken",
      "epic.weapon_mastery_stalker.shuriken"
    ],
    [
      "Redirects.Dark Melee.Touch of Fear",
      "redirects.dark_melee.touch_of_fear_aoe_stalker"
    ],
    [
      "Stalker Defense.Fiery Aura.Burn",
      "stalker_defense.fiery_aura.burn"
    ],
    [
      "Stalker Defense.Fiery Aura.Consume",
      "stalker_defense.fiery_aura.consume"
    ],
    [
      "Stalker Melee Aux.Savage Melee.Rending Flurry Large",
      "stalker_melee_aux.savage_melee.rending_flurry_large"
    ],
    [
      "Stalker Melee Aux.Savage Melee.Rending Flurry Normal",
      "stalker_melee_aux.savage_melee.rending_flurry_normal"
    ],
    [
      "Stalker Melee Aux.Savage Melee.Savage Leap AoE",
      "stalker_melee_aux.savage_melee.savage_leap_aoe"
    ],
    [
      "Stalker Melee.Broad Sword.Disembowel",
      "stalker_melee.broad_sword.disembowel"
    ],
    [
      "Stalker Melee.Broad Sword.Hack",
      "stalker_melee.broad_sword.hack"
    ],
    [
      "Stalker Melee.Broad Sword.Head Splitter",
      "stalker_melee.broad_sword.head_splitter"
    ],
    [
      "Stalker Melee.Broad Sword.Parry",
      "stalker_melee.broad_sword.parry"
    ],
    [
      "Stalker Melee.Broad Sword.Slash",
      "stalker_melee.broad_sword.slash"
    ],
    [
      "Stalker Melee.Broad Sword.Slice",
      "stalker_melee.broad_sword.slice"
    ],
    [
      "Stalker Melee.Claws.Eviscerate",
      "stalker_melee.claws.eviscerate"
    ],
    [
      "Stalker Melee.Claws.Focus",
      "stalker_melee.claws.focus"
    ],
    [
      "Stalker Melee.Claws.Shockwave",
      "stalker_melee.claws.shockwave"
    ],
    [
      "Stalker Melee.Claws.Slash",
      "stalker_melee.claws.slash"
    ],
    [
      "Stalker Melee.Claws.Strike",
      "stalker_melee.claws.strike"
    ],
    [
      "Stalker Melee.Claws.Swipe",
      "stalker_melee.claws.swipe"
    ],
    [
      "Stalker Melee.Dark Melee.Midnight Grasp",
      "stalker_melee.dark_melee.midnight_grasp"
    ],
    [
      "Stalker Melee.Dark Melee.Shadow Maul",
      "stalker_melee.dark_melee.shadow_maul"
    ],
    [
      "Stalker Melee.Dark Melee.Shadow Punch",
      "stalker_melee.dark_melee.shadow_punch"
    ],
    [
      "Stalker Melee.Dark Melee.Siphon Life",
      "stalker_melee.dark_melee.siphon_life"
    ],
    [
      "Stalker Melee.Dark Melee.Smite",
      "stalker_melee.dark_melee.smite"
    ],
    [
      "Stalker Melee.Dual Blades.Ablating Strike",
      "stalker_melee.dual_blades.moderate_bridge"
    ],
    [
      "Stalker Melee.Dual Blades.Nimble Slash",
      "stalker_melee.dual_blades.light_opening"
    ],
    [
      "Stalker Melee.Dual Blades.One Thousand Cuts",
      "stalker_melee.dual_blades.high_low"
    ],
    [
      "Stalker Melee.Dual Blades.Power Slice",
      "stalker_melee.dual_blades.moderate_opening"
    ],
    [
      "Stalker Melee.Dual Blades.Sweeping Strike",
      "stalker_melee.dual_blades.special_2"
    ],
    [
      "Stalker Melee.Dual Blades.Vengeful Slice",
      "stalker_melee.dual_blades.special_1"
    ],
    [
      "Stalker Melee.Electrical Melee.Chain Induction",
      "stalker_melee.electrical_melee.chain_induction"
    ],
    [
      "Stalker Melee.Electrical Melee.Charged Brawl",
      "stalker_melee.electrical_melee.charged_brawl"
    ],
    [
      "Stalker Melee.Electrical Melee.Havoc Punch",
      "stalker_melee.electrical_melee.havoc_punch"
    ],
    [
      "Stalker Melee.Electrical Melee.Jacobs Ladder",
      "stalker_melee.electrical_melee.jacobs_ladder"
    ],
    [
      "Stalker Melee.Electrical Melee.Thunder Strike",
      "stalker_melee.electrical_melee.lightning_clap"
    ],
    [
      "Stalker Melee.Energy Melee.Barrage",
      "stalker_melee.energy_melee.barrage"
    ],
    [
      "Stalker Melee.Energy Melee.Bone Smasher",
      "stalker_melee.energy_melee.bone_smasher"
    ],
    [
      "Stalker Melee.Energy Melee.Energy Punch",
      "stalker_melee.energy_melee.energy_punch"
    ],
    [
      "Stalker Melee.Energy Melee.Power Crash",
      "stalker_melee.energy_melee.stun"
    ],
    [
      "Stalker Melee.Energy Melee.Total Focus",
      "stalker_melee.energy_melee.total_focus"
    ],
    [
      "Stalker Melee.Fiery Melee.Breath of Fire",
      "stalker_melee.fiery_melee.breath_of_fire"
    ],
    [
      "Stalker Melee.Fiery Melee.Cremate",
      "stalker_melee.fiery_melee.cremate"
    ],
    [
      "Stalker Melee.Fiery Melee.Fire Sword",
      "stalker_melee.fiery_melee.fire_sword"
    ],
    [
      "Stalker Melee.Fiery Melee.Fire Sword Circle",
      "stalker_melee.fiery_melee.fire_sword_circle"
    ],
    [
      "Stalker Melee.Fiery Melee.Greater Fire Sword",
      "stalker_melee.fiery_melee.greater_fire_sword"
    ],
    [
      "Stalker Melee.Fiery Melee.Scorch",
      "stalker_melee.fiery_melee.scorch"
    ],
    [
      "Stalker Melee.Ice Melee.Freezing Touch",
      "stalker_melee.ice_melee.freezing_touch"
    ],
    [
      "Stalker Melee.Ice Melee.Frost",
      "stalker_melee.ice_melee.frost"
    ],
    [
      "Stalker Melee.Ice Melee.Frozen Aura",
      "stalker_melee.ice_melee.frozen_aura"
    ],
    [
      "Stalker Melee.Ice Melee.Frozen Fists",
      "stalker_melee.ice_melee.frozen_fists"
    ],
    [
      "Stalker Melee.Ice Melee.Ice Sword",
      "stalker_melee.ice_melee.ice_sword"
    ],
    [
      "Stalker Melee.Kinetic Melee.Body Blow",
      "stalker_melee.kinetic_attack.body_blow"
    ],
    [
      "Stalker Melee.Kinetic Melee.Burst",
      "stalker_melee.kinetic_attack.burst"
    ],
    [
      "Stalker Melee.Kinetic Melee.Focused Burst",
      "stalker_melee.kinetic_attack.focused_burst"
    ],
    [
      "Stalker Melee.Kinetic Melee.Quick Strike",
      "stalker_melee.kinetic_attack.quick_strike"
    ],
    [
      "Stalker Melee.Kinetic Melee.Smashing Blow",
      "stalker_melee.kinetic_attack.smashing_blow"
    ],
    [
      "Stalker Melee.Martial Arts.Cobra Strike",
      "stalker_melee.martial_arts.cobra_strike"
    ],
    [
      "Stalker Melee.Martial Arts.Crane Kick",
      "stalker_melee.martial_arts.crane_kick"
    ],
    [
      "Stalker Melee.Martial Arts.Crippling Axe Kick",
      "stalker_melee.martial_arts.crippling_axe_kick"
    ],
    [
      "Stalker Melee.Martial Arts.Eagles Claw",
      "stalker_melee.martial_arts.eagles_claw"
    ],
    [
      "Stalker Melee.Martial Arts.Storm Kick",
      "stalker_melee.martial_arts.storm_kick"
    ],
    [
      "Stalker Melee.Martial Arts.Thunder Kick",
      "stalker_melee.martial_arts.thunder_kick"
    ],
    [
      "Stalker Melee.Ninja Blade.Divine Avalanche",
      "stalker_melee.ninja_sword.parry"
    ],
    [
      "Stalker Melee.Ninja Blade.Flashing Steel",
      "stalker_melee.ninja_sword.slice"
    ],
    [
      "Stalker Melee.Ninja Blade.Gambler's Cut",
      "stalker_melee.ninja_sword.slash"
    ],
    [
      "Stalker Melee.Ninja Blade.Golden Dragonfly",
      "stalker_melee.ninja_sword.head_splitter"
    ],
    [
      "Stalker Melee.Ninja Blade.Soaring Dragon",
      "stalker_melee.ninja_sword.disembowel"
    ],
    [
      "Stalker Melee.Ninja Blade.Sting of the Wasp",
      "stalker_melee.ninja_sword.hack"
    ],
    [
      "Stalker Melee.Psionic Melee.Greater Psi Blade",
      "stalker_melee.psionic_melee.greater_psi_blade"
    ],
    [
      "Stalker Melee.Psionic Melee.Mass Levitate",
      "stalker_melee.psionic_melee.mass_levitate"
    ],
    [
      "Stalker Melee.Psionic Melee.Mental Strike",
      "stalker_melee.psionic_melee.mental_strike"
    ],
    [
      "Stalker Melee.Psionic Melee.Psi Blade",
      "stalker_melee.psionic_melee.psi_blade"
    ],
    [
      "Stalker Melee.Psionic Melee.Telekinetic Blow",
      "stalker_melee.psionic_melee.telekinetic_blow"
    ],
    [
      "Stalker Melee.Radiation Melee.Atom Smasher",
      "stalker_melee.radiation_melee.atom_smasher"
    ],
    [
      "Stalker Melee.Radiation Melee.Contaminated Strike",
      "stalker_melee.radiation_melee.contaminated_strike"
    ],
    [
      "Stalker Melee.Radiation Melee.Devastating Blow",
      "stalker_melee.radiation_melee.devastating_blow"
    ],
    [
      "Stalker Melee.Radiation Melee.Proton Sweep",
      "stalker_melee.radiation_melee.proton_sweep"
    ],
    [
      "Stalker Melee.Radiation Melee.Radiation Siphon",
      "stalker_melee.radiation_melee.radiation_siphon"
    ],
    [
      "Stalker Melee.Radiation Melee.Radioactive Smash",
      "stalker_melee.radiation_melee.radioactive_smash"
    ],
    [
      "Stalker Melee.Savage Melee.Hemorrhage",
      "stalker_melee.savage_melee.hemorrhage"
    ],
    [
      "Stalker Melee.Savage Melee.Maiming Slash",
      "stalker_melee.savage_melee.maiming_slash"
    ],
    [
      "Stalker Melee.Savage Melee.Savage Strike",
      "stalker_melee.savage_melee.savage_strike"
    ],
    [
      "Stalker Melee.Savage Melee.Shred",
      "stalker_melee.savage_melee.shred"
    ],
    [
      "Stalker Melee.Spines.Barb Swipe",
      "stalker_melee.spines.barb_swipe"
    ],
    [
      "Stalker Melee.Spines.Impale",
      "stalker_melee.spines.impale"
    ],
    [
      "Stalker Melee.Spines.Lunge",
      "stalker_melee.spines.lunge"
    ],
    [
      "Stalker Melee.Spines.Ripper",
      "stalker_melee.spines.ripper"
    ],
    [
      "Stalker Melee.Spines.Spine Burst",
      "stalker_melee.spines.spine_burst"
    ],
    [
      "Stalker Melee.Spines.Throw Spines",
      "stalker_melee.spines.throw_spines"
    ],
    [
      "Stalker Melee.Staff Fighting.Eye of the Storm",
      "stalker_melee.staff_fighting.eye_of_the_storm"
    ],
    [
      "Stalker Melee.Staff Fighting.Guarded Spin",
      "stalker_melee.staff_fighting.guarded_spin"
    ],
    [
      "Stalker Melee.Staff Fighting.Mercurial Blow",
      "stalker_melee.staff_fighting.mercurial_blow"
    ],
    [
      "Stalker Melee.Staff Fighting.Precise Strike",
      "stalker_melee.staff_fighting.precise_strike"
    ],
    [
      "Stalker Melee.Staff Fighting.Serpent's Reach",
      "stalker_melee.staff_fighting.serpents_reach"
    ],
    [
      "Stalker Melee.Staff Fighting.Sky Splitter",
      "stalker_melee.staff_fighting.sky_splitter"
    ],
    [
      "Stalker Melee.Street Justice.Crushing Uppercut",
      "stalker_melee.brawling.crushing_uppercut"
    ],
    [
      "Stalker Melee.Street Justice.Heavy Blow",
      "stalker_melee.brawling.heavy_blow"
    ],
    [
      "Stalker Melee.Street Justice.Initial Strike",
      "stalker_melee.brawling.initial_strike"
    ],
    [
      "Stalker Melee.Street Justice.Shin Breaker",
      "stalker_melee.brawling.low_kick"
    ],
    [
      "Stalker Melee.Street Justice.Spinning Strike",
      "stalker_melee.brawling.spinning_strike"
    ],
    [
      "Stalker Melee.Street Justice.Sweeping Cross",
      "stalker_melee.brawling.sweeping_cross"
    ],
    [
      "Villain Pets.Stalker EpicMaceMastery Snipe.Mace Beam",
      "villain_pets.stalker_epicmacemastery_snipe.mace_beam_normal"
    ],
    [
      "Villain Pets.Stalker EpicMaceMastery Snipe.Mace Beam",
      "villain_pets.stalker_epicmacemastery_snipe.mace_beam_quick"
    ],
    [
      "Villain Pets.Stalker EpicMuMastery Snipe.Zapp",
      "villain_pets.stalker_epicmumastery_snipe.zapp_normal"
    ],
    [
      "Villain Pets.Stalker EpicMuMastery Snipe.Zapp",
      "villain_pets.stalker_epicmumastery_snipe.zapp_quick"
    ],
    [
      "Villain Pets.Stalker EpicSoulMastery Snipe.Moonbeam",
      "villain_pets.stalker_epicsoulmastery_snipe.moonbeam_normal"
    ],
    [
      "Villain Pets.Stalker EpicSoulMastery Snipe.Moonbeam",
      "villain_pets.stalker_epicsoulmastery_snipe.moonbeam_quick"
    ]
  ],
  "affects": [
    [
      "Inherent.Inherent.Assassination",
      "inherent.inherent.assassination"
    ]
  ]
}