{
  "tag": "CritSmall",
  "bears": [
    [
      "Scrapper Melee.Kinetic Melee.Body Blow",
      "scrapper_melee.kinetic_attack.body_blow"
    ],
    [
      "Scrapper Melee.Kinetic Melee.Burst",
      "scrapper_melee.kinetic_attack.burst"
    ],
    [
      "Scrapper Melee.Kinetic Melee.Focused Burst",
      "scrapper_melee.kinetic_attack.focused_burst"
    ],
    [
      "Scrapper Melee.Kinetic Melee.Quick Strike",
      "scrapper_melee.kinetic_attack.quick_strike"
    ],
    [
      "Scrapper Melee.Kinetic Melee.Repulsing Torrent",
      "scrapper_melee.kinetic_attack.repulsing_torrent"
    ],
    [
      "Scrapper Melee.Kinetic Melee.Smashing Blow",
      "scrapper_melee.kinetic_attack.smashing_blow"
    ]
  ],
  "affects": [
    [
      "Set Bonus.Set Bonus.Critical Strikes",
      "set_bonus.set_bonus.critical_strikes_proc"
    ],
    [
      "Set Bonus.Set Bonus.Large Critical Hit Bonus",
      "set_bonus.set_bonus.large_critical_hit_bonus"
    ],
    [
      "Set Bonus.Set Bonus.Small Critical Hit Bonus",
      "set_bonus.set_bonus.small_critical_hit_bonus"
    ]
  ]
}