{
  "tag": "GammaBurst",
  "bears": [
    [
      "Blaster Support.Atomic Manipulation.Electron Shackles",
      "blaster_support.radiation_manipulation.electron_shackles"
    ],
    [
      "Blaster Support.Atomic Manipulation.Negatron Slam",
      "blaster_support.radiation_manipulation.negatron_slam"
    ],
    [
      "Blaster Support.Atomic Manipulation.Positron Cell",
      "blaster_support.radiation_manipulation.positron_cell"
    ],
    [
      "Blaster Support.Atomic Manipulation.Positronic Fist",
      "blaster_support.radiation_manipulation.positronic_fist"
    ],
    [
      "V Arachnos Proxy.Atomic Manipulation.Electron Shackles",
      "v_arachnos_proxy.radiation_manipulation.electron_shackles"
    ],
    [
      "V Arachnos Proxy.Atomic Manipulation.Negatron Slam",
      "v_arachnos_proxy.radiation_manipulation.negatron_slam"
    ],
    [
      "V Arachnos Proxy.Atomic Manipulation.Positron Cell",
      "v_arachnos_proxy.radiation_manipulation.positron_cell"
    ],
    [
      "V Arachnos Proxy.Atomic Manipulation.Positronic Fist",
      "v_arachnos_proxy.radiation_manipulation.positronic_fist"
    ]
  ],
  "affects": [

  ]
}