{
  "tag": "StalkerOnly",
  "bears": [
    [
      "Epic.Blaze Mastery.Char",
      "epic.blaze_mastery.char"
    ],
    [
      "Epic.Blaze Mastery.Fire Ball",
      "epic.blaze_mastery.fire_ball"
    ],
    [
      "Epic.Blaze Mastery.Fire Blast",
      "epic.blaze_mastery.fire_blast"
    ],
    [
      "Epic.Blaze Mastery.Ring of Fire",
      "epic.blaze_mastery.ring_of_fire"
    ],
    [
      "Epic.Body Mastery.Energy Torrent",
      "epic.body_mastery.energy_torrent"
    ],
    [
      "Epic.Body Mastery.Laser Beam Eyes",
      "epic.body_mastery.laser_beam_eyes"
    ],
    [
      "Epic.Darkness Mastery.Dark Blast",
      "epic.darkness_mastery.dark_blast"
    ],
    [
      "Epic.Darkness Mastery.Night Fall",
      "epic.darkness_mastery.night_fall"
    ],
    [
      "Epic.Darkness Mastery.Tenebrous Tentacles",
      "epic.darkness_mastery.tenebrous_tentacles"
    ],
    [
      "Epic.Darkness Mastery.Torrent",
      "epic.darkness_mastery.torrent"
    ],
    [
      "Epic.Leviathan Mastery.Spirit Shark",
      "epic.stalker_leviathan_mastery.spirit_shark"
    ],
    [
      "Epic.Leviathan Mastery.Spirit Shark Jaws",
      "epic.stalker_leviathan_mastery.spirit_shark_jaws"
    ],
    [
      "Epic.Mace Mastery.Disruptor Blast",
      "epic.stalker_mace_mastery.disruptor_blast"
    ],
    [
      "Epic.Mace Mastery.Mace Blast",
      "epic.stalker_mace_mastery.mace_blast"
    ],
    [
      "Epic.Mace Mastery.Web Cocoon",
      "epic.stalker_mace_mastery.web_cocoon"
    ],
    [
      "Epic.Mu Mastery.Ball Lightning",
      "epic.stalker_mu_mastery.ball_lightning"
    ],
    [
      "Epic.Mu Mastery.Electric Shackles",
      "epic.stalker_mu_mastery.electric_shackles"
    ],
    [
      "Epic.Mu Mastery.Mu Bolts",
      "epic.stalker_mu_mastery.mu_bolts"
    ],
    [
      "Epic.Soul Mastery.Dark Blast",
      "epic.stalker_soul_mastery.dark_blast"
    ],
    [
      "Epic.Soul Mastery.Soul Storm",
      "epic.stalker_soul_mastery.soul_storm"
    ],
    [
      "Epic.Weapon Mastery.Exploding Shuriken",
      "epic.weapon_mastery.exploding_shuriken"
    ],
    [
      "Epic.Weapon Mastery.Shuriken",
      "epic.weapon_mastery.shuriken"
    ],
    [
      "Villain Pets.Stalker EpicMaceMastery Snipe.Mace Beam",
      "villain_pets.stalker_epicmacemastery_snipe.mace_beam_normal"
    ],
    [
      "Villain Pets.Stalker EpicMaceMastery Snipe.Mace Beam",
      "villain_pets.stalker_epicmacemastery_snipe.mace_beam_quick"
    ],
    [
      "Villain Pets.Stalker EpicMuMastery Snipe.Zapp",
      "villain_pets.stalker_epicmumastery_snipe.zapp_normal"
    ],
    [
      "Villain Pets.Stalker EpicMuMastery Snipe.Zapp",
      "villain_pets.stalker_epicmumastery_snipe.zapp_quick"
    ],
    [
      "Villain Pets.Stalker EpicSoulMastery Snipe.Moonbeam",
      "villain_pets.stalker_epicsoulmastery_snipe.moonbeam_normal"
    ],
    [
      "Villain Pets.Stalker EpicSoulMastery Snipe.Moonbeam",
      "villain_pets.stalker_epicsoulmastery_snipe.moonbeam_quick"
    ]
  ],
  "affects": [

  ]
}