{
  "name": "Dual_Pistols",
  "display_name": "Dual Pistols",
  "display_fullname": "Blaster Ranged.Dual Pistols",
  "display_help": "You're a master of akimbo pistols, wielding a high caliber firearm in each hand. Your attacks primarily deal lethal damage and you have a wide variety of attacks, however your strength lies within your ability to use your \"Swap Ammo\" power to change out your ammo mid-battle. Doing so can change your secondary damage type and effects making you an incredibly versatile ranged combatant.",
  "display_short_help": "Dual Pistols",
  "available_level": [
    0,
    0,
    1,
    5,
    -1,
    -1,
    -1,
    7,
    11,
    17,
    25,
    31
  ],
  "source_file": "DEFS/POWERS/BLASTER_RANGED/DUAL_PISTOLS.POWERSETS",
  "requires": "",
  "power_names": [
    "Blaster_Ranged.Dual_Pistols.Pistols",
    "Blaster_Ranged.Dual_Pistols.Dual_Wield",
    "Blaster_Ranged.Dual_Pistols.Empty_Clips",
    "Blaster_Ranged.Dual_Pistols.Swap_Ammo",
    "Blaster_Ranged.Dual_Pistols.Cryo_Ammunition",
    "Blaster_Ranged.Dual_Pistols.Incendiary_Ammunition",
    "Blaster_Ranged.Dual_Pistols.Chemical_Ammunition",
    "Blaster_Ranged.Dual_Pistols.Bullet_Rain",
    "Blaster_Ranged.Dual_Pistols.Suppressive_Fire",
    "Blaster_Ranged.Dual_Pistols.Executioners_Shot",
    "Blaster_Ranged.Dual_Pistols.Piercing_Rounds",
    "Blaster_Ranged.Dual_Pistols.Hail_of_Bullets"
  ],
  "power_display_names": [
    "Pistols",
    "Dual Wield",
    "Empty Clips",
    "Swap Ammo",
    "Cryo Ammunition",
    "Incendiary Ammunition",
    "Chemical Ammunition",
    "Bullet Rain",
    "Suppressive Fire",
    "Executioner's Shot",
    "Piercing Rounds",
    "Hail of Bullets"
  ]
}