{
  "name": "Soul_Minion",
  "display_name": "",
  "display_fullname": "Midnight Squad.Soul Minion",
  "display_help": "Midnight Squad",
  "display_short_help": "Midnight Squad",
  "available_level": [
    0,
    0
  ],
  "source_file": "DEFS/POWERS/MIDNIGHT_SQUAD/SOUL_MINION.POWERSETS",
  "requires": "",
  "power_names": [
    "Midnight_Squad.Soul_Minion.Darkness_Staff",
    "Midnight_Squad.Soul_Minion.Darkness_Staff_Gloom"
  ],
  "power_display_names": [
    "Darkness Staff",
    "Darkness Staff Gloom"
  ]
}