{
  "name": "Attuned_Multi_Strike_D",
  "display_name": "Attuned Multi-Strike D",
  "display_fullname": "Boosts.Attuned Multi Strike D",
  "display_help": "Enhances the accuracy of a power by {Boost.Attrib.Accuracy.Scale}% and reduces endurance cost by {Boost.Attrib.Endurance.Scale}%.",
  "display_short_help": "Set: Multi-Strike",
  "available_level": [
    0
  ],
  "source_file": "DEFS/POWERS/BOOSTS/ATTUNED_MULTI_STRIKE_D.POWERSETS",
  "requires": "",
  "power_names": [
    "Boosts.Attuned_Multi_Strike_D.Attuned_Multi_Strike_D"
  ],
  "power_display_names": [
    "Multi-Strike: Accuracy/Endurance"
  ]
}