{
  "name": "Archery",
  "display_name": "Archery",
  "display_fullname": "Mission Maker Attacks.Archery",
  "display_help": "The ancient art of Archery allows you to use a Bow and Arrow to great effect. This power set has an inherent bonus to Accuracy.",
  "display_short_help": "Archery",
  "available_level": [
    0,
    1,
    3,
    9,
    15,
    19,
    34,
    37
  ],
  "source_file": "DEFS/POWERS/MISSION_MAKER_ATTACKS/ARCHERY.POWERSETS",
  "requires": "",
  "power_names": [
    "Mission_Maker_Attacks.Archery.Snap_Shot",
    "Mission_Maker_Attacks.Archery.Aimed_Shot",
    "Mission_Maker_Attacks.Archery.Fistful_of_Arrows",
    "Mission_Maker_Attacks.Archery.Blazing_Arrow",
    "Mission_Maker_Attacks.Archery.Aim",
    "Mission_Maker_Attacks.Archery.Explosive_Arrow",
    "Mission_Maker_Attacks.Archery.Stunning_Shot",
    "Mission_Maker_Attacks.Archery.Rain_of_Arrows"
  ],
  "power_display_names": [
    "Snap Shot",
    "Aimed Shot",
    "Fistful of Arrows",
    "Blazing Arrow",
    "Aim",
    "Explosive Arrow",
    "Stunning Shot",
    "Rain of Arrows"
  ]
}