{
  "name": "Winter_Storm",
  "display_name": "Winter Storm",
  "display_fullname": "Event.Winter Storm",
  "display_help": "Snowbeast",
  "display_short_help": "Snowbeast",
  "available_level": [
    0
  ],
  "source_file": "DEFS/POWERS/EVENT/WINTER_STORM.POWERSETS",
  "requires": "",
  "power_names": [
    "Event.Winter_Storm.Winter_Storm"
  ],
  "power_display_names": [
    "Winter Storm"
  ]
}