{
  "name": "Tactical_Arrow",
  "display_name": "Tactical Arrow",
  "display_fullname": "Blaster Support.Tactical Arrow",
  "display_help": "Gain an advantage in combat with a combination of training techniques that boost your accuracy and movement skills in addition of Tactical Arrows tipped with a variety of payloads, which if used strategically, can dramatically alter a battle site.",
  "display_short_help": "Tactical Arrow",
  "available_level": [
    0,
    1,
    3,
    9,
    15,
    19,
    27,
    34,
    37
  ],
  "source_file": "DEFS/POWERS/BLASTER_SUPPORT/TACTICAL_ARROW.POWERSETS",
  "requires": "",
  "power_names": [
    "Blaster_Support.Tactical_Arrow.Electrified_Net_Arrow",
    "Blaster_Support.Tactical_Arrow.Glue_Arrow",
    "Blaster_Support.Tactical_Arrow.Ice_Arrow",
    "Blaster_Support.Tactical_Arrow.Upshot",
    "Blaster_Support.Tactical_Arrow.Flash_Arrow",
    "Blaster_Support.Tactical_Arrow.Eagle_Eye",
    "Blaster_Support.Tactical_Arrow.Quickness",
    "Blaster_Support.Tactical_Arrow.EMP_Arrow",
    "Blaster_Support.Tactical_Arrow.Gymnastics"
  ],
  "power_display_names": [
    "Electrified Net Arrow",
    "Glue Arrow",
    "Ice Arrow",
    "Upshot",
    "Flash Arrow",
    "Eagle Eye",
    "Gymnastics",
    "ESD Arrow",
    "Oil Slick Arrow"
  ]
}