{
  "name": "Crafted_Coercive_Persuasion_E",
  "display_name": "Crafted Coercive Persuasion E",
  "display_fullname": "Boosts.Crafted Coercive Persuasion E",
  "display_help": "UNIQUE -- No more than 1 enhancement of this type may be slotted by a character. Enhances the confuse duration of a power by {Boost.Attrib.Mez.Scale}% and reduces the endurance cost by {Boost.Attrib.Endurance.Scale}%.",
  "display_short_help": "Set: Coercive Persuasion",
  "available_level": [
    0
  ],
  "source_file": "DEFS/POWERS/BOOSTS/CRAFTED_COERCIVE_PERSUASION_E.POWERSETS",
  "requires": "",
  "power_names": [
    "Boosts.Crafted_Coercive_Persuasion_E.Crafted_Coercive_Persuasion_E"
  ],
  "power_display_names": [
    "Coercive Persuasion: Confuse Duration/Endurance Reduction"
  ]
}