{
  "name": "Tech_Damage",
  "display_name": "Tech Damage",
  "display_fullname": "Base Aux.Tech Damage",
  "display_help": "Improves Damage by 15%",
  "display_short_help": "Tech",
  "available_level": [
    0
  ],
  "source_file": "DEFS/POWERS/BASE_AUX/TECH_DAMAGE.POWERSETS",
  "requires": "",
  "power_names": [
    "Base_Aux.Tech_Damage.Damage_Booster"
  ],
  "power_display_names": [
    "Damage Booster"
  ]
}