{
  "name": "Sibyl_Ice",
  "display_name": "Sibyl_Ice",
  "display_fullname": "TalonsOfVengeance.Sibyl Ice",
  "display_help": "Talons of Vengeance",
  "display_short_help": "Talons of Vengeance",
  "available_level": [
    0
  ],
  "source_file": "DEFS/POWERS/TALONSOFVENGEANCE/SIBYL_ICE.POWERSETS",
  "requires": "",
  "power_names": [
    "TalonsOfVengeance.Sibyl_Ice.Blizzard"
  ],
  "power_display_names": [
    "Blizzard"
  ]
}