{
  "name": "Tech_Heavy_Cold_Turret",
  "display_name": "Tech_Heavy_Cold_Turret",
  "display_fullname": "Base Defenses.Tech Heavy Cold Turret",
  "display_help": "Base Defenses",
  "display_short_help": "Base Defenses",
  "available_level": [
    0
  ],
  "source_file": "DEFS/POWERS/BASE_DEFENSES/TECH_HEAVY_COLD_TURRET.POWERSETS",
  "requires": "",
  "power_names": [
    "Base_Defenses.Tech_Heavy_Cold_Turret.Elite_Chill_Cannon"
  ],
  "power_display_names": [
    "Elite Chill Cannon"
  ]
}