{
  "name": "Villain_Teleport",
  "display_name": "Villain Teleport",
  "display_fullname": "V Arachnos.Villain Teleport",
  "display_help": "Arachnos",
  "display_short_help": "Arachnos",
  "available_level": [
    0
  ],
  "source_file": "DEFS/POWERS/V_ARACHNOS/VILLAIN_TELEPORT.POWERSETS",
  "requires": "",
  "power_names": [
    "V_Arachnos.Villain_Teleport.Teleport"
  ],
  "power_display_names": [
    "Teleport"
  ]
}