{
  "name": "Desdemona",
  "display_name": "Desdemona",
  "display_fullname": "RoguesGallery.Desdemona",
  "display_help": "Desdemona",
  "display_short_help": "Desdemona",
  "available_level": [
    0,
    0,
    0,
    29,
    19,
    39,
    0,
    39,
    29
  ],
  "source_file": "DEFS/POWERS/ROGUESGALLERY/DESDEMONA.POWERSETS",
  "requires": "",
  "power_names": [
    "RoguesGallery.Desdemona.Corruption",
    "RoguesGallery.Desdemona.Summon_Demonlings",
    "RoguesGallery.Desdemona.Lash",
    "RoguesGallery.Desdemona.Crack_Whip",
    "RoguesGallery.Desdemona.Summon_Demons",
    "RoguesGallery.Desdemona.Summon_Demon_Prince",
    "RoguesGallery.Desdemona.Twilight_Grasp",
    "RoguesGallery.Desdemona.Tar_Patch",
    "RoguesGallery.Desdemona.Darkest_Night"
  ],
  "power_display_names": [
    "Corruption",
    "Summon Demonlings",
    "Lash",
    "Crack Whip",
    "Summon Demons",
    "Summon Demon Prince",
    "Twilight Grasp",
    "Tar Patch",
    "Darkest Night"
  ]
}