{
  "name": "Shadow_Recall",
  "full_name": "Warshade_Defensive.Umbral_Aura.Shadow_Recall",
  "type": "Click",
  "display_name": "Shadow Recall",
  "display_fullname": "Warshade Defensive.Umbral Aura.Shadow Recall",
  "display_help": "You can Teleport a single foe or ally directly next to yourself. A successful hit must be made in order to Teleport the foes. Some powerful foes cannot be Teleported. Enemy players that are teleported will be temporarily out of phase, and cannot be targeted or damaged. This power can be interrupted while teleporting foes.<br><br><color #fcfc95>Recharge: Fast.</color>",
  "display_short_help": "Teleport Teamate or Foe",
  "icon": "umbralaura_shadowrecall.png",
  "auto_issue": true,
  "auto_issue_keeps_level": false,
  "message_caster": null,
  "message_floater": null,
  "message_attacker_hit": "You Recall {PlayerDest} close to you",
  "message_target_hit": null,
  "message_target_confirm": "{PlayerSource} would like to Teleport you. Do you Accept?",
  "message_float_reward": null,
  "message_defense_avoidance": null,
  "attack_types": [
    "Ranged",
    "Negative_Energy"
  ],
  "requires": "!Inherent.Inherent.Shadow_Recall",
  "activate_requires": "",
  "accuracy": 1.0,
  "number_allowed": 1,
  "caster_near_ground": false,
  "target_near_ground": false,
  "cast_when_dead": "AliveOnly",
  "cast_through": [

  ],
  "toggle_ignores": [

  ],
  "ignore_level_gained": false,
  "works_on_untouchable": false,
  "works_through_vision_phase": false,
  "target_untargetable": false,
  "interrupt_like_sleep": false,
  "notify_ai_when": "Always",
  "effect_area": "SingleTarget",
  "max_targets_hit": 0,
  "radius": 0.0,
  "arc": 0.0,
  "range": 10000.0,
  "range_secondary": 25.0,
  "activation_time": 5.93,
  "root_time": 1.8667,
  "interrupt_time": 4.0,
  "recharge_time": 6.0,
  "activate_period": 0.0,
  "endurance_cost": 15.0,
  "cancelable": false,
  "self_confirm": false,
  "confirm_requires": "",
  "time_to_confirm": 10,
  "chain_delay": 0.0,
  "chain_effect_expr": "",
  "chain_forks": [

  ],
  "chain_into_power_name": null,
  "vec_box_offset": [
    0.0,
    0.0,
    0.0
  ],
  "vec_box_size": [
    0.0,
    0.0,
    0.0
  ],
  "number_of_charges": 0,
  "max_num_charges": 0,
  "destroy_on_last_use": true,
  "power_lifetime": 0.0,
  "max_power_lifetime": 0.0,
  "power_lifetime_ingame": 0.0,
  "max_power_lifetime_ingame": 0.0,
  "stacking_lifetime": false,
  "toggle_on_time": 0.0,
  "max_toggle_on_time": 0.0,
  "toggle_detoggle_time": 0.0,
  "toggle_droppable": "Sometimes",
  "ignore_toggle_max_distance": false,
  "target_type": "Any (Alive)",
  "target_type_secondary": "Location (Teleport)",
  "target_visibility": "None",
  "targets_affected": [
    "Leaguemate",
    "Foe (Alive)"
  ],
  "targets_autohit": [
    "Leaguemate"
  ],
  "target_requires": "",
  "proc_allowed": "All",
  "boosts_allowed": [
    "Reduce Interrupt Time",
    "Reduce Endurance Cost",
    "Enhance Range",
    "Enhance Recharge Speed",
    "Enhance Accuracy"
  ],
  "allowed_boostset_cats": [
    "Teleport",
    "Universal Travel"
  ],
  "exclusion_groups": [

  ],
  "modes_required": [

  ],
  "modes_disallowed": [
    "Peacebringer_Blaster_Mode",
    "Peacebringer_Tanker_Mode",
    "Warshade_Blaster_Mode",
    "Warshade_Tanker_Mode",
    "Disable_All",
    "Disable_Recall"
  ],
  "recharge_groups": [

  ],
  "ignore_strength": false,
  "strengths_disallowed": [

  ],
  "global_strengths_disallowed": [

  ],
  "procs_only_on_main_target": false,
  "vars_attribmods_can_reference": [

  ],
  "show_buff_icon": true,
  "show_in_info": true,
  "show_in_manage": true,
  "show_in_inventory": "Show",
  "deletable": false,
  "tradeable": false,
  "do_not_save": false,
  "max_boosts": 6,
  "ignore_level_differences": false,
  "ignore_exemplar_for_bonuses": false,
  "boost_combinable": true,
  "boost_tradeable": true,
  "boost_account_bound": false,
  "boost_boostable": false,
  "boost_use_player_level": false,
  "boost_catalyzable": null,
  "boost_store_product": null,
  "boost_min_slot_level": -3,
  "boost_max_level": 50,
  "instance_locked": false,
  "is_environment_hit": false,
  "shuffle_target_list": false,
  "enforced_level_bought": -1,
  "refreshes_on_active_player_change": false,
  "highlight_expression": "",
  "highlight_icon": null,
  "highlight_color": "#00000000",
  "travel_suppression_time": 0.0,
  "server_tray_priority": 0,
  "server_tray_requires": "",
  "abusive_buff": true,
  "position_center": "kModTarget_Caster",
  "position_distance": 0.0,
  "position_height": 0.0,
  "position_yaw": 0.0,
  "face_target": true,
  "attrib_cache": [

  ],
  "max_targets_expression": "",
  "chain_target_expr": "",
  "powerset": "Warshade_Defensive.Umbral_Aura",
  "available_level": 9,
  "archetypes": [
    "warshade"
  ],
  "redirect": [
    {
      "name": "Kheldian_Pets.Umbral_Blast.Shadow_Recall",
      "condition_expression": "target.isFriend?"
    },
    {
      "name": "Kheldian_Pets.Umbral_Blast.Starless_Step",
      "condition_expression": "!target.isFriend?"
    }
  ],
  "effects": [

  ],
  "activation_effects": [

  ],
  "fx": {
    "source_file": "MENU/POWERS/ANIMFX/PLAYERPOWERS/WARSHADOW_TELEPORTOTHER.PFX",
    "attack_bits": [
      20,
      305
    ],
    "block_bits": [

    ],
    "wind_up_bits": [
      368
    ],
    "hit_bits": [

    ],
    "death_bits": [

    ],
    "activation_bits": [

    ],
    "deactivation_bits": [

    ],
    "initial_attack_bits": [
      20,
      305
    ],
    "continuing_bits": [

    ],
    "conditional_bits": [

    ],
    "activation_fx": null,
    "deactivation_fx": null,
    "attack_fx": "POWERS/COSMICPOWERS/NICTUS/BLACKHOLE/TELEPORTCASTRECALL2.FX",
    "secondary_attack_fx": null,
    "hit_fx": "POWERS/COSMICPOWERS/NICTUS/BLACKHOLE/TELEPORTSELF.FX",
    "wind_up_fx": "POWERS/COSMICPOWERS/NICTUS/BLACKHOLE/TELEPORTCASTRECALL.FX",
    "block_fx": null,
    "death_fx": null,
    "initial_attack_fx": "POWERS/COSMICPOWERS/NICTUS/BLACKHOLE/TELEPORTCASTRECALL2.FX",
    "continuing_fx": [
      "POWERS/INVISIBILITY/INVISIBILITYPHASESHIFTCONTINUING.FX"
    ],
    "conditional_fx": [

    ],
    "mode_bits": [
      20
    ],
    "frames_before_hit": 1,
    "frames_before_secondary_hit": 0,
    "delayed_hit": false,
    "frames_attack": 58,
    "initial_frames_before_hit": 1,
    "initial_attack_fx_frame_delay": 0,
    "projectile_speed": 3.4028234663852886e38,
    "secondary_projectile_speed": 0.0,
    "initial_frames_before_block": 0,
    "ignore_attack_time_errors": null,
    "frames_before_block": 0,
    "fx_important": false
  },
  "custom_fx": [
    {
      "display_name": null,
      "token": "Color Tintable",
      "alt_themes": [
        "NoBubble"
      ],
      "category": null,
      "palette_name": "Subtractive",
      "fx": {
        "source_file": "MENU/POWERS/ANIMFX/PLAYERPOWERS/WARSHADOW_TELEPORTOTHER.PFX",
        "attack_bits": [
          20,
          305
        ],
        "block_bits": [

        ],
        "wind_up_bits": [
          368
        ],
        "hit_bits": [

        ],
        "death_bits": [

        ],
        "activation_bits": [

        ],
        "deactivation_bits": [

        ],
        "initial_attack_bits": [
          20,
          305
        ],
        "continuing_bits": [

        ],
        "conditional_bits": [

        ],
        "activation_fx": null,
        "deactivation_fx": null,
        "attack_fx": "CUSTOMIZEABLEPOWERS/KHELDIAN_WARSHADE/BLACKHOLE/TELEPORTCASTRECALL2.FX",
        "secondary_attack_fx": null,
        "hit_fx": "CUSTOMIZEABLEPOWERS/KHELDIAN_WARSHADE/BLACKHOLE/TELEPORTSELF.FX",
        "wind_up_fx": "CUSTOMIZEABLEPOWERS/KHELDIAN_WARSHADE/BLACKHOLE/TELEPORTCASTRECALL.FX",
        "block_fx": null,
        "death_fx": null,
        "initial_attack_fx": "CUSTOMIZEABLEPOWERS/KHELDIAN_WARSHADE/BLACKHOLE/TELEPORTCASTRECALL2.FX",
        "continuing_fx": [
          "CUSTOMIZABLEPOWERS_POOLS/CONCEALMENT/PHASESHIFT_CONTINUING.FX"
        ],
        "conditional_fx": [

        ],
        "mode_bits": [
          20
        ],
        "frames_before_hit": 1,
        "frames_before_secondary_hit": 0,
        "delayed_hit": false,
        "frames_attack": 58,
        "initial_frames_before_hit": 1,
        "initial_attack_fx_frame_delay": 0,
        "projectile_speed": 3.4028234663852886e38,
        "secondary_projectile_speed": 0.0,
        "initial_frames_before_block": 0,
        "ignore_attack_time_errors": null,
        "frames_before_block": 0,
        "fx_important": false
      }
    }
  ],
  "fx_only_on_main_target": false
}