{
  "name": "Superior_Attuned_Superior_Stalkers_Guile_F",
  "display_name": "Superior Attuned Superior Stalkers Guile F",
  "display_fullname": "Boosts.Superior Attuned Stalkers Guile F",
  "display_help": "UNIQUE -- No more than 1 enhancement of this type may be slotted by a character. Gives the Stalker a chance to enter a hidden state when they strike their target with the slotted power and reduces recharge time by {Boost.Attrib.RechargeTime.Scale}%. This effect will trigger roughly 5 times per minute. This enhancement can only be slotted by Stalkers and can be slotted into nearly all Stalker damage powers.",
  "display_short_help": "Set: Superior Stalker's Guile",
  "available_level": [
    0
  ],
  "source_file": "DEFS/POWERS/BOOSTS/SUPERIOR_ATTUNED_SUPERIOR_STALKERS_GUILE_F.POWERSETS",
  "requires": "",
  "power_names": [
    "Boosts.Superior_Attuned_Superior_Stalkers_Guile_F.Superior_Attuned_Superior_Stalkers_Guile_F"
  ],
  "power_display_names": [
    "Superior Stalker's Guile: Recharge/Chance to Hide"
  ]
}