{
  "name": "Chain_Confuse_Controller_Jump3",
  "display_name": "Chain Confuse Jump 3",
  "display_fullname": "Mission Maker Pets.Chain Confuse Jump 3",
  "display_help": "Chain Confuse Jump 3",
  "display_short_help": "Chain Confuse Jump 3",
  "available_level": [
    0
  ],
  "source_file": "DEFS/POWERS/MISSION_MAKER_PETS/CHAIN_CONFUSE_CONTROLLER_JUMP3.POWERSETS",
  "requires": "",
  "power_names": [
    "Mission_Maker_Pets.Chain_Confuse_Controller_Jump3.Charge"
  ],
  "power_display_names": [
    "Charge"
  ]
}