{
  "name": "Minion_Sword",
  "display_name": "Minion_Sword",
  "display_fullname": "Syndicate.Minion Sword",
  "display_help": "Syndicate",
  "display_short_help": "Syndicate",
  "available_level": [
    0,
    10
  ],
  "source_file": "DEFS/POWERS/SYNDICATE/MINION_SWORD.POWERSETS",
  "requires": "",
  "power_names": [
    "Syndicate.Minion_Sword.Gamblers_Cut",
    "Syndicate.Minion_Sword.Sting_of_the_Wasp"
  ],
  "power_display_names": [
    "Gambler's Cut",
    "Sting of the Wasp"
  ]
}