{
  "name": "Attuned_Tempered_Readiness_A",
  "display_name": "Attuned Tempered Readiness A",
  "display_fullname": "Boosts.Attuned Tempered Readiness A",
  "display_help": "Enhances the accuracy by {Boost.Attrib.Accuracy.Scale}% and slowing ability of a power by {Boost.Attrib.Movement.Scale}%.",
  "display_short_help": "Set: Tempered Readiness",
  "available_level": [
    0
  ],
  "source_file": "DEFS/POWERS/BOOSTS/ATTUNED_TEMPERED_READINESS_A.POWERSETS",
  "requires": "",
  "power_names": [
    "Boosts.Attuned_Tempered_Readiness_A.Attuned_Tempered_Readiness_A"
  ],
  "power_display_names": [
    "Tempered Readiness: Accuracy/Slow"
  ]
}