{
  "name": "Mission_Maker_Pets",
  "display_name": "Pets",
  "source_file": "DEFS/POWERS/MISSION_MAKER_PETS.CATEGORIES",
  "archetypes": [
    "boss_grunt",
    "boss_henchman",
    "boss_praetoriangrunt",
    "lt_henchman",
    "lt_praetoriangrunt",
    "minion_henchman",
    "minion_pets",
    "minion_praetoriangrunt"
  ],
  "display_help": null,
  "display_short_help": null,
  "powerset_names": [
    "mission_maker_pets.alpha_wolf",
    "mission_maker_pets.arsonist_burn",
    "mission_maker_pets.assault",
    "mission_maker_pets.caltrops",
    "mission_maker_pets.chain_confuse_controller_jump1",
    "mission_maker_pets.chain_confuse_controller_jump2",
    "mission_maker_pets.chain_confuse_controller_jump3",
    "mission_maker_pets.chain_jolt_controller_jump1",
    "mission_maker_pets.chain_jolt_controller_jump2",
    "mission_maker_pets.chain_jolt_controller_jump3",
    "mission_maker_pets.chain_stun_controller_jump1",
    "mission_maker_pets.cold_demonling",
    "mission_maker_pets.commando",
    "mission_maker_pets.demon_prince",
    "mission_maker_pets.dire_wolf",
    "mission_maker_pets.droid",
    "mission_maker_pets.ember_demon",
    "mission_maker_pets.fiery_demonling",
    "mission_maker_pets.genin",
    "mission_maker_pets.ghosts",
    "mission_maker_pets.gremlin",
    "mission_maker_pets.hellfire_demonling",
    "mission_maker_pets.hellfire_gargoyle",
    "mission_maker_pets.howler_wolf",
    "mission_maker_pets.jonin",
    "mission_maker_pets.kinetictransferbuff",
    "mission_maker_pets.kinetictransferbuffself",
    "mission_maker_pets.kinetictransferdebuff",
    "mission_maker_pets.lich",
    "mission_maker_pets.lioness",
    "mission_maker_pets.living_hellfire",
    "mission_maker_pets.medic",
    "mission_maker_pets.oni",
    "mission_maker_pets.protector",
    "mission_maker_pets.savage_melee",
    "mission_maker_pets.siphonpower",
    "mission_maker_pets.skeleton",
    "mission_maker_pets.soldier",
    "mission_maker_pets.spec_ops",
    "mission_maker_pets.static_field_controller",
    "mission_maker_pets.thorntrops",
    "mission_maker_pets.thug_arsonist",
    "mission_maker_pets.thug_boss",
    "mission_maker_pets.thug_lt",
    "mission_maker_pets.thug_minion",
    "mission_maker_pets.thug_pose",
    "mission_maker_pets.thug_pose_axe",
    "mission_maker_pets.thug_pose_bat",
    "mission_maker_pets.thug_pose_brawl",
    "mission_maker_pets.thug_pose_knife",
    "mission_maker_pets.thug_pose_pipe",
    "mission_maker_pets.thug_pose_pistol",
    "mission_maker_pets.thug_pose_revolver",
    "mission_maker_pets.thug_pose_rock",
    "mission_maker_pets.thug_pose_sledgehammer",
    "mission_maker_pets.zombie"
  ],
  "powerset_display_names": [
    "Alpha Wolf",
    "Arsonist",
    "Assault",
    "Caltrops",
    "Chain Confuse Jump 1",
    "Chain Confuse Jump 2",
    "Chain Confuse Jump 3",
    "Chain Jolt Jump 1",
    "Chain Jolt Jump 2",
    "Chain Jolt Jump 3",
    "Chain Stun Jump 1",
    "Cold Demonling",
    "Commando",
    "Demon Prince",
    "Dire Wolf",
    "Droid",
    "Ember Demon",
    "Fiery Demonling",
    "Genin",
    "Ghosts",
    "Gremlin",
    "Hellfire Demonling",
    "Hellfire Gargoyle",
    "Howler Wolf",
    "Jounin",
    "Kinetic Transfer",
    "Kinetic Transfer",
    "Kinetic Transfer",
    "Lich",
    "Lioness",
    "Living Hellfire",
    "Medic",
    "Oni",
    "Protector",
    "Savage Melee",
    "Siphon Power",
    "Skeleton",
    "Soldier",
    "Spec Ops",
    "Static Field Controller",
    "Thorntrops",
    "Arsonist",
    "Thug Boss",
    "Thug Lieutenant",
    "Thug Minion",
    "Thug Posse",
    "Thug Posse",
    "Thug Posse",
    "Thug Posse",
    "Thug Posse",
    "Thug Posse",
    "Thug Posse",
    "Thug Posse",
    "Thug Posse",
    "Thug Posse",
    "Zombie"
  ]
}