{
  "name": "Power_Generator",
  "display_name": "Power_Generator",
  "display_fullname": "V Arachnos.Power Generator",
  "display_help": "Arachnos",
  "display_short_help": "Arachnos",
  "available_level": [
    0,
    0
  ],
  "source_file": "DEFS/POWERS/V_ARACHNOS/POWER_GENERATOR.POWERSETS",
  "requires": "",
  "power_names": [
    "V_Arachnos.Power_Generator.Power_Generator_FX",
    "V_Arachnos.Power_Generator.Power_Generator_Real"
  ],
  "power_display_names": [
    "Dispersion Bubble",
    "Power Generator Real"
  ]
}