{
  "name": "Attuned_Unrelenting_Fury_F",
  "display_name": "Attuned Unrelenting Fury F",
  "display_fullname": "Boosts.Attuned Unrelenting Fury F",
  "display_help": "UNIQUE -- No more than 1 enhancement of this type may be slotted by a character. Gives this power a chance to grant you a small regeneration and endurance discount bonus and reduces recharge time by {Boost.Attrib.RechargeTime.Scale}%. This regeneration and endurance discount buff stacks up to 5 times. This effect will trigger roughly 6 times per minute. This enhancement can only be slotted by Brutes and may be slotted into any Brute damage power.",
  "display_short_help": "Set: Unrelenting Fury",
  "available_level": [
    0
  ],
  "source_file": "DEFS/POWERS/BOOSTS/ATTUNED_UNRELENTING_FURY_F.POWERSETS",
  "requires": "",
  "power_names": [
    "Boosts.Attuned_Unrelenting_Fury_F.Attuned_Unrelenting_Fury_F"
  ],
  "power_display_names": [
    "Unrelenting Fury: Recharge/Chance for +Regen/+End Discount (Brute)"
  ]
}