{
  "name": "Brawler_High",
  "display_name": "",
  "display_fullname": "Destroyers.Brawler High",
  "display_help": "Destroyers",
  "display_short_help": "Destroyers",
  "available_level": [
    0,
    0,
    0
  ],
  "source_file": "DEFS/POWERS/DESTROYERS/BRAWLER_HIGH.POWERSETS",
  "requires": "",
  "power_names": [
    "Destroyers.Brawler_High.Grenade_Launcher",
    "Destroyers.Brawler_High.Boxing",
    "Destroyers.Brawler_High.Brawl"
  ],
  "power_display_names": [
    "Rocket Launcher",
    "Boxing",
    "Brawl"
  ]
}