{
  "name": "Trick_Arrow",
  "display_name": "Trick Arrow",
  "display_fullname": "Defender Buff.Trick Arrow",
  "display_help": "Trick Arrows are tipped with an odd variety of payloads, which if used strategically, can dramatically alter a battle site.",
  "display_short_help": "Trick Arrow",
  "available_level": [
    0,
    0,
    1,
    5,
    7,
    11,
    17,
    25,
    31
  ],
  "source_file": "DEFS/POWERS/DEFENDER_BUFF/TRICK_ARROW.POWERSETS",
  "requires": "",
  "power_names": [
    "Defender_Buff.Trick_Arrow.Entangling_Arrow",
    "Defender_Buff.Trick_Arrow.Flash_Arrow",
    "Defender_Buff.Trick_Arrow.Glue_Arrow",
    "Defender_Buff.Trick_Arrow.Ice_Arrow",
    "Defender_Buff.Trick_Arrow.Poison_Gas_Arrow",
    "Defender_Buff.Trick_Arrow.Acid_Arrow",
    "Defender_Buff.Trick_Arrow.Disruption_Arrow",
    "Defender_Buff.Trick_Arrow.Oil_Slick_Arrow",
    "Defender_Buff.Trick_Arrow.EMP_Arrow"
  ],
  "power_display_names": [
    "Entangling Arrow",
    "Flash Arrow",
    "Glue Arrow",
    "Ice Arrow",
    "Poison Gas Arrow",
    "Acid Arrow",
    "Disruption Arrow",
    "Oil Slick Arrow",
    "EMP Arrow"
  ]
}