{
  "name": "Science_Technology_Snare",
  "display_name": "Science Technology Snare",
  "display_fullname": "Boosts.Science Technology Snare",
  "display_help": "Increases the effectiveness of powers that slow",
  "display_short_help": "Invention (Science, Technology)",
  "available_level": [
    0
  ],
  "source_file": "DEFS/POWERS/BOOSTS/SCIENCE_TECHNOLOGY_SNARE.POWERSETS",
  "requires": "",
  "power_names": [
    "Boosts.Science_Technology_Snare.Science_Technology_Snare"
  ],
  "power_display_names": [
    "Muscular Atrophier (Slow)"
  ]
}