{
  "name": "Attuned_Mocking_Beratement_E",
  "display_name": "Attuned Mocking Beratement E",
  "display_fullname": "Boosts.Attuned Mocking Beratement E",
  "display_help": "Enhances the taunt duration of a power by {Boost.Attrib.Mez.Scale}% and the range by {Boost.Attrib.Range.Scale}%.",
  "display_short_help": "Set: Mocking Beratement",
  "available_level": [
    0
  ],
  "source_file": "DEFS/POWERS/BOOSTS/ATTUNED_MOCKING_BERATEMENT_E.POWERSETS",
  "requires": "",
  "power_names": [
    "Boosts.Attuned_Mocking_Beratement_E.Attuned_Mocking_Beratement_E"
  ],
  "power_display_names": [
    "Mocking Beratement: Taunt/Range"
  ]
}