{
  "name": "Attuned_Titanium_Coating_C",
  "display_name": "Attuned Titanium Coating C",
  "display_fullname": "Boosts.Attuned Titanium Coating C",
  "display_help": "Reduces the endurance cost of a power by {Boost.Attrib.Endurance.Scale}% and recharge time by {Boost.Attrib.RechargeTime.Scale}%.",
  "display_short_help": "Set: Titanium Coating",
  "available_level": [
    0
  ],
  "source_file": "DEFS/POWERS/BOOSTS/ATTUNED_TITANIUM_COATING_C.POWERSETS",
  "requires": "",
  "power_names": [
    "Boosts.Attuned_Titanium_Coating_C.Attuned_Titanium_Coating_C"
  ],
  "power_display_names": [
    "Titanium Coating: Endurance/Recharge"
  ]
}