{
  "name": "Kheldian_Pets",
  "display_name": "Pets",
  "source_file": "DEFS/POWERS/KHELDIAN_PETS.CATEGORIES",
  "archetypes": [
    "minion_pets",
    "peacebringer",
    "warshade"
  ],
  "display_help": null,
  "display_short_help": null,
  "powerset_names": [
    "kheldian_pets.energy_drone1",
    "kheldian_pets.energy_drone2",
    "kheldian_pets.energy_drone3",
    "kheldian_pets.luminous_blast",
    "kheldian_pets.omega_bomb",
    "kheldian_pets.umbral_blast",
    "kheldian_pets.warshade_extraction"
  ],
  "powerset_display_names": [
    "Energy_Drone1",
    "Energy_Drone2",
    "Energy_Drone3",
    "Luminous Blast",
    "",
    "Umbral Blast",
    "Warshade Extraction"
  ]
}