{
  "name": "Superior_Attuned_Superior_Sentinels_Ward_C",
  "display_name": "Superior Attuned Superior Sentinels Ward C",
  "display_fullname": "Boosts.Superior Attuned Sentinels Ward C",
  "display_help": "UNIQUE -- No more than 1 enhancement of this type may be slotted by a character. Enhances the accuracy of a power by {Boost.Attrib.Accuracy.Scale}% and damage by {Boost.Attrib.Damage.Scale}% and reduces recharge time by {Boost.Attrib.RechargeTime.Scale}% . This enhancement can only be slotted by Sentinels and may be slotted into any Sentinel damage power and requires the user to be level 50.",
  "display_short_help": "Set: Superior Sentinel's Ward",
  "available_level": [
    0
  ],
  "source_file": "DEFS/POWERS/BOOSTS/SUPERIOR_ATTUNED_SUPERIOR_SENTINELS_WARD_C.POWERSETS",
  "requires": "",
  "power_names": [
    "Boosts.Superior_Attuned_Superior_Sentinels_Ward_C.Superior_Attuned_Superior_Sentinels_Ward_C"
  ],
  "power_display_names": [
    "Superior Sentinel's Ward: Accuracy/Damage/Recharge"
  ]
}