{
  "name": "Assassins_Strike",
  "full_name": "Stalker_Melee.Electrical_Melee.Assassins_Strike",
  "type": "Click",
  "display_name": "Assassin's Shock",
  "display_fullname": "Stalker Melee.Electrical Melee.Assassin's Shock",
  "display_help": "A signature Stalker attack. This attack does superior energy and smashing damage on its own as a frontal attack and cannot be interrupted. However, if it is executed while you are Hidden, this attack will do tremendous damage, as you waylay your unsuspecting foe. This attack may be interrupted if you move or are attacked while executing this power and are hidden. Using this power while not hidden has a chance to critically hit equal to 33.3% times the number of stacks of Assassin's Focus. Using Assassin's Strike when not hidden will remove all stacks of Assassin's Focus regardless if you critically hit or not.<br><br><color #fcfc95>Damage: Extreme.</color><br><color #fcfc95>Recharge: Slow.</color>",
  "display_short_help": "Melee, Extreme DMG(Smashing, Energy)",
  "icon": "electricmelee_assassinstrike.png",
  "auto_issue": false,
  "auto_issue_keeps_level": false,
  "message_caster": null,
  "message_floater": null,
  "message_attacker_hit": null,
  "message_target_hit": null,
  "message_target_confirm": null,
  "message_float_reward": null,
  "message_defense_avoidance": null,
  "attack_types": [
    "Melee",
    "Smashing",
    "Energy"
  ],
  "requires": "",
  "activate_requires": "",
  "accuracy": 1.2,
  "number_allowed": 1,
  "caster_near_ground": false,
  "target_near_ground": false,
  "cast_when_dead": "AliveOnly",
  "cast_through": [

  ],
  "toggle_ignores": [

  ],
  "ignore_level_gained": false,
  "works_on_untouchable": false,
  "works_through_vision_phase": false,
  "target_untargetable": false,
  "interrupt_like_sleep": true,
  "notify_ai_when": "HitOnly",
  "effect_area": "SingleTarget",
  "max_targets_hit": 0,
  "radius": 0.0,
  "arc": 0.0,
  "range": 7.0,
  "range_secondary": 0.0,
  "activation_time": 3.0,
  "root_time": 0.3667,
  "interrupt_time": 2.0,
  "recharge_time": 15.0,
  "activate_period": 0.0,
  "endurance_cost": 14.352,
  "cancelable": false,
  "self_confirm": false,
  "confirm_requires": "",
  "time_to_confirm": 0,
  "chain_delay": 0.0,
  "chain_effect_expr": "",
  "chain_forks": [

  ],
  "chain_into_power_name": null,
  "vec_box_offset": [
    0.0,
    0.0,
    0.0
  ],
  "vec_box_size": [
    0.0,
    0.0,
    0.0
  ],
  "number_of_charges": 0,
  "max_num_charges": 0,
  "destroy_on_last_use": true,
  "power_lifetime": 0.0,
  "max_power_lifetime": 0.0,
  "power_lifetime_ingame": 0.0,
  "max_power_lifetime_ingame": 0.0,
  "stacking_lifetime": false,
  "toggle_on_time": 0.0,
  "max_toggle_on_time": 0.0,
  "toggle_detoggle_time": 0.0,
  "toggle_droppable": "Sometimes",
  "ignore_toggle_max_distance": false,
  "target_type": "Foe (Alive)",
  "target_type_secondary": null,
  "target_visibility": "LineOfSight",
  "targets_affected": [
    "Foe (Alive)"
  ],
  "targets_autohit": [

  ],
  "target_requires": "",
  "proc_allowed": "All",
  "boosts_allowed": [
    "Reduce Endurance Cost",
    "Enhance Recharge Speed",
    "Enhance Damage",
    "Enhance Accuracy"
  ],
  "allowed_boostset_cats": [
    "Melee Damage",
    "Stalker Archetype Sets",
    "Universal Damage Sets"
  ],
  "exclusion_groups": [

  ],
  "modes_required": [

  ],
  "modes_disallowed": [
    "Disable_All"
  ],
  "recharge_groups": [

  ],
  "ignore_strength": false,
  "strengths_disallowed": [
    "Range"
  ],
  "global_strengths_disallowed": [

  ],
  "procs_only_on_main_target": false,
  "vars_attribmods_can_reference": [

  ],
  "show_buff_icon": true,
  "show_in_info": true,
  "show_in_manage": true,
  "show_in_inventory": "Show",
  "deletable": false,
  "tradeable": false,
  "do_not_save": false,
  "max_boosts": 6,
  "ignore_level_differences": false,
  "ignore_exemplar_for_bonuses": false,
  "boost_combinable": true,
  "boost_tradeable": true,
  "boost_account_bound": false,
  "boost_boostable": false,
  "boost_use_player_level": false,
  "boost_catalyzable": null,
  "boost_store_product": null,
  "boost_min_slot_level": -3,
  "boost_max_level": 50,
  "instance_locked": false,
  "is_environment_hit": false,
  "shuffle_target_list": false,
  "enforced_level_bought": -1,
  "refreshes_on_active_player_change": false,
  "highlight_expression": "ownPowerNum?(Temporary_Powers.Temporary_Powers.Assassins_Focus) == 3",
  "highlight_icon": null,
  "highlight_color": "#FF7F00FF",
  "travel_suppression_time": 1.0,
  "server_tray_priority": 0,
  "server_tray_requires": "",
  "abusive_buff": true,
  "position_center": "kModTarget_Caster",
  "position_distance": 0.0,
  "position_height": 0.0,
  "position_yaw": 0.0,
  "face_target": true,
  "attrib_cache": [

  ],
  "max_targets_expression": "",
  "chain_target_expr": "",
  "powerset": "Stalker_Melee.Electrical_Melee",
  "available_level": 5,
  "archetypes": [
    "stalker"
  ],
  "redirect": [
    {
      "name": "Villain_Pets.Electric_Melee_Assassins_Strike.Assassins_Shock_Quick",
      "condition_expression": "source>kMeter < 0.9"
    },
    {
      "name": "Villain_Pets.Electric_Melee_Assassins_Strike.Assassins_Shock_Stealth",
      "condition_expression": "Always"
    }
  ],
  "effects": [

  ],
  "activation_effects": [

  ],
  "fx": {
    "source_file": "MENU/POWERS/ANIMFX/PLAYERPOWERS/STALKERMELEE_ELECTRICALMELEE_ASSASSINSSTRIKE.PFX",
    "attack_bits": [
      20,
      132,
      135,
      140,
      204
    ],
    "block_bits": [

    ],
    "wind_up_bits": [
      20,
      132,
      135,
      140,
      202
    ],
    "hit_bits": [
      49,
      681
    ],
    "death_bits": [

    ],
    "activation_bits": [

    ],
    "deactivation_bits": [

    ],
    "initial_attack_bits": [
      20,
      132,
      135,
      140,
      204
    ],
    "continuing_bits": [

    ],
    "conditional_bits": [

    ],
    "activation_fx": null,
    "deactivation_fx": null,
    "attack_fx": "POWERS/ELECTRICITYCONTROL/RED_ASSASSINSSTRIKE.FX",
    "secondary_attack_fx": null,
    "hit_fx": "POWERS/ELECTRICITYCONTROL/RED_ASSASSINSSTRIKE_HIT.FX",
    "wind_up_fx": "POWERS/ELECTRICITYCONTROL/RED_ASSASSINSSTRIKE_WINDUP.FX",
    "block_fx": null,
    "death_fx": null,
    "initial_attack_fx": "POWERS/ELECTRICITYCONTROL/RED_ASSASSINSSTRIKE.FX",
    "continuing_fx": [

    ],
    "conditional_fx": [

    ],
    "mode_bits": [
      20
    ],
    "frames_before_hit": 13,
    "frames_before_secondary_hit": 0,
    "delayed_hit": false,
    "frames_attack": 30,
    "initial_frames_before_hit": 13,
    "initial_attack_fx_frame_delay": 0,
    "projectile_speed": 3.4028234663852886e38,
    "secondary_projectile_speed": 0.0,
    "initial_frames_before_block": 0,
    "ignore_attack_time_errors": null,
    "frames_before_block": 0,
    "fx_important": false
  },
  "custom_fx": [
    {
      "display_name": null,
      "token": "Bright Electricity",
      "alt_themes": [

      ],
      "category": null,
      "palette_name": "Additive",
      "fx": {
        "source_file": "MENU/POWERS/ANIMFX/PLAYERPOWERS/STALKERMELEE_ELECTRICALMELEE_ASSASSINSSTRIKE.PFX",
        "attack_bits": [
          20,
          132,
          135,
          140,
          204
        ],
        "block_bits": [

        ],
        "wind_up_bits": [
          20,
          132,
          135,
          140,
          202
        ],
        "hit_bits": [
          49,
          681
        ],
        "death_bits": [

        ],
        "activation_bits": [

        ],
        "deactivation_bits": [

        ],
        "initial_attack_bits": [
          20,
          132,
          135,
          140,
          204
        ],
        "continuing_bits": [

        ],
        "conditional_bits": [

        ],
        "activation_fx": null,
        "deactivation_fx": null,
        "attack_fx": "CUSTOMIZEABLEPOWERS/ELECTRICALMELEE/ASSASSINSSTRIKE_ATTACK.FX",
        "secondary_attack_fx": null,
        "hit_fx": "CUSTOMIZEABLEPOWERS/ELECTRICALMELEE/ASSASSINSSTRIKE_HIT.FX",
        "wind_up_fx": "CUSTOMIZEABLEPOWERS/ELECTRICALMELEE/ASSASSINSSTRIKE_WINDUP.FX",
        "block_fx": null,
        "death_fx": null,
        "initial_attack_fx": "CUSTOMIZEABLEPOWERS/ELECTRICALMELEE/ASSASSINSSTRIKE_ATTACK.FX",
        "continuing_fx": [

        ],
        "conditional_fx": [

        ],
        "mode_bits": [
          20
        ],
        "frames_before_hit": 13,
        "frames_before_secondary_hit": 0,
        "delayed_hit": false,
        "frames_attack": 30,
        "initial_frames_before_hit": 13,
        "initial_attack_fx_frame_delay": 0,
        "projectile_speed": 3.4028234663852886e38,
        "secondary_projectile_speed": 0.0,
        "initial_frames_before_block": 0,
        "ignore_attack_time_errors": null,
        "frames_before_block": 0,
        "fx_important": false
      }
    },
    {
      "display_name": null,
      "token": "Dark Electricity",
      "alt_themes": [

      ],
      "category": null,
      "palette_name": "Subtractive",
      "fx": {
        "source_file": "MENU/POWERS/ANIMFX/PLAYERPOWERS/STALKERMELEE_ELECTRICALMELEE_ASSASSINSSTRIKE.PFX",
        "attack_bits": [
          20,
          132,
          135,
          140,
          204
        ],
        "block_bits": [

        ],
        "wind_up_bits": [
          20,
          132,
          135,
          140,
          202
        ],
        "hit_bits": [
          49,
          681
        ],
        "death_bits": [

        ],
        "activation_bits": [

        ],
        "deactivation_bits": [

        ],
        "initial_attack_bits": [
          20,
          132,
          135,
          140,
          204
        ],
        "continuing_bits": [

        ],
        "conditional_bits": [

        ],
        "activation_fx": null,
        "deactivation_fx": null,
        "attack_fx": "CUSTOMIZEABLEPOWERS/ELECTRICALMELEE/SUBTRACTIVE/ASSASSINSSTRIKE_ATTACK.FX",
        "secondary_attack_fx": null,
        "hit_fx": "CUSTOMIZEABLEPOWERS/ELECTRICALMELEE/SUBTRACTIVE/ASSASSINSSTRIKE_HIT.FX",
        "wind_up_fx": "CUSTOMIZEABLEPOWERS/ELECTRICALMELEE/SUBTRACTIVE/ASSASSINSSTRIKE_WINDUP.FX",
        "block_fx": null,
        "death_fx": null,
        "initial_attack_fx": "CUSTOMIZEABLEPOWERS/ELECTRICALMELEE/SUBTRACTIVE/ASSASSINSSTRIKE_ATTACK.FX",
        "continuing_fx": [

        ],
        "conditional_fx": [

        ],
        "mode_bits": [
          20
        ],
        "frames_before_hit": 13,
        "frames_before_secondary_hit": 0,
        "delayed_hit": false,
        "frames_attack": 30,
        "initial_frames_before_hit": 13,
        "initial_attack_fx_frame_delay": 0,
        "projectile_speed": 3.4028234663852886e38,
        "secondary_projectile_speed": 0.0,
        "initial_frames_before_block": 0,
        "ignore_attack_time_errors": null,
        "frames_before_block": 0,
        "fx_important": false
      }
    }
  ],
  "fx_only_on_main_target": false
}