{
  "name": "Crafted_Perfect_Zinger_C",
  "display_name": "Crafted Perfect Zinger C",
  "display_fullname": "Boosts.Crafted Perfect Zinger C",
  "display_help": "Enhances the taunt duration of a power by {Boost.Attrib.Mez.Scale}% the range by {Boost.Attrib.Range.Scale}% and reduces the recharge time of a power by {Boost.Attrib.RechargeTime.Scale}%.",
  "display_short_help": "Set: Perfect Zinger",
  "available_level": [
    0
  ],
  "source_file": "DEFS/POWERS/BOOSTS/CRAFTED_PERFECT_ZINGER_C.POWERSETS",
  "requires": "",
  "power_names": [
    "Boosts.Crafted_Perfect_Zinger_C.Crafted_Perfect_Zinger_C"
  ],
  "power_display_names": [
    "Perfect Zinger: Taunt/Recharge/Range"
  ]
}