{
  "name": "RaiseAlly",
  "display_name": "RaiseAlly",
  "display_fullname": "Praetorians.RaiseAlly",
  "display_help": "RaiseAlly",
  "display_short_help": "RaiseAlly",
  "available_level": [
    0
  ],
  "source_file": "DEFS/POWERS/PRAETORIANS/RAISEALLY.POWERSETS",
  "requires": "",
  "power_names": [
    "Praetorians.RaiseAlly.Resurrect"
  ],
  "power_display_names": [
    "Resurrect"
  ]
}