{
  "name": "Energy_Blast",
  "display_name": "Energy Blast",
  "display_fullname": "Mission Maker Attacks.Energy Blast",
  "display_help": "Energy Blast allows you to hurl bolts of energy at your foes, and can often send them flying with Knockback.",
  "display_short_help": "Energy Blast",
  "available_level": [
    0,
    0,
    9,
    9,
    19,
    19,
    34
  ],
  "source_file": "DEFS/POWERS/MISSION_MAKER_ATTACKS/ENERGY_BLAST.POWERSETS",
  "requires": "",
  "power_names": [
    "Mission_Maker_Attacks.Energy_Blast.Power_Bolt",
    "Mission_Maker_Attacks.Energy_Blast.Power_Blast",
    "Mission_Maker_Attacks.Energy_Blast.Energy_Torrent",
    "Mission_Maker_Attacks.Energy_Blast.Power_Burst",
    "Mission_Maker_Attacks.Energy_Blast.Aim",
    "Mission_Maker_Attacks.Energy_Blast.Explosive_Blast",
    "Mission_Maker_Attacks.Energy_Blast.Nova"
  ],
  "power_display_names": [
    "Power Bolt",
    "Power Blast",
    "Energy Torrent",
    "Power Burst",
    "Aim",
    "Explosive Blast",
    "Nova"
  ]
}