{
  "name": "Devouring_Earth_Swarm_Movement",
  "display_name": "Devouring Earth Swarm Movement",
  "display_fullname": "DevouringEarth.Devouring Earth Swarm Movement",
  "display_help": "Devouring Earth",
  "display_short_help": "Devouring Earth",
  "available_level": [
    0
  ],
  "source_file": "DEFS/POWERS/DEVOURINGEARTH/DEVOURING_EARTH_SWARM_MOVEMENT.POWERSETS",
  "requires": "",
  "power_names": [
    "DevouringEarth.Devouring_Earth_Swarm_Movement.Fly"
  ],
  "power_display_names": [
    "Fly"
  ]
}