{
  "name": "Ranged_Shot",
  "full_name": "Defender_Ranged.Archery.Ranged_Shot",
  "type": "Click",
  "display_name": "Ranged Shot",
  "display_fullname": "Defender Ranged.Archery.Ranged Shot",
  "display_help": "A long range shot that blasts your foes. Like most sniper attacks, this power has a bonus to Accuracy, but is best fired from a distance as it can be interrupted. If you are engaged in battle this attack becomes instant-cast. If you are not engaged, it will do bonus damage.<br><br><color #fcfc95>Damage: High.</color><br><color #fcfc95>Recharge: Slow.</color>",
  "display_short_help": "Sniper, High DMG(Lethal)",
  "icon": "archery_sniperarrow.png",
  "auto_issue": false,
  "auto_issue_keeps_level": false,
  "message_caster": null,
  "message_floater": null,
  "message_attacker_hit": null,
  "message_target_hit": null,
  "message_target_confirm": null,
  "message_float_reward": null,
  "message_defense_avoidance": null,
  "attack_types": [
    "Ranged",
    "Lethal"
  ],
  "requires": "",
  "activate_requires": "",
  "accuracy": 1.155,
  "number_allowed": 1,
  "caster_near_ground": false,
  "target_near_ground": false,
  "cast_when_dead": "AliveOnly",
  "cast_through": [

  ],
  "toggle_ignores": [

  ],
  "ignore_level_gained": false,
  "works_on_untouchable": false,
  "works_through_vision_phase": false,
  "target_untargetable": false,
  "interrupt_like_sleep": false,
  "notify_ai_when": "Always",
  "effect_area": "SingleTarget",
  "max_targets_hit": 0,
  "radius": 0.0,
  "arc": 0.0,
  "range": 150.0,
  "range_secondary": 0.0,
  "activation_time": 1.67,
  "root_time": 1.67,
  "interrupt_time": 0.0,
  "recharge_time": 12.0,
  "activate_period": 0.0,
  "endurance_cost": 14.352,
  "cancelable": false,
  "self_confirm": false,
  "confirm_requires": "",
  "time_to_confirm": 0,
  "chain_delay": 0.0,
  "chain_effect_expr": "",
  "chain_forks": [

  ],
  "chain_into_power_name": null,
  "vec_box_offset": [
    0.0,
    0.0,
    0.0
  ],
  "vec_box_size": [
    0.0,
    0.0,
    0.0
  ],
  "number_of_charges": 0,
  "max_num_charges": 0,
  "destroy_on_last_use": true,
  "power_lifetime": 0.0,
  "max_power_lifetime": 0.0,
  "power_lifetime_ingame": 0.0,
  "max_power_lifetime_ingame": 0.0,
  "stacking_lifetime": false,
  "toggle_on_time": 0.0,
  "max_toggle_on_time": 0.0,
  "toggle_detoggle_time": 0.0,
  "toggle_droppable": "Sometimes",
  "ignore_toggle_max_distance": false,
  "target_type": "Foe (Alive)",
  "target_type_secondary": null,
  "target_visibility": "LineOfSight",
  "targets_affected": [
    "Foe (Alive)"
  ],
  "targets_autohit": [

  ],
  "target_requires": "",
  "proc_allowed": "All",
  "boosts_allowed": [
    "Reduce Interrupt Time",
    "Reduce Endurance Cost",
    "Enhance Range",
    "Enhance Recharge Speed",
    "Enhance Damage",
    "Enhance Accuracy"
  ],
  "allowed_boostset_cats": [
    "Defender Archetype Sets",
    "Ranged Damage",
    "Sniper Attacks",
    "Universal Damage Sets"
  ],
  "exclusion_groups": [

  ],
  "modes_required": [

  ],
  "modes_disallowed": [
    "Disable_All"
  ],
  "recharge_groups": [

  ],
  "ignore_strength": false,
  "strengths_disallowed": [

  ],
  "global_strengths_disallowed": [

  ],
  "procs_only_on_main_target": false,
  "vars_attribmods_can_reference": [

  ],
  "show_buff_icon": true,
  "show_in_info": true,
  "show_in_manage": true,
  "show_in_inventory": "Show",
  "deletable": false,
  "tradeable": false,
  "do_not_save": false,
  "max_boosts": 6,
  "ignore_level_differences": false,
  "ignore_exemplar_for_bonuses": false,
  "boost_combinable": true,
  "boost_tradeable": true,
  "boost_account_bound": false,
  "boost_boostable": false,
  "boost_use_player_level": false,
  "boost_catalyzable": null,
  "boost_store_product": null,
  "boost_min_slot_level": -3,
  "boost_max_level": 50,
  "instance_locked": false,
  "is_environment_hit": false,
  "shuffle_target_list": false,
  "enforced_level_bought": -1,
  "refreshes_on_active_player_change": false,
  "highlight_expression": "Mode?(kEngaged) || ownPower?(Set_Bonus.Set_Bonus.Experienced_Marksman)",
  "highlight_icon": null,
  "highlight_color": "#FFFF00FF",
  "travel_suppression_time": 1.0,
  "server_tray_priority": 0,
  "server_tray_requires": "",
  "abusive_buff": true,
  "position_center": "kModTarget_Caster",
  "position_distance": 0.0,
  "position_height": 0.0,
  "position_yaw": 0.0,
  "face_target": true,
  "attrib_cache": [

  ],
  "max_targets_expression": "",
  "chain_target_expr": "",
  "powerset": "Defender_Ranged.Archery",
  "available_level": 27,
  "archetypes": [
    "boss_monster",
    "defender"
  ],
  "redirect": [
    {
      "name": "Pets.Defender_Archery_Snipe.Ranged_Shot_Quick",
      "condition_expression": "Source.Mode?(kEngaged) || source.ownPower?(Set_Bonus.Set_Bonus.Experienced_Marksman)"
    },
    {
      "name": "Pets.Defender_Archery_Snipe.Ranged_Shot_Normal",
      "condition_expression": "Always"
    }
  ],
  "effects": [

  ],
  "activation_effects": [

  ],
  "fx": {
    "source_file": "MENU/POWERS/ANIMFX/ARCHERY_SNIPERQUICK.PFX",
    "attack_bits": [
      20,
      132,
      135,
      136,
      90,
      680
    ],
    "block_bits": [

    ],
    "wind_up_bits": [

    ],
    "hit_bits": [
      49,
      681
    ],
    "death_bits": [

    ],
    "activation_bits": [
      20,
      132,
      135,
      136,
      90,
      186
    ],
    "deactivation_bits": [

    ],
    "initial_attack_bits": [
      20,
      132,
      135,
      136,
      90,
      680,
      186
    ],
    "continuing_bits": [

    ],
    "conditional_bits": [

    ],
    "activation_fx": "WEAPONS/BOW/CUSTOMWEAPON_BOW.FX",
    "deactivation_fx": null,
    "attack_fx": "WEAPONS/BOW/ARCHERY/ARROW_MID.FX",
    "secondary_attack_fx": null,
    "hit_fx": "WEAPONS/BOW/ARCHERY/ARROWSHIT.FX",
    "wind_up_fx": null,
    "block_fx": null,
    "death_fx": null,
    "initial_attack_fx": "WEAPONS/BOW/ARCHERY/ARROW_MID.FX",
    "continuing_fx": [

    ],
    "conditional_fx": [

    ],
    "mode_bits": [
      20,
      132,
      135,
      136,
      90,
      85
    ],
    "frames_before_hit": 24,
    "frames_before_secondary_hit": 0,
    "delayed_hit": true,
    "frames_attack": 50,
    "initial_frames_before_hit": 44,
    "initial_attack_fx_frame_delay": 20,
    "projectile_speed": 300.0,
    "secondary_projectile_speed": 0.0,
    "initial_frames_before_block": 0,
    "ignore_attack_time_errors": null,
    "frames_before_block": 0,
    "fx_important": false
  },
  "custom_fx": [
    {
      "display_name": null,
      "token": "NoRedraw",
      "alt_themes": [

      ],
      "category": null,
      "palette_name": "Additive",
      "fx": {
        "source_file": "MENU/POWERS/ANIMFX/ARCHERY_SNIPERQUICK.PFX",
        "attack_bits": [
          20,
          132,
          135,
          136,
          90,
          680
        ],
        "block_bits": [

        ],
        "wind_up_bits": [

        ],
        "hit_bits": [
          49,
          681
        ],
        "death_bits": [

        ],
        "activation_bits": [
          20,
          132,
          135,
          136,
          90,
          188
        ],
        "deactivation_bits": [

        ],
        "initial_attack_bits": [
          20,
          132,
          135,
          136,
          90,
          680
        ],
        "continuing_bits": [

        ],
        "conditional_bits": [

        ],
        "activation_fx": "WEAPONS/BOW/CUSTOMWEAPON_BOW.FX",
        "deactivation_fx": null,
        "attack_fx": "WEAPONS/BOW/ARCHERY/ARROW_MID.FX",
        "secondary_attack_fx": null,
        "hit_fx": "WEAPONS/BOW/ARCHERY/ARROWSHIT.FX",
        "wind_up_fx": null,
        "block_fx": null,
        "death_fx": null,
        "initial_attack_fx": "WEAPONS/BOW/ARCHERY/ARROW_MID.FX",
        "continuing_fx": [

        ],
        "conditional_fx": [

        ],
        "mode_bits": [
          20,
          132,
          135,
          136,
          90,
          85
        ],
        "frames_before_hit": 24,
        "frames_before_secondary_hit": 0,
        "delayed_hit": true,
        "frames_attack": 50,
        "initial_frames_before_hit": 24,
        "initial_attack_fx_frame_delay": 0,
        "projectile_speed": 300.0,
        "secondary_projectile_speed": 0.0,
        "initial_frames_before_block": 0,
        "ignore_attack_time_errors": null,
        "frames_before_block": 0,
        "fx_important": false
      }
    }
  ],
  "fx_only_on_main_target": false
}