{
  "name": "Immanence_Shard",
  "display_name": "Immanence Shard",
  "display_fullname": "Awakened.Immanence Shard",
  "display_help": "The Awakened",
  "display_short_help": "The Awakened",
  "available_level": [
    0
  ],
  "source_file": "DEFS/POWERS/AWAKENED/IMMANENCE_SHARD.POWERSETS",
  "requires": "",
  "power_names": [
    "Awakened.Immanence_Shard.Overload"
  ],
  "power_display_names": [
    "Overload"
  ]
}