{
  "name": "Scientist_Lt_Flamethrower",
  "display_name": "Scientist_Lt_Flamethrower",
  "display_fullname": "Crey.Scientist Lt Flamethrower",
  "display_help": "Crey",
  "display_short_help": "Crey",
  "available_level": [
    0
  ],
  "source_file": "DEFS/POWERS/CREY/SCIENTIST_LT_FLAMETHROWER.POWERSETS",
  "requires": "",
  "power_names": [
    "Crey.Scientist_Lt_Flamethrower.Flamethrower"
  ],
  "power_display_names": [
    "Flamethrower"
  ]
}