{
  "name": "Possessed_Aura",
  "display_name": "Possessed_Aura",
  "display_fullname": "Apparitions.Possessed Aura",
  "display_help": "Apparitions",
  "display_short_help": "Apparitions",
  "available_level": [
    0
  ],
  "source_file": "DEFS/POWERS/APPARITIONS/POSSESSED_AURA.POWERSETS",
  "requires": "",
  "power_names": [
    "Apparitions.Possessed_Aura.Aura_of_Possession"
  ],
  "power_display_names": [
    "Aura of Possession"
  ]
}