{
  "name": "Link_Minds",
  "full_name": "Epic.Sentinel_Psionic_Mastery.Link_Minds",
  "type": "Click",
  "display_name": "Link Minds",
  "display_fullname": "Epic.Psionic Mastery.Link Minds",
  "display_help": "Your Mind Link Power will enable you to link the minds of all your teammates who are near you for the next 90 seconds. This shared link improves your team's chance to hit foes, your defensive abilities and reduces psionic damage.<br><br><color #fcfc95>Recharge: Very Long.</color>",
  "display_short_help": "PBAoE Team +To Hit, +DEF (All), +RES (Psionic)",
  "icon": "mentalcontrol_mindlink.png",
  "auto_issue": false,
  "auto_issue_keeps_level": false,
  "message_caster": null,
  "message_floater": null,
  "message_attacker_hit": "Your {PowerName} increases your team's chance to hit, Defense and Psionic Resistance.",
  "message_target_hit": "{PlayerSource} increases your team's chance to hit, Defense and Psionic Resistance with their {PowerName}.",
  "message_target_confirm": null,
  "message_float_reward": null,
  "message_defense_avoidance": null,
  "attack_types": [

  ],
  "requires": "(Epic.Sentinel_Psionic_Mastery.Dominate && Epic.Sentinel_Psionic_Mastery.Mass_Hypnosis) || (Epic.Sentinel_Psionic_Mastery.Dominate && Epic.Sentinel_Psionic_Mastery.Mind_Probe) || (Epic.Sentinel_Psionic_Mastery.Mass_Hypnosis && Epic.Sentinel_Psionic_Mastery.Mind_Probe) || (Epic.Sentinel_Psionic_Mastery.Mass_Hypnosis && Epic.Sentinel_Psionic_Mastery.Psychic_Shockwave) || (Epic.Sentinel_Psionic_Mastery.Mind_Probe && Epic.Sentinel_Psionic_Mastery.Psychic_Shockwave)",
  "activate_requires": "",
  "accuracy": 1.0,
  "number_allowed": 1,
  "caster_near_ground": false,
  "target_near_ground": false,
  "cast_when_dead": "AliveOnly",
  "cast_through": [

  ],
  "toggle_ignores": [

  ],
  "ignore_level_gained": false,
  "works_on_untouchable": false,
  "works_through_vision_phase": false,
  "target_untargetable": false,
  "interrupt_like_sleep": false,
  "notify_ai_when": "Never",
  "effect_area": "AoE",
  "max_targets_hit": 255,
  "radius": 35.0,
  "arc": 0.0,
  "range": 0.0,
  "range_secondary": 0.0,
  "activation_time": 3.67,
  "root_time": 0.0,
  "interrupt_time": 0.0,
  "recharge_time": 300.0,
  "activate_period": 0.0,
  "endurance_cost": 15.288,
  "cancelable": true,
  "self_confirm": false,
  "confirm_requires": "",
  "time_to_confirm": 0,
  "chain_delay": 0.0,
  "chain_effect_expr": "",
  "chain_forks": [

  ],
  "chain_into_power_name": null,
  "vec_box_offset": [
    0.0,
    0.0,
    0.0
  ],
  "vec_box_size": [
    0.0,
    0.0,
    0.0
  ],
  "number_of_charges": 0,
  "max_num_charges": 0,
  "destroy_on_last_use": true,
  "power_lifetime": 0.0,
  "max_power_lifetime": 0.0,
  "power_lifetime_ingame": 0.0,
  "max_power_lifetime_ingame": 0.0,
  "stacking_lifetime": false,
  "toggle_on_time": 0.0,
  "max_toggle_on_time": 0.0,
  "toggle_detoggle_time": 0.0,
  "toggle_droppable": "Sometimes",
  "ignore_toggle_max_distance": false,
  "target_type": "Self",
  "target_type_secondary": null,
  "target_visibility": "LineOfSight",
  "targets_affected": [
    "Player Teammate (Alive)",
    "Self"
  ],
  "targets_autohit": [
    "Player Teammate (Alive)",
    "Self"
  ],
  "target_requires": "",
  "proc_allowed": "All",
  "boosts_allowed": [
    "Enhance ToHit Buffs",
    "Enhance Defense"
  ],
  "allowed_boostset_cats": [
    "Defense Sets",
    "To Hit Buff"
  ],
  "exclusion_groups": [

  ],
  "modes_required": [

  ],
  "modes_disallowed": [
    "Disable_All",
    "Disable_Pool",
    "Disable_Epic"
  ],
  "recharge_groups": [

  ],
  "ignore_strength": true,
  "strengths_disallowed": [

  ],
  "global_strengths_disallowed": [

  ],
  "procs_only_on_main_target": false,
  "vars_attribmods_can_reference": [

  ],
  "show_buff_icon": true,
  "show_in_info": true,
  "show_in_manage": true,
  "show_in_inventory": "Show",
  "deletable": false,
  "tradeable": false,
  "do_not_save": false,
  "max_boosts": 6,
  "ignore_level_differences": false,
  "ignore_exemplar_for_bonuses": false,
  "boost_combinable": true,
  "boost_tradeable": true,
  "boost_account_bound": false,
  "boost_boostable": false,
  "boost_use_player_level": false,
  "boost_catalyzable": null,
  "boost_store_product": null,
  "boost_min_slot_level": -3,
  "boost_max_level": 50,
  "instance_locked": false,
  "is_environment_hit": false,
  "shuffle_target_list": false,
  "enforced_level_bought": -1,
  "refreshes_on_active_player_change": false,
  "highlight_expression": "",
  "highlight_icon": null,
  "highlight_color": "#00000000",
  "travel_suppression_time": 0.0,
  "server_tray_priority": 0,
  "server_tray_requires": "",
  "abusive_buff": true,
  "position_center": "kModTarget_Caster",
  "position_distance": 0.0,
  "position_height": 0.0,
  "position_yaw": 0.0,
  "face_target": true,
  "attrib_cache": [
    "Psionic_Dmg",
    "ToHit",
    "Ranged",
    "Melee",
    "Area",
    "Smashing",
    "Lethal",
    "Fire",
    "Cold",
    "Energy",
    "Negative_Energy",
    "Psionic",
    "Toxic"
  ],
  "max_targets_expression": "",
  "chain_target_expr": "",
  "powerset": "Epic.Sentinel_Psionic_Mastery",
  "available_level": 43,
  "archetypes": [

  ],
  "redirect": [

  ],
  "effects": [
    {
      "tags": [

      ],
      "chance": 1.0,
      "ppm": 0.0,
      "delay": 0.0,
      "radius_inner": -1.0,
      "radius_outer": -1.0,
      "requires_expression": "",
      "flags": [

      ],
      "eval_flags": 0,
      "child_effects": [

      ],
      "templates": [
        {
          "attribs": [
            "ToHit"
          ],
          "type": "Magnitude",
          "application_type": "OnTick",
          "aspect": "Current",
          "target": "AnyAffected",
          "table": "Ranged_Buff_ToHit",
          "scale": 0.33,
          "duration": "90 seconds",
          "magnitude": 1.0,
          "delay": 0.0,
          "duration_expression": "",
          "magnitude_expression": "",
          "application_period": 0.0,
          "tick_chance": 1.0,
          "jit_requires": "",
          "caster_stack": "Individual",
          "stack": "Replace",
          "stack_limit": 2,
          "stack_key": null,
          "cancel_events": [

          ],
          "boost_mod_allowed": "Science_Boost",
          "flags": [
            "IgnoreResistance (5)",
            "CombatModMagnitude (9)"
          ],
          "mode_name": null,
          "target_info": null,
          "messages": null,
          "suppress_events": [

          ],
          "params": null,
          "fx": {
            "continuing_bits": [

            ],
            "continuing_fx": "GENERICCONTINUING/BUFFTOHITCONT.FX",
            "conditional_bits": [

            ],
            "conditional_fx": null
          }
        },
        {
          "attribs": [
            "Psionic_Dmg"
          ],
          "type": "Magnitude",
          "application_type": "OnTick",
          "aspect": "Resistance",
          "target": "AnyAffected",
          "table": "Ranged_Res_Dmg",
          "scale": 2.0,
          "duration": "90 seconds",
          "magnitude": 1.0,
          "delay": 0.0,
          "duration_expression": "",
          "magnitude_expression": "",
          "application_period": 0.0,
          "tick_chance": 1.0,
          "jit_requires": "",
          "caster_stack": "Individual",
          "stack": "Replace",
          "stack_limit": 2,
          "stack_key": null,
          "cancel_events": [

          ],
          "boost_mod_allowed": "Science_Boost",
          "flags": [
            "IgnoreResistance (5)",
            "CombatModMagnitude (9)"
          ],
          "mode_name": null,
          "target_info": null,
          "messages": null,
          "suppress_events": [

          ],
          "params": null,
          "fx": null
        },
        {
          "attribs": [
            "Ranged",
            "Melee",
            "Area",
            "Smashing",
            "Lethal",
            "Fire",
            "Cold",
            "Energy",
            "Negative_Energy",
            "Psionic",
            "Toxic"
          ],
          "type": "Magnitude",
          "application_type": "OnTick",
          "aspect": "Current",
          "target": "AnyAffected",
          "table": "Ranged_Buff_Def",
          "scale": 0.5,
          "duration": "90 seconds",
          "magnitude": 1.0,
          "delay": 0.0,
          "duration_expression": "",
          "magnitude_expression": "",
          "application_period": 0.0,
          "tick_chance": 1.0,
          "jit_requires": "",
          "caster_stack": "Individual",
          "stack": "Replace",
          "stack_limit": 2,
          "stack_key": null,
          "cancel_events": [

          ],
          "boost_mod_allowed": "Science_Boost",
          "flags": [
            "IgnoreResistance (5)",
            "CombatModMagnitude (9)"
          ],
          "mode_name": null,
          "target_info": null,
          "messages": null,
          "suppress_events": [

          ],
          "params": null,
          "fx": {
            "continuing_bits": [

            ],
            "continuing_fx": "GENERICCONTINUING/BUFFDEFCONTINUING.FX",
            "conditional_bits": [

            ],
            "conditional_fx": null
          }
        }
      ],
      "is_pvp": "EITHER"
    }
  ],
  "activation_effects": [

  ],
  "fx": {
    "source_file": "MENU/POWERS/ANIMFX/PLAYERPOWERS/EPIC_PSIONICMASTERY_LINKMINDS.PFX",
    "attack_bits": [
      20,
      301,
      723
    ],
    "block_bits": [

    ],
    "wind_up_bits": [

    ],
    "hit_bits": [

    ],
    "death_bits": [

    ],
    "activation_bits": [

    ],
    "deactivation_bits": [

    ],
    "initial_attack_bits": [
      20,
      301,
      723
    ],
    "continuing_bits": [

    ],
    "conditional_bits": [

    ],
    "activation_fx": null,
    "deactivation_fx": null,
    "attack_fx": "V_COV/POWERS/BLOODWIDOW/MINDLINK/MINDLINK.FX",
    "secondary_attack_fx": null,
    "hit_fx": "V_COV/POWERS/BLOODWIDOW/MINDLINK/MINDLINK_HIT.FX",
    "wind_up_fx": null,
    "block_fx": null,
    "death_fx": null,
    "initial_attack_fx": "V_COV/POWERS/BLOODWIDOW/MINDLINK/MINDLINK.FX",
    "continuing_fx": [

    ],
    "conditional_fx": [

    ],
    "mode_bits": [

    ],
    "frames_before_hit": 30,
    "frames_before_secondary_hit": 0,
    "delayed_hit": false,
    "frames_attack": 110,
    "initial_frames_before_hit": 30,
    "initial_attack_fx_frame_delay": 0,
    "projectile_speed": 3.4028234663852886e38,
    "secondary_projectile_speed": 0.0,
    "initial_frames_before_block": 0,
    "ignore_attack_time_errors": null,
    "frames_before_block": 0,
    "fx_important": false
  },
  "custom_fx": [
    {
      "display_name": null,
      "token": "Bright",
      "alt_themes": [

      ],
      "category": null,
      "palette_name": "Additive",
      "fx": {
        "source_file": "MENU/POWERS/ANIMFX/PLAYERPOWERS/EPIC_PSIONICMASTERY_LINKMINDS.PFX",
        "attack_bits": [
          20,
          301,
          723
        ],
        "block_bits": [

        ],
        "wind_up_bits": [

        ],
        "hit_bits": [

        ],
        "death_bits": [

        ],
        "activation_bits": [

        ],
        "deactivation_bits": [

        ],
        "initial_attack_bits": [
          20,
          301,
          723
        ],
        "continuing_bits": [

        ],
        "conditional_bits": [

        ],
        "activation_fx": null,
        "deactivation_fx": null,
        "attack_fx": "CUSTOMIZABLEPOWERS_POOLS/EPIC_PSIONICMASTERY/LINKMINDS_ATTACK.FX",
        "secondary_attack_fx": null,
        "hit_fx": "CUSTOMIZABLEPOWERS_POOLS/EPIC_PSIONICMASTERY/LINKMINDS_HIT.FX",
        "wind_up_fx": null,
        "block_fx": null,
        "death_fx": null,
        "initial_attack_fx": "CUSTOMIZABLEPOWERS_POOLS/EPIC_PSIONICMASTERY/LINKMINDS_ATTACK.FX",
        "continuing_fx": [

        ],
        "conditional_fx": [

        ],
        "mode_bits": [

        ],
        "frames_before_hit": 30,
        "frames_before_secondary_hit": 0,
        "delayed_hit": false,
        "frames_attack": 110,
        "initial_frames_before_hit": 30,
        "initial_attack_fx_frame_delay": 0,
        "projectile_speed": 3.4028234663852886e38,
        "secondary_projectile_speed": 0.0,
        "initial_frames_before_block": 0,
        "ignore_attack_time_errors": null,
        "frames_before_block": 0,
        "fx_important": false
      }
    },
    {
      "display_name": null,
      "token": "Dark",
      "alt_themes": [

      ],
      "category": null,
      "palette_name": "Subtractive",
      "fx": {
        "source_file": "MENU/POWERS/ANIMFX/PLAYERPOWERS/EPIC_PSIONICMASTERY_LINKMINDS.PFX",
        "attack_bits": [
          20,
          301,
          723
        ],
        "block_bits": [

        ],
        "wind_up_bits": [

        ],
        "hit_bits": [

        ],
        "death_bits": [

        ],
        "activation_bits": [

        ],
        "deactivation_bits": [

        ],
        "initial_attack_bits": [
          20,
          301,
          723
        ],
        "continuing_bits": [

        ],
        "conditional_bits": [

        ],
        "activation_fx": null,
        "deactivation_fx": null,
        "attack_fx": "CUSTOMIZABLEPOWERS_POOLS/EPIC_PSIONICMASTERY/SUBTRACTIVE/LINKMINDS_ATTACK.FX",
        "secondary_attack_fx": null,
        "hit_fx": "CUSTOMIZABLEPOWERS_POOLS/EPIC_PSIONICMASTERY/SUBTRACTIVE/LINKMINDS_HIT.FX",
        "wind_up_fx": null,
        "block_fx": null,
        "death_fx": null,
        "initial_attack_fx": "CUSTOMIZABLEPOWERS_POOLS/EPIC_PSIONICMASTERY/SUBTRACTIVE/LINKMINDS_ATTACK.FX",
        "continuing_fx": [

        ],
        "conditional_fx": [

        ],
        "mode_bits": [

        ],
        "frames_before_hit": 30,
        "frames_before_secondary_hit": 0,
        "delayed_hit": false,
        "frames_attack": 110,
        "initial_frames_before_hit": 30,
        "initial_attack_fx_frame_delay": 0,
        "projectile_speed": 3.4028234663852886e38,
        "secondary_projectile_speed": 0.0,
        "initial_frames_before_block": 0,
        "ignore_attack_time_errors": null,
        "frames_before_block": 0,
        "fx_important": false
      }
    }
  ],
  "fx_only_on_main_target": false
}