{
  "name": "Attuned_Calibrated_Accuracy_E",
  "display_name": "Attuned Calibrated Accuracy E",
  "display_fullname": "Boosts.Attuned Calibrated Accuracy E",
  "display_help": "Enhances the accuracy by {Boost.Attrib.Accuracy.Scale}% and reduces recharge time by {Boost.Attrib.RechargeTime.Scale}%.",
  "display_short_help": "Set: Calibrated Accuracy",
  "available_level": [
    0
  ],
  "source_file": "DEFS/POWERS/BOOSTS/ATTUNED_CALIBRATED_ACCURACY_E.POWERSETS",
  "requires": "",
  "power_names": [
    "Boosts.Attuned_Calibrated_Accuracy_E.Attuned_Calibrated_Accuracy_E"
  ],
  "power_display_names": [
    "Calibrated Accuracy: Accuracy/Recharge"
  ]
}