{
  "name": "Robotics",
  "display_name": "Robotics",
  "display_fullname": "Mastermind Summon.Robotics",
  "display_help": "Robotics allows you to construct an army of mechanical henchmen and repair and upgrade them in order to keep your army in tip-top shape. Robot Henchmen generally have good resistances to Lethal, Cold and Psionic damage, as well as Sleep, Fear and Disorient. They are vulnerable to EMP attacks. Robot Henchmen cannot be resurrected.",
  "display_short_help": "Robotics",
  "available_level": [
    0,
    0,
    1,
    5,
    7,
    11,
    17,
    25,
    31
  ],
  "source_file": "DEFS/POWERS/MASTERMIND_SUMMON/ROBOTICS.POWERSETS",
  "requires": "",
  "power_names": [
    "Mastermind_Summon.Robotics.Pulse_Rifle_Blast",
    "Mastermind_Summon.Robotics.Battle_Drones",
    "Mastermind_Summon.Robotics.Pulse_Rifle_Burst",
    "Mastermind_Summon.Robotics.Equip_Robot",
    "Mastermind_Summon.Robotics.Photon_Grenade",
    "Mastermind_Summon.Robotics.Protector_Bots",
    "Mastermind_Summon.Robotics.Repair",
    "Mastermind_Summon.Robotics.Assault_Bot",
    "Mastermind_Summon.Robotics.Upgrade_Robot"
  ],
  "power_display_names": [
    "Pulse Rifle Blast",
    "Battle Drones",
    "Pulse Rifle Burst",
    "Equip Robot",
    "Photon Grenade",
    "Protector Bots",
    "Repair",
    "Assault Bot",
    "Upgrade Robot"
  ]
}