{
  "name": "Lightstaff_Ranged",
  "display_name": "Lightstaff_Ranged",
  "display_fullname": "CarnivalOfLight.Lightstaff Ranged",
  "display_help": "Praetorian Carnival",
  "display_short_help": "Praetorian Carnival",
  "available_level": [
    0
  ],
  "source_file": "DEFS/POWERS/CARNIVALOFLIGHT/LIGHTSTAFF_RANGED.POWERSETS",
  "requires": "",
  "power_names": [
    "CarnivalOfLight.Lightstaff_Ranged.Lightstaff_Bolt"
  ],
  "power_display_names": [
    "Lightstaff Bolt"
  ]
}