{
  "name": "Crafted_Fear",
  "display_name": "Crafted Fear 10",
  "display_fullname": "Boosts.Crafted Fear",
  "display_help": "Increases fear duration by {Boost.Attrib.Mez.Scale}%.",
  "display_short_help": "Invention",
  "available_level": [
    0
  ],
  "source_file": "DEFS/POWERS/BOOSTS/CRAFTED_FEAR.POWERSETS",
  "requires": "",
  "power_names": [
    "Boosts.Crafted_Fear.Crafted_Fear"
  ],
  "power_display_names": [
    "Invention: Fear Duration"
  ]
}