{
  "name": "Crey",
  "display_name": "Crey",
  "source_file": "DEFS/POWERS/CREY.CATEGORIES",
  "archetypes": [
    "boss_grunt",
    "minion_pets"
  ],
  "display_help": null,
  "display_short_help": null,
  "powerset_names": [
    "crey.cov_scientist_lt_flamethrower",
    "crey.cov_scientist_lt_heavy_rifle",
    "crey.countess_crey_defense",
    "crey.countess_crey_ranged",
    "crey.crey_boss_armored_buff",
    "crey.crey_boss_hero_clone_claws",
    "crey.crey_boss_hero_clone_movement",
    "crey.crey_boss_hero_clone_power",
    "crey.crey_boss_hero_clone_quills",
    "crey.crey_electric_tank",
    "crey.crey_fire_tank",
    "crey.crey_geneticist",
    "crey.crey_ice_tank",
    "crey.crey_lt_agent_defense",
    "crey.crey_lt_boss_armored_chaingun",
    "crey.crey_lt_boss_armored_cryo",
    "crey.crey_lt_boss_armored_defense",
    "crey.crey_lt_boss_armored_demolitions_defense",
    "crey.crey_lt_boss_armored_grenadelauncher",
    "crey.crey_lt_boss_armored_melee",
    "crey.crey_lt_boss_armored_missile",
    "crey.crey_medic",
    "crey.crey_minion_agent_assaultrifle",
    "crey.crey_minion_agent_pistol",
    "crey.crey_minion_agent_sniper",
    "crey.crey_minion_agent_submachnegun",
    "crey.crey_minion_lt_agent_infiltrator",
    "crey.crey_minion_lt_agent_melee",
    "crey.crey_minion_lt_scientist_melee",
    "crey.crey_minion_scientist_cannon",
    "crey.crey_minion_scientist_pistol",
    "crey.crey_minion_scientist_rifle",
    "crey.crey_minion_security_assaultrifle",
    "crey.crey_minion_security_boxing",
    "crey.crey_minion_security_brawl",
    "crey.crey_minion_security_defense",
    "crey.crey_minion_security_pistol",
    "crey.crey_minion_security_riot",
    "crey.crey_minion_security_submachinegun",
    "crey.crey_power_tank",
    "crey.crey_protector_bobo",
    "crey.crey_radiation_researcher",
    "crey.crey_shadow_tank",
    "crey.crey_tank_defense",
    "crey.crey_timebomb",
    "crey.fire_protector",
    "crey.fire_protector_2",
    "crey.hopkins_defense",
    "crey.hopkins_melee",
    "crey.hopkins_melee_missions",
    "crey.hopkins_ranged",
    "crey.hopkins_ranged_missions",
    "crey.scientist_lt_flamethrower",
    "crey.scientist_lt_heavy_rifle",
    "crey.scorpinoid_boss",
    "crey.scorpinoid_lt",
    "crey.scorpinoid_minion"
  ],
  "powerset_display_names": [
    "CoV Scientist_Lt_Flamethrower",
    "CoV Scientist_Lt_Heavy_Rifle",
    "Countess_Crey_Defense",
    "Countess_Crey_Ranged",
    "Crey_Boss_Armored_Buff",
    "Crey_Boss_Hero_Clone_Claws",
    "Crey_Boss_Hero_Clone_Movement",
    "Crey_Boss_Hero_Clone_Power",
    "Crey_Boss_Hero_Clone_Quills",
    "Crey_Electric_Tank",
    "Crey_Fire_Tank",
    "Crey_Geneticist",
    "Crey_Ice_Tank",
    "Crey_Lt_Agent_Defense",
    "Crey_Lt_Boss_Armored_ChainGun",
    "Crey_Lt_Boss_Armored_Cryo",
    "Crey_Lt_Boss_Armored_Defense",
    "Crey_Lt_Boss_Armored_Demolitions_Defense",
    "Crey_Lt_Boss_Armored_GrenadeLauncher",
    "Crey_Lt_Boss_Armored_Melee",
    "Crey_Lt_Boss_Armored_Missile",
    "Crey_Medic",
    "Crey_Minion_Agent_AssaultRifle",
    "Crey_Minion_Agent_Pistol",
    "Crey_Minion_Agent_Sniper",
    "Crey_Minion_Agent_SubmachneGun",
    "Crey_Minion_Lt_Agent_Infiltrator",
    "Crey_Minion_Lt_Agent_Melee",
    "Crey_Minion_Lt_Scientist_Melee",
    "Crey_Minion_Scientist_Cannon",
    "Crey_Minion_Scientist_Pistol",
    "Crey_Minion_Scientist_Rifle",
    "Crey_Minion_Security_AssaultRifle",
    "Crey_Minion_Security_Boxing",
    "Crey_Minion_Security_Brawl",
    "Crey_Minion_Security_Defense",
    "Crey_Minion_Security_Pistol",
    "Crey_Minion_Security_Riot",
    "Crey_Minion_Security_SubmachineGun",
    "Crey_Power_Tank",
    "Crey_Protector_Bobo",
    "Crey_Radiation_Researcher",
    "Crey_Shadow_Tank",
    "Crey_Tank_Defense",
    "Crey_TimeBomb",
    "Fire Protector",
    "Fire Protector 2",
    "Hopkins_Defense",
    "Hopkins_Melee",
    "Hopkins_Melee_Missions",
    "Hopkins_Ranged",
    "Hopkins_Ranged_Missions",
    "Scientist_Lt_Flamethrower",
    "Scientist_Lt_Heavy_Rifle",
    "Scorpinoid Boss",
    "Scorpinoid Lt",
    "Scorpinoid Minion"
  ]
}