{
  "name": "Crafted_Recharge_35",
  "display_name": "Crafted Recharge 35",
  "display_fullname": "Boosts.Crafted Recharge 35",
  "display_help": "Increases recharge rate by {Boost.Attrib.RechargeTime.Scale}%.",
  "display_short_help": "Invention",
  "available_level": [
    0
  ],
  "source_file": "DEFS/POWERS/BOOSTS/CRAFTED_RECHARGE_35.POWERSETS",
  "requires": "",
  "power_names": [
    "Boosts.Crafted_Recharge_35.Crafted_Recharge_35"
  ],
  "power_display_names": [
    "Invention: Recharge Reduction"
  ]
}