{
  "name": "Attuned_Sentinels_Ward_F",
  "display_name": "Attuned Sentinels Ward F",
  "display_fullname": "Boosts.Attuned Sentinels Ward F",
  "display_help": "UNIQUE -- No more than 1 enhancement of this type may be slotted by a character. Gives the slotted power a chance to generate a moderate absorb buff and reduces the power's recharge time by {Boost.Attrib.RechargeTime.Scale}%. This enhancement's chance to trigger is equal to approximately 5 times per minute. This enhancement can only be slotted by Sentinels and may be slotted into any Sentinel damage power and requires the user to be level 50.",
  "display_short_help": "Set: Sentinel's Ward",
  "available_level": [
    0
  ],
  "source_file": "DEFS/POWERS/BOOSTS/ATTUNED_SENTINELS_WARD_F.POWERSETS",
  "requires": "",
  "power_names": [
    "Boosts.Attuned_Sentinels_Ward_F.Attuned_Sentinels_Ward_F"
  ],
  "power_display_names": [
    "Sentinel's Ward: Recharge/Chance for Absorb"
  ]
}