{
  "name": "Attuned_Calibrated_Accuracy_C",
  "display_name": "Attuned Calibrated Accuracy C",
  "display_fullname": "Boosts.Attuned Calibrated Accuracy C",
  "display_help": "Enhances the accuracy by {Boost.Attrib.Accuracy.Scale}% and reduces interrupt time by {Boost.Attrib.InterruptTime.Scale}%.",
  "display_short_help": "Set: Calibrated Accuracy",
  "available_level": [
    0
  ],
  "source_file": "DEFS/POWERS/BOOSTS/ATTUNED_CALIBRATED_ACCURACY_C.POWERSETS",
  "requires": "",
  "power_names": [
    "Boosts.Attuned_Calibrated_Accuracy_C.Attuned_Calibrated_Accuracy_C"
  ],
  "power_display_names": [
    "Calibrated Accuracy: Accuracy/Interrupt"
  ]
}