{
  "name": "Sister_Psyche",
  "display_name": "Sister Psyche",
  "display_fullname": "V FreedomPhalanx.Sister Psyche",
  "display_help": "Freedom Phalanx",
  "display_short_help": "Freedom Phalanx",
  "available_level": [
    0,
    0,
    0,
    0,
    0,
    0,
    0,
    0,
    0,
    0,
    0,
    0,
    0,
    0,
    0,
    0
  ],
  "source_file": "DEFS/POWERS/V_FREEDOMPHALANX/SISTER_PSYCHE.POWERSETS",
  "requires": "",
  "power_names": [
    "V_FreedomPhalanx.Sister_Psyche.Mesmerize",
    "V_FreedomPhalanx.Sister_Psyche.Levitate",
    "V_FreedomPhalanx.Sister_Psyche.Dominate",
    "V_FreedomPhalanx.Sister_Psyche.Mass_Hypnosis",
    "V_FreedomPhalanx.Sister_Psyche.Total_Domination",
    "V_FreedomPhalanx.Sister_Psyche.Psychic_Shockwave",
    "V_FreedomPhalanx.Sister_Psyche.Force_Bolt",
    "V_FreedomPhalanx.Sister_Psyche.Power_Blast",
    "V_FreedomPhalanx.Sister_Psyche.Energy_Torrent",
    "V_FreedomPhalanx.Sister_Psyche.Power_Burst",
    "V_FreedomPhalanx.Sister_Psyche.Explosive_Blast",
    "V_FreedomPhalanx.Sister_Psyche.Force_Shield",
    "V_FreedomPhalanx.Sister_Psyche.Personal_Force_Field",
    "V_FreedomPhalanx.Sister_Psyche.Resistance",
    "V_FreedomPhalanx.Sister_Psyche.Fly",
    "V_FreedomPhalanx.Sister_Psyche.Fly_fx"
  ],
  "power_display_names": [
    "Mesmerize",
    "Levitate",
    "Dominate",
    "Mass Hypnosis",
    "Total Domination",
    "Psychic Shockwave",
    "Force Bolt",
    "Power Blast",
    "Energy Torrent",
    "Power Burst",
    "Explosive Blast",
    "Force Shield",
    "Personal Force Field",
    "Resistance",
    "Fly",
    "Fly fx"
  ]
}