{
  "name": "Corruptor_Ranged",
  "display_name": "Ranged",
  "source_file": "DEFS/POWERS/CORRUPTOR_RANGED.CATEGORIES",
  "archetypes": [
    "corruptor"
  ],
  "display_help": null,
  "display_short_help": null,
  "powerset_names": [
    "corruptor_ranged.archery",
    "corruptor_ranged.assault_rifle",
    "corruptor_ranged.beam_rifle",
    "corruptor_ranged.dark_blast",
    "corruptor_ranged.dual_pistols",
    "corruptor_ranged.electrical_blast",
    "corruptor_ranged.energy_blast",
    "corruptor_ranged.fire_blast",
    "corruptor_ranged.ice_blast",
    "corruptor_ranged.psychic_blast",
    "corruptor_ranged.radiation_blast",
    "corruptor_ranged.sonic_attack",
    "corruptor_ranged.water_blast"
  ],
  "powerset_display_names": [
    "Archery",
    "Assault Rifle",
    "Beam Rifle",
    "Dark Blast",
    "Dual Pistols",
    "Electrical Blast",
    "Energy Blast",
    "Fire Blast",
    "Ice Blast",
    "Psychic Blast",
    "Radiation Blast",
    "Sonic Attacks",
    "Water Blast"
  ]
}