{
  "name": "Tarantula_Venom",
  "display_name": "Tarantula_Venom",
  "display_fullname": "V Arachnos.Tarantula Venom",
  "display_help": "Arachnos",
  "display_short_help": "Arachnos",
  "available_level": [
    0,
    0
  ],
  "source_file": "DEFS/POWERS/V_ARACHNOS/TARANTULA_VENOM.POWERSETS",
  "requires": "",
  "power_names": [
    "V_Arachnos.Tarantula_Venom.Venom_Bolt",
    "V_Arachnos.Tarantula_Venom.Venom_Burst"
  ],
  "power_display_names": [
    "Venom Bolt",
    "Venom Burst"
  ]
}