{
  "name": "Attuned_Focused_Smite_C",
  "display_name": "Attuned Focused Smite C",
  "display_fullname": "Boosts.Attuned Focused Smite C",
  "display_help": "Enhances the damage of a power by {Boost.Attrib.Damage.Scale}% and reduces recharge time by {Boost.Attrib.RechargeTime.Scale}%.",
  "display_short_help": "Set: Focused Smite",
  "available_level": [
    0
  ],
  "source_file": "DEFS/POWERS/BOOSTS/ATTUNED_FOCUSED_SMITE_C.POWERSETS",
  "requires": "",
  "power_names": [
    "Boosts.Attuned_Focused_Smite_C.Attuned_Focused_Smite_C"
  ],
  "power_display_names": [
    "Focused Smite: Damage/Recharge"
  ]
}