{
  "name": "Vorpal_Sword",
  "display_name": "Vorpal Sword",
  "display_fullname": "AnimusArcana.Vorpal Sword",
  "display_help": "Animus Arcana",
  "display_short_help": "Animus Arcana",
  "available_level": [
    0,
    0,
    0,
    0,
    0,
    0,
    0
  ],
  "source_file": "DEFS/POWERS/ANIMUSARCANA/VORPAL_SWORD.POWERSETS",
  "requires": "",
  "power_names": [
    "AnimusArcana.Vorpal_Sword.Hack",
    "AnimusArcana.Vorpal_Sword.Slash",
    "AnimusArcana.Vorpal_Sword.Spear_of_Light",
    "AnimusArcana.Vorpal_Sword.Parry",
    "AnimusArcana.Vorpal_Sword.Whirling_Sword",
    "AnimusArcana.Vorpal_Sword.Disembowel",
    "AnimusArcana.Vorpal_Sword.Head_Splitter"
  ],
  "power_display_names": [
    "Hack",
    "Slash",
    "Spear of Light",
    "Parry",
    "Whirling Sword",
    "Disembowel",
    "Head Splitter"
  ]
}