{
  "name": "Generic_Defense_DeBuff",
  "display_name": "Generic Defense DeBuff",
  "display_fullname": "Boosts.Generic Defense DeBuff",
  "display_help": "Enhances the effectiveness of defense debuffs.",
  "display_short_help": "Training (All Origins)",
  "available_level": [
    0
  ],
  "source_file": "DEFS/POWERS/BOOSTS/GENERIC_DEFENSE_DEBUFF.POWERSETS",
  "requires": "",
  "power_names": [
    "Boosts.Generic_Defense_DeBuff.Generic_Defense_DeBuff"
  ],
  "power_display_names": [
    "Training: Defense DeBuff"
  ]
}