{
  "name": "Attuned_Razzle_Dazzle_C",
  "display_name": "Attuned Razzle Dazzle C",
  "display_fullname": "Boosts.Attuned Razzle Dazzle C",
  "display_help": "Enhances the accuracy by {Boost.Attrib.Accuracy.Scale}% and reduces the endurance cost of a power by {Boost.Attrib.Endurance.Scale}%.",
  "display_short_help": "Set: Razzle Dazzle",
  "available_level": [
    0
  ],
  "source_file": "DEFS/POWERS/BOOSTS/ATTUNED_RAZZLE_DAZZLE_C.POWERSETS",
  "requires": "",
  "power_names": [
    "Boosts.Attuned_Razzle_Dazzle_C.Attuned_Razzle_Dazzle_C"
  ],
  "power_display_names": [
    "Razzle Dazzle: Accuracy/Endurance"
  ]
}