{
  "name": "Fortunata",
  "display_name": "Fortunata",
  "display_fullname": "V Arachnos.Fortunata",
  "display_help": "Arachnos",
  "display_short_help": "Arachnos",
  "available_level": [
    0
  ],
  "source_file": "DEFS/POWERS/V_ARACHNOS/FORTUNATA.POWERSETS",
  "requires": "",
  "power_names": [
    "V_Arachnos.Fortunata.Mental_Blast"
  ],
  "power_display_names": [
    "Mental Blast"
  ]
}