{
  "name": "CoV_Boss_Pet",
  "display_name": "CoV Boss Pet",
  "display_fullname": "Family.CoV Boss Pet",
  "display_help": "The Family",
  "display_short_help": "The Family",
  "available_level": [
    0
  ],
  "source_file": "DEFS/POWERS/FAMILY/COV_BOSS_PET.POWERSETS",
  "requires": "",
  "power_names": [
    "Family.CoV_Boss_Pet.Singularity"
  ],
  "power_display_names": [
    "Singularity"
  ]
}