{
  "name": "Lore_Pet_Knives_Boss",
  "display_name": "Lore_Pet_Knives_Boss",
  "display_fullname": "Incarnate.Lore Pet Knives Boss",
  "display_help": "Incarnate",
  "display_short_help": "Incarnate",
  "available_level": [
    0,
    0,
    0,
    0
  ],
  "source_file": "DEFS/POWERS/INCARNATE/LORE_PET_KNIVES_BOSS.POWERSETS",
  "requires": "",
  "power_names": [
    "Incarnate.Lore_Pet_Knives_Boss.Focused_Shot",
    "Incarnate.Lore_Pet_Knives_Boss.Dual_Shot",
    "Incarnate.Lore_Pet_Knives_Boss.Weakening_Shot",
    "Incarnate.Lore_Pet_Knives_Boss.Paralytic_Shot"
  ],
  "power_display_names": [
    "Focused Shot",
    "Dual Shot",
    "Weakening Shot",
    "Paralytic Shot"
  ]
}