{
  "name": "Stasis_Tube_Explosion",
  "display_name": "Explosion",
  "display_fullname": "Objects.Explosion",
  "display_help": "Object",
  "display_short_help": "Object",
  "available_level": [
    0
  ],
  "source_file": "DEFS/POWERS/OBJECTS/STASIS_TUBE_EXPLOSION.POWERSETS",
  "requires": "",
  "power_names": [
    "Objects.Stasis_Tube_Explosion.Small_Explosion"
  ],
  "power_display_names": [
    "Small Explosion"
  ]
}