{
  "name": "Night_Widow_Training_Proxy",
  "display_name": "Night Widow Training Proxy",
  "display_fullname": "V Arachnos Proxy.Night Widow Training Proxy",
  "display_help": "With powers of Stealth, and heightened combat skills, coupled with strong mental attacks, the Night Widows of Arachnos are extremely dangerous.",
  "display_short_help": "Night Widow Training Proxy",
  "available_level": [
    0,
    7,
    11,
    17,
    25,
    31
  ],
  "source_file": "DEFS/POWERS/V_ARACHNOS_PROXY/NIGHT_WIDOW_TRAINING_PROXY.POWERSETS",
  "requires": "",
  "power_names": [
    "V_Arachnos_Proxy.Night_Widow_Training_Proxy.NW_Mental_Blast",
    "V_Arachnos_Proxy.Night_Widow_Training_Proxy.Build_Up",
    "V_Arachnos_Proxy.Night_Widow_Training_Proxy.NW_Smoke_Grenade",
    "V_Arachnos_Proxy.Night_Widow_Training_Proxy.NW_Slash",
    "V_Arachnos_Proxy.Night_Widow_Training_Proxy.NW_Eviscerate",
    "V_Arachnos_Proxy.Night_Widow_Training_Proxy.NW_Psychic_Scream"
  ],
  "power_display_names": [
    "Mental Blast",
    "Build Up",
    "Smoke Grenade",
    "Slash",
    "Eviscerate",
    "Psychic Scream"
  ]
}