{
  "name": "Attuned_Impervium_Armor_E",
  "display_name": "Attuned Impervium Armor E",
  "display_fullname": "Boosts.Attuned Impervium Armor E",
  "display_help": "Enhances the effectiveness of Resistance buffs.",
  "display_short_help": "Set: Impervium Armor",
  "available_level": [
    0
  ],
  "source_file": "DEFS/POWERS/BOOSTS/ATTUNED_IMPERVIUM_ARMOR_E.POWERSETS",
  "requires": "",
  "power_names": [
    "Boosts.Attuned_Impervium_Armor_E.Attuned_Impervium_Armor_E"
  ],
  "power_display_names": [
    "Impervium Armor: Resistance"
  ]
}