{
  "name": "Attuned_Harmonized_Healing_E",
  "display_name": "Attuned Harmonized Healing E",
  "display_fullname": "Boosts.Attuned Harmonized Healing E",
  "display_help": "Enhances the healing potential and damage absorption of a power by {Boost.Attrib.Heal.Scale}%.",
  "display_short_help": "Set: Harmonized Healing",
  "available_level": [
    0
  ],
  "source_file": "DEFS/POWERS/BOOSTS/ATTUNED_HARMONIZED_HEALING_E.POWERSETS",
  "requires": "",
  "power_names": [
    "Boosts.Attuned_Harmonized_Healing_E.Attuned_Harmonized_Healing_E"
  ],
  "power_display_names": [
    "Harmonized Healing: Healing/Absorb"
  ]
}