{
  "name": "Crafted_Pulverizing_Fisticuffs_C",
  "display_name": "Crafted Pulverizing Fisticuffs C",
  "display_fullname": "Boosts.Crafted Pulverizing Fisticuffs C",
  "display_help": "Enhances the damage of a power by {Boost.Attrib.Damage.Scale}%, the accuracy by {Boost.Attrib.Accuracy.Scale}%, reduces endurance cost by {Boost.Attrib.Endurance.Scale}% and recharge time by {Boost.Attrib.RechargeTime.Scale}%.",
  "display_short_help": "Set: Pulverizing Fisticuffs",
  "available_level": [
    0
  ],
  "source_file": "DEFS/POWERS/BOOSTS/CRAFTED_PULVERIZING_FISTICUFFS_C.POWERSETS",
  "requires": "",
  "power_names": [
    "Boosts.Crafted_Pulverizing_Fisticuffs_C.Crafted_Pulverizing_Fisticuffs_C"
  ],
  "power_display_names": [
    "Pulverizing Fisticuffs: Accuracy/Damage/Endurance/Recharge"
  ]
}