{
  "name": "Attuned_Befuddling_Aura_E",
  "display_name": "Attuned Befuddling Aura E",
  "display_fullname": "Boosts.Attuned Befuddling Aura E",
  "display_help": "Enhances the accuracy of a power by {Boost.Attrib.Accuracy.Scale}%, Confuse duration by {Boost.Attrib.Mez.Scale}% and reduces the attack rate by {Boost.Attrib.RechargeTime.Scale}%.",
  "display_short_help": "Set: Befuddling Aura",
  "available_level": [
    0
  ],
  "source_file": "DEFS/POWERS/BOOSTS/ATTUNED_BEFUDDLING_AURA_E.POWERSETS",
  "requires": "",
  "power_names": [
    "Boosts.Attuned_Befuddling_Aura_E.Attuned_Befuddling_Aura_E"
  ],
  "power_display_names": [
    "Befuddling Aura: Accuracy/Confuse/Recharge"
  ]
}