{
  "name": "Attuned_Regenerative_Tissue_C",
  "display_name": "Attuned Regenerative Tissue C",
  "display_fullname": "Boosts.Attuned Regenerative Tissue C",
  "display_help": "Enhances the healing potential and damage absorption of a power by {Boost.Attrib.Heal.Scale}% and reduces recharge time by {Boost.Attrib.RechargeTime.Scale}%.",
  "display_short_help": "Set: Regenerative Tissue",
  "available_level": [
    0
  ],
  "source_file": "DEFS/POWERS/BOOSTS/ATTUNED_REGENERATIVE_TISSUE_C.POWERSETS",
  "requires": "",
  "power_names": [
    "Boosts.Attuned_Regenerative_Tissue_C.Attuned_Regenerative_Tissue_C"
  ],
  "power_display_names": [
    "Regenerative Tissue: Healing/Absorb/Recharge"
  ]
}