{
  "name": "Crafted_Jaunt_B",
  "display_name": "Crafted Jaunt B",
  "display_fullname": "Boosts.Crafted Jaunt B",
  "display_help": "Reduces the endurance cost of a power by {Boost.Attrib.Endurance.Scale}%.",
  "display_short_help": "Set: Jaunt",
  "available_level": [
    0
  ],
  "source_file": "DEFS/POWERS/BOOSTS/CRAFTED_JAUNT_B.POWERSETS",
  "requires": "",
  "power_names": [
    "Boosts.Crafted_Jaunt_B.Crafted_Jaunt_B"
  ],
  "power_display_names": [
    "Jaunt: Endurance"
  ]
}