{
  "name": "Tsoo_InkMen_Boss_Defense",
  "display_name": "Tsoo_InkMen_Boss_Defense",
  "display_fullname": "Tsoo.Tsoo InkMen Boss Defense",
  "display_help": "Tsoo",
  "display_short_help": "Tsoo",
  "available_level": [
    0
  ],
  "source_file": "DEFS/POWERS/TSOO/TSOO_INKMEN_BOSS_DEFENSE.POWERSETS",
  "requires": "",
  "power_names": [
    "Tsoo.Tsoo_InkMen_Boss_Defense.Resistance"
  ],
  "power_display_names": [
    "Resistance"
  ]
}