{
  "name": "Dire_Wolf_2",
  "display_name": "Dire Wolf",
  "display_fullname": "Mastermind Pets.Dire Wolf",
  "display_help": "Beasts",
  "display_short_help": "Beasts",
  "available_level": [
    0,
    0,
    0,
    0,
    0
  ],
  "source_file": "DEFS/POWERS/MASTERMIND_PETS/DIRE_WOLF_2.POWERSETS",
  "requires": "",
  "power_names": [
    "Mastermind_Pets.Dire_Wolf_2.Freezing_Roar",
    "Mastermind_Pets.Dire_Wolf_2.PM_Freezing_Roar",
    "Mastermind_Pets.Dire_Wolf_2.Maiming_Bite",
    "Mastermind_Pets.Dire_Wolf_2.PM_Maiming_Bite",
    "Mastermind_Pets.Dire_Wolf_2.Train_Beasts"
  ],
  "power_display_names": [
    "Freezing Roar",
    "Pack Mentality Granter",
    "Maiming Bite",
    "Pack Mentality Granter",
    "Train Beasts"
  ]
}