{
  "name": "Sweeping_Strike_Fast",
  "full_name": "Pets.Titan_Weapons.Sweeping_Strike_Fast",
  "type": "Click",
  "display_name": "Titan Sweep (Fast)",
  "display_fullname": "Pets.Titan Weapons.Titan Sweep (Fast)",
  "display_help": "You make a sweeping slash with your weapon, causing high damage and possibly knocking your opponent down.<br><br><color #fcfc95>Notes:<br>Titan Sweep (Fast) is unaffected by Arc changes.</color><br><br><color #fcfc95>Damage: Light.</color><br><color #fcfc95>Recharge: Moderate.</color>",
  "display_short_help": "Melee (Cone), Light DMG(Smashing), Foe Knockdown",
  "icon": "titanweapons_sweepingstrike.png",
  "auto_issue": false,
  "auto_issue_keeps_level": false,
  "message_caster": null,
  "message_floater": null,
  "message_attacker_hit": null,
  "message_target_hit": null,
  "message_target_confirm": null,
  "message_float_reward": null,
  "message_defense_avoidance": null,
  "attack_types": [
    "Melee",
    "Smashing"
  ],
  "requires": "",
  "activate_requires": "",
  "accuracy": 1.0,
  "number_allowed": 1,
  "caster_near_ground": false,
  "target_near_ground": false,
  "cast_when_dead": "AliveOnly",
  "cast_through": [

  ],
  "toggle_ignores": [

  ],
  "ignore_level_gained": false,
  "works_on_untouchable": false,
  "works_through_vision_phase": false,
  "target_untargetable": false,
  "interrupt_like_sleep": false,
  "notify_ai_when": "Always",
  "effect_area": "Cone",
  "max_targets_hit": 5,
  "radius": 10.0,
  "arc": 2.0944,
  "range": 10.0,
  "range_secondary": 0.0,
  "activation_time": 1.1,
  "root_time": 1.1,
  "interrupt_time": 0.0,
  "recharge_time": 7.5,
  "activate_period": 0.0,
  "endurance_cost": 6.2665,
  "cancelable": false,
  "self_confirm": false,
  "confirm_requires": "",
  "time_to_confirm": 0,
  "chain_delay": 0.0,
  "chain_effect_expr": "",
  "chain_forks": [

  ],
  "chain_into_power_name": null,
  "vec_box_offset": [
    0.0,
    0.0,
    0.0
  ],
  "vec_box_size": [
    0.0,
    0.0,
    0.0
  ],
  "number_of_charges": 0,
  "max_num_charges": 0,
  "destroy_on_last_use": true,
  "power_lifetime": 0.0,
  "max_power_lifetime": 0.0,
  "power_lifetime_ingame": 0.0,
  "max_power_lifetime_ingame": 0.0,
  "stacking_lifetime": false,
  "toggle_on_time": 0.0,
  "max_toggle_on_time": 0.0,
  "toggle_detoggle_time": 0.0,
  "toggle_droppable": "Sometimes",
  "ignore_toggle_max_distance": false,
  "target_type": "Foe (Alive)",
  "target_type_secondary": null,
  "target_visibility": "LineOfSight",
  "targets_affected": [
    "Foe (Alive)"
  ],
  "targets_autohit": [

  ],
  "target_requires": "",
  "proc_allowed": "All",
  "boosts_allowed": [
    "Reduce Endurance Cost",
    "Enhance Recharge Speed",
    "Enhance KnockBack",
    "Enhance Damage",
    "Enhance Accuracy"
  ],
  "allowed_boostset_cats": [
    "Knockback",
    "Melee AoE Damage",
    "Scrapper Archetype Sets",
    "Universal Damage Sets"
  ],
  "exclusion_groups": [

  ],
  "modes_required": [

  ],
  "modes_disallowed": [
    "Disable_All"
  ],
  "recharge_groups": [

  ],
  "ignore_strength": false,
  "strengths_disallowed": [
    "Range",
    "Arc"
  ],
  "global_strengths_disallowed": [

  ],
  "procs_only_on_main_target": false,
  "vars_attribmods_can_reference": [

  ],
  "show_buff_icon": true,
  "show_in_info": true,
  "show_in_manage": true,
  "show_in_inventory": "Show",
  "deletable": false,
  "tradeable": false,
  "do_not_save": false,
  "max_boosts": 6,
  "ignore_level_differences": false,
  "ignore_exemplar_for_bonuses": false,
  "boost_combinable": true,
  "boost_tradeable": true,
  "boost_account_bound": false,
  "boost_boostable": false,
  "boost_use_player_level": false,
  "boost_catalyzable": null,
  "boost_store_product": null,
  "boost_min_slot_level": -3,
  "boost_max_level": 50,
  "instance_locked": false,
  "is_environment_hit": false,
  "shuffle_target_list": false,
  "enforced_level_bought": -1,
  "refreshes_on_active_player_change": false,
  "highlight_expression": "Mode?(kFastMode)",
  "highlight_icon": null,
  "highlight_color": "#FF7F00FF",
  "travel_suppression_time": 2.0,
  "server_tray_priority": 0,
  "server_tray_requires": "",
  "abusive_buff": true,
  "position_center": "kModTarget_Caster",
  "position_distance": 0.0,
  "position_height": 0.0,
  "position_yaw": 0.0,
  "face_target": true,
  "attrib_cache": [
    "Smashing_Dmg",
    "Fire_Dmg",
    "Knockback"
  ],
  "max_targets_expression": "",
  "chain_target_expr": "",
  "powerset": "Pets.Titan_Weapons",
  "available_level": 0,
  "archetypes": [
    "scrapper"
  ],
  "redirect": [

  ],
  "effects": [
    {
      "tags": [

      ],
      "chance": 1.0,
      "ppm": 0.0,
      "delay": 0.0,
      "radius_inner": -1.0,
      "radius_outer": -1.0,
      "requires_expression": "target>enttype eq 'critter'",
      "flags": [

      ],
      "eval_flags": 0,
      "child_effects": [

      ],
      "templates": [
        {
          "attribs": [
            "Smashing_Dmg"
          ],
          "type": "Magnitude",
          "application_type": "OnTick",
          "aspect": "Absolute",
          "target": "AnyAffected",
          "table": "Melee_Damage",
          "scale": 1.0428,
          "duration": "0 seconds",
          "magnitude": 1.0,
          "delay": 0.0,
          "duration_expression": "",
          "magnitude_expression": "",
          "application_period": 0.0,
          "tick_chance": 1.0,
          "jit_requires": "",
          "caster_stack": "Individual",
          "stack": "Stack",
          "stack_limit": 2,
          "stack_key": null,
          "cancel_events": [

          ],
          "boost_mod_allowed": "Science_Boost",
          "flags": [
            "ResistMagnitude (7)",
            "CombatModMagnitude (9)"
          ],
          "mode_name": null,
          "target_info": null,
          "messages": {
            "display_attacker_hit": "You hit {PlayerDest} with your {PowerName} for {Damage} points of Smashing damage.",
            "display_victim_hit": "{PlayerSource} hits you with their {PowerName} for {Damage} points of Smashing damage.",
            "display_float": null,
            "display_defense_float": null
          },
          "suppress_events": [

          ],
          "params": null,
          "fx": null
        }
      ],
      "is_pvp": "EITHER"
    },
    {
      "tags": [

      ],
      "chance": 0.66,
      "ppm": 0.0,
      "delay": 0.0,
      "radius_inner": -1.0,
      "radius_outer": -1.0,
      "requires_expression": "target>enttype eq 'critter'",
      "flags": [

      ],
      "eval_flags": 0,
      "child_effects": [

      ],
      "templates": [
        {
          "attribs": [
            "Knockback"
          ],
          "type": "Magnitude",
          "application_type": "OnTick",
          "aspect": "Current",
          "target": "AnyAffected",
          "table": "Melee_Ones",
          "scale": 0.67,
          "duration": "0 seconds",
          "magnitude": 1.0,
          "delay": 0.0,
          "duration_expression": "",
          "magnitude_expression": "",
          "application_period": 0.0,
          "tick_chance": 1.0,
          "jit_requires": "",
          "caster_stack": "Individual",
          "stack": "Stack",
          "stack_limit": 2,
          "stack_key": null,
          "cancel_events": [

          ],
          "boost_mod_allowed": "Science_Boost",
          "flags": [
            "ResistMagnitude (7)",
            "CombatModMagnitude (9)"
          ],
          "mode_name": null,
          "target_info": null,
          "messages": {
            "display_attacker_hit": "You knock {PlayerDest} off their feet with your {PowerName}!",
            "display_victim_hit": "{PlayerSource} knocks you off your feet with their {PowerName}!",
            "display_float": null,
            "display_defense_float": null
          },
          "suppress_events": [

          ],
          "params": null,
          "fx": null
        }
      ],
      "is_pvp": "EITHER"
    },
    {
      "tags": [

      ],
      "chance": 1.0,
      "ppm": 0.0,
      "delay": 0.0,
      "radius_inner": -1.0,
      "radius_outer": -1.0,
      "requires_expression": "target>enttype eq 'player'",
      "flags": [

      ],
      "eval_flags": 0,
      "child_effects": [

      ],
      "templates": [
        {
          "attribs": [
            "Smashing_Dmg"
          ],
          "type": "Magnitude",
          "application_type": "OnTick",
          "aspect": "Absolute",
          "target": "AnyAffected",
          "table": "Melee_PvPDamage",
          "scale": 0.9826,
          "duration": "0 seconds",
          "magnitude": 1.0,
          "delay": 0.0,
          "duration_expression": "",
          "magnitude_expression": "",
          "application_period": 0.0,
          "tick_chance": 1.0,
          "jit_requires": "",
          "caster_stack": "Individual",
          "stack": "Stack",
          "stack_limit": 2,
          "stack_key": null,
          "cancel_events": [

          ],
          "boost_mod_allowed": "Science_Boost",
          "flags": [
            "ResistMagnitude (7)",
            "CombatModMagnitude (9)"
          ],
          "mode_name": null,
          "target_info": null,
          "messages": {
            "display_attacker_hit": "You hit {PlayerDest} with your {PowerName} for {Damage} points of Smashing damage.",
            "display_victim_hit": "{PlayerSource} hits you with their {PowerName} for {Damage} points of Smashing damage.",
            "display_float": null,
            "display_defense_float": null
          },
          "suppress_events": [

          ],
          "params": null,
          "fx": null
        }
      ],
      "is_pvp": "EITHER"
    },
    {
      "tags": [
        "PlayerCrit",
        "ScrapperCrit_AoE"
      ],
      "chance": 0.05,
      "ppm": 0.0,
      "delay": 0.0,
      "radius_inner": -1.0,
      "radius_outer": -1.0,
      "requires_expression": "target>enttype eq 'player'",
      "flags": [

      ],
      "eval_flags": 0,
      "child_effects": [

      ],
      "templates": [
        {
          "attribs": [
            "Smashing_Dmg"
          ],
          "type": "Magnitude",
          "application_type": "OnTick",
          "aspect": "Absolute",
          "target": "AnyAffected",
          "table": "Melee_PvPDamage",
          "scale": 0.9826,
          "duration": "0 seconds",
          "magnitude": 1.0,
          "delay": 0.0,
          "duration_expression": "",
          "magnitude_expression": "",
          "application_period": 0.0,
          "tick_chance": 1.0,
          "jit_requires": "",
          "caster_stack": "Individual",
          "stack": "Stack",
          "stack_limit": 2,
          "stack_key": null,
          "cancel_events": [

          ],
          "boost_mod_allowed": "Science_Boost",
          "flags": [
            "ResistMagnitude (7)",
            "CombatModMagnitude (9)"
          ],
          "mode_name": null,
          "target_info": null,
          "messages": {
            "display_attacker_hit": "You hit {PlayerDest} with your {PowerName} for {Damage} points of Smashing damage [CRITICAL].",
            "display_victim_hit": "{PlayerSource} hits you with their {PowerName} for {Damage} points of Smashing damage [CRITICAL].",
            "display_float": "CRITICAL",
            "display_defense_float": null
          },
          "suppress_events": [

          ],
          "params": null,
          "fx": null
        }
      ],
      "is_pvp": "EITHER"
    },
    {
      "tags": [

      ],
      "chance": 0.66,
      "ppm": 0.0,
      "delay": 0.0,
      "radius_inner": -1.0,
      "radius_outer": -1.0,
      "requires_expression": "target>enttype eq 'player'",
      "flags": [

      ],
      "eval_flags": 0,
      "child_effects": [

      ],
      "templates": [
        {
          "attribs": [
            "Knockback"
          ],
          "type": "Magnitude",
          "application_type": "OnTick",
          "aspect": "Current",
          "target": "AnyAffected",
          "table": "Melee_Ones",
          "scale": 0.67,
          "duration": "0 seconds",
          "magnitude": 1.0,
          "delay": 0.0,
          "duration_expression": "",
          "magnitude_expression": "",
          "application_period": 0.0,
          "tick_chance": 1.0,
          "jit_requires": "",
          "caster_stack": "Individual",
          "stack": "Stack",
          "stack_limit": 2,
          "stack_key": null,
          "cancel_events": [

          ],
          "boost_mod_allowed": "Science_Boost",
          "flags": [
            "ResistMagnitude (7)",
            "CombatModMagnitude (9)"
          ],
          "mode_name": null,
          "target_info": null,
          "messages": {
            "display_attacker_hit": "You knock {PlayerDest} off their feet with your {PowerName}!",
            "display_victim_hit": "{PlayerSource} knocks you off your feet with their {PowerName}!",
            "display_float": null,
            "display_defense_float": null
          },
          "suppress_events": [
            {
              "event": "Knocked",
              "post_event_delay": 10,
              "always_suppress": false
            }
          ],
          "params": null,
          "fx": null
        }
      ],
      "is_pvp": "EITHER"
    },
    {
      "tags": [
        "MLCrit",
        "ScrapperCrit_AoE"
      ],
      "chance": 0.05,
      "ppm": 0.0,
      "delay": 0.0,
      "radius_inner": -1.0,
      "radius_outer": -1.0,
      "requires_expression": "target>arch eq 'Class_Minion_Grunt' || target>arch eq 'Class_Minion_Pets' || target>arch eq 'Class_Minion_Small' || target>arch eq 'Class_Minion_Swarm'",
      "flags": [

      ],
      "eval_flags": 0,
      "child_effects": [

      ],
      "templates": [
        {
          "attribs": [
            "Smashing_Dmg"
          ],
          "type": "Magnitude",
          "application_type": "OnTick",
          "aspect": "Absolute",
          "target": "AnyAffected",
          "table": "Melee_Damage",
          "scale": 1.0428,
          "duration": "0 seconds",
          "magnitude": 1.0,
          "delay": 0.0,
          "duration_expression": "",
          "magnitude_expression": "",
          "application_period": 0.0,
          "tick_chance": 1.0,
          "jit_requires": "",
          "caster_stack": "Individual",
          "stack": "Stack",
          "stack_limit": 2,
          "stack_key": null,
          "cancel_events": [

          ],
          "boost_mod_allowed": "Science_Boost",
          "flags": [
            "ResistMagnitude (7)",
            "CombatModMagnitude (9)"
          ],
          "mode_name": null,
          "target_info": null,
          "messages": {
            "display_attacker_hit": "You hit {PlayerDest} with your {PowerName} for {Damage} points of Smashing damage [CRITICAL].",
            "display_victim_hit": "{PlayerSource} hits you with their {PowerName} for {Damage} points of Smashing damage [CRITICAL].",
            "display_float": "CRITICAL",
            "display_defense_float": null
          },
          "suppress_events": [

          ],
          "params": null,
          "fx": null
        }
      ],
      "is_pvp": "EITHER"
    },
    {
      "tags": [
        "BossCrit",
        "ScrapperCrit_AoE"
      ],
      "chance": 0.1,
      "ppm": 0.0,
      "delay": 0.0,
      "radius_inner": -1.0,
      "radius_outer": -1.0,
      "requires_expression": "!(target>arch eq 'Class_Minion_Grunt' || target>arch eq 'Class_Minion_Pets' || target>arch eq 'Class_Minion_Small' || target>arch eq 'Class_Minion_Swarm' || target>enttype eq 'player')",
      "flags": [

      ],
      "eval_flags": 0,
      "child_effects": [

      ],
      "templates": [
        {
          "attribs": [
            "Smashing_Dmg"
          ],
          "type": "Magnitude",
          "application_type": "OnTick",
          "aspect": "Absolute",
          "target": "AnyAffected",
          "table": "Melee_Damage",
          "scale": 1.0428,
          "duration": "0 seconds",
          "magnitude": 1.0,
          "delay": 0.0,
          "duration_expression": "",
          "magnitude_expression": "",
          "application_period": 0.0,
          "tick_chance": 1.0,
          "jit_requires": "",
          "caster_stack": "Individual",
          "stack": "Stack",
          "stack_limit": 2,
          "stack_key": null,
          "cancel_events": [

          ],
          "boost_mod_allowed": "Science_Boost",
          "flags": [
            "ResistMagnitude (7)",
            "CombatModMagnitude (9)"
          ],
          "mode_name": null,
          "target_info": null,
          "messages": {
            "display_attacker_hit": "You hit {PlayerDest} with your {PowerName} for {Damage} points of Smashing damage [CRITICAL].",
            "display_victim_hit": "{PlayerSource} hits you with their {PowerName} for {Damage} points of Smashing damage [CRITICAL].",
            "display_float": "CRITICAL",
            "display_defense_float": null
          },
          "suppress_events": [

          ],
          "params": null,
          "fx": null
        }
      ],
      "is_pvp": "PVE_ONLY"
    },
    {
      "tags": [
        "FieryEmbrace"
      ],
      "chance": 0.0,
      "ppm": 0.0,
      "delay": 0.0,
      "radius_inner": -1.0,
      "radius_outer": -1.0,
      "requires_expression": "",
      "flags": [

      ],
      "eval_flags": 0,
      "child_effects": [

      ],
      "templates": [
        {
          "attribs": [
            "Fire_Dmg"
          ],
          "type": "Magnitude",
          "application_type": "OnTick",
          "aspect": "Absolute",
          "target": "AnyAffected",
          "table": "Melee_Damage",
          "scale": 0.4693,
          "duration": "0 seconds",
          "magnitude": 1.0,
          "delay": 0.0,
          "duration_expression": "",
          "magnitude_expression": "",
          "application_period": 0.0,
          "tick_chance": 1.0,
          "jit_requires": "",
          "caster_stack": "Individual",
          "stack": "Stack",
          "stack_limit": 2,
          "stack_key": null,
          "cancel_events": [

          ],
          "boost_mod_allowed": "Science_Boost",
          "flags": [
            "ResistMagnitude (7)",
            "CombatModMagnitude (9)"
          ],
          "mode_name": null,
          "target_info": null,
          "messages": {
            "display_attacker_hit": "You hit {PlayerDest} with your {PowerName} for {Damage} points of Fire damage.",
            "display_victim_hit": "{PlayerSource} hits you with their {PowerName} for {Damage} points of Fire damage.",
            "display_float": null,
            "display_defense_float": null
          },
          "suppress_events": [

          ],
          "params": null,
          "fx": {
            "continuing_bits": [

            ],
            "continuing_fx": "POWERS/FIRECONTROL/CINDERSHIT.FX",
            "conditional_bits": [

            ],
            "conditional_fx": null
          }
        }
      ],
      "is_pvp": "EITHER"
    }
  ],
  "activation_effects": [

  ],
  "fx": {
    "source_file": "MENU/POWERS/ANIMFX/PLAYERPOWERS/TITANWEAPON_SWEEPINGSTRIKE_FAST.PFX",
    "attack_bits": [
      20,
      132,
      142,
      766,
      256,
      681
    ],
    "block_bits": [
      53
    ],
    "wind_up_bits": [

    ],
    "hit_bits": [
      49,
      681
    ],
    "death_bits": [

    ],
    "activation_bits": [
      20,
      132,
      142,
      187
    ],
    "deactivation_bits": [

    ],
    "initial_attack_bits": [
      20,
      132,
      142,
      766,
      256,
      681,
      187
    ],
    "continuing_bits": [

    ],
    "conditional_bits": [

    ],
    "activation_fx": null,
    "deactivation_fx": null,
    "attack_fx": "CUSTOMIZEABLEPOWERS/TITANWEAPON/SWEEPINGSTRIKE_FAST.FX",
    "secondary_attack_fx": null,
    "hit_fx": "CUSTOMIZEABLEPOWERS/TITANWEAPON/SWEEPINGSTRIKE_FAST_HIT.FX",
    "wind_up_fx": null,
    "block_fx": null,
    "death_fx": null,
    "initial_attack_fx": "CUSTOMIZEABLEPOWERS/TITANWEAPON/SWEEPINGSTRIKE_FAST.FX",
    "continuing_fx": [

    ],
    "conditional_fx": [

    ],
    "mode_bits": [
      20,
      132,
      142
    ],
    "frames_before_hit": 27,
    "frames_before_secondary_hit": 0,
    "delayed_hit": false,
    "frames_attack": 33,
    "initial_frames_before_hit": 27,
    "initial_attack_fx_frame_delay": 0,
    "projectile_speed": 3.4028234663852886e38,
    "secondary_projectile_speed": 0.0,
    "initial_frames_before_block": 27,
    "ignore_attack_time_errors": null,
    "frames_before_block": 27,
    "fx_important": false
  },
  "custom_fx": [
    {
      "display_name": null,
      "token": "Bright",
      "alt_themes": [

      ],
      "category": null,
      "palette_name": "Additive",
      "fx": {
        "source_file": "MENU/POWERS/ANIMFX/PLAYERPOWERS/TITANWEAPON_SWEEPINGSTRIKE_FAST.PFX",
        "attack_bits": [
          20,
          132,
          142,
          766,
          256,
          681
        ],
        "block_bits": [
          53
        ],
        "wind_up_bits": [

        ],
        "hit_bits": [
          49,
          681
        ],
        "death_bits": [

        ],
        "activation_bits": [
          20,
          132,
          142,
          187
        ],
        "deactivation_bits": [

        ],
        "initial_attack_bits": [
          20,
          132,
          142,
          766,
          256,
          681,
          187
        ],
        "continuing_bits": [

        ],
        "conditional_bits": [

        ],
        "activation_fx": null,
        "deactivation_fx": null,
        "attack_fx": "CUSTOMIZEABLEPOWERS/TITANWEAPON/SWEEPINGSTRIKE_FAST.FX",
        "secondary_attack_fx": null,
        "hit_fx": "CUSTOMIZEABLEPOWERS/TITANWEAPON/SWEEPINGSTRIKE_FAST_HIT.FX",
        "wind_up_fx": null,
        "block_fx": null,
        "death_fx": null,
        "initial_attack_fx": "CUSTOMIZEABLEPOWERS/TITANWEAPON/SWEEPINGSTRIKE_FAST.FX",
        "continuing_fx": [

        ],
        "conditional_fx": [

        ],
        "mode_bits": [
          20,
          132,
          142
        ],
        "frames_before_hit": 27,
        "frames_before_secondary_hit": 0,
        "delayed_hit": false,
        "frames_attack": 33,
        "initial_frames_before_hit": 27,
        "initial_attack_fx_frame_delay": 0,
        "projectile_speed": 3.4028234663852886e38,
        "secondary_projectile_speed": 0.0,
        "initial_frames_before_block": 27,
        "ignore_attack_time_errors": null,
        "frames_before_block": 27,
        "fx_important": false
      }
    },
    {
      "display_name": null,
      "token": "Dark",
      "alt_themes": [

      ],
      "category": null,
      "palette_name": "Subtractive",
      "fx": {
        "source_file": "MENU/POWERS/ANIMFX/PLAYERPOWERS/TITANWEAPON_SWEEPINGSTRIKE_FAST.PFX",
        "attack_bits": [
          20,
          132,
          142,
          766,
          256,
          681
        ],
        "block_bits": [
          53
        ],
        "wind_up_bits": [

        ],
        "hit_bits": [
          49,
          681
        ],
        "death_bits": [

        ],
        "activation_bits": [
          20,
          132,
          142,
          187
        ],
        "deactivation_bits": [

        ],
        "initial_attack_bits": [
          20,
          132,
          142,
          766,
          256,
          681,
          187
        ],
        "continuing_bits": [

        ],
        "conditional_bits": [

        ],
        "activation_fx": null,
        "deactivation_fx": null,
        "attack_fx": "CUSTOMIZEABLEPOWERS/TITANWEAPON/SUBTRACTIVE/SWEEPINGSTRIKE_FAST.FX",
        "secondary_attack_fx": null,
        "hit_fx": "CUSTOMIZEABLEPOWERS/TITANWEAPON/SUBTRACTIVE/SWEEPINGSTRIKE_FAST_HIT.FX",
        "wind_up_fx": null,
        "block_fx": null,
        "death_fx": null,
        "initial_attack_fx": "CUSTOMIZEABLEPOWERS/TITANWEAPON/SUBTRACTIVE/SWEEPINGSTRIKE_FAST.FX",
        "continuing_fx": [

        ],
        "conditional_fx": [

        ],
        "mode_bits": [
          20,
          132,
          142
        ],
        "frames_before_hit": 27,
        "frames_before_secondary_hit": 0,
        "delayed_hit": false,
        "frames_attack": 33,
        "initial_frames_before_hit": 27,
        "initial_attack_fx_frame_delay": 0,
        "projectile_speed": 3.4028234663852886e38,
        "secondary_projectile_speed": 0.0,
        "initial_frames_before_block": 27,
        "ignore_attack_time_errors": null,
        "frames_before_block": 27,
        "fx_important": false
      }
    }
  ],
  "fx_only_on_main_target": false
}