{
  "name": "Sky_Raider_Crimson_Pets_Defense",
  "display_name": "Crimson Support",
  "display_fullname": "SkyRaiders.Crimson Support",
  "display_help": "SkyRaiders",
  "display_short_help": "SkyRaiders",
  "available_level": [
    0
  ],
  "source_file": "DEFS/POWERS/SKYRAIDERS/SKY_RAIDER_CRIMSON_PETS_DEFENSE.POWERSETS",
  "requires": "",
  "power_names": [
    "SkyRaiders.Sky_Raider_Crimson_Pets_Defense.Defense"
  ],
  "power_display_names": [
    "Defense"
  ]
}