{
  "name": "Revolver",
  "display_name": "Revolver",
  "display_fullname": "Guns.Revolver",
  "display_help": "Guns",
  "display_short_help": "Guns",
  "available_level": [
    0
  ],
  "source_file": "DEFS/POWERS/GUNS/REVOLVER.POWERSETS",
  "requires": "",
  "power_names": [
    "Guns.Revolver.Revolver"
  ],
  "power_display_names": [
    "Revolver"
  ]
}