{
  "name": "Crafted_Impervium_Armor_D",
  "display_name": "Crafted Impervium Armor D",
  "display_fullname": "Boosts.Crafted Impervium Armor D",
  "display_help": "Enhances the damage resistance of a power by {Boost.Attrib.Damage.Scale}%, reduces the endurance cost of a power by {Boost.Attrib.Endurance.Scale}%and recharge time by {Boost.Attrib.RechargeTime.Scale}%.",
  "display_short_help": "Set: Impervium Armor",
  "available_level": [
    0
  ],
  "source_file": "DEFS/POWERS/BOOSTS/CRAFTED_IMPERVIUM_ARMOR_D.POWERSETS",
  "requires": "",
  "power_names": [
    "Boosts.Crafted_Impervium_Armor_D.Crafted_Impervium_Armor_D"
  ],
  "power_display_names": [
    "Impervium Armor: Resistance/Endurance/Recharge"
  ]
}