{
  "name": "Black_Swan_DarkServant",
  "display_name": "Black_Swan_DarkServant",
  "display_fullname": "Praetorians.Black Swan DarkServant",
  "display_help": "Praetorians",
  "display_short_help": "Praetorians",
  "available_level": [
    0,
    0,
    15,
    1
  ],
  "source_file": "DEFS/POWERS/PRAETORIANS/BLACK_SWAN_DARKSERVANT.POWERSETS",
  "requires": "",
  "power_names": [
    "Praetorians.Black_Swan_DarkServant.Twilight_Grasp",
    "Praetorians.Black_Swan_DarkServant.Darkest_Night",
    "Praetorians.Black_Swan_DarkServant.Tenebrous_Tentacles",
    "Praetorians.Black_Swan_DarkServant.Death_Shroud"
  ],
  "power_display_names": [
    "Twilight Grasp",
    "Darkest Night",
    "Tenebrous Tentacles",
    "Death Shroud"
  ]
}