{
  "name": "Nature_Affinity",
  "display_name": "Nature Affinity",
  "display_fullname": "Mastermind Buff.Nature Affinity",
  "display_help": "You have command over the forces of nature and are able to call forth primal energies to aid your allies and hinder your foes. Many of your powers place a Bloom effect on you and your allies. Each stack of Bloom boosts healing effects on the affected targets by a 4% for 30 seconds. Bloom can stack up to 5 times.",
  "display_short_help": "Nature Affinity",
  "available_level": [
    0,
    1,
    3,
    9,
    15,
    19,
    27,
    34,
    37
  ],
  "source_file": "DEFS/POWERS/MASTERMIND_BUFF/NATURE_AFFINITY.POWERSETS",
  "requires": "",
  "power_names": [
    "Mastermind_Buff.Nature_Affinity.Corrosive_Sap",
    "Mastermind_Buff.Nature_Affinity.Regrowth",
    "Mastermind_Buff.Nature_Affinity.Wild_Growth",
    "Mastermind_Buff.Nature_Affinity.Spore_Cloud",
    "Mastermind_Buff.Nature_Affinity.Lifegiving_Spores",
    "Mastermind_Buff.Nature_Affinity.Wild_Bastion",
    "Mastermind_Buff.Nature_Affinity.Rebirth",
    "Mastermind_Buff.Nature_Affinity.Raging_Tempest",
    "Mastermind_Buff.Nature_Affinity.Overgrowth"
  ],
  "power_display_names": [
    "Corrosive Enzymes",
    "Regrowth",
    "Wild Growth",
    "Spore Cloud",
    "Lifegiving Spores",
    "Wild Bastion",
    "Rebirth",
    "Entangling Aura",
    "Overgrowth"
  ]
}