{
  "name": "Superior_Attuned_Frozen_Blast_D",
  "display_name": "Superior Attuned Frozen Blast D",
  "display_fullname": "Boosts.Superior Attuned Frozen Blast D",
  "display_help": "UNIQUE -- No more than 1 enhancement of this type may be slotted by a character. Enhances the accuracy of a power by {Boost.Attrib.Accuracy.Scale}%, damage by {Boost.Attrib.Damage.Scale}% and reduces endurance cost by {Boost.Attrib.Endurance.Scale}%. This enhancement can only be slotted by Blasters and may be slotted into any Blaster damage power.",
  "display_short_help": "Set: Superior Frozen Blast",
  "available_level": [
    0
  ],
  "source_file": "DEFS/POWERS/BOOSTS/SUPERIOR_ATTUNED_FROZEN_BLAST_D.POWERSETS",
  "requires": "",
  "power_names": [
    "Boosts.Superior_Attuned_Frozen_Blast_D.Superior_Attuned_Frozen_Blast_D"
  ],
  "power_display_names": [
    "Superior Frozen Blast: Accuracy/Damage/Endurance"
  ]
}