{
  "name": "Crazed_Revolver",
  "display_name": "Crazed_Revolver",
  "display_fullname": "Portal.Crazed Revolver",
  "display_help": "The Crazed",
  "display_short_help": "The Crazed",
  "available_level": [
    0
  ],
  "source_file": "DEFS/POWERS/PORTAL/CRAZED_REVOLVER.POWERSETS",
  "requires": "",
  "power_names": [
    "Portal.Crazed_Revolver.Revolver"
  ],
  "power_display_names": [
    "Revolver"
  ]
}