{
  "name": "Attuned_Vigilant_Assault_F",
  "display_name": "Attuned Vigilant Assault F",
  "display_fullname": "Boosts.Attuned Vigilant Assault F",
  "display_help": "UNIQUE -- No more than 1 enhancement of this type may be slotted by a character. Gives the slotted power a chance to grant a small amount of damage absorption to the caster and nearby allies for a short time and reduces recharge time by {Boost.Attrib.RechargeTime.Scale}%. This effect will be triggered roughly 4 times per minute. This enhancement can only be slotted by Defenders and may be slotted into any Defender damage power.",
  "display_short_help": "Set: Vigilant Assault",
  "available_level": [
    0
  ],
  "source_file": "DEFS/POWERS/BOOSTS/ATTUNED_VIGILANT_ASSAULT_F.POWERSETS",
  "requires": "",
  "power_names": [
    "Boosts.Attuned_Vigilant_Assault_F.Attuned_Vigilant_Assault_F"
  ],
  "power_display_names": [
    "Vigilant Assault: Recharge/Chance for Minor PBAoE +Absorb (Defender)"
  ]
}