{
  "name": "Attuned_Will_of_the_Controller_C",
  "display_name": "Attuned Will of the Controller C",
  "display_fullname": "Boosts.Attuned Will of the Controller C",
  "display_help": "UNIQUE -- No more than 1 enhancement of this type may be slotted by a character. Reduces the endurance cost of a power by {Boost.Attrib.Endurance.Scale}% and reduces recharge time by {Boost.Attrib.RechargeTime.Scale}%. This enhancement can only be slotted by Controllers and may be slotted into most control powers.",
  "display_short_help": "Set: Will of the Controller",
  "available_level": [
    0
  ],
  "source_file": "DEFS/POWERS/BOOSTS/ATTUNED_WILL_OF_THE_CONTROLLER_C.POWERSETS",
  "requires": "",
  "power_names": [
    "Boosts.Attuned_Will_of_the_Controller_C.Attuned_Will_of_the_Controller_C"
  ],
  "power_display_names": [
    "Will of the Controller: Endurance/Recharge"
  ]
}