{
  "name": "Forbidden_Knowledge",
  "display_name": "Forbidden Knowledge",
  "display_fullname": "AnimusArcana.Forbidden Knowledge",
  "display_help": "Animus Arcana",
  "display_short_help": "Animus Arcana",
  "available_level": [
    0,
    0,
    0,
    0,
    0
  ],
  "source_file": "DEFS/POWERS/ANIMUSARCANA/FORBIDDEN_KNOWLEDGE.POWERSETS",
  "requires": "",
  "power_names": [
    "AnimusArcana.Forbidden_Knowledge.Dark_Blast",
    "AnimusArcana.Forbidden_Knowledge.Tenebrous_Tentacles",
    "AnimusArcana.Forbidden_Knowledge.Torrent",
    "AnimusArcana.Forbidden_Knowledge.Life_Drain",
    "AnimusArcana.Forbidden_Knowledge.Gloom"
  ],
  "power_display_names": [
    "Dark Blast",
    "Tenebrous Tentacles",
    "Torrent",
    "Life Drain",
    "Gloom"
  ]
}