{
  "name": "Gremlin",
  "display_name": "Gremlin",
  "display_fullname": "Pets.Gremlin",
  "display_help": "Electric Control",
  "display_short_help": "Electric Control",
  "available_level": [
    0,
    5,
    0,
    0
  ],
  "source_file": "DEFS/POWERS/PETS/GREMLIN.POWERSETS",
  "requires": "",
  "power_names": [
    "Pets.Gremlin.Electric_Brawl",
    "Pets.Gremlin.Jolting_Chain",
    "Pets.Gremlin.Shock",
    "Pets.Gremlin.Resist_Energy"
  ],
  "power_display_names": [
    "Electric Brawl",
    "Jolting Chain",
    "Shock",
    "Resist Energy"
  ]
}