{
  "name": "Attuned_Perfect_Zinger_E",
  "display_name": "Attuned Perfect Zinger E",
  "display_fullname": "Boosts.Attuned Perfect Zinger E",
  "display_help": "Enhances the taunt duration of a power by {Boost.Attrib.Mez.Scale}% and the range by {Boost.Attrib.Range.Scale}%.",
  "display_short_help": "Set: Perfect Zinger",
  "available_level": [
    0
  ],
  "source_file": "DEFS/POWERS/BOOSTS/ATTUNED_PERFECT_ZINGER_E.POWERSETS",
  "requires": "",
  "power_names": [
    "Boosts.Attuned_Perfect_Zinger_E.Attuned_Perfect_Zinger_E"
  ],
  "power_display_names": [
    "Perfect Zinger: Taunt/Range"
  ]
}