{
  "name": "Agent_Indigo_Low",
  "display_name": "Agent Indigo Low",
  "display_fullname": "V FreedomCorps.Agent Indigo Low",
  "display_help": "Longbow",
  "display_short_help": "Longbow",
  "available_level": [
    0,
    0,
    0,
    0,
    0,
    0,
    0,
    0,
    0,
    0,
    0
  ],
  "source_file": "DEFS/POWERS/V_FREEDOMCORPS/AGENT_INDIGO_LOW.POWERSETS",
  "requires": "",
  "power_names": [
    "V_FreedomCorps.Agent_Indigo_Low.Cloaking_Device",
    "V_FreedomCorps.Agent_Indigo_Low.Hack",
    "V_FreedomCorps.Agent_Indigo_Low.Slash",
    "V_FreedomCorps.Agent_Indigo_Low.Slice",
    "V_FreedomCorps.Agent_Indigo_Low.Disembowel",
    "V_FreedomCorps.Agent_Indigo_Low.Whirling_Sword",
    "V_FreedomCorps.Agent_Indigo_Low.Caltrops",
    "V_FreedomCorps.Agent_Indigo_Low.Exploding_Shuriken",
    "V_FreedomCorps.Agent_Indigo_Low.Sleep_Dart",
    "V_FreedomCorps.Agent_Indigo_Low.Poison_Dart",
    "V_FreedomCorps.Agent_Indigo_Low.Web_Grenade"
  ],
  "power_display_names": [
    "Cloaking Device",
    "Hack",
    "Slash",
    "Slice",
    "Disembowel",
    "Whirling Sword",
    "Caltrops",
    "Exploding Shuriken",
    "Sleep Dart",
    "Poison Dart",
    "Web Grenade"
  ]
}