{
  "name": "Electrical_Melee",
  "display_name": "Electrical Melee",
  "display_fullname": "Scrapper Melee.Electrical Melee",
  "display_help": "Electricity surges through your body and you can channel this electricity through your fists. Electrical Melee allows you to pummel your foes with various melee attack powers while jolting them with a powerful electric current. Electric Melee powers can drain foes' Endurance and temporarily halt their Endurance recovery. Some powers may even return a portion of drained Endurance back to you.",
  "display_short_help": "Electrical Melee",
  "available_level": [
    0,
    0,
    1,
    5,
    7,
    11,
    17,
    25,
    31
  ],
  "source_file": "DEFS/POWERS/SCRAPPER_MELEE/ELECTRICAL_MELEE.POWERSETS",
  "requires": "",
  "power_names": [
    "Scrapper_Melee.Electrical_Melee.Charged_Brawl",
    "Scrapper_Melee.Electrical_Melee.Havoc_Punch",
    "Scrapper_Melee.Electrical_Melee.Jacobs_Ladder",
    "Scrapper_Melee.Electrical_Melee.Build_Up",
    "Scrapper_Melee.Electrical_Melee.Thunder_Strike",
    "Scrapper_Melee.Electrical_Melee.Confront",
    "Scrapper_Melee.Electrical_Melee.Chain_Induction",
    "Scrapper_Melee.Electrical_Melee.Lightning_Clap",
    "Scrapper_Melee.Electrical_Melee.Lightning_Rod"
  ],
  "power_display_names": [
    "Charged Brawl",
    "Havoc Punch",
    "Jacobs Ladder",
    "Build Up",
    "Thunder Strike",
    "Confront",
    "Chain Induction",
    "Lightning Clap",
    "Lightning Rod"
  ]
}