{
  "name": "Blood_Widow_High",
  "display_name": "Blood_Widow_High",
  "display_fullname": "V Arachnos.Blood Widow High",
  "display_help": "Arachnos",
  "display_short_help": "Arachnos",
  "available_level": [
    0
  ],
  "source_file": "DEFS/POWERS/V_ARACHNOS/BLOOD_WIDOW_HIGH.POWERSETS",
  "requires": "",
  "power_names": [
    "V_Arachnos.Blood_Widow_High.Slash"
  ],
  "power_display_names": [
    "Slash"
  ]
}