{
  "name": "Cabal_Maven_Lt_Blaster",
  "display_name": "Cabal_Maven_Lt_Blaster",
  "display_fullname": "Cabal.Cabal Maven Lt Blaster",
  "display_help": "The Cabal",
  "display_short_help": "The Cabal",
  "available_level": [
    0,
    0
  ],
  "source_file": "DEFS/POWERS/CABAL/CABAL_MAVEN_LT_BLASTER.POWERSETS",
  "requires": "",
  "power_names": [
    "Cabal.Cabal_Maven_Lt_Blaster.Lightning_Bolt",
    "Cabal.Cabal_Maven_Lt_Blaster.Ball_Lightning"
  ],
  "power_display_names": [
    "Lightning Bolt",
    "Ball Lightning"
  ]
}