{
  "name": "Back_Alley_Brawler_No_Debt",
  "display_name": "Back_Alley_Brawler",
  "display_fullname": "V FreedomPhalanx.Back Alley Brawler",
  "display_help": "Freedom Phalanx",
  "display_short_help": "Freedom Phalanx",
  "available_level": [
    0,
    0,
    0,
    0,
    0,
    0,
    0,
    0,
    0,
    0,
    0,
    0,
    0,
    0,
    0
  ],
  "source_file": "DEFS/POWERS/V_FREEDOMPHALANX/BACK_ALLEY_BRAWLER_NO_DEBT.POWERSETS",
  "requires": "",
  "power_names": [
    "V_FreedomPhalanx.Back_Alley_Brawler_No_Debt.Back_Alley_Power_Punch",
    "V_FreedomPhalanx.Back_Alley_Brawler_No_Debt.Jab",
    "V_FreedomPhalanx.Back_Alley_Brawler_No_Debt.Punch",
    "V_FreedomPhalanx.Back_Alley_Brawler_No_Debt.Hand_Clap",
    "V_FreedomPhalanx.Back_Alley_Brawler_No_Debt.Knockout_Blow",
    "V_FreedomPhalanx.Back_Alley_Brawler_No_Debt.Hurl",
    "V_FreedomPhalanx.Back_Alley_Brawler_No_Debt.Foot_Stomp",
    "V_FreedomPhalanx.Back_Alley_Brawler_No_Debt.Bone_Smasher",
    "V_FreedomPhalanx.Back_Alley_Brawler_No_Debt.Total_Focus",
    "V_FreedomPhalanx.Back_Alley_Brawler_No_Debt.Dull_Pain",
    "V_FreedomPhalanx.Back_Alley_Brawler_No_Debt.Unyielding",
    "V_FreedomPhalanx.Back_Alley_Brawler_No_Debt.Assault",
    "V_FreedomPhalanx.Back_Alley_Brawler_No_Debt.Unstoppable",
    "V_FreedomPhalanx.Back_Alley_Brawler_No_Debt.Super_Leap",
    "V_FreedomPhalanx.Back_Alley_Brawler_No_Debt.Resistance"
  ],
  "power_display_names": [
    "Back Alley Power Punch",
    "Jab",
    "Punch",
    "Hand Clap",
    "Knockout Blow",
    "Hurl",
    "Foot Stomp",
    "Bone Smasher",
    "Total Focus",
    "Dull Pain",
    "Unyielding",
    "Assault",
    "Unstoppable",
    "Super Leap",
    "Resistance"
  ]
}