{
  "name": "Mace_Beam_Quick",
  "full_name": "Villain_Pets.Stalker_EpicMaceMastery_Snipe.Mace_Beam_Quick",
  "type": "Click",
  "display_name": "Mace Beam",
  "display_fullname": "Villain Pets.Stalker EpicMaceMastery Snipe.Mace Beam",
  "display_help": "Fires an extremely long range and accurate beam of kinetic Energy from the Bane Mace that deals tremendous damage and knocks the target back. This is a sniper attack, but due to your high chance to hit, it is not interruptible.<br><br><color #fcfc95>Damage: Moderate.</color><br><color #fcfc95>Recharge: Slow.</color>",
  "display_short_help": "Sniper, Moderate DMG(Energy/Smash), Foe Knockback",
  "icon": "arachnos_patron_targetedrangedsnipe.png",
  "auto_issue": false,
  "auto_issue_keeps_level": false,
  "message_caster": null,
  "message_floater": null,
  "message_attacker_hit": null,
  "message_target_hit": null,
  "message_target_confirm": null,
  "message_float_reward": null,
  "message_defense_avoidance": null,
  "attack_types": [
    "Ranged",
    "Smashing",
    "Energy"
  ],
  "requires": "",
  "activate_requires": "",
  "accuracy": 1.05,
  "number_allowed": 1,
  "caster_near_ground": false,
  "target_near_ground": false,
  "cast_when_dead": "AliveOnly",
  "cast_through": [

  ],
  "toggle_ignores": [

  ],
  "ignore_level_gained": false,
  "works_on_untouchable": false,
  "works_through_vision_phase": false,
  "target_untargetable": false,
  "interrupt_like_sleep": false,
  "notify_ai_when": "Always",
  "effect_area": "SingleTarget",
  "max_targets_hit": 0,
  "radius": 0.0,
  "arc": 0.0,
  "range": 80.0,
  "range_secondary": 0.0,
  "activation_time": 2.0,
  "root_time": 2.0,
  "interrupt_time": 0.0,
  "recharge_time": 24.0,
  "activate_period": 0.0,
  "endurance_cost": 17.94,
  "cancelable": false,
  "self_confirm": false,
  "confirm_requires": "",
  "time_to_confirm": 0,
  "chain_delay": 0.0,
  "chain_effect_expr": "",
  "chain_forks": [

  ],
  "chain_into_power_name": null,
  "vec_box_offset": [
    0.0,
    0.0,
    0.0
  ],
  "vec_box_size": [
    0.0,
    0.0,
    0.0
  ],
  "number_of_charges": 0,
  "max_num_charges": 0,
  "destroy_on_last_use": true,
  "power_lifetime": 0.0,
  "max_power_lifetime": 0.0,
  "power_lifetime_ingame": 0.0,
  "max_power_lifetime_ingame": 0.0,
  "stacking_lifetime": false,
  "toggle_on_time": 0.0,
  "max_toggle_on_time": 0.0,
  "toggle_detoggle_time": 0.0,
  "toggle_droppable": "Sometimes",
  "ignore_toggle_max_distance": false,
  "target_type": "Foe (Alive)",
  "target_type_secondary": null,
  "target_visibility": "LineOfSight",
  "targets_affected": [
    "Foe (Alive)"
  ],
  "targets_autohit": [

  ],
  "target_requires": "",
  "proc_allowed": "All",
  "boosts_allowed": [
    "Reduce Interrupt Time",
    "Reduce Endurance Cost",
    "Enhance Range",
    "Enhance Recharge Speed",
    "Enhance KnockBack",
    "Enhance Damage",
    "Enhance Accuracy"
  ],
  "allowed_boostset_cats": [
    "Knockback",
    "Ranged Damage",
    "Sniper Attacks",
    "Universal Damage Sets"
  ],
  "exclusion_groups": [

  ],
  "modes_required": [

  ],
  "modes_disallowed": [
    "Disable_All"
  ],
  "recharge_groups": [

  ],
  "ignore_strength": false,
  "strengths_disallowed": [

  ],
  "global_strengths_disallowed": [

  ],
  "procs_only_on_main_target": false,
  "vars_attribmods_can_reference": [

  ],
  "show_buff_icon": true,
  "show_in_info": true,
  "show_in_manage": true,
  "show_in_inventory": "Show",
  "deletable": false,
  "tradeable": false,
  "do_not_save": false,
  "max_boosts": 6,
  "ignore_level_differences": false,
  "ignore_exemplar_for_bonuses": false,
  "boost_combinable": true,
  "boost_tradeable": true,
  "boost_account_bound": false,
  "boost_boostable": false,
  "boost_use_player_level": false,
  "boost_catalyzable": null,
  "boost_store_product": null,
  "boost_min_slot_level": -3,
  "boost_max_level": 50,
  "instance_locked": false,
  "is_environment_hit": false,
  "shuffle_target_list": false,
  "enforced_level_bought": -1,
  "refreshes_on_active_player_change": false,
  "highlight_expression": "",
  "highlight_icon": null,
  "highlight_color": "#00000000",
  "travel_suppression_time": 1.0,
  "server_tray_priority": 0,
  "server_tray_requires": "",
  "abusive_buff": true,
  "position_center": "kModTarget_Caster",
  "position_distance": 0.0,
  "position_height": 0.0,
  "position_yaw": 0.0,
  "face_target": true,
  "attrib_cache": [
    "Smashing_Dmg",
    "Energy_Dmg",
    "Knockback"
  ],
  "max_targets_expression": "",
  "chain_target_expr": "",
  "powerset": "Villain_Pets.Stalker_EpicMaceMastery_Snipe",
  "available_level": 34,
  "archetypes": [

  ],
  "redirect": [

  ],
  "effects": [
    {
      "tags": [

      ],
      "chance": 1.0,
      "ppm": 0.0,
      "delay": 0.0,
      "radius_inner": -1.0,
      "radius_outer": -1.0,
      "requires_expression": "target>enttype eq 'critter'",
      "flags": [

      ],
      "eval_flags": 4,
      "child_effects": [

      ],
      "templates": [
        {
          "attribs": [
            "Smashing_Dmg"
          ],
          "type": "Expression",
          "application_type": "OnTick",
          "aspect": "Absolute",
          "target": "AnyAffected",
          "table": "Melee_Damage",
          "scale": 0.875,
          "duration": "0 seconds",
          "magnitude": 1.0,
          "delay": 0.0,
          "duration_expression": "",
          "magnitude_expression": "@StdResult*(0.211*minmax(4.545*source>cur.kToHit - 3.409, -1, 1) + 1)",
          "application_period": 0.0,
          "tick_chance": 1.0,
          "jit_requires": "",
          "caster_stack": "Individual",
          "stack": "Stack",
          "stack_limit": 2,
          "stack_key": null,
          "cancel_events": [

          ],
          "boost_mod_allowed": "Science_Boost",
          "flags": [
            "ResistMagnitude (7)",
            "CombatModMagnitude (9)"
          ],
          "mode_name": null,
          "target_info": null,
          "messages": {
            "display_attacker_hit": "You hit {PlayerDest} with your {PowerName} for {Damage} points of Smashing damage.",
            "display_victim_hit": "{PlayerSource} hits you with their {PowerName} for {Damage} points of Smashing damage.",
            "display_float": null,
            "display_defense_float": null
          },
          "suppress_events": [

          ],
          "params": null,
          "fx": null
        },
        {
          "attribs": [
            "Energy_Dmg"
          ],
          "type": "Expression",
          "application_type": "OnTick",
          "aspect": "Absolute",
          "target": "AnyAffected",
          "table": "Melee_Damage",
          "scale": 0.875,
          "duration": "0 seconds",
          "magnitude": 1.0,
          "delay": 0.0,
          "duration_expression": "",
          "magnitude_expression": "@StdResult*(0.211*minmax(4.545*source>cur.kToHit - 3.409, -1, 1) + 1)",
          "application_period": 0.0,
          "tick_chance": 1.0,
          "jit_requires": "",
          "caster_stack": "Individual",
          "stack": "Stack",
          "stack_limit": 2,
          "stack_key": null,
          "cancel_events": [

          ],
          "boost_mod_allowed": "Science_Boost",
          "flags": [
            "ResistMagnitude (7)",
            "CombatModMagnitude (9)"
          ],
          "mode_name": null,
          "target_info": null,
          "messages": {
            "display_attacker_hit": "You hit {PlayerDest} with your {PowerName} for {Damage} points of Energy damage.",
            "display_victim_hit": "{PlayerSource} hits you with their {PowerName} for {Damage} points of Energy damage.",
            "display_float": null,
            "display_defense_float": null
          },
          "suppress_events": [

          ],
          "params": null,
          "fx": null
        },
        {
          "attribs": [
            "Knockback"
          ],
          "type": "Magnitude",
          "application_type": "OnTick",
          "aspect": "Current",
          "target": "AnyAffected",
          "table": "Melee_Ones",
          "scale": 2.0,
          "duration": "0 seconds",
          "magnitude": 1.0,
          "delay": 0.0,
          "duration_expression": "",
          "magnitude_expression": "",
          "application_period": 0.0,
          "tick_chance": 1.0,
          "jit_requires": "",
          "caster_stack": "Individual",
          "stack": "Stack",
          "stack_limit": 2,
          "stack_key": null,
          "cancel_events": [

          ],
          "boost_mod_allowed": "Science_Boost",
          "flags": [
            "ResistMagnitude (7)",
            "CombatModMagnitude (9)"
          ],
          "mode_name": null,
          "target_info": null,
          "messages": {
            "display_attacker_hit": "You knock {PlayerDest} off their feet with your {PowerName}!",
            "display_victim_hit": "{PlayerSource} knocks you off your feet with their {PowerName}!",
            "display_float": null,
            "display_defense_float": null
          },
          "suppress_events": [

          ],
          "params": null,
          "fx": null
        }
      ],
      "is_pvp": "EITHER"
    },
    {
      "tags": [

      ],
      "chance": 1.0,
      "ppm": 0.0,
      "delay": 0.0,
      "radius_inner": -1.0,
      "radius_outer": -1.0,
      "requires_expression": "target>enttype eq 'player'",
      "flags": [

      ],
      "eval_flags": 0,
      "child_effects": [

      ],
      "templates": [
        {
          "attribs": [
            "Smashing_Dmg"
          ],
          "type": "Magnitude",
          "application_type": "OnTick",
          "aspect": "Absolute",
          "target": "AnyAffected",
          "table": "Melee_PvPDamage",
          "scale": 1.38,
          "duration": "0 seconds",
          "magnitude": 1.0,
          "delay": 0.0,
          "duration_expression": "",
          "magnitude_expression": "",
          "application_period": 0.0,
          "tick_chance": 1.0,
          "jit_requires": "",
          "caster_stack": "Individual",
          "stack": "Stack",
          "stack_limit": 2,
          "stack_key": null,
          "cancel_events": [

          ],
          "boost_mod_allowed": "Science_Boost",
          "flags": [
            "ResistMagnitude (7)",
            "CombatModMagnitude (9)"
          ],
          "mode_name": null,
          "target_info": null,
          "messages": {
            "display_attacker_hit": "You hit {PlayerDest} with your {PowerName} for {Damage} points of Smashing damage.",
            "display_victim_hit": "{PlayerSource} hits you with their {PowerName} for {Damage} points of Smashing damage.",
            "display_float": null,
            "display_defense_float": null
          },
          "suppress_events": [

          ],
          "params": null,
          "fx": null
        },
        {
          "attribs": [
            "Energy_Dmg"
          ],
          "type": "Magnitude",
          "application_type": "OnTick",
          "aspect": "Absolute",
          "target": "AnyAffected",
          "table": "Melee_PvPDamage",
          "scale": 1.38,
          "duration": "0 seconds",
          "magnitude": 1.0,
          "delay": 0.0,
          "duration_expression": "",
          "magnitude_expression": "",
          "application_period": 0.0,
          "tick_chance": 1.0,
          "jit_requires": "",
          "caster_stack": "Individual",
          "stack": "Stack",
          "stack_limit": 2,
          "stack_key": null,
          "cancel_events": [

          ],
          "boost_mod_allowed": "Science_Boost",
          "flags": [
            "ResistMagnitude (7)",
            "CombatModMagnitude (9)"
          ],
          "mode_name": null,
          "target_info": null,
          "messages": {
            "display_attacker_hit": "You hit {PlayerDest} with your {PowerName} for {Damage} points of Energy damage.",
            "display_victim_hit": "{PlayerSource} hits you with their {PowerName} for {Damage} points of Energy damage.",
            "display_float": null,
            "display_defense_float": null
          },
          "suppress_events": [

          ],
          "params": null,
          "fx": null
        },
        {
          "attribs": [
            "Knockback"
          ],
          "type": "Magnitude",
          "application_type": "OnTick",
          "aspect": "Current",
          "target": "AnyAffected",
          "table": "Melee_Ones",
          "scale": 2.0,
          "duration": "0 seconds",
          "magnitude": 1.0,
          "delay": 0.0,
          "duration_expression": "",
          "magnitude_expression": "",
          "application_period": 0.0,
          "tick_chance": 1.0,
          "jit_requires": "",
          "caster_stack": "Individual",
          "stack": "Stack",
          "stack_limit": 2,
          "stack_key": null,
          "cancel_events": [

          ],
          "boost_mod_allowed": "Science_Boost",
          "flags": [
            "ResistMagnitude (7)",
            "CombatModMagnitude (9)"
          ],
          "mode_name": null,
          "target_info": null,
          "messages": {
            "display_attacker_hit": "You knock {PlayerDest} off their feet with your {PowerName}!",
            "display_victim_hit": "{PlayerSource} knocks you off your feet with their {PowerName}!",
            "display_float": null,
            "display_defense_float": null
          },
          "suppress_events": [
            {
              "event": "Knocked",
              "post_event_delay": 10,
              "always_suppress": false
            }
          ],
          "params": null,
          "fx": null
        }
      ],
      "is_pvp": "EITHER"
    },
    {
      "tags": [
        "StalkerOnly"
      ],
      "chance": 1.0,
      "ppm": 0.0,
      "delay": 0.0,
      "radius_inner": -1.0,
      "radius_outer": -1.0,
      "requires_expression": "source>arch eq 'Stalker'",
      "flags": [

      ],
      "eval_flags": 0,
      "child_effects": [
        {
          "tags": [
            "ASTeamCrit"
          ],
          "chance": 0.07,
          "ppm": 0.0,
          "delay": 0.0,
          "radius_inner": -1.0,
          "radius_outer": -1.0,
          "requires_expression": "target>enttype eq 'critter' && (source>kMeter < 0.9)",
          "flags": [

          ],
          "eval_flags": 4,
          "child_effects": [

          ],
          "templates": [
            {
              "attribs": [
                "Energy_Dmg"
              ],
              "type": "Expression",
              "application_type": "OnTick",
              "aspect": "Absolute",
              "target": "AnyAffected",
              "table": "Melee_Damage",
              "scale": 1.75,
              "duration": "0 seconds",
              "magnitude": 1.0,
              "delay": 0.0,
              "duration_expression": "",
              "magnitude_expression": "@StdResult*(0.314*minmax(4.545*source>cur.kToHit - 3.409, -1, 1) + 1)",
              "application_period": 0.0,
              "tick_chance": 1.0,
              "jit_requires": "",
              "caster_stack": "Individual",
              "stack": "Stack",
              "stack_limit": 2,
              "stack_key": null,
              "cancel_events": [

              ],
              "boost_mod_allowed": "Science_Boost",
              "flags": [
                "ResistMagnitude (7)",
                "CombatModMagnitude (9)"
              ],
              "mode_name": null,
              "target_info": null,
              "messages": {
                "display_attacker_hit": "You hit {PlayerDest} with your {PowerName} for {Damage} points of Energy damage [CRITICAL].",
                "display_victim_hit": "{PlayerSource} hits you with their {PowerName} for {Damage} points of Energy damage [CRITICAL].",
                "display_float": "CRITICAL",
                "display_defense_float": null
              },
              "suppress_events": [

              ],
              "params": null,
              "fx": null
            }
          ],
          "is_pvp": "EITHER"
        },
        {
          "tags": [
            "StealthCrit"
          ],
          "chance": 1.0,
          "ppm": 0.0,
          "delay": 0.0,
          "radius_inner": -1.0,
          "radius_outer": -1.0,
          "requires_expression": "target>enttype eq 'critter' && (source>kMeter > 0)",
          "flags": [

          ],
          "eval_flags": 4,
          "child_effects": [

          ],
          "templates": [
            {
              "attribs": [
                "Energy_Dmg"
              ],
              "type": "Expression",
              "application_type": "OnTick",
              "aspect": "Absolute",
              "target": "AnyAffected",
              "table": "Melee_Damage",
              "scale": 1.75,
              "duration": "0 seconds",
              "magnitude": 1.0,
              "delay": 0.0,
              "duration_expression": "",
              "magnitude_expression": "@StdResult*(0.314*minmax(4.545*source>cur.kToHit - 3.409, -1, 1) + 1)",
              "application_period": 0.0,
              "tick_chance": 1.0,
              "jit_requires": "",
              "caster_stack": "Individual",
              "stack": "Stack",
              "stack_limit": 2,
              "stack_key": null,
              "cancel_events": [

              ],
              "boost_mod_allowed": "Science_Boost",
              "flags": [
                "ResistMagnitude (7)",
                "CombatModMagnitude (9)"
              ],
              "mode_name": null,
              "target_info": null,
              "messages": {
                "display_attacker_hit": "You hit {PlayerDest} with your {PowerName} for {Damage} points of Energy damage [CRITICAL].",
                "display_victim_hit": "{PlayerSource} hits you with their {PowerName} for {Damage} points of Energy damage [CRITICAL].",
                "display_float": "CRITICAL",
                "display_defense_float": null
              },
              "suppress_events": [

              ],
              "params": null,
              "fx": null
            }
          ],
          "is_pvp": "EITHER"
        },
        {
          "tags": [
            "PvPCrit"
          ],
          "chance": 0.2,
          "ppm": 0.0,
          "delay": 0.0,
          "radius_inner": -1.0,
          "radius_outer": -1.0,
          "requires_expression": "target>enttype eq 'player' && (source>kMeter < 0.9) && ((target>kHeld > 0) || (target>kSleep > 0))",
          "flags": [

          ],
          "eval_flags": 0,
          "child_effects": [

          ],
          "templates": [
            {
              "attribs": [
                "Energy_Dmg"
              ],
              "type": "Magnitude",
              "application_type": "OnTick",
              "aspect": "Absolute",
              "target": "AnyAffected",
              "table": "Melee_PvPDamage",
              "scale": 2.76,
              "duration": "0 seconds",
              "magnitude": 1.0,
              "delay": 0.0,
              "duration_expression": "",
              "magnitude_expression": "",
              "application_period": 0.0,
              "tick_chance": 1.0,
              "jit_requires": "",
              "caster_stack": "Individual",
              "stack": "Stack",
              "stack_limit": 2,
              "stack_key": null,
              "cancel_events": [

              ],
              "boost_mod_allowed": "Science_Boost",
              "flags": [
                "ResistMagnitude (7)",
                "CombatModMagnitude (9)"
              ],
              "mode_name": null,
              "target_info": null,
              "messages": {
                "display_attacker_hit": "You hit {PlayerDest} with your {PowerName} for {Damage} points of Energy damage [CRITICAL].",
                "display_victim_hit": "{PlayerSource} hits you with their {PowerName} for {Damage} points of Energy damage [CRITICAL].",
                "display_float": "CRITICAL",
                "display_defense_float": null
              },
              "suppress_events": [

              ],
              "params": null,
              "fx": null
            }
          ],
          "is_pvp": "EITHER"
        },
        {
          "tags": [
            "PvPStealthCrit"
          ],
          "chance": 1.0,
          "ppm": 0.0,
          "delay": 0.0,
          "radius_inner": -1.0,
          "radius_outer": -1.0,
          "requires_expression": "target>enttype eq 'player' && (source>kMeter > 0)",
          "flags": [

          ],
          "eval_flags": 0,
          "child_effects": [

          ],
          "templates": [
            {
              "attribs": [
                "Energy_Dmg"
              ],
              "type": "Magnitude",
              "application_type": "OnTick",
              "aspect": "Absolute",
              "target": "AnyAffected",
              "table": "Melee_PvPDamage",
              "scale": 2.76,
              "duration": "0 seconds",
              "magnitude": 1.0,
              "delay": 0.0,
              "duration_expression": "",
              "magnitude_expression": "",
              "application_period": 0.0,
              "tick_chance": 1.0,
              "jit_requires": "",
              "caster_stack": "Individual",
              "stack": "Stack",
              "stack_limit": 2,
              "stack_key": null,
              "cancel_events": [

              ],
              "boost_mod_allowed": "Science_Boost",
              "flags": [
                "ResistMagnitude (7)",
                "CombatModMagnitude (9)"
              ],
              "mode_name": null,
              "target_info": null,
              "messages": {
                "display_attacker_hit": "You hit {PlayerDest} with your {PowerName} for {Damage} points of Energy damage [CRITICAL].",
                "display_victim_hit": "{PlayerSource} hits you with their {PowerName} for {Damage} points of Energy damage [CRITICAL].",
                "display_float": "CRITICAL",
                "display_defense_float": null
              },
              "suppress_events": [

              ],
              "params": null,
              "fx": null
            }
          ],
          "is_pvp": "EITHER"
        }
      ],
      "templates": [

      ],
      "is_pvp": "EITHER"
    },
    {
      "tags": [
        "ScrapperOnly"
      ],
      "chance": 1.0,
      "ppm": 0.0,
      "delay": 0.0,
      "radius_inner": -1.0,
      "radius_outer": -1.0,
      "requires_expression": "source>arch eq 'Scrapper'",
      "flags": [

      ],
      "eval_flags": 0,
      "child_effects": [
        {
          "tags": [
            "MLCrit",
            "ScrapperCrit_ST"
          ],
          "chance": 0.05,
          "ppm": 0.0,
          "delay": 0.0,
          "radius_inner": -1.0,
          "radius_outer": -1.0,
          "requires_expression": "target>arch eq 'Class_Minion_Grunt' || target>arch eq 'Class_Minion_Pets' || target>arch eq 'Class_Minion_Small' || target>arch eq 'Class_Minion_Swarm'",
          "flags": [

          ],
          "eval_flags": 4,
          "child_effects": [

          ],
          "templates": [
            {
              "attribs": [
                "Energy_Dmg"
              ],
              "type": "Expression",
              "application_type": "OnTick",
              "aspect": "Absolute",
              "target": "AnyAffected",
              "table": "Melee_Damage",
              "scale": 1.75,
              "duration": "0 seconds",
              "magnitude": 1.0,
              "delay": 0.0,
              "duration_expression": "",
              "magnitude_expression": "@StdResult*(0.314*minmax(4.545*source>cur.kToHit - 3.409, -1, 1) + 1)",
              "application_period": 0.0,
              "tick_chance": 1.0,
              "jit_requires": "",
              "caster_stack": "Individual",
              "stack": "Stack",
              "stack_limit": 2,
              "stack_key": null,
              "cancel_events": [

              ],
              "boost_mod_allowed": "Science_Boost",
              "flags": [
                "ResistMagnitude (7)",
                "CombatModMagnitude (9)"
              ],
              "mode_name": null,
              "target_info": null,
              "messages": {
                "display_attacker_hit": "You hit {PlayerDest} with your {PowerName} for {Damage} points of Energy damage [CRITICAL].",
                "display_victim_hit": "{PlayerSource} hits you with their {PowerName} for {Damage} points of Energy damage [CRITICAL].",
                "display_float": "CRITICAL",
                "display_defense_float": null
              },
              "suppress_events": [

              ],
              "params": null,
              "fx": null
            }
          ],
          "is_pvp": "EITHER"
        },
        {
          "tags": [
            "BossCrit",
            "ScrapperCrit_ST"
          ],
          "chance": 0.1,
          "ppm": 0.0,
          "delay": 0.0,
          "radius_inner": -1.0,
          "radius_outer": -1.0,
          "requires_expression": "!(target>arch eq 'Class_Minion_Grunt' || target>arch eq 'Class_Minion_Pets' || target>arch eq 'Class_Minion_Small' || target>arch eq 'Class_Minion_Swarm' || target>enttype eq 'player')",
          "flags": [

          ],
          "eval_flags": 4,
          "child_effects": [

          ],
          "templates": [
            {
              "attribs": [
                "Energy_Dmg"
              ],
              "type": "Expression",
              "application_type": "OnTick",
              "aspect": "Absolute",
              "target": "AnyAffected",
              "table": "Melee_Damage",
              "scale": 1.75,
              "duration": "0 seconds",
              "magnitude": 1.0,
              "delay": 0.0,
              "duration_expression": "",
              "magnitude_expression": "@StdResult*(0.314*minmax(4.545*source>cur.kToHit - 3.409, -1, 1) + 1)",
              "application_period": 0.0,
              "tick_chance": 1.0,
              "jit_requires": "",
              "caster_stack": "Individual",
              "stack": "Stack",
              "stack_limit": 2,
              "stack_key": null,
              "cancel_events": [

              ],
              "boost_mod_allowed": "Science_Boost",
              "flags": [
                "ResistMagnitude (7)",
                "CombatModMagnitude (9)"
              ],
              "mode_name": null,
              "target_info": null,
              "messages": {
                "display_attacker_hit": "You hit {PlayerDest} with your {PowerName} for {Damage} points of Energy damage [CRITICAL].",
                "display_victim_hit": "{PlayerSource} hits you with their {PowerName} for {Damage} points of Energy damage [CRITICAL].",
                "display_float": "CRITICAL",
                "display_defense_float": null
              },
              "suppress_events": [

              ],
              "params": null,
              "fx": null
            }
          ],
          "is_pvp": "PVE_ONLY"
        },
        {
          "tags": [
            "PlayerCrit",
            "ScrapperCrit_ST"
          ],
          "chance": 0.05,
          "ppm": 0.0,
          "delay": 0.0,
          "radius_inner": -1.0,
          "radius_outer": -1.0,
          "requires_expression": "target>enttype eq 'player'",
          "flags": [

          ],
          "eval_flags": 0,
          "child_effects": [

          ],
          "templates": [
            {
              "attribs": [
                "Energy_Dmg"
              ],
              "type": "Magnitude",
              "application_type": "OnTick",
              "aspect": "Absolute",
              "target": "AnyAffected",
              "table": "Melee_PvPDamage",
              "scale": 2.76,
              "duration": "0 seconds",
              "magnitude": 1.0,
              "delay": 0.0,
              "duration_expression": "",
              "magnitude_expression": "",
              "application_period": 0.0,
              "tick_chance": 1.0,
              "jit_requires": "",
              "caster_stack": "Individual",
              "stack": "Stack",
              "stack_limit": 2,
              "stack_key": null,
              "cancel_events": [

              ],
              "boost_mod_allowed": "Science_Boost",
              "flags": [
                "ResistMagnitude (7)",
                "CombatModMagnitude (9)"
              ],
              "mode_name": null,
              "target_info": null,
              "messages": {
                "display_attacker_hit": "You hit {PlayerDest} with your {PowerName} for {Damage} points of Energy damage [CRITICAL].",
                "display_victim_hit": "{PlayerSource} hits you with their {PowerName} for {Damage} points of Energy damage [CRITICAL].",
                "display_float": "CRITICAL",
                "display_defense_float": null
              },
              "suppress_events": [

              ],
              "params": null,
              "fx": null
            }
          ],
          "is_pvp": "EITHER"
        }
      ],
      "templates": [

      ],
      "is_pvp": "EITHER"
    }
  ],
  "activation_effects": [

  ],
  "fx": {
    "source_file": "MENU/POWERS/ANIMFX/PLAYERPOWERS/PATRON_MACEMASTERY_SNIPE_MACEBEAM_QUICK.PFX",
    "attack_bits": [
      20,
      132,
      139,
      394
    ],
    "block_bits": [

    ],
    "wind_up_bits": [

    ],
    "hit_bits": [
      49,
      681
    ],
    "death_bits": [

    ],
    "activation_bits": [
      20,
      132,
      187
    ],
    "deactivation_bits": [

    ],
    "initial_attack_bits": [
      20,
      132,
      139,
      394,
      187
    ],
    "continuing_bits": [

    ],
    "conditional_bits": [

    ],
    "activation_fx": "WEAPONS/CUSTOMWEAPON_ARACHNOSMACE.FX",
    "deactivation_fx": null,
    "attack_fx": "V_COV/ENEMYPOWERS/ARACHNOS/BANEMACE/BANEMACEBLAST.FX",
    "secondary_attack_fx": null,
    "hit_fx": "V_COV/ENEMYPOWERS/POLICEBOTBLAST/POLICEBOTBLASTHIT/POLICEBOTBLASTHIT.FX",
    "wind_up_fx": null,
    "block_fx": null,
    "death_fx": null,
    "initial_attack_fx": "V_COV/ENEMYPOWERS/ARACHNOS/BANEMACE/BANEMACEBLAST.FX",
    "continuing_fx": [
      "POWERS/DARKNESSCONTROL/CHILLOFNIGHTHITCONTNUING_SUBTRACTIVE.FX"
    ],
    "conditional_fx": [

    ],
    "mode_bits": [
      20,
      132,
      88
    ],
    "frames_before_hit": 36,
    "frames_before_secondary_hit": 0,
    "delayed_hit": true,
    "frames_attack": 60,
    "initial_frames_before_hit": 66,
    "initial_attack_fx_frame_delay": 30,
    "projectile_speed": 105.0,
    "secondary_projectile_speed": 0.0,
    "initial_frames_before_block": 0,
    "ignore_attack_time_errors": null,
    "frames_before_block": 0,
    "fx_important": false
  },
  "custom_fx": [

  ],
  "fx_only_on_main_target": false
}