{
  "name": "Crafted_Intangible_25",
  "display_name": "Crafted Intangible 25",
  "display_fullname": "Boosts.Crafted Intangible 25",
  "display_help": "Increases intangible duration by {Boost.Attrib.Mez.Scale}%.",
  "display_short_help": "Invention",
  "available_level": [
    0
  ],
  "source_file": "DEFS/POWERS/BOOSTS/CRAFTED_INTANGIBLE_25.POWERSETS",
  "requires": "",
  "power_names": [
    "Boosts.Crafted_Intangible_25.Crafted_Intangible_25"
  ],
  "power_display_names": [
    "Invention: Intangibility"
  ]
}