{
  "name": "Endgame_Training",
  "display_name": "Endgame Training",
  "display_fullname": "PraetorianResistance.Endgame Training",
  "display_help": "You aren't Invulnerable. Bullets don't bounce off of you, and if you are cut, you bleed. You are, however, tough, grizzled and strong willed. It takes more than a little cut to keep you down! Willpower offers a strong balance of healing, damage resistance and defense. While you have no real vulnerabilities, you can't quite deal with 'alpha strikes' as well as some other protective powers.",
  "display_short_help": "Endgame Training",
  "available_level": [
    0
  ],
  "source_file": "DEFS/POWERS/PRAETORIANRESISTANCE/ENDGAME_TRAINING.POWERSETS",
  "requires": "",
  "power_names": [
    "PraetorianResistance.Endgame_Training.Survivor"
  ],
  "power_display_names": [
    "Survivor"
  ]
}