{
  "name": "Coral_Guardian_Sentinel",
  "display_name": "Coral Guardian Sentinel",
  "display_fullname": "Villain Pets.Coral Guardian Sentinel",
  "display_help": "Leviathan Mastery",
  "display_short_help": "Leviathan Mastery",
  "available_level": [
    0,
    0,
    0,
    0,
    0,
    0,
    0,
    0
  ],
  "source_file": "DEFS/POWERS/VILLAIN_PETS/CORAL_GUARDIAN_SENTINEL.POWERSETS",
  "requires": "",
  "power_names": [
    "Villain_Pets.Coral_Guardian_Sentinel.Resistance",
    "Villain_Pets.Coral_Guardian_Sentinel.Self_Destruct",
    "Villain_Pets.Coral_Guardian_Sentinel.Heavy_Coral_Hammer",
    "Villain_Pets.Coral_Guardian_Sentinel.Heavy_Stunning_Blow",
    "Villain_Pets.Coral_Guardian_Sentinel.Coral_Dart",
    "Villain_Pets.Coral_Guardian_Sentinel.Coral_Spray",
    "Villain_Pets.Coral_Guardian_Sentinel.Water_Spray",
    "Villain_Pets.Coral_Guardian_Sentinel.Stone_Prison"
  ],
  "power_display_names": [
    "Resistance",
    "Self Destruct",
    "Heavy Coral Hammer",
    "Heavy Stunning Blow",
    "Coral Dart",
    "Coral Spray",
    "Water Spray",
    "Stone Prison"
  ]
}