{
  "name": "Crafted_Confuse_20",
  "display_name": "Crafted Confuse 20",
  "display_fullname": "Boosts.Crafted Confuse 20",
  "display_help": "Increases confuse duration by {Boost.Attrib.Mez.Scale}%.",
  "display_short_help": "Invention",
  "available_level": [
    0
  ],
  "source_file": "DEFS/POWERS/BOOSTS/CRAFTED_CONFUSE_20.POWERSETS",
  "requires": "",
  "power_names": [
    "Boosts.Crafted_Confuse_20.Crafted_Confuse_20"
  ],
  "power_display_names": [
    "Invention: Confusion Duration"
  ]
}