{
  "name": "Well_Debilitation",
  "display_name": "Well_Debilitation",
  "display_fullname": "MindsOfMayhem.Well Debilitation",
  "display_help": "Incarnate",
  "display_short_help": "Incarnate",
  "available_level": [
    0
  ],
  "source_file": "DEFS/POWERS/MINDSOFMAYHEM/WELL_DEBILITATION.POWERSETS",
  "requires": "",
  "power_names": [
    "MindsOfMayhem.Well_Debilitation.Debilitation"
  ],
  "power_display_names": [
    "Debilitation"
  ]
}