{
  "name": "Void_Ripper",
  "display_name": "Void Ripper",
  "display_fullname": "V Miscellaneous.Void Ripper",
  "display_help": "Void Ripper",
  "display_short_help": "Void Ripper",
  "available_level": [
    0,
    0,
    0,
    0,
    0
  ],
  "source_file": "DEFS/POWERS/V_MISCELLANEOUS/VOID_RIPPER.POWERSETS",
  "requires": "",
  "power_names": [
    "V_Miscellaneous.Void_Ripper.Shadow_Punch",
    "V_Miscellaneous.Void_Ripper.Smite",
    "V_Miscellaneous.Void_Ripper.Siphon_Life",
    "V_Miscellaneous.Void_Ripper.Gloom",
    "V_Miscellaneous.Void_Ripper.Life_Drain"
  ],
  "power_display_names": [
    "Shadow Punch",
    "Smite",
    "Siphon Life",
    "Gloom",
    "Life Drain"
  ]
}