{
  "name": "Snowbeast_Boss",
  "display_name": "Snowbeast Boss",
  "display_fullname": "Event.Snowbeast Boss",
  "display_help": "Winter Horde",
  "display_short_help": "Winter Horde",
  "available_level": [
    0,
    0,
    0,
    0
  ],
  "source_file": "DEFS/POWERS/EVENT/SNOWBEAST_BOSS.POWERSETS",
  "requires": "",
  "power_names": [
    "Event.Snowbeast_Boss.Ice_Blast",
    "Event.Snowbeast_Boss.Freeze_Ray",
    "Event.Snowbeast_Boss.Frost_Breath",
    "Event.Snowbeast_Boss.Frozen_Fists"
  ],
  "power_display_names": [
    "Ice Blast",
    "Freeze Ray",
    "Frost Breath",
    "Frozen Fists"
  ]
}