{
  "name": "SilentPowers",
  "display_name": "Temporary Powers",
  "display_fullname": "Temporary Powers.Temporary Powers",
  "display_help": "Temporary Powers",
  "display_short_help": "Temporary Powers",
  "available_level": [
    0,
    0,
    0,
    0,
    0,
    0,
    0,
    0,
    0,
    0,
    0,
    0,
    0,
    0,
    0,
    0,
    0,
    0,
    0,
    0,
    0,
    0,
    0,
    0,
    0,
    0,
    0,
    0,
    0,
    0,
    0,
    0,
    0,
    0,
    0,
    0,
    0,
    0,
    0,
    0,
    0,
    0,
    0,
    0,
    0,
    0,
    0,
    0,
    0,
    0,
    0,
    0,
    0,
    0,
    0,
    0,
    0,
    0,
    0,
    0,
    0,
    0,
    0,
    0,
    0,
    0,
    0,
    0,
    0,
    0,
    0,
    0,
    0,
    0,
    0,
    0,
    0,
    0,
    0,
    0,
    0,
    0,
    0,
    0,
    0,
    0,
    0,
    0,
    0,
    0,
    0,
    0,
    0,
    0,
    0,
    0,
    0,
    0,
    0,
    0,
    0,
    0,
    0,
    0,
    0,
    0,
    0,
    0
  ],
  "source_file": "DEFS/POWERS/TEMPORARY_POWERS/SILENTPOWERS.POWERSETS",
  "requires": "",
  "power_names": [
    "Temporary_Powers.SilentPowers.V_Ore_Exposure",
    "Temporary_Powers.SilentPowers.V_Sample_Exposure",
    "Temporary_Powers.SilentPowers.Resist_Damage1",
    "Temporary_Powers.SilentPowers.Resist_Damage2",
    "Temporary_Powers.SilentPowers.Resist_Damage3",
    "Temporary_Powers.SilentPowers.Resist_Damage4",
    "Temporary_Powers.SilentPowers.Resist_Damage5",
    "Temporary_Powers.SilentPowers.Resist_Damage6",
    "Temporary_Powers.SilentPowers.Resist_Damage7",
    "Temporary_Powers.SilentPowers.Resist_Damage8",
    "Temporary_Powers.SilentPowers.Resist_Damage9",
    "Temporary_Powers.SilentPowers.Resist_Damage10",
    "Temporary_Powers.SilentPowers.Resist_Damage11",
    "Temporary_Powers.SilentPowers.Resist_Damage12",
    "Temporary_Powers.SilentPowers.Resist_Damage13",
    "Temporary_Powers.SilentPowers.Resist_Damage14",
    "Temporary_Powers.SilentPowers.Resist_Damage15",
    "Temporary_Powers.SilentPowers.Damage_Vulnerability1",
    "Temporary_Powers.SilentPowers.Damage_Vulnerability2",
    "Temporary_Powers.SilentPowers.Damage_Vulnerability3",
    "Temporary_Powers.SilentPowers.Damage_Vulnerability4",
    "Temporary_Powers.SilentPowers.Damage_Vulnerability5",
    "Temporary_Powers.SilentPowers.Damage_Vulnerability6",
    "Temporary_Powers.SilentPowers.Damage_Vulnerability7",
    "Temporary_Powers.SilentPowers.Damage_Vulnerability8",
    "Temporary_Powers.SilentPowers.Damage_Vulnerability9",
    "Temporary_Powers.SilentPowers.Damage_Vulnerability10",
    "Temporary_Powers.SilentPowers.Damage_Vulnerability11",
    "Temporary_Powers.SilentPowers.Damage_Vulnerability12",
    "Temporary_Powers.SilentPowers.Damage_Vulnerability13",
    "Temporary_Powers.SilentPowers.Damage_Vulnerability14",
    "Temporary_Powers.SilentPowers.Damage_Vulnerability15",
    "Temporary_Powers.SilentPowers.Damage_Buff1",
    "Temporary_Powers.SilentPowers.Damage_Buff2",
    "Temporary_Powers.SilentPowers.Damage_Buff3",
    "Temporary_Powers.SilentPowers.Damage_Buff4",
    "Temporary_Powers.SilentPowers.Damage_Buff5",
    "Temporary_Powers.SilentPowers.Damage_Buff6",
    "Temporary_Powers.SilentPowers.Damage_Buff7",
    "Temporary_Powers.SilentPowers.Damage_Buff8",
    "Temporary_Powers.SilentPowers.Damage_Buff9",
    "Temporary_Powers.SilentPowers.Damage_Buff10",
    "Temporary_Powers.SilentPowers.Damage_Buff11",
    "Temporary_Powers.SilentPowers.Damage_Buff12",
    "Temporary_Powers.SilentPowers.Damage_Buff13",
    "Temporary_Powers.SilentPowers.Damage_Buff14",
    "Temporary_Powers.SilentPowers.Damage_Buff15",
    "Temporary_Powers.SilentPowers.Damage_DeBuff1",
    "Temporary_Powers.SilentPowers.Damage_DeBuff2",
    "Temporary_Powers.SilentPowers.Damage_DeBuff3",
    "Temporary_Powers.SilentPowers.Damage_DeBuff4",
    "Temporary_Powers.SilentPowers.Damage_DeBuff5",
    "Temporary_Powers.SilentPowers.Damage_DeBuff6",
    "Temporary_Powers.SilentPowers.Damage_DeBuff7",
    "Temporary_Powers.SilentPowers.Damage_DeBuff8",
    "Temporary_Powers.SilentPowers.Damage_DeBuff9",
    "Temporary_Powers.SilentPowers.Damage_DeBuff10",
    "Temporary_Powers.SilentPowers.Damage_DeBuff11",
    "Temporary_Powers.SilentPowers.Damage_DeBuff12",
    "Temporary_Powers.SilentPowers.Damage_DeBuff13",
    "Temporary_Powers.SilentPowers.Damage_DeBuff14",
    "Temporary_Powers.SilentPowers.Damage_DeBuff15",
    "Temporary_Powers.SilentPowers.Paradox_Core_Eternity",
    "Temporary_Powers.SilentPowers.Limitless_Radial_Freeeem",
    "Temporary_Powers.SilentPowers.Divine_Core_Oscillation",
    "Temporary_Powers.SilentPowers.Divine_Core_Oscillation_Icon",
    "Temporary_Powers.SilentPowers.Sequestored",
    "Temporary_Powers.SilentPowers.Ignored",
    "Temporary_Powers.SilentPowers.Drain_Power_Cells",
    "Temporary_Powers.SilentPowers.RemoveFlames",
    "Temporary_Powers.SilentPowers.CoralaxAmulet_MessageDelay",
    "Temporary_Powers.SilentPowers.ArrestedCFMLeader_MessageDelay",
    "Temporary_Powers.SilentPowers.HelpedCFMLeader_MessageDelay",
    "Temporary_Powers.SilentPowers.DeadCFMLeader_MessageDelay",
    "Temporary_Powers.SilentPowers.Exclusive_Phasing_Test",
    "Temporary_Powers.SilentPowers.See_No_Other_Players_Test",
    "Temporary_Powers.SilentPowers.Hellion_Disguise",
    "Temporary_Powers.SilentPowers.Reporter_Disguise",
    "Temporary_Powers.SilentPowers.Arachnos_Disguise",
    "Temporary_Powers.SilentPowers.Video_Camera",
    "Temporary_Powers.SilentPowers.Slow_Field",
    "Temporary_Powers.SilentPowers.Terminal_Field",
    "Temporary_Powers.SilentPowers.Terminal_Teleport",
    "Temporary_Powers.SilentPowers.Summon_Adamastor_Silent",
    "Temporary_Powers.SilentPowers.I22_Arachnos_Disguise",
    "Temporary_Powers.SilentPowers.Inner_Inspiration_Lock",
    "Temporary_Powers.SilentPowers.Night_Ward",
    "Temporary_Powers.SilentPowers.Summer_Event_Stealth_Revoke",
    "Temporary_Powers.SilentPowers.Summer_Event_Heist_Hitter",
    "Temporary_Powers.SilentPowers.Summer_Event_Heist_Hacker",
    "Temporary_Powers.SilentPowers.Summer_Event_Heist_Grifter",
    "Temporary_Powers.SilentPowers.Summer_Event_Heist_Thief",
    "Temporary_Powers.SilentPowers.Summer_Event_Heist_Hitter_Revoke",
    "Temporary_Powers.SilentPowers.Summer_Event_Heist_Hacker_Revoke",
    "Temporary_Powers.SilentPowers.Summer_Event_Heist_Grifter_Revoke",
    "Temporary_Powers.SilentPowers.Summer_Event_Heist_Thief_Revoke",
    "Temporary_Powers.SilentPowers.Summer_Event_Role_Lockout",
    "Temporary_Powers.SilentPowers.Summer_Event_Heist_Teleport_A",
    "Temporary_Powers.SilentPowers.Summer_Event_Heist_Teleport_B",
    "Temporary_Powers.SilentPowers.Summer_Event_Heist_Teleport_C",
    "Temporary_Powers.SilentPowers.Summer_Event_Heist_Hitter_ExpRevoke",
    "Temporary_Powers.SilentPowers.Summer_Event_Heist_Hacker_ExpRevoke",
    "Temporary_Powers.SilentPowers.Summer_Event_Heist_Grifter_ExpRevoke",
    "Temporary_Powers.SilentPowers.Summer_Event_Heist_Thief_ExpRevoke",
    "Temporary_Powers.SilentPowers.Summer_Event_Administrator_Revoke",
    "Temporary_Powers.SilentPowers.Summer_Event_Administrator_Grant",
    "Temporary_Powers.SilentPowers.Long_Range_Teleport",
    "Temporary_Powers.SilentPowers.prestige_Base_Teleport"
  ],
  "power_display_names": [
    "Ore Exposure",
    "Sample Exposure",
    "Galvanized",
    "Galvanized",
    "Galvanized",
    "Galvanized",
    "Galvanized",
    "Galvanized",
    "Galvanized",
    "Galvanized",
    "Galvanized",
    "Galvanized",
    "Galvanized",
    "Galvanized",
    "Galvanized",
    "Galvanized",
    "Galvanized",
    "Staggered",
    "Staggered",
    "Staggered",
    "Staggered",
    "Staggered",
    "Staggered",
    "Staggered",
    "Staggered",
    "Staggered",
    "Staggered",
    "Staggered",
    "Staggered",
    "Staggered",
    "Staggered",
    "Staggered",
    "Impassioned",
    "Impassioned",
    "Impassioned",
    "Impassioned",
    "Impassioned",
    "Impassioned",
    "Impassioned",
    "Impassioned",
    "Impassioned",
    "Impassioned",
    "Impassioned",
    "Impassioned",
    "Impassioned",
    "Impassioned",
    "Impassioned",
    "Enfeebled",
    "Enfeebled",
    "Enfeebled",
    "Enfeebled",
    "Enfeebled",
    "Enfeebled",
    "Enfeebled",
    "Enfeebled",
    "Enfeebled",
    "Enfeebled",
    "Enfeebled",
    "Enfeebled",
    "Enfeebled",
    "Enfeebled",
    "Enfeebled",
    "Paradox Core Eternity",
    "Limitless Radial Freeeem",
    "Divine Core Oscillation",
    "Divine Core Oscillation",
    "Sequestered",
    "Ignored",
    "Drain Power Cells",
    "RemoveFlames",
    "CoralaxAmulet MessageDelay",
    "ArrestedCFMLeader MessageDelay",
    "HelpedCFMLeader MessageDelay",
    "DeadCFMLeader MessageDelay",
    "Exclusive Phasing Test",
    "See No Other Players Test",
    "Hellion Disguise",
    "Reporter Disguise",
    "Arachnos Disguise",
    "Video Camera",
    "Slow Field",
    "Terminal Field",
    "Terminal Teleport",
    "Summon Adamastor",
    "Arachnos Disguise",
    "Inner Inspiration Lock",
    "Night Ward",
    "Summer Event Stealth Revoke",
    "The Hitter",
    "The Hacker",
    "The Grifter",
    "The Thief",
    "No Longer the Hitter",
    "No Longer the Hacker",
    "No Longer the Grifter",
    "No Longer the Thief",
    "Role Lockout",
    "Begin the Heist",
    "Begin the Heist",
    "Begin the Heist",
    "Hitter Explained",
    "Hacker Explained",
    "Grifter Explained",
    "Thief Explained",
    "Summer Event Administrator Revoke",
    "Summer Event Administrator Grant",
    "LRT Zone Check",
    "BT Zone Check"
  ]
}