{
  "name": "Spring_Attack",
  "display_name": "Spring Attack",
  "display_fullname": "Pets.Spring Attack",
  "display_help": "Spring Attack",
  "display_short_help": "Spring Attack",
  "available_level": [
    0
  ],
  "source_file": "DEFS/POWERS/PETS/SPRING_ATTACK.POWERSETS",
  "requires": "",
  "power_names": [
    "Pets.Spring_Attack.Spring_Attack"
  ],
  "power_display_names": [
    "Spring Attack"
  ]
}