{
  "name": "Crafted_Perplex_E",
  "display_name": "Crafted Perplex E",
  "display_fullname": "Boosts.Crafted Perplex E",
  "display_help": "Enhances the accuracy of a power by {Boost.Attrib.Accuracy.Scale}%, Confuse duration by {Boost.Attrib.Mez.Scale}% and reduces the attack rate by {Boost.Attrib.RechargeTime.Scale}%.",
  "display_short_help": "Set: Perplex",
  "available_level": [
    0
  ],
  "source_file": "DEFS/POWERS/BOOSTS/CRAFTED_PERPLEX_E.POWERSETS",
  "requires": "",
  "power_names": [
    "Boosts.Crafted_Perplex_E.Crafted_Perplex_E"
  ],
  "power_display_names": [
    "Perplex: Accuracy/Confuse/Recharge"
  ]
}