{
  "name": "Blaster_Ninja_Training",
  "display_name": "Tanker Melee",
  "display_fullname": "Redirects.Tanker Melee",
  "display_help": "These powers are used by stalker redirect powers.",
  "display_short_help": "Tanker Melee",
  "available_level": [
    0
  ],
  "source_file": "DEFS/POWERS/REDIRECTS/BLASTER_NINJA_TRAINING.POWERSETS",
  "requires": "",
  "power_names": [
    "Redirects.Blaster_Ninja_Training.Shinobi_Proc"
  ],
  "power_display_names": [
    "Shinobi Skills"
  ]
}