{
  "name": "Crafted_Enfeebled_Operation_A",
  "display_name": "Crafted Enfeebled Operation A",
  "display_fullname": "Boosts.Crafted Enfeebled Operation A",
  "display_help": "Enhances the accuracy of a power by {Boost.Attrib.Accuracy.Scale}% and reduces the recharge time of a power by {Boost.Attrib.RechargeTime.Scale}%.",
  "display_short_help": "Set: Enfeebled Operation",
  "available_level": [
    0
  ],
  "source_file": "DEFS/POWERS/BOOSTS/CRAFTED_ENFEEBLED_OPERATION_A.POWERSETS",
  "requires": "",
  "power_names": [
    "Boosts.Crafted_Enfeebled_Operation_A.Crafted_Enfeebled_Operation_A"
  ],
  "power_display_names": [
    "Enfeebled Operation: Accuracy/Recharge"
  ]
}