{
  "name": "Crafted_Basilisks_Gaze_A",
  "display_name": "Crafted Basilisks Gaze A",
  "display_fullname": "Boosts.Crafted Basilisks Gaze A",
  "display_help": "Enhances the accuracy of a power by {Boost.Attrib.Accuracy.Scale}% and hold duration of a power by {Boost.Attrib.Mez.Scale}%.",
  "display_short_help": "Set: Basilisk's Gaze",
  "available_level": [
    0
  ],
  "source_file": "DEFS/POWERS/BOOSTS/CRAFTED_BASILISKS_GAZE_A.POWERSETS",
  "requires": "",
  "power_names": [
    "Boosts.Crafted_Basilisks_Gaze_A.Crafted_Basilisks_Gaze_A"
  ],
  "power_display_names": [
    "Basilisk's Gaze: Accuracy/Hold"
  ]
}