{
  "name": "Hellfire_Demonling",
  "display_name": "Hellfire Demonling",
  "display_fullname": "Mastermind Pets.Hellfire Demonling",
  "display_help": "Demons",
  "display_short_help": "Demons",
  "available_level": [
    0,
    0,
    0,
    0
  ],
  "source_file": "DEFS/POWERS/MASTERMIND_PETS/HELLFIRE_DEMONLING.POWERSETS",
  "requires": "",
  "power_names": [
    "Mastermind_Pets.Hellfire_Demonling.Resistance",
    "Mastermind_Pets.Hellfire_Demonling.Corruption",
    "Mastermind_Pets.Hellfire_Demonling.Claw_Rake",
    "Mastermind_Pets.Hellfire_Demonling.Super_Leap"
  ],
  "power_display_names": [
    "Resistance",
    "Corruption",
    "Claw Rake",
    "Super Leap"
  ]
}