{
  "name": "Freakshow_Freaks_Mad_Freaks_Shotgun",
  "display_name": "Freakshow_Freaks_Mad_Freaks_Shotgun",
  "display_fullname": "Freakshow.Freakshow Freaks Mad Freaks Shotgun",
  "display_help": "Freakshow",
  "display_short_help": "Freakshow",
  "available_level": [
    0
  ],
  "source_file": "DEFS/POWERS/FREAKSHOW/FREAKSHOW_FREAKS_MAD_FREAKS_SHOTGUN.POWERSETS",
  "requires": "",
  "power_names": [
    "Freakshow.Freakshow_Freaks_Mad_Freaks_Shotgun.Shotgun"
  ],
  "power_display_names": [
    "Shotgun"
  ]
}