{
  "name": "Crafted_Numinas_Convalesence_B",
  "display_name": "Crafted Numina's Convalescence B",
  "display_fullname": "Boosts.Crafted Numinas Convalesence B",
  "display_help": "Reduces the endurance cost of a power by {Boost.Attrib.Endurance.Scale}% and recharge time by {Boost.Attrib.RechargeTime.Scale}%.",
  "display_short_help": "Set: Numinas Convalescence",
  "available_level": [
    0
  ],
  "source_file": "DEFS/POWERS/BOOSTS/CRAFTED_NUMINAS_CONVALESENCE_B.POWERSETS",
  "requires": "",
  "power_names": [
    "Boosts.Crafted_Numinas_Convalesence_B.Crafted_Numinas_Convalesence_B"
  ],
  "power_display_names": [
    "Numina's Convalescence: Endurance/Recharge"
  ]
}