{
  "name": "Crafted_Expedient_Reinforcement_A",
  "display_name": "Crafted Expedient Reinforcement A",
  "display_fullname": "Boosts.Crafted Expedient Reinforcement A",
  "display_help": "Enhances the accuracy of a power by {Boost.Attrib.Accuracy.Scale}% and reduces the attack rate by {Boost.Attrib.RechargeTime.Scale}%.",
  "display_short_help": "Set: Expedient Reinforcement",
  "available_level": [
    0
  ],
  "source_file": "DEFS/POWERS/BOOSTS/CRAFTED_EXPEDIENT_REINFORCEMENT_A.POWERSETS",
  "requires": "",
  "power_names": [
    "Boosts.Crafted_Expedient_Reinforcement_A.Crafted_Expedient_Reinforcement_A"
  ],
  "power_display_names": [
    "Expedient Reinforcement: Accuracy/Recharge"
  ]
}