{
  "name": "Crafted_Glimpse_of_the_Abyss_C",
  "display_name": "Crafted Glimpse of the Abyss C",
  "display_fullname": "Boosts.Crafted Glimpse of the Abyss C",
  "display_help": "Enhances the accuracy by {Boost.Attrib.Accuracy.Scale}% and reduces the endurance cost of a power by {Boost.Attrib.Endurance.Scale}%.",
  "display_short_help": "Set: Glimpse of the Abyss",
  "available_level": [
    0
  ],
  "source_file": "DEFS/POWERS/BOOSTS/CRAFTED_GLIMPSE_OF_THE_ABYSS_C.POWERSETS",
  "requires": "",
  "power_names": [
    "Boosts.Crafted_Glimpse_of_the_Abyss_C.Crafted_Glimpse_of_the_Abyss_C"
  ],
  "power_display_names": [
    "Glimpse of the Abyss: Accuracy/Endurance"
  ]
}