{
  "name": "ObeliskWail",
  "display_name": "",
  "display_fullname": "OneWillDie Issue1Powers.ObeliskWail",
  "display_help": "Obelisk",
  "display_short_help": "Obelisk",
  "available_level": [
    0,
    0
  ],
  "source_file": "DEFS/POWERS/ONEWILLDIE_ISSUE1POWERS/OBELISKWAIL.POWERSETS",
  "requires": "",
  "power_names": [
    "OneWillDie_Issue1Powers.ObeliskWail.Wail_Tell",
    "OneWillDie_Issue1Powers.ObeliskWail.Psychic_Wail"
  ],
  "power_display_names": [
    "Wail Tell",
    "Psychic Wail"
  ]
}