{
  "name": "Technology_Defense_DeBuff",
  "display_name": "Technology Defense DeBuff",
  "display_fullname": "Boosts.Technology Defense DeBuff",
  "display_help": "Enhances the effectiveness of defense debuffs.",
  "display_short_help": "Cybernetics (Technology)",
  "available_level": [
    0
  ],
  "source_file": "DEFS/POWERS/BOOSTS/TECHNOLOGY_DEFENSE_DEBUFF.POWERSETS",
  "requires": "",
  "power_names": [
    "Boosts.Technology_Defense_DeBuff.Technology_Defense_DeBuff"
  ],
  "power_display_names": [
    "Portacio Ind Nanodisintegrators (Defense DeBuff)"
  ]
}