{
  "name": "Attuned_Executioners_Contract_C",
  "display_name": "Attuned Executioners Contract C",
  "display_fullname": "Boosts.Attuned Executioners Contract C",
  "display_help": "Enhances the damage of a power by {Boost.Attrib.Damage.Scale}% and reduces interrupt time by {Boost.Attrib.InterruptTime.Scale}%.",
  "display_short_help": "Set: Executioners Contract",
  "available_level": [
    0
  ],
  "source_file": "DEFS/POWERS/BOOSTS/ATTUNED_EXECUTIONERS_CONTRACT_C.POWERSETS",
  "requires": "",
  "power_names": [
    "Boosts.Attuned_Executioners_Contract_C.Attuned_Executioners_Contract_C"
  ],
  "power_display_names": [
    "Executioners Contract: Damage/Interrupt"
  ]
}