{
  "name": "Attuned_Essence_Transfer_F",
  "display_name": "Attuned Essence Transfer F",
  "display_fullname": "Boosts.Attuned Essence Transfer F",
  "display_help": "UNIQUE -- No more than 1 enhancement of this type may be slotted by a character. This enhancement gives many of your damaging powers a 12% chance to heal you for a minor amount. Additionally, this enhancement reduces recharge time by {Boost.Attrib.RechargeTime.Scale}%. This enhancement can only be slotted by Peacebringers and Warshades and may be slotted into any of their damage powers.",
  "display_short_help": "Set: Essence Transfer",
  "available_level": [
    0
  ],
  "source_file": "DEFS/POWERS/BOOSTS/ATTUNED_ESSENCE_TRANSFER_F.POWERSETS",
  "requires": "",
  "power_names": [
    "Boosts.Attuned_Essence_Transfer_F.Attuned_Essence_Transfer_F"
  ],
  "power_display_names": [
    "Essence Transfer: Recharge/Global Heal Proc (Kheldian)"
  ]
}