{
  "name": "Crafted_Multi_Strike_E",
  "display_name": "Crafted Multi-Strike E",
  "display_fullname": "Boosts.Crafted Multi Strike E",
  "display_help": "Enhances the accuracy of a power by {Boost.Attrib.Accuracy.Scale}% and damage by {Boost.Attrib.Damage.Scale}% and reduces endurance cost by {Boost.Attrib.Endurance.Scale}%.",
  "display_short_help": "Set: Multi-Strike",
  "available_level": [
    0
  ],
  "source_file": "DEFS/POWERS/BOOSTS/CRAFTED_MULTI_STRIKE_E.POWERSETS",
  "requires": "",
  "power_names": [
    "Boosts.Crafted_Multi_Strike_E.Crafted_Multi_Strike_E"
  ],
  "power_display_names": [
    "Multi-Strike: Accuracy/Damage/Endurance"
  ]
}