{
  "name": "CoV_CopperSerpent_High",
  "display_name": "CoV CopperSerpent High",
  "display_fullname": "Tsoo.CoV CopperSerpent High",
  "display_help": "Tsoo",
  "display_short_help": "Tsoo",
  "available_level": [
    0
  ],
  "source_file": "DEFS/POWERS/TSOO/COV_COPPERSERPENT_HIGH.POWERSETS",
  "requires": "",
  "power_names": [
    "Tsoo.CoV_CopperSerpent_High.Ripper"
  ],
  "power_display_names": [
    "Ripper"
  ]
}