{
  "name": "Generic_Knockback",
  "display_name": "Generic Knockback",
  "display_fullname": "Boosts.Generic Knockback",
  "display_help": "Increases the knockback and knockup distance.",
  "display_short_help": "Training (All Origins)",
  "available_level": [
    0
  ],
  "source_file": "DEFS/POWERS/BOOSTS/GENERIC_KNOCKBACK.POWERSETS",
  "requires": "",
  "power_names": [
    "Boosts.Generic_Knockback.Generic_Knockback"
  ],
  "power_display_names": [
    "Training: Knockback Distance"
  ]
}