{
  "name": "Technology_Natural_Accuracy",
  "display_name": "Technology Natural Accuracy",
  "display_fullname": "Boosts.Technology Natural Accuracy",
  "display_help": "Increases the accuracy of a power.",
  "display_short_help": "Gadget (Technology, Natural)",
  "available_level": [
    0
  ],
  "source_file": "DEFS/POWERS/BOOSTS/TECHNOLOGY_NATURAL_ACCURACY.POWERSETS",
  "requires": "",
  "power_names": [
    "Boosts.Technology_Natural_Accuracy.Technology_Natural_Accuracy"
  ],
  "power_display_names": [
    "Illumination Grenade (Accuracy)"
  ]
}