{
  "name": "Brute_Melee",
  "display_name": "Brute Melee",
  "display_fullname": "Redirects.Brute Melee",
  "display_help": "These powers are used by stalker redirect powers.",
  "display_short_help": "Brute Melee",
  "available_level": [
    31
  ],
  "source_file": "DEFS/POWERS/REDIRECTS/BRUTE_MELEE.POWERSETS",
  "requires": "",
  "power_names": [
    "Redirects.Brute_Melee.Savage_Leap"
  ],
  "power_display_names": [
    "Savage Leap"
  ]
}