{
  "name": "Technology_Natural_Range",
  "display_name": "Technology Natural Range",
  "display_fullname": "Boosts.Technology Natural Range",
  "display_help": "Enhances the range of a power.",
  "display_short_help": "Gadget (Technology, Natural)",
  "available_level": [
    0
  ],
  "source_file": "DEFS/POWERS/BOOSTS/TECHNOLOGY_NATURAL_RANGE.POWERSETS",
  "requires": "",
  "power_names": [
    "Boosts.Technology_Natural_Range.Technology_Natural_Range"
  ],
  "power_display_names": [
    "Reach Device (Range)"
  ]
}