{
  "name": "Crafted_Annihilation_E",
  "display_name": "Crafted Annihilation E",
  "display_fullname": "Boosts.Crafted Annihilation E",
  "display_help": "Enhances the accuracy of a power by {Boost.Attrib.Accuracy.Scale}% and damage by {Boost.Attrib.Damage.Scale}%, reduces endurance cost by {Boost.Attrib.Endurance.Scale}% and reduces recharge time by {Boost.Attrib.RechargeTime.Scale}%.",
  "display_short_help": "Set: Annihilation",
  "available_level": [
    0
  ],
  "source_file": "DEFS/POWERS/BOOSTS/CRAFTED_ANNIHILATION_E.POWERSETS",
  "requires": "",
  "power_names": [
    "Boosts.Crafted_Annihilation_E.Crafted_Annihilation_E"
  ],
  "power_display_names": [
    "Annihilation: Accuracy/Damage/Recharge/Endurance"
  ]
}