{
  "name": "Chimera_Katana_Ninja",
  "display_name": "Chimera_Katana_Ninja",
  "display_fullname": "Praetorians.Chimera Katana Ninja",
  "display_help": "Praetorians",
  "display_short_help": "Praetorians",
  "available_level": [
    0,
    0
  ],
  "source_file": "DEFS/POWERS/PRAETORIANS/CHIMERA_KATANA_NINJA.POWERSETS",
  "requires": "",
  "power_names": [
    "Praetorians.Chimera_Katana_Ninja.Hack",
    "Praetorians.Chimera_Katana_Ninja.Slash"
  ],
  "power_display_names": [
    "Hack",
    "Slash"
  ]
}