{
  "name": "Empowering_Circuit",
  "full_name": "Controller_Buff.Shock_Therapy.Empowering_Circuit",
  "type": "Click",
  "display_name": "Empowering Circuit",
  "display_fullname": "Controller Buff.Electrical Affinity.Empowering Circuit",
  "display_help": "Create a circuit of empowering energy between several nearby allies, increasing their damage output and chance to hit for a short time. Every stack of Static you have will cause this power to chain to additional allies. The first few targets in the chain receive a more potent effect. Empowering Circuit grants 1 stack of Static.<br><br><color #fcfc95>Recharge: Slow.</color>",
  "display_short_help": "Ranged (Chain), Ally +DMG, +Tohit, Self +Static",
  "icon": "shocktherapy_empoweringcircuit.png",
  "auto_issue": false,
  "auto_issue_keeps_level": false,
  "message_caster": null,
  "message_floater": null,
  "message_attacker_hit": null,
  "message_target_hit": null,
  "message_target_confirm": null,
  "message_float_reward": null,
  "message_defense_avoidance": null,
  "attack_types": [
    "Ranged"
  ],
  "requires": "",
  "activate_requires": "",
  "accuracy": 1.0,
  "number_allowed": 1,
  "caster_near_ground": false,
  "target_near_ground": false,
  "cast_when_dead": "AliveOnly",
  "cast_through": [

  ],
  "toggle_ignores": [

  ],
  "ignore_level_gained": false,
  "works_on_untouchable": false,
  "works_through_vision_phase": false,
  "target_untargetable": false,
  "interrupt_like_sleep": false,
  "notify_ai_when": "Always",
  "effect_area": "Chain",
  "max_targets_hit": 5,
  "radius": 25.0,
  "arc": 0.0,
  "range": 80.0,
  "range_secondary": 0.0,
  "activation_time": 1.0,
  "root_time": 0.0,
  "interrupt_time": 0.0,
  "recharge_time": 15.0,
  "activate_period": 0.0,
  "endurance_cost": 13.0,
  "cancelable": true,
  "self_confirm": false,
  "confirm_requires": "",
  "time_to_confirm": 0,
  "chain_delay": 0.1,
  "chain_effect_expr": "minmax(1.25 - 0.25*@ChainJump, 0.5, 1)",
  "chain_forks": [
    3
  ],
  "chain_into_power_name": null,
  "vec_box_offset": [
    0.0,
    0.0,
    0.0
  ],
  "vec_box_size": [
    0.0,
    0.0,
    0.0
  ],
  "number_of_charges": 0,
  "max_num_charges": 0,
  "destroy_on_last_use": true,
  "power_lifetime": 0.0,
  "max_power_lifetime": 0.0,
  "power_lifetime_ingame": 0.0,
  "max_power_lifetime_ingame": 0.0,
  "stacking_lifetime": false,
  "toggle_on_time": 0.0,
  "max_toggle_on_time": 0.0,
  "toggle_detoggle_time": 0.0,
  "toggle_droppable": "Sometimes",
  "ignore_toggle_max_distance": false,
  "target_type": "Ally (Alive)",
  "target_type_secondary": null,
  "target_visibility": "LineOfSight",
  "targets_affected": [
    "Ally (Alive)",
    "Self"
  ],
  "targets_autohit": [
    "Ally (Alive)",
    "Self"
  ],
  "target_requires": "",
  "proc_allowed": "All",
  "boosts_allowed": [
    "Reduce Endurance Cost",
    "Enhance Range",
    "Enhance Recharge Speed",
    "Enhance ToHit Buffs"
  ],
  "allowed_boostset_cats": [
    "To Hit Buff"
  ],
  "exclusion_groups": [

  ],
  "modes_required": [

  ],
  "modes_disallowed": [
    "Disable_All"
  ],
  "recharge_groups": [

  ],
  "ignore_strength": false,
  "strengths_disallowed": [

  ],
  "global_strengths_disallowed": [

  ],
  "procs_only_on_main_target": false,
  "vars_attribmods_can_reference": [

  ],
  "show_buff_icon": true,
  "show_in_info": true,
  "show_in_manage": true,
  "show_in_inventory": "Show",
  "deletable": false,
  "tradeable": false,
  "do_not_save": false,
  "max_boosts": 6,
  "ignore_level_differences": false,
  "ignore_exemplar_for_bonuses": false,
  "boost_combinable": true,
  "boost_tradeable": true,
  "boost_account_bound": false,
  "boost_boostable": false,
  "boost_use_player_level": false,
  "boost_catalyzable": null,
  "boost_store_product": null,
  "boost_min_slot_level": -3,
  "boost_max_level": 50,
  "instance_locked": false,
  "is_environment_hit": false,
  "shuffle_target_list": false,
  "enforced_level_bought": -1,
  "refreshes_on_active_player_change": false,
  "highlight_expression": "",
  "highlight_icon": null,
  "highlight_color": "#00000000",
  "travel_suppression_time": 4.0,
  "server_tray_priority": 0,
  "server_tray_requires": "",
  "abusive_buff": true,
  "position_center": "kModTarget_Caster",
  "position_distance": 0.0,
  "position_height": 0.0,
  "position_yaw": 0.0,
  "face_target": true,
  "attrib_cache": [
    "Smashing_Dmg",
    "Lethal_Dmg",
    "Fire_Dmg",
    "Cold_Dmg",
    "Energy_Dmg",
    "Negative_Energy_Dmg",
    "Psionic_Dmg",
    "Toxic_Dmg",
    "ToHit",
    "Null",
    "Grant_Power"
  ],
  "max_targets_expression": "3*source.ownPowerNum?(Redirects.Shock_Therapy.Shock_Therapy_Static) + 4",
  "chain_target_expr": "(((maintarget>enttype eq target>enttype) * 99) + 1) + (1 / prevdistance)",
  "powerset": "Controller_Buff.Shock_Therapy",
  "available_level": 19,
  "archetypes": [
    "controller"
  ],
  "redirect": [

  ],
  "effects": [
    {
      "tags": [

      ],
      "chance": 1.0,
      "ppm": 0.0,
      "delay": 0.0,
      "radius_inner": -1.0,
      "radius_outer": -1.0,
      "requires_expression": "",
      "flags": [

      ],
      "eval_flags": 0,
      "child_effects": [

      ],
      "templates": [
        {
          "attribs": [
            "Smashing_Dmg",
            "Lethal_Dmg",
            "Fire_Dmg",
            "Cold_Dmg",
            "Energy_Dmg",
            "Negative_Energy_Dmg",
            "Psionic_Dmg",
            "Toxic_Dmg"
          ],
          "type": "Magnitude",
          "application_type": "OnTick",
          "aspect": "Strength",
          "target": "AnyAffected",
          "table": "Ranged_Buff_Dmg",
          "scale": 3.0,
          "duration": "60 seconds",
          "magnitude": 1.0,
          "delay": 0.0,
          "duration_expression": "",
          "magnitude_expression": "",
          "application_period": 0.0,
          "tick_chance": 1.0,
          "jit_requires": "",
          "caster_stack": "Individual",
          "stack": "Replace",
          "stack_limit": 2,
          "stack_key": null,
          "cancel_events": [

          ],
          "boost_mod_allowed": "Science_Boost",
          "flags": [
            "IgnoreStrength (4)",
            "IgnoreResistance (5)",
            "CombatModMagnitude (9)"
          ],
          "mode_name": null,
          "target_info": null,
          "messages": null,
          "suppress_events": [

          ],
          "params": null,
          "fx": {
            "continuing_bits": [

            ],
            "continuing_fx": "PFX",
            "conditional_bits": [

            ],
            "conditional_fx": null
          }
        },
        {
          "attribs": [
            "ToHit"
          ],
          "type": "Magnitude",
          "application_type": "OnTick",
          "aspect": "Current",
          "target": "AnyAffected",
          "table": "Ranged_Buff_ToHit",
          "scale": 1.2,
          "duration": "60 seconds",
          "magnitude": 1.0,
          "delay": 0.0,
          "duration_expression": "",
          "magnitude_expression": "",
          "application_period": 0.0,
          "tick_chance": 1.0,
          "jit_requires": "",
          "caster_stack": "Individual",
          "stack": "Replace",
          "stack_limit": 2,
          "stack_key": null,
          "cancel_events": [

          ],
          "boost_mod_allowed": "Science_Boost",
          "flags": [
            "IgnoreResistance (5)",
            "CombatModMagnitude (9)"
          ],
          "mode_name": null,
          "target_info": null,
          "messages": null,
          "suppress_events": [

          ],
          "params": null,
          "fx": null
        },
        {
          "attribs": [
            "Null"
          ],
          "type": "Magnitude",
          "application_type": "OnTick",
          "aspect": "Absolute",
          "target": "AnyAffected",
          "table": "Ranged_Buff_Dmg",
          "scale": 0.0,
          "duration": "0 seconds",
          "magnitude": 0.0,
          "delay": 0.0,
          "duration_expression": "",
          "magnitude_expression": "",
          "application_period": 0.0,
          "tick_chance": 1.0,
          "jit_requires": "",
          "caster_stack": "Individual",
          "stack": "Replace",
          "stack_limit": 2,
          "stack_key": null,
          "cancel_events": [

          ],
          "boost_mod_allowed": "Science_Boost",
          "flags": [
            "IgnoreStrength (4)",
            "IgnoreResistance (5)",
            "CombatModMagnitude (9)",
            "StackByAttribAndKey (17)"
          ],
          "mode_name": null,
          "target_info": null,
          "messages": {
            "display_attacker_hit": null,
            "display_victim_hit": "Your damage and movement speed have been increased by {PlayerSource}'s {PowerName}",
            "display_float": null,
            "display_defense_float": null
          },
          "suppress_events": [

          ],
          "params": null,
          "fx": {
            "continuing_bits": [

            ],
            "continuing_fx": "PFX",
            "conditional_bits": [

            ],
            "conditional_fx": null
          }
        }
      ],
      "is_pvp": "EITHER"
    },
    {
      "tags": [
        "BuildStatic"
      ],
      "chance": 1.0,
      "ppm": 0.0,
      "delay": 0.0,
      "radius_inner": -1.0,
      "radius_outer": -1.0,
      "requires_expression": "",
      "flags": [
        "MainTargetOnly"
      ],
      "eval_flags": 0,
      "child_effects": [

      ],
      "templates": [
        {
          "attribs": [
            "Grant_Power"
          ],
          "type": "Magnitude",
          "application_type": "OnTick",
          "aspect": "Absolute",
          "target": "Self",
          "table": "Melee_Ones",
          "scale": 1.0,
          "duration": "0 seconds",
          "magnitude": 1.0,
          "delay": 0.0,
          "duration_expression": "",
          "magnitude_expression": "",
          "application_period": 0.0,
          "tick_chance": 1.0,
          "jit_requires": "",
          "caster_stack": "Individual",
          "stack": "Ignore",
          "stack_limit": 2,
          "stack_key": null,
          "cancel_events": [

          ],
          "boost_mod_allowed": "Science_Boost",
          "flags": [
            "IgnoreStrength (4)",
            "IgnoreResistance (5)",
            "CombatModMagnitude (9)"
          ],
          "mode_name": null,
          "target_info": null,
          "messages": null,
          "suppress_events": [

          ],
          "params": {
            "type": "Power",
            "count": 1,
            "category_names": [

            ],
            "powerset_names": [

            ],
            "power_names": [
              "Redirects.Shock_Therapy.Shock_Therapy_Static"
            ]
          },
          "fx": null
        }
      ],
      "is_pvp": "EITHER"
    }
  ],
  "activation_effects": [

  ],
  "fx": {
    "source_file": "MENU/POWERS/ANIMFX/PLAYERPOWERS/CONTROLLERBUFF_SHOCKTHERAPY_EMPOWERINGCIRCUIT.PFX",
    "attack_bits": [
      20,
      362,
      685
    ],
    "block_bits": [

    ],
    "wind_up_bits": [

    ],
    "hit_bits": [
      49,
      681
    ],
    "death_bits": [

    ],
    "activation_bits": [

    ],
    "deactivation_bits": [

    ],
    "initial_attack_bits": [
      20,
      362,
      685
    ],
    "continuing_bits": [

    ],
    "conditional_bits": [

    ],
    "activation_fx": null,
    "deactivation_fx": null,
    "attack_fx": "CUSTOMIZEABLEPOWERS/SHOCKTHERAPY/EMPOWERINGCIRCUITATK.FX",
    "secondary_attack_fx": "CUSTOMIZEABLEPOWERS/SHOCKTHERAPY/CIRCUITLINK.FX",
    "hit_fx": "CUSTOMIZEABLEPOWERS/SHOCKTHERAPY/EMPOWERINGCIRCUITHIT.FX",
    "wind_up_fx": null,
    "block_fx": null,
    "death_fx": null,
    "initial_attack_fx": "CUSTOMIZEABLEPOWERS/SHOCKTHERAPY/EMPOWERINGCIRCUITATK.FX",
    "continuing_fx": [
      "CUSTOMIZEABLEPOWERS/SHOCKTHERAPY/EMPOWERED_FISTS.FX"
    ],
    "conditional_fx": [

    ],
    "mode_bits": [
      20
    ],
    "frames_before_hit": 23,
    "frames_before_secondary_hit": 0,
    "delayed_hit": false,
    "frames_attack": 30,
    "initial_frames_before_hit": 23,
    "initial_attack_fx_frame_delay": 0,
    "projectile_speed": 3.4028234663852886e38,
    "secondary_projectile_speed": 0.0,
    "initial_frames_before_block": 0,
    "ignore_attack_time_errors": null,
    "frames_before_block": 0,
    "fx_important": false
  },
  "custom_fx": [
    {
      "display_name": null,
      "token": "Heroic",
      "alt_themes": [

      ],
      "category": null,
      "palette_name": "Additive",
      "fx": {
        "source_file": "MENU/POWERS/ANIMFX/PLAYERPOWERS/CONTROLLERBUFF_SHOCKTHERAPY_EMPOWERINGCIRCUIT.PFX",
        "attack_bits": [
          20,
          362,
          685
        ],
        "block_bits": [

        ],
        "wind_up_bits": [

        ],
        "hit_bits": [
          49,
          681
        ],
        "death_bits": [

        ],
        "activation_bits": [

        ],
        "deactivation_bits": [

        ],
        "initial_attack_bits": [
          20,
          362,
          685
        ],
        "continuing_bits": [

        ],
        "conditional_bits": [

        ],
        "activation_fx": null,
        "deactivation_fx": null,
        "attack_fx": "CUSTOMIZEABLEPOWERS/SHOCKTHERAPY/EMPOWERINGCIRCUITATK.FX",
        "secondary_attack_fx": "CUSTOMIZEABLEPOWERS/SHOCKTHERAPY/CIRCUITLINK.FX",
        "hit_fx": "CUSTOMIZEABLEPOWERS/SHOCKTHERAPY/EMPOWERINGCIRCUITHIT.FX",
        "wind_up_fx": null,
        "block_fx": null,
        "death_fx": null,
        "initial_attack_fx": "CUSTOMIZEABLEPOWERS/SHOCKTHERAPY/EMPOWERINGCIRCUITATK.FX",
        "continuing_fx": [
          "CUSTOMIZEABLEPOWERS/SHOCKTHERAPY/EMPOWERED_FISTS.FX"
        ],
        "conditional_fx": [

        ],
        "mode_bits": [
          20
        ],
        "frames_before_hit": 23,
        "frames_before_secondary_hit": 0,
        "delayed_hit": false,
        "frames_attack": 30,
        "initial_frames_before_hit": 23,
        "initial_attack_fx_frame_delay": 0,
        "projectile_speed": 3.4028234663852886e38,
        "secondary_projectile_speed": 0.0,
        "initial_frames_before_block": 0,
        "ignore_attack_time_errors": null,
        "frames_before_block": 0,
        "fx_important": false
      }
    },
    {
      "display_name": null,
      "token": "Villainous",
      "alt_themes": [

      ],
      "category": null,
      "palette_name": "Additive",
      "fx": {
        "source_file": "MENU/POWERS/ANIMFX/PLAYERPOWERS/CONTROLLERBUFF_SHOCKTHERAPY_EMPOWERINGCIRCUIT.PFX",
        "attack_bits": [
          20,
          362,
          685
        ],
        "block_bits": [

        ],
        "wind_up_bits": [

        ],
        "hit_bits": [
          49,
          681
        ],
        "death_bits": [

        ],
        "activation_bits": [

        ],
        "deactivation_bits": [

        ],
        "initial_attack_bits": [
          20,
          362,
          685
        ],
        "continuing_bits": [

        ],
        "conditional_bits": [

        ],
        "activation_fx": null,
        "deactivation_fx": null,
        "attack_fx": "CUSTOMIZEABLEPOWERS/SHOCKTHERAPY/EMPOWERINGCIRCUITATK.FX",
        "secondary_attack_fx": "CUSTOMIZEABLEPOWERS/SHOCKTHERAPY/CIRCUITLINK.FX",
        "hit_fx": "CUSTOMIZEABLEPOWERS/SHOCKTHERAPY/EMPOWERINGCIRCUITHIT.FX",
        "wind_up_fx": null,
        "block_fx": null,
        "death_fx": null,
        "initial_attack_fx": "CUSTOMIZEABLEPOWERS/SHOCKTHERAPY/EMPOWERINGCIRCUITATK.FX",
        "continuing_fx": [
          "CUSTOMIZEABLEPOWERS/SHOCKTHERAPY/EMPOWERED_FISTS.FX"
        ],
        "conditional_fx": [

        ],
        "mode_bits": [
          20
        ],
        "frames_before_hit": 23,
        "frames_before_secondary_hit": 0,
        "delayed_hit": false,
        "frames_attack": 30,
        "initial_frames_before_hit": 23,
        "initial_attack_fx_frame_delay": 0,
        "projectile_speed": 3.4028234663852886e38,
        "secondary_projectile_speed": 0.0,
        "initial_frames_before_block": 0,
        "ignore_attack_time_errors": null,
        "frames_before_block": 0,
        "fx_important": false
      }
    },
    {
      "display_name": null,
      "token": "Bright",
      "alt_themes": [

      ],
      "category": null,
      "palette_name": "Additive",
      "fx": {
        "source_file": "MENU/POWERS/ANIMFX/PLAYERPOWERS/CONTROLLERBUFF_SHOCKTHERAPY_EMPOWERINGCIRCUIT.PFX",
        "attack_bits": [
          20,
          362,
          685
        ],
        "block_bits": [

        ],
        "wind_up_bits": [

        ],
        "hit_bits": [
          49,
          681
        ],
        "death_bits": [

        ],
        "activation_bits": [

        ],
        "deactivation_bits": [

        ],
        "initial_attack_bits": [
          20,
          362,
          685
        ],
        "continuing_bits": [

        ],
        "conditional_bits": [

        ],
        "activation_fx": null,
        "deactivation_fx": null,
        "attack_fx": "CUSTOMIZEABLEPOWERS/SHOCKTHERAPY/EMPOWERINGCIRCUITATK.FX",
        "secondary_attack_fx": "CUSTOMIZEABLEPOWERS/SHOCKTHERAPY/CIRCUITLINK.FX",
        "hit_fx": "CUSTOMIZEABLEPOWERS/SHOCKTHERAPY/EMPOWERINGCIRCUITHIT.FX",
        "wind_up_fx": null,
        "block_fx": null,
        "death_fx": null,
        "initial_attack_fx": "CUSTOMIZEABLEPOWERS/SHOCKTHERAPY/EMPOWERINGCIRCUITATK.FX",
        "continuing_fx": [
          "CUSTOMIZEABLEPOWERS/SHOCKTHERAPY/EMPOWERED_FISTS.FX"
        ],
        "conditional_fx": [

        ],
        "mode_bits": [
          20
        ],
        "frames_before_hit": 23,
        "frames_before_secondary_hit": 0,
        "delayed_hit": false,
        "frames_attack": 30,
        "initial_frames_before_hit": 23,
        "initial_attack_fx_frame_delay": 0,
        "projectile_speed": 3.4028234663852886e38,
        "secondary_projectile_speed": 0.0,
        "initial_frames_before_block": 0,
        "ignore_attack_time_errors": null,
        "frames_before_block": 0,
        "fx_important": false
      }
    },
    {
      "display_name": null,
      "token": "Dark",
      "alt_themes": [

      ],
      "category": null,
      "palette_name": "Subtractive",
      "fx": {
        "source_file": "MENU/POWERS/ANIMFX/PLAYERPOWERS/CONTROLLERBUFF_SHOCKTHERAPY_EMPOWERINGCIRCUIT.PFX",
        "attack_bits": [
          20,
          362,
          685
        ],
        "block_bits": [

        ],
        "wind_up_bits": [

        ],
        "hit_bits": [
          49,
          681
        ],
        "death_bits": [

        ],
        "activation_bits": [

        ],
        "deactivation_bits": [

        ],
        "initial_attack_bits": [
          20,
          362,
          685
        ],
        "continuing_bits": [

        ],
        "conditional_bits": [

        ],
        "activation_fx": null,
        "deactivation_fx": null,
        "attack_fx": "CUSTOMIZEABLEPOWERS/SHOCKTHERAPY/SUBTRACTIVE/EMPOWERINGCIRCUITATK.FX",
        "secondary_attack_fx": "CUSTOMIZEABLEPOWERS/SHOCKTHERAPY/SUBTRACTIVE/CIRCUITLINK.FX",
        "hit_fx": "CUSTOMIZEABLEPOWERS/SHOCKTHERAPY/SUBTRACTIVE/EMPOWERINGCIRCUITHIT.FX",
        "wind_up_fx": null,
        "block_fx": null,
        "death_fx": null,
        "initial_attack_fx": "CUSTOMIZEABLEPOWERS/SHOCKTHERAPY/SUBTRACTIVE/EMPOWERINGCIRCUITATK.FX",
        "continuing_fx": [
          "CUSTOMIZEABLEPOWERS/SHOCKTHERAPY/SUBTRACTIVE/EMPOWERED_FISTS.FX"
        ],
        "conditional_fx": [

        ],
        "mode_bits": [
          20
        ],
        "frames_before_hit": 23,
        "frames_before_secondary_hit": 0,
        "delayed_hit": false,
        "frames_attack": 30,
        "initial_frames_before_hit": 23,
        "initial_attack_fx_frame_delay": 0,
        "projectile_speed": 3.4028234663852886e38,
        "secondary_projectile_speed": 0.0,
        "initial_frames_before_block": 0,
        "ignore_attack_time_errors": null,
        "frames_before_block": 0,
        "fx_important": false
      }
    }
  ],
  "fx_only_on_main_target": false
}