{
  "name": "Magic_Intangible",
  "display_name": "Magic Intangible",
  "display_fullname": "Boosts.Magic Intangible",
  "display_help": "Increases the duration of an intangibility power.",
  "display_short_help": "Dimensional Entities (Magic)",
  "available_level": [
    0
  ],
  "source_file": "DEFS/POWERS/BOOSTS/MAGIC_INTANGIBLE.POWERSETS",
  "requires": "",
  "power_names": [
    "Boosts.Magic_Intangible.Magic_Intangible"
  ],
  "power_display_names": [
    "Phasing of Grey (Intangible)"
  ]
}