{
  "name": "Blizzard_Sentinel",
  "display_name": "Blizzard",
  "display_fullname": "Pets.Blizzard",
  "display_help": "Ice Blast",
  "display_short_help": "Ice Blast",
  "available_level": [
    0,
    0,
    0
  ],
  "source_file": "DEFS/POWERS/PETS/BLIZZARD_SENTINEL.POWERSETS",
  "requires": "",
  "power_names": [
    "Pets.Blizzard_Sentinel.Blizzard",
    "Pets.Blizzard_Sentinel.Avoid",
    "Pets.Blizzard_Sentinel.Snow"
  ],
  "power_display_names": [
    "Blizzard",
    "Avoid",
    "Snow"
  ]
}