{
  "name": "Cabal_Adept_Minion_Resists",
  "display_name": "Cabal_Adept_Minion_Resists",
  "display_fullname": "Cabal.Cabal Adept Minion Resists",
  "display_help": "The Cabal",
  "display_short_help": "The Cabal",
  "available_level": [
    0
  ],
  "source_file": "DEFS/POWERS/CABAL/CABAL_ADEPT_MINION_RESISTS.POWERSETS",
  "requires": "",
  "power_names": [
    "Cabal.Cabal_Adept_Minion_Resists.Resistance"
  ],
  "power_display_names": [
    "Resistance"
  ]
}