{
  "name": "Crafted_Unspeakable_Terror_F",
  "display_name": "Crafted Unspeakable Terror F",
  "display_fullname": "Boosts.Crafted Unspeakable Terror F",
  "display_help": "Adds a small chance to Disorient your foe. This effect will trigger roughly 3 times per minute.",
  "display_short_help": "Set: Unspeakable Terror",
  "available_level": [
    0
  ],
  "source_file": "DEFS/POWERS/BOOSTS/CRAFTED_UNSPEAKABLE_TERROR_F.POWERSETS",
  "requires": "",
  "power_names": [
    "Boosts.Crafted_Unspeakable_Terror_F.Crafted_Unspeakable_Terror_F"
  ],
  "power_display_names": [
    "Unspeakable Terror: Disorient Bonus"
  ]
}