{
  "name": "Chernobog",
  "display_name": "Chernobog",
  "display_fullname": "Skulls.Chernobog",
  "display_help": "Chernobog",
  "display_short_help": "Chernobog",
  "available_level": [
    0,
    0,
    0,
    9,
    13,
    17,
    19,
    21
  ],
  "source_file": "DEFS/POWERS/SKULLS/CHERNOBOG.POWERSETS",
  "requires": "",
  "power_names": [
    "Skulls.Chernobog.Deadly_Cut",
    "Skulls.Chernobog.Deadly_Bolt",
    "Skulls.Chernobog.Deadly_Blast",
    "Skulls.Chernobog.Deadly_Hack",
    "Skulls.Chernobog.Deadly_Circle",
    "Skulls.Chernobog.Terrifying_Stare",
    "Skulls.Chernobog.Boon_of_Death",
    "Skulls.Chernobog.Deaths_Embrace"
  ],
  "power_display_names": [
    "Deadly Smash",
    "Deadly Bolt",
    "Deadly Blast",
    "Deadly Crush",
    "Deadly Bash",
    "Terrifying Stare",
    "Boon of Death",
    "Death's Embrace"
  ]
}