{
  "name": "Crafted_Encouraged_Accuracy_C",
  "display_name": "Crafted Encouraged Accuracy C",
  "display_fullname": "Boosts.Crafted Encouraged Accuracy C",
  "display_help": "Enhances the to hit buff potential of a power by {Boost.Attrib.ToHit.Scale}%, reduces the endurance cost by {Boost.Attrib.Endurance.Scale}% and the recharge time of a power by {Boost.Attrib.RechargeTime.Scale}%.",
  "display_short_help": "Set: Encouraged Accuracy",
  "available_level": [
    0
  ],
  "source_file": "DEFS/POWERS/BOOSTS/CRAFTED_ENCOURAGED_ACCURACY_C.POWERSETS",
  "requires": "",
  "power_names": [
    "Boosts.Crafted_Encouraged_Accuracy_C.Crafted_Encouraged_Accuracy_C"
  ],
  "power_display_names": [
    "Encouraged Accuracy: To Hit Buff/Recharge/Endurance Reduction"
  ]
}