{
  "name": "Earth_Assault",
  "display_name": "Earth Assault",
  "display_fullname": "Mission Maker Attacks.Earth Assault",
  "display_help": "With Earth Assault, you can damage foes with the very ground they walk upon. You can conjure stone weapons, hurl boulders, and even cause magma to erupt from the ground.",
  "display_short_help": "Earth Assault",
  "available_level": [
    0,
    1,
    3,
    9,
    15,
    19,
    27,
    34,
    37
  ],
  "source_file": "DEFS/POWERS/MISSION_MAKER_ATTACKS/EARTH_ASSAULT.POWERSETS",
  "requires": "",
  "power_names": [
    "Mission_Maker_Attacks.Earth_Assault.Stone_Spears",
    "Mission_Maker_Attacks.Earth_Assault.Stone_Fist",
    "Mission_Maker_Attacks.Earth_Assault.Tremor",
    "Mission_Maker_Attacks.Earth_Assault.Hurl_Boulder",
    "Mission_Maker_Attacks.Earth_Assault.Power_Boost",
    "Mission_Maker_Attacks.Earth_Assault.Heavy_Stone_Fist",
    "Mission_Maker_Attacks.Earth_Assault.Seismic_Smash",
    "Mission_Maker_Attacks.Earth_Assault.Mud_Pots",
    "Mission_Maker_Attacks.Earth_Assault.Fissure"
  ],
  "power_display_names": [
    "Stone Spears",
    "Stone Fist",
    "Tremor",
    "Hurl Boulder",
    "Power Boost",
    "Heavy Stone Fist",
    "Seismic Smash",
    "Mud Pots",
    "Fissure"
  ]
}