{
  "name": "Attuned_Obliteration_E",
  "display_name": "Attuned Obliteration E",
  "display_fullname": "Boosts.Attuned Obliteration E",
  "display_help": "Enhances the accuracy of a power by {Boost.Attrib.Accuracy.Scale}%, damage by {Boost.Attrib.Damage.Scale}%, reduces endurance cost by {Boost.Attrib.Endurance.Scale}% and reduces recharge time by {Boost.Attrib.RechargeTime.Scale}%.",
  "display_short_help": "Set: Obliteration",
  "available_level": [
    0
  ],
  "source_file": "DEFS/POWERS/BOOSTS/ATTUNED_OBLITERATION_E.POWERSETS",
  "requires": "",
  "power_names": [
    "Boosts.Attuned_Obliteration_E.Attuned_Obliteration_E"
  ],
  "power_display_names": [
    "Obliteration: Accuracy/Damage/Endurance/Recharge"
  ]
}