{
  "name": "Crafted_ToHit_Buff_30",
  "display_name": "Crafted ToHit Buff 30",
  "display_fullname": "Boosts.Crafted ToHit Buff 30",
  "display_help": "Increases to hit buffs by {Boost.Attrib.ToHit.Scale}%.",
  "display_short_help": "Invention",
  "available_level": [
    0
  ],
  "source_file": "DEFS/POWERS/BOOSTS/CRAFTED_TOHIT_BUFF_30.POWERSETS",
  "requires": "",
  "power_names": [
    "Boosts.Crafted_ToHit_Buff_30.Crafted_ToHit_Buff_30"
  ],
  "power_display_names": [
    "Invention: To Hit Buff"
  ]
}