{
  "name": "Superior_Attuned_Gravitational_Anchor_A",
  "display_name": "Superior Attuned Gravitational Anchor A",
  "display_fullname": "Boosts.Superior Attuned Gravitational Anchor A",
  "display_help": "UNIQUE -- No more than 1 enhancement of this type may be slotted by a character. Enhances the Immobilize duration of a power by {Boost.Attrib.Mez.Scale}%.",
  "display_short_help": "Set: Gravitational Anchor",
  "available_level": [
    0
  ],
  "source_file": "DEFS/POWERS/BOOSTS/SUPERIOR_ATTUNED_GRAVITATIONAL_ANCHOR_A.POWERSETS",
  "requires": "",
  "power_names": [
    "Boosts.Superior_Attuned_Gravitational_Anchor_A.Superior_Attuned_Gravitational_Anchor_A"
  ],
  "power_display_names": [
    "Gravitational Anchor: Immobilize Duration"
  ]
}