{
  "name": "Bane_Spider_Boss",
  "display_name": "Bane Spider Boss",
  "display_fullname": "V Arachnos.Bane Spider Boss",
  "display_help": "Arachnos",
  "display_short_help": "Arachnos",
  "available_level": [
    0,
    0,
    0,
    0,
    0,
    0,
    0,
    0,
    0,
    0
  ],
  "source_file": "DEFS/POWERS/V_ARACHNOS/BANE_SPIDER_BOSS.POWERSETS",
  "requires": "",
  "power_names": [
    "V_Arachnos.Bane_Spider_Boss.Bash",
    "V_Arachnos.Bane_Spider_Boss.Pulverize",
    "V_Arachnos.Bane_Spider_Boss.Clobber",
    "V_Arachnos.Bane_Spider_Boss.Whirling_Mace",
    "V_Arachnos.Bane_Spider_Boss.Crowd_Control",
    "V_Arachnos.Bane_Spider_Boss.Poisonous_Ray_Burst",
    "V_Arachnos.Bane_Spider_Boss.Mace_Beam_Volley",
    "V_Arachnos.Bane_Spider_Boss.Mace_Beam_Blast",
    "V_Arachnos.Bane_Spider_Boss.Wide_Area_Web_Grenade",
    "V_Arachnos.Bane_Spider_Boss.Cocoon"
  ],
  "power_display_names": [
    "Bash",
    "Pulverize",
    "Clobber",
    "Whirling Mace",
    "Crowd Control",
    "Poisonous Ray Burst",
    "Mace Beam Volley",
    "Mace Beam Blast",
    "Wide Area Web Grenade",
    "Cocoon"
  ]
}