{
  "name": "Crafted_Malaises_Illusions_A",
  "display_name": "Crafted Malaises Illusions A",
  "display_fullname": "Boosts.Crafted Malaises Illusions A",
  "display_help": "Enhances the accuracy of a power by {Boost.Attrib.Accuracy.Scale}% and reduces the recharge time of a power by {Boost.Attrib.RechargeTime.Scale}%.",
  "display_short_help": "Set: Malaises Illusions",
  "available_level": [
    0
  ],
  "source_file": "DEFS/POWERS/BOOSTS/CRAFTED_MALAISES_ILLUSIONS_A.POWERSETS",
  "requires": "",
  "power_names": [
    "Boosts.Crafted_Malaises_Illusions_A.Crafted_Malaises_Illusions_A"
  ],
  "power_display_names": [
    "Malaise's Illusions: Accuracy/Recharge"
  ]
}