{
  "name": "Sentinel_Mace_Mastery",
  "display_name": "Mace Mastery",
  "display_fullname": "Epic.Mace Mastery",
  "display_help": "Black Scorpion has granted you access to the advanced technology of the Executioner's Mace. The signature weapon of the Bane Spider Executioner, it is not a typical clumsy mace. The Executioner's Mace is capable of firing a variety of energy projectiles and grenades. It can even be modified to summon and command some or Black Scorpion's RV technologies.",
  "display_short_help": "Mace Mastery",
  "available_level": [
    34,
    34,
    40,
    40,
    43
  ],
  "source_file": "DEFS/POWERS/EPIC/SENTINEL_MACE_MASTERY.POWERSETS",
  "requires": "",
  "power_names": [
    "Epic.Sentinel_Mace_Mastery.Web_Envelope",
    "Epic.Sentinel_Mace_Mastery.Pulverize",
    "Epic.Sentinel_Mace_Mastery.Web_Cocoon",
    "Epic.Sentinel_Mace_Mastery.Focused_Accuracy",
    "Epic.Sentinel_Mace_Mastery.Summon_Tarantula"
  ],
  "power_display_names": [
    "Web Envelope",
    "Pulverize",
    "Web Cocoon",
    "Coordinated Targeting",
    "Summon Tarantula"
  ]
}