{
  "name": "Attuned_Harmonized_Healing_A",
  "display_name": "Attuned Harmonized Healing A",
  "display_fullname": "Boosts.Attuned Harmonized Healing A",
  "display_help": "Enhances the healing potential and damage absorption of a power by {Boost.Attrib.Heal.Scale}% and reduces endurance cost by {Boost.Attrib.Endurance.Scale}%.",
  "display_short_help": "Set: Harmonized Healing",
  "available_level": [
    0
  ],
  "source_file": "DEFS/POWERS/BOOSTS/ATTUNED_HARMONIZED_HEALING_A.POWERSETS",
  "requires": "",
  "power_names": [
    "Boosts.Attuned_Harmonized_Healing_A.Attuned_Harmonized_Healing_A"
  ],
  "power_display_names": [
    "Harmonized Healing: Healing/Absorb/Endurance"
  ]
}