{
  "name": "Temporary_Powers",
  "display_name": "Temporary Powers",
  "display_fullname": "Temporary Powers.Temporary Powers",
  "display_help": "These Powers are given to heroes on a temporary basis.",
  "display_short_help": "Temporary Powers",
  "available_level": [
    0,
    0,
    0,
    0,
    0,
    0,
    0,
    0,
    0,
    0,
    0,
    0,
    0,
    0,
    0,
    0,
    0,
    0,
    0,
    0,
    0,
    0,
    0,
    0,
    0,
    0,
    0,
    0,
    0,
    0,
    0,
    0,
    0,
    0,
    0,
    0,
    0,
    0,
    0,
    0,
    0,
    0,
    0,
    0,
    0,
    0,
    0,
    0,
    0,
    0,
    0,
    0,
    0,
    0,
    0,
    0,
    0,
    0,
    0,
    0,
    0,
    0,
    0,
    0,
    0,
    0,
    0,
    0,
    0,
    0,
    0,
    0,
    0,
    0,
    0,
    0,
    0,
    0,
    0,
    0,
    0,
    0,
    0,
    0,
    0,
    0,
    0,
    0,
    0,
    0,
    0,
    0,
    0,
    0,
    0,
    0,
    0,
    0,
    0,
    0,
    0,
    0,
    0,
    0,
    0,
    0,
    0,
    0,
    0,
    0,
    0,
    0,
    0,
    0,
    0,
    0,
    0,
    0,
    0,
    0,
    0,
    0,
    0,
    0,
    0,
    0,
    0,
    0,
    0,
    0,
    0,
    0,
    0,
    0,
    0,
    0,
    0,
    0,
    0,
    0,
    0,
    0,
    0,
    0,
    0,
    0,
    0,
    0,
    0,
    0,
    0,
    0,
    0,
    0,
    0,
    0,
    0,
    0,
    0,
    0,
    0,
    0,
    0,
    0,
    0,
    0,
    0,
    0,
    0,
    0,
    0,
    0,
    0,
    0,
    0,
    0,
    0,
    0,
    0,
    0,
    0,
    0,
    0,
    0,
    0,
    0,
    0,
    0,
    0,
    0,
    0,
    0,
    0,
    0,
    0,
    0,
    0,
    0,
    0,
    0,
    0,
    0,
    0,
    0,
    0,
    0,
    0,
    0,
    0,
    0,
    0,
    0,
    0,
    0,
    0,
    0,
    0,
    0,
    0,
    0,
    0,
    0,
    0,
    0,
    0,
    0,
    0,
    0,
    0,
    0,
    0,
    0,
    0,
    0,
    0,
    0,
    0,
    0,
    0,
    0,
    0,
    0,
    0,
    0,
    0,
    0,
    0,
    0,
    0,
    0,
    0,
    0,
    0,
    0,
    0,
    0,
    0,
    0,
    0,
    0,
    0,
    0,
    0,
    0,
    0,
    0,
    0,
    0,
    0,
    0,
    1,
    0,
    0,
    0,
    0,
    0,
    0,
    0,
    0,
    0,
    0,
    0,
    0,
    0,
    0,
    0,
    0,
    0,
    0,
    0,
    0,
    0,
    0,
    0,
    0,
    0,
    0,
    0,
    0,
    0,
    0,
    0,
    0,
    0,
    0,
    0,
    0,
    0,
    0,
    0,
    0,
    0,
    0,
    0,
    0,
    0,
    0,
    0,
    0,
    0,
    0,
    0,
    0,
    0,
    0,
    0,
    0,
    0,
    0,
    0,
    0,
    0,
    0,
    0,
    0,
    0,
    0,
    0,
    0,
    0,
    0,
    0,
    0,
    0,
    0,
    0,
    0,
    0,
    0,
    0,
    0,
    0,
    0,
    0,
    0,
    0,
    0,
    0,
    0,
    0,
    0,
    0,
    0,
    0,
    0,
    0,
    0,
    0,
    0,
    0,
    0,
    0,
    0,
    0,
    0,
    0,
    0,
    0,
    0,
    0,
    0,
    0,
    0,
    0,
    0,
    0,
    0,
    0,
    0,
    0,
    0,
    0,
    0,
    0,
    0,
    0,
    0,
    0,
    0,
    0,
    0,
    0,
    0,
    0,
    0,
    0,
    0,
    0,
    0,
    0,
    0,
    0,
    0,
    0,
    0,
    0,
    0,
    0,
    0,
    0,
    0,
    0,
    0,
    0,
    0,
    0,
    0,
    0,
    0,
    0,
    0,
    0,
    0,
    0,
    0,
    0,
    0,
    0,
    0,
    0,
    0,
    0,
    0,
    0,
    0,
    0,
    0,
    0,
    0,
    0,
    0,
    0,
    0,
    0,
    0,
    0,
    0,
    0,
    0,
    0,
    0,
    0,
    0,
    0,
    0,
    0,
    0,
    0,
    0,
    0,
    0,
    0,
    0,
    0,
    0,
    0,
    0,
    0,
    0,
    0,
    0,
    0,
    0,
    0,
    0,
    0,
    0,
    0,
    0,
    0,
    0,
    0,
    0,
    0,
    0,
    0,
    0,
    0,
    0,
    0,
    0,
    0,
    0,
    0,
    0,
    0,
    0,
    0,
    0,
    0,
    0,
    0,
    0,
    0,
    0,
    0,
    0,
    0,
    0,
    0,
    0,
    0,
    0,
    0,
    0,
    0,
    0,
    0,
    0,
    0,
    0,
    0,
    0,
    0,
    0,
    0,
    0,
    0,
    0,
    0,
    0,
    0,
    0,
    0,
    0,
    0,
    0,
    0,
    0,
    0,
    0,
    0,
    0,
    0,
    0,
    0,
    0,
    0,
    0,
    0,
    0,
    0,
    0,
    0,
    0,
    0,
    0,
    0,
    0,
    0,
    0,
    0,
    0,
    0,
    0,
    0,
    0,
    0,
    0,
    0,
    0,
    0,
    0,
    0,
    0,
    0,
    0,
    0,
    0,
    0,
    0,
    0,
    0,
    0,
    0,
    0,
    0,
    0,
    0,
    0,
    0,
    0,
    0,
    0,
    0,
    0,
    0,
    0,
    0,
    0,
    0,
    0,
    0,
    0,
    0,
    0,
    0,
    0,
    0,
    0,
    0,
    0,
    0,
    0,
    0,
    0,
    0,
    0,
    0,
    0,
    0,
    0,
    0,
    0,
    0,
    0,
    0,
    0,
    0,
    0,
    0,
    0,
    0,
    0,
    0,
    0,
    0,
    0,
    0,
    0,
    0,
    0,
    0,
    9,
    0,
    0,
    0,
    0,
    0,
    0,
    0,
    0,
    0,
    0,
    0,
    0,
    0,
    0,
    0,
    0,
    0,
    0,
    0,
    0,
    0,
    0,
    0,
    0,
    0,
    0,
    0,
    0,
    0,
    0,
    0,
    0,
    0,
    0,
    0,
    0,
    0,
    0,
    0,
    0,
    0,
    0,
    0,
    0,
    0,
    0,
    0,
    0,
    0,
    0,
    0,
    0,
    0,
    0,
    0,
    0,
    0,
    0,
    0,
    0,
    0,
    0,
    0,
    0,
    0,
    0,
    0,
    0,
    0,
    0,
    0,
    0,
    0,
    0,
    0,
    0,
    0,
    0,
    0,
    0,
    0,
    0,
    0,
    0,
    0,
    0,
    0,
    0,
    0,
    0,
    0,
    0,
    0,
    0,
    0,
    0,
    0,
    0,
    0,
    0,
    0,
    0,
    0,
    0,
    0,
    0,
    0,
    0
  ],
  "source_file": "DEFS/POWERS/TEMPORARY_POWERS/TEMPORARY_POWERS.POWERSETS",
  "requires": "",
  "power_names": [
    "Temporary_Powers.Temporary_Powers.Bracers_of_Astrape",
    "Temporary_Powers.Temporary_Powers.EMP_Glove",
    "Temporary_Powers.Temporary_Powers.Cryoprojection_Bracers",
    "Temporary_Powers.Temporary_Powers.Wave_Scrambler",
    "Temporary_Powers.Temporary_Powers.Plasmatic_Taser",
    "Temporary_Powers.Temporary_Powers.Talisman_of_the_Moon",
    "Temporary_Powers.Temporary_Powers.Antigravity_Matrix",
    "Temporary_Powers.Temporary_Powers.Tesla_Gauntlet",
    "Temporary_Powers.Temporary_Powers.Genetic_Restabilizer",
    "Temporary_Powers.Temporary_Powers.Freakshow_Disguise",
    "Temporary_Powers.Temporary_Powers.Freakshow_Disguise_MC",
    "Temporary_Powers.Temporary_Powers.Flashbang_Grenades",
    "Temporary_Powers.Temporary_Powers.Stun_Blast",
    "Temporary_Powers.Temporary_Powers.Lethargy_Inducer",
    "Temporary_Powers.Temporary_Powers.Chromatic_Grenades",
    "Temporary_Powers.Temporary_Powers.Napalm_Projector",
    "Temporary_Powers.Temporary_Powers.EMP_Blaster",
    "Temporary_Powers.Temporary_Powers.Neural_Inhibitor_Grenades",
    "Temporary_Powers.Temporary_Powers.Vahzilok_Disease_SL3",
    "Temporary_Powers.Temporary_Powers.Undead_Slaying_Axe",
    "Temporary_Powers.Temporary_Powers.Clockwork_Immobilizer_MkI",
    "Temporary_Powers.Temporary_Powers.Clockwork_Immobilizer_MkII",
    "Temporary_Powers.Temporary_Powers.Clockwork_Immobilizer_MkIII",
    "Temporary_Powers.Temporary_Powers.Clockwork_Immobilizer_MkIV",
    "Temporary_Powers.Temporary_Powers.Flame_Amulet",
    "Temporary_Powers.Temporary_Powers.Tear_Gas",
    "Temporary_Powers.Temporary_Powers.Med_Kit",
    "Temporary_Powers.Temporary_Powers.Ring_of_Pain",
    "Temporary_Powers.Temporary_Powers.Ace_of_Spades",
    "Temporary_Powers.Temporary_Powers.Scroll_of_Ruin",
    "Temporary_Powers.Temporary_Powers.Geometric_Gauntlets",
    "Temporary_Powers.Temporary_Powers.Manifold_Resonator",
    "Temporary_Powers.Temporary_Powers.Resonance_Disrupter",
    "Temporary_Powers.Temporary_Powers.Jump_Pack",
    "Temporary_Powers.Temporary_Powers.Thermite_Cannon",
    "Temporary_Powers.Temporary_Powers.Particle_Cannon",
    "Temporary_Powers.Temporary_Powers.Dimensional_Shield",
    "Temporary_Powers.Temporary_Powers.Empowered_Shard_of_the_Wheel",
    "Temporary_Powers.Temporary_Powers.Empowered_Center_of_the_Wheel",
    "Temporary_Powers.Temporary_Powers.Empowered_Piece_of_the_Wheel",
    "Temporary_Powers.Temporary_Powers.Empowered_Linchpin_of_the_Wheel",
    "Temporary_Powers.Temporary_Powers.Psychic_Cleaver",
    "Temporary_Powers.Temporary_Powers.Coolant",
    "Temporary_Powers.Temporary_Powers.Idol_of_Lughebu",
    "Temporary_Powers.Temporary_Powers.Confiscated_Beanbag",
    "Temporary_Powers.Temporary_Powers.Cryonite_Armor",
    "Temporary_Powers.Temporary_Powers.Sands_of_Mu",
    "Temporary_Powers.Temporary_Powers.Nemesis_Staff",
    "Temporary_Powers.Temporary_Powers.Fettering_Nimbus",
    "Temporary_Powers.Temporary_Powers.Crey_Narcotic",
    "Temporary_Powers.Temporary_Powers.Terra_Volta_Exposure",
    "Temporary_Powers.Temporary_Powers.Wedding_Band",
    "Temporary_Powers.Temporary_Powers.Wedding_Band_FB",
    "Temporary_Powers.Temporary_Powers.Warwolf_Whistle",
    "Temporary_Powers.Temporary_Powers.Warwolf_Whistle_FB",
    "Temporary_Powers.Temporary_Powers.Holy_Shotgun_Shells",
    "Temporary_Powers.Temporary_Powers.Electromagnetic_Grenades",
    "Temporary_Powers.Temporary_Powers.Nictus_Fragment",
    "Temporary_Powers.Temporary_Powers.Rock",
    "Temporary_Powers.Temporary_Powers.SnowBall",
    "Temporary_Powers.Temporary_Powers.Holiday_Rocket_Pack",
    "Temporary_Powers.Temporary_Powers.LKT-1700_Rocket_Pack",
    "Temporary_Powers.Temporary_Powers.Build_SnowBeast",
    "Temporary_Powers.Temporary_Powers.Toy_Bat",
    "Temporary_Powers.Temporary_Powers.Vomit",
    "Temporary_Powers.Temporary_Powers.Extinguisher",
    "Temporary_Powers.Temporary_Powers.Large_Extinguisher",
    "Temporary_Powers.Temporary_Powers.Amys_Ward",
    "Temporary_Powers.Temporary_Powers.Divining_Rod",
    "Temporary_Powers.Temporary_Powers.Rune_of_Warding",
    "Temporary_Powers.Temporary_Powers.Bow_and_Arrow",
    "Temporary_Powers.Temporary_Powers.Iron_Blade",
    "Temporary_Powers.Temporary_Powers.V_Shivan_Shard",
    "Temporary_Powers.Temporary_Powers.V_Shivan",
    "Temporary_Powers.Temporary_Powers.V_Shivan_Strike",
    "Temporary_Powers.Temporary_Powers.V_Shivan_Smash",
    "Temporary_Powers.Temporary_Powers.V_Shivan_Bolt",
    "Temporary_Powers.Temporary_Powers.V_Shivan_Beam",
    "Temporary_Powers.Temporary_Powers.V_Shivan_Haze",
    "Temporary_Powers.Temporary_Powers.V_Shivan_Bomb",
    "Temporary_Powers.Temporary_Powers.V_Ore_Extractor",
    "Temporary_Powers.Temporary_Powers.Remote_Camera",
    "Temporary_Powers.Temporary_Powers.Respawn",
    "Temporary_Powers.Temporary_Powers.Respawn_Dead",
    "Temporary_Powers.Temporary_Powers.Buff_Period",
    "Temporary_Powers.Temporary_Powers.Disable_All",
    "Temporary_Powers.Temporary_Powers.Disable_Travel",
    "Temporary_Powers.Temporary_Powers.Disable_Stealth",
    "Temporary_Powers.Temporary_Powers.Disable_Pool",
    "Temporary_Powers.Temporary_Powers.Disable_Walk",
    "Temporary_Powers.Temporary_Powers.Disable_Temp",
    "Temporary_Powers.Temporary_Powers.Disable_Incarnate",
    "Temporary_Powers.Temporary_Powers.Enable_Arena_Temp",
    "Temporary_Powers.Temporary_Powers.Disable_Travel_TF",
    "Temporary_Powers.Temporary_Powers.Disable_Pool_TF",
    "Temporary_Powers.Temporary_Powers.Disable_Epic_TF",
    "Temporary_Powers.Temporary_Powers.Disable_Temp_TF",
    "Temporary_Powers.Temporary_Powers.Disable_Temp_Dead",
    "Temporary_Powers.Temporary_Powers.Disable_Inspiration",
    "Temporary_Powers.Temporary_Powers.Disable_Small_Inspiration",
    "Temporary_Powers.Temporary_Powers.Disable_Medium_Inspiration",
    "Temporary_Powers.Temporary_Powers.Disable_Large_Inspiration",
    "Temporary_Powers.Temporary_Powers.Disable_Special_Inspiration",
    "Temporary_Powers.Temporary_Powers.Unlimited_Endurance",
    "Temporary_Powers.Temporary_Powers.Hummingbird_Pack",
    "Temporary_Powers.Temporary_Powers.Raptor_Pack",
    "Temporary_Powers.Temporary_Powers.Low-G_Pack",
    "Temporary_Powers.Temporary_Powers.Jaunt_Initializer",
    "Temporary_Powers.Temporary_Powers.Stealth_Suit",
    "Temporary_Powers.Temporary_Powers.Stun_Grenade",
    "Temporary_Powers.Temporary_Powers.Web_Grenade",
    "Temporary_Powers.Temporary_Powers.Pet_Arena_HP",
    "Temporary_Powers.Temporary_Powers.Loa_Bone",
    "Temporary_Powers.Temporary_Powers.Summoning_Amulet",
    "Temporary_Powers.Temporary_Powers.Ghostslayer_Rifle",
    "Temporary_Powers.Temporary_Powers.Ghostslayer_Bomb",
    "Temporary_Powers.Temporary_Powers.Nictus_Gravitic_Emanation",
    "Temporary_Powers.Temporary_Powers.Nictus_Absorption",
    "Temporary_Powers.Temporary_Powers.Nictus_Shadow_Step",
    "Temporary_Powers.Temporary_Powers.Goldbricker_Rocket_Pack",
    "Temporary_Powers.Temporary_Powers.Stolen_SMG",
    "Temporary_Powers.Temporary_Powers.High_Explosive",
    "Temporary_Powers.Temporary_Powers.Venom_Grenade",
    "Temporary_Powers.Temporary_Powers.Sky_Raider_Flight_Pack",
    "Temporary_Powers.Temporary_Powers.Holographic_Projector",
    "Temporary_Powers.Temporary_Powers.Spirit_Potion",
    "Temporary_Powers.Temporary_Powers.Blackwand",
    "Temporary_Powers.Temporary_Powers.Soul_Essence",
    "Temporary_Powers.Temporary_Powers.Nullifier_Gun_Prototype",
    "Temporary_Powers.Temporary_Powers.Nullifier_Gun_Prototype_FB",
    "Temporary_Powers.Temporary_Powers.Nullifier_Gun_Mk_I",
    "Temporary_Powers.Temporary_Powers.Nullifier_Gun_Mk_I_FB",
    "Temporary_Powers.Temporary_Powers.Minor_Mutation",
    "Temporary_Powers.Temporary_Powers.Psionic_Activator",
    "Temporary_Powers.Temporary_Powers.Void_Hunter_Rifle",
    "Temporary_Powers.Temporary_Powers.Soul_Crystal",
    "Temporary_Powers.Temporary_Powers.Prison_Crystal",
    "Temporary_Powers.Temporary_Powers.Coral_Shards",
    "Temporary_Powers.Temporary_Powers.Coral_Club",
    "Temporary_Powers.Temporary_Powers.Coral_Amulet",
    "Temporary_Powers.Temporary_Powers.Enchantment_of_Serafina",
    "Temporary_Powers.Temporary_Powers.SC_Store_Raptor_Pack",
    "Temporary_Powers.Temporary_Powers.SC_Store_Low-G_Pack",
    "Temporary_Powers.Temporary_Powers.SC_Store_Jaunt_Initializer",
    "Temporary_Powers.Temporary_Powers.SC_Store_Web_Grenade",
    "Temporary_Powers.Temporary_Powers.SC_Store_Stealth_Suit",
    "Temporary_Powers.Temporary_Powers.SC_Store_Stun_Grenade",
    "Temporary_Powers.Temporary_Powers.SC_Store_IR_Goggles",
    "Temporary_Powers.Temporary_Powers.SC_Store_Cryonite_Armor",
    "Temporary_Powers.Temporary_Powers.SC_Store_EMP_Glove",
    "Temporary_Powers.Temporary_Powers.SC_Store_Smoke_Bomb",
    "Temporary_Powers.Temporary_Powers.SC_Store_Arachnos_Mace",
    "Temporary_Powers.Temporary_Powers.SC_Store_Kinetic_Shield",
    "Temporary_Powers.Temporary_Powers.SC_Arachnos_Heavy_Pistol",
    "Temporary_Powers.Temporary_Powers.SC_Arachnos_Submachinegun_Burst",
    "Temporary_Powers.Temporary_Powers.SC_Arachnos_Submachinegun_Heavy_Burst",
    "Temporary_Powers.Temporary_Powers.SC_Arachnos_Shotgun",
    "Temporary_Powers.Temporary_Powers.SC_Arachnos_Shotgun_Venom_Grenade",
    "Temporary_Powers.Temporary_Powers.SC_Arachnos_Shotgun_Frag_Grenade",
    "Temporary_Powers.Temporary_Powers.SC_Heavy_Pistol",
    "Temporary_Powers.Temporary_Powers.SC_Adv_Assault_Rifle_Burst",
    "Temporary_Powers.Temporary_Powers.SC_Adv_Assault_Rifle_Heavy_Burst",
    "Temporary_Powers.Temporary_Powers.SC_Adv_Assault_Rifle_Slug",
    "Temporary_Powers.Temporary_Powers.SC_Flamethrower",
    "Temporary_Powers.Temporary_Powers.SC_Incendiary_Grenade",
    "Temporary_Powers.Temporary_Powers.Warburg_Nuclear",
    "Temporary_Powers.Temporary_Powers.Warburg_Biological",
    "Temporary_Powers.Temporary_Powers.Warburg_Chemical",
    "Temporary_Powers.Temporary_Powers.Warburg_Launch_Codes",
    "Temporary_Powers.Temporary_Powers.Hyper_Stealth",
    "Temporary_Powers.Temporary_Powers.Combat_Invisibility",
    "Temporary_Powers.Temporary_Powers.Hyper_Phase",
    "Temporary_Powers.Temporary_Powers.Phase_Flight",
    "Temporary_Powers.Temporary_Powers.Raid_Deploy_Pylon",
    "Temporary_Powers.Temporary_Powers.Brawl_Charm",
    "Temporary_Powers.Temporary_Powers.Brawl_Taser",
    "Temporary_Powers.Temporary_Powers.Brawl_Tranq",
    "Temporary_Powers.Temporary_Powers.Brawl_Knives",
    "Temporary_Powers.Temporary_Powers.Brawl_Mutagen",
    "Temporary_Powers.Temporary_Powers.Infected_Anti-Serum",
    "Temporary_Powers.Temporary_Powers.Self-Destruct",
    "Temporary_Powers.Temporary_Powers.Demon_Box",
    "Temporary_Powers.Temporary_Powers.Arachnoid_Gas",
    "Temporary_Powers.Temporary_Powers.Artificial_Demon_Seeds",
    "Temporary_Powers.Temporary_Powers.Frenzy_Mutagen",
    "Temporary_Powers.Temporary_Powers.Rikti_Rifle",
    "Temporary_Powers.Temporary_Powers.Essence_of_the_Leviathan",
    "Temporary_Powers.Temporary_Powers.Arachnos_Submachine_Gun",
    "Temporary_Powers.Temporary_Powers.Arachnos_Power_Shield",
    "Temporary_Powers.Temporary_Powers.Arachnos_Combat_Radio",
    "Temporary_Powers.Temporary_Powers.Soul_Trap",
    "Temporary_Powers.Temporary_Powers.Freakshow_Gang_Sign",
    "Temporary_Powers.Temporary_Powers.Rikti_Drone",
    "Temporary_Powers.Temporary_Powers.Angelfire_Device",
    "Temporary_Powers.Temporary_Powers.Tranq_Darts",
    "Temporary_Powers.Temporary_Powers.Vial_of_Bees",
    "Temporary_Powers.Temporary_Powers.Creeper_Seed",
    "Temporary_Powers.Temporary_Powers.Snake-B-Gone",
    "Temporary_Powers.Temporary_Powers.Force_of_the_Earth",
    "Temporary_Powers.Temporary_Powers.Increase_Attack_Speed",
    "Temporary_Powers.Temporary_Powers.Increase_Flight_Speed",
    "Temporary_Powers.Temporary_Powers.Increase_Jump_Speed",
    "Temporary_Powers.Temporary_Powers.Increase_Recovery",
    "Temporary_Powers.Temporary_Powers.Increase_Run_Speed",
    "Temporary_Powers.Temporary_Powers.Increase_Perception",
    "Temporary_Powers.Temporary_Powers.Grant_Invisibility",
    "Temporary_Powers.Temporary_Powers.Smashing_Resistance",
    "Temporary_Powers.Temporary_Powers.Lethal_Resistance",
    "Temporary_Powers.Temporary_Powers.Cold_Resistance",
    "Temporary_Powers.Temporary_Powers.Fire_Resistance",
    "Temporary_Powers.Temporary_Powers.Energy_Resistance",
    "Temporary_Powers.Temporary_Powers.Negative_Energy_Resistance",
    "Temporary_Powers.Temporary_Powers.Toxic_Resistance",
    "Temporary_Powers.Temporary_Powers.Psionic_Resistance",
    "Temporary_Powers.Temporary_Powers.Endurance_Drain_Resistance",
    "Temporary_Powers.Temporary_Powers.Slow_Resistance",
    "Temporary_Powers.Temporary_Powers.Knockback_Protection",
    "Temporary_Powers.Temporary_Powers.Knockback_Increase",
    "Temporary_Powers.Temporary_Powers.Confusion_Resistance",
    "Temporary_Powers.Temporary_Powers.Fear_Resistance",
    "Temporary_Powers.Temporary_Powers.Disorient_Resistance",
    "Temporary_Powers.Temporary_Powers.Hold_Resistance",
    "Temporary_Powers.Temporary_Powers.Immobilize_Resistance",
    "Temporary_Powers.Temporary_Powers.Sleep_Resistance",
    "Temporary_Powers.Temporary_Powers.Mayhem_Increase_Movement_Speed",
    "Temporary_Powers.Temporary_Powers.Mayhem_Increase_Endurance",
    "Temporary_Powers.Temporary_Powers.Mayhem_Increase_Health",
    "Temporary_Powers.Temporary_Powers.Mayhem_Increase_Regeneration",
    "Temporary_Powers.Temporary_Powers.Mayhem_Group_Recall",
    "Temporary_Powers.Temporary_Powers.Mayhem_Flight_Pack",
    "Temporary_Powers.Temporary_Powers.Mayhem_Low-G_Pack",
    "Temporary_Powers.Temporary_Powers.Mayhem_Debt_Protection",
    "Temporary_Powers.Temporary_Powers.Mayhem_Resuscitate",
    "Temporary_Powers.Temporary_Powers.Mayhem_Costume_Change",
    "Temporary_Powers.Temporary_Powers.Shotgun",
    "Temporary_Powers.Temporary_Powers.Mayhem_Long_Bow",
    "Temporary_Powers.Temporary_Powers.Mayhem_Claymore",
    "Temporary_Powers.Temporary_Powers.Mayhem_Web_Grenade",
    "Temporary_Powers.Temporary_Powers.Mayhem_Stealth_Suit",
    "Temporary_Powers.Temporary_Powers.Mayhem_Stun_Grenade",
    "Temporary_Powers.Temporary_Powers.Mayhem_IR_Goggles",
    "Temporary_Powers.Temporary_Powers.Mayhem_Cryonite_Armor",
    "Temporary_Powers.Temporary_Powers.Mayhem_EMP_Glove",
    "Temporary_Powers.Temporary_Powers.Mayhem_Smoke_Bomb",
    "Temporary_Powers.Temporary_Powers.Mayhem_Store_Kinetic_Shield",
    "Temporary_Powers.Temporary_Powers.Mayhem_Flamethrower",
    "Temporary_Powers.Temporary_Powers.Mayhem_Electromagnetic_Grenades",
    "Temporary_Powers.Temporary_Powers.Mayhem_Rock",
    "Temporary_Powers.Temporary_Powers.Mayhem_Cryoprojection_Bracers",
    "Temporary_Powers.Temporary_Powers.Mayhem_Wave_Scrambler",
    "Temporary_Powers.Temporary_Powers.Mayhem_Plasmatic_Taser",
    "Temporary_Powers.Temporary_Powers.Mayhem_Tear_Gas",
    "Temporary_Powers.Temporary_Powers.Mayhem_Med_Kit",
    "Temporary_Powers.Temporary_Powers.Hero_Drop_of_Power",
    "Temporary_Powers.Temporary_Powers.Villain_Drop_of_Power",
    "Temporary_Powers.Temporary_Powers.Hero_Drop_of_Resistance",
    "Temporary_Powers.Temporary_Powers.Villain_Drop_of_Resistance",
    "Temporary_Powers.Temporary_Powers.Hero_Drop_of_Vitality",
    "Temporary_Powers.Temporary_Powers.Villain_Drop_of_Vitality",
    "Temporary_Powers.Temporary_Powers.Nectar",
    "Temporary_Powers.Temporary_Powers.Longbow_Mech",
    "Temporary_Powers.Temporary_Powers.Arachnos_Mini-Blaster",
    "Temporary_Powers.Temporary_Powers.Orestes_Rifle",
    "Temporary_Powers.Temporary_Powers.OBSOLETE_Temporal_Disruption",
    "Temporary_Powers.Temporary_Powers.Damage_Power",
    "Temporary_Powers.Temporary_Powers.Arachnos_Disguise",
    "Temporary_Powers.Temporary_Powers.Afterburner",
    "Temporary_Powers.Temporary_Powers.Clockwork_Connection",
    "Temporary_Powers.Temporary_Powers.Snow_Angel",
    "Temporary_Powers.Temporary_Powers.Golden_Rings",
    "Temporary_Powers.Temporary_Powers.Moment_of_Glory",
    "Temporary_Powers.Temporary_Powers.Winter_Login",
    "Temporary_Powers.Temporary_Powers.Winter_Mystery_Gift",
    "Temporary_Powers.Temporary_Powers.Winter_Holiday_Cheer",
    "Temporary_Powers.Temporary_Powers.Winter_Debt_Protection",
    "Temporary_Powers.Temporary_Powers.Winter_Holiday_Spirit",
    "Temporary_Powers.Temporary_Powers.Vince_is_Evil",
    "Temporary_Powers.Temporary_Powers.Vince_is_Sneaky",
    "Temporary_Powers.Temporary_Powers.The_I_Win_Button",
    "Temporary_Powers.Temporary_Powers.Power_of_the_Thorn",
    "Temporary_Powers.Temporary_Powers.Consignment_House_Transporter",
    "Temporary_Powers.Temporary_Powers.Black_Market_Transporter",
    "Temporary_Powers.Temporary_Powers.Resistance_Transporter",
    "Temporary_Powers.Temporary_Powers.Loyalist_Transporter",
    "Temporary_Powers.Temporary_Powers.Vanguard_HVAS",
    "Temporary_Powers.Temporary_Powers.HC_Witchdoctor",
    "Temporary_Powers.Temporary_Powers.HC_Harlequin",
    "Temporary_Powers.Temporary_Powers.HC_StrongMan",
    "Temporary_Powers.Temporary_Powers.HC_Guard",
    "Temporary_Powers.Temporary_Powers.HC_Coralax",
    "Temporary_Powers.Temporary_Powers.HC_Council_Penumbra",
    "Temporary_Powers.Temporary_Powers.HC_Council_Galaxy",
    "Temporary_Powers.Temporary_Powers.HC_Crey_Security",
    "Temporary_Powers.Temporary_Powers.HC_Crey_Agent",
    "Temporary_Powers.Temporary_Powers.HC_Crey_Powersuit",
    "Temporary_Powers.Temporary_Powers.HC_PP",
    "Temporary_Powers.Temporary_Powers.HC_Freakshow_Stunner",
    "Temporary_Powers.Temporary_Powers.HC_Freakshow_Boss",
    "Temporary_Powers.Temporary_Powers.HC_Goldbricker",
    "Temporary_Powers.Temporary_Powers.HC_Hellion_Thug",
    "Temporary_Powers.Temporary_Powers.HC_KoA",
    "Temporary_Powers.Temporary_Powers.HC_LegacyChain",
    "Temporary_Powers.Temporary_Powers.HC_MaltaOp",
    "Temporary_Powers.Temporary_Powers.HC_MaltaGunslinger",
    "Temporary_Powers.Temporary_Powers.HC_Nemesis_Soldier",
    "Temporary_Powers.Temporary_Powers.HC_Outcast_Thug",
    "Temporary_Powers.Temporary_Powers.HC_PPD_Cop",
    "Temporary_Powers.Temporary_Powers.HC_PPD_Swat",
    "Temporary_Powers.Temporary_Powers.HC_PPD_Hardsuit",
    "Temporary_Powers.Temporary_Powers.HC_Lost",
    "Temporary_Powers.Temporary_Powers.HC_Scrapyarder",
    "Temporary_Powers.Temporary_Powers.HC_Skulls",
    "Temporary_Powers.Temporary_Powers.HC_Skyraiders_Wings",
    "Temporary_Powers.Temporary_Powers.HC_Pirate",
    "Temporary_Powers.Temporary_Powers.HC_Troll",
    "Temporary_Powers.Temporary_Powers.HC_Inkman",
    "Temporary_Powers.Temporary_Powers.HC_Eidolan",
    "Temporary_Powers.Temporary_Powers.HC_Warrior_Thug",
    "Temporary_Powers.Temporary_Powers.Power_of_the_Hamidon",
    "Temporary_Powers.Temporary_Powers.Negative_Stealth",
    "Temporary_Powers.Temporary_Powers.Negative_Stealth_Warburg",
    "Temporary_Powers.Temporary_Powers.Vanguard_Psionic_Shield",
    "Temporary_Powers.Temporary_Powers.Vanguard_Curse_Removal",
    "Temporary_Powers.Temporary_Powers.Vanguard_Psi-Bomb",
    "Temporary_Powers.Temporary_Powers.Curse_of_Weariness",
    "Temporary_Powers.Temporary_Powers.OurPortalHero",
    "Temporary_Powers.Temporary_Powers.OurPortalVillain",
    "Temporary_Powers.Temporary_Powers.Wedding_Portal",
    "Temporary_Powers.Temporary_Powers.Disable_SetBonus",
    "Temporary_Powers.Temporary_Powers.Challenge_Debuff",
    "Temporary_Powers.Temporary_Powers.The_Lost_Cure",
    "Temporary_Powers.Temporary_Powers.Cured",
    "Temporary_Powers.Temporary_Powers.Cured_Counter",
    "Temporary_Powers.Temporary_Powers.Midnight_Visage",
    "Temporary_Powers.Temporary_Powers.Nictus_Transformation",
    "Temporary_Powers.Temporary_Powers.Diseased",
    "Temporary_Powers.Temporary_Powers.NoPhase",
    "Temporary_Powers.Temporary_Powers.Demoralized",
    "Temporary_Powers.Temporary_Powers.Travel_Suppression",
    "Temporary_Powers.Temporary_Powers.PVP_Resist_Bonus",
    "Temporary_Powers.Temporary_Powers.PVP_Heal_Decay",
    "Temporary_Powers.Temporary_Powers.PVP_SuddenDeath",
    "Temporary_Powers.Temporary_Powers.PVP_Disable_SetBonus",
    "Temporary_Powers.Temporary_Powers.Bit_Test",
    "Temporary_Powers.Temporary_Powers.prestige_fivemerits",
    "Temporary_Powers.Temporary_Powers.KillTK",
    "Temporary_Powers.Temporary_Powers.Walk",
    "Temporary_Powers.Temporary_Powers.5th_Column_Uniform",
    "Temporary_Powers.Temporary_Powers.Dimensional_Grounding_Ray",
    "Temporary_Powers.Temporary_Powers.Power_of_Scirocco",
    "Temporary_Powers.Temporary_Powers.Power_of_Scirocco_Click",
    "Temporary_Powers.Temporary_Powers.Power_of_Scirocco_Summon_Click",
    "Temporary_Powers.Temporary_Powers.Power_of_Scirocco_Reward",
    "Temporary_Powers.Temporary_Powers.Power_of_Ghost_Widow",
    "Temporary_Powers.Temporary_Powers.Power_of_Ghost_Widow_Click",
    "Temporary_Powers.Temporary_Powers.Power_of_Ghost_Widow_Reward",
    "Temporary_Powers.Temporary_Powers.Power_of_Captain_Mako",
    "Temporary_Powers.Temporary_Powers.Power_of_Captain_Mako_Auto",
    "Temporary_Powers.Temporary_Powers.Power_of_Captain_Mako_Reward",
    "Temporary_Powers.Temporary_Powers.Power_of_Black_Scorpion",
    "Temporary_Powers.Temporary_Powers.Power_of_Black_Scorpion_Click",
    "Temporary_Powers.Temporary_Powers.Power_of_Black_Scorpion_Reward",
    "Temporary_Powers.Temporary_Powers.DA_Seduction",
    "Temporary_Powers.Temporary_Powers.DA_Fiendish_Glare",
    "Temporary_Powers.Temporary_Powers.DA_Beastly",
    "Temporary_Powers.Temporary_Powers.DA_Spectral_Touch",
    "Temporary_Powers.Temporary_Powers.prestige_Experienced_78_veteran",
    "Temporary_Powers.Temporary_Powers.prestige_Experienced_90_veteran",
    "Temporary_Powers.Temporary_Powers.Phenomenal_Luck",
    "Temporary_Powers.Temporary_Powers.Robust",
    "Temporary_Powers.Temporary_Powers.Uncanny_Insight",
    "Temporary_Powers.Temporary_Powers.Righteous_Rage",
    "Temporary_Powers.Temporary_Powers.Escape",
    "Temporary_Powers.Temporary_Powers.Cryo_Ammunition",
    "Temporary_Powers.Temporary_Powers.Incendiary_Ammunition",
    "Temporary_Powers.Temporary_Powers.Chemical_Ammunition",
    "Temporary_Powers.Temporary_Powers.Marked_for_Death",
    "Temporary_Powers.Temporary_Powers.Designated_Target",
    "Temporary_Powers.Temporary_Powers.FWG_Temp",
    "Temporary_Powers.Temporary_Powers.PositronTFJetpack",
    "Temporary_Powers.Temporary_Powers.Invention_Bat",
    "Temporary_Powers.Temporary_Powers.Invention_Bat_Extendable",
    "Temporary_Powers.Temporary_Powers.Invention_Sledgehammer",
    "Temporary_Powers.Temporary_Powers.Invention_Revolver",
    "Temporary_Powers.Temporary_Powers.Invention_Ethereal",
    "Temporary_Powers.Temporary_Powers.Power_Analyzer_mk_I",
    "Temporary_Powers.Temporary_Powers.Power_Analyzer_mk_II",
    "Temporary_Powers.Temporary_Powers.Power_Analyzer_mk_III",
    "Temporary_Powers.Temporary_Powers.Power_Analyzer",
    "Temporary_Powers.Temporary_Powers.Invention_Hand_Grenade",
    "Temporary_Powers.Temporary_Powers.Invention_Plasmatic_Taser",
    "Temporary_Powers.Temporary_Powers.Invention_Recovery_Serum",
    "Temporary_Powers.Temporary_Powers.Invention_Envenomed_Dagger",
    "Temporary_Powers.Temporary_Powers.Invention_Jet_Pack",
    "Temporary_Powers.Temporary_Powers.Invention_Jet_Pack_Goldbricker",
    "Temporary_Powers.Temporary_Powers.Invention_Jet_Pack_Holiday",
    "Temporary_Powers.Temporary_Powers.Invention_Jet_Pack_LKT",
    "Temporary_Powers.Temporary_Powers.Invention_Jet_Pack_Longbow_Big",
    "Temporary_Powers.Temporary_Powers.Invention_Jet_Pack_Longbow_Small",
    "Temporary_Powers.Temporary_Powers.Invention_Stun_Grenades",
    "Temporary_Powers.Temporary_Powers.Invention_Med_Pack",
    "Temporary_Powers.Temporary_Powers.Invention_Backup_Radio",
    "Temporary_Powers.Temporary_Powers.Invention_Resuscitator",
    "Temporary_Powers.Temporary_Powers.Invention_Smoke_Flash",
    "Temporary_Powers.Temporary_Powers.Invention_Kinetic_Dampener",
    "Temporary_Powers.Temporary_Powers.The_Perfect_Eye",
    "Temporary_Powers.Temporary_Powers.The_True_Furnace",
    "Temporary_Powers.Temporary_Powers.Heart_of_a_Storm_Elemental",
    "Temporary_Powers.Temporary_Powers.Anger_Monument",
    "Temporary_Powers.Temporary_Powers.Crystal_of_Resilience",
    "Temporary_Powers.Temporary_Powers.Power_Siphon",
    "Temporary_Powers.Temporary_Powers.Mystic_Fortune",
    "Temporary_Powers.Temporary_Powers.Mystic_Fortune_Lock",
    "Temporary_Powers.Temporary_Powers.Fortune_The_Fool",
    "Temporary_Powers.Temporary_Powers.Fortune_The_Magician",
    "Temporary_Powers.Temporary_Powers.Fortune_The_Lovers",
    "Temporary_Powers.Temporary_Powers.Fortune_The_Hermit",
    "Temporary_Powers.Temporary_Powers.Fortune_Wheel_of_Fortune",
    "Temporary_Powers.Temporary_Powers.Fortune_Death",
    "Temporary_Powers.Temporary_Powers.Fortune_The_Tower",
    "Temporary_Powers.Temporary_Powers.Fortune_The_Tower_Buff",
    "Temporary_Powers.Temporary_Powers.Fortune_The_Moon",
    "Temporary_Powers.Temporary_Powers.Fortune_The_Sun",
    "Temporary_Powers.Temporary_Powers.Mutation:_Devolution",
    "Temporary_Powers.Temporary_Powers.Mutation:_Acute_Senses",
    "Temporary_Powers.Temporary_Powers.Mutation:_Tough_Hide",
    "Temporary_Powers.Temporary_Powers.Mutation:_Pain_Tolerance",
    "Temporary_Powers.Temporary_Powers.Mutation:_Quick_Reflexes",
    "Temporary_Powers.Temporary_Powers.Mutation:_Heightened_Speed",
    "Temporary_Powers.Temporary_Powers.LevelShift01",
    "Temporary_Powers.Temporary_Powers.LevelShift02",
    "Temporary_Powers.Temporary_Powers.LevelShift03",
    "Temporary_Powers.Temporary_Powers.LevelShift04",
    "Temporary_Powers.Temporary_Powers.LevelShift05",
    "Temporary_Powers.Temporary_Powers.LevelShift06",
    "Temporary_Powers.Temporary_Powers.GrantHeroAlignmentPower",
    "Temporary_Powers.Temporary_Powers.GrantVigilanteAlignmentPower",
    "Temporary_Powers.Temporary_Powers.GrantRogueAlignmentPower",
    "Temporary_Powers.Temporary_Powers.GrantVillainAlignmentPower",
    "Temporary_Powers.Temporary_Powers.ClearAlignmentPower",
    "Temporary_Powers.Temporary_Powers.GRHeroAlignmentPower",
    "Temporary_Powers.Temporary_Powers.GRVigilanteAlignmentPower",
    "Temporary_Powers.Temporary_Powers.GRRogueAlignmentPower",
    "Temporary_Powers.Temporary_Powers.GRVillainAlignmentPower",
    "Temporary_Powers.Temporary_Powers.Resistance_HE_Grenade",
    "Temporary_Powers.Temporary_Powers.Vulnerability",
    "Temporary_Powers.Temporary_Powers.Opportunity",
    "Temporary_Powers.Temporary_Powers.Opportunity_Proc",
    "Temporary_Powers.Temporary_Powers.Opportunity_Focus",
    "Temporary_Powers.Temporary_Powers.Opportunity_Lock",
    "Temporary_Powers.Temporary_Powers.Pacification_Grenade",
    "Temporary_Powers.Temporary_Powers.Dissolving_Acid",
    "Temporary_Powers.Temporary_Powers.Glowing_Lichen",
    "Temporary_Powers.Temporary_Powers.Chain_Gun",
    "Temporary_Powers.Temporary_Powers.All_Phases",
    "Temporary_Powers.Temporary_Powers.Police_Drone_Recharge",
    "Temporary_Powers.Temporary_Powers.ZE_Molotov",
    "Temporary_Powers.Temporary_Powers.ZE_Katana",
    "Temporary_Powers.Temporary_Powers.Juggernaut_End_Offense",
    "Temporary_Powers.Temporary_Powers.Juggernaut_End_Defense",
    "Temporary_Powers.Temporary_Powers.Juggernaut_End_Standard",
    "Temporary_Powers.Temporary_Powers.Power_Cell",
    "Temporary_Powers.Temporary_Powers.Disintegrated",
    "Temporary_Powers.Temporary_Powers.EntangledInteractA",
    "Temporary_Powers.Temporary_Powers.EntangledAuraA",
    "Temporary_Powers.Temporary_Powers.EntangledInteractB",
    "Temporary_Powers.Temporary_Powers.EntangledAuraB",
    "Temporary_Powers.Temporary_Powers.Caught_By_Attractor",
    "Temporary_Powers.Temporary_Powers.Soul_Catcher",
    "Temporary_Powers.Temporary_Powers.Flames_of_Prometheus",
    "Temporary_Powers.Temporary_Powers.Disable_Temp_IT",
    "Temporary_Powers.Temporary_Powers.Disable_Temp_IT_Dead",
    "Temporary_Powers.Temporary_Powers.N_Tutorial_Hero_Teleport",
    "Temporary_Powers.Temporary_Powers.N_Tutorial_Villain_Teleport",
    "Temporary_Powers.Temporary_Powers.Combo_Level_1",
    "Temporary_Powers.Temporary_Powers.Combo_Level_2",
    "Temporary_Powers.Temporary_Powers.Combo_Level_3",
    "Temporary_Powers.Temporary_Powers.Time_Crawl_Debuff",
    "Temporary_Powers.Temporary_Powers.Temporal_Selection_Buff",
    "Temporary_Powers.Temporary_Powers.Beam_Rifle_Debuff",
    "Temporary_Powers.Temporary_Powers.Perfection_of_Body_Level_1",
    "Temporary_Powers.Temporary_Powers.Perfection_of_Body_Level_2",
    "Temporary_Powers.Temporary_Powers.Perfection_of_Body_Level_3",
    "Temporary_Powers.Temporary_Powers.Perfection_of_Mind_Level_1",
    "Temporary_Powers.Temporary_Powers.Perfection_of_Mind_Level_2",
    "Temporary_Powers.Temporary_Powers.Perfection_of_Mind_Level_3",
    "Temporary_Powers.Temporary_Powers.Perfection_of_Soul_Level_1",
    "Temporary_Powers.Temporary_Powers.Perfection_of_Soul_Level_2",
    "Temporary_Powers.Temporary_Powers.Perfection_of_Soul_Level_3",
    "Temporary_Powers.Temporary_Powers.Infected_Syringe",
    "Temporary_Powers.Temporary_Powers.RIPInfected",
    "Temporary_Powers.Temporary_Powers.Token_Granter",
    "Temporary_Powers.Temporary_Powers.Blue_Spectrum_Power",
    "Temporary_Powers.Temporary_Powers.Power_Absorbed",
    "Temporary_Powers.Temporary_Powers.Seed_Flight",
    "Temporary_Powers.Temporary_Powers.Spirit_Snare",
    "Temporary_Powers.Temporary_Powers.Hydra_Chemical_Damage_Enhancer",
    "Temporary_Powers.Temporary_Powers.Hydra_Chemical_Accuracy_Enhancer",
    "Temporary_Powers.Temporary_Powers.Hydra_Chemical_Defense_Enhancer",
    "Temporary_Powers.Temporary_Powers.Hydra_Chemical_Recovery_Enhancer",
    "Temporary_Powers.Temporary_Powers.Synapse_Thunderous_Blast",
    "Temporary_Powers.Temporary_Powers.Synaptic_Strike",
    "Temporary_Powers.Temporary_Powers.Synapse_Whirlwind",
    "Temporary_Powers.Temporary_Powers.Synapstic_Resistance",
    "Temporary_Powers.Temporary_Powers.Aura_of_Possession",
    "Temporary_Powers.Temporary_Powers.Seed_Reward_Boost",
    "Temporary_Powers.Temporary_Powers.Alt_Experienced",
    "Temporary_Powers.Temporary_Powers.Alt_Loot_Booster_Granter",
    "Temporary_Powers.Temporary_Powers.Alt_Loot_Booster_Auto",
    "Temporary_Powers.Temporary_Powers.Alt_XP_Booster_Granter",
    "Temporary_Powers.Temporary_Powers.Alt_XP_Booster_Auto",
    "Temporary_Powers.Temporary_Powers.Alt_Inf_Booster_Granter",
    "Temporary_Powers.Temporary_Powers.Alt_Inf_Booster_Auto",
    "Temporary_Powers.Temporary_Powers.Alt_Prestige_Booster_Granter",
    "Temporary_Powers.Temporary_Powers.Alt_Prestige_Booster_Auto",
    "Temporary_Powers.Temporary_Powers.Alt_Restore",
    "Temporary_Powers.Temporary_Powers.Alt_Revival",
    "Temporary_Powers.Temporary_Powers.Alt_Mission_Teleporter",
    "Temporary_Powers.Temporary_Powers.Alt_Base_Teleporter",
    "Temporary_Powers.Temporary_Powers.Alt_Signature_Summon_Tank",
    "Temporary_Powers.Temporary_Powers.Alt_Signature_Summon_Support",
    "Temporary_Powers.Temporary_Powers.Alt_Signature_Summon_Melee",
    "Temporary_Powers.Temporary_Powers.Alt_Signature_Summon_Ranged",
    "Temporary_Powers.Temporary_Powers.Alt_Signature_Summon_Lock",
    "Temporary_Powers.Temporary_Powers.Alt_Witchdoctor_Costume",
    "Temporary_Powers.Temporary_Powers.Alt_Harlequin_Costume",
    "Temporary_Powers.Temporary_Powers.Alt_Strongman_Costume",
    "Temporary_Powers.Temporary_Powers.Alt_Guard_Costume",
    "Temporary_Powers.Temporary_Powers.Alt_Coralax_Costume",
    "Temporary_Powers.Temporary_Powers.Alt_Council_Penumbra_Costume",
    "Temporary_Powers.Temporary_Powers.Alt_Council_Galaxy_Costume",
    "Temporary_Powers.Temporary_Powers.Alt_Security_Guard_Costume",
    "Temporary_Powers.Temporary_Powers.Alt_Crey_Agent_Costume_Power",
    "Temporary_Powers.Temporary_Powers.Alt_Crey_Powersuit_Costume",
    "Temporary_Powers.Temporary_Powers.Alt_Paragon_Protector_Costume",
    "Temporary_Powers.Temporary_Powers.Alt_Freakshow_Stunner_Costume",
    "Temporary_Powers.Temporary_Powers.Alt_Freakshow_Boss_Costume",
    "Temporary_Powers.Temporary_Powers.Alt_Goldbricker_Costume",
    "Temporary_Powers.Temporary_Powers.Alt_Hellion_Thug_Costume",
    "Temporary_Powers.Temporary_Powers.Alt_Knives_of_Artemis_Costume",
    "Temporary_Powers.Temporary_Powers.Alt_Legacy_Chain_Costume",
    "Temporary_Powers.Temporary_Powers.Alt_Malta_Operative_Costume",
    "Temporary_Powers.Temporary_Powers.Alt_Malta_Gunslinger_Costume",
    "Temporary_Powers.Temporary_Powers.Alt_Nemesis_Soldier_Costume",
    "Temporary_Powers.Temporary_Powers.Alt_Outcast_Costume",
    "Temporary_Powers.Temporary_Powers.Alt_PPD_Cop_Costume",
    "Temporary_Powers.Temporary_Powers.Alt_PPD_Swat_Costume",
    "Temporary_Powers.Temporary_Powers.Alt_PPD_Hardsuit_Costume",
    "Temporary_Powers.Temporary_Powers.Alt_Lost_Costume",
    "Temporary_Powers.Temporary_Powers.Alt_Scrapyarder_Costume",
    "Temporary_Powers.Temporary_Powers.Alt_Skulls_Costume",
    "Temporary_Powers.Temporary_Powers.Alt_Skyraiders_Costume",
    "Temporary_Powers.Temporary_Powers.Alt_Pirate_Costume",
    "Temporary_Powers.Temporary_Powers.Alt_Troll_Costume",
    "Temporary_Powers.Temporary_Powers.Alt_Tsoo_Inkman_Costume",
    "Temporary_Powers.Temporary_Powers.Alt_Vahzilok_Eidolon_Costume",
    "Temporary_Powers.Temporary_Powers.Alt_Warrior_Thug_Costume",
    "Temporary_Powers.Temporary_Powers.Alt_LP_Hand_Grenade",
    "Temporary_Powers.Temporary_Powers.Alt_LP_Plasmatic_Taser",
    "Temporary_Powers.Temporary_Powers.Alt_LP_Recovery_Serum",
    "Temporary_Powers.Temporary_Powers.Alt_LP_Envenomed_Dagger",
    "Temporary_Powers.Temporary_Powers.Alt_LP_Jet_Pack",
    "Temporary_Powers.Temporary_Powers.Alt_LP_Stun_Grenades",
    "Temporary_Powers.Temporary_Powers.Alt_LP_Med_Pack",
    "Temporary_Powers.Temporary_Powers.Alt_LP_Backup_Radio",
    "Temporary_Powers.Temporary_Powers.Alt_LP_Smoke_Flash",
    "Temporary_Powers.Temporary_Powers.Alt_LP_Kinetic_Dampener",
    "Temporary_Powers.Temporary_Powers.Playtest_TPN_Prop_Victory",
    "Temporary_Powers.Temporary_Powers.OneWillDie_Arc_2_Heal",
    "Temporary_Powers.Temporary_Powers.Holiday_Duplicating_Gift",
    "Temporary_Powers.Temporary_Powers.Holiday_Instant_Snowstorm",
    "Temporary_Powers.Temporary_Powers.Let_It_Snow",
    "Temporary_Powers.Temporary_Powers.Alt_PRP_Mission_Teleporter",
    "Temporary_Powers.Temporary_Powers.Alt_Rikti_Mentalist",
    "Temporary_Powers.Temporary_Powers.Alt_St_Louis_Slammer",
    "Temporary_Powers.Temporary_Powers.Alt_Warwolf_Whistle",
    "Temporary_Powers.Temporary_Powers.Alt_Holy_Shotgun_Shells",
    "Temporary_Powers.Temporary_Powers.Cupid_Love",
    "Temporary_Powers.Temporary_Powers.Cupid_Love_Friend",
    "Temporary_Powers.Temporary_Powers.Cupid_Love_Foe",
    "Temporary_Powers.Temporary_Powers.Cupid_Jealousy",
    "Temporary_Powers.Temporary_Powers.Cupid_Jealousy_Friend",
    "Temporary_Powers.Temporary_Powers.Cupid_Jealousy_Foe",
    "Temporary_Powers.Temporary_Powers.Cupid_Mission",
    "Temporary_Powers.Temporary_Powers.Ritual_Debuff",
    "Temporary_Powers.Temporary_Powers.Alt_Super_Pack_Experienced",
    "Temporary_Powers.Temporary_Powers.Recall_Disabled",
    "Temporary_Powers.Temporary_Powers.Temps_Disabled",
    "Temporary_Powers.Temporary_Powers.Alt_Granted_Frisbee",
    "Temporary_Powers.Temporary_Powers.Alt_Endurance_Discount_Granter",
    "Temporary_Powers.Temporary_Powers.Alt_Endurance_Discount_Auto",
    "Temporary_Powers.Temporary_Powers.Haunted",
    "Temporary_Powers.Temporary_Powers.Incarnate_Reward_Dark_Astoria",
    "Temporary_Powers.Temporary_Powers.Pack_Mentality",
    "Temporary_Powers.Temporary_Powers.Pack_Mentality_Lock",
    "Temporary_Powers.Temporary_Powers.Shivan_Exposure_Damage_Enhancer",
    "Temporary_Powers.Temporary_Powers.Shivan_Exposure_Accuracy_Enhancer",
    "Temporary_Powers.Temporary_Powers.Shivan_Exposure_Defense_Enhancer",
    "Temporary_Powers.Temporary_Powers.Shivan_Exposure_Recovery_Enhancer",
    "Temporary_Powers.Temporary_Powers.Summon_Adamastor",
    "Temporary_Powers.Temporary_Powers.Assassins_Focus",
    "Temporary_Powers.Temporary_Powers.Absorb_Test",
    "Temporary_Powers.Temporary_Powers.Absorb_Toggle_Test",
    "Temporary_Powers.Temporary_Powers.Magical_Burst",
    "Temporary_Powers.Temporary_Powers.Blessing_of_Tielekku",
    "Temporary_Powers.Temporary_Powers.Aura_of_Mot",
    "Temporary_Powers.Temporary_Powers.Hide_Kheldian_Server_Tray",
    "Temporary_Powers.Temporary_Powers.I22_MissionReward_TsooSummon",
    "Temporary_Powers.Temporary_Powers.I22_MissionReward_BoonSunXiong",
    "Temporary_Powers.Temporary_Powers.Enable_ServerTrayOverride",
    "Temporary_Powers.Temporary_Powers.Alt_Defense_Amplifier_1_hour",
    "Temporary_Powers.Temporary_Powers.Alt_Defense_Amplifier_4_hour",
    "Temporary_Powers.Temporary_Powers.Alt_Defense_Amplifier_8_hour",
    "Temporary_Powers.Temporary_Powers.Alt_Offense_Amplifier_1_hour",
    "Temporary_Powers.Temporary_Powers.Alt_Offense_Amplifier_4_hour",
    "Temporary_Powers.Temporary_Powers.Alt_Offense_Amplifier_8_hour",
    "Temporary_Powers.Temporary_Powers.Alt_Survival_Amplifier_1_hour",
    "Temporary_Powers.Temporary_Powers.Alt_Survival_Amplifier_4_hour",
    "Temporary_Powers.Temporary_Powers.Alt_Survival_Amplifier_8_hour",
    "Temporary_Powers.Temporary_Powers.Alt_50_Percent_XP_Booster_1_hour",
    "Temporary_Powers.Temporary_Powers.Alt_50_Percent_XP_Booster_4_hour",
    "Temporary_Powers.Temporary_Powers.Alt_50_Percent_XP_Booster_8_hour",
    "Temporary_Powers.Temporary_Powers.Alt_50_Percent_Shared_XP_Booster_Granter_1_hour",
    "Temporary_Powers.Temporary_Powers.Alt_50_Percent_Shared_XP_Booster_Auto_1_hour",
    "Temporary_Powers.Temporary_Powers.Alt_50_Percent_Shared_XP_Booster_Granter_4_hour",
    "Temporary_Powers.Temporary_Powers.Alt_50_Percent_Shared_XP_Booster_Auto_4_hour",
    "Temporary_Powers.Temporary_Powers.Alt_50_Percent_Shared_XP_Booster_Granter_8_hour",
    "Temporary_Powers.Temporary_Powers.Alt_50_Percent_Shared_XP_Booster_Auto_8_hour",
    "Temporary_Powers.Temporary_Powers.Alt_Super_XP_Booster_1_hour",
    "Temporary_Powers.Temporary_Powers.Alt_Super_XP_Booster_4_hour",
    "Temporary_Powers.Temporary_Powers.Alt_Super_XP_Booster_8_hour",
    "Temporary_Powers.Temporary_Powers.Incite_the_Crowd",
    "Temporary_Powers.Temporary_Powers.Summer_Event_Stealth",
    "Temporary_Powers.Temporary_Powers.Alt_Web_Grenade",
    "Temporary_Powers.Temporary_Powers.Quills_of_Jocas",
    "Temporary_Powers.Temporary_Powers.Maximize_Test_Power",
    "Temporary_Powers.Temporary_Powers.Stacking_Test_Power_A",
    "Temporary_Powers.Temporary_Powers.Stacking_Test_Power_B",
    "Temporary_Powers.Temporary_Powers.Suppression_Test_Power_A",
    "Temporary_Powers.Temporary_Powers.Suppression_Test_Power_B",
    "Temporary_Powers.Temporary_Powers.Suppression_Test_Power_A2",
    "Temporary_Powers.Temporary_Powers.Suppression_Test_Power_B2",
    "Temporary_Powers.Temporary_Powers.Mod_Target_Focus_Test",
    "Temporary_Powers.Temporary_Powers.Test_Charge",
    "Temporary_Powers.Temporary_Powers.Test_Death_Grip",
    "Temporary_Powers.Temporary_Powers.Test_Blink",
    "Temporary_Powers.Temporary_Powers.Test_Roll",
    "Temporary_Powers.Temporary_Powers.Tidal_Power",
    "Temporary_Powers.Temporary_Powers.Enhanced_Water_Jet_Lock",
    "Temporary_Powers.Temporary_Powers.Tyranny",
    "Temporary_Powers.Temporary_Powers.Hammer_of_Justice",
    "Temporary_Powers.Temporary_Powers.Zeus_Lightning_Bolt",
    "Temporary_Powers.Temporary_Powers.Laser_Beam_Eyes",
    "Temporary_Powers.Temporary_Powers.Energy_Smash",
    "Temporary_Powers.Temporary_Powers.Hand_Clap",
    "Temporary_Powers.Temporary_Powers.Fly",
    "Temporary_Powers.Temporary_Powers.Bloom",
    "Temporary_Powers.Temporary_Powers.Psionic_Melee_Insight",
    "Temporary_Powers.Temporary_Powers.Psionic_Melee_Insight_Lockout",
    "Temporary_Powers.Temporary_Powers.Boggled",
    "Temporary_Powers.Temporary_Powers.Summer_Event_Administrator",
    "Temporary_Powers.Temporary_Powers.Shadow_Shunt",
    "Temporary_Powers.Temporary_Powers.Summer_Event_Heist_Hitter_Explained",
    "Temporary_Powers.Temporary_Powers.Summer_Event_Heist_Hacker_Explained",
    "Temporary_Powers.Temporary_Powers.Summer_Event_Heist_Grifter_Explained",
    "Temporary_Powers.Temporary_Powers.Summer_Event_Heist_Thief_Explained",
    "Temporary_Powers.Temporary_Powers.Summer_Event_Disable_Travel",
    "Temporary_Powers.Temporary_Powers.Longbow_Jetpack_Male",
    "Temporary_Powers.Temporary_Powers.Longbow_Jetpack_Female",
    "Temporary_Powers.Temporary_Powers.Pandora_Buff_Granter",
    "Temporary_Powers.Temporary_Powers.Pandora_Buff",
    "Temporary_Powers.Temporary_Powers.Pandora_Proc",
    "Temporary_Powers.Temporary_Powers.Pandora_Stun_Boost",
    "Temporary_Powers.Temporary_Powers.Pandora_Sleep_Boost",
    "Temporary_Powers.Temporary_Powers.Pandora_Immobilize_Boost",
    "Temporary_Powers.Temporary_Powers.Pandora_Hold_Boost",
    "Temporary_Powers.Temporary_Powers.Pandora_Confused_Boost",
    "Temporary_Powers.Temporary_Powers.Pandora_Terrorized_Boost",
    "Temporary_Powers.Temporary_Powers.Pandora_Heal",
    "Temporary_Powers.Temporary_Powers.Alt_Victoria_Costume",
    "Temporary_Powers.Temporary_Powers.Alt_Olympian_Guard_Costume",
    "Temporary_Powers.Temporary_Powers.Alt_IDF_Ranger_Costume",
    "Temporary_Powers.Temporary_Powers.Alt_Praetorian_Clockwork_Costume",
    "Temporary_Powers.Temporary_Powers.Alt_Rula_Shin_Costume",
    "Temporary_Powers.Temporary_Powers.Alt_Talons_of_Vengeance_Costume",
    "Temporary_Powers.Temporary_Powers.Molten_Embrace_Proc",
    "Temporary_Powers.Temporary_Powers.Offensive_Adaptation_Proc",
    "Temporary_Powers.Temporary_Powers.Defensive_Adaptation_Proc",
    "Temporary_Powers.Temporary_Powers.Plant_Manipulation_Toxins",
    "Temporary_Powers.Temporary_Powers.Test_Target_Lock",
    "Temporary_Powers.Temporary_Powers.Kama",
    "Temporary_Powers.Temporary_Powers.Tommy_Gun",
    "Temporary_Powers.Temporary_Powers.Energy_Ring_Toss",
    "Temporary_Powers.Temporary_Powers.Presence_Unrelenting_Heal",
    "Temporary_Powers.Temporary_Powers.Wind_Control_Pressure",
    "Temporary_Powers.Temporary_Powers.Savage_Melee_Blood_Frenzy",
    "Temporary_Powers.Temporary_Powers.Savage_Melee_Blood_Frenzy_Stalker",
    "Temporary_Powers.Temporary_Powers.Savage_Melee_Exhausted",
    "Temporary_Powers.Temporary_Powers.PS_Wu_Yin_Costume",
    "Temporary_Powers.Temporary_Powers.PS_The_Center_Costume",
    "Temporary_Powers.Temporary_Powers.PS_Antimatter_Costume",
    "Temporary_Powers.Temporary_Powers.PS_Antimatter_Disintegration",
    "Temporary_Powers.Temporary_Powers.PS_Antimatter_Neutron_Bomb",
    "Temporary_Powers.Temporary_Powers.PS_Antimatter_Electron_Haze",
    "Temporary_Powers.Temporary_Powers.PS_Antimatter_Cosmic_Burst",
    "Temporary_Powers.Temporary_Powers.PS_Antimatter_Atomic_Blast",
    "Temporary_Powers.Temporary_Powers.PS_Antimatter_Radiation_Infection",
    "Temporary_Powers.Temporary_Powers.PS_Antimatter_Enervating_Field",
    "Temporary_Powers.Temporary_Powers.PS_Antimatter_Irradiate",
    "Temporary_Powers.Temporary_Powers.PS_Antimatter_Lingering_Radiation",
    "Temporary_Powers.Temporary_Powers.PS_Deadlock_Costume",
    "Temporary_Powers.Temporary_Powers.PS_Deadlock_Neuron_Serum",
    "Temporary_Powers.Temporary_Powers.PS_Deadlock_Initial_Strike",
    "Temporary_Powers.Temporary_Powers.PS_Deadlock_Heavy_Blow",
    "Temporary_Powers.Temporary_Powers.PS_Deadlock_Sweeping_Cross",
    "Temporary_Powers.Temporary_Powers.PS_Deadlock_Spinning_Strike",
    "Temporary_Powers.Temporary_Powers.PS_Deadlock_Low_Kick",
    "Temporary_Powers.Temporary_Powers.PS_Deadlock_Crushing_Uppercut",
    "Temporary_Powers.Temporary_Powers.PS_Deadlock_Rise_to_the_Challenge",
    "Temporary_Powers.Temporary_Powers.PS_Deadlock_Strength_of_Will",
    "Temporary_Powers.Temporary_Powers.PS_Deadlock_Level_Boost",
    "Temporary_Powers.Temporary_Powers.Reach_for_the_Limit",
    "Temporary_Powers.Temporary_Powers.Envenomed_Blades",
    "Temporary_Powers.Temporary_Powers.PPD_Grenade_Launcher",
    "Temporary_Powers.Temporary_Powers.Salvaged_Sub-Machine_Gun",
    "Temporary_Powers.Temporary_Powers.Sawed-off_Shotgun",
    "Temporary_Powers.Temporary_Powers.I24_RogueArc_Summon_Colleague",
    "Temporary_Powers.Temporary_Powers.I24_RogueArc_Summon_SecondMeasure",
    "Temporary_Powers.Temporary_Powers.I24_RogueArc_Summon_Network",
    "Temporary_Powers.Temporary_Powers.I24_RogueArc_Summon_Lock",
    "Temporary_Powers.Temporary_Powers.Kinetic_Assault_Impulse",
    "Temporary_Powers.Temporary_Powers.Radiation_Melee_Contaminated",
    "Temporary_Powers.Temporary_Powers.Radiation_Melee_Contaminated_Imunity",
    "Temporary_Powers.Temporary_Powers.Radiation_Control_Negatrons",
    "Temporary_Powers.Temporary_Powers.Radiation_Control_Positrons",
    "Temporary_Powers.Temporary_Powers.Radiation_Control_GammaBurst",
    "Temporary_Powers.Temporary_Powers.Alt_Frost_Bite_Granter",
    "Temporary_Powers.Temporary_Powers.Alt_Frost_Bite",
    "Temporary_Powers.Temporary_Powers.Alt_Winter_Ward",
    "Temporary_Powers.Temporary_Powers.Alt_Frosty_Aegis",
    "Temporary_Powers.Temporary_Powers.Knight_Errant",
    "Temporary_Powers.Temporary_Powers.KR_Skulls_Costume",
    "Temporary_Powers.Temporary_Powers.KR_Submachine_Gun",
    "Temporary_Powers.Temporary_Powers.KR_Focused_Burst",
    "Temporary_Powers.Temporary_Powers.Gull_Incarnate",
    "Temporary_Powers.Temporary_Powers.Long_Range_Teleport",
    "Temporary_Powers.Temporary_Powers.prestige_Base_Teleport",
    "Temporary_Powers.Temporary_Powers.Fireworks",
    "Temporary_Powers.Temporary_Powers.GM_Fireworks",
    "Temporary_Powers.Temporary_Powers.Friendly_Fireworks",
    "Temporary_Powers.Temporary_Powers.Box_of_Fireworks",
    "Temporary_Powers.Temporary_Powers.Pathogen_Diseases",
    "Temporary_Powers.Temporary_Powers.Pathogen_Cure_Temp",
    "Temporary_Powers.Temporary_Powers.Pathogen_FullCure",
    "Temporary_Powers.Temporary_Powers.PVP_HitPoints_Endurance",
    "Temporary_Powers.Temporary_Powers.PVP_Res_Def_All",
    "Temporary_Powers.Temporary_Powers.PVP_Recharge_Accuracy",
    "Temporary_Powers.Temporary_Powers.PVP_Mez_Boost",
    "Temporary_Powers.Temporary_Powers.PVP_Freeze_Ray",
    "Temporary_Powers.Temporary_Powers.PVP_Damage_ToHit",
    "Temporary_Powers.Temporary_Powers.PVP_Recharge_Special",
    "Temporary_Powers.Temporary_Powers.PVP_Mode"
  ],
  "power_display_names": [
    "Bracers of Astrape",
    "EMP Glove",
    "Cryoprojection Bracers",
    "Wave Scrambler",
    "Plasmatic Taser",
    "Talisman of the Moon",
    "Antigravity Matrix",
    "Tesla Gauntlet",
    "Genetic Restabilizer",
    "Chameleon Suit",
    "Freakshow Disguise",
    "Flashbang Grenades",
    "Stun Blast",
    "Lethargy Inducer",
    "Chromatic Grenades",
    "Napalm Projector",
    "EMP Blaster",
    "Neural Inhibitor Grenades",
    "Vahzilok Wasting Disease",
    "Undead Slaying Axe",
    "Clockwork Immobilizer MkI",
    "Clockwork Immobilizer MkII",
    "Clockwork Immobilizer MkIII",
    "Clockwork Immobilizer MkIV",
    "Flame Amulet",
    "Tear Gas",
    "Med Kit",
    "Ring of Pain",
    "Ace of Spades",
    "Scroll of Ruin",
    "Geometric Gauntlets",
    "Manifold Resonator",
    "Resonance Disrupter",
    "Jump Pack",
    "Thermite Cannon",
    "Particle Cannon",
    "Dimensional Shield",
    "Empowered Shard of the Wheel",
    "Empowered Center of the Wheel",
    "Empowered Piece of the Wheel",
    "Empowered Linchpin of the Wheel",
    "Psychic Cleaver",
    "Coolant",
    "Idol of Lughebu",
    "Confiscated Beanbag",
    "Cryonite Armor",
    "Sands of Mu",
    "Nemesis Staff",
    "Fettering Nimbus",
    "Crey Narcotic",
    "Terra Volta Exposure",
    "Wedding Band",
    "Wedding Band (Echo)",
    "Warwolf Whistle",
    "Warwolf Whistle (Echo)",
    "Holy Shotgun Shells",
    "Electromagnetic Grenades",
    "Nictus Fragment",
    "Rock",
    "SnowBall",
    "Holiday Rocket Pack",
    "LKT-1700 Rocket Pack",
    "Build Snow Beast",
    "Toy Bat",
    "Vomit",
    "Extinguisher",
    "Large Extinguisher",
    "Amy's Ward",
    "Divining Rod",
    "Rune of Warding",
    "Bow and Arrow",
    "Iron Blade",
    "Shivan Shard",
    "Shivan",
    "Shivan Strike",
    "Shivan Smash",
    "Shivan Bolt",
    "Shivan Beam",
    "Shivan Haze",
    "Shivan Bomb",
    "Ore Extractor",
    "Remote Camera",
    "Respawn",
    "Respawn Dead",
    "Buff Period",
    "Disable All",
    "Disable Travel",
    "Disable Stealth",
    "Disable Pool",
    "Disable Walk",
    "Disable Temp",
    "Disable Incarnate",
    "Enable Arena Temp",
    "Disable Travel TF",
    "Disabled Pool Powers",
    "Disabled Epic Powers",
    "Disabled Temporary Powers",
    "Disable Temp Dead",
    "Disable Inspiration",
    "Disable Small Inspiration",
    "Disable Medium Inspiration",
    "Disable Large Inspiration",
    "Disable Special Inspiration",
    "Unlimited Endurance",
    "Raptor Pack",
    "Raptor Pack",
    "Low-G Pack",
    "Jaunt Initializer",
    "Stealth Suit",
    "Stun Grenade",
    "Web Grenade",
    "Pet Arena HP",
    "Loa Bone",
    "Summoning Amulet",
    "Ghostslayer Rifle",
    "Ghostslayer Bomb",
    "Nictus Gravitic Emanation",
    "Nictus Absorption",
    "Nictus Shadow Step",
    "Goldbricker Rocket Pack",
    "Stolen SMG",
    "High Explosive",
    "Venom Grenade",
    "Sky Raider Flight Pack",
    "Holographic Projector",
    "Spirit Potion",
    "Blackwand",
    "Soul Essence",
    "Nullifier Gun Prototype",
    "Nullifier Gun Prototype",
    "Nullifier Gun Mk I",
    "Nullifier Gun Mk I (Echo)",
    "Minor Mutation",
    "Psionic Activator",
    "Void Hunter Rifle",
    "Soul Crystal",
    "Prison Crystal",
    "Coral Shards",
    "Coral Hammer",
    "Coral Amulet",
    "Enchantment of Serafina",
    "Raptor Pack",
    "Low-G Pack",
    "Jaunt Initializer",
    "Web Grenade",
    "Stealth Suit",
    "Stun Grenade",
    "IR Goggles",
    "Cryonite Armor",
    "EMP Glove",
    "Smoke Bomb",
    "Arachnos Mace",
    "Kinetic Shield",
    "Arachnos Heavy Pistol",
    "Arachnos SMG Burst",
    "Arachnos SMG Heavy Burst",
    "Arachnos Shotgun Blast",
    "Shotgun Launched Venom Grenade",
    "Shotgun Launched Frag Grenade",
    "Heavy Pistol",
    "Advanced Assault Rifle Burst",
    "Advanced Assault Rifle Heavy Burst",
    "Advanced Assault Rifle Slug",
    "Flamethrower",
    "Incendiary Grenade",
    "Nuclear Blast",
    "Biological Mutagens",
    "Chemical Burn",
    "Warburg Launch Codes",
    "Hyper Stealth",
    "Combat Invisibility",
    "Hyper Phase",
    "Phase Flight",
    "Raid Deploy Pylon",
    "Apprentice Charm",
    "Taser Dart",
    "Tranq Dart",
    "Throwing Knives",
    "Mutagen",
    "Infected Anti-Serum",
    "Self-Destruct",
    "Demon Box",
    "Arachnoid Gas",
    "Artificial Demon Seeds",
    "Frenzy Mutagen",
    "Rikti Rifle",
    "Essence of the Leviathan",
    "Arachnos Submachine Gun",
    "Arachnos Power Shield",
    "Arachnos Combat Radio",
    "Soul Trap",
    "Freakshow Gang Sign",
    "Rikti Drone",
    "Angelfire Device",
    "Tranquilizer Dart",
    "Vial of Bees",
    "Creeper Seed",
    "Snake-B-Gone",
    "Force of the Earth",
    "Increase Attack Speed",
    "Increase Flight Speed",
    "Increase Jump Speed",
    "Increase Recovery",
    "Increase Run Speed",
    "Increase Perception",
    "Grant Invisibility",
    "Smashing Resistance",
    "Lethal Resistance",
    "Cold Resistance",
    "Fire Resistance",
    "Energy Resistance",
    "Negative Energy Resistance",
    "Toxic Resistance",
    "Psionic Resistance",
    "Endurance Drain Resistance",
    "Slow Resistance",
    "Knockback Protection",
    "Knockback Increase",
    "Confusion Resistance",
    "Fear Resistance",
    "Disorient Resistance",
    "Hold Resistance",
    "Immobilize Resistance",
    "Sleep Resistance",
    "Movement Increase",
    "Endurance Increase",
    "Health Increase",
    "Regeneration Increase",
    "Summon Teammates",
    "Raptor Pack",
    "Zero-G Pack",
    "Life Insurance",
    "Resuscitation",
    "Facemaker's Coupon",
    "Shotgun",
    "Long Bow",
    "Claymore",
    "Web Grenade",
    "Stealth Suit",
    "Stun Grenade",
    "IR Goggles",
    "Cryonite Armor",
    "EMP Glove",
    "Smoke Bomb",
    "Kinetic Shield",
    "Flamethrower",
    "Electromagnetic Grenades",
    "Heavy Rock",
    "Cryoprojection Bracers",
    "Wave Scrambler",
    "Plasmatic Taser",
    "Tear Gas",
    "Med Kit",
    "Drop of Power",
    "Drop of Power",
    "Drop of Resistance",
    "Drop of Resistance",
    "Drop of Vitality",
    "Drop of Vitality",
    "Nectar",
    "Longbow Mech",
    "Arachnos Mini-Blaster",
    "Orestes Rifle",
    "OBSOLETE Temporal Disruption",
    "Damage Power",
    "Arachnos Disguise",
    "Afterburner",
    "Clockwork Connection",
    "Light of Renewal",
    "Golden Rings",
    "Moment of Glory",
    "Holiday Gift",
    "Mystery Gift",
    "Holiday Cheer",
    "Holiday Spirit",
    "Holiday Spirit",
    "Power Suppression",
    "Translucency",
    "The I Win Button",
    "Power of the Thorn",
    "Consignment House Transporter",
    "Black Market Transporter",
    "Underground Transporter",
    "Trading House Transporter",
    "Vanguard HVAS",
    "Banished Pantheon Shaman Costume",
    "Carnival Harlequin Costume",
    "Carnival Strongman Costume",
    "Consortium Guard Costume",
    "Coralax Minion Costume",
    "Council Penumbra Costume",
    "Council Galaxy Costume",
    "Crey Security Costume",
    "Crey Agent Costume",
    "Crey Powersuit Costume",
    "Paragon Protector Costume",
    "Freakshow Stunner Costume",
    "Freakshow Boss Costume",
    "Goldbricker Costume",
    "Hellion Thug Costume",
    "Knives of Artemis Costume",
    "Legacy Chain Costume",
    "Malta Operative Costume",
    "Malta Gunslinger Costume",
    "Nemesis Soldier Costume",
    "Outcast Thug Costume",
    "PPD Cop Costume",
    "PPD SWAT Officer Costume",
    "PPD Hardsuit Costume",
    "Lost Costume",
    "Scrapyarder Costume",
    "Skulls Thug Costume",
    "Skyraiders Costume",
    "Pirate Costume",
    "Troll Costume",
    "Tsoo Inkman Costume",
    "Vahzilok Eidolon Costume",
    "Warriors Thug Costume",
    "Hamidon Essence",
    "Negative Stealth",
    "Negative Stealth Warburg",
    "Vanguard Psionic Shield",
    "Nectanebo's Curse Breaker",
    "Vanguard Psi-Bomb",
    "Curse of Weariness",
    "Ouroboros Portal",
    "Ouroboros Portal",
    "Wedding Portal",
    "No Enhancements",
    "Challenge Debuff",
    "The Lost Cure",
    "Cured",
    "Cured Counter",
    "Midnight Visage",
    "Nictus Transformation",
    "Diseased",
    "NoPhase",
    "Demoralized",
    "Travel Suppression",
    "PVP Resist Bonus",
    "PVP Heal Decay",
    "PVP SuddenDeath",
    "PVP Disable Set Bonus",
    "Bit Test",
    "Gift of Five Merits",
    "Kill Telekinesis",
    "Walk",
    "5th Column Uniform",
    "Dimensional Grounding Ray",
    "Power of Scirocco",
    "Power of Scirocco",
    "Power of Scirocco",
    "Power of Scirocco",
    "Power of Ghost Widow",
    "Power of Ghost Widow",
    "Power of Ghost Widow",
    "Power of Captain Mako",
    "Power of Captain Mako",
    "Power of Captain Mako",
    "Power of Black Scorpion",
    "Power of Black Scorpion",
    "Power of Black Scorpion",
    "Seduction",
    "Fiendish Glare",
    "Beastly",
    "Spectral Touch",
    "Experienced",
    "Experienced",
    "Phenomenal Luck",
    "Robust",
    "Uncanny Insight",
    "Righteous Rage",
    "Escape",
    "Cryo Ammunition",
    "Incendiary Ammunition",
    "Chemical Ammunition",
    "Marked for Death",
    "Designated Target",
    "FWG Temp",
    "Jetpack",
    "St. Louis Slammer",
    "St. Louis Slammer",
    "Gabriel's Hammer",
    "Revolver",
    "Ethereal Shift",
    "Power Analyzer mk I",
    "Power Analyzer mk II",
    "Power Analyzer mk III",
    "Power Analyzer",
    "Hand Grenade",
    "Plasmatic Taser",
    "Recovery Serum",
    "Envenomed Dagger",
    "Jet Pack",
    "Goldbricker Rocket Pack",
    "Holiday Rocket Pack",
    "LKT-1700 Rocket Pack",
    "Longbow Jetpack",
    "Small Longbow Jetpack",
    "Stun Grenade",
    "Med Pack",
    "Backup Radio",
    "Resuscitator",
    "Smoke Flash",
    "Kinetic Dampener",
    "The Perfect Eye",
    "The True Furnace",
    "Heart of a Storm Elemental",
    "Anger Monument",
    "Monument of Iron",
    "Power Siphon",
    "Mystic Fortune",
    "Mystic Fortune",
    "The Fool",
    "The Magician",
    "The Lovers",
    "The Hermit",
    "Wheel of Fortune",
    "Death",
    "The Tower",
    "The Tower",
    "The Moon",
    "The Sun",
    "Mutation: Devolution",
    "Mutation: Acute Senses",
    "Mutation: Tough Hide",
    "Mutation: Pain Tolerance",
    "Mutation: Quick Reflexes",
    "Mutation: Heightened Speed",
    "Level Shift +1",
    "Level Shift +2",
    "Level Shift +3",
    "Level Shift +4",
    "Level Shift +5",
    "Level Shift +6",
    "Countdown to Justice",
    "Countdown to Fear Incarnate",
    "Countdown to Duplicity",
    "Countdown to Frenzy",
    "Alignment Micro-Transaction Support Power",
    "Call to Justice",
    "Fear Incarnate",
    "Duplicity",
    "Frenzy",
    "Resistance HE Grenade",
    "Vulnerability",
    "Opportunity",
    "Opportunity",
    "Seeking Opportunity",
    "Opportunity",
    "Pacification Grenade",
    "Molecular Acid",
    "Glowing Lichen",
    "Chain Gun",
    "All Phases",
    "Police Drone Recharge",
    "Molotov Cocktail",
    "Flashing Steel",
    "Juggernaut End Offense",
    "Juggernaut End Defense",
    "Juggernaut End Standard",
    "Power Cell",
    "Disintegrated",
    "Beta Interaction",
    "EntangledAuraA",
    "Alpha Interaction",
    "EntangledAuraB",
    "Caught By Attractor",
    "Soul Catcher",
    "Flames of Prometheus",
    "Disabled Temporary Powers",
    "Disabled Temporary Powers",
    "Longbow Teleporter",
    "Arachnos Teleporter",
    "Combo Level 1",
    "Combo Level 2",
    "Combo Level 3",
    "Delayed",
    "Accelerated",
    "Disintegrating",
    "Perfection of Body Level 1",
    "Perfection of Body Level 2",
    "Perfection of Body Level 3",
    "Perfection of Mind Level 1",
    "Perfection of Mind Level 2",
    "Perfection of Mind Level 3",
    "Perfection of Soul Level 1",
    "Perfection of Soul Level 2",
    "Perfection of Soul Level 3",
    "Infected Syringe",
    "RIPInfected",
    "Token Granter",
    "Blue Spectrum's Power",
    "Powers Absorbed",
    "Buoyant Membrane",
    "Spirit Snare",
    "Hydra Chemical Damage Enhancer",
    "Hydra Chemical Accuracy Enhancer",
    "Hydra Chemical Defense Enhancer",
    "Hydra Chemical Recovery Enhancer",
    "Synaptic Blast",
    "Synaptic Strike",
    "Synaptic Whirlwind",
    "Synaptic Resistance",
    "Aura of Possession",
    "Devourer",
    "Experienced",
    "Windfall",
    "Windfall",
    "25% XP Booster",
    "25% XP Booster",
    "Inf Booster",
    "Inf Booster",
    "Prestige Booster",
    "Prestige Booster",
    "Restore",
    "Revival",
    "Mission Teleporter",
    "Base Teleporter",
    "Signature Summon (Tank)",
    "Signature Summon (Support)",
    "Signature Summon (Melee Damage)",
    "Signature Summon (Ranged Damage)",
    "Signature Summon Lock",
    "Banished Pantheon Shaman Costume",
    "Carnival Harlequin Costume",
    "Carnival Strongman Costume",
    "Consortium Guard Costume",
    "Coralax Minion Costume",
    "Council Penumbra Costume",
    "Council Galaxy Costume",
    "Crey Security Costume",
    "Crey Agent Costume",
    "Crey Powersuit Costume",
    "Paragon Protector Costume",
    "Freakshow Stunner Costume",
    "Freakshow Boss Costume",
    "Goldbricker Costume",
    "Hellion Thug Costume",
    "Knives of Artemis Costume",
    "Legacy Chain Costume",
    "Malta Operative Costume",
    "Malta Gunslinger Costume",
    "Nemesis Soldier Costume",
    "Outcast Thug Costume",
    "PPD Cop Costume",
    "PPD SWAT Officer Costume",
    "PPD Hardsuit Costume",
    "Lost Costume",
    "Scrapyarder Costume",
    "Skulls Thug Costume",
    "Skyraiders Costume",
    "Pirate Costume",
    "Troll Costume",
    "Tsoo Inkman Costume",
    "Vahzilok Eidolon Costume",
    "Warriors Thug Costume",
    "Hand Grenade",
    "Plasmatic Taser",
    "Recovery Serum",
    "Envenomed Dagger",
    "Jet Pack",
    "Stun Grenade",
    "Med Pack",
    "Backup Radio",
    "Smoke Flash",
    "Kinetic Dampener",
    "Playtest TPN Prop Victory",
    "Numina's Grace",
    "Duplicating Gift",
    "Instant Snowstorm",
    "Let It Snow",
    "Mission Teleporter",
    "Rikti Mentalist Costume",
    "St. Louis Slammer",
    "Warwolf Whistle",
    "Holy Shotgun Shells",
    "Arrow of Romance",
    "Arrow of Romance",
    "Arrow of Romance",
    "Arrow of Jealousy",
    "Arrow of Jealousy",
    "Arrow of Jealousy",
    "Cupid's Bow",
    "Botched Ritual!",
    "Experienced",
    "Recall Disabled",
    "Temporary Powers Disabled",
    "Flying Disc",
    "Endurance Discount",
    "Endurance Discount",
    "Haunted",
    "Incarnate Rewards",
    "Pack Mentality",
    "Pack Mentality Lock",
    "Shivan Exposure Damage Enhancer",
    "Shivan Exposure Accuracy Enhancer",
    "Shivan Exposure Defense Enhancer",
    "Shivan Exposure Recovery Enhancer",
    "Summon Adamastor",
    "Assassin's Focus",
    "Absorb Test",
    "Absorb Toggle Test",
    "Magical Burst",
    "Blessing of Tielekku",
    "Aura of Mot",
    "Hide Server Tray",
    "Summon: Tsoo Sorcerer",
    "Boon of the Ancestor Spirits",
    "Server Tray Override",
    "Defense Amplifier",
    "Defense Amplifier (4 hours)",
    "Defense Amplifier (8 hours)",
    "Offense Amplifier",
    "Offense Amplifier (4 hours)",
    "Offense Amplifier (8 hours)",
    "Survival Amplifier",
    "Survival Amplifier (4 hours)",
    "Survival Amplifier (8 hours)",
    "50% XP Booster",
    "50% XP Booster (4 hours)",
    "50% XP Booster (8 hours)",
    "Shared 50% XP Booster (1 hour)",
    "Shared 50% XP Booster (1 hour)",
    "Shared 50% XP Booster (4 hour)",
    "Shared 50% XP Booster (4 hour)",
    "Shared 50% XP Booster (8 hour)",
    "Shared 50% XP Booster (8 hour)",
    "Double XP Booster",
    "Double XP Booster (4 hours)",
    "Double XP Booster (8 hours)",
    "Incite the Crowd",
    "Hacker's Stealth",
    "Web Grenade",
    "Quills of Jocas",
    "Maximize Test Power",
    "Stacking Test Power A",
    "Stacking Test Power B",
    "Suppression Test Power A",
    "Suppression Test Power B",
    "Suppression Test Power A2",
    "Suppression Test Power B2",
    "Mod Target Focus Test",
    "Test Charge",
    "Test Death Grip",
    "Test Blink",
    "Test Roll",
    "Tidal Power",
    "Enhanced Water Jet Lock",
    "Tyranny",
    "Hammer of Justice",
    "Zeus' Lightning Bolt",
    "Laser Beam Eyes",
    "Energy Smash",
    "Hand Clap",
    "Fly",
    "Bloom",
    "Insight",
    "Insight Lockout",
    "Boggled",
    "Hitter's Gambit",
    "Shadow Shunt",
    "Hitter Explained",
    "Hacker Explained",
    "Grifter Explained",
    "Thief Explained",
    "Movement Inhibition",
    "Longbow Jetpack",
    "Longbow Jetpack",
    "Pandora Buff Granter",
    "Primordial Energy",
    "Pandora Proc",
    "Pandora Stun Boost",
    "Pandora Sleep Boost",
    "Pandora Immobilize Boost",
    "Pandora Hold Boost",
    "Pandora Confused Boost",
    "Pandora Terrorized Boost",
    "Pandora Heal",
    "Mk-VI Costume",
    "Olympian Guard Costume",
    "IDF Ranger Costume",
    "Praetorian Clockwork Costume",
    "Rula-Shin Costume",
    "Talons of Vengeance Costume",
    "Molten Embrace",
    "Offensive Adaptation",
    "Defensive Adaptation",
    "Toxins",
    "Test Target Lock",
    "Kama",
    "Tommy Gun",
    "Energy Ring Toss",
    "Unrelenting",
    "Pressure",
    "Blood Frenzy",
    "Blood Frenzy",
    "Exhausted",
    "Wu Yin",
    "The Center",
    "Anti-Matter",
    "Disintegration",
    "Neutron Bomb",
    "Electron Haze",
    "Cosmic Burst",
    "Atomic Blast",
    "Radiation Infection",
    "Enervating Field",
    "Irradiate",
    "Lingering Radiation",
    "Deadlock",
    "Neuron's Serum",
    "Quick Strike",
    "Heavy Blow",
    "Sweeping Cross",
    "Spinning Strike",
    "Shin Breaker",
    "Crushing Uppercut",
    "Rise of the Challenge",
    "Strength of Will",
    "Serum Boost",
    "Reach for the Limit",
    "Envenomed Blades",
    "PPD Grenade Launcher",
    "Salvaged Sub-Machine Gun",
    "Sawed-off Shotgun",
    "Hammers of Justice: Colleague",
    "Hammers of Justice: Second Measure",
    "Hammers of Justice: Network",
    "Hammers of Justice Lock",
    "Impulse",
    "Contaminated",
    "Decontaminated",
    "Negatrons",
    "Positrons",
    "Gamma Rays",
    "Frost Bite",
    "Frost Bite",
    "Winter Ward",
    "Frosty Aegis",
    "Knight Errant",
    "Deathhead",
    "Submachine Gun",
    "Focused Burst",
    "Gull Incarnate",
    "LRT Recharge",
    "BT Recharge",
    "Fireworks!",
    "GM Fireworks!",
    "Friendly Fireworks",
    "Box of Fireworks",
    "Viral Cocktail",
    "Experimental Immune Booster",
    "CDC Vaccine",
    "Veteran",
    "Indestructible",
    "Supercharger",
    "Mind Games",
    "Nullifier",
    "Justice",
    "Rampage",
    "PVP Mode"
  ]
}