{
  "name": "Phase_Flight",
  "full_name": "Temporary_Powers.Temporary_Powers.Phase_Flight",
  "type": "Toggle",
  "display_name": "Phase Flight",
  "display_fullname": "Temporary Powers.Temporary Powers.Phase Flight",
  "display_help": "You can become ethereal which no longer binds you to the laws of normal physics. You become intangible to other entities and can fly at high speeds. Phase Flight grants some stealth and is faster than normal Flight. You cannot affect other targets while this power is active. Phase Flight has a total of 30 minutes usage time.<br><br><color #fcfc95>Notes:<br>Phase Flight is unaffected by Endurance Discount changes.</color><br><br><color #fcfc95>Recharge: Slow.</color>",
  "display_short_help": "Toggle: Self Fly, Intangible",
  "icon": "temporary_resonancedisrupter.png",
  "auto_issue": false,
  "auto_issue_keeps_level": false,
  "message_caster": null,
  "message_floater": null,
  "message_attacker_hit": null,
  "message_target_hit": null,
  "message_target_confirm": null,
  "message_float_reward": null,
  "message_defense_avoidance": null,
  "attack_types": [

  ],
  "requires": "",
  "activate_requires": "",
  "accuracy": 1.0,
  "number_allowed": 1,
  "caster_near_ground": false,
  "target_near_ground": false,
  "cast_when_dead": "AliveOnly",
  "cast_through": [

  ],
  "toggle_ignores": [

  ],
  "ignore_level_gained": false,
  "works_on_untouchable": false,
  "works_through_vision_phase": false,
  "target_untargetable": false,
  "interrupt_like_sleep": false,
  "notify_ai_when": "Always",
  "effect_area": "SingleTarget",
  "max_targets_hit": 0,
  "radius": 0.0,
  "arc": 0.0,
  "range": 0.0,
  "range_secondary": 0.0,
  "activation_time": 0.0,
  "root_time": 0.0,
  "interrupt_time": 0.0,
  "recharge_time": 60.0,
  "activate_period": 0.5,
  "endurance_cost": 3.0,
  "cancelable": false,
  "self_confirm": false,
  "confirm_requires": "",
  "time_to_confirm": 0,
  "chain_delay": 0.0,
  "chain_effect_expr": "",
  "chain_forks": [

  ],
  "chain_into_power_name": null,
  "vec_box_offset": [
    0.0,
    0.0,
    0.0
  ],
  "vec_box_size": [
    0.0,
    0.0,
    0.0
  ],
  "number_of_charges": 0,
  "max_num_charges": 0,
  "destroy_on_last_use": true,
  "power_lifetime": 0.0,
  "max_power_lifetime": 0.0,
  "power_lifetime_ingame": 0.0,
  "max_power_lifetime_ingame": 0.0,
  "stacking_lifetime": false,
  "toggle_on_time": 1800.0,
  "max_toggle_on_time": 0.0,
  "toggle_detoggle_time": 0.0,
  "toggle_droppable": "Sometimes",
  "ignore_toggle_max_distance": false,
  "target_type": "Self",
  "target_type_secondary": null,
  "target_visibility": "LineOfSight",
  "targets_affected": [
    "Self"
  ],
  "targets_autohit": [
    "Self"
  ],
  "target_requires": "",
  "proc_allowed": "All",
  "boosts_allowed": [

  ],
  "allowed_boostset_cats": [

  ],
  "exclusion_groups": [
    "Flying_Group"
  ],
  "modes_required": [

  ],
  "modes_disallowed": [
    "Disable_Travel",
    "Disable_FlyToggles",
    "Disable_Temp",
    "Disable_All"
  ],
  "recharge_groups": [

  ],
  "ignore_strength": true,
  "strengths_disallowed": [
    "EnduranceDiscount"
  ],
  "global_strengths_disallowed": [

  ],
  "procs_only_on_main_target": false,
  "vars_attribmods_can_reference": [

  ],
  "show_buff_icon": true,
  "show_in_info": true,
  "show_in_manage": true,
  "show_in_inventory": "Show",
  "deletable": true,
  "tradeable": false,
  "do_not_save": false,
  "max_boosts": 0,
  "ignore_level_differences": false,
  "ignore_exemplar_for_bonuses": false,
  "boost_combinable": true,
  "boost_tradeable": true,
  "boost_account_bound": false,
  "boost_boostable": false,
  "boost_use_player_level": false,
  "boost_catalyzable": null,
  "boost_store_product": null,
  "boost_min_slot_level": -3,
  "boost_max_level": 50,
  "instance_locked": false,
  "is_environment_hit": false,
  "shuffle_target_list": false,
  "enforced_level_bought": -1,
  "refreshes_on_active_player_change": false,
  "highlight_expression": "",
  "highlight_icon": null,
  "highlight_color": "#00000000",
  "travel_suppression_time": 0.0,
  "server_tray_priority": 0,
  "server_tray_requires": "",
  "abusive_buff": true,
  "position_center": "kModTarget_Caster",
  "position_distance": 0.0,
  "position_height": 0.0,
  "position_yaw": 0.0,
  "face_target": true,
  "attrib_cache": [
    "FlyingSpeed",
    "MovementControl",
    "MovementFriction",
    "StealthRadius_PVE",
    "StealthRadius_PVP",
    "ThreatLevel",
    "Fly",
    "Intangible",
    "Translucency",
    "Grant_Power",
    "Global_Chance_Mod",
    "Combat_Phase"
  ],
  "max_targets_expression": "",
  "chain_target_expr": "",
  "powerset": "Temporary_Powers.Temporary_Powers",
  "available_level": 0,
  "archetypes": [

  ],
  "redirect": [

  ],
  "effects": [
    {
      "tags": [

      ],
      "chance": 1.0,
      "ppm": 0.0,
      "delay": 0.0,
      "radius_inner": -1.0,
      "radius_outer": -1.0,
      "requires_expression": "",
      "flags": [

      ],
      "eval_flags": 0,
      "child_effects": [

      ],
      "templates": [
        {
          "attribs": [
            "Fly"
          ],
          "type": "Magnitude",
          "application_type": "OnTick",
          "aspect": "Current",
          "target": "Self",
          "table": "Melee_Ones",
          "scale": 0.75,
          "duration": "0.75 seconds",
          "magnitude": 1.0,
          "delay": 0.0,
          "duration_expression": "",
          "magnitude_expression": "",
          "application_period": 0.0,
          "tick_chance": 1.0,
          "jit_requires": "",
          "caster_stack": "Individual",
          "stack": "Suppress",
          "stack_limit": 2,
          "stack_key": "TravelBuff",
          "cancel_events": [

          ],
          "boost_mod_allowed": "Science_Boost",
          "flags": [
            "IgnoreResistance (5)",
            "CombatModMagnitude (9)",
            "StackByAttribAndKey (17)"
          ],
          "mode_name": null,
          "target_info": null,
          "messages": null,
          "suppress_events": [

          ],
          "params": null,
          "fx": {
            "continuing_bits": [

            ],
            "continuing_fx": "PFX",
            "conditional_bits": [

            ],
            "conditional_fx": "PFX"
          }
        },
        {
          "attribs": [
            "FlyingSpeed"
          ],
          "type": "Magnitude",
          "application_type": "OnTick",
          "aspect": "Current",
          "target": "Self",
          "table": "Melee_SpeedFlying",
          "scale": 5.0,
          "duration": "0.75 seconds",
          "magnitude": 1.0,
          "delay": 0.0,
          "duration_expression": "",
          "magnitude_expression": "",
          "application_period": 0.0,
          "tick_chance": 1.0,
          "jit_requires": "",
          "caster_stack": "Individual",
          "stack": "Suppress",
          "stack_limit": 2,
          "stack_key": "TravelBuff",
          "cancel_events": [
            "Stunned",
            "Held",
            "Sleep"
          ],
          "boost_mod_allowed": "Science_Boost",
          "flags": [
            "IgnoreResistance (5)",
            "CombatModMagnitude (9)",
            "StackByAttribAndKey (17)"
          ],
          "mode_name": null,
          "target_info": null,
          "messages": null,
          "suppress_events": [

          ],
          "params": null,
          "fx": null
        },
        {
          "attribs": [
            "MovementControl"
          ],
          "type": "Magnitude",
          "application_type": "OnTick",
          "aspect": "Current",
          "target": "Self",
          "table": "Melee_Control",
          "scale": 3.0,
          "duration": "0.75 seconds",
          "magnitude": 1.0,
          "delay": 0.0,
          "duration_expression": "",
          "magnitude_expression": "",
          "application_period": 0.0,
          "tick_chance": 1.0,
          "jit_requires": "",
          "caster_stack": "Individual",
          "stack": "Suppress",
          "stack_limit": 2,
          "stack_key": "TravelBuff",
          "cancel_events": [
            "Stunned",
            "Held",
            "Sleep"
          ],
          "boost_mod_allowed": "Science_Boost",
          "flags": [
            "IgnoreResistance (5)",
            "CombatModMagnitude (9)",
            "StackByAttribAndKey (17)"
          ],
          "mode_name": null,
          "target_info": null,
          "messages": null,
          "suppress_events": [

          ],
          "params": null,
          "fx": null
        },
        {
          "attribs": [
            "MovementFriction"
          ],
          "type": "Magnitude",
          "application_type": "OnTick",
          "aspect": "Current",
          "target": "Self",
          "table": "Melee_Friction",
          "scale": 3.0,
          "duration": "0.75 seconds",
          "magnitude": 1.0,
          "delay": 0.0,
          "duration_expression": "",
          "magnitude_expression": "",
          "application_period": 0.0,
          "tick_chance": 1.0,
          "jit_requires": "",
          "caster_stack": "Individual",
          "stack": "Suppress",
          "stack_limit": 2,
          "stack_key": "TravelBuff",
          "cancel_events": [
            "Stunned",
            "Held",
            "Sleep"
          ],
          "boost_mod_allowed": "Science_Boost",
          "flags": [
            "IgnoreResistance (5)",
            "CombatModMagnitude (9)",
            "StackByAttribAndKey (17)"
          ],
          "mode_name": null,
          "target_info": null,
          "messages": null,
          "suppress_events": [

          ],
          "params": null,
          "fx": null
        },
        {
          "attribs": [
            "Grant_Power"
          ],
          "type": "Magnitude",
          "application_type": "OnTick",
          "aspect": "Absolute",
          "target": "Self",
          "table": "Melee_Ones",
          "scale": 1.0,
          "duration": "0 seconds",
          "magnitude": 1.0,
          "delay": 0.0,
          "duration_expression": "",
          "magnitude_expression": "",
          "application_period": 0.0,
          "tick_chance": 1.0,
          "jit_requires": "",
          "caster_stack": "Individual",
          "stack": "Extend",
          "stack_limit": 2,
          "stack_key": null,
          "cancel_events": [

          ],
          "boost_mod_allowed": "Science_Boost",
          "flags": [
            "IgnoreStrength (4)",
            "IgnoreResistance (5)",
            "CombatModMagnitude (9)"
          ],
          "mode_name": null,
          "target_info": null,
          "messages": null,
          "suppress_events": [

          ],
          "params": {
            "type": "Power",
            "count": 1,
            "category_names": [

            ],
            "powerset_names": [

            ],
            "power_names": [
              "Temporary_Powers.Temporary_Powers.NoPhase"
            ]
          },
          "fx": null
        },
        {
          "attribs": [
            "Global_Chance_Mod"
          ],
          "type": "Magnitude",
          "application_type": "OnTick",
          "aspect": "Current",
          "target": "Self",
          "table": "Melee_Ones",
          "scale": 1.0,
          "duration": "0.75 seconds",
          "magnitude": 1.0,
          "delay": 0.0,
          "duration_expression": "",
          "magnitude_expression": "",
          "application_period": 0.0,
          "tick_chance": 1.0,
          "jit_requires": "",
          "caster_stack": "Individual",
          "stack": "Replace",
          "stack_limit": 2,
          "stack_key": null,
          "cancel_events": [

          ],
          "boost_mod_allowed": "Science_Boost",
          "flags": [
            "IgnoreStrength (4)",
            "IgnoreResistance (5)",
            "CombatModMagnitude (9)"
          ],
          "mode_name": null,
          "target_info": null,
          "messages": null,
          "suppress_events": [

          ],
          "params": {
            "type": "EffectFilter",
            "tags": [
              "FlightActive"
            ],
            "category_names": [

            ],
            "powerset_names": [

            ],
            "power_names": [

            ]
          },
          "fx": {
            "continuing_bits": [

            ],
            "continuing_fx": "PFX",
            "conditional_bits": [

            ],
            "conditional_fx": "PFX"
          }
        }
      ],
      "is_pvp": "EITHER"
    },
    {
      "tags": [

      ],
      "chance": 1.0,
      "ppm": 0.0,
      "delay": 0.0,
      "radius_inner": -1.0,
      "radius_outer": -1.0,
      "requires_expression": "!Source.Mode?(kDisable_Toggle)",
      "flags": [

      ],
      "eval_flags": 0,
      "child_effects": [

      ],
      "templates": [
        {
          "attribs": [
            "Translucency"
          ],
          "type": "Magnitude",
          "application_type": "OnTick",
          "aspect": "Current",
          "target": "Self",
          "table": "Melee_Ones",
          "scale": 0.1,
          "duration": "0.75 seconds",
          "magnitude": 1.0,
          "delay": 0.0,
          "duration_expression": "",
          "magnitude_expression": "",
          "application_period": 0.0,
          "tick_chance": 1.0,
          "jit_requires": "",
          "caster_stack": "Individual",
          "stack": "Replace",
          "stack_limit": 2,
          "stack_key": null,
          "cancel_events": [
            "Stunned",
            "Held",
            "Sleep"
          ],
          "boost_mod_allowed": "Science_Boost",
          "flags": [
            "IgnoreResistance (5)",
            "CombatModMagnitude (9)"
          ],
          "mode_name": null,
          "target_info": null,
          "messages": null,
          "suppress_events": [
            {
              "event": "MissionObjectClick",
              "post_event_delay": 10,
              "always_suppress": true
            }
          ],
          "params": null,
          "fx": null
        },
        {
          "attribs": [
            "StealthRadius_PVE"
          ],
          "type": "Magnitude",
          "application_type": "OnTick",
          "aspect": "Current",
          "target": "Self",
          "table": "Melee_Ones",
          "scale": 20.0,
          "duration": "0.75 seconds",
          "magnitude": 1.0,
          "delay": 0.0,
          "duration_expression": "",
          "magnitude_expression": "",
          "application_period": 0.0,
          "tick_chance": 1.0,
          "jit_requires": "",
          "caster_stack": "Individual",
          "stack": "Suppress",
          "stack_limit": 2,
          "stack_key": "TravelBuff",
          "cancel_events": [
            "Stunned",
            "Held",
            "Sleep"
          ],
          "boost_mod_allowed": "Science_Boost",
          "flags": [
            "IgnoreResistance (5)",
            "CombatModMagnitude (9)",
            "StackByAttribAndKey (17)"
          ],
          "mode_name": null,
          "target_info": null,
          "messages": null,
          "suppress_events": [
            {
              "event": "MissionObjectClick",
              "post_event_delay": 10,
              "always_suppress": true
            }
          ],
          "params": null,
          "fx": null
        },
        {
          "attribs": [
            "StealthRadius_PVP"
          ],
          "type": "Magnitude",
          "application_type": "OnTick",
          "aspect": "Current",
          "target": "Self",
          "table": "Melee_Ones",
          "scale": 222.0,
          "duration": "0.75 seconds",
          "magnitude": 1.0,
          "delay": 0.0,
          "duration_expression": "",
          "magnitude_expression": "",
          "application_period": 0.0,
          "tick_chance": 1.0,
          "jit_requires": "",
          "caster_stack": "Individual",
          "stack": "Suppress",
          "stack_limit": 2,
          "stack_key": "TravelBuff",
          "cancel_events": [
            "Stunned",
            "Held",
            "Sleep"
          ],
          "boost_mod_allowed": "Science_Boost",
          "flags": [
            "IgnoreResistance (5)",
            "CombatModMagnitude (9)",
            "StackByAttribAndKey (17)"
          ],
          "mode_name": null,
          "target_info": null,
          "messages": null,
          "suppress_events": [
            {
              "event": "AttackedOther",
              "post_event_delay": 10,
              "always_suppress": true
            },
            {
              "event": "HitByFoe",
              "post_event_delay": 10,
              "always_suppress": true
            },
            {
              "event": "MissionObjectClick",
              "post_event_delay": 10,
              "always_suppress": true
            }
          ],
          "params": null,
          "fx": null
        },
        {
          "attribs": [
            "Combat_Phase"
          ],
          "type": "Duration",
          "application_type": "OnTick",
          "aspect": "Current",
          "target": "Self",
          "table": "Melee_Ones",
          "scale": 0.75,
          "duration": "0 seconds",
          "magnitude": 3.0,
          "delay": 0.0,
          "duration_expression": "",
          "magnitude_expression": "",
          "application_period": 0.0,
          "tick_chance": 1.0,
          "jit_requires": "",
          "caster_stack": "Individual",
          "stack": "Replace",
          "stack_limit": 2,
          "stack_key": null,
          "cancel_events": [
            "Stunned",
            "Held",
            "Sleep"
          ],
          "boost_mod_allowed": "Science_Boost",
          "flags": [
            "IgnoreResistance (5)",
            "CombatModDuration (10)"
          ],
          "mode_name": null,
          "target_info": null,
          "messages": null,
          "suppress_events": [
            {
              "event": "MissionObjectClick",
              "post_event_delay": 10,
              "always_suppress": true
            }
          ],
          "params": {
            "type": "Phase",
            "combat_phases": [
              3
            ],
            "vision_phases": [

            ],
            "exclusive_vision_phase": -1
          },
          "fx": null
        },
        {
          "attribs": [
            "Combat_Phase"
          ],
          "type": "Duration",
          "application_type": "OnTick",
          "aspect": "Current",
          "target": "Self",
          "table": "Melee_Ones",
          "scale": 0.75,
          "duration": "0 seconds",
          "magnitude": 3.0,
          "delay": 0.0,
          "duration_expression": "",
          "magnitude_expression": "",
          "application_period": 0.0,
          "tick_chance": 1.0,
          "jit_requires": "",
          "caster_stack": "Individual",
          "stack": "Replace",
          "stack_limit": 2,
          "stack_key": null,
          "cancel_events": [
            "Stunned",
            "Held",
            "Sleep"
          ],
          "boost_mod_allowed": "Science_Boost",
          "flags": [
            "IgnoreResistance (5)",
            "CombatModDuration (10)"
          ],
          "mode_name": null,
          "target_info": null,
          "messages": null,
          "suppress_events": [
            {
              "event": "MissionObjectClick",
              "post_event_delay": 10,
              "always_suppress": true
            }
          ],
          "params": {
            "type": "Phase",
            "combat_phases": [
              0
            ],
            "vision_phases": [

            ],
            "exclusive_vision_phase": -1
          },
          "fx": null
        },
        {
          "attribs": [
            "Intangible"
          ],
          "type": "Duration",
          "application_type": "OnTick",
          "aspect": "Current",
          "target": "Self",
          "table": "Melee_Ones",
          "scale": 0.75,
          "duration": "0 seconds",
          "magnitude": 3.0,
          "delay": 0.0,
          "duration_expression": "",
          "magnitude_expression": "",
          "application_period": 0.0,
          "tick_chance": 1.0,
          "jit_requires": "",
          "caster_stack": "Individual",
          "stack": "Replace",
          "stack_limit": 2,
          "stack_key": null,
          "cancel_events": [
            "Stunned",
            "Held",
            "Sleep"
          ],
          "boost_mod_allowed": "Science_Boost",
          "flags": [
            "IgnoreResistance (5)",
            "CombatModDuration (10)"
          ],
          "mode_name": null,
          "target_info": null,
          "messages": {
            "display_attacker_hit": "You Intangibilize {PlayerDest} with your {PowerName}.",
            "display_victim_hit": "{PlayerSource} Intangibilizes you with their {PowerName}.",
            "display_float": null,
            "display_defense_float": null
          },
          "suppress_events": [
            {
              "event": "MissionObjectClick",
              "post_event_delay": 10,
              "always_suppress": true
            }
          ],
          "params": null,
          "fx": null
        },
        {
          "attribs": [
            "ThreatLevel"
          ],
          "type": "Magnitude",
          "application_type": "OnTick",
          "aspect": "Current",
          "target": "Self",
          "table": "Melee_Ones",
          "scale": -1.0,
          "duration": "0.75 seconds",
          "magnitude": 1.0,
          "delay": 0.0,
          "duration_expression": "",
          "magnitude_expression": "",
          "application_period": 0.0,
          "tick_chance": 1.0,
          "jit_requires": "",
          "caster_stack": "Individual",
          "stack": "Replace",
          "stack_limit": 2,
          "stack_key": null,
          "cancel_events": [
            "Stunned",
            "Held",
            "Sleep"
          ],
          "boost_mod_allowed": "Science_Boost",
          "flags": [
            "IgnoreStrength (4)",
            "IgnoreResistance (5)",
            "CombatModMagnitude (9)"
          ],
          "mode_name": null,
          "target_info": null,
          "messages": null,
          "suppress_events": [
            {
              "event": "MissionObjectClick",
              "post_event_delay": 10,
              "always_suppress": true
            }
          ],
          "params": null,
          "fx": null
        }
      ],
      "is_pvp": "PVE_ONLY"
    }
  ],
  "activation_effects": [

  ],
  "fx": {
    "source_file": "MENU/POWERS/ANIMFX/PLAYERPOWERS/PEACEBRINGER_QUANTUMFLIGHT.PFX",
    "attack_bits": [

    ],
    "block_bits": [

    ],
    "wind_up_bits": [

    ],
    "hit_bits": [

    ],
    "death_bits": [

    ],
    "activation_bits": [

    ],
    "deactivation_bits": [

    ],
    "initial_attack_bits": [

    ],
    "continuing_bits": [

    ],
    "conditional_bits": [

    ],
    "activation_fx": "POWERS/COSMICPOWERS/PEACEBRINGER/PEACEFLIGHT/QUANTUMFLIGHT.FX",
    "deactivation_fx": null,
    "attack_fx": null,
    "secondary_attack_fx": null,
    "hit_fx": null,
    "wind_up_fx": null,
    "block_fx": null,
    "death_fx": null,
    "initial_attack_fx": null,
    "continuing_fx": [
      "POWERS/COSMICPOWERS/PEACEBRINGER/PEACEFLIGHT/PEACEFLIGHT.FX",
      "CUSTOMIZEABLEPOWERS/KHELDIAN_PEACEBRINGER/ACTIVATIONEYES/ACTIVATIONEYESCONTINUINGFX.FX"
    ],
    "conditional_fx": [

    ],
    "mode_bits": [

    ],
    "frames_before_hit": 15,
    "frames_before_secondary_hit": 0,
    "delayed_hit": false,
    "frames_attack": 35,
    "initial_frames_before_hit": 15,
    "initial_attack_fx_frame_delay": 0,
    "projectile_speed": 3.4028234663852886e38,
    "secondary_projectile_speed": 0.0,
    "initial_frames_before_block": 0,
    "ignore_attack_time_errors": null,
    "frames_before_block": 0,
    "fx_important": false
  },
  "custom_fx": [
    {
      "display_name": null,
      "token": "Color Tintable",
      "alt_themes": [
        "NoBubble",
        "WispyTintable"
      ],
      "category": null,
      "palette_name": "Additive",
      "fx": {
        "source_file": "MENU/POWERS/ANIMFX/PLAYERPOWERS/PEACEBRINGER_QUANTUMFLIGHT.PFX",
        "attack_bits": [

        ],
        "block_bits": [

        ],
        "wind_up_bits": [

        ],
        "hit_bits": [

        ],
        "death_bits": [

        ],
        "activation_bits": [

        ],
        "deactivation_bits": [

        ],
        "initial_attack_bits": [

        ],
        "continuing_bits": [

        ],
        "conditional_bits": [

        ],
        "activation_fx": "CUSTOMIZEABLEPOWERS/KHELDIAN_PEACEBRINGER/PEACEFLIGHT/QUANTUMFLIGHT.FX",
        "deactivation_fx": null,
        "attack_fx": null,
        "secondary_attack_fx": null,
        "hit_fx": null,
        "wind_up_fx": null,
        "block_fx": null,
        "death_fx": null,
        "initial_attack_fx": null,
        "continuing_fx": [
          "CUSTOMIZEABLEPOWERS/KHELDIAN_PEACEBRINGER/PEACEFLIGHT/PEACEFLIGHT.FX",
          "CUSTOMIZEABLEPOWERS/KHELDIAN_PEACEBRINGER/ACTIVATIONEYES/ACTIVATIONEYESCONTINUINGFX.FX"
        ],
        "conditional_fx": [

        ],
        "mode_bits": [

        ],
        "frames_before_hit": 15,
        "frames_before_secondary_hit": 0,
        "delayed_hit": false,
        "frames_attack": 35,
        "initial_frames_before_hit": 15,
        "initial_attack_fx_frame_delay": 0,
        "projectile_speed": 3.4028234663852886e38,
        "secondary_projectile_speed": 0.0,
        "initial_frames_before_block": 0,
        "ignore_attack_time_errors": null,
        "frames_before_block": 0,
        "fx_important": false
      }
    }
  ],
  "fx_only_on_main_target": false
}