{
  "name": "Lich",
  "display_name": "Lich",
  "display_fullname": "Mastermind Pets.Lich",
  "display_help": "The lich is an undead entity that, when alive, possessed many dark powers of his own. Perhaps it was a dark wizard, or powerful arch villain. Perhaps it was even a Necromancer. Now it only hungers for the souls of the living, and is quite good at feeding itself.",
  "display_short_help": "Lich",
  "available_level": [
    0,
    0,
    0,
    0
  ],
  "source_file": "DEFS/POWERS/MASTERMIND_PETS/LICH.POWERSETS",
  "requires": "",
  "power_names": [
    "Mastermind_Pets.Lich.Resistance",
    "Mastermind_Pets.Lich.Dark_Blast",
    "Mastermind_Pets.Lich.Torrent",
    "Mastermind_Pets.Lich.Super_Leap"
  ],
  "power_display_names": [
    "Resistance",
    "Dark Blast",
    "Torrent",
    "Super Leap"
  ]
}