{
  "name": "Crafted_Siphon_Insight_C",
  "display_name": "Crafted Siphon Insight C",
  "display_fullname": "Boosts.Crafted Siphon Insight C",
  "display_help": "Enhances the accuracy of a power by {Boost.Attrib.Accuracy.Scale}% and and reduces recharge time by {Boost.Attrib.RechargeTime.Scale}%. NOTE: This enhancement can only be slotted into to hit debuff powers that require a to hit check.",
  "display_short_help": "Set: Siphon Insight",
  "available_level": [
    0
  ],
  "source_file": "DEFS/POWERS/BOOSTS/CRAFTED_SIPHON_INSIGHT_C.POWERSETS",
  "requires": "",
  "power_names": [
    "Boosts.Crafted_Siphon_Insight_C.Crafted_Siphon_Insight_C"
  ],
  "power_display_names": [
    "Siphon Insight: Accuracy/Recharge"
  ]
}