{
  "name": "Hydra_Men_Ranged_Trial",
  "display_name": "Hydra_Men_Ranged",
  "display_fullname": "HydraSewerTrial.Hydra Men Ranged",
  "display_help": "Hydra",
  "display_short_help": "Hydra",
  "available_level": [
    0
  ],
  "source_file": "DEFS/POWERS/HYDRASEWERTRIAL/HYDRA_MEN_RANGED_TRIAL.POWERSETS",
  "requires": "",
  "power_names": [
    "HydraSewerTrial.Hydra_Men_Ranged_Trial.Spit"
  ],
  "power_display_names": [
    "Spit"
  ]
}