{
  "name": "Black_Swan_Portals",
  "display_name": "Black Swan",
  "display_fullname": "Magisterium.Black Swan",
  "display_help": "Nightstalkers Attacks",
  "display_short_help": "Nightstalkers",
  "available_level": [
    0
  ],
  "source_file": "DEFS/POWERS/MAGISTERIUM/BLACK_SWAN_PORTALS.POWERSETS",
  "requires": "",
  "power_names": [
    "Magisterium.Black_Swan_Portals.Dark_Heart"
  ],
  "power_display_names": [
    "Dark Heart"
  ]
}