{
  "name": "PraetorianIDF",
  "display_name": "PraetorianIDF",
  "source_file": "DEFS/POWERS/PRAETORIANIDF.CATEGORIES",
  "archetypes": [
    "boss_elite",
    "boss_praetoriangrunt",
    "lt_grunt",
    "minion_grunt",
    "minion_pets",
    "minion_praetoriangrunt"
  ],
  "display_help": null,
  "display_short_help": null,
  "powerset_names": [
    "praetorianidf.battle_orb_blast",
    "praetorianidf.battle_orb_mk_1",
    "praetorianidf.battle_orb_mk_2",
    "praetorianidf.battle_orb_mk_3",
    "praetorianidf.chemical_burn",
    "praetorianidf.endgame_level_shift",
    "praetorianidf.extinction_war_walker",
    "praetorianidf.extinction_war_walker_arrest_mode",
    "praetorianidf.extinction_war_walker_crowd_dispersal",
    "praetorianidf.extinction_war_walker_lethal_force_authorized",
    "praetorianidf.fusion_burn",
    "praetorianidf.lambda_turret",
    "praetorianidf.olympian_guard",
    "praetorianidf.roided",
    "praetorianidf.selfrepair_extinction_war_walker",
    "praetorianidf.summon_battle_orb",
    "praetorianidf.trooper_boss_missile",
    "praetorianidf.trooper_commander",
    "praetorianidf.trooper_elite_boss_missile",
    "praetorianidf.trooper_lt_armor",
    "praetorianidf.trooper_lt_melee",
    "praetorianidf.trooper_lt_missile",
    "praetorianidf.trooper_lt_range",
    "praetorianidf.trooper_melee",
    "praetorianidf.trooper_minion_armor",
    "praetorianidf.trooper_ranged",
    "praetorianidf.trooper_standard",
    "praetorianidf.underground_resistance",
    "praetorianidf.warworks_9cu",
    "praetorianidf.warworks_acu",
    "praetorianidf.warworks_bcu",
    "praetorianidf.warworks_defense_turret",
    "praetorianidf.warworks_drone",
    "praetorianidf.warworks_drone_carrier",
    "praetorianidf.warworks_goliath",
    "praetorianidf.warworks_keyes_patroller",
    "praetorianidf.warworks_mk_6",
    "praetorianidf.warworks_mobile_turret",
    "praetorianidf.warworks_selfdestruct",
    "praetorianidf.warworks_turret",
    "praetorianidf.warworks_war_walker"
  ],
  "powerset_display_names": [
    "Battle Orb Blast",
    "Battle_Orb_Mk_1",
    "Battle_Orb_Mk_2",
    "Battle_Orb_Mk_3",
    "Chemical Burn",
    "Endgame Level Shift",
    "Extinction War Walker",
    "Extinction War Walker",
    "Extinction War Walker",
    "Extinction War Walker",
    "Fusion Burn",
    "Lambda Turret",
    "Olympian Guard",
    "Roided",
    "SelfRepair_Extinction_War_Walker",
    "Summon Battle Orb",
    "Trooper Boss Missile",
    "Trooper Commander",
    "Trooper Elite Boss Missile",
    "Trooper LT Armor",
    "Trooper LT Melee",
    "Trooper LT Missile",
    "Trooper LT Range",
    "Trooper Melee",
    "Trooper Minion Armor",
    "Trooper Ranged",
    "Trooper Standard",
    "Underground_Resistance",
    "Warworks 9CU",
    "Warworks ACU",
    "Warworks BCU",
    "Warworks Defense Turret",
    "Warworks Drone",
    "Warworks Drone Carrier",
    "Warworks Goliath",
    "Warworks_Keyes_Patroller",
    "Warworks Mk 6",
    "Warworks Mobile Turret",
    "Warworks SelfDestruct",
    "Warworks Turret",
    "Warworks War Walker"
  ]
}