{
  "name": "Crafted_Reactive_Defenses_B",
  "display_name": "Crafted Reactive Defenses B",
  "display_fullname": "Boosts.Crafted Reactive Defenses B",
  "display_help": "Enhances the defense of a power by {Boost.Attrib.Defense.Scale}% and reduces endurance cost by {Boost.Attrib.Endurance.Scale}%.",
  "display_short_help": "Set: Reactive Defenses",
  "available_level": [
    0
  ],
  "source_file": "DEFS/POWERS/BOOSTS/CRAFTED_REACTIVE_DEFENSES_B.POWERSETS",
  "requires": "",
  "power_names": [
    "Boosts.Crafted_Reactive_Defenses_B.Crafted_Reactive_Defenses_B"
  ],
  "power_display_names": [
    "Reactive Defenses: Defense/Endurance"
  ]
}