{
  "name": "Tuatha",
  "display_name": "Tuatha",
  "source_file": "DEFS/POWERS/TUATHA.CATEGORIES",
  "archetypes": [
    "boss_grunt",
    "lt_grunt",
    "minion_grunt"
  ],
  "display_help": null,
  "display_short_help": null,
  "powerset_names": [
    "tuatha.high_end_boost",
    "tuatha.tuatha_boss_attack",
    "tuatha.tuatha_boss_attack_low",
    "tuatha.tuatha_boss_melee",
    "tuatha.tuatha_boss_resists",
    "tuatha.tuatha_lt_defender",
    "tuatha.tuatha_lt_defender_low",
    "tuatha.tuatha_lt_defender_quicksand",
    "tuatha.tuatha_lt_melee",
    "tuatha.tuatha_lt_resists",
    "tuatha.tuatha_minion_melee",
    "tuatha.tuatha_minion_ranged",
    "tuatha.tuatha_minion_resists"
  ],
  "powerset_display_names": [
    "High_End_Boost",
    "Tuatha_Boss_Attack",
    "Tuatha_Boss_Attack",
    "Tuatha_Boss_Melee",
    "Tuatha_Boss_Resists",
    "Tuatha_Lt_Defender",
    "Tuatha_Lt_Defender",
    "Tuatha_Lt_Defender_Quicksand",
    "Tuatha_Lt_Melee",
    "Tuatha_Lt_Resists",
    "Tuatha_Adept_Minion_Melee",
    "Tuatha_Adept_Minion_Ranged",
    "Tuatha_Adept_Minion_Resists"
  ]
}