{
  "name": "Brawl",
  "full_name": "Inherent.Inherent.Brawl",
  "type": "Click",
  "display_name": "Brawl",
  "display_fullname": "Inherent.Inherent.Brawl",
  "display_help": "When all else fails, you have only your two fists to depend on, and will cause smashing damage to your target. Brawl also features a synergy with the Fighting pool. If you have trained Boxing or Kick, Brawl will also reduce the target's attack speed and chance to hit. The strength of this effect increases if both Boxing and Kick are owned. If you have trained Cross Punch, Brawl will also reduce the target's regeneration and recovery.<br><br><color #fcfc95>Damage: Minor.</color><br><color #fcfc95>Recharge: Very Fast.</color>",
  "display_short_help": "Melee, Minor DMG(Smashing), Fighting Synergy",
  "icon": "inherent_brawl.png",
  "auto_issue": true,
  "auto_issue_keeps_level": false,
  "message_caster": null,
  "message_floater": null,
  "message_attacker_hit": null,
  "message_target_hit": null,
  "message_target_confirm": null,
  "message_float_reward": null,
  "message_defense_avoidance": null,
  "attack_types": [
    "Melee",
    "Smashing"
  ],
  "requires": "",
  "activate_requires": "",
  "accuracy": 1.0,
  "number_allowed": 1,
  "caster_near_ground": false,
  "target_near_ground": false,
  "cast_when_dead": "AliveOnly",
  "cast_through": [

  ],
  "toggle_ignores": [

  ],
  "ignore_level_gained": false,
  "works_on_untouchable": false,
  "works_through_vision_phase": false,
  "target_untargetable": false,
  "interrupt_like_sleep": false,
  "notify_ai_when": "Always",
  "effect_area": "SingleTarget",
  "max_targets_hit": 0,
  "radius": 0.0,
  "arc": 0.0,
  "range": 7.0,
  "range_secondary": 0.0,
  "activation_time": 0.83,
  "root_time": 0.83,
  "interrupt_time": 0.0,
  "recharge_time": 2.0,
  "activate_period": 0.0,
  "endurance_cost": 0.0,
  "cancelable": false,
  "self_confirm": false,
  "confirm_requires": "",
  "time_to_confirm": 0,
  "chain_delay": 0.0,
  "chain_effect_expr": "",
  "chain_forks": [

  ],
  "chain_into_power_name": null,
  "vec_box_offset": [
    0.0,
    0.0,
    0.0
  ],
  "vec_box_size": [
    0.0,
    0.0,
    0.0
  ],
  "number_of_charges": 0,
  "max_num_charges": 0,
  "destroy_on_last_use": true,
  "power_lifetime": 0.0,
  "max_power_lifetime": 0.0,
  "power_lifetime_ingame": 0.0,
  "max_power_lifetime_ingame": 0.0,
  "stacking_lifetime": false,
  "toggle_on_time": 0.0,
  "max_toggle_on_time": 0.0,
  "toggle_detoggle_time": 0.0,
  "toggle_droppable": "Sometimes",
  "ignore_toggle_max_distance": false,
  "target_type": "Foe (Alive)",
  "target_type_secondary": null,
  "target_visibility": "LineOfSight",
  "targets_affected": [
    "Foe (Alive)"
  ],
  "targets_autohit": [

  ],
  "target_requires": "",
  "proc_allowed": "All",
  "boosts_allowed": [
    "Enhance Recharge Speed",
    "Enhance Damage",
    "Enhance Accuracy"
  ],
  "allowed_boostset_cats": [
    "Melee Damage",
    "Universal Damage Sets"
  ],
  "exclusion_groups": [

  ],
  "modes_required": [

  ],
  "modes_disallowed": [
    "Peacebringer_Blaster_Mode",
    "Peacebringer_Tanker_Mode",
    "Warshade_Blaster_Mode",
    "Warshade_Tanker_Mode",
    "Disable_All"
  ],
  "recharge_groups": [

  ],
  "ignore_strength": false,
  "strengths_disallowed": [
    "Range"
  ],
  "global_strengths_disallowed": [

  ],
  "procs_only_on_main_target": false,
  "vars_attribmods_can_reference": [

  ],
  "show_buff_icon": true,
  "show_in_info": true,
  "show_in_manage": true,
  "show_in_inventory": "Show",
  "deletable": false,
  "tradeable": false,
  "do_not_save": false,
  "max_boosts": 6,
  "ignore_level_differences": false,
  "ignore_exemplar_for_bonuses": false,
  "boost_combinable": true,
  "boost_tradeable": true,
  "boost_account_bound": false,
  "boost_boostable": false,
  "boost_use_player_level": false,
  "boost_catalyzable": null,
  "boost_store_product": null,
  "boost_min_slot_level": -3,
  "boost_max_level": 50,
  "instance_locked": false,
  "is_environment_hit": false,
  "shuffle_target_list": false,
  "enforced_level_bought": -1,
  "refreshes_on_active_player_change": false,
  "highlight_expression": "",
  "highlight_icon": null,
  "highlight_color": "#00000000",
  "travel_suppression_time": 1.0,
  "server_tray_priority": 0,
  "server_tray_requires": "",
  "abusive_buff": true,
  "position_center": "kModTarget_Caster",
  "position_distance": 0.0,
  "position_height": 0.0,
  "position_yaw": 0.0,
  "face_target": true,
  "attrib_cache": [
    "Smashing_Dmg",
    "ToHit",
    "Regeneration",
    "Recovery",
    "Knockback",
    "Repel",
    "RechargeTime",
    "Null",
    "Execute_Power"
  ],
  "max_targets_expression": "",
  "chain_target_expr": "",
  "powerset": "Inherent.Inherent",
  "available_level": 0,
  "archetypes": [

  ],
  "redirect": [

  ],
  "effects": [
    {
      "tags": [

      ],
      "chance": 1.0,
      "ppm": 0.0,
      "delay": 0.0,
      "radius_inner": -1.0,
      "radius_outer": -1.0,
      "requires_expression": "",
      "flags": [

      ],
      "eval_flags": 0,
      "child_effects": [

      ],
      "templates": [
        {
          "attribs": [
            "Smashing_Dmg"
          ],
          "type": "Magnitude",
          "application_type": "OnTick",
          "aspect": "Absolute",
          "target": "AnyAffected",
          "table": "Melee_Damage",
          "scale": 0.36,
          "duration": "0 seconds",
          "magnitude": 1.0,
          "delay": 0.0,
          "duration_expression": "",
          "magnitude_expression": "",
          "application_period": 0.0,
          "tick_chance": 1.0,
          "jit_requires": "",
          "caster_stack": "Individual",
          "stack": "Stack",
          "stack_limit": 2,
          "stack_key": null,
          "cancel_events": [

          ],
          "boost_mod_allowed": "Science_Boost",
          "flags": [
            "ResistMagnitude (7)",
            "CombatModMagnitude (9)"
          ],
          "mode_name": null,
          "target_info": null,
          "messages": {
            "display_attacker_hit": "You hit {PlayerDest} with your {PowerName} for {Damage} points of Smashing damage.",
            "display_victim_hit": "{PlayerSource} hits you with their {PowerName} for {Damage} points of Smashing damage.",
            "display_float": null,
            "display_defense_float": null
          },
          "suppress_events": [

          ],
          "params": null,
          "fx": null
        }
      ],
      "is_pvp": "EITHER"
    },
    {
      "tags": [

      ],
      "chance": 1.0,
      "ppm": 0.0,
      "delay": 0.0,
      "radius_inner": -1.0,
      "radius_outer": -1.0,
      "requires_expression": "source>arch eq 'Controller' && ((target>kHeld > 0) || (target>kImmobilized > 0) || (target>kSleep > 0) || (target>kStunned > 0))",
      "flags": [

      ],
      "eval_flags": 0,
      "child_effects": [

      ],
      "templates": [
        {
          "attribs": [
            "Smashing_Dmg"
          ],
          "type": "Magnitude",
          "application_type": "OnTick",
          "aspect": "Absolute",
          "target": "AnyAffected",
          "table": "Melee_Damage",
          "scale": 0.36,
          "duration": "0 seconds",
          "magnitude": 1.0,
          "delay": 0.0,
          "duration_expression": "",
          "magnitude_expression": "",
          "application_period": 0.0,
          "tick_chance": 1.0,
          "jit_requires": "",
          "caster_stack": "Individual",
          "stack": "Stack",
          "stack_limit": 2,
          "stack_key": null,
          "cancel_events": [

          ],
          "boost_mod_allowed": "Science_Boost",
          "flags": [
            "ResistMagnitude (7)",
            "CombatModMagnitude (9)"
          ],
          "mode_name": null,
          "target_info": null,
          "messages": {
            "display_attacker_hit": "You hit {PlayerDest} with your {PowerName} for {Damage} points of Smashing damage.",
            "display_victim_hit": "{PlayerSource} hits you with their {PowerName} for {Damage} points of Smashing damage.",
            "display_float": null,
            "display_defense_float": null
          },
          "suppress_events": [

          ],
          "params": null,
          "fx": null
        }
      ],
      "is_pvp": "EITHER"
    },
    {
      "tags": [

      ],
      "chance": 1.0,
      "ppm": 0.0,
      "delay": 0.0,
      "radius_inner": -1.0,
      "radius_outer": -1.0,
      "requires_expression": "source.ownPower?(Pool.Fighting.Boxing) || source.ownPower?(Pool.Fighting.Kick)",
      "flags": [

      ],
      "eval_flags": 4,
      "child_effects": [

      ],
      "templates": [
        {
          "attribs": [
            "RechargeTime"
          ],
          "type": "Expression",
          "application_type": "OnTick",
          "aspect": "Strength",
          "target": "AnyAffected",
          "table": "Melee_Ones",
          "scale": -0.1,
          "duration": "10 seconds",
          "magnitude": 1.0,
          "delay": 0.0,
          "duration_expression": "",
          "magnitude_expression": "@StdResult*(source.ownPowerNum?(Pool.Fighting.Boxing) + source.ownPowerNum?(Pool.Fighting.Kick))",
          "application_period": 67.0,
          "tick_chance": 0.1,
          "jit_requires": "",
          "caster_stack": "Individual",
          "stack": "Replace",
          "stack_limit": 2,
          "stack_key": null,
          "cancel_events": [

          ],
          "boost_mod_allowed": "Science_Boost",
          "flags": [
            "CancelOnMiss (2)",
            "IgnoreStrength (4)",
            "ResistMagnitude (7)",
            "CombatModMagnitude (9)"
          ],
          "mode_name": null,
          "target_info": null,
          "messages": null,
          "suppress_events": [

          ],
          "params": null,
          "fx": null
        },
        {
          "attribs": [
            "ToHit"
          ],
          "type": "Expression",
          "application_type": "OnTick",
          "aspect": "Current",
          "target": "AnyAffected",
          "table": "Melee_Ones",
          "scale": -0.1,
          "duration": "10 seconds",
          "magnitude": 1.0,
          "delay": 0.0,
          "duration_expression": "",
          "magnitude_expression": "@StdResult*(source.ownPowerNum?(Pool.Fighting.Boxing) + source.ownPowerNum?(Pool.Fighting.Kick))",
          "application_period": 67.0,
          "tick_chance": 0.1,
          "jit_requires": "",
          "caster_stack": "Individual",
          "stack": "Replace",
          "stack_limit": 2,
          "stack_key": null,
          "cancel_events": [

          ],
          "boost_mod_allowed": "Science_Boost",
          "flags": [
            "CancelOnMiss (2)",
            "IgnoreStrength (4)",
            "ResistMagnitude (7)",
            "CombatModMagnitude (9)"
          ],
          "mode_name": null,
          "target_info": null,
          "messages": null,
          "suppress_events": [

          ],
          "params": null,
          "fx": {
            "continuing_bits": [

            ],
            "continuing_fx": "GENERICCONTINUING/DEBUFFTOHITCONTINUING.FX",
            "conditional_bits": [

            ],
            "conditional_fx": null
          }
        }
      ],
      "is_pvp": "EITHER"
    },
    {
      "tags": [

      ],
      "chance": 1.0,
      "ppm": 0.0,
      "delay": 0.0,
      "radius_inner": -1.0,
      "radius_outer": -1.0,
      "requires_expression": "source.ownPower?(Pool.Fighting.Cross_Punch)",
      "flags": [

      ],
      "eval_flags": 0,
      "child_effects": [

      ],
      "templates": [
        {
          "attribs": [
            "Regeneration"
          ],
          "type": "Magnitude",
          "application_type": "OnTick",
          "aspect": "Current",
          "target": "AnyAffected",
          "table": "Melee_Ones",
          "scale": -0.1,
          "duration": "10 seconds",
          "magnitude": 1.0,
          "delay": 0.0,
          "duration_expression": "",
          "magnitude_expression": "",
          "application_period": 67.0,
          "tick_chance": 0.1,
          "jit_requires": "",
          "caster_stack": "Individual",
          "stack": "Replace",
          "stack_limit": 2,
          "stack_key": null,
          "cancel_events": [

          ],
          "boost_mod_allowed": "Science_Boost",
          "flags": [
            "CancelOnMiss (2)",
            "IgnoreStrength (4)",
            "ResistMagnitude (7)",
            "CombatModMagnitude (9)"
          ],
          "mode_name": null,
          "target_info": null,
          "messages": null,
          "suppress_events": [

          ],
          "params": null,
          "fx": {
            "continuing_bits": [

            ],
            "continuing_fx": "GENERICCONTINUING/DEBUFFMAXHPCONTINUING.FX",
            "conditional_bits": [

            ],
            "conditional_fx": null
          }
        },
        {
          "attribs": [
            "Recovery"
          ],
          "type": "Magnitude",
          "application_type": "OnTick",
          "aspect": "Current",
          "target": "AnyAffected",
          "table": "Melee_Ones",
          "scale": -0.1,
          "duration": "10 seconds",
          "magnitude": 1.0,
          "delay": 0.0,
          "duration_expression": "",
          "magnitude_expression": "",
          "application_period": 67.0,
          "tick_chance": 0.1,
          "jit_requires": "",
          "caster_stack": "Individual",
          "stack": "Replace",
          "stack_limit": 2,
          "stack_key": null,
          "cancel_events": [

          ],
          "boost_mod_allowed": "Science_Boost",
          "flags": [
            "CancelOnMiss (2)",
            "IgnoreStrength (4)",
            "ResistMagnitude (7)",
            "CombatModMagnitude (9)"
          ],
          "mode_name": null,
          "target_info": null,
          "messages": null,
          "suppress_events": [

          ],
          "params": null,
          "fx": {
            "continuing_bits": [

            ],
            "continuing_fx": "GENERICCONTINUING/DEBUFFEND2CONTINUING.FX",
            "conditional_bits": [

            ],
            "conditional_fx": null
          }
        }
      ],
      "is_pvp": "EITHER"
    },
    {
      "tags": [

      ],
      "chance": 1.0,
      "ppm": 0.0,
      "delay": 0.0,
      "radius_inner": -1.0,
      "radius_outer": -1.0,
      "requires_expression": "source.owned?(FourOne) && !isPVPMap?",
      "flags": [
        "HideFromInfo"
      ],
      "eval_flags": 0,
      "child_effects": [
        {
          "tags": [

          ],
          "chance": 0.9,
          "ppm": 0.0,
          "delay": 0.0,
          "radius_inner": -1.0,
          "radius_outer": -1.0,
          "requires_expression": "",
          "flags": [

          ],
          "eval_flags": 0,
          "child_effects": [
            {
              "tags": [

              ],
              "chance": 1.0,
              "ppm": 0.0,
              "delay": 0.0,
              "radius_inner": -1.0,
              "radius_outer": -1.0,
              "requires_expression": "",
              "flags": [

              ],
              "eval_flags": 0,
              "child_effects": [
                {
                  "tags": [

                  ],
                  "chance": 1.0,
                  "ppm": 0.0,
                  "delay": 0.0,
                  "radius_inner": -1.0,
                  "radius_outer": -1.0,
                  "requires_expression": "",
                  "flags": [

                  ],
                  "eval_flags": 0,
                  "child_effects": [

                  ],
                  "templates": [

                  ],
                  "is_pvp": "EITHER"
                },
                {
                  "tags": [

                  ],
                  "chance": 1.0,
                  "ppm": 0.0,
                  "delay": 0.0,
                  "radius_inner": -1.0,
                  "radius_outer": -1.0,
                  "requires_expression": "target>enttype eq 'player'",
                  "flags": [

                  ],
                  "eval_flags": 0,
                  "child_effects": [

                  ],
                  "templates": [
                    {
                      "attribs": [
                        "Knockback"
                      ],
                      "type": "Magnitude",
                      "application_type": "OnTick",
                      "aspect": "Current",
                      "target": "AnyAffected",
                      "table": "Melee_Ones",
                      "scale": 3.0,
                      "duration": "0 seconds",
                      "magnitude": 0.0,
                      "delay": 0.0,
                      "duration_expression": "",
                      "magnitude_expression": "",
                      "application_period": 0.0,
                      "tick_chance": 1.0,
                      "jit_requires": "",
                      "caster_stack": "Individual",
                      "stack": "Stack",
                      "stack_limit": 2,
                      "stack_key": null,
                      "cancel_events": [

                      ],
                      "boost_mod_allowed": "Science_Boost",
                      "flags": [
                        "IgnoreStrength (4)",
                        "ResistMagnitude (7)",
                        "CombatModMagnitude (9)"
                      ],
                      "mode_name": null,
                      "target_info": null,
                      "messages": {
                        "display_attacker_hit": "You knock {PlayerDest} off their feet with your {PowerName}!",
                        "display_victim_hit": "{PlayerSource} knocks you off your feet with their {PowerName}!",
                        "display_float": null,
                        "display_defense_float": null
                      },
                      "suppress_events": [
                        {
                          "event": "Knocked",
                          "post_event_delay": 10,
                          "always_suppress": false
                        }
                      ],
                      "params": {
                        "type": "Knock",
                        "vec_start": "kKnock_Source",
                        "vec_end": "kKnock_Source",
                        "vec_adjust_pyr": [
                          0.0,
                          0.0,
                          0.0
                        ],
                        "priority": 0,
                        "vel": 1.0,
                        "vel_mag": 0.0,
                        "height_mag": 0.0,
                        "height": 10.0
                      },
                      "fx": null
                    }
                  ],
                  "is_pvp": "EITHER"
                },
                {
                  "tags": [

                  ],
                  "chance": 1.0,
                  "ppm": 0.0,
                  "delay": 0.0,
                  "radius_inner": -1.0,
                  "radius_outer": -1.0,
                  "requires_expression": "target>enttype eq 'critter'",
                  "flags": [

                  ],
                  "eval_flags": 0,
                  "child_effects": [

                  ],
                  "templates": [
                    {
                      "attribs": [
                        "Knockback"
                      ],
                      "type": "Magnitude",
                      "application_type": "OnTick",
                      "aspect": "Current",
                      "target": "AnyAffected",
                      "table": "Melee_Ones",
                      "scale": 3.0,
                      "duration": "0 seconds",
                      "magnitude": 0.0,
                      "delay": 0.0,
                      "duration_expression": "",
                      "magnitude_expression": "",
                      "application_period": 0.0,
                      "tick_chance": 1.0,
                      "jit_requires": "",
                      "caster_stack": "Individual",
                      "stack": "Stack",
                      "stack_limit": 2,
                      "stack_key": null,
                      "cancel_events": [

                      ],
                      "boost_mod_allowed": "Science_Boost",
                      "flags": [
                        "IgnoreStrength (4)",
                        "ResistMagnitude (7)",
                        "CombatModMagnitude (9)"
                      ],
                      "mode_name": null,
                      "target_info": null,
                      "messages": {
                        "display_attacker_hit": "You knock {PlayerDest} off their feet with your {PowerName}!",
                        "display_victim_hit": "{PlayerSource} knocks you off your feet with their {PowerName}!",
                        "display_float": null,
                        "display_defense_float": null
                      },
                      "suppress_events": [

                      ],
                      "params": {
                        "type": "Knock",
                        "vec_start": "kKnock_Source",
                        "vec_end": "kKnock_Source",
                        "vec_adjust_pyr": [
                          0.0,
                          0.0,
                          0.0
                        ],
                        "priority": 0,
                        "vel": 1.0,
                        "vel_mag": 0.0,
                        "height_mag": 0.0,
                        "height": 10.0
                      },
                      "fx": null
                    }
                  ],
                  "is_pvp": "EITHER"
                },
                {
                  "tags": [

                  ],
                  "chance": 0.33,
                  "ppm": 0.0,
                  "delay": 0.0,
                  "radius_inner": -1.0,
                  "radius_outer": -1.0,
                  "requires_expression": "",
                  "flags": [

                  ],
                  "eval_flags": 0,
                  "child_effects": [

                  ],
                  "templates": [
                    {
                      "attribs": [
                        "Knockback"
                      ],
                      "type": "Magnitude",
                      "application_type": "OnTick",
                      "aspect": "Current",
                      "target": "AnyAffected",
                      "table": "Melee_Ones",
                      "scale": 0.0,
                      "duration": "0 seconds",
                      "magnitude": 0.0,
                      "delay": 0.0,
                      "duration_expression": "",
                      "magnitude_expression": "",
                      "application_period": 0.0,
                      "tick_chance": 1.0,
                      "jit_requires": "",
                      "caster_stack": "Individual",
                      "stack": "Stack",
                      "stack_limit": 2,
                      "stack_key": null,
                      "cancel_events": [

                      ],
                      "boost_mod_allowed": "Science_Boost",
                      "flags": [
                        "ResistMagnitude (7)",
                        "CombatModMagnitude (9)"
                      ],
                      "mode_name": null,
                      "target_info": null,
                      "messages": {
                        "display_attacker_hit": "You knock {PlayerDest} off their feet with your {PowerName}!",
                        "display_victim_hit": "{PlayerSource} knocks you off your feet with their {PowerName}!",
                        "display_float": null,
                        "display_defense_float": null
                      },
                      "suppress_events": [

                      ],
                      "params": {
                        "type": "Knock",
                        "vec_start": "kKnock_Source",
                        "vec_end": "kKnock_Source",
                        "vec_adjust_pyr": [
                          0.0,
                          0.0,
                          0.0
                        ],
                        "priority": 1,
                        "vel": 3.0,
                        "vel_mag": 0.0,
                        "height_mag": 0.0,
                        "height": 20.0
                      },
                      "fx": null
                    }
                  ],
                  "is_pvp": "EITHER"
                },
                {
                  "tags": [

                  ],
                  "chance": 0.33,
                  "ppm": 0.0,
                  "delay": 0.0,
                  "radius_inner": -1.0,
                  "radius_outer": -1.0,
                  "requires_expression": "",
                  "flags": [

                  ],
                  "eval_flags": 0,
                  "child_effects": [

                  ],
                  "templates": [
                    {
                      "attribs": [
                        "Knockback"
                      ],
                      "type": "Magnitude",
                      "application_type": "OnTick",
                      "aspect": "Current",
                      "target": "AnyAffected",
                      "table": "Melee_Ones",
                      "scale": 0.0,
                      "duration": "0 seconds",
                      "magnitude": 0.0,
                      "delay": 0.0,
                      "duration_expression": "",
                      "magnitude_expression": "",
                      "application_period": 0.0,
                      "tick_chance": 1.0,
                      "jit_requires": "",
                      "caster_stack": "Individual",
                      "stack": "Stack",
                      "stack_limit": 2,
                      "stack_key": null,
                      "cancel_events": [

                      ],
                      "boost_mod_allowed": "Science_Boost",
                      "flags": [
                        "ResistMagnitude (7)",
                        "CombatModMagnitude (9)"
                      ],
                      "mode_name": null,
                      "target_info": null,
                      "messages": {
                        "display_attacker_hit": "You knock {PlayerDest} off their feet with your {PowerName}!",
                        "display_victim_hit": "{PlayerSource} knocks you off your feet with their {PowerName}!",
                        "display_float": null,
                        "display_defense_float": null
                      },
                      "suppress_events": [

                      ],
                      "params": {
                        "type": "Knock",
                        "vec_start": "kKnock_Target",
                        "vec_end": "kKnock_Source",
                        "vec_adjust_pyr": [
                          0.0,
                          0.0,
                          0.0
                        ],
                        "priority": 1,
                        "vel": 3.0,
                        "vel_mag": 0.0,
                        "height_mag": 0.0,
                        "height": 20.0
                      },
                      "fx": null
                    }
                  ],
                  "is_pvp": "EITHER"
                },
                {
                  "tags": [

                  ],
                  "chance": 0.4,
                  "ppm": 0.0,
                  "delay": 0.0,
                  "radius_inner": -1.0,
                  "radius_outer": -1.0,
                  "requires_expression": "",
                  "flags": [

                  ],
                  "eval_flags": 0,
                  "child_effects": [

                  ],
                  "templates": [
                    {
                      "attribs": [
                        "Knockback"
                      ],
                      "type": "Magnitude",
                      "application_type": "OnTick",
                      "aspect": "Current",
                      "target": "AnyAffected",
                      "table": "Melee_Ones",
                      "scale": 0.0,
                      "duration": "0 seconds",
                      "magnitude": 0.0,
                      "delay": 0.0,
                      "duration_expression": "",
                      "magnitude_expression": "",
                      "application_period": 0.0,
                      "tick_chance": 1.0,
                      "jit_requires": "",
                      "caster_stack": "Individual",
                      "stack": "Stack",
                      "stack_limit": 2,
                      "stack_key": null,
                      "cancel_events": [

                      ],
                      "boost_mod_allowed": "Science_Boost",
                      "flags": [
                        "ResistMagnitude (7)",
                        "CombatModMagnitude (9)"
                      ],
                      "mode_name": null,
                      "target_info": null,
                      "messages": {
                        "display_attacker_hit": "You knock {PlayerDest} off their feet with your {PowerName}!",
                        "display_victim_hit": "{PlayerSource} knocks you off your feet with their {PowerName}!",
                        "display_float": null,
                        "display_defense_float": null
                      },
                      "suppress_events": [

                      ],
                      "params": {
                        "type": "Knock",
                        "vec_start": "kKnock_Source",
                        "vec_end": "kKnock_Up",
                        "vec_adjust_pyr": [
                          0.0,
                          0.0,
                          0.0
                        ],
                        "priority": 1,
                        "vel": 0.1,
                        "vel_mag": 0.0,
                        "height_mag": 0.0,
                        "height": 20.0
                      },
                      "fx": null
                    }
                  ],
                  "is_pvp": "EITHER"
                },
                {
                  "tags": [

                  ],
                  "chance": 0.25,
                  "ppm": 0.0,
                  "delay": 0.0,
                  "radius_inner": -1.0,
                  "radius_outer": -1.0,
                  "requires_expression": "",
                  "flags": [

                  ],
                  "eval_flags": 0,
                  "child_effects": [

                  ],
                  "templates": [
                    {
                      "attribs": [
                        "Knockback"
                      ],
                      "type": "Magnitude",
                      "application_type": "OnTick",
                      "aspect": "Current",
                      "target": "AnyAffected",
                      "table": "Melee_Ones",
                      "scale": 0.0,
                      "duration": "0 seconds",
                      "magnitude": 0.0,
                      "delay": 0.0,
                      "duration_expression": "",
                      "magnitude_expression": "",
                      "application_period": 0.0,
                      "tick_chance": 1.0,
                      "jit_requires": "",
                      "caster_stack": "Individual",
                      "stack": "Stack",
                      "stack_limit": 2,
                      "stack_key": null,
                      "cancel_events": [

                      ],
                      "boost_mod_allowed": "Science_Boost",
                      "flags": [
                        "ResistMagnitude (7)",
                        "CombatModMagnitude (9)"
                      ],
                      "mode_name": null,
                      "target_info": null,
                      "messages": {
                        "display_attacker_hit": "You knock {PlayerDest} off their feet with your {PowerName}!",
                        "display_victim_hit": "{PlayerSource} knocks you off your feet with their {PowerName}!",
                        "display_float": null,
                        "display_defense_float": null
                      },
                      "suppress_events": [

                      ],
                      "params": {
                        "type": "Knock",
                        "vec_start": "kKnock_Target",
                        "vec_end": "kKnock_Facing",
                        "vec_adjust_pyr": [
                          0.0,
                          0.0,
                          0.0
                        ],
                        "priority": 1,
                        "vel": 2.0,
                        "vel_mag": 0.0,
                        "height_mag": 0.0,
                        "height": 10.0
                      },
                      "fx": null
                    }
                  ],
                  "is_pvp": "EITHER"
                },
                {
                  "tags": [

                  ],
                  "chance": 0.25,
                  "ppm": 0.0,
                  "delay": 0.0,
                  "radius_inner": -1.0,
                  "radius_outer": -1.0,
                  "requires_expression": "",
                  "flags": [

                  ],
                  "eval_flags": 0,
                  "child_effects": [

                  ],
                  "templates": [
                    {
                      "attribs": [
                        "Knockback"
                      ],
                      "type": "Magnitude",
                      "application_type": "OnTick",
                      "aspect": "Current",
                      "target": "AnyAffected",
                      "table": "Melee_Ones",
                      "scale": 0.0,
                      "duration": "0 seconds",
                      "magnitude": 0.0,
                      "delay": 0.0,
                      "duration_expression": "",
                      "magnitude_expression": "",
                      "application_period": 0.0,
                      "tick_chance": 1.0,
                      "jit_requires": "",
                      "caster_stack": "Individual",
                      "stack": "Stack",
                      "stack_limit": 2,
                      "stack_key": null,
                      "cancel_events": [

                      ],
                      "boost_mod_allowed": "Science_Boost",
                      "flags": [
                        "ResistMagnitude (7)",
                        "CombatModMagnitude (9)"
                      ],
                      "mode_name": null,
                      "target_info": null,
                      "messages": {
                        "display_attacker_hit": "You knock {PlayerDest} off their feet with your {PowerName}!",
                        "display_victim_hit": "{PlayerSource} knocks you off your feet with their {PowerName}!",
                        "display_float": null,
                        "display_defense_float": null
                      },
                      "suppress_events": [

                      ],
                      "params": {
                        "type": "Knock",
                        "vec_start": "kKnock_Source",
                        "vec_end": "kKnock_Facing",
                        "vec_adjust_pyr": [
                          0.0,
                          0.7853981852531433,
                          0.0
                        ],
                        "priority": 1,
                        "vel": 1.5,
                        "vel_mag": 0.0,
                        "height_mag": 0.0,
                        "height": 20.0
                      },
                      "fx": null
                    }
                  ],
                  "is_pvp": "EITHER"
                },
                {
                  "tags": [

                  ],
                  "chance": 0.25,
                  "ppm": 0.0,
                  "delay": 0.0,
                  "radius_inner": -1.0,
                  "radius_outer": -1.0,
                  "requires_expression": "",
                  "flags": [

                  ],
                  "eval_flags": 0,
                  "child_effects": [

                  ],
                  "templates": [
                    {
                      "attribs": [
                        "Knockback"
                      ],
                      "type": "Magnitude",
                      "application_type": "OnTick",
                      "aspect": "Current",
                      "target": "AnyAffected",
                      "table": "Melee_Ones",
                      "scale": 0.0,
                      "duration": "0 seconds",
                      "magnitude": 0.0,
                      "delay": 0.0,
                      "duration_expression": "",
                      "magnitude_expression": "",
                      "application_period": 0.0,
                      "tick_chance": 1.0,
                      "jit_requires": "",
                      "caster_stack": "Individual",
                      "stack": "Stack",
                      "stack_limit": 2,
                      "stack_key": null,
                      "cancel_events": [

                      ],
                      "boost_mod_allowed": "Science_Boost",
                      "flags": [
                        "ResistMagnitude (7)",
                        "CombatModMagnitude (9)"
                      ],
                      "mode_name": null,
                      "target_info": null,
                      "messages": {
                        "display_attacker_hit": "You knock {PlayerDest} off their feet with your {PowerName}!",
                        "display_victim_hit": "{PlayerSource} knocks you off your feet with their {PowerName}!",
                        "display_float": null,
                        "display_defense_float": null
                      },
                      "suppress_events": [

                      ],
                      "params": {
                        "type": "Knock",
                        "vec_start": "kKnock_Source",
                        "vec_end": "kKnock_Facing",
                        "vec_adjust_pyr": [
                          0.0,
                          5.4977874755859375,
                          0.0
                        ],
                        "priority": 1,
                        "vel": 1.5,
                        "vel_mag": 0.0,
                        "height_mag": 0.0,
                        "height": 20.0
                      },
                      "fx": null
                    }
                  ],
                  "is_pvp": "EITHER"
                },
                {
                  "tags": [

                  ],
                  "chance": 0.25,
                  "ppm": 0.0,
                  "delay": 0.0,
                  "radius_inner": -1.0,
                  "radius_outer": -1.0,
                  "requires_expression": "",
                  "flags": [

                  ],
                  "eval_flags": 0,
                  "child_effects": [

                  ],
                  "templates": [
                    {
                      "attribs": [
                        "Knockback"
                      ],
                      "type": "Magnitude",
                      "application_type": "OnTick",
                      "aspect": "Current",
                      "target": "AnyAffected",
                      "table": "Melee_Ones",
                      "scale": 0.0,
                      "duration": "0 seconds",
                      "magnitude": 0.0,
                      "delay": 0.0,
                      "duration_expression": "",
                      "magnitude_expression": "",
                      "application_period": 0.0,
                      "tick_chance": 1.0,
                      "jit_requires": "",
                      "caster_stack": "Individual",
                      "stack": "Stack",
                      "stack_limit": 2,
                      "stack_key": null,
                      "cancel_events": [

                      ],
                      "boost_mod_allowed": "Science_Boost",
                      "flags": [
                        "ResistMagnitude (7)",
                        "CombatModMagnitude (9)"
                      ],
                      "mode_name": null,
                      "target_info": null,
                      "messages": {
                        "display_attacker_hit": "You knock {PlayerDest} off their feet with your {PowerName}!",
                        "display_victim_hit": "{PlayerSource} knocks you off your feet with their {PowerName}!",
                        "display_float": null,
                        "display_defense_float": null
                      },
                      "suppress_events": [

                      ],
                      "params": {
                        "type": "Knock",
                        "vec_start": "kKnock_Source",
                        "vec_end": "kKnock_Facing",
                        "vec_adjust_pyr": [
                          0.0,
                          1.5707963705062866,
                          0.0
                        ],
                        "priority": 1,
                        "vel": 3.0,
                        "vel_mag": 0.0,
                        "height_mag": 0.0,
                        "height": 20.0
                      },
                      "fx": null
                    }
                  ],
                  "is_pvp": "EITHER"
                },
                {
                  "tags": [

                  ],
                  "chance": 0.25,
                  "ppm": 0.0,
                  "delay": 0.0,
                  "radius_inner": -1.0,
                  "radius_outer": -1.0,
                  "requires_expression": "",
                  "flags": [

                  ],
                  "eval_flags": 0,
                  "child_effects": [

                  ],
                  "templates": [
                    {
                      "attribs": [
                        "Knockback"
                      ],
                      "type": "Magnitude",
                      "application_type": "OnTick",
                      "aspect": "Current",
                      "target": "AnyAffected",
                      "table": "Melee_Ones",
                      "scale": 0.0,
                      "duration": "0 seconds",
                      "magnitude": 0.0,
                      "delay": 0.0,
                      "duration_expression": "",
                      "magnitude_expression": "",
                      "application_period": 0.0,
                      "tick_chance": 1.0,
                      "jit_requires": "",
                      "caster_stack": "Individual",
                      "stack": "Stack",
                      "stack_limit": 2,
                      "stack_key": null,
                      "cancel_events": [

                      ],
                      "boost_mod_allowed": "Science_Boost",
                      "flags": [
                        "ResistMagnitude (7)",
                        "CombatModMagnitude (9)"
                      ],
                      "mode_name": null,
                      "target_info": null,
                      "messages": {
                        "display_attacker_hit": "You knock {PlayerDest} off their feet with your {PowerName}!",
                        "display_victim_hit": "{PlayerSource} knocks you off your feet with their {PowerName}!",
                        "display_float": null,
                        "display_defense_float": null
                      },
                      "suppress_events": [

                      ],
                      "params": {
                        "type": "Knock",
                        "vec_start": "kKnock_Source",
                        "vec_end": "kKnock_Facing",
                        "vec_adjust_pyr": [
                          0.0,
                          4.71238899230957,
                          0.0
                        ],
                        "priority": 1,
                        "vel": 3.0,
                        "vel_mag": 0.0,
                        "height_mag": 0.0,
                        "height": 20.0
                      },
                      "fx": null
                    }
                  ],
                  "is_pvp": "EITHER"
                }
              ],
              "templates": [

              ],
              "is_pvp": "EITHER"
            },
            {
              "tags": [

              ],
              "chance": 1.0,
              "ppm": 0.0,
              "delay": 0.0,
              "radius_inner": -1.0,
              "radius_outer": -1.0,
              "requires_expression": "",
              "flags": [

              ],
              "eval_flags": 0,
              "child_effects": [
                {
                  "tags": [

                  ],
                  "chance": 0.5,
                  "ppm": 0.0,
                  "delay": 0.0,
                  "radius_inner": -1.0,
                  "radius_outer": -1.0,
                  "requires_expression": "",
                  "flags": [

                  ],
                  "eval_flags": 0,
                  "child_effects": [

                  ],
                  "templates": [
                    {
                      "attribs": [
                        "Null"
                      ],
                      "type": "Magnitude",
                      "application_type": "OnTick",
                      "aspect": "Current",
                      "target": "Self",
                      "table": "Melee_Ones",
                      "scale": 0.0,
                      "duration": "1 seconds",
                      "magnitude": 1.0,
                      "delay": 0.0,
                      "duration_expression": "",
                      "magnitude_expression": "",
                      "application_period": 0.0,
                      "tick_chance": 1.0,
                      "jit_requires": "",
                      "caster_stack": "Individual",
                      "stack": "Replace",
                      "stack_limit": 2,
                      "stack_key": null,
                      "cancel_events": [

                      ],
                      "boost_mod_allowed": "Science_Boost",
                      "flags": [
                        "IgnoreStrength (4)",
                        "IgnoreResistance (5)",
                        "CombatModMagnitude (9)"
                      ],
                      "mode_name": null,
                      "target_info": null,
                      "messages": {
                        "display_attacker_hit": null,
                        "display_victim_hit": null,
                        "display_float": "BOOM!",
                        "display_defense_float": null
                      },
                      "suppress_events": [

                      ],
                      "params": null,
                      "fx": null
                    }
                  ],
                  "is_pvp": "EITHER"
                },
                {
                  "tags": [

                  ],
                  "chance": 1.0,
                  "ppm": 0.0,
                  "delay": 0.0,
                  "radius_inner": -1.0,
                  "radius_outer": -1.0,
                  "requires_expression": "",
                  "flags": [
                    "Fallback"
                  ],
                  "eval_flags": 0,
                  "child_effects": [

                  ],
                  "templates": [
                    {
                      "attribs": [
                        "Null"
                      ],
                      "type": "Magnitude",
                      "application_type": "OnTick",
                      "aspect": "Current",
                      "target": "Self",
                      "table": "Melee_Ones",
                      "scale": 0.0,
                      "duration": "1 seconds",
                      "magnitude": 1.0,
                      "delay": 0.0,
                      "duration_expression": "",
                      "magnitude_expression": "",
                      "application_period": 0.0,
                      "tick_chance": 1.0,
                      "jit_requires": "",
                      "caster_stack": "Individual",
                      "stack": "Replace",
                      "stack_limit": 2,
                      "stack_key": null,
                      "cancel_events": [

                      ],
                      "boost_mod_allowed": "Science_Boost",
                      "flags": [
                        "IgnoreStrength (4)",
                        "IgnoreResistance (5)",
                        "CombatModMagnitude (9)"
                      ],
                      "mode_name": null,
                      "target_info": null,
                      "messages": {
                        "display_attacker_hit": null,
                        "display_victim_hit": null,
                        "display_float": "POW!",
                        "display_defense_float": null
                      },
                      "suppress_events": [

                      ],
                      "params": null,
                      "fx": null
                    }
                  ],
                  "is_pvp": "EITHER"
                }
              ],
              "templates": [

              ],
              "is_pvp": "EITHER"
            },
            {
              "tags": [

              ],
              "chance": 1.0,
              "ppm": 0.0,
              "delay": 0.0,
              "radius_inner": -1.0,
              "radius_outer": -1.0,
              "requires_expression": "",
              "flags": [

              ],
              "eval_flags": 0,
              "child_effects": [
                {
                  "tags": [

                  ],
                  "chance": 0.1112,
                  "ppm": 0.0,
                  "delay": 0.0,
                  "radius_inner": -1.0,
                  "radius_outer": -1.0,
                  "requires_expression": "",
                  "flags": [

                  ],
                  "eval_flags": 0,
                  "child_effects": [

                  ],
                  "templates": [
                    {
                      "attribs": [
                        "Execute_Power"
                      ],
                      "type": "Magnitude",
                      "application_type": "OnTick",
                      "aspect": "Strength",
                      "target": "AnyAffected",
                      "table": "Melee_Ones",
                      "scale": 0.0,
                      "duration": "0 seconds",
                      "magnitude": 0.0,
                      "delay": 0.0,
                      "duration_expression": "",
                      "magnitude_expression": "",
                      "application_period": 0.0,
                      "tick_chance": 1.0,
                      "jit_requires": "",
                      "caster_stack": "Individual",
                      "stack": "Stack",
                      "stack_limit": 2,
                      "stack_key": null,
                      "cancel_events": [

                      ],
                      "boost_mod_allowed": "Science_Boost",
                      "flags": [
                        "ResistMagnitude (7)",
                        "CombatModMagnitude (9)",
                        "CopyBoosts (34)"
                      ],
                      "mode_name": null,
                      "target_info": null,
                      "messages": null,
                      "suppress_events": [

                      ],
                      "params": {
                        "type": "Power",
                        "count": 1,
                        "category_names": [

                        ],
                        "powerset_names": [

                        ],
                        "power_names": [
                          "Temporary_Powers.Temporary_Powers.Invention_Plasmatic_Taser"
                        ]
                      },
                      "fx": null
                    },
                    {
                      "attribs": [
                        "Null"
                      ],
                      "type": "Magnitude",
                      "application_type": "OnTick",
                      "aspect": "Current",
                      "target": "Self",
                      "table": "Melee_Ones",
                      "scale": 0.0,
                      "duration": "1 seconds",
                      "magnitude": 1.0,
                      "delay": 1.0,
                      "duration_expression": "",
                      "magnitude_expression": "",
                      "application_period": 0.0,
                      "tick_chance": 1.0,
                      "jit_requires": "",
                      "caster_stack": "Individual",
                      "stack": "Replace",
                      "stack_limit": 2,
                      "stack_key": null,
                      "cancel_events": [

                      ],
                      "boost_mod_allowed": "Science_Boost",
                      "flags": [
                        "IgnoreStrength (4)",
                        "IgnoreResistance (5)",
                        "CombatModMagnitude (9)"
                      ],
                      "mode_name": null,
                      "target_info": null,
                      "messages": {
                        "display_attacker_hit": null,
                        "display_victim_hit": null,
                        "display_float": "Freeeem!",
                        "display_defense_float": null
                      },
                      "suppress_events": [

                      ],
                      "params": null,
                      "fx": null
                    }
                  ],
                  "is_pvp": "EITHER"
                },
                {
                  "tags": [

                  ],
                  "chance": 1.0,
                  "ppm": 0.0,
                  "delay": 0.0,
                  "radius_inner": -1.0,
                  "radius_outer": -1.0,
                  "requires_expression": "",
                  "flags": [
                    "Fallback"
                  ],
                  "eval_flags": 0,
                  "child_effects": [
                    {
                      "tags": [

                      ],
                      "chance": 0.1155,
                      "ppm": 0.0,
                      "delay": 0.0,
                      "radius_inner": -1.0,
                      "radius_outer": -1.0,
                      "requires_expression": "",
                      "flags": [
                        "Fallback"
                      ],
                      "eval_flags": 0,
                      "child_effects": [

                      ],
                      "templates": [
                        {
                          "attribs": [
                            "Knockback"
                          ],
                          "type": "Magnitude",
                          "application_type": "OnTick",
                          "aspect": "Current",
                          "target": "Self",
                          "table": "Melee_Ones",
                          "scale": 100.0,
                          "duration": "0 seconds",
                          "magnitude": 0.0,
                          "delay": 0.01,
                          "duration_expression": "",
                          "magnitude_expression": "",
                          "application_period": 0.0,
                          "tick_chance": 1.0,
                          "jit_requires": "",
                          "caster_stack": "Individual",
                          "stack": "Stack",
                          "stack_limit": 2,
                          "stack_key": null,
                          "cancel_events": [

                          ],
                          "boost_mod_allowed": "Science_Boost",
                          "flags": [
                            "IgnoreStrength (4)",
                            "IgnoreResistance (5)",
                            "CombatModMagnitude (9)"
                          ],
                          "mode_name": null,
                          "target_info": null,
                          "messages": {
                            "display_attacker_hit": "You knock {PlayerDest} off their feet with your {PowerName}!",
                            "display_victim_hit": "{PlayerSource} knocks you off your feet with their {PowerName}!",
                            "display_float": null,
                            "display_defense_float": null
                          },
                          "suppress_events": [

                          ],
                          "params": {
                            "type": "Knock",
                            "vec_start": "kKnock_MainTarget",
                            "vec_end": "kKnock_Source",
                            "vec_adjust_pyr": [
                              0.0,
                              0.0,
                              0.0
                            ],
                            "priority": 1,
                            "vel": 3.0,
                            "vel_mag": 0.0,
                            "height_mag": 0.0,
                            "height": 3.0
                          },
                          "fx": null
                        },
                        {
                          "attribs": [
                            "Null"
                          ],
                          "type": "Magnitude",
                          "application_type": "OnTick",
                          "aspect": "Current",
                          "target": "Self",
                          "table": "Melee_Ones",
                          "scale": 0.0,
                          "duration": "1 seconds",
                          "magnitude": 1.0,
                          "delay": 0.75,
                          "duration_expression": "",
                          "magnitude_expression": "",
                          "application_period": 0.0,
                          "tick_chance": 1.0,
                          "jit_requires": "",
                          "caster_stack": "Individual",
                          "stack": "Replace",
                          "stack_limit": 2,
                          "stack_key": null,
                          "cancel_events": [

                          ],
                          "boost_mod_allowed": "Science_Boost",
                          "flags": [
                            "IgnoreStrength (4)",
                            "IgnoreResistance (5)",
                            "CombatModMagnitude (9)"
                          ],
                          "mode_name": null,
                          "target_info": null,
                          "messages": {
                            "display_attacker_hit": null,
                            "display_victim_hit": null,
                            "display_float": "Oops!",
                            "display_defense_float": null
                          },
                          "suppress_events": [

                          ],
                          "params": null,
                          "fx": null
                        }
                      ],
                      "is_pvp": "EITHER"
                    },
                    {
                      "tags": [

                      ],
                      "chance": 0.1878,
                      "ppm": 0.0,
                      "delay": 0.0,
                      "radius_inner": -1.0,
                      "radius_outer": -1.0,
                      "requires_expression": "",
                      "flags": [

                      ],
                      "eval_flags": 0,
                      "child_effects": [

                      ],
                      "templates": [
                        {
                          "attribs": [
                            "Execute_Power"
                          ],
                          "type": "Magnitude",
                          "application_type": "OnTick",
                          "aspect": "Strength",
                          "target": "AnyAffected",
                          "table": "Melee_Ones",
                          "scale": 0.0,
                          "duration": "0 seconds",
                          "magnitude": 0.0,
                          "delay": 0.0,
                          "duration_expression": "",
                          "magnitude_expression": "",
                          "application_period": 0.0,
                          "tick_chance": 1.0,
                          "jit_requires": "",
                          "caster_stack": "Individual",
                          "stack": "Stack",
                          "stack_limit": 2,
                          "stack_key": null,
                          "cancel_events": [

                          ],
                          "boost_mod_allowed": "Science_Boost",
                          "flags": [
                            "ResistMagnitude (7)",
                            "CombatModMagnitude (9)",
                            "CopyBoosts (34)"
                          ],
                          "mode_name": null,
                          "target_info": null,
                          "messages": null,
                          "suppress_events": [

                          ],
                          "params": {
                            "type": "Power",
                            "count": 1,
                            "category_names": [

                            ],
                            "powerset_names": [

                            ],
                            "power_names": [
                              "Temporary_Powers.Temporary_Powers.Friendly_Fireworks"
                            ]
                          },
                          "fx": null
                        },
                        {
                          "attribs": [
                            "Null"
                          ],
                          "type": "Magnitude",
                          "application_type": "OnTick",
                          "aspect": "Current",
                          "target": "Self",
                          "table": "Melee_Ones",
                          "scale": 0.0,
                          "duration": "1 seconds",
                          "magnitude": 1.0,
                          "delay": 0.7,
                          "duration_expression": "",
                          "magnitude_expression": "",
                          "application_period": 0.0,
                          "tick_chance": 1.0,
                          "jit_requires": "",
                          "caster_stack": "Individual",
                          "stack": "Replace",
                          "stack_limit": 2,
                          "stack_key": null,
                          "cancel_events": [

                          ],
                          "boost_mod_allowed": "Science_Boost",
                          "flags": [
                            "IgnoreStrength (4)",
                            "IgnoreResistance (5)",
                            "CombatModMagnitude (9)"
                          ],
                          "mode_name": null,
                          "target_info": null,
                          "messages": {
                            "display_attacker_hit": null,
                            "display_victim_hit": null,
                            "display_float": "Surprise!",
                            "display_defense_float": null
                          },
                          "suppress_events": [

                          ],
                          "params": null,
                          "fx": null
                        }
                      ],
                      "is_pvp": "EITHER"
                    }
                  ],
                  "templates": [

                  ],
                  "is_pvp": "EITHER"
                }
              ],
              "templates": [

              ],
              "is_pvp": "EITHER"
            }
          ],
          "templates": [

          ],
          "is_pvp": "EITHER"
        },
        {
          "tags": [

          ],
          "chance": 1.0,
          "ppm": 0.0,
          "delay": 0.0,
          "radius_inner": -1.0,
          "radius_outer": -1.0,
          "requires_expression": "",
          "flags": [
            "Fallback"
          ],
          "eval_flags": 0,
          "child_effects": [
            {
              "tags": [

              ],
              "chance": 1.0,
              "ppm": 0.0,
              "delay": 0.0,
              "radius_inner": -1.0,
              "radius_outer": -1.0,
              "requires_expression": "",
              "flags": [

              ],
              "eval_flags": 0,
              "child_effects": [
                {
                  "tags": [

                  ],
                  "chance": 0.5,
                  "ppm": 0.0,
                  "delay": 0.0,
                  "radius_inner": -1.0,
                  "radius_outer": -1.0,
                  "requires_expression": "",
                  "flags": [

                  ],
                  "eval_flags": 0,
                  "child_effects": [

                  ],
                  "templates": [
                    {
                      "attribs": [
                        "Null"
                      ],
                      "type": "Magnitude",
                      "application_type": "OnTick",
                      "aspect": "Current",
                      "target": "Self",
                      "table": "Melee_Ones",
                      "scale": 0.0,
                      "duration": "1 seconds",
                      "magnitude": 1.0,
                      "delay": 0.0,
                      "duration_expression": "",
                      "magnitude_expression": "",
                      "application_period": 0.0,
                      "tick_chance": 1.0,
                      "jit_requires": "",
                      "caster_stack": "Individual",
                      "stack": "Replace",
                      "stack_limit": 2,
                      "stack_key": null,
                      "cancel_events": [

                      ],
                      "boost_mod_allowed": "Science_Boost",
                      "flags": [
                        "IgnoreStrength (4)",
                        "IgnoreResistance (5)",
                        "CombatModMagnitude (9)"
                      ],
                      "mode_name": null,
                      "target_info": null,
                      "messages": {
                        "display_attacker_hit": null,
                        "display_victim_hit": null,
                        "display_float": "BOOM!",
                        "display_defense_float": null
                      },
                      "suppress_events": [

                      ],
                      "params": null,
                      "fx": null
                    }
                  ],
                  "is_pvp": "EITHER"
                },
                {
                  "tags": [

                  ],
                  "chance": 1.0,
                  "ppm": 0.0,
                  "delay": 0.0,
                  "radius_inner": -1.0,
                  "radius_outer": -1.0,
                  "requires_expression": "",
                  "flags": [
                    "Fallback"
                  ],
                  "eval_flags": 0,
                  "child_effects": [

                  ],
                  "templates": [
                    {
                      "attribs": [
                        "Null"
                      ],
                      "type": "Magnitude",
                      "application_type": "OnTick",
                      "aspect": "Current",
                      "target": "Self",
                      "table": "Melee_Ones",
                      "scale": 0.0,
                      "duration": "1 seconds",
                      "magnitude": 1.0,
                      "delay": 0.0,
                      "duration_expression": "",
                      "magnitude_expression": "",
                      "application_period": 0.0,
                      "tick_chance": 1.0,
                      "jit_requires": "",
                      "caster_stack": "Individual",
                      "stack": "Replace",
                      "stack_limit": 2,
                      "stack_key": null,
                      "cancel_events": [

                      ],
                      "boost_mod_allowed": "Science_Boost",
                      "flags": [
                        "IgnoreStrength (4)",
                        "IgnoreResistance (5)",
                        "CombatModMagnitude (9)"
                      ],
                      "mode_name": null,
                      "target_info": null,
                      "messages": {
                        "display_attacker_hit": null,
                        "display_victim_hit": null,
                        "display_float": "POW!",
                        "display_defense_float": null
                      },
                      "suppress_events": [

                      ],
                      "params": null,
                      "fx": null
                    }
                  ],
                  "is_pvp": "EITHER"
                }
              ],
              "templates": [

              ],
              "is_pvp": "EITHER"
            },
            {
              "tags": [

              ],
              "chance": 0.2,
              "ppm": 0.0,
              "delay": 0.0,
              "radius_inner": -1.0,
              "radius_outer": -1.0,
              "requires_expression": "",
              "flags": [

              ],
              "eval_flags": 0,
              "child_effects": [

              ],
              "templates": [
                {
                  "attribs": [
                    "Execute_Power"
                  ],
                  "type": "Magnitude",
                  "application_type": "OnTick",
                  "aspect": "Strength",
                  "target": "AnyAffected",
                  "table": "Melee_Ones",
                  "scale": 0.0,
                  "duration": "0 seconds",
                  "magnitude": 0.0,
                  "delay": 0.0,
                  "duration_expression": "",
                  "magnitude_expression": "",
                  "application_period": 0.0,
                  "tick_chance": 1.0,
                  "jit_requires": "",
                  "caster_stack": "Individual",
                  "stack": "Stack",
                  "stack_limit": 2,
                  "stack_key": null,
                  "cancel_events": [

                  ],
                  "boost_mod_allowed": "Science_Boost",
                  "flags": [
                    "ResistMagnitude (7)",
                    "CombatModMagnitude (9)",
                    "CopyBoosts (34)"
                  ],
                  "mode_name": null,
                  "target_info": null,
                  "messages": null,
                  "suppress_events": [

                  ],
                  "params": {
                    "type": "Power",
                    "count": 1,
                    "category_names": [

                    ],
                    "powerset_names": [

                    ],
                    "power_names": [
                      "Temporary_Powers.Temporary_Powers.Friendly_Fireworks"
                    ]
                  },
                  "fx": null
                },
                {
                  "attribs": [
                    "Null"
                  ],
                  "type": "Magnitude",
                  "application_type": "OnTick",
                  "aspect": "Current",
                  "target": "Self",
                  "table": "Melee_Ones",
                  "scale": 0.0,
                  "duration": "1 seconds",
                  "magnitude": 1.0,
                  "delay": 0.45,
                  "duration_expression": "",
                  "magnitude_expression": "",
                  "application_period": 0.0,
                  "tick_chance": 1.0,
                  "jit_requires": "",
                  "caster_stack": "Individual",
                  "stack": "Replace",
                  "stack_limit": 2,
                  "stack_key": null,
                  "cancel_events": [

                  ],
                  "boost_mod_allowed": "Science_Boost",
                  "flags": [
                    "IgnoreStrength (4)",
                    "IgnoreResistance (5)",
                    "CombatModMagnitude (9)"
                  ],
                  "mode_name": null,
                  "target_info": null,
                  "messages": {
                    "display_attacker_hit": null,
                    "display_victim_hit": null,
                    "display_float": "Surprise!",
                    "display_defense_float": null
                  },
                  "suppress_events": [

                  ],
                  "params": null,
                  "fx": null
                }
              ],
              "is_pvp": "EITHER"
            }
          ],
          "templates": [
            {
              "attribs": [
                "Repel"
              ],
              "type": "Magnitude",
              "application_type": "OnTick",
              "aspect": "Current",
              "target": "AnyAffected",
              "table": "Melee_Ones",
              "scale": 3.0,
              "duration": "0 seconds",
              "magnitude": 0.0,
              "delay": 0.0,
              "duration_expression": "",
              "magnitude_expression": "",
              "application_period": 0.0,
              "tick_chance": 1.0,
              "jit_requires": "",
              "caster_stack": "Individual",
              "stack": "Stack",
              "stack_limit": 2,
              "stack_key": null,
              "cancel_events": [

              ],
              "boost_mod_allowed": "Science_Boost",
              "flags": [
                "ResistMagnitude (7)",
                "CombatModMagnitude (9)"
              ],
              "mode_name": null,
              "target_info": null,
              "messages": null,
              "suppress_events": [

              ],
              "params": {
                "type": "Knock",
                "vec_start": "kKnock_Source",
                "vec_end": "kKnock_Up",
                "vec_adjust_pyr": [
                  0.0,
                  0.0,
                  0.0
                ],
                "priority": 2,
                "vel": 1.5,
                "vel_mag": 0.0,
                "height_mag": 0.0,
                "height": 0.0
              },
              "fx": null
            },
            {
              "attribs": [
                "Null"
              ],
              "type": "Magnitude",
              "application_type": "OnTick",
              "aspect": "Current",
              "target": "AnyAffected",
              "table": "Melee_Ones",
              "scale": 0.0,
              "duration": "1 seconds",
              "magnitude": 0.0,
              "delay": 0.0,
              "duration_expression": "",
              "magnitude_expression": "",
              "application_period": 0.0,
              "tick_chance": 1.0,
              "jit_requires": "",
              "caster_stack": "Individual",
              "stack": "Stack",
              "stack_limit": 2,
              "stack_key": null,
              "cancel_events": [

              ],
              "boost_mod_allowed": "Science_Boost",
              "flags": [
                "ResistMagnitude (7)",
                "CombatModMagnitude (9)"
              ],
              "mode_name": null,
              "target_info": null,
              "messages": null,
              "suppress_events": [

              ],
              "params": null,
              "fx": {
                "continuing_bits": [
                  47,
                  66
                ],
                "continuing_fx": null,
                "conditional_bits": [

                ],
                "conditional_fx": null
              }
            },
            {
              "attribs": [
                "Null"
              ],
              "type": "Magnitude",
              "application_type": "OnTick",
              "aspect": "Current",
              "target": "AnyAffected",
              "table": "Melee_Ones",
              "scale": 0.0,
              "duration": "0.4 seconds",
              "magnitude": 0.0,
              "delay": 0.9,
              "duration_expression": "",
              "magnitude_expression": "",
              "application_period": 0.0,
              "tick_chance": 1.0,
              "jit_requires": "",
              "caster_stack": "Individual",
              "stack": "Stack",
              "stack_limit": 2,
              "stack_key": null,
              "cancel_events": [

              ],
              "boost_mod_allowed": "Science_Boost",
              "flags": [
                "ResistMagnitude (7)",
                "CombatModMagnitude (9)"
              ],
              "mode_name": null,
              "target_info": null,
              "messages": null,
              "suppress_events": [

              ],
              "params": null,
              "fx": {
                "continuing_bits": [

                ],
                "continuing_fx": "POWERS/MARTIALARTS/MARTIALARTSHITS.FX",
                "conditional_bits": [

                ],
                "conditional_fx": null
              }
            },
            {
              "attribs": [
                "Null"
              ],
              "type": "Magnitude",
              "application_type": "OnTick",
              "aspect": "Current",
              "target": "Self",
              "table": "Melee_Ones",
              "scale": 0.0,
              "duration": "0 seconds",
              "magnitude": 0.0,
              "delay": 1.0,
              "duration_expression": "",
              "magnitude_expression": "",
              "application_period": 0.0,
              "tick_chance": 1.0,
              "jit_requires": "",
              "caster_stack": "Individual",
              "stack": "Stack",
              "stack_limit": 2,
              "stack_key": null,
              "cancel_events": [

              ],
              "boost_mod_allowed": "Science_Boost",
              "flags": [
                "ResistMagnitude (7)",
                "CombatModMagnitude (9)"
              ],
              "mode_name": null,
              "target_info": null,
              "messages": {
                "display_attacker_hit": null,
                "display_victim_hit": null,
                "display_float": "2-HIT COMBO!",
                "display_defense_float": null
              },
              "suppress_events": [

              ],
              "params": null,
              "fx": null
            }
          ],
          "is_pvp": "EITHER"
        },
        {
          "tags": [

          ],
          "chance": 1.0,
          "ppm": 0.0,
          "delay": 0.0,
          "radius_inner": -1.0,
          "radius_outer": -1.0,
          "requires_expression": "target>enttype eq 'player'",
          "flags": [

          ],
          "eval_flags": 0,
          "child_effects": [

          ],
          "templates": [
            {
              "attribs": [
                "Knockback"
              ],
              "type": "Magnitude",
              "application_type": "OnTick",
              "aspect": "Current",
              "target": "AnyAffected",
              "table": "Melee_Ones",
              "scale": 3.0,
              "duration": "0 seconds",
              "magnitude": 0.0,
              "delay": 1.0,
              "duration_expression": "",
              "magnitude_expression": "",
              "application_period": 0.0,
              "tick_chance": 1.0,
              "jit_requires": "",
              "caster_stack": "Individual",
              "stack": "Stack",
              "stack_limit": 2,
              "stack_key": null,
              "cancel_events": [

              ],
              "boost_mod_allowed": "Science_Boost",
              "flags": [
                "IgnoreStrength (4)",
                "ResistMagnitude (7)",
                "CombatModMagnitude (9)"
              ],
              "mode_name": null,
              "target_info": null,
              "messages": {
                "display_attacker_hit": "You knock {PlayerDest} off their feet with your {PowerName}!",
                "display_victim_hit": "{PlayerSource} knocks you off your feet with their {PowerName}!",
                "display_float": null,
                "display_defense_float": null
              },
              "suppress_events": [
                {
                  "event": "Knocked",
                  "post_event_delay": 10,
                  "always_suppress": false
                }
              ],
              "params": {
                "type": "Knock",
                "vec_start": "kKnock_Source",
                "vec_end": "kKnock_Down",
                "vec_adjust_pyr": [
                  0.0,
                  0.0,
                  0.0
                ],
                "priority": 2,
                "vel": 3.0,
                "vel_mag": 0.0,
                "height_mag": 0.0,
                "height": 0.0
              },
              "fx": null
            }
          ],
          "is_pvp": "EITHER"
        },
        {
          "tags": [

          ],
          "chance": 1.0,
          "ppm": 0.0,
          "delay": 0.0,
          "radius_inner": -1.0,
          "radius_outer": -1.0,
          "requires_expression": "target>enttype eq 'critter'",
          "flags": [

          ],
          "eval_flags": 0,
          "child_effects": [

          ],
          "templates": [
            {
              "attribs": [
                "Knockback"
              ],
              "type": "Magnitude",
              "application_type": "OnTick",
              "aspect": "Current",
              "target": "AnyAffected",
              "table": "Melee_Ones",
              "scale": 3.0,
              "duration": "0 seconds",
              "magnitude": 0.0,
              "delay": 1.0,
              "duration_expression": "",
              "magnitude_expression": "",
              "application_period": 0.0,
              "tick_chance": 1.0,
              "jit_requires": "",
              "caster_stack": "Individual",
              "stack": "Stack",
              "stack_limit": 2,
              "stack_key": null,
              "cancel_events": [

              ],
              "boost_mod_allowed": "Science_Boost",
              "flags": [
                "IgnoreStrength (4)",
                "ResistMagnitude (7)",
                "CombatModMagnitude (9)"
              ],
              "mode_name": null,
              "target_info": null,
              "messages": {
                "display_attacker_hit": "You knock {PlayerDest} off their feet with your {PowerName}!",
                "display_victim_hit": "{PlayerSource} knocks you off your feet with their {PowerName}!",
                "display_float": null,
                "display_defense_float": null
              },
              "suppress_events": [

              ],
              "params": {
                "type": "Knock",
                "vec_start": "kKnock_Source",
                "vec_end": "kKnock_Down",
                "vec_adjust_pyr": [
                  0.0,
                  0.0,
                  0.0
                ],
                "priority": 2,
                "vel": 3.0,
                "vel_mag": 0.0,
                "height_mag": 0.0,
                "height": 0.0
              },
              "fx": null
            }
          ],
          "is_pvp": "EITHER"
        }
      ],
      "templates": [

      ],
      "is_pvp": "EITHER"
    }
  ],
  "activation_effects": [

  ],
  "fx": {
    "source_file": "MENU/POWERS/ANIMFX/PLAYER_BRAWL.PFX",
    "attack_bits": [
      20,
      256,
      296
    ],
    "block_bits": [
      53
    ],
    "wind_up_bits": [

    ],
    "hit_bits": [
      49,
      681
    ],
    "death_bits": [

    ],
    "activation_bits": [

    ],
    "deactivation_bits": [

    ],
    "initial_attack_bits": [
      20,
      256,
      296
    ],
    "continuing_bits": [

    ],
    "conditional_bits": [

    ],
    "activation_fx": null,
    "deactivation_fx": null,
    "attack_fx": "POWERS/BRAWL_ATTACK.FX",
    "secondary_attack_fx": null,
    "hit_fx": "POWERS/MARTIALARTS/MARTIALARTSHITS.FX",
    "wind_up_fx": null,
    "block_fx": null,
    "death_fx": null,
    "initial_attack_fx": "POWERS/BRAWL_ATTACK.FX",
    "continuing_fx": [

    ],
    "conditional_fx": [

    ],
    "mode_bits": [
      20
    ],
    "frames_before_hit": 15,
    "frames_before_secondary_hit": 0,
    "delayed_hit": false,
    "frames_attack": 25,
    "initial_frames_before_hit": 15,
    "initial_attack_fx_frame_delay": 0,
    "projectile_speed": 3.4028234663852886e38,
    "secondary_projectile_speed": 0.0,
    "initial_frames_before_block": 0,
    "ignore_attack_time_errors": null,
    "frames_before_block": 0,
    "fx_important": false
  },
  "custom_fx": [

  ],
  "fx_only_on_main_target": false
}