{
  "name": "Crafted_Intangible",
  "display_name": "Crafted Intangible 10",
  "display_fullname": "Boosts.Crafted Intangible",
  "display_help": "Increases intangible duration by {Boost.Attrib.Mez.Scale}%.",
  "display_short_help": "Invention",
  "available_level": [
    0
  ],
  "source_file": "DEFS/POWERS/BOOSTS/CRAFTED_INTANGIBLE.POWERSETS",
  "requires": "",
  "power_names": [
    "Boosts.Crafted_Intangible.Crafted_Intangible"
  ],
  "power_display_names": [
    "Invention: Intangibility"
  ]
}