{
  "name": "Contaminated_Lightning_Rod_Brute",
  "display_name": "Electric Melee",
  "display_fullname": "Pets.Electric Melee",
  "display_help": "Electric Melee",
  "display_short_help": "Electric Melee",
  "available_level": [
    0
  ],
  "source_file": "DEFS/POWERS/PETS/CONTAMINATED_LIGHTNING_ROD_BRUTE.POWERSETS",
  "requires": "",
  "power_names": [
    "Pets.Contaminated_Lightning_Rod_Brute.Lightning_Rod"
  ],
  "power_display_names": [
    "Lightning Rod"
  ]
}