{
  "name": "Magmites_Lt_Boss",
  "display_name": "Magmites_Lt_Boss",
  "display_fullname": "Igneous.Magmites Lt Boss",
  "display_help": "Igneous",
  "display_short_help": "Igneous",
  "available_level": [
    0,
    0
  ],
  "source_file": "DEFS/POWERS/IGNEOUS/MAGMITES_LT_BOSS.POWERSETS",
  "requires": "",
  "power_names": [
    "Igneous.Magmites_Lt_Boss.Basalt_Bomb",
    "Igneous.Magmites_Lt_Boss.Ryolite"
  ],
  "power_display_names": [
    "Basalt Bomb",
    "Ryolite"
  ]
}