{
  "name": "Dark_Armor",
  "display_name": "Dark Armor",
  "display_fullname": "Mission Maker Secondary.Dark Armor",
  "display_help": "Dark Armor allows you to tap into the powers of the Netherworld for protection. Many Dark Armor powers drain your foes to strengthen you. Dark Armor offers very good resistance to Negative Energy damage, and is one of the only defensive sets that offer some resistance to Psionic damage. However, its resistance to Energy is weak and it offers no protection from Knockback or Immobilization.",
  "display_short_help": "Dark Armor",
  "available_level": [
    0,
    0,
    4,
    19,
    19,
    19,
    29,
    34
  ],
  "source_file": "DEFS/POWERS/MISSION_MAKER_SECONDARY/DARK_ARMOR.POWERSETS",
  "requires": "",
  "power_names": [
    "Mission_Maker_Secondary.Dark_Armor.Death_Shroud",
    "Mission_Maker_Secondary.Dark_Armor.Dark_Embrace",
    "Mission_Maker_Secondary.Dark_Armor.Murky_Cloud",
    "Mission_Maker_Secondary.Dark_Armor.Obsidian_Shield",
    "Mission_Maker_Secondary.Dark_Armor.Dark_Regeneration",
    "Mission_Maker_Secondary.Dark_Armor.Cloak_of_Darkness",
    "Mission_Maker_Secondary.Dark_Armor.Oppressive_Gloom",
    "Mission_Maker_Secondary.Dark_Armor.Soul_Transfer"
  ],
  "power_display_names": [
    "Death Shroud",
    "Dark Embrace",
    "Murky Cloud",
    "Obsidian Shield",
    "Dark Regeneration",
    "Cloak of Darkness",
    "Oppressive Gloom",
    "Soul Transfer"
  ]
}