{
  "name": "Dominator_EnergyAssault_Snipe",
  "display_name": "Dominator_EnergyAssault_Snipe",
  "display_fullname": "Villain Pets.Dominator EnergyAssault Snipe",
  "display_help": "Energy Assault",
  "display_short_help": "Energy Assault",
  "available_level": [
    34,
    34
  ],
  "source_file": "DEFS/POWERS/VILLAIN_PETS/DOMINATOR_ENERGYASSAULT_SNIPE.POWERSETS",
  "requires": "",
  "power_names": [
    "Villain_Pets.Dominator_EnergyAssault_Snipe.Sniper_Blast_Quick",
    "Villain_Pets.Dominator_EnergyAssault_Snipe.Sniper_Blast_Normal"
  ],
  "power_display_names": [
    "Sniper Blast",
    "Sniper Blast"
  ]
}