{
  "name": "Clear_Skies",
  "full_name": "Dominator_Control.Wind_Control.Clear_Skies",
  "type": "Auto",
  "display_name": "Clear Skies",
  "display_fullname": "Dominator Control.Wind Control.Clear Skies",
  "display_help": "When training yourself in the creation of a Vortex, you also learn how to create the Clear Skies effect. If you use Vacuum on your own Vortex, you will gain a boost to your chance to hit foes, your attack speed and your recovery. Additionally, the endurance cost of all your powers will be reduced. While the strength of the Clear Skies effect cannot be stacked and cannot be increased, the duration of the effect can be extended from the minimum duration of 30 seconds. The more Pressure you consume when you execute Vacuum, the greater the duration of the Clear Skies bonuses, up to a maximum of 60 seconds. When the bonuses of Clear Skies end, you will be under the Clouded Skies effect, which prevents another Clear Skies buff from applying, for several minutes. Clear Skies is granted automatically when both Vacuum and Vortex have been trained.",
  "display_short_help": "Self (Auto), +ToHit, +Rech, +Rec, -EndCost",
  "icon": "windcontrol_clearskies.png",
  "auto_issue": true,
  "auto_issue_keeps_level": false,
  "message_caster": null,
  "message_floater": null,
  "message_attacker_hit": null,
  "message_target_hit": null,
  "message_target_confirm": null,
  "message_float_reward": null,
  "message_defense_avoidance": null,
  "attack_types": [

  ],
  "requires": "Dominator_Control.Wind_Control.Vacuum && Dominator_Control.Wind_Control.Vortex && (char>accesslevel >= 0)",
  "activate_requires": "",
  "accuracy": 1.0,
  "number_allowed": 1,
  "caster_near_ground": false,
  "target_near_ground": false,
  "cast_when_dead": "AliveOnly",
  "cast_through": [
    "hold",
    "stun",
    "sleep",
    "terror"
  ],
  "toggle_ignores": [

  ],
  "ignore_level_gained": false,
  "works_on_untouchable": false,
  "works_through_vision_phase": false,
  "target_untargetable": false,
  "interrupt_like_sleep": false,
  "notify_ai_when": "Always",
  "effect_area": "SingleTarget",
  "max_targets_hit": 0,
  "radius": 0.0,
  "arc": 0.0,
  "range": 0.0,
  "range_secondary": 0.0,
  "activation_time": 0.0,
  "root_time": 0.0,
  "interrupt_time": 0.0,
  "recharge_time": 0.0,
  "activate_period": 2.0,
  "endurance_cost": 0.0,
  "cancelable": false,
  "self_confirm": false,
  "confirm_requires": "",
  "time_to_confirm": 0,
  "chain_delay": 0.0,
  "chain_effect_expr": "",
  "chain_forks": [

  ],
  "chain_into_power_name": null,
  "vec_box_offset": [
    0.0,
    0.0,
    0.0
  ],
  "vec_box_size": [
    0.0,
    0.0,
    0.0
  ],
  "number_of_charges": 0,
  "max_num_charges": 0,
  "destroy_on_last_use": true,
  "power_lifetime": 0.0,
  "max_power_lifetime": 0.0,
  "power_lifetime_ingame": 0.0,
  "max_power_lifetime_ingame": 0.0,
  "stacking_lifetime": false,
  "toggle_on_time": 0.0,
  "max_toggle_on_time": 0.0,
  "toggle_detoggle_time": 0.0,
  "toggle_droppable": "Sometimes",
  "ignore_toggle_max_distance": false,
  "target_type": "Self",
  "target_type_secondary": null,
  "target_visibility": "LineOfSight",
  "targets_affected": [
    "Self"
  ],
  "targets_autohit": [
    "Self"
  ],
  "target_requires": "",
  "proc_allowed": "All",
  "boosts_allowed": [

  ],
  "allowed_boostset_cats": [

  ],
  "exclusion_groups": [

  ],
  "modes_required": [

  ],
  "modes_disallowed": [
    "Disable_All"
  ],
  "recharge_groups": [

  ],
  "ignore_strength": false,
  "strengths_disallowed": [

  ],
  "global_strengths_disallowed": [

  ],
  "procs_only_on_main_target": false,
  "vars_attribmods_can_reference": [

  ],
  "show_buff_icon": true,
  "show_in_info": true,
  "show_in_manage": true,
  "show_in_inventory": "Show",
  "deletable": false,
  "tradeable": false,
  "do_not_save": false,
  "max_boosts": 0,
  "ignore_level_differences": false,
  "ignore_exemplar_for_bonuses": false,
  "boost_combinable": true,
  "boost_tradeable": true,
  "boost_account_bound": false,
  "boost_boostable": false,
  "boost_use_player_level": false,
  "boost_catalyzable": null,
  "boost_store_product": null,
  "boost_min_slot_level": -3,
  "boost_max_level": 50,
  "instance_locked": false,
  "is_environment_hit": false,
  "shuffle_target_list": false,
  "enforced_level_bought": -1,
  "refreshes_on_active_player_change": false,
  "highlight_expression": "",
  "highlight_icon": null,
  "highlight_color": "#00000000",
  "travel_suppression_time": 0.0,
  "server_tray_priority": 0,
  "server_tray_requires": "",
  "abusive_buff": true,
  "position_center": "kModTarget_Caster",
  "position_distance": 0.0,
  "position_height": 0.0,
  "position_yaw": 0.0,
  "face_target": true,
  "attrib_cache": [
    "ToHit",
    "Recovery",
    "RechargeTime",
    "EnduranceDiscount",
    "Designer_Status"
  ],
  "max_targets_expression": "",
  "chain_target_expr": "",
  "powerset": "Dominator_Control.Wind_Control",
  "available_level": 31,
  "archetypes": [
    "dominator"
  ],
  "redirect": [

  ],
  "effects": [
    {
      "tags": [

      ],
      "chance": 1.0,
      "ppm": 0.0,
      "delay": 0.0,
      "radius_inner": -1.0,
      "radius_outer": -1.0,
      "requires_expression": "Source.Mode?(kClearSkies)",
      "flags": [

      ],
      "eval_flags": 0,
      "child_effects": [

      ],
      "templates": [
        {
          "attribs": [
            "ToHit"
          ],
          "type": "Magnitude",
          "application_type": "OnTick",
          "aspect": "Current",
          "target": "Self",
          "table": "Ranged_Buff_ToHit",
          "scale": 2.5,
          "duration": "2.1 seconds",
          "magnitude": 1.0,
          "delay": 0.0,
          "duration_expression": "",
          "magnitude_expression": "",
          "application_period": 0.0,
          "tick_chance": 1.0,
          "jit_requires": "",
          "caster_stack": "Individual",
          "stack": "Replace",
          "stack_limit": 2,
          "stack_key": null,
          "cancel_events": [

          ],
          "boost_mod_allowed": "Science_Boost",
          "flags": [
            "IgnoreResistance (5)",
            "CombatModMagnitude (9)"
          ],
          "mode_name": null,
          "target_info": null,
          "messages": null,
          "suppress_events": [

          ],
          "params": null,
          "fx": null
        },
        {
          "attribs": [
            "RechargeTime",
            "EnduranceDiscount"
          ],
          "type": "Magnitude",
          "application_type": "OnTick",
          "aspect": "Strength",
          "target": "Self",
          "table": "Ranged_Ones",
          "scale": 0.25,
          "duration": "2.1 seconds",
          "magnitude": 1.0,
          "delay": 0.0,
          "duration_expression": "",
          "magnitude_expression": "",
          "application_period": 0.0,
          "tick_chance": 1.0,
          "jit_requires": "",
          "caster_stack": "Individual",
          "stack": "Replace",
          "stack_limit": 2,
          "stack_key": null,
          "cancel_events": [

          ],
          "boost_mod_allowed": "Science_Boost",
          "flags": [
            "IgnoreStrength (4)",
            "IgnoreResistance (5)",
            "CombatModMagnitude (9)"
          ],
          "mode_name": null,
          "target_info": null,
          "messages": null,
          "suppress_events": [

          ],
          "params": null,
          "fx": null
        },
        {
          "attribs": [
            "Recovery"
          ],
          "type": "Magnitude",
          "application_type": "OnTick",
          "aspect": "Current",
          "target": "Self",
          "table": "Ranged_Ones",
          "scale": 0.25,
          "duration": "2.1 seconds",
          "magnitude": 1.0,
          "delay": 0.0,
          "duration_expression": "",
          "magnitude_expression": "",
          "application_period": 0.0,
          "tick_chance": 1.0,
          "jit_requires": "",
          "caster_stack": "Individual",
          "stack": "Replace",
          "stack_limit": 2,
          "stack_key": null,
          "cancel_events": [

          ],
          "boost_mod_allowed": "Science_Boost",
          "flags": [
            "IgnoreResistance (5)",
            "CombatModMagnitude (9)"
          ],
          "mode_name": null,
          "target_info": null,
          "messages": null,
          "suppress_events": [

          ],
          "params": null,
          "fx": null
        },
        {
          "attribs": [
            "Designer_Status"
          ],
          "type": "Magnitude",
          "application_type": "OnTick",
          "aspect": "Absolute",
          "target": "Self",
          "table": "Ranged_Ones",
          "scale": -1.0,
          "duration": "2.1 seconds",
          "magnitude": 1.0,
          "delay": 0.0,
          "duration_expression": "",
          "magnitude_expression": "",
          "application_period": 0.0,
          "tick_chance": 1.0,
          "jit_requires": "",
          "caster_stack": "Collective",
          "stack": "Replace",
          "stack_limit": 2,
          "stack_key": null,
          "cancel_events": [

          ],
          "boost_mod_allowed": "Science_Boost",
          "flags": [
            "IgnoreStrength (4)",
            "IgnoreResistance (5)",
            "CombatModMagnitude (9)"
          ],
          "mode_name": null,
          "target_info": null,
          "messages": {
            "display_attacker_hit": null,
            "display_victim_hit": "Clear Skies",
            "display_float": null,
            "display_defense_float": null
          },
          "suppress_events": [

          ],
          "params": null,
          "fx": null
        }
      ],
      "is_pvp": "EITHER"
    },
    {
      "tags": [

      ],
      "chance": 1.0,
      "ppm": 0.0,
      "delay": 0.0,
      "radius_inner": -1.0,
      "radius_outer": -1.0,
      "requires_expression": "Source.Mode?(kCloudedSkies) && !Source.Mode?(kClearSkies)",
      "flags": [

      ],
      "eval_flags": 0,
      "child_effects": [

      ],
      "templates": [
        {
          "attribs": [
            "Designer_Status"
          ],
          "type": "Magnitude",
          "application_type": "OnTick",
          "aspect": "Absolute",
          "target": "Self",
          "table": "Ranged_Ones",
          "scale": -1.0,
          "duration": "2.1 seconds",
          "magnitude": 1.0,
          "delay": 0.0,
          "duration_expression": "",
          "magnitude_expression": "",
          "application_period": 0.0,
          "tick_chance": 1.0,
          "jit_requires": "",
          "caster_stack": "Collective",
          "stack": "Replace",
          "stack_limit": 2,
          "stack_key": null,
          "cancel_events": [

          ],
          "boost_mod_allowed": "Science_Boost",
          "flags": [
            "IgnoreStrength (4)",
            "IgnoreResistance (5)",
            "CombatModMagnitude (9)"
          ],
          "mode_name": null,
          "target_info": null,
          "messages": {
            "display_attacker_hit": null,
            "display_victim_hit": "Cloudy Skies",
            "display_float": null,
            "display_defense_float": null
          },
          "suppress_events": [

          ],
          "params": null,
          "fx": null
        }
      ],
      "is_pvp": "EITHER"
    }
  ],
  "activation_effects": [

  ],
  "fx": {
    "source_file": null,
    "attack_bits": [

    ],
    "block_bits": [

    ],
    "wind_up_bits": [

    ],
    "hit_bits": [

    ],
    "death_bits": [

    ],
    "activation_bits": [

    ],
    "deactivation_bits": [

    ],
    "initial_attack_bits": [

    ],
    "continuing_bits": [

    ],
    "conditional_bits": [

    ],
    "activation_fx": null,
    "deactivation_fx": null,
    "attack_fx": null,
    "secondary_attack_fx": null,
    "hit_fx": null,
    "wind_up_fx": null,
    "block_fx": null,
    "death_fx": null,
    "initial_attack_fx": null,
    "continuing_fx": [

    ],
    "conditional_fx": [

    ],
    "mode_bits": [

    ],
    "frames_before_hit": 15,
    "frames_before_secondary_hit": 0,
    "delayed_hit": false,
    "frames_attack": 35,
    "initial_frames_before_hit": 15,
    "initial_attack_fx_frame_delay": 0,
    "projectile_speed": 3.4028234663852886e38,
    "secondary_projectile_speed": 0.0,
    "initial_frames_before_block": 0,
    "ignore_attack_time_errors": null,
    "frames_before_block": 0,
    "fx_important": false
  },
  "custom_fx": [

  ],
  "fx_only_on_main_target": false
}