{
  "name": "Attuned_Malaises_Illusions_E",
  "display_name": "Attuned Malaises Illusions E",
  "display_fullname": "Boosts.Attuned Malaises Illusions E",
  "display_help": "Enhances the accuracy of a power by {Boost.Attrib.Accuracy.Scale}%, Confuse duration by {Boost.Attrib.Mez.Scale}% and reduces the attack rate by {Boost.Attrib.RechargeTime.Scale}%.",
  "display_short_help": "Set: Malaises Illusions",
  "available_level": [
    0
  ],
  "source_file": "DEFS/POWERS/BOOSTS/ATTUNED_MALAISES_ILLUSIONS_E.POWERSETS",
  "requires": "",
  "power_names": [
    "Boosts.Attuned_Malaises_Illusions_E.Attuned_Malaises_Illusions_E"
  ],
  "power_display_names": [
    "Malaise's Illusions: Accuracy/Confuse/Recharge"
  ]
}