{
  "name": "Attuned_Celerity_C",
  "display_name": "Attuned Celerity C",
  "display_fullname": "Boosts.Attuned Celerity C",
  "display_help": "UNIQUE -- No more than 1 enhancement of this type may be slotted by a character. May not be slotted if you have any other enhancements which grant stealth. Grants Stealth for 120 seconds when used in an instant effect power.",
  "display_short_help": "Set: Celerity",
  "available_level": [
    0
  ],
  "source_file": "DEFS/POWERS/BOOSTS/ATTUNED_CELERITY_C.POWERSETS",
  "requires": "",
  "power_names": [
    "Boosts.Attuned_Celerity_C.Attuned_Celerity_C"
  ],
  "power_display_names": [
    "Celerity: Stealth"
  ]
}