{
  "name": "Tech_Heavy_Fire_Beam_Turret",
  "display_name": "Tech_Heavy_Fire_Beam_Turret",
  "display_fullname": "Base Defenses.Tech Heavy Fire Beam Turret",
  "display_help": "Base Defenses",
  "display_short_help": "Base Defenses",
  "available_level": [
    0
  ],
  "source_file": "DEFS/POWERS/BASE_DEFENSES/TECH_HEAVY_FIRE_BEAM_TURRET.POWERSETS",
  "requires": "",
  "power_names": [
    "Base_Defenses.Tech_Heavy_Fire_Beam_Turret.Igniter"
  ],
  "power_display_names": [
    "Igniter"
  ]
}