{
  "name": "Warrior_Lt_Boss_Sword_Melee",
  "display_name": "Warrior_Lt_Boss_Sword_Melee",
  "display_fullname": "Warriors.Warrior Lt Boss Sword Melee",
  "display_help": "Warriors",
  "display_short_help": "Warriors",
  "available_level": [
    0,
    0,
    0,
    0
  ],
  "source_file": "DEFS/POWERS/WARRIORS/WARRIOR_LT_BOSS_SWORD_MELEE.POWERSETS",
  "requires": "",
  "power_names": [
    "Warriors.Warrior_Lt_Boss_Sword_Melee.Hack",
    "Warriors.Warrior_Lt_Boss_Sword_Melee.Slash",
    "Warriors.Warrior_Lt_Boss_Sword_Melee.Parry",
    "Warriors.Warrior_Lt_Boss_Sword_Melee.Whirling_Sword"
  ],
  "power_display_names": [
    "Hack",
    "Slash",
    "Parry",
    "Whirling Sword"
  ]
}