{
  "name": "UXB_OLD",
  "display_name": "UXB_OLD",
  "display_fullname": "Rikti.UXB OLD",
  "display_help": "UXB_OLD",
  "display_short_help": "UXB_OLD",
  "available_level": [
    0,
    0
  ],
  "source_file": "DEFS/POWERS/RIKTI/UXB_OLD.POWERSETS",
  "requires": "",
  "power_names": [
    "Rikti.UXB_OLD.Resistance",
    "Rikti.UXB_OLD.Falling_Damage"
  ],
  "power_display_names": [
    "Resistance",
    "Falling Damage"
  ]
}