{
  "name": "Crafted_Immobilize",
  "display_name": "Crafted Immobilize 10",
  "display_fullname": "Boosts.Crafted Immobilize",
  "display_help": "Increases immobilization duration by {Boost.Attrib.Mez.Scale}%.",
  "display_short_help": "Invention",
  "available_level": [
    0
  ],
  "source_file": "DEFS/POWERS/BOOSTS/CRAFTED_IMMOBILIZE.POWERSETS",
  "requires": "",
  "power_names": [
    "Boosts.Crafted_Immobilize.Crafted_Immobilize"
  ],
  "power_display_names": [
    "Invention: Immobilization Duration"
  ]
}