{
  "name": "Fungi",
  "display_name": "Fungi",
  "display_fullname": "Pets.Fungi",
  "display_help": "Devouring Earth",
  "display_short_help": "Devouring Earth",
  "available_level": [
    0,
    0
  ],
  "source_file": "DEFS/POWERS/PETS/FUNGI.POWERSETS",
  "requires": "",
  "power_names": [
    "Pets.Fungi.Fungi",
    "Pets.Fungi.Resistance"
  ],
  "power_display_names": [
    "Fungi",
    "Resistance"
  ]
}