{
  "name": "Crafted_Knockback_10",
  "display_name": "Crafted Knockback 10",
  "display_fullname": "Boosts.Crafted Knockback 10",
  "display_help": "Increases knockback distance by {Boost.Attrib.Knock.Scale}%.",
  "display_short_help": "Invention",
  "available_level": [
    0
  ],
  "source_file": "DEFS/POWERS/BOOSTS/CRAFTED_KNOCKBACK_10.POWERSETS",
  "requires": "",
  "power_names": [
    "Boosts.Crafted_Knockback_10.Crafted_Knockback_10"
  ],
  "power_display_names": [
    "Invention: Knockback Distance"
  ]
}