{
  "name": "Aeon_Claws",
  "display_name": "Aeon_Claws",
  "display_fullname": "V Arachnos.Aeon Claws",
  "display_help": "Crey",
  "display_short_help": "Crey",
  "available_level": [
    0,
    0,
    0,
    0,
    0,
    0,
    0,
    0
  ],
  "source_file": "DEFS/POWERS/V_ARACHNOS/AEON_CLAWS.POWERSETS",
  "requires": "",
  "power_names": [
    "V_Arachnos.Aeon_Claws.Swipe",
    "V_Arachnos.Aeon_Claws.Strike",
    "V_Arachnos.Aeon_Claws.Slash",
    "V_Arachnos.Aeon_Claws.Spin",
    "V_Arachnos.Aeon_Claws.Eviscerate",
    "V_Arachnos.Aeon_Claws.Focus",
    "V_Arachnos.Aeon_Claws.Focused_Fighting",
    "V_Arachnos.Aeon_Claws.Unstoppable"
  ],
  "power_display_names": [
    "Swipe",
    "Strike",
    "Slash",
    "Spin",
    "Eviscerate",
    "Focus",
    "Focused Fighting",
    "Unstoppable"
  ]
}