{
  "name": "Crafted_Decreased_Regeneration_8",
  "display_name": "Crafted Decreased Regeneration 8",
  "display_fullname": "Boosts.Crafted Decreased Regeneration 8",
  "display_help": "Enhances the regeneration reduction of a power by {Boost.Attrib.Regeneration.Scale}%.",
  "display_short_help": "Crafted Decreased Regeneration 8",
  "available_level": [
    0
  ],
  "source_file": "DEFS/POWERS/BOOSTS/CRAFTED_DECREASED_REGENERATION_8.POWERSETS",
  "requires": "",
  "power_names": [
    "Boosts.Crafted_Decreased_Regeneration_8.Crafted_Decreased_Regeneration_8"
  ],
  "power_display_names": [
    "Regeneration Decrease"
  ]
}