{
  "name": "Lt_Hitman_Low",
  "display_name": "Lt Hitman Low",
  "display_fullname": "V Mooks.Lt Hitman Low",
  "display_help": "Mooks",
  "display_short_help": "Mooks",
  "available_level": [
    0,
    0
  ],
  "source_file": "DEFS/POWERS/V_MOOKS/LT_HITMAN_LOW.POWERSETS",
  "requires": "",
  "power_names": [
    "V_Mooks.Lt_Hitman_Low.Heavy_Brawl",
    "V_Mooks.Lt_Hitman_Low.Automatic_Pistol"
  ],
  "power_display_names": [
    "Heavy Brawl",
    "Automatic Pistol"
  ]
}