{
  "name": "Corolax_Blue_Hybrid",
  "display_name": "Coralax Blue Hybrid",
  "display_fullname": "Villain Pets.Coralax Blue Hybrid",
  "display_help": "Leviathan Mastery",
  "display_short_help": "Leviathan Mastery",
  "available_level": [
    0,
    0,
    0,
    0,
    0,
    0,
    0,
    0
  ],
  "source_file": "DEFS/POWERS/VILLAIN_PETS/COROLAX_BLUE_HYBRID.POWERSETS",
  "requires": "",
  "power_names": [
    "Villain_Pets.Corolax_Blue_Hybrid.Resistance",
    "Villain_Pets.Corolax_Blue_Hybrid.Self_Destruct",
    "Villain_Pets.Corolax_Blue_Hybrid.Brawl",
    "Villain_Pets.Corolax_Blue_Hybrid.Coral_Club",
    "Villain_Pets.Corolax_Blue_Hybrid.Coral_Club_Slash",
    "Villain_Pets.Corolax_Blue_Hybrid.Urchin_Spray",
    "Villain_Pets.Corolax_Blue_Hybrid.Spiny_Urchins",
    "Villain_Pets.Corolax_Blue_Hybrid.Wave_of_Cold"
  ],
  "power_display_names": [
    "Resistance",
    "Self Destruct",
    "Brawl",
    "Coral Club",
    "Coral Club Slash",
    "Urchin Spray",
    "Spiny Urchins",
    "Wave of Cold"
  ]
}