{
  "name": "Raider",
  "display_name": "Raider",
  "display_fullname": "Dregs.Raider",
  "display_help": "Dregs",
  "display_short_help": "Dregs",
  "available_level": [
    0,
    0,
    0
  ],
  "source_file": "DEFS/POWERS/DREGS/RAIDER.POWERSETS",
  "requires": "",
  "power_names": [
    "Dregs.Raider.Single_Shot",
    "Dregs.Raider.Double_Shot",
    "Dregs.Raider.Wild_Shot"
  ],
  "power_display_names": [
    "Single Shot",
    "Double Shot",
    "Wild Shot"
  ]
}