{
  "name": "PPD_Mindslayer",
  "display_name": "PPD Mindslayer",
  "display_fullname": "V ParagonPolice.PPD Mindslayer",
  "display_help": "Paragon Police",
  "display_short_help": "Paragon Police",
  "available_level": [
    0,
    0,
    0
  ],
  "source_file": "DEFS/POWERS/V_PARAGONPOLICE/PPD_MINDSLAYER.POWERSETS",
  "requires": "",
  "power_names": [
    "V_ParagonPolice.PPD_Mindslayer.Mind_Probe",
    "V_ParagonPolice.PPD_Mindslayer.Will_Domination",
    "V_ParagonPolice.PPD_Mindslayer.Resistances"
  ],
  "power_display_names": [
    "Mind Probe",
    "Will Domination",
    "Resistances"
  ]
}