{
  "name": "Attuned_Command_of_the_Mastermind_A",
  "display_name": "Attuned Command of the Mastermind A",
  "display_fullname": "Boosts.Attuned Command of the Mastermind A",
  "display_help": "UNIQUE -- No more than 1 enhancement of this type may be slotted by a character. Enhances the damage of a power by {Boost.Attrib.Damage.Scale}% and accuracy by {Boost.Attrib.Accuracy.Scale}%. This enhancement can only be slotted in a Mastermind pet power.",
  "display_short_help": "Set: Command of the Mastermind",
  "available_level": [
    0
  ],
  "source_file": "DEFS/POWERS/BOOSTS/ATTUNED_COMMAND_OF_THE_MASTERMIND_A.POWERSETS",
  "requires": "",
  "power_names": [
    "Boosts.Attuned_Command_of_the_Mastermind_A.Attuned_Command_of_the_Mastermind_A"
  ],
  "power_display_names": [
    "Command of the Mastermind: Accuracy/Damage"
  ]
}