{
  "name": "Superior_Attuned_Superior_Spiders_Bite_A",
  "display_name": "Superior Attuned Superior Spiders Bite A",
  "display_fullname": "Boosts.Superior Attuned Spiders Bite A",
  "display_help": "UNIQUE -- No more than 1 enhancement of this type may be slotted by a character. Enhances the damage of a power by {Boost.Attrib.Damage.Scale}% and accuracy by {Boost.Attrib.Accuracy.Scale}%. This enhancement can only be slotted by Soldiers of Arachnos and may be slotted into any Arachnos Soldier or Arachnos Widow damage power.",
  "display_short_help": "Set: Superior Spider's Bite",
  "available_level": [
    0
  ],
  "source_file": "DEFS/POWERS/BOOSTS/SUPERIOR_ATTUNED_SUPERIOR_SPIDERS_BITE_A.POWERSETS",
  "requires": "",
  "power_names": [
    "Boosts.Superior_Attuned_Superior_Spiders_Bite_A.Superior_Attuned_Superior_Spiders_Bite_A"
  ],
  "power_display_names": [
    "Superior Spider's Bite: Accuracy/Damage (Soldier of Arachnos)"
  ]
}