{
  "name": "Data",
  "display_name": "Data",
  "display_fullname": "Incarnate.Data",
  "display_help": "Incarnate",
  "display_short_help": "Incarnate",
  "available_level": [
    0,
    0,
    0,
    0,
    0,
    0,
    0,
    0,
    0
  ],
  "source_file": "DEFS/POWERS/INCARNATE/DATA.POWERSETS",
  "requires": "",
  "power_names": [
    "Incarnate.Data.Rikti_Data",
    "Incarnate.Data.Robotic_Drones_Core_Data",
    "Incarnate.Data.Polar_Lights_Radial_Data",
    "Incarnate.Data.Cimeroran_Total_Core_Improved_Data",
    "Incarnate.Data.IDF_Partial_Core_Improved_Data",
    "Incarnate.Data.Clockwork_Partial_Radial_Improved_Data",
    "Incarnate.Data.Vanguard_Total_Radial_Improved_Data",
    "Incarnate.Data.Longbow_Core_Superior_Data",
    "Incarnate.Data.Arachnos_Radial_Superior_Data"
  ],
  "power_display_names": [
    "Rikti Data",
    "Robotic Drones Core Data",
    "Polar Lights Radial Data",
    "Cimeroran Total Core Improved Data",
    "IDF Partial Core Improved Data",
    "Clockwork Partial Radial Improved Data",
    "Vanguard Total Radial Improved Data",
    "Longbow Core Superior Data",
    "Arachnos Radial Superior Data"
  ]
}