{
  "name": "Crafted_Encouraged_Accuracy_B",
  "display_name": "Crafted Encouraged Accuracy B",
  "display_fullname": "Boosts.Crafted Encouraged Accuracy B",
  "display_help": "Enhances the to hit buff potential of a power by {Boost.Attrib.ToHit.Scale}% and reduces the recharge time by {Boost.Attrib.RechargeTime.Scale}%.",
  "display_short_help": "Set: Encouraged Accuracy",
  "available_level": [
    0
  ],
  "source_file": "DEFS/POWERS/BOOSTS/CRAFTED_ENCOURAGED_ACCURACY_B.POWERSETS",
  "requires": "",
  "power_names": [
    "Boosts.Crafted_Encouraged_Accuracy_B.Crafted_Encouraged_Accuracy_B"
  ],
  "power_display_names": [
    "Encouraged Accuracy: To Hit Buff/Recharge"
  ]
}