{
  "name": "Superior_Attuned_Superior_Opportunity_Strikes_A",
  "display_name": "Superior Attuned Superior Opportunity Strikes A",
  "display_fullname": "Boosts.Superior Attuned Opportunity Strikes A",
  "display_help": "UNIQUE -- No more than 1 enhancement of this type may be slotted by a character. Enhances the damage of a power by {Boost.Attrib.Damage.Scale}% and accuracy by {Boost.Attrib.Accuracy.Scale}%. This enhancement can only be slotted by Sentinels and may be slotted into any Sentinel damage power and requires the user to be level 50.",
  "display_short_help": "Set: Superior Opportunity Strikes",
  "available_level": [
    0
  ],
  "source_file": "DEFS/POWERS/BOOSTS/SUPERIOR_ATTUNED_SUPERIOR_OPPORTUNITY_STRIKES_A.POWERSETS",
  "requires": "",
  "power_names": [
    "Boosts.Superior_Attuned_Superior_Opportunity_Strikes_A.Superior_Attuned_Superior_Opportunity_Strikes_A"
  ],
  "power_display_names": [
    "Superior Opportunity Strikes: Accuracy/Damage (Sentinel)"
  ]
}