{
  "name": "Attuned_Sudden_Acceleration_F",
  "display_name": "Sudden Acceleration F",
  "display_fullname": "Boosts.Attuned Sudden Acceleration F",
  "display_help": "Converts any Knockback this power deals into Knockdown. Some powers may have their chance to Knockdown reduced when this enhancement is slotted.",
  "display_short_help": "Set: Sudden Acceleration",
  "available_level": [
    0
  ],
  "source_file": "DEFS/POWERS/BOOSTS/ATTUNED_SUDDEN_ACCELERATION_F.POWERSETS",
  "requires": "",
  "power_names": [
    "Boosts.Attuned_Sudden_Acceleration_F.Attuned_Sudden_Acceleration_F"
  ],
  "power_display_names": [
    "Sudden Acceleration: Knockback to Knockdown"
  ]
}