{
  "name": "Skeleton",
  "display_name": "Skeleton",
  "display_fullname": "Mission Maker Pets.Skeleton",
  "display_help": "Only the most battle hardened warriors filled with a lust for revenge will return as a Grave Knight. This undead warrior may be sentient, but it has no understanding of a living world now alien to him. It can only see its own bloodlust and thirst for vengeance. Only the most powerful Masterminds can control them.",
  "display_short_help": "Grave Knight",
  "available_level": [
    0,
    0,
    0,
    5,
    5,
    31,
    5,
    0,
    0,
    31,
    31,
    31
  ],
  "source_file": "DEFS/POWERS/MISSION_MAKER_PETS/SKELETON.POWERSETS",
  "requires": "",
  "power_names": [
    "Mission_Maker_Pets.Skeleton.Resistance",
    "Mission_Maker_Pets.Skeleton.Dark_Blast",
    "Mission_Maker_Pets.Skeleton.Super_Leap",
    "Mission_Maker_Pets.Skeleton.Gloom",
    "Mission_Maker_Pets.Skeleton.Enchant",
    "Mission_Maker_Pets.Skeleton.Head_Splitter",
    "Mission_Maker_Pets.Skeleton.Disembowel",
    "Mission_Maker_Pets.Skeleton.Hack",
    "Mission_Maker_Pets.Skeleton.Slash",
    "Mission_Maker_Pets.Skeleton.Siphon_Life",
    "Mission_Maker_Pets.Skeleton.Mode2",
    "Mission_Maker_Pets.Skeleton.Empower"
  ],
  "power_display_names": [
    "Resistance",
    "Dark Blast",
    "Super Leap",
    "Gloom",
    "Enchant",
    "Head Splitter",
    "Disembowel",
    "Hack",
    "Slash",
    "Siphon Life",
    "Mode2",
    "Empower"
  ]
}