{
  "name": "Attuned_Harmonized_Healing_F",
  "display_name": "Attuned Harmonized Healing F",
  "display_fullname": "Boosts.Attuned Harmonized Healing F",
  "display_help": "Reduces endurance cost by {Boost.Attrib.Endurance.Scale}%.",
  "display_short_help": "Set: Harmonized Healing",
  "available_level": [
    0
  ],
  "source_file": "DEFS/POWERS/BOOSTS/ATTUNED_HARMONIZED_HEALING_F.POWERSETS",
  "requires": "",
  "power_names": [
    "Boosts.Attuned_Harmonized_Healing_F.Attuned_Harmonized_Healing_F"
  ],
  "power_display_names": [
    "Harmonized Healing: Endurance"
  ]
}