{
  "name": "Crafted_Shield_Breaker_E",
  "display_name": "Crafted Shield Breaker E",
  "display_fullname": "Boosts.Crafted Shield Breaker E",
  "display_help": "Enhances the accuracy of a power by {Boost.Attrib.Accuracy.Scale}%, reduces the endurance cost of a power by {Boost.Attrib.Endurance.Scale}% and reduces recharge time by {Boost.Attrib.RechargeTime.Scale}%. NOTE: This enhancement can only be slotted into defense debuff powers that require a To Hit check.",
  "display_short_help": "Set: Shield Breaker",
  "available_level": [
    0
  ],
  "source_file": "DEFS/POWERS/BOOSTS/CRAFTED_SHIELD_BREAKER_E.POWERSETS",
  "requires": "",
  "power_names": [
    "Boosts.Crafted_Shield_Breaker_E.Crafted_Shield_Breaker_E"
  ],
  "power_display_names": [
    "Shield Breaker: Accuracy/Endurance/Recharge"
  ]
}