{
  "name": "Arcane_Tesla",
  "display_name": "Arcane Tesla",
  "display_fullname": "Base Traps.Arcane Tesla",
  "display_help": "The small device targets a tesla cage at those who come near.",
  "display_short_help": "Base Traps",
  "available_level": [
    0
  ],
  "source_file": "DEFS/POWERS/BASE_TRAPS/ARCANE_TESLA.POWERSETS",
  "requires": "",
  "power_names": [
    "Base_Traps.Arcane_Tesla.Tesla_Cage"
  ],
  "power_display_names": [
    "Tesla Cage"
  ]
}