{
  "name": "Crafted_Neuronic_Shutdown_E",
  "display_name": "Crafted Neuronic Shutdown E",
  "display_fullname": "Boosts.Crafted Neuronic Shutdown E",
  "display_help": "Enhances the accuracy of a power by {Boost.Attrib.Accuracy.Scale}%, the hold duration of a power by {Boost.Attrib.Mez.Scale}% and reduces the recharge time of a power by {Boost.Attrib.RechargeTime.Scale}%.",
  "display_short_help": "Set: Neuronic Shutdown",
  "available_level": [
    0
  ],
  "source_file": "DEFS/POWERS/BOOSTS/CRAFTED_NEURONIC_SHUTDOWN_E.POWERSETS",
  "requires": "",
  "power_names": [
    "Boosts.Crafted_Neuronic_Shutdown_E.Crafted_Neuronic_Shutdown_E"
  ],
  "power_display_names": [
    "Neuronic Shutdown: Accuracy/Hold/Recharge"
  ]
}