{
  "name": "Devouring_Earth_Greater_Devoured_Defense",
  "display_name": "Devouring Earth Greater Devoured Defense",
  "display_fullname": "DevouringEarth.Devouring Earth Greater Devoured Defense",
  "display_help": "Devouring Earth",
  "display_short_help": "Devouring Earth",
  "available_level": [
    0
  ],
  "source_file": "DEFS/POWERS/DEVOURINGEARTH/DEVOURING_EARTH_GREATER_DEVOURED_DEFENSE.POWERSETS",
  "requires": "",
  "power_names": [
    "DevouringEarth.Devouring_Earth_Greater_Devoured_Defense.Resistance"
  ],
  "power_display_names": [
    "Resistance"
  ]
}