{
  "name": "Electric_Armor",
  "display_name": "Electric Armor",
  "display_fullname": "Stalker Defense.Electric Armor",
  "display_help": "Your entire body is basically a powerful capacitor. You can store and release massive amounts of electricity that can absorb damage directed at you. Electric Armor offer better than average resistance to just about all types of damage, including Psionic, but has no healing abilities or resistance to Toxic. Electric Armor also offers superior resistance to Energy damage and Endurance Drain.",
  "display_short_help": "Electric Armor",
  "available_level": [
    0,
    1,
    3,
    9,
    15,
    19,
    27,
    34,
    37
  ],
  "source_file": "DEFS/POWERS/STALKER_DEFENSE/ELECTRIC_ARMOR.POWERSETS",
  "requires": "",
  "power_names": [
    "Stalker_Defense.Electric_Armor.Hide",
    "Stalker_Defense.Electric_Armor.Charged_Armor",
    "Stalker_Defense.Electric_Armor.Conductive_Shield",
    "Stalker_Defense.Electric_Armor.Static_Shield",
    "Stalker_Defense.Electric_Armor.Grounded",
    "Stalker_Defense.Electric_Armor.Lightning_Reflexes",
    "Stalker_Defense.Electric_Armor.Conserve_Power",
    "Stalker_Defense.Electric_Armor.Power_Sink",
    "Stalker_Defense.Electric_Armor.Power_Surge"
  ],
  "power_display_names": [
    "Hide",
    "Charged Armor",
    "Conductive Shield",
    "Static Shield",
    "Grounded",
    "Lightning Reflexes",
    "Energize",
    "Power Sink",
    "Power Surge"
  ]
}