{
  "name": "Ghosts_Boss",
  "display_name": "Ghosts Boss",
  "display_fullname": "Event.Ghosts Boss",
  "display_help": "Ghosts",
  "display_short_help": "Ghosts",
  "available_level": [
    0
  ],
  "source_file": "DEFS/POWERS/EVENT/GHOSTS_BOSS.POWERSETS",
  "requires": "",
  "power_names": [
    "Event.Ghosts_Boss.Necroplasmic_Grasp"
  ],
  "power_display_names": [
    "Necroplasmic Grasp"
  ]
}