{
  "name": "Ninja_Blade_Assassins_Strike",
  "display_name": "",
  "display_fullname": "Villain Pets.Ninja Blade Assassins Strike",
  "display_help": "Wield a Ninja Blade and master a variety of powerful Lethal attacks. A quick and elegant weapon, the Ninja Blade can reduce an enemy's Defense. The Ninja Blade is a fine blade that always has a bonus to Accuracy. Like all Stalker primary attack powers, Ninja Blade attacks can land a Critical Hit for double damage, if you are properly Hidden or if your target is Slept or Held.",
  "display_short_help": "Ninja Blade",
  "available_level": [
    0,
    0
  ],
  "source_file": "DEFS/POWERS/VILLAIN_PETS/NINJA_BLADE_ASSASSINS_STRIKE.POWERSETS",
  "requires": "",
  "power_names": [
    "Villain_Pets.Ninja_Blade_Assassins_Strike.Assassins_Blade_Stealth",
    "Villain_Pets.Ninja_Blade_Assassins_Strike.Assassins_Blade_Quick"
  ],
  "power_display_names": [
    "Assassins Blade Stealth",
    "Assassins Blade Quick"
  ]
}