{
  "name": "Teleportation",
  "display_name": "Teleportation",
  "display_fullname": "Pool.Teleportation",
  "display_help": "Grants you various teleportation abilities.",
  "display_short_help": "Teleportation",
  "available_level": [
    0,
    0,
    3,
    13,
    13
  ],
  "source_file": "DEFS/POWERS/POOL/TELEPORTATION.POWERSETS",
  "requires": "",
  "power_names": [
    "Pool.Teleportation.Recall_Friend",
    "Pool.Teleportation.Teleport_Foe",
    "Pool.Teleportation.Teleport",
    "Pool.Teleportation.Team_Teleport",
    "Pool.Teleportation.Long_Range_Teleport"
  ],
  "power_display_names": [
    "Teleport Target",
    "Combat Teleport",
    "Teleport",
    "Team Teleport",
    "Fold Space"
  ]
}