{
  "name": "Gate",
  "display_name": "Gate",
  "display_fullname": "AnimusArcana.Gate",
  "display_help": "Animus Arcana",
  "display_short_help": "Animus Arcana",
  "available_level": [
    0,
    0,
    0,
    0,
    0,
    0
  ],
  "source_file": "DEFS/POWERS/ANIMUSARCANA/GATE.POWERSETS",
  "requires": "",
  "power_names": [
    "AnimusArcana.Gate.Summon_Demonlings",
    "AnimusArcana.Gate.Summon_Demon_Prince",
    "AnimusArcana.Gate.Hell_on_Earth",
    "AnimusArcana.Gate.Forge",
    "AnimusArcana.Gate.Melt_Armor",
    "AnimusArcana.Gate.Cauterize"
  ],
  "power_display_names": [
    "Summon Demonlings",
    "Summon Demon Prince",
    "Hell on Earth",
    "Forge",
    "Melt Armor",
    "Cauterize"
  ]
}