{
  "name": "PVP_Set_Bonus",
  "display_name": "",
  "display_fullname": "Set Bonus.PVP Set Bonus",
  "display_help": "PVP Set Bonus",
  "display_short_help": "PVP Set Bonus",
  "available_level": [
    0,
    0,
    0,
    0,
    0,
    0,
    0,
    0,
    0,
    0,
    0,
    0,
    0,
    0,
    0,
    0,
    0,
    0,
    0,
    0,
    0,
    0,
    0,
    0,
    0,
    0,
    0,
    0,
    0,
    0,
    0,
    0,
    0,
    0,
    0,
    0,
    0,
    0,
    0,
    0,
    0,
    0,
    0,
    0,
    0,
    0,
    0,
    0,
    0,
    0,
    0,
    0,
    0,
    0,
    0,
    0,
    0,
    0,
    0,
    0,
    0,
    0,
    0,
    0,
    0,
    0,
    0,
    0,
    0,
    0,
    0,
    0,
    0,
    0,
    0,
    0,
    0,
    0,
    0,
    0,
    0,
    0,
    0,
    0,
    0,
    0,
    0,
    0,
    0,
    0,
    0,
    0,
    0,
    0,
    0,
    0,
    0,
    0,
    0,
    0,
    0,
    0,
    0,
    0,
    0,
    0,
    0,
    0,
    0,
    0,
    0,
    0,
    0,
    0,
    0,
    0,
    0,
    0,
    0,
    0,
    0,
    0,
    0,
    0,
    0,
    0,
    0,
    0,
    0,
    0,
    0,
    0,
    0,
    0,
    0,
    0,
    0,
    0,
    0,
    0,
    0,
    0,
    0,
    0,
    0,
    0,
    0,
    0,
    0,
    0,
    0,
    0,
    0,
    0,
    0,
    0,
    0,
    0,
    0,
    0,
    0,
    0,
    0,
    0,
    0,
    0,
    0,
    0,
    0,
    0,
    0,
    0,
    0,
    0,
    0,
    0,
    0,
    0,
    0,
    0,
    0,
    0,
    0,
    0,
    0,
    0,
    0,
    0,
    0,
    0,
    0,
    0,
    0,
    0,
    0,
    0,
    0,
    0,
    0,
    0,
    0,
    0,
    0,
    0,
    0,
    0,
    0,
    0,
    0,
    0,
    0,
    0,
    0,
    0,
    0,
    0,
    0,
    0,
    0,
    0,
    0,
    0,
    0,
    0,
    0,
    0,
    0,
    0,
    0,
    0,
    0,
    0,
    0,
    0,
    0,
    0,
    0,
    0,
    0,
    0,
    0,
    0,
    0,
    0,
    0,
    0,
    0,
    0,
    0,
    0,
    0,
    0,
    0,
    0,
    0,
    0,
    0,
    0,
    0,
    0,
    0,
    0,
    0,
    0,
    0,
    0,
    0,
    0,
    0,
    0,
    0,
    0,
    0,
    0,
    0,
    0,
    0,
    0,
    0,
    0,
    0,
    0,
    0,
    0,
    0,
    0,
    0,
    0,
    0,
    0,
    0,
    0,
    0,
    0,
    0,
    0,
    0,
    0,
    0,
    0,
    0,
    0,
    0,
    0,
    0,
    0,
    0,
    0,
    0,
    0,
    0,
    0,
    0,
    0,
    0,
    0,
    0,
    0,
    0,
    0,
    0,
    0,
    0,
    0,
    0,
    0,
    0,
    0,
    0,
    0,
    0,
    0,
    0,
    0,
    0,
    0,
    0,
    0,
    0,
    0,
    0,
    0,
    0,
    0,
    0,
    0,
    0,
    0,
    0,
    0,
    0,
    0,
    0,
    0,
    0,
    0,
    0,
    0,
    0,
    0,
    0,
    0,
    0,
    0,
    0,
    0,
    0,
    0,
    0,
    0,
    0,
    0,
    0,
    0,
    0,
    0,
    0,
    0,
    0,
    0,
    0,
    0,
    0,
    0,
    0,
    0,
    0,
    0,
    0,
    0,
    0,
    0,
    0,
    0,
    0,
    0,
    0,
    0,
    0,
    0,
    0,
    0,
    0,
    0,
    0,
    0,
    0,
    0,
    0,
    0,
    0,
    0,
    0,
    0,
    0,
    0,
    0,
    0,
    0,
    0,
    0,
    0,
    0,
    0,
    0,
    0,
    0,
    0,
    0,
    0,
    0,
    0,
    0,
    0,
    0,
    0,
    0,
    0,
    0,
    0,
    0,
    0,
    0,
    0,
    0,
    0,
    0,
    0,
    0,
    0,
    0,
    0,
    0,
    0,
    0,
    0,
    0,
    0,
    0,
    0,
    0,
    0,
    0,
    0,
    0,
    0,
    0,
    0
  ],
  "source_file": "DEFS/POWERS/SET_BONUS/PVP_SET_BONUS.POWERSETS",
  "requires": "",
  "power_names": [
    "Set_Bonus.PVP_Set_Bonus.Mez_Resist_1",
    "Set_Bonus.PVP_Set_Bonus.Mez_Resist_2",
    "Set_Bonus.PVP_Set_Bonus.Mez_Resist_3",
    "Set_Bonus.PVP_Set_Bonus.Immob_Res_1",
    "Set_Bonus.PVP_Set_Bonus.Immob_Res_2",
    "Set_Bonus.PVP_Set_Bonus.Immob_Res_3",
    "Set_Bonus.PVP_Set_Bonus.Immob_Res_4",
    "Set_Bonus.PVP_Set_Bonus.Immob_Res_5",
    "Set_Bonus.PVP_Set_Bonus.Immob_Res_6",
    "Set_Bonus.PVP_Set_Bonus.Immob_Res_7",
    "Set_Bonus.PVP_Set_Bonus.Sleep_Res_1",
    "Set_Bonus.PVP_Set_Bonus.Sleep_Res_2",
    "Set_Bonus.PVP_Set_Bonus.Sleep_Res_3",
    "Set_Bonus.PVP_Set_Bonus.Sleep_Res_4",
    "Set_Bonus.PVP_Set_Bonus.Sleep_Res_5",
    "Set_Bonus.PVP_Set_Bonus.Sleep_Res_6",
    "Set_Bonus.PVP_Set_Bonus.Sleep_Res_7",
    "Set_Bonus.PVP_Set_Bonus.Fear_Res_1",
    "Set_Bonus.PVP_Set_Bonus.Fear_Res_2",
    "Set_Bonus.PVP_Set_Bonus.Fear_Res_3",
    "Set_Bonus.PVP_Set_Bonus.Fear_Res_4",
    "Set_Bonus.PVP_Set_Bonus.Fear_Res_5",
    "Set_Bonus.PVP_Set_Bonus.Fear_Res_6",
    "Set_Bonus.PVP_Set_Bonus.Fear_Res_7",
    "Set_Bonus.PVP_Set_Bonus.Confuse_Res_1",
    "Set_Bonus.PVP_Set_Bonus.Confuse_Res_2",
    "Set_Bonus.PVP_Set_Bonus.Confuse_Res_3",
    "Set_Bonus.PVP_Set_Bonus.Confuse_Res_4",
    "Set_Bonus.PVP_Set_Bonus.Confuse_Res_5",
    "Set_Bonus.PVP_Set_Bonus.Confuse_Res_6",
    "Set_Bonus.PVP_Set_Bonus.Confuse_Res_7",
    "Set_Bonus.PVP_Set_Bonus.Hold_Res_1",
    "Set_Bonus.PVP_Set_Bonus.Hold_Res_2",
    "Set_Bonus.PVP_Set_Bonus.Hold_Res_3",
    "Set_Bonus.PVP_Set_Bonus.Hold_Res_4",
    "Set_Bonus.PVP_Set_Bonus.Hold_Res_5",
    "Set_Bonus.PVP_Set_Bonus.Hold_Res_6",
    "Set_Bonus.PVP_Set_Bonus.Hold_Res_7",
    "Set_Bonus.PVP_Set_Bonus.Stun_Res_1",
    "Set_Bonus.PVP_Set_Bonus.Stun_Res_2",
    "Set_Bonus.PVP_Set_Bonus.Stun_Res_3",
    "Set_Bonus.PVP_Set_Bonus.Stun_Res_4",
    "Set_Bonus.PVP_Set_Bonus.Stun_Res_5",
    "Set_Bonus.PVP_Set_Bonus.Stun_Res_6",
    "Set_Bonus.PVP_Set_Bonus.Stun_Res_7",
    "Set_Bonus.PVP_Set_Bonus.Immob_Dur_1",
    "Set_Bonus.PVP_Set_Bonus.Immob_Dur_2",
    "Set_Bonus.PVP_Set_Bonus.Immob_Dur_3",
    "Set_Bonus.PVP_Set_Bonus.Immob_Dur_4",
    "Set_Bonus.PVP_Set_Bonus.Immob_Dur_5",
    "Set_Bonus.PVP_Set_Bonus.Immob_Dur_6",
    "Set_Bonus.PVP_Set_Bonus.Immob_Dur_7",
    "Set_Bonus.PVP_Set_Bonus.Sleep_Dur_1",
    "Set_Bonus.PVP_Set_Bonus.Sleep_Dur_2",
    "Set_Bonus.PVP_Set_Bonus.Sleep_Dur_3",
    "Set_Bonus.PVP_Set_Bonus.Sleep_Dur_4",
    "Set_Bonus.PVP_Set_Bonus.Sleep_Dur_5",
    "Set_Bonus.PVP_Set_Bonus.Sleep_Dur_6",
    "Set_Bonus.PVP_Set_Bonus.Sleep_Dur_7",
    "Set_Bonus.PVP_Set_Bonus.Fear_Dur_1",
    "Set_Bonus.PVP_Set_Bonus.Fear_Dur_2",
    "Set_Bonus.PVP_Set_Bonus.Fear_Dur_3",
    "Set_Bonus.PVP_Set_Bonus.Fear_Dur_4",
    "Set_Bonus.PVP_Set_Bonus.Fear_Dur_5",
    "Set_Bonus.PVP_Set_Bonus.Fear_Dur_6",
    "Set_Bonus.PVP_Set_Bonus.Fear_Dur_7",
    "Set_Bonus.PVP_Set_Bonus.Confuse_Dur_1",
    "Set_Bonus.PVP_Set_Bonus.Confuse_Dur_2",
    "Set_Bonus.PVP_Set_Bonus.Confuse_Dur_3",
    "Set_Bonus.PVP_Set_Bonus.Confuse_Dur_4",
    "Set_Bonus.PVP_Set_Bonus.Confuse_Dur_5",
    "Set_Bonus.PVP_Set_Bonus.Confuse_Dur_6",
    "Set_Bonus.PVP_Set_Bonus.Confuse_Dur_7",
    "Set_Bonus.PVP_Set_Bonus.Hold_Dur_1",
    "Set_Bonus.PVP_Set_Bonus.Hold_Dur_2",
    "Set_Bonus.PVP_Set_Bonus.Hold_Dur_3",
    "Set_Bonus.PVP_Set_Bonus.Hold_Dur_4",
    "Set_Bonus.PVP_Set_Bonus.Hold_Dur_5",
    "Set_Bonus.PVP_Set_Bonus.Hold_Dur_6",
    "Set_Bonus.PVP_Set_Bonus.Hold_Dur_7",
    "Set_Bonus.PVP_Set_Bonus.Stun_Dur_1",
    "Set_Bonus.PVP_Set_Bonus.Stun_Dur_2",
    "Set_Bonus.PVP_Set_Bonus.Stun_Dur_3",
    "Set_Bonus.PVP_Set_Bonus.Stun_Dur_4",
    "Set_Bonus.PVP_Set_Bonus.Stun_Dur_5",
    "Set_Bonus.PVP_Set_Bonus.Stun_Dur_6",
    "Set_Bonus.PVP_Set_Bonus.Stun_Dur_7",
    "Set_Bonus.PVP_Set_Bonus.Increased_Health_1",
    "Set_Bonus.PVP_Set_Bonus.Increased_Health_2",
    "Set_Bonus.PVP_Set_Bonus.Increased_Health_3",
    "Set_Bonus.PVP_Set_Bonus.Increased_Health_4",
    "Set_Bonus.PVP_Set_Bonus.Increased_Health_5",
    "Set_Bonus.PVP_Set_Bonus.Increased_Health_6",
    "Set_Bonus.PVP_Set_Bonus.Increased_Health_7",
    "Set_Bonus.PVP_Set_Bonus.Accuracy_1",
    "Set_Bonus.PVP_Set_Bonus.Accuracy_2",
    "Set_Bonus.PVP_Set_Bonus.Accuracy_3",
    "Set_Bonus.PVP_Set_Bonus.Accuracy_4",
    "Set_Bonus.PVP_Set_Bonus.Accuracy_5",
    "Set_Bonus.PVP_Set_Bonus.Accuracy_6",
    "Set_Bonus.PVP_Set_Bonus.Accuracy_7",
    "Set_Bonus.PVP_Set_Bonus.Increased_Endurance_1",
    "Set_Bonus.PVP_Set_Bonus.Increased_Endurance_2",
    "Set_Bonus.PVP_Set_Bonus.Increased_Endurance_3",
    "Set_Bonus.PVP_Set_Bonus.Increased_Endurance_4",
    "Set_Bonus.PVP_Set_Bonus.Increased_Endurance_5",
    "Set_Bonus.PVP_Set_Bonus.Increased_Endurance_6",
    "Set_Bonus.PVP_Set_Bonus.Increased_Endurance_7",
    "Set_Bonus.PVP_Set_Bonus.Increased_AoE_Def_1",
    "Set_Bonus.PVP_Set_Bonus.Increased_AoE_Def_2",
    "Set_Bonus.PVP_Set_Bonus.Increased_AoE_Def_3",
    "Set_Bonus.PVP_Set_Bonus.Increased_AoE_Def_4",
    "Set_Bonus.PVP_Set_Bonus.Increased_AoE_Def_5",
    "Set_Bonus.PVP_Set_Bonus.Increased_AoE_Def_6",
    "Set_Bonus.PVP_Set_Bonus.Increased_AoE_Def_7",
    "Set_Bonus.PVP_Set_Bonus.Increased_Melee_Def_1",
    "Set_Bonus.PVP_Set_Bonus.Increased_Melee_Def_2",
    "Set_Bonus.PVP_Set_Bonus.Increased_Melee_Def_3",
    "Set_Bonus.PVP_Set_Bonus.Increased_Melee_Def_4",
    "Set_Bonus.PVP_Set_Bonus.Increased_Melee_Def_5",
    "Set_Bonus.PVP_Set_Bonus.Increased_Melee_Def_6",
    "Set_Bonus.PVP_Set_Bonus.Increased_Melee_Def_7",
    "Set_Bonus.PVP_Set_Bonus.Increased_Ranged_Def_1",
    "Set_Bonus.PVP_Set_Bonus.Increased_Ranged_Def_2",
    "Set_Bonus.PVP_Set_Bonus.Increased_Ranged_Def_3",
    "Set_Bonus.PVP_Set_Bonus.Increased_Ranged_Def_4",
    "Set_Bonus.PVP_Set_Bonus.Increased_Ranged_Def_5",
    "Set_Bonus.PVP_Set_Bonus.Increased_Ranged_Def_6",
    "Set_Bonus.PVP_Set_Bonus.Increased_Ranged_Def_7",
    "Set_Bonus.PVP_Set_Bonus.Increased_Cold_Def_1",
    "Set_Bonus.PVP_Set_Bonus.Increased_Cold_Def_2",
    "Set_Bonus.PVP_Set_Bonus.Increased_Cold_Def_3",
    "Set_Bonus.PVP_Set_Bonus.Increased_Cold_Def_4",
    "Set_Bonus.PVP_Set_Bonus.Increased_Cold_Def_5",
    "Set_Bonus.PVP_Set_Bonus.Increased_Cold_Def_6",
    "Set_Bonus.PVP_Set_Bonus.Increased_Cold_Def_7",
    "Set_Bonus.PVP_Set_Bonus.Increased_Cold_Res_1",
    "Set_Bonus.PVP_Set_Bonus.Increased_Cold_Res_2",
    "Set_Bonus.PVP_Set_Bonus.Increased_Cold_Res_3",
    "Set_Bonus.PVP_Set_Bonus.Increased_Cold_Res_4",
    "Set_Bonus.PVP_Set_Bonus.Increased_Cold_Res_5",
    "Set_Bonus.PVP_Set_Bonus.Increased_Cold_Res_6",
    "Set_Bonus.PVP_Set_Bonus.Increased_Cold_Res_7",
    "Set_Bonus.PVP_Set_Bonus.Increased_Smashing_Def_1",
    "Set_Bonus.PVP_Set_Bonus.Increased_Smashing_Def_2",
    "Set_Bonus.PVP_Set_Bonus.Increased_Smashing_Def_3",
    "Set_Bonus.PVP_Set_Bonus.Increased_Smashing_Def_4",
    "Set_Bonus.PVP_Set_Bonus.Increased_Smashing_Def_5",
    "Set_Bonus.PVP_Set_Bonus.Increased_Smashing_Def_6",
    "Set_Bonus.PVP_Set_Bonus.Increased_Smashing_Def_7",
    "Set_Bonus.PVP_Set_Bonus.Increased_Smashing_Res_1",
    "Set_Bonus.PVP_Set_Bonus.Increased_Smashing_Res_2",
    "Set_Bonus.PVP_Set_Bonus.Increased_Smashing_Res_3",
    "Set_Bonus.PVP_Set_Bonus.Increased_Smashing_Res_4",
    "Set_Bonus.PVP_Set_Bonus.Increased_Smashing_Res_5",
    "Set_Bonus.PVP_Set_Bonus.Increased_Smashing_Res_6",
    "Set_Bonus.PVP_Set_Bonus.Increased_Smashing_Res_7",
    "Set_Bonus.PVP_Set_Bonus.Increased_Lethal_Def_1",
    "Set_Bonus.PVP_Set_Bonus.Increased_Lethal_Def_2",
    "Set_Bonus.PVP_Set_Bonus.Increased_Lethal_Def_3",
    "Set_Bonus.PVP_Set_Bonus.Increased_Lethal_Def_4",
    "Set_Bonus.PVP_Set_Bonus.Increased_Lethal_Def_5",
    "Set_Bonus.PVP_Set_Bonus.Increased_Lethal_Def_6",
    "Set_Bonus.PVP_Set_Bonus.Increased_Lethal_Def_7",
    "Set_Bonus.PVP_Set_Bonus.Increased_Lethal_Res_1",
    "Set_Bonus.PVP_Set_Bonus.Increased_Lethal_Res_2",
    "Set_Bonus.PVP_Set_Bonus.Increased_Lethal_Res_3",
    "Set_Bonus.PVP_Set_Bonus.Increased_Lethal_Res_4",
    "Set_Bonus.PVP_Set_Bonus.Increased_Lethal_Res_5",
    "Set_Bonus.PVP_Set_Bonus.Increased_Lethal_Res_6",
    "Set_Bonus.PVP_Set_Bonus.Increased_Lethal_Res_7",
    "Set_Bonus.PVP_Set_Bonus.Increased_Fire_Def_1",
    "Set_Bonus.PVP_Set_Bonus.Increased_Fire_Def_2",
    "Set_Bonus.PVP_Set_Bonus.Increased_Fire_Def_3",
    "Set_Bonus.PVP_Set_Bonus.Increased_Fire_Def_4",
    "Set_Bonus.PVP_Set_Bonus.Increased_Fire_Def_5",
    "Set_Bonus.PVP_Set_Bonus.Increased_Fire_Def_6",
    "Set_Bonus.PVP_Set_Bonus.Increased_Fire_Def_7",
    "Set_Bonus.PVP_Set_Bonus.Increased_Fire_Res_1",
    "Set_Bonus.PVP_Set_Bonus.Increased_Fire_Res_2",
    "Set_Bonus.PVP_Set_Bonus.Increased_Fire_Res_3",
    "Set_Bonus.PVP_Set_Bonus.Increased_Fire_Res_4",
    "Set_Bonus.PVP_Set_Bonus.Increased_Fire_Res_5",
    "Set_Bonus.PVP_Set_Bonus.Increased_Fire_Res_6",
    "Set_Bonus.PVP_Set_Bonus.Increased_Fire_Res_7",
    "Set_Bonus.PVP_Set_Bonus.Increased_Energy_Def_1",
    "Set_Bonus.PVP_Set_Bonus.Increased_Energy_Def_2",
    "Set_Bonus.PVP_Set_Bonus.Increased_Energy_Def_3",
    "Set_Bonus.PVP_Set_Bonus.Increased_Energy_Def_4",
    "Set_Bonus.PVP_Set_Bonus.Increased_Energy_Def_5",
    "Set_Bonus.PVP_Set_Bonus.Increased_Energy_Def_6",
    "Set_Bonus.PVP_Set_Bonus.Increased_Energy_Def_7",
    "Set_Bonus.PVP_Set_Bonus.Increased_Energy_Res_1",
    "Set_Bonus.PVP_Set_Bonus.Increased_Energy_Res_2",
    "Set_Bonus.PVP_Set_Bonus.Increased_Energy_Res_3",
    "Set_Bonus.PVP_Set_Bonus.Increased_Energy_Res_4",
    "Set_Bonus.PVP_Set_Bonus.Increased_Energy_Res_5",
    "Set_Bonus.PVP_Set_Bonus.Increased_Energy_Res_6",
    "Set_Bonus.PVP_Set_Bonus.Increased_Energy_Res_7",
    "Set_Bonus.PVP_Set_Bonus.Increased_Negative_Energy_Def_1",
    "Set_Bonus.PVP_Set_Bonus.Increased_Negative_Energy_Def_2",
    "Set_Bonus.PVP_Set_Bonus.Increased_Negative_Energy_Def_3",
    "Set_Bonus.PVP_Set_Bonus.Increased_Negative_Energy_Def_4",
    "Set_Bonus.PVP_Set_Bonus.Increased_Negative_Energy_Def_5",
    "Set_Bonus.PVP_Set_Bonus.Increased_Negative_Energy_Def_6",
    "Set_Bonus.PVP_Set_Bonus.Increased_Negative_Energy_Def_7",
    "Set_Bonus.PVP_Set_Bonus.Increased_Negative_Energy_Res_1",
    "Set_Bonus.PVP_Set_Bonus.Increased_Negative_Energy_Res_2",
    "Set_Bonus.PVP_Set_Bonus.Increased_Negative_Energy_Res_3",
    "Set_Bonus.PVP_Set_Bonus.Increased_Negative_Energy_Res_4",
    "Set_Bonus.PVP_Set_Bonus.Increased_Negative_Energy_Res_5",
    "Set_Bonus.PVP_Set_Bonus.Increased_Negative_Energy_Res_6",
    "Set_Bonus.PVP_Set_Bonus.Increased_Negative_Energy_Res_7",
    "Set_Bonus.PVP_Set_Bonus.Increased_Pos_Neg_Def_1",
    "Set_Bonus.PVP_Set_Bonus.Increased_Pos_Neg_Def_2",
    "Set_Bonus.PVP_Set_Bonus.Increased_Pos_Neg_Def_3",
    "Set_Bonus.PVP_Set_Bonus.Increased_Pos_Neg_Def_4",
    "Set_Bonus.PVP_Set_Bonus.Increased_Pos_Neg_Def_5",
    "Set_Bonus.PVP_Set_Bonus.Increased_Pos_Neg_Def_6",
    "Set_Bonus.PVP_Set_Bonus.Increased_Pos_Neg_Def_7",
    "Set_Bonus.PVP_Set_Bonus.Increased_Pos_Neg_Res_1",
    "Set_Bonus.PVP_Set_Bonus.Increased_Pos_Neg_Res_2",
    "Set_Bonus.PVP_Set_Bonus.Increased_Pos_Neg_Res_3",
    "Set_Bonus.PVP_Set_Bonus.Increased_Pos_Neg_Res_4",
    "Set_Bonus.PVP_Set_Bonus.Increased_Pos_Neg_Res_5",
    "Set_Bonus.PVP_Set_Bonus.Increased_Pos_Neg_Res_6",
    "Set_Bonus.PVP_Set_Bonus.Increased_Pos_Neg_Res_7",
    "Set_Bonus.PVP_Set_Bonus.Increased_Psionic_Def_1",
    "Set_Bonus.PVP_Set_Bonus.Increased_Psionic_Def_2",
    "Set_Bonus.PVP_Set_Bonus.Increased_Psionic_Def_3",
    "Set_Bonus.PVP_Set_Bonus.Increased_Psionic_Def_4",
    "Set_Bonus.PVP_Set_Bonus.Increased_Psionic_Def_5",
    "Set_Bonus.PVP_Set_Bonus.Increased_Psionic_Def_6",
    "Set_Bonus.PVP_Set_Bonus.Increased_Psionic_Def_7",
    "Set_Bonus.PVP_Set_Bonus.Increased_Psionic_Res_1",
    "Set_Bonus.PVP_Set_Bonus.Increased_Psionic_Res_2",
    "Set_Bonus.PVP_Set_Bonus.Increased_Psionic_Res_3",
    "Set_Bonus.PVP_Set_Bonus.Increased_Psionic_Res_4",
    "Set_Bonus.PVP_Set_Bonus.Increased_Psionic_Res_5",
    "Set_Bonus.PVP_Set_Bonus.Increased_Psionic_Res_6",
    "Set_Bonus.PVP_Set_Bonus.Increased_Psionic_Res_7",
    "Set_Bonus.PVP_Set_Bonus.Increased_Toxic_Res_1",
    "Set_Bonus.PVP_Set_Bonus.Increased_Toxic_Res_2",
    "Set_Bonus.PVP_Set_Bonus.Increased_Toxic_Res_3",
    "Set_Bonus.PVP_Set_Bonus.Increased_Toxic_Res_4",
    "Set_Bonus.PVP_Set_Bonus.Increased_Toxic_Res_5",
    "Set_Bonus.PVP_Set_Bonus.Increased_Toxic_Res_6",
    "Set_Bonus.PVP_Set_Bonus.Increased_Toxic_Res_7",
    "Set_Bonus.PVP_Set_Bonus.Increased_Fire_Cold_Def_1",
    "Set_Bonus.PVP_Set_Bonus.Increased_Fire_Cold_Def_2",
    "Set_Bonus.PVP_Set_Bonus.Increased_Fire_Cold_Def_3",
    "Set_Bonus.PVP_Set_Bonus.Increased_Fire_Cold_Def_4",
    "Set_Bonus.PVP_Set_Bonus.Increased_Fire_Cold_Def_5",
    "Set_Bonus.PVP_Set_Bonus.Increased_Fire_Cold_Def_6",
    "Set_Bonus.PVP_Set_Bonus.Increased_Fire_Cold_Def_7",
    "Set_Bonus.PVP_Set_Bonus.Increased_Fire_Cold_Res_1",
    "Set_Bonus.PVP_Set_Bonus.Increased_Fire_Cold_Res_2",
    "Set_Bonus.PVP_Set_Bonus.Increased_Fire_Cold_Res_3",
    "Set_Bonus.PVP_Set_Bonus.Increased_Fire_Cold_Res_4",
    "Set_Bonus.PVP_Set_Bonus.Increased_Fire_Cold_Res_5",
    "Set_Bonus.PVP_Set_Bonus.Increased_Fire_Cold_Res_6",
    "Set_Bonus.PVP_Set_Bonus.Increased_Fire_Cold_Res_7",
    "Set_Bonus.PVP_Set_Bonus.Increased_Smashing_Lethal_Def_1",
    "Set_Bonus.PVP_Set_Bonus.Increased_Smashing_Lethal_Def_2",
    "Set_Bonus.PVP_Set_Bonus.Increased_Smashing_Lethal_Def_3",
    "Set_Bonus.PVP_Set_Bonus.Increased_Smashing_Lethal_Def_4",
    "Set_Bonus.PVP_Set_Bonus.Increased_Smashing_Lethal_Def_5",
    "Set_Bonus.PVP_Set_Bonus.Increased_Smashing_Lethal_Def_6",
    "Set_Bonus.PVP_Set_Bonus.Increased_Smashing_Lethal_Def_7",
    "Set_Bonus.PVP_Set_Bonus.Increased_Smashing_Lethal_Res_1",
    "Set_Bonus.PVP_Set_Bonus.Increased_Smashing_Lethal_Res_2",
    "Set_Bonus.PVP_Set_Bonus.Increased_Smashing_Lethal_Res_3",
    "Set_Bonus.PVP_Set_Bonus.Increased_Smashing_Lethal_Res_4",
    "Set_Bonus.PVP_Set_Bonus.Increased_Smashing_Lethal_Res_5",
    "Set_Bonus.PVP_Set_Bonus.Increased_Smashing_Lethal_Res_6",
    "Set_Bonus.PVP_Set_Bonus.Increased_Smashing_Lethal_Res_7",
    "Set_Bonus.PVP_Set_Bonus.Increased_Toxic_Psionic_Res_1",
    "Set_Bonus.PVP_Set_Bonus.Increased_Toxic_Psionic_Res_2",
    "Set_Bonus.PVP_Set_Bonus.Increased_Toxic_Psionic_Res_3",
    "Set_Bonus.PVP_Set_Bonus.Increased_Toxic_Psionic_Res_4",
    "Set_Bonus.PVP_Set_Bonus.Increased_Toxic_Psionic_Res_5",
    "Set_Bonus.PVP_Set_Bonus.Increased_Toxic_Psionic_Res_6",
    "Set_Bonus.PVP_Set_Bonus.Increased_Toxic_Psionic_Res_7",
    "Set_Bonus.PVP_Set_Bonus.Increased_Damage_1",
    "Set_Bonus.PVP_Set_Bonus.Increased_Damage_2",
    "Set_Bonus.PVP_Set_Bonus.Increased_Damage_3",
    "Set_Bonus.PVP_Set_Bonus.Increased_Damage_4",
    "Set_Bonus.PVP_Set_Bonus.Increased_Damage_5",
    "Set_Bonus.PVP_Set_Bonus.Increased_Damage_6",
    "Set_Bonus.PVP_Set_Bonus.Increased_Damage_7",
    "Set_Bonus.PVP_Set_Bonus.Debt_Prot_1",
    "Set_Bonus.PVP_Set_Bonus.Debt_Prot_2",
    "Set_Bonus.PVP_Set_Bonus.Debt_Prot_3",
    "Set_Bonus.PVP_Set_Bonus.Debt_Prot_4",
    "Set_Bonus.PVP_Set_Bonus.Debt_Prot_5",
    "Set_Bonus.PVP_Set_Bonus.Debt_Prot_6",
    "Set_Bonus.PVP_Set_Bonus.Debt_Prot_7",
    "Set_Bonus.PVP_Set_Bonus.Improved_Recharge_Time_1",
    "Set_Bonus.PVP_Set_Bonus.Improved_Recharge_Time_2",
    "Set_Bonus.PVP_Set_Bonus.Improved_Recharge_Time_3",
    "Set_Bonus.PVP_Set_Bonus.Improved_Recharge_Time_4",
    "Set_Bonus.PVP_Set_Bonus.Improved_Recharge_Time_5",
    "Set_Bonus.PVP_Set_Bonus.Improved_Recharge_Time_6",
    "Set_Bonus.PVP_Set_Bonus.Improved_Recharge_Time_7",
    "Set_Bonus.PVP_Set_Bonus.Improved_Heal_1",
    "Set_Bonus.PVP_Set_Bonus.Improved_Heal_2",
    "Set_Bonus.PVP_Set_Bonus.Improved_Heal_3",
    "Set_Bonus.PVP_Set_Bonus.Improved_Heal_4",
    "Set_Bonus.PVP_Set_Bonus.Improved_Heal_5",
    "Set_Bonus.PVP_Set_Bonus.Improved_Heal_6",
    "Set_Bonus.PVP_Set_Bonus.Improved_Heal_7",
    "Set_Bonus.PVP_Set_Bonus.Improved_Knockback_1",
    "Set_Bonus.PVP_Set_Bonus.Improved_Knockback_2",
    "Set_Bonus.PVP_Set_Bonus.Improved_Knockback_3",
    "Set_Bonus.PVP_Set_Bonus.Improved_Knockback_4",
    "Set_Bonus.PVP_Set_Bonus.Improved_Knockback_5",
    "Set_Bonus.PVP_Set_Bonus.Improved_Knockback_6",
    "Set_Bonus.PVP_Set_Bonus.Improved_Knockback_7",
    "Set_Bonus.PVP_Set_Bonus.Knockback_Protection_1",
    "Set_Bonus.PVP_Set_Bonus.Knockback_Protection_2",
    "Set_Bonus.PVP_Set_Bonus.Knockback_Protection_3",
    "Set_Bonus.PVP_Set_Bonus.Knockback_Protection_4",
    "Set_Bonus.PVP_Set_Bonus.Knockback_Protection_5",
    "Set_Bonus.PVP_Set_Bonus.Knockback_Protection_6",
    "Set_Bonus.PVP_Set_Bonus.Knockback_Protection_7",
    "Set_Bonus.PVP_Set_Bonus.Improved_Recovery_1",
    "Set_Bonus.PVP_Set_Bonus.Improved_Recovery_2",
    "Set_Bonus.PVP_Set_Bonus.Improved_Recovery_3",
    "Set_Bonus.PVP_Set_Bonus.Improved_Recovery_4",
    "Set_Bonus.PVP_Set_Bonus.Improved_Recovery_5",
    "Set_Bonus.PVP_Set_Bonus.Improved_Recovery_6",
    "Set_Bonus.PVP_Set_Bonus.Improved_Recovery_7",
    "Set_Bonus.PVP_Set_Bonus.Improved_Regeneration_1",
    "Set_Bonus.PVP_Set_Bonus.Improved_Regeneration_2",
    "Set_Bonus.PVP_Set_Bonus.Improved_Regeneration_3",
    "Set_Bonus.PVP_Set_Bonus.Improved_Regeneration_4",
    "Set_Bonus.PVP_Set_Bonus.Improved_Regeneration_5",
    "Set_Bonus.PVP_Set_Bonus.Improved_Regeneration_6",
    "Set_Bonus.PVP_Set_Bonus.Improved_Regeneration_7",
    "Set_Bonus.PVP_Set_Bonus.Improved_RunSpeed_1",
    "Set_Bonus.PVP_Set_Bonus.Improved_RunSpeed_2",
    "Set_Bonus.PVP_Set_Bonus.Improved_RunSpeed_3",
    "Set_Bonus.PVP_Set_Bonus.Improved_RunSpeed_4",
    "Set_Bonus.PVP_Set_Bonus.Improved_RunSpeed_5",
    "Set_Bonus.PVP_Set_Bonus.Improved_RunSpeed_6",
    "Set_Bonus.PVP_Set_Bonus.Improved_RunSpeed_7",
    "Set_Bonus.PVP_Set_Bonus.Improved_SpeedFlying_1",
    "Set_Bonus.PVP_Set_Bonus.Improved_SpeedFlying_2",
    "Set_Bonus.PVP_Set_Bonus.Improved_SpeedFlying_3",
    "Set_Bonus.PVP_Set_Bonus.Improved_SpeedFlying_4",
    "Set_Bonus.PVP_Set_Bonus.Improved_SpeedFlying_5",
    "Set_Bonus.PVP_Set_Bonus.Improved_SpeedFlying_6",
    "Set_Bonus.PVP_Set_Bonus.Improved_SpeedFlying_7",
    "Set_Bonus.PVP_Set_Bonus.Improved_SpeedJumping_1",
    "Set_Bonus.PVP_Set_Bonus.Improved_SpeedJumping_2",
    "Set_Bonus.PVP_Set_Bonus.Improved_SpeedJumping_3",
    "Set_Bonus.PVP_Set_Bonus.Improved_SpeedJumping_4",
    "Set_Bonus.PVP_Set_Bonus.Improved_SpeedJumping_5",
    "Set_Bonus.PVP_Set_Bonus.Improved_SpeedJumping_6",
    "Set_Bonus.PVP_Set_Bonus.Improved_SpeedJumping_7",
    "Set_Bonus.PVP_Set_Bonus.Improved_Slow_1",
    "Set_Bonus.PVP_Set_Bonus.Improved_Slow_2",
    "Set_Bonus.PVP_Set_Bonus.Improved_Slow_3",
    "Set_Bonus.PVP_Set_Bonus.Improved_Slow_4",
    "Set_Bonus.PVP_Set_Bonus.Improved_Slow_5",
    "Set_Bonus.PVP_Set_Bonus.Improved_Slow_6",
    "Set_Bonus.PVP_Set_Bonus.Improved_Slow_7",
    "Set_Bonus.PVP_Set_Bonus.Increased_Move_1",
    "Set_Bonus.PVP_Set_Bonus.Increased_Move_2",
    "Set_Bonus.PVP_Set_Bonus.Increased_Move_3",
    "Set_Bonus.PVP_Set_Bonus.Increased_Move_4",
    "Set_Bonus.PVP_Set_Bonus.Increased_Move_5",
    "Set_Bonus.PVP_Set_Bonus.Increased_Move_6",
    "Set_Bonus.PVP_Set_Bonus.Increased_Move_7",
    "Set_Bonus.PVP_Set_Bonus.Increased_AoE_Fire_Cold_Def_1",
    "Set_Bonus.PVP_Set_Bonus.Increased_AoE_Fire_Cold_Def_2",
    "Set_Bonus.PVP_Set_Bonus.Increased_AoE_Fire_Cold_Def_3",
    "Set_Bonus.PVP_Set_Bonus.Increased_AoE_Fire_Cold_Def_4",
    "Set_Bonus.PVP_Set_Bonus.Increased_AoE_Fire_Cold_Def_5",
    "Set_Bonus.PVP_Set_Bonus.Increased_AoE_Fire_Cold_Def_6",
    "Set_Bonus.PVP_Set_Bonus.Increased_AoE_Fire_Cold_Def_7",
    "Set_Bonus.PVP_Set_Bonus.Increased_Melee_Lethal_Smash_Def_1",
    "Set_Bonus.PVP_Set_Bonus.Increased_Melee_Lethal_Smash_Def_2",
    "Set_Bonus.PVP_Set_Bonus.Increased_Melee_Lethal_Smash_Def_3",
    "Set_Bonus.PVP_Set_Bonus.Increased_Melee_Lethal_Smash_Def_4",
    "Set_Bonus.PVP_Set_Bonus.Increased_Melee_Lethal_Smash_Def_5",
    "Set_Bonus.PVP_Set_Bonus.Increased_Melee_Lethal_Smash_Def_6",
    "Set_Bonus.PVP_Set_Bonus.Increased_Melee_Lethal_Smash_Def_7",
    "Set_Bonus.PVP_Set_Bonus.Increased_Ranged_Energy_Neg_Def_1",
    "Set_Bonus.PVP_Set_Bonus.Increased_Ranged_Energy_Neg_Def_2",
    "Set_Bonus.PVP_Set_Bonus.Increased_Ranged_Energy_Neg_Def_3",
    "Set_Bonus.PVP_Set_Bonus.Increased_Ranged_Energy_Neg_Def_4",
    "Set_Bonus.PVP_Set_Bonus.Increased_Ranged_Energy_Neg_Def_5",
    "Set_Bonus.PVP_Set_Bonus.Increased_Ranged_Energy_Neg_Def_6",
    "Set_Bonus.PVP_Set_Bonus.Increased_Ranged_Energy_Neg_Def_7",
    "Set_Bonus.PVP_Set_Bonus.Increased_Fire_Cold_AoE_Def_1",
    "Set_Bonus.PVP_Set_Bonus.Increased_Fire_Cold_AoE_Def_2",
    "Set_Bonus.PVP_Set_Bonus.Increased_Fire_Cold_AoE_Def_3",
    "Set_Bonus.PVP_Set_Bonus.Increased_Fire_Cold_AoE_Def_4",
    "Set_Bonus.PVP_Set_Bonus.Increased_Fire_Cold_AoE_Def_5",
    "Set_Bonus.PVP_Set_Bonus.Increased_Fire_Cold_AoE_Def_6",
    "Set_Bonus.PVP_Set_Bonus.Increased_Fire_Cold_AoE_Def_7",
    "Set_Bonus.PVP_Set_Bonus.Increased_Lethal_Smash_Melee_Def_1",
    "Set_Bonus.PVP_Set_Bonus.Increased_Lethal_Smash_Melee_Def_2",
    "Set_Bonus.PVP_Set_Bonus.Increased_Lethal_Smash_Melee_Def_3",
    "Set_Bonus.PVP_Set_Bonus.Increased_Lethal_Smash_Melee_Def_4",
    "Set_Bonus.PVP_Set_Bonus.Increased_Lethal_Smash_Melee_Def_5",
    "Set_Bonus.PVP_Set_Bonus.Increased_Lethal_Smash_Melee_Def_6",
    "Set_Bonus.PVP_Set_Bonus.Increased_Lethal_Smash_Melee_Def_7",
    "Set_Bonus.PVP_Set_Bonus.Increased_Energy_Neg_Ranged_Def_1",
    "Set_Bonus.PVP_Set_Bonus.Increased_Energy_Neg_Ranged_Def_2",
    "Set_Bonus.PVP_Set_Bonus.Increased_Energy_Neg_Ranged_Def_3",
    "Set_Bonus.PVP_Set_Bonus.Increased_Energy_Neg_Ranged_Def_4",
    "Set_Bonus.PVP_Set_Bonus.Increased_Energy_Neg_Ranged_Def_5",
    "Set_Bonus.PVP_Set_Bonus.Increased_Energy_Neg_Ranged_Def_6",
    "Set_Bonus.PVP_Set_Bonus.Increased_Energy_Neg_Ranged_Def_7",
    "Set_Bonus.PVP_Set_Bonus.Repel_Resist_1",
    "Set_Bonus.PVP_Set_Bonus.Repel_Resist_2",
    "Set_Bonus.PVP_Set_Bonus.Repel_Resist_3",
    "Set_Bonus.PVP_Set_Bonus.Repel_Resist_4",
    "Set_Bonus.PVP_Set_Bonus.Repel_Resist_5",
    "Set_Bonus.PVP_Set_Bonus.Increased_Range_1",
    "Set_Bonus.PVP_Set_Bonus.Increased_Range_2",
    "Set_Bonus.PVP_Set_Bonus.Increased_Range_3",
    "Set_Bonus.PVP_Set_Bonus.Increased_Range_4",
    "Set_Bonus.PVP_Set_Bonus.Increased_Range_5",
    "Set_Bonus.PVP_Set_Bonus.Increased_Range_6",
    "Set_Bonus.PVP_Set_Bonus.Increased_Range_7",
    "Set_Bonus.PVP_Set_Bonus.Slow_Resist_1",
    "Set_Bonus.PVP_Set_Bonus.Slow_Resist_2",
    "Set_Bonus.PVP_Set_Bonus.Slow_Resist_3",
    "Set_Bonus.PVP_Set_Bonus.Slow_Resist_4",
    "Set_Bonus.PVP_Set_Bonus.Slow_Resist_5",
    "Set_Bonus.PVP_Set_Bonus.Lethal_Smash_Mez_Res_1",
    "Set_Bonus.PVP_Set_Bonus.Lethal_Smash_Mez_Res_2",
    "Set_Bonus.PVP_Set_Bonus.Lethal_Smash_Mez_Res_3",
    "Set_Bonus.PVP_Set_Bonus.Lethal_Smash_Mez_Res_4",
    "Set_Bonus.PVP_Set_Bonus.Lethal_Smash_Mez_Res_5",
    "Set_Bonus.PVP_Set_Bonus.Lethal_Smash_Mez_Res_6",
    "Set_Bonus.PVP_Set_Bonus.Lethal_Smash_Mez_Res_7",
    "Set_Bonus.PVP_Set_Bonus.Fire_Cold_Mez_Res_1",
    "Set_Bonus.PVP_Set_Bonus.Fire_Cold_Mez_Res_2",
    "Set_Bonus.PVP_Set_Bonus.Fire_Cold_Mez_Res_3",
    "Set_Bonus.PVP_Set_Bonus.Fire_Cold_Mez_Res_4",
    "Set_Bonus.PVP_Set_Bonus.Fire_Cold_Mez_Res_5",
    "Set_Bonus.PVP_Set_Bonus.Fire_Cold_Mez_Res_6",
    "Set_Bonus.PVP_Set_Bonus.Fire_Cold_Mez_Res_7",
    "Set_Bonus.PVP_Set_Bonus.Energy_Neg_Mez_Res_1",
    "Set_Bonus.PVP_Set_Bonus.Energy_Neg_Mez_Res_2",
    "Set_Bonus.PVP_Set_Bonus.Energy_Neg_Mez_Res_3",
    "Set_Bonus.PVP_Set_Bonus.Energy_Neg_Mez_Res_4",
    "Set_Bonus.PVP_Set_Bonus.Energy_Neg_Mez_Res_5",
    "Set_Bonus.PVP_Set_Bonus.Energy_Neg_Mez_Res_6",
    "Set_Bonus.PVP_Set_Bonus.Energy_Neg_Mez_Res_7",
    "Set_Bonus.PVP_Set_Bonus.Toxic_Psi_Mez_Res_1",
    "Set_Bonus.PVP_Set_Bonus.Toxic_Psi_Mez_Res_2",
    "Set_Bonus.PVP_Set_Bonus.Toxic_Psi_Mez_Res_3",
    "Set_Bonus.PVP_Set_Bonus.Toxic_Psi_Mez_Res_4",
    "Set_Bonus.PVP_Set_Bonus.Toxic_Psi_Mez_Res_5",
    "Set_Bonus.PVP_Set_Bonus.Toxic_Psi_Mez_Res_6",
    "Set_Bonus.PVP_Set_Bonus.Toxic_Psi_Mez_Res_7",
    "Set_Bonus.PVP_Set_Bonus.Endurance_Discount_1",
    "Set_Bonus.PVP_Set_Bonus.Endurance_Discount_2",
    "Set_Bonus.PVP_Set_Bonus.Endurance_Discount_3",
    "Set_Bonus.PVP_Set_Bonus.Endurance_Discount_4",
    "Set_Bonus.PVP_Set_Bonus.Endurance_Discount_5",
    "Set_Bonus.PVP_Set_Bonus.Endurance_Discount_6",
    "Set_Bonus.PVP_Set_Bonus.Endurance_Discount_7"
  ],
  "power_display_names": [
    "Tiny Status Resistance Bonus (PVP)",
    "Large Status Resistance Bonus (PVP)",
    "Ultimate Status Resistance Bonus (PVP)",
    "Tiny Immobilize Resistance Bonus (PVP)",
    "Small Immobilize Resistance Bonus (PVP)",
    "Moderate Immobilize Resistance Bonus (PVP)",
    "Large Immobilize Resistance Bonus (PVP)",
    "Huge Immobilize Resistance Bonus (PVP)",
    "Gargantuan Immobilize Resistance Bonus (PVP)",
    "Ultimate Immobilize Resistance Bonus (PVP)",
    "Tiny Sleep Resistance Bonus (PVP)",
    "Small Sleep Resistance Bonus (PVP)",
    "Moderate Sleep Resistance Bonus (PVP)",
    "Large Sleep Resistance Bonus (PVP)",
    "Huge Sleep Resistance Bonus (PVP)",
    "Gargantuan Sleep Resistance Bonus (PVP)",
    "Ultimate Sleep Resistance Bonus (PVP)",
    "Tiny Fear Resistance Bonus (PVP)",
    "Small Fear Resistance Bonus (PVP)",
    "Moderate Fear Resistance Bonus (PVP)",
    "Large Fear Resistance Bonus (PVP)",
    "Huge Fear Resistance Bonus (PVP)",
    "Gargantuan Fear Resistance Bonus (PVP)",
    "Ultimate Fear Resistance Bonus (PVP)",
    "Tiny Confuse Resistance Bonus (PVP)",
    "Small Confuse Resistance Bonus (PVP)",
    "Moderate Confuse Resistance Bonus (PVP)",
    "Large Confuse Resistance Bonus (PVP)",
    "Huge Confuse Resistance Bonus (PVP)",
    "Gargantuan Confuse Resistance Bonus (PVP)",
    "Ultimate Confuse Resistance Bonus (PVP)",
    "Tiny Hold Resistance Bonus (PVP)",
    "Small Hold Resistance Bonus (PVP)",
    "Moderate Hold Resistance Bonus (PVP)",
    "Large Hold Resistance Bonus (PVP)",
    "Huge Hold Resistance Bonus (PVP)",
    "Gargantuan Hold Resistance Bonus (PVP)",
    "Ultimate Hold Resistance Bonus (PVP)",
    "Tiny Stun Resistance Bonus (PVP)",
    "Small Stun Resistance Bonus (PVP)",
    "Moderate Stun Resistance Bonus (PVP)",
    "Large Stun Resistance Bonus (PVP)",
    "Huge Stun Resistance Bonus (PVP)",
    "Gargantuan Stun Resistance Bonus (PVP)",
    "Ultimate Stun Resistance Bonus (PVP)",
    "Tiny Immobilize Duration Bonus (PVP)",
    "Small Immobilize Duration Bonus (PVP)",
    "Moderate Immobilize Duration Bonus (PVP)",
    "Large Immobilize Duration Bonus (PVP)",
    "Huge Immobilize Duration Bonus (PVP)",
    "Gargantuan Immobilize Duration Bonus (PVP)",
    "Ultimate Immobilize Duration Bonus (PVP)",
    "Tiny Sleep Duration Bonus (PVP)",
    "Small Sleep Duration Bonus (PVP)",
    "Moderate Sleep Duration Bonus (PVP)",
    "Large Sleep Duration Bonus (PVP)",
    "Huge Sleep Duration Bonus (PVP)",
    "Gargantuan Sleep Duration Bonus (PVP)",
    "Ultimate Sleep Duration Bonus (PVP)",
    "Tiny Fear Duration Bonus (PVP)",
    "Small Fear Duration Bonus (PVP)",
    "Moderate Fear Duration Bonus (PVP)",
    "Large Fear Duration Bonus (PVP)",
    "Huge Fear Duration Bonus (PVP)",
    "Gargantuan Fear Duration Bonus (PVP)",
    "Ultimate Fear Duration Bonus (PVP)",
    "Tiny Confuse Duration Bonus (PVP)",
    "Small Confuse Duration Bonus (PVP)",
    "Moderate Confuse Duration Bonus (PVP)",
    "Large Confuse Duration Bonus (PVP)",
    "Huge Confuse Duration Bonus (PVP)",
    "Gargantuan Confuse Duration Bonus (PVP)",
    "Ultimate Confuse Duration Bonus (PVP)",
    "Tiny Hold Duration Bonus (PVP)",
    "Small Hold Duration Bonus (PVP)",
    "Moderate Hold Duration Bonus (PVP)",
    "Large Hold Duration Bonus (PVP)",
    "Huge Hold Duration Bonus (PVP)",
    "Gargantuan Hold Duration Bonus (PVP)",
    "Ultimate Hold Duration Bonus (PVP)",
    "Tiny Stun Duration Bonus (PVP)",
    "Small Stun Duration Bonus (PVP)",
    "Moderate Stun Duration Bonus (PVP)",
    "Large Stun Duration Bonus (PVP)",
    "Huge Stun Duration Bonus (PVP)",
    "Gargantuan Stun Duration Bonus (PVP)",
    "Ultimate Stun Duration Bonus (PVP)",
    "Tiny Increased Health Bonus (PVP)",
    "Small Increased Health Bonus (PVP)",
    "Moderate Increased Health Bonus (PVP)",
    "Large Increased Health Bonus (PVP)",
    "Huge Increased Health Bonus (PVP)",
    "Gargantuan Increased Health Bonus (PVP)",
    "Ultimate Increased Health Bonus (PVP)",
    "Tiny Accuracy Bonus (PVP)",
    "Small Accuracy Bonus (PVP)",
    "Moderate Accuracy Bonus (PVP)",
    "Large Accuracy Bonus (PVP)",
    "Huge Accuracy Bonus (PVP)",
    "Gargantuan Accuracy Bonus (PVP)",
    "Ultimate Accuracy Bonus (PVP)",
    "Tiny Increased Endurance Bonus (PVP)",
    "Small Increased Endurance Bonus (PVP)",
    "Moderate Increased Endurance Bonus (PVP)",
    "Large Increased Endurance Bonus (PVP)",
    "Huge Increased Endurance Bonus (PVP)",
    "Gargantuan Increased Endurance Bonus (PVP)",
    "Ultimate Increased Endurance Bonus (PVP)",
    "Tiny Increased AoE Def Bonus (PVP)",
    "Small Increased AoE Def Bonus (PVP)",
    "Moderate Increased AoE Def Bonus (PVP)",
    "Large Increased AoE Def Bonus (PVP)",
    "Huge Increased AoE Def Bonus (PVP)",
    "Gargantuan Increased AoE Def Bonus (PVP)",
    "Ultimate Increased AoE Def Bonus (PVP)",
    "Tiny Increased Melee Def Bonus (PVP)",
    "Small Increased Melee Def Bonus (PVP)",
    "Moderate Increased Melee Def Bonus (PVP)",
    "Large Increased Melee Def Bonus (PVP)",
    "Huge Increased Melee Def Bonus (PVP)",
    "Gargantuan Increased Melee Def Bonus (PVP)",
    "Ultimate Increased Melee Def Bonus (PVP)",
    "Tiny Increased Ranged Def Bonus (PVP)",
    "Small Increased Ranged Def Bonus (PVP)",
    "Moderate Increased Ranged Def Bonus (PVP)",
    "Large Increased Ranged Def Bonus (PVP)",
    "Huge Increased Ranged Def Bonus (PVP)",
    "Gargantuan Increased Ranged Def Bonus (PVP)",
    "Ultimate Increased Ranged Def Bonus (PVP)",
    "Tiny Increased Cold Def Bonus (PVP)",
    "Small Increased Cold Def Bonus (PVP)",
    "Moderate Increased Cold Def Bonus (PVP)",
    "Large Increased Cold Def Bonus (PVP)",
    "Huge Increased Cold Def Bonus (PVP)",
    "Gargantuan Increased Cold Def Bonus (PVP)",
    "Ultimate Increased Cold Def Bonus (PVP)",
    "Tiny Increased Cold Res Bonus (PVP)",
    "Small Increased Cold Res Bonus (PVP)",
    "Moderate Increased Cold Res Bonus (PVP)",
    "Large Increased Cold Res Bonus (PVP)",
    "Huge Increased Cold Res Bonus (PVP)",
    "Gargantuan Increased Cold Res Bonus (PVP)",
    "Ultimate Increased Cold Res Bonus (PVP)",
    "Tiny Increased Smashing Def Bonus (PVP)",
    "Small Increased Smashing Def Bonus (PVP)",
    "Moderate Increased Smashing Def Bonus (PVP)",
    "Large Increased Smashing Def Bonus (PVP)",
    "Huge Increased Smashing Def Bonus (PVP)",
    "Gargantuan Increased Smashing Def Bonus (PVP)",
    "Ultimate Increased Smashing Def Bonus (PVP)",
    "Tiny Increased Smashing Res Bonus (PVP)",
    "Small Increased Smashing Res Bonus (PVP)",
    "Moderate Increased Smashing Res Bonus (PVP)",
    "Large Increased Smashing Res Bonus (PVP)",
    "Huge Increased Smashing Res Bonus (PVP)",
    "Gargantuan Increased Smashing Res Bonus (PVP)",
    "Ultimate Increased Smashing Res Bonus (PVP)",
    "Tiny Increased Lethal Def Bonus (PVP)",
    "Small Increased Lethal Def Bonus (PVP)",
    "Moderate Increased Lethal Def Bonus (PVP)",
    "Large Increased Lethal Def Bonus (PVP)",
    "Huge Increased Lethal Def Bonus (PVP)",
    "Gargantuan Increased Lethal Def Bonus (PVP)",
    "Ultimate Increased Lethal Def Bonus (PVP)",
    "Tiny Increased Lethal Res Bonus (PVP)",
    "Small Increased Lethal Res Bonus (PVP)",
    "Moderate Increased Lethal Res Bonus (PVP)",
    "Large Increased Lethal Res Bonus (PVP)",
    "Huge Increased Lethal Res Bonus (PVP)",
    "Gargantuan Increased Lethal Res Bonus (PVP)",
    "Ultimate Increased Lethal Res Bonus (PVP)",
    "Tiny Increased Fire Def Bonus (PVP)",
    "Small Increased Fire Def Bonus (PVP)",
    "Moderate Increased Fire Def Bonus (PVP)",
    "Large Increased Fire Def Bonus (PVP)",
    "Huge Increased Fire Def Bonus (PVP)",
    "Gargantuan Increased Fire Def Bonus (PVP)",
    "Ultimate Increased Fire Def Bonus (PVP)",
    "Tiny Increased Fire Res Bonus (PVP)",
    "Small Increased Fire Res Bonus (PVP)",
    "Moderate Increased Fire Res Bonus (PVP)",
    "Large Increased Fire Res Bonus (PVP)",
    "Huge Increased Fire Res Bonus (PVP)",
    "Gargantuan Increased Fire Res Bonus (PVP)",
    "Ultimate Increased Fire Res Bonus (PVP)",
    "Tiny Increased Energy Def Bonus (PVP)",
    "Small Increased Energy Def Bonus (PVP)",
    "Moderate Increased Energy Def Bonus (PVP)",
    "Large Increased Energy Def Bonus (PVP)",
    "Huge Increased Energy Def Bonus (PVP)",
    "Gargantuan Increased Energy Def Bonus (PVP)",
    "Ultimate Increased Energy Def Bonus (PVP)",
    "Tiny Increased Energy Res Bonus (PVP)",
    "Small Increased Energy Res Bonus (PVP)",
    "Moderate Increased Energy Res Bonus (PVP)",
    "Large Increased Energy Res Bonus (PVP)",
    "Huge Increased Energy Res Bonus (PVP)",
    "Gargantuan Increased Energy Res Bonus (PVP)",
    "Ultimate Increased Energy Res Bonus (PVP)",
    "Tiny Increased Negative Energy Def Bonus (PVP)",
    "Small Increased Negative Energy Def Bonus (PVP)",
    "Moderate Increased Negative Energy Def Bonus (PVP)",
    "Large Increased Negative Energy Def Bonus (PVP)",
    "Huge Increased Negative Energy Def Bonus (PVP)",
    "Gargantuan Increased Negative Energy Def Bonus (PVP)",
    "Ultimate Increased Negative Energy Def Bonus (PVP)",
    "Tiny Increased Negative Energy Res Bonus (PVP)",
    "Small Increased Negative Energy Res Bonus (PVP)",
    "Moderate Increased Negative Energy Res Bonus (PVP)",
    "Large Increased Negative Energy Res Bonus (PVP)",
    "Huge Increased Negative Energy Res Bonus (PVP)",
    "Gargantuan Increased Negative Energy Res Bonus (PVP)",
    "Ultimate Increased Negative Energy Res Bonus (PVP)",
    "Tiny Energy and Neg Energy Def Bonus (PVP)",
    "Small Energy and Neg Energy Def Bonus (PVP)",
    "Moderate Energy and Neg Energy Def Bonus (PVP)",
    "Large Energy and Neg Energy Def Bonus (PVP)",
    "Huge Energy and Neg Energy Def Bonus (PVP)",
    "Gargantuan Energy and Neg Energy Def Bonus (PVP)",
    "Ultimate Energy and Neg Energy Def Bonus (PVP)",
    "Tiny Energy and Neg Energy Res Bonus (PVP)",
    "Small Energy and Neg Energy Res Bonus (PVP)",
    "Moderate Energy and Neg Energy Res Bonus (PVP)",
    "Large Energy and Neg Energy Res Bonus (PVP)",
    "Huge Energy and Neg Energy Res Bonus (PVP)",
    "Gargantuan Energy and Neg Energy Res Bonus (PVP)",
    "Ultimate Energy and Neg Energy Res Bonus (PVP)",
    "Tiny Increased Psionic Def Bonus (PVP)",
    "Small Increased Psionic Def Bonus (PVP)",
    "Moderate Increased Psionic Def Bonus (PVP)",
    "Large Increased Psionic Def Bonus (PVP)",
    "Huge Increased Psionic Def Bonus (PVP)",
    "Gargantuan Increased Psionic Def Bonus (PVP)",
    "Ultimate Increased Psionic Def Bonus (PVP)",
    "Tiny Increased Psionic Res Bonus (PVP)",
    "Small Increased Psionic Res Bonus (PVP)",
    "Moderate Increased Psionic Res Bonus (PVP)",
    "Large Increased Psionic Res Bonus (PVP)",
    "Huge Increased Psionic Res Bonus (PVP)",
    "Gargantuan Increased Psionic Res Bonus (PVP)",
    "Ultimate Increased Psionic Res Bonus (PVP)",
    "Tiny Increased Toxic Res Bonus (PVP)",
    "Small Increased Toxic Res Bonus (PVP)",
    "Moderate Increased Toxic Res Bonus (PVP)",
    "Large Increased Toxic Res Bonus (PVP)",
    "Huge Increased Toxic Res Bonus (PVP)",
    "Gargantuan Increased Toxic Res Bonus (PVP)",
    "Ultimate Increased Toxic Res Bonus (PVP)",
    "Tiny Fire and Cold Defense Bonus (PVP)",
    "Small Fire and Cold Defense Bonus (PVP)",
    "Moderate Fire and Cold Defense Bonus (PVP)",
    "Large Fire and Cold Defense Bonus (PVP)",
    "Huge Fire and Cold Defense Bonus (PVP)",
    "Gargantuan Fire and Cold Defense Bonus (PVP)",
    "Ultimate Fire and Cold Defense Bonus (PVP)",
    "Tiny Fire and Cold Resist Bonus (PVP)",
    "Small Fire and Cold Resist Bonus (PVP)",
    "Moderate Fire and Cold Resist Bonus (PVP)",
    "Large Fire and Cold Resist Bonus (PVP)",
    "Huge Fire and Cold Resist Bonus (PVP)",
    "Gargantuan Fire and Cold Resist Bonus (PVP)",
    "Ultimate Fire and Cold Resist Bonus (PVP)",
    "Tiny Smashing and Lethal Defense Bonus (PVP)",
    "Small Smashing and Lethal Defense Bonus (PVP)",
    "Moderate Smashing and Lethal Defense Bonus (PVP)",
    "Large Smashing and Lethal Defense Bonus (PVP)",
    "Huge Smashing and Lethal Defense Bonus (PVP)",
    "Gargantuan Smashing and Lethal Defense Bonus (PVP)",
    "Ultimate Smashing and Lethal Defense Bonus (PVP)",
    "Tiny Smashing and Lethal Resist Bonus (PVP)",
    "Small Smashing and Lethal Resist Bonus (PVP)",
    "Moderate Smashing and Lethal Resist Bonus (PVP)",
    "Large Smashing and Lethal Resist Bonus (PVP)",
    "Huge Smashing and Lethal Resist Bonus (PVP)",
    "Gargantuan Smashing and Lethal Resist Bonus (PVP)",
    "Ultimate Smashing and Lethal Resist Bonus (PVP)",
    "Tiny Toxic and Psionic Resist Bonus (PVP)",
    "Small Toxic and Psionic Resist Bonus (PVP)",
    "Moderate Toxic and Psionic Resist Bonus (PVP)",
    "Large Toxic and Psionic Resist Bonus (PVP)",
    "Huge Toxic and Psionic Resist Bonus (PVP)",
    "Gargantuan Toxic and Psionic Resist Bonus (PVP)",
    "Ultimate Toxic and Psionic Resist Bonus (PVP)",
    "Tiny Increased Damage Bonus (PVP)",
    "Small Increased Damage Bonus (PVP)",
    "Moderate Increased Damage Bonus (PVP)",
    "Large Increased Damage Bonus (PVP)",
    "Huge Increased Damage Bonus (PVP)",
    "Gargantuan Increased Damage Bonus (PVP)",
    "Ultimate Increased Damage Bonus (PVP)",
    "Tiny Increased Debt Prot Bonus (PVP)",
    "Small Increased Debt Prot Bonus (PVP)",
    "Moderate Increased Debt Prot Bonus (PVP)",
    "Large Increased Debt Prot Bonus (PVP)",
    "Huge Increased Debt Prot Bonus (PVP)",
    "Gargantuan Increased Debt Prot Bonus (PVP)",
    "Ultimate Increased Debt Prot Bonus (PVP)",
    "Tiny Improved Recharge Time Bonus (PVP)",
    "Small Improved Recharge Time Bonus (PVP)",
    "Moderate Improved Recharge Time Bonus (PVP)",
    "Large Improved Recharge Time Bonus (PVP)",
    "Huge Improved Recharge Time Bonus (PVP)",
    "Gargantuan Improved Recharge Time Bonus (PVP)",
    "Ultimate Improved Recharge Time Bonus (PVP)",
    "Tiny Improved Heal Bonus (PVP)",
    "Small Improved Heal Bonus (PVP)",
    "Moderate Improved Heal Bonus (PVP)",
    "Large Improved Heal Bonus (PVP)",
    "Huge Improved Heal Bonus (PVP)",
    "Gargantuan Improved Heal Bonus (PVP)",
    "Ultimate Improved Heal Bonus (PVP)",
    "Tiny Improved Knockback Bonus (PVP)",
    "Small Improved Knockback Bonus (PVP)",
    "Moderate Improved Knockback Bonus (PVP)",
    "Large Improved Knockback Bonus (PVP)",
    "Huge Improved Knockback Bonus (PVP)",
    "Gargantuan Improved Knockback Bonus (PVP)",
    "Ultimate Improved Knockback Bonus (PVP)",
    "Tiny Knockback Protection Bonus (PVP)",
    "Small Knockback Protection Bonus (PVP)",
    "Moderate Knockback Protection Bonus (PVP)",
    "Large Knockback Protection Bonus (PVP)",
    "Huge Knockback Protection Bonus (PVP)",
    "Gargantuan Knockback Protection Bonus (PVP)",
    "Ultimate Knockback Protection Bonus (PVP)",
    "Tiny Improved Recovery Bonus (PVP)",
    "Small Improved Recovery Bonus (PVP)",
    "Moderate Improved Recovery Bonus (PVP)",
    "Large Improved Recovery Bonus (PVP)",
    "Huge Improved Recovery Bonus (PVP)",
    "Gargantuan Improved Recovery Bonus (PVP)",
    "Ultimate Improved Recovery Bonus (PVP)",
    "Tiny Improved Regeneration Bonus (PVP)",
    "Small Improved Regeneration Bonus (PVP)",
    "Moderate Improved Regeneration Bonus (PVP)",
    "Large Improved Regeneration Bonus (PVP)",
    "Huge Improved Regeneration Bonus (PVP)",
    "Gargantuan Improved Regeneration Bonus (PVP)",
    "Ultimate Improved Regeneration Bonus (PVP)",
    "Tiny Improved Run Speed Bonus (PVP)",
    "Small Improved Run Speed Bonus (PVP)",
    "Moderate Improved Run Speed Bonus (PVP)",
    "Large Improved Run Speed Bonus (PVP)",
    "Huge Improved Run Speed Bonus (PVP)",
    "Gargantuan Improved Run Speed Bonus (PVP)",
    "Ultimate Improved Run Speed Bonus (PVP)",
    "Tiny Improved Flight Speed Bonus (PVP)",
    "Small Improved Flight Speed Bonus (PVP)",
    "Moderate Improved Flight Speed Bonus (PVP)",
    "Large Improved Flight Speed Bonus (PVP)",
    "Huge Improved Flight Speed Bonus (PVP)",
    "Gargantuan Improved Flight Speed Bonus (PVP)",
    "Ultimate Improved Flight Speed Bonus (PVP)",
    "Tiny Improved Jumping Bonus (PVP)",
    "Small Improved Jumping Bonus (PVP)",
    "Moderate Improved Jumping Bonus (PVP)",
    "Large Improved Jumping Bonus (PVP)",
    "Huge Improved Jumping Bonus (PVP)",
    "Gargantuan Improved Jumping Bonus (PVP)",
    "Ultimate Improved Jumping Bonus (PVP)",
    "Tiny Improved Slow Bonus (PVP)",
    "Small Improved Slow Bonus (PVP)",
    "Moderate Improved Slow Bonus (PVP)",
    "Large Improved Slow Bonus (PVP)",
    "Huge Improved Slow Bonus (PVP)",
    "Gargantuan Improved Slow Bonus (PVP)",
    "Ultimate Improved Slow Bonus (PVP)",
    "Tiny Improved Movement Bonus (PVP)",
    "Small Improved Movement Bonus (PVP)",
    "Moderate Improved Movement Bonus (PVP)",
    "Large Improved Movement Bonus (PVP)",
    "Huge Improved Movement Bonus (PVP)",
    "Gargantuan Improved Movement Bonus (PVP)",
    "Ultimate Improved Movement Bonus (PVP)",
    "Tiny Increased AoE/Fire/Cold Def Bonus (PVP)",
    "Small Increased AoE/Fire/Cold Def Bonus (PVP)",
    "Moderate Increased AoE/Fire/Cold Def Bonus (PVP)",
    "Large Increased AoE/Fire/Cold Def Bonus (PVP)",
    "Huge Increased AoE/Fire/Cold Def Bonus (PVP)",
    "Gargantuan Increased AoE/Fire/Cold Def Bonus (PVP)",
    "Ultimate Increased AoE/Fire/Cold Def Bonus (PVP)",
    "Tiny Increased Melee/Lethal/Smashing Def Bonus (PVP)",
    "Small Increased Melee/Lethal/Smashing Def Bonus (PVP)",
    "Moderate Increased Melee/Lethal/Smashing Def Bonus (PVP)",
    "Large Increased Melee/Lethal/Smashing Def Bonus (PVP)",
    "Huge Increased Melee/Lethal/Smashing Def Bonus (PVP)",
    "Gargantuan Increased Melee/Lethal/Smashing Def Bonus (PVP)",
    "Ultimate Increased Melee/Lethal/Smashing Def Bonus (PVP)",
    "Tiny Increased Ranged/Energy/Negative Energy Def Bonus (PVP)",
    "Small Increased Ranged/Energy/Negative Energy Def Bonus (PVP)",
    "Moderate Increased Ranged/Energy/Negative Energy Def Bonus (PVP)",
    "Large Increased Ranged/Energy/Negative Energy Def Bonus (PVP)",
    "Huge Increased Ranged/Energy/Negative Energy Def Bonus (PVP)",
    "Gargantuan Increased Ranged/Energy/Negative Energy Def Bonus (PVP)",
    "Ultimate Increased Ranged/Energy/Negative Energy Def Bonus (PVP)",
    "Tiny Increased Fire/Cold/AoE Def Bonus (PVP)",
    "Small Increased Fire/Cold/AoE Def Bonus (PVP)",
    "Moderate Increased Fire/Cold/AoE Def Bonus (PVP)",
    "Large Increased Fire/Cold/AoE Def Bonus (PVP)",
    "Huge Increased Fire/Cold/AoE Def Bonus (PVP)",
    "Gargantuan Increased Fire/Cold/AoE Def Bonus (PVP)",
    "Ultimate Increased Fire/Cold/AoE Def Bonus (PVP)",
    "Tiny Increased Lethal/Smashing/Melee Def Bonus (PVP)",
    "Small Increased Lethal/Smashing/Melee Def Bonus (PVP)",
    "Moderate Increased Lethal/Smashing/Melee Def Bonus (PVP)",
    "Large Increased Lethal/Smashing/Melee Def Bonus (PVP)",
    "Huge Increased Lethal/Smashing/Melee Def Bonus (PVP)",
    "Gargantuan Increased Lethal/Smashing/Melee Def Bonus (PVP)",
    "Ultimate Increased Lethal/Smashing/Melee Def Bonus (PVP)",
    "Tiny Increased Energy/Negative Energy/Ranged Def Bonus (PVP)",
    "Small Increased Energy/Negative Energy/Ranged Def Bonus (PVP)",
    "Moderate Increased Energy/Negative Energy/Ranged Def Bonus (PVP)",
    "Large Increased Energy/Negative Energy/Ranged Def Bonus (PVP)",
    "Huge Increased Energy/Negative Energy/Ranged Def Bonus (PVP)",
    "Gargantuan Increased Energy/Negative Energy/Ranged Def Bonus (PVP)",
    "Ultimate Increased Energy/Negative Energy/Ranged Def Bonus (PVP)",
    "Tiny Increased Repel Resistance (PVP)",
    "Moderate Increased Repel Resistance (PVP)",
    "Large Increased Repel Resistance (PVP)",
    "Huge Increased Repel Resistance (PVP)",
    "Ultimate Increased Repel Resistance (PVP)",
    "Tiny Increased Range (PVP)",
    "Small Increased Range (PVP)",
    "Moderate Increased Range (PVP)",
    "Large Increased Range (PVP)",
    "Huge Increased Range (PVP)",
    "Gargantuan Increased Range (PVP)",
    "Ultimate Increased Range (PVP)",
    "Tiny Slow Resist (PVP)",
    "Moderate Slow Resist (PVP)",
    "Large Slow Resist (PVP)",
    "Huge Slow Resist (PVP)",
    "Ultimate Slow Resist (PVP)",
    "Tiny Lethal, Smash and Mez Resistance",
    "Small Lethal, Smash and Mez Resistance",
    "Moderate Lethal, Smash and Mez Resistance",
    "Large Lethal, Smash and Mez Resistance",
    "Huge Lethal, Smash and Mez Resistance",
    "Gargantuan Lethal, Smash and Mez Resistance",
    "Ultimate Lethal, Smash and Mez Resistance",
    "Tiny Fire, Cold and Mez Resistance",
    "Small Fire, Cold and Mez Resistance",
    "Moderate Fire, Cold and Mez Resistance",
    "Large Fire, Cold and Mez Resistance",
    "Huge Fire, Cold and Mez Resistance",
    "Gargantuan Fire, Cold and Mez Resistance",
    "Ultimate Fire, Cold and Mez Resistance",
    "Tiny Energy, Negative Energy and Mez Resistance",
    "Small Energy, Negative Energy and Mez Resistance",
    "Moderate Energy, Negative Energy and Mez Resistance",
    "Large Energy, Negative Energy and Mez Resistance",
    "Huge Energy, Negative Energy and Mez Resistance",
    "Gargantuan Energy, Negative Energy and Mez Resistance",
    "Ultimate Energy, Negative Energy and Mez Resistance",
    "Tiny Toxic, Psionic and Mez Resistance",
    "Small Toxic, Psionic and Mez Resistance",
    "Moderate Toxic, Psionic and Mez Resistance",
    "Large Toxic, Psionic and Mez Resistance",
    "Huge Toxic, Psionic and Mez Resistance",
    "Gargantuan Toxic, Psionic and Mez Resistance",
    "Ultimate Toxic, Psionic and Mez Resistance",
    "Tiny Endurance Discount",
    "Small Endurance Discount",
    "Moderate Endurance Discount",
    "Large Endurance Discount",
    "Huge Endurance Discount",
    "Gargantuan Endurance Discount",
    "Ultimate Endurance Discount"
  ]
}