{
  "name": "CoV_Minion_Tommy_Gun",
  "display_name": "Tommy Gun",
  "display_fullname": "Family.Tommy Gun",
  "display_help": "The Family",
  "display_short_help": "The Family",
  "available_level": [
    0
  ],
  "source_file": "DEFS/POWERS/FAMILY/COV_MINION_TOMMY_GUN.POWERSETS",
  "requires": "",
  "power_names": [
    "Family.CoV_Minion_Tommy_Gun.Heavy_Burst"
  ],
  "power_display_names": [
    "Heavy Burst"
  ]
}