{
  "name": "Hydra_Gas",
  "display_name": "",
  "display_fullname": "HydraSewerTrial.Hydra Gas",
  "display_help": "BLAH",
  "display_short_help": "Obliteration Beam",
  "available_level": [
    0,
    0
  ],
  "source_file": "DEFS/POWERS/HYDRASEWERTRIAL/HYDRA_GAS.POWERSETS",
  "requires": "",
  "power_names": [
    "HydraSewerTrial.Hydra_Gas.Gas_Graphic_Entity",
    "HydraSewerTrial.Hydra_Gas.Gas"
  ],
  "power_display_names": [
    "Gas Graphic Entity",
    "Gas"
  ]
}