{
  "name": "Infernal_Demon_Spawn",
  "display_name": "Infernal Demon Spawn",
  "display_fullname": "Objects.Infernal Demon Spawn",
  "display_help": "Infernal",
  "display_short_help": "Infernal",
  "available_level": [
    0,
    0,
    0,
    0
  ],
  "source_file": "DEFS/POWERS/OBJECTS/INFERNAL_DEMON_SPAWN.POWERSETS",
  "requires": "",
  "power_names": [
    "Objects.Infernal_Demon_Spawn.Portal",
    "Objects.Infernal_Demon_Spawn.Resistance",
    "Objects.Infernal_Demon_Spawn.Fly",
    "Objects.Infernal_Demon_Spawn.Expel"
  ],
  "power_display_names": [
    "Portal",
    "Resistance",
    "Fly",
    "Expel"
  ]
}