{
  "name": "Shivan_Minion_Lt",
  "display_name": "Shivan Minion Lt",
  "display_fullname": "V Shivan.Shivan Minion Lt",
  "display_help": "Shivan",
  "display_short_help": "Shivan",
  "available_level": [
    0,
    0
  ],
  "source_file": "DEFS/POWERS/V_SHIVAN/SHIVAN_MINION_LT.POWERSETS",
  "requires": "",
  "power_names": [
    "V_Shivan.Shivan_Minion_Lt.Contaminated_Strike",
    "V_Shivan.Shivan_Minion_Lt.Neutrino_Bolt"
  ],
  "power_display_names": [
    "Contaminated Strike",
    "Neutrino Bolt"
  ]
}