{
  "name": "Anathema_Pariah_Boss_Ranged",
  "display_name": "Anathema_Pariah_Boss_Ranged",
  "display_fullname": "Rikti.Anathema Pariah Boss Ranged",
  "display_help": "The Lost",
  "display_short_help": "The Lost",
  "available_level": [
    0,
    0,
    0
  ],
  "source_file": "DEFS/POWERS/RIKTI/ANATHEMA_PARIAH_BOSS_RANGED.POWERSETS",
  "requires": "",
  "power_names": [
    "Rikti.Anathema_Pariah_Boss_Ranged.Mental_Blast",
    "Rikti.Anathema_Pariah_Boss_Ranged.Mesmerize",
    "Rikti.Anathema_Pariah_Boss_Ranged.Dominate"
  ],
  "power_display_names": [
    "Mental Blast",
    "Mesmerize",
    "Dominate"
  ]
}