{
  "name": "Magic_Range",
  "display_name": "Magic Range",
  "display_fullname": "Boosts.Magic Range",
  "display_help": "Enhances the range of a power.",
  "display_short_help": "Dimensional Entities (Magic)",
  "available_level": [
    0
  ],
  "source_file": "DEFS/POWERS/BOOSTS/MAGIC_RANGE.POWERSETS",
  "requires": "",
  "power_names": [
    "Boosts.Magic_Range.Magic_Range"
  ],
  "power_display_names": [
    "Extension of Joule (Range)"
  ]
}