{
  "name": "Attuned_Might_of_the_Tanker_A",
  "display_name": "Attuned Might of the Tanker A",
  "display_fullname": "Boosts.Attuned Might of the Tanker A",
  "display_help": "UNIQUE -- No more than 1 enhancement of this type may be slotted by a character. Enhances the damage of a power by {Boost.Attrib.Damage.Scale}% and accuracy by {Boost.Attrib.Accuracy.Scale}%. This enhancement can only be slotted by Tankers and may be slotted into any Tanker damage power.",
  "display_short_help": "Set: Might of the Tanker",
  "available_level": [
    0
  ],
  "source_file": "DEFS/POWERS/BOOSTS/ATTUNED_MIGHT_OF_THE_TANKER_A.POWERSETS",
  "requires": "",
  "power_names": [
    "Boosts.Attuned_Might_of_the_Tanker_A.Attuned_Might_of_the_Tanker_A"
  ],
  "power_display_names": [
    "Might of the Tanker: Accuracy/Damage"
  ]
}