{
  "name": "Extinction_War_Walker_Arrest_Mode",
  "display_name": "Extinction War Walker",
  "display_fullname": "PraetorianIDF.Extinction War Walker",
  "display_help": "Imperial Defense Force",
  "display_short_help": "Imperial Defense Force",
  "available_level": [
    0
  ],
  "source_file": "DEFS/POWERS/PRAETORIANIDF/EXTINCTION_WAR_WALKER_ARREST_MODE.POWERSETS",
  "requires": "",
  "power_names": [
    "PraetorianIDF.Extinction_War_Walker_Arrest_Mode.Arrest_Mode"
  ],
  "power_display_names": [
    "Arrest Mode"
  ]
}