{
  "name": "Crafted_Perfect_Zinger_D",
  "display_name": "Crafted Perfect Zinger D",
  "display_fullname": "Boosts.Crafted Perfect Zinger D",
  "display_help": "Enhances the accuracy of a power by {Boost.Attrib.Accuracy.Scale}% and reduces the recharge time of a power by {Boost.Attrib.RechargeTime.Scale}%.",
  "display_short_help": "Set: Perfect Zinger",
  "available_level": [
    0
  ],
  "source_file": "DEFS/POWERS/BOOSTS/CRAFTED_PERFECT_ZINGER_D.POWERSETS",
  "requires": "",
  "power_names": [
    "Boosts.Crafted_Perfect_Zinger_D.Crafted_Perfect_Zinger_D"
  ],
  "power_display_names": [
    "Perfect Zinger: Recharge/Accuracy"
  ]
}