{
  "name": "Circle_Greater_Behemoth_Defense",
  "display_name": "Circle_Greater_Behemoth_Defense",
  "display_fullname": "CircleOfThorns.Circle Greater Behemoth Defense",
  "display_help": "Circle of Thorns",
  "display_short_help": "Circle of Thorns",
  "available_level": [
    0,
    0
  ],
  "source_file": "DEFS/POWERS/CIRCLEOFTHORNS/CIRCLE_GREATER_BEHEMOTH_DEFENSE.POWERSETS",
  "requires": "",
  "power_names": [
    "CircleOfThorns.Circle_Greater_Behemoth_Defense.Healing_Flames",
    "CircleOfThorns.Circle_Greater_Behemoth_Defense.Resistance"
  ],
  "power_display_names": [
    "Healing Flames",
    "Resistance"
  ]
}