{
  "name": "Attuned_Sciroccos_Dervish_D",
  "display_name": "Attuned Sciroccos Dervish D",
  "display_fullname": "Boosts.Attuned Sciroccos Dervish D",
  "display_help": "Enhances the accuracy of a power by {Boost.Attrib.Accuracy.Scale}% and reduces recharge time by {Boost.Attrib.RechargeTime.Scale}%.",
  "display_short_help": "Set: Scirocco's Dervish",
  "available_level": [
    0
  ],
  "source_file": "DEFS/POWERS/BOOSTS/ATTUNED_SCIROCCOS_DERVISH_D.POWERSETS",
  "requires": "",
  "power_names": [
    "Boosts.Attuned_Sciroccos_Dervish_D.Attuned_Sciroccos_Dervish_D"
  ],
  "power_display_names": [
    "Scirocco's Dervish: Accuracy/Recharge"
  ]
}