{
  "name": "Eye_of_the_Storm",
  "display_name": "Eye_of_the_Storm",
  "display_fullname": "MindsOfMayhem.Eye of the Storm",
  "display_help": "Eye of the Storm",
  "display_short_help": "Eye of the Storm",
  "available_level": [
    0,
    0,
    0,
    0,
    0,
    0
  ],
  "source_file": "DEFS/POWERS/MINDSOFMAYHEM/EYE_OF_THE_STORM.POWERSETS",
  "requires": "",
  "power_names": [
    "MindsOfMayhem.Eye_of_the_Storm.Eye_FX",
    "MindsOfMayhem.Eye_of_the_Storm.Nexus_Cleanup",
    "MindsOfMayhem.Eye_of_the_Storm.Grant_Shock",
    "MindsOfMayhem.Eye_of_the_Storm.Shock_Penelope",
    "MindsOfMayhem.Eye_of_the_Storm.Suppress_Untouchable",
    "MindsOfMayhem.Eye_of_the_Storm.Suppress_Storm"
  ],
  "power_display_names": [
    "Eye FX",
    "Nexus Cleanup",
    "Grant Shock",
    "Shock Penelope",
    "Suppress Untouchable",
    "Suppress Storm"
  ]
}