{
  "name": "Attuned_Analyze_Weakness_A",
  "display_name": "Attuned Analyze Weakness A",
  "display_fullname": "Boosts.Attuned Analyze Weakness A",
  "display_help": "Enhances the defense debuff potential of a power by {Boost.Attrib.Defense.Scale}%. NOTE: This enhancement can only be slotted into defense debuff powers that require a To Hit check.",
  "display_short_help": "Set: Analyze Weakness",
  "available_level": [
    0
  ],
  "source_file": "DEFS/POWERS/BOOSTS/ATTUNED_ANALYZE_WEAKNESS_A.POWERSETS",
  "requires": "",
  "power_names": [
    "Boosts.Attuned_Analyze_Weakness_A.Attuned_Analyze_Weakness_A"
  ],
  "power_display_names": [
    "Analyze Weakness: Defense Debuff"
  ]
}