{
  "name": "Crafted_Defense_DeBuff_40",
  "display_name": "Crafted Defense DeBuff 40",
  "display_fullname": "Boosts.Crafted Defense DeBuff 40",
  "display_help": "Increases defense debuffs by {Boost.Attrib.Defense.Scale}%.",
  "display_short_help": "Invention",
  "available_level": [
    0
  ],
  "source_file": "DEFS/POWERS/BOOSTS/CRAFTED_DEFENSE_DEBUFF_40.POWERSETS",
  "requires": "",
  "power_names": [
    "Boosts.Crafted_Defense_DeBuff_40.Crafted_Defense_DeBuff_40"
  ],
  "power_display_names": [
    "Invention: Defense DeBuff"
  ]
}