{
  "name": "Crafted_Synapses_Shock_B",
  "display_name": "Synapses Shock B",
  "display_fullname": "Boosts.Crafted Synapses Shock B",
  "display_help": "Enhances damage by {Boost.Attrib.Damage.Scale}%. Increases recharge rate by {Boost.Attrib.RechargeTime.Scale}%.",
  "display_short_help": "Set: Synapse's Shock",
  "available_level": [
    0
  ],
  "source_file": "DEFS/POWERS/BOOSTS/CRAFTED_SYNAPSES_SHOCK_B.POWERSETS",
  "requires": "",
  "power_names": [
    "Boosts.Crafted_Synapses_Shock_B.Crafted_Synapses_Shock_B"
  ],
  "power_display_names": [
    "Synapse's Shock: Damage/Recharge"
  ]
}