{
  "name": "Attuned_Ascendency_of_the_Dominator_E",
  "display_name": "Attuned Ascendency of the Dominator E",
  "display_fullname": "Boosts.Attuned Ascendency of the Dominator E",
  "display_help": "UNIQUE -- No more than 1 enhancement of this type may be slotted by a character. Enhances the accuracy of a power by {Boost.Attrib.Accuracy.Scale}%, enhances the hold duration of a power by {Boost.Attrib.Mez.Scale}%, the hold duration by {Boost.Attrib.Mez.Scale}%, the immobilization duration by {Boost.Attrib.Mez.Scale}%, the sleep duration by {Boost.Attrib.Mez.Scale}%, the fear duration by {Boost.Attrib.Mez.Scale}% and the confuse duration by {Boost.Attrib.Mez.Scale}%, reduces endurance cost by {Boost.Attrib.Endurance.Scale}% and reduces recharge time by {Boost.Attrib.RechargeTime.Scale}%. This enhancement can only be slotted by Dominators and may be slotted into most control powers.",
  "display_short_help": "Set: Ascendency of the Dominator",
  "available_level": [
    0
  ],
  "source_file": "DEFS/POWERS/BOOSTS/ATTUNED_ASCENDENCY_OF_THE_DOMINATOR_E.POWERSETS",
  "requires": "",
  "power_names": [
    "Boosts.Attuned_Ascendency_of_the_Dominator_E.Attuned_Ascendency_of_the_Dominator_E"
  ],
  "power_display_names": [
    "Ascendancy of the Dominator: Accuracy/Control Duration/Endurance/Recharge"
  ]
}