{
  "name": "Crafted_Dark_Watchers_Despair_C",
  "display_name": "Crafted Dark Watchers Despair C",
  "display_fullname": "Boosts.Crafted Dark Watchers Despair C",
  "display_help": "Enhances the to hit debuff potential of a power by {Boost.Attrib.ToHit.Scale}%, reduces the endurance cost by {Boost.Attrib.Endurance.Scale}% and the recharge time of a power by {Boost.Attrib.RechargeTime.Scale}%.",
  "display_short_help": "Set: Dark Watcher's Despair",
  "available_level": [
    0
  ],
  "source_file": "DEFS/POWERS/BOOSTS/CRAFTED_DARK_WATCHERS_DESPAIR_C.POWERSETS",
  "requires": "",
  "power_names": [
    "Boosts.Crafted_Dark_Watchers_Despair_C.Crafted_Dark_Watchers_Despair_C"
  ],
  "power_display_names": [
    "Dark Watcher's Despair: To Hit Debuff/Recharge/Endurance Reduction"
  ]
}