{
  "name": "Grym_Powers",
  "display_name": "Grym's Powers",
  "display_fullname": "OnGoingTrainingCharacters.Grym's Powers",
  "display_help": "Wield a Broad Sword and master a variety of powerful Lethal attacks. Slower than a Katana, the Broad Sword's weight strikes with more force and damage. The Broadsword can reduce an enemy's Defense, allowing other attacks to hit more reliably. The Broad Sword is a powerful melee weapon that has a bonus to Accuracy. Like all scrapper powers, all Broad Sword attacks can sometimes land a critical hit for double damage.",
  "display_short_help": "Grym's Powers",
  "available_level": [
    0,
    0,
    0,
    9,
    0,
    15
  ],
  "source_file": "DEFS/POWERS/ONGOINGTRAININGCHARACTERS/GRYM_POWERS.POWERSETS",
  "requires": "",
  "power_names": [
    "OnGoingTrainingCharacters.Grym_Powers.Hack",
    "OnGoingTrainingCharacters.Grym_Powers.Slash",
    "OnGoingTrainingCharacters.Grym_Powers.Throwing_Knives",
    "OnGoingTrainingCharacters.Grym_Powers.Slice",
    "OnGoingTrainingCharacters.Grym_Powers.Fast_Healing",
    "OnGoingTrainingCharacters.Grym_Powers.Reconstruction"
  ],
  "power_display_names": [
    "Hack",
    "Slash",
    "Throwing Knives",
    "Slice",
    "Fast Healing",
    "Reconstruction"
  ]
}