{
  "name": "Attuned_Blistering_Cold_A",
  "display_name": "Attuned Blistering Cold A",
  "display_fullname": "Boosts.Attuned Blistering Cold A",
  "display_help": "UNIQUE -- No more than 1 enhancement of this type may be slotted by a character. Enhances the damage of a power by {Boost.Attrib.Damage.Scale}% and accuracy by {Boost.Attrib.Accuracy.Scale}%.",
  "display_short_help": "Set: Blistering Cold",
  "available_level": [
    0
  ],
  "source_file": "DEFS/POWERS/BOOSTS/ATTUNED_BLISTERING_COLD_A.POWERSETS",
  "requires": "",
  "power_names": [
    "Boosts.Attuned_Blistering_Cold_A.Attuned_Blistering_Cold_A"
  ],
  "power_display_names": [
    "Blistering Cold: Accuracy/Damage"
  ]
}