{
  "name": "Crafted_Knockback",
  "display_name": "Crafted Knockback 10",
  "display_fullname": "Boosts.Crafted Knockback",
  "display_help": "Increases knockback distance by {Boost.Attrib.Knock.Scale}%.",
  "display_short_help": "Invention",
  "available_level": [
    0
  ],
  "source_file": "DEFS/POWERS/BOOSTS/CRAFTED_KNOCKBACK.POWERSETS",
  "requires": "",
  "power_names": [
    "Boosts.Crafted_Knockback.Crafted_Knockback"
  ],
  "power_display_names": [
    "Invention: Knockback Distance"
  ]
}