{
  "name": "Attuned_Trap_of_the_Hunter_B",
  "display_name": "Attuned Trap of the Hunter B",
  "display_fullname": "Boosts.Attuned Trap of the Hunter B",
  "display_help": "Enhances the Immobilize duration of a power by {Boost.Attrib.Mez.Scale}% and reduces the endurance cost of a power by {Boost.Attrib.Endurance.Scale}%.",
  "display_short_help": "Set: Trap of the Hunter",
  "available_level": [
    0
  ],
  "source_file": "DEFS/POWERS/BOOSTS/ATTUNED_TRAP_OF_THE_HUNTER_B.POWERSETS",
  "requires": "",
  "power_names": [
    "Boosts.Attuned_Trap_of_the_Hunter_B.Attuned_Trap_of_the_Hunter_B"
  ],
  "power_display_names": [
    "Trap of the Hunter: Endurance/Immobilize"
  ]
}