{
  "name": "Lost_RiktiSword",
  "display_name": "Lost_RiktiSword",
  "display_fullname": "Rikti.Lost RiktiSword",
  "display_help": "The Lost",
  "display_short_help": "The Lost",
  "available_level": [
    0
  ],
  "source_file": "DEFS/POWERS/RIKTI/LOST_RIKTISWORD.POWERSETS",
  "requires": "",
  "power_names": [
    "Rikti.Lost_RiktiSword.Rikti_Sword"
  ],
  "power_display_names": [
    "Rikti Sword"
  ]
}