{
  "name": "SiphonPower",
  "display_name": "Siphon Power",
  "display_fullname": "Mission Maker Pets.Siphon Power",
  "display_help": "Kinetics",
  "display_short_help": "Kinetics",
  "available_level": [
    0
  ],
  "source_file": "DEFS/POWERS/MISSION_MAKER_PETS/SIPHONPOWER.POWERSETS",
  "requires": "",
  "power_names": [
    "Mission_Maker_Pets.SiphonPower.SiphonPower"
  ],
  "power_display_names": [
    "Siphon Power"
  ]
}