{
  "name": "Shadow_Field_Dominator",
  "display_name": "Shadow Field",
  "display_fullname": "Villain Pets.Shadow Field",
  "display_help": "Darkness Control",
  "display_short_help": "Darkness Control",
  "available_level": [
    0,
    0
  ],
  "source_file": "DEFS/POWERS/VILLAIN_PETS/SHADOW_FIELD_DOMINATOR.POWERSETS",
  "requires": "",
  "power_names": [
    "Villain_Pets.Shadow_Field_Dominator.Shadow_Field",
    "Villain_Pets.Shadow_Field_Dominator.Shadow_Field_Hold"
  ],
  "power_display_names": [
    "Shadow Field",
    "Shadow Field Hold"
  ]
}