{
  "name": "Antimatter_Pulse",
  "display_name": "Antimatter_Pulse",
  "display_fullname": "Objects.Antimatter Pulse",
  "display_help": "Map",
  "display_short_help": "Map",
  "available_level": [
    0,
    0,
    0,
    0,
    0,
    0,
    0,
    0
  ],
  "source_file": "DEFS/POWERS/OBJECTS/ANTIMATTER_PULSE.POWERSETS",
  "requires": "",
  "power_names": [
    "Objects.Antimatter_Pulse.AntimatterPulse",
    "Objects.Antimatter_Pulse.Annihilation",
    "Objects.Antimatter_Pulse.HealthWatcher",
    "Objects.Antimatter_Pulse.AntimatterPulseAM1",
    "Objects.Antimatter_Pulse.AntimatterPulseAM2",
    "Objects.Antimatter_Pulse.AntimatterPulseAM3",
    "Objects.Antimatter_Pulse.Entanglement",
    "Objects.Antimatter_Pulse.Devastation_Beam"
  ],
  "power_display_names": [
    "Antimatter Pulse",
    "Annihilation",
    "Health Watcher",
    "Antimatter Pulse",
    "Antimatter Pulse",
    "Antimatter Pulse",
    "Entanglement",
    "Obliteration Beam"
  ]
}