{
  "name": "Attuned_Blasters_Wrath_F",
  "display_name": "Attuned Blasters Wrath F",
  "display_fullname": "Boosts.Attuned Blasters Wrath F",
  "display_help": "UNIQUE -- No more than 1 enhancement of this type may be slotted by a character. Gives the slotted power a chance to inflict minor fire damage, and reduces the power's recharge time by {Boost.Attrib.RechargeTime.Scale}%. This enhancement's chance to trigger is equal to approximately 4 times per minute. This enhancement can only be slotted by Blasters and may be slotted into any Blaster damage power.",
  "display_short_help": "Set: Blaster's Wrath",
  "available_level": [
    0
  ],
  "source_file": "DEFS/POWERS/BOOSTS/ATTUNED_BLASTERS_WRATH_F.POWERSETS",
  "requires": "",
  "power_names": [
    "Boosts.Attuned_Blasters_Wrath_F.Attuned_Blasters_Wrath_F"
  ],
  "power_display_names": [
    "Blaster's Wrath: Recharge/Chance for Fire Damage"
  ]
}