{
  "name": "Freekshow_Blahpunk",
  "display_name": "Freekshow_Blahpunk",
  "display_fullname": "Freakshow.Freekshow Blahpunk",
  "display_help": "Freakshow",
  "display_short_help": "Freakshow",
  "available_level": [
    0,
    0,
    0
  ],
  "source_file": "DEFS/POWERS/FREAKSHOW/FREEKSHOW_BLAHPUNK.POWERSETS",
  "requires": "",
  "power_names": [
    "Freakshow.Freekshow_Blahpunk.Scream",
    "Freakshow.Freekshow_Blahpunk.Sonic_Siphon",
    "Freakshow.Freekshow_Blahpunk.Disruption_Field"
  ],
  "power_display_names": [
    "Scream",
    "Sonic Siphon",
    "Disruption Field"
  ]
}