{
  "name": "Crafted_Hold",
  "display_name": "Crafted Hold 10",
  "display_fullname": "Boosts.Crafted Hold",
  "display_help": "Increases hold duration by {Boost.Attrib.Mez.Scale}%.",
  "display_short_help": "Invention",
  "available_level": [
    0
  ],
  "source_file": "DEFS/POWERS/BOOSTS/CRAFTED_HOLD.POWERSETS",
  "requires": "",
  "power_names": [
    "Boosts.Crafted_Hold.Crafted_Hold"
  ],
  "power_display_names": [
    "Invention: Hold Duration"
  ]
}