{
  "name": "Serpents_Reach",
  "full_name": "Brute_Melee.Staff_Fighting.Serpents_Reach",
  "type": "Click",
  "display_name": "Serpent's Reach",
  "display_fullname": "Brute Melee.Staff Fighting.Serpent's Reach",
  "display_help": "You fully extend your staff and release a burst of energy to lash out at a distant target and deal High Smashing damage with a good chance to knock your target down. While a form is active, this power will build one level of Perfection.<br><br><color #fcfc95>Damage: Moderate.</color><br><color #fcfc95>Recharge: Moderate.</color>",
  "display_short_help": "Ranged, Moderate DMG(Smash), Foe Knockdown",
  "icon": "stafffighting_serpentsreach.png",
  "auto_issue": false,
  "auto_issue_keeps_level": false,
  "message_caster": null,
  "message_floater": null,
  "message_attacker_hit": null,
  "message_target_hit": null,
  "message_target_confirm": null,
  "message_float_reward": null,
  "message_defense_avoidance": null,
  "attack_types": [
    "Ranged",
    "Smashing"
  ],
  "requires": "",
  "activate_requires": "",
  "accuracy": 1.05,
  "number_allowed": 1,
  "caster_near_ground": false,
  "target_near_ground": false,
  "cast_when_dead": "AliveOnly",
  "cast_through": [

  ],
  "toggle_ignores": [

  ],
  "ignore_level_gained": false,
  "works_on_untouchable": false,
  "works_through_vision_phase": false,
  "target_untargetable": false,
  "interrupt_like_sleep": false,
  "notify_ai_when": "Always",
  "effect_area": "SingleTarget",
  "max_targets_hit": 0,
  "radius": 0.0,
  "arc": 0.0,
  "range": 40.0,
  "range_secondary": 0.0,
  "activation_time": 1.77,
  "root_time": 1.77,
  "interrupt_time": 0.0,
  "recharge_time": 9.0,
  "activate_period": 0.0,
  "endurance_cost": 9.36,
  "cancelable": false,
  "self_confirm": false,
  "confirm_requires": "",
  "time_to_confirm": 0,
  "chain_delay": 0.0,
  "chain_effect_expr": "",
  "chain_forks": [

  ],
  "chain_into_power_name": null,
  "vec_box_offset": [
    0.0,
    0.0,
    0.0
  ],
  "vec_box_size": [
    0.0,
    0.0,
    0.0
  ],
  "number_of_charges": 0,
  "max_num_charges": 0,
  "destroy_on_last_use": true,
  "power_lifetime": 0.0,
  "max_power_lifetime": 0.0,
  "power_lifetime_ingame": 0.0,
  "max_power_lifetime_ingame": 0.0,
  "stacking_lifetime": false,
  "toggle_on_time": 0.0,
  "max_toggle_on_time": 0.0,
  "toggle_detoggle_time": 0.0,
  "toggle_droppable": "Sometimes",
  "ignore_toggle_max_distance": false,
  "target_type": "Foe (Alive)",
  "target_type_secondary": null,
  "target_visibility": "LineOfSight",
  "targets_affected": [
    "Foe (Alive)"
  ],
  "targets_autohit": [

  ],
  "target_requires": "",
  "proc_allowed": "All",
  "boosts_allowed": [
    "Enhance Taunt",
    "Reduce Endurance Cost",
    "Enhance Range",
    "Enhance Recharge Speed",
    "Enhance KnockBack",
    "Enhance Damage",
    "Enhance Accuracy"
  ],
  "allowed_boostset_cats": [
    "Brute Archetype Sets",
    "Knockback",
    "Ranged Damage",
    "Taunt",
    "Universal Damage Sets"
  ],
  "exclusion_groups": [

  ],
  "modes_required": [

  ],
  "modes_disallowed": [
    "Disable_All"
  ],
  "recharge_groups": [

  ],
  "ignore_strength": false,
  "strengths_disallowed": [

  ],
  "global_strengths_disallowed": [

  ],
  "procs_only_on_main_target": false,
  "vars_attribmods_can_reference": [

  ],
  "show_buff_icon": true,
  "show_in_info": true,
  "show_in_manage": true,
  "show_in_inventory": "Show",
  "deletable": false,
  "tradeable": false,
  "do_not_save": false,
  "max_boosts": 6,
  "ignore_level_differences": false,
  "ignore_exemplar_for_bonuses": false,
  "boost_combinable": true,
  "boost_tradeable": true,
  "boost_account_bound": false,
  "boost_boostable": false,
  "boost_use_player_level": false,
  "boost_catalyzable": null,
  "boost_store_product": null,
  "boost_min_slot_level": -3,
  "boost_max_level": 50,
  "instance_locked": false,
  "is_environment_hit": false,
  "shuffle_target_list": false,
  "enforced_level_bought": -1,
  "refreshes_on_active_player_change": false,
  "highlight_expression": "",
  "highlight_icon": null,
  "highlight_color": "#00000000",
  "travel_suppression_time": 1.0,
  "server_tray_priority": 0,
  "server_tray_requires": "",
  "abusive_buff": true,
  "position_center": "kModTarget_Caster",
  "position_distance": 0.0,
  "position_height": 0.0,
  "position_yaw": 0.0,
  "face_target": true,
  "attrib_cache": [
    "Smashing_Dmg",
    "Fire_Dmg",
    "Knockback",
    "Grant_Power",
    "Revoke_Power"
  ],
  "max_targets_expression": "",
  "chain_target_expr": "",
  "powerset": "Brute_Melee.Staff_Fighting",
  "available_level": 17,
  "archetypes": [
    "brute"
  ],
  "redirect": [

  ],
  "effects": [
    {
      "tags": [

      ],
      "chance": 1.0,
      "ppm": 0.0,
      "delay": 0.0,
      "radius_inner": -1.0,
      "radius_outer": -1.0,
      "requires_expression": "target>enttype eq 'critter'",
      "flags": [

      ],
      "eval_flags": 0,
      "child_effects": [

      ],
      "templates": [
        {
          "attribs": [
            "Smashing_Dmg"
          ],
          "type": "Magnitude",
          "application_type": "OnTick",
          "aspect": "Absolute",
          "target": "AnyAffected",
          "table": "Melee_Damage",
          "scale": 1.8,
          "duration": "0 seconds",
          "magnitude": 1.0,
          "delay": 0.0,
          "duration_expression": "",
          "magnitude_expression": "",
          "application_period": 0.0,
          "tick_chance": 1.0,
          "jit_requires": "",
          "caster_stack": "Individual",
          "stack": "Stack",
          "stack_limit": 2,
          "stack_key": null,
          "cancel_events": [

          ],
          "boost_mod_allowed": "Science_Boost",
          "flags": [
            "ResistMagnitude (7)",
            "CombatModMagnitude (9)"
          ],
          "mode_name": null,
          "target_info": null,
          "messages": {
            "display_attacker_hit": "You hit {PlayerDest} with your {PowerName} for {Damage} points of Smashing damage.",
            "display_victim_hit": "{PlayerSource} hits you with their {PowerName} for {Damage} points of Smashing damage.",
            "display_float": null,
            "display_defense_float": null
          },
          "suppress_events": [

          ],
          "params": null,
          "fx": null
        }
      ],
      "is_pvp": "EITHER"
    },
    {
      "tags": [

      ],
      "chance": 1.0,
      "ppm": 0.0,
      "delay": 0.0,
      "radius_inner": -1.0,
      "radius_outer": -1.0,
      "requires_expression": "target>enttype eq 'player'",
      "flags": [

      ],
      "eval_flags": 0,
      "child_effects": [

      ],
      "templates": [
        {
          "attribs": [
            "Smashing_Dmg"
          ],
          "type": "Magnitude",
          "application_type": "OnTick",
          "aspect": "Absolute",
          "target": "AnyAffected",
          "table": "Melee_PvPDamage",
          "scale": 1.9989,
          "duration": "0 seconds",
          "magnitude": 1.0,
          "delay": 0.0,
          "duration_expression": "",
          "magnitude_expression": "",
          "application_period": 0.0,
          "tick_chance": 1.0,
          "jit_requires": "",
          "caster_stack": "Individual",
          "stack": "Stack",
          "stack_limit": 2,
          "stack_key": null,
          "cancel_events": [

          ],
          "boost_mod_allowed": "Science_Boost",
          "flags": [
            "ResistMagnitude (7)",
            "CombatModMagnitude (9)"
          ],
          "mode_name": null,
          "target_info": null,
          "messages": {
            "display_attacker_hit": "You hit {PlayerDest} with your {PowerName} for {Damage} points of Smashing damage.",
            "display_victim_hit": "{PlayerSource} hits you with their {PowerName} for {Damage} points of Smashing damage.",
            "display_float": null,
            "display_defense_float": null
          },
          "suppress_events": [

          ],
          "params": null,
          "fx": null
        }
      ],
      "is_pvp": "EITHER"
    },
    {
      "tags": [
        "FieryEmbrace"
      ],
      "chance": 0.0,
      "ppm": 0.0,
      "delay": 0.0,
      "radius_inner": -1.0,
      "radius_outer": -1.0,
      "requires_expression": "",
      "flags": [

      ],
      "eval_flags": 0,
      "child_effects": [

      ],
      "templates": [
        {
          "attribs": [
            "Fire_Dmg"
          ],
          "type": "Magnitude",
          "application_type": "OnTick",
          "aspect": "Absolute",
          "target": "AnyAffected",
          "table": "Melee_Damage",
          "scale": 0.81,
          "duration": "0 seconds",
          "magnitude": 1.0,
          "delay": 0.0,
          "duration_expression": "",
          "magnitude_expression": "",
          "application_period": 0.0,
          "tick_chance": 1.0,
          "jit_requires": "",
          "caster_stack": "Individual",
          "stack": "Stack",
          "stack_limit": 2,
          "stack_key": null,
          "cancel_events": [

          ],
          "boost_mod_allowed": "Science_Boost",
          "flags": [
            "ResistMagnitude (7)",
            "CombatModMagnitude (9)"
          ],
          "mode_name": null,
          "target_info": null,
          "messages": {
            "display_attacker_hit": "You hit {PlayerDest} with your {PowerName} for {Damage} points of Fire damage.",
            "display_victim_hit": "{PlayerSource} hits you with their {PowerName} for {Damage} points of Fire damage.",
            "display_float": null,
            "display_defense_float": null
          },
          "suppress_events": [

          ],
          "params": null,
          "fx": {
            "continuing_bits": [

            ],
            "continuing_fx": "POWERS/FIRECONTROL/CINDERSHIT.FX",
            "conditional_bits": [

            ],
            "conditional_fx": null
          }
        }
      ],
      "is_pvp": "EITHER"
    },
    {
      "tags": [

      ],
      "chance": 0.8,
      "ppm": 0.0,
      "delay": 0.0,
      "radius_inner": -1.0,
      "radius_outer": -1.0,
      "requires_expression": "target>enttype eq 'critter'",
      "flags": [

      ],
      "eval_flags": 0,
      "child_effects": [

      ],
      "templates": [
        {
          "attribs": [
            "Knockback"
          ],
          "type": "Magnitude",
          "application_type": "OnTick",
          "aspect": "Current",
          "target": "AnyAffected",
          "table": "Melee_Ones",
          "scale": 0.67,
          "duration": "0 seconds",
          "magnitude": 1.0,
          "delay": 0.0,
          "duration_expression": "",
          "magnitude_expression": "",
          "application_period": 0.0,
          "tick_chance": 1.0,
          "jit_requires": "",
          "caster_stack": "Individual",
          "stack": "Stack",
          "stack_limit": 2,
          "stack_key": null,
          "cancel_events": [

          ],
          "boost_mod_allowed": "Science_Boost",
          "flags": [
            "ResistMagnitude (7)",
            "CombatModMagnitude (9)"
          ],
          "mode_name": null,
          "target_info": null,
          "messages": {
            "display_attacker_hit": "You knock {PlayerDest} off their feet with your {PowerName}!",
            "display_victim_hit": "{PlayerSource} knocks you off your feet with their {PowerName}!",
            "display_float": null,
            "display_defense_float": null
          },
          "suppress_events": [

          ],
          "params": null,
          "fx": null
        }
      ],
      "is_pvp": "EITHER"
    },
    {
      "tags": [

      ],
      "chance": 0.8,
      "ppm": 0.0,
      "delay": 0.0,
      "radius_inner": -1.0,
      "radius_outer": -1.0,
      "requires_expression": "target>enttype eq 'player'",
      "flags": [

      ],
      "eval_flags": 0,
      "child_effects": [

      ],
      "templates": [
        {
          "attribs": [
            "Knockback"
          ],
          "type": "Magnitude",
          "application_type": "OnTick",
          "aspect": "Current",
          "target": "AnyAffected",
          "table": "Melee_Ones",
          "scale": 0.67,
          "duration": "0 seconds",
          "magnitude": 1.0,
          "delay": 0.0,
          "duration_expression": "",
          "magnitude_expression": "",
          "application_period": 0.0,
          "tick_chance": 1.0,
          "jit_requires": "",
          "caster_stack": "Individual",
          "stack": "Stack",
          "stack_limit": 2,
          "stack_key": null,
          "cancel_events": [

          ],
          "boost_mod_allowed": "Science_Boost",
          "flags": [
            "ResistMagnitude (7)",
            "CombatModMagnitude (9)"
          ],
          "mode_name": null,
          "target_info": null,
          "messages": {
            "display_attacker_hit": "You knock {PlayerDest} off their feet with your {PowerName}!",
            "display_victim_hit": "{PlayerSource} knocks you off your feet with their {PowerName}!",
            "display_float": null,
            "display_defense_float": null
          },
          "suppress_events": [
            {
              "event": "Knocked",
              "post_event_delay": 10,
              "always_suppress": false
            }
          ],
          "params": null,
          "fx": null
        }
      ],
      "is_pvp": "EITHER"
    },
    {
      "tags": [
        "PerfectionofBody"
      ],
      "chance": 0.0,
      "ppm": 0.0,
      "delay": 0.0,
      "radius_inner": -1.0,
      "radius_outer": -1.0,
      "requires_expression": "!source.ownPower?(Temporary_Powers.Temporary_Powers.Perfection_of_Body_Level_1) && !source.ownPower?(Temporary_Powers.Temporary_Powers.Perfection_of_Body_Level_2) && !source.ownPower?(Temporary_Powers.Temporary_Powers.Perfection_of_Body_Level_3)",
      "flags": [

      ],
      "eval_flags": 0,
      "child_effects": [

      ],
      "templates": [
        {
          "attribs": [
            "Grant_Power"
          ],
          "type": "Magnitude",
          "application_type": "OnTick",
          "aspect": "Absolute",
          "target": "Self",
          "table": "Melee_Ones",
          "scale": 1.0,
          "duration": "0 seconds",
          "magnitude": 1.0,
          "delay": 0.0,
          "duration_expression": "",
          "magnitude_expression": "",
          "application_period": 0.0,
          "tick_chance": 1.0,
          "jit_requires": "",
          "caster_stack": "Individual",
          "stack": "Ignore",
          "stack_limit": 2,
          "stack_key": null,
          "cancel_events": [

          ],
          "boost_mod_allowed": "Science_Boost",
          "flags": [
            "IgnoreStrength (4)",
            "IgnoreResistance (5)",
            "CombatModMagnitude (9)"
          ],
          "mode_name": null,
          "target_info": null,
          "messages": {
            "display_attacker_hit": "You boost your Perfection of Body to level 1!",
            "display_victim_hit": null,
            "display_float": null,
            "display_defense_float": null
          },
          "suppress_events": [

          ],
          "params": {
            "type": "Power",
            "count": 1,
            "category_names": [

            ],
            "powerset_names": [

            ],
            "power_names": [
              "Temporary_Powers.Temporary_Powers.Perfection_of_Body_Level_1"
            ]
          },
          "fx": null
        }
      ],
      "is_pvp": "EITHER"
    },
    {
      "tags": [
        "PerfectionofBody"
      ],
      "chance": 0.0,
      "ppm": 0.0,
      "delay": 0.0,
      "radius_inner": -1.0,
      "radius_outer": -1.0,
      "requires_expression": "source.ownPower?(Temporary_Powers.Temporary_Powers.Perfection_of_Body_Level_1)",
      "flags": [

      ],
      "eval_flags": 0,
      "child_effects": [

      ],
      "templates": [
        {
          "attribs": [
            "Grant_Power"
          ],
          "type": "Magnitude",
          "application_type": "OnTick",
          "aspect": "Absolute",
          "target": "Self",
          "table": "Melee_Ones",
          "scale": 1.0,
          "duration": "0 seconds",
          "magnitude": 1.0,
          "delay": 0.0,
          "duration_expression": "",
          "magnitude_expression": "",
          "application_period": 0.0,
          "tick_chance": 1.0,
          "jit_requires": "",
          "caster_stack": "Individual",
          "stack": "Ignore",
          "stack_limit": 2,
          "stack_key": null,
          "cancel_events": [

          ],
          "boost_mod_allowed": "Science_Boost",
          "flags": [
            "IgnoreStrength (4)",
            "IgnoreResistance (5)",
            "CombatModMagnitude (9)"
          ],
          "mode_name": null,
          "target_info": null,
          "messages": {
            "display_attacker_hit": "You boost your Perfection of Body to level 2!",
            "display_victim_hit": null,
            "display_float": null,
            "display_defense_float": null
          },
          "suppress_events": [

          ],
          "params": {
            "type": "Power",
            "count": 1,
            "category_names": [

            ],
            "powerset_names": [

            ],
            "power_names": [
              "Temporary_Powers.Temporary_Powers.Perfection_of_Body_Level_2"
            ]
          },
          "fx": null
        },
        {
          "attribs": [
            "Revoke_Power"
          ],
          "type": "Magnitude",
          "application_type": "OnTick",
          "aspect": "Absolute",
          "target": "Self",
          "table": "Melee_Ones",
          "scale": 1.0,
          "duration": "0 seconds",
          "magnitude": 1.0,
          "delay": 0.0,
          "duration_expression": "",
          "magnitude_expression": "",
          "application_period": 0.0,
          "tick_chance": 1.0,
          "jit_requires": "",
          "caster_stack": "Individual",
          "stack": "Ignore",
          "stack_limit": 2,
          "stack_key": null,
          "cancel_events": [

          ],
          "boost_mod_allowed": "Science_Boost",
          "flags": [
            "IgnoreStrength (4)",
            "IgnoreResistance (5)",
            "CombatModMagnitude (9)"
          ],
          "mode_name": null,
          "target_info": null,
          "messages": null,
          "suppress_events": [

          ],
          "params": {
            "type": "Power",
            "count": 1,
            "category_names": [

            ],
            "powerset_names": [

            ],
            "power_names": [
              "Temporary_Powers.Temporary_Powers.Perfection_of_Body_Level_1"
            ]
          },
          "fx": null
        }
      ],
      "is_pvp": "EITHER"
    },
    {
      "tags": [
        "PerfectionofBody"
      ],
      "chance": 0.0,
      "ppm": 0.0,
      "delay": 0.0,
      "radius_inner": -1.0,
      "radius_outer": -1.0,
      "requires_expression": "source.ownPower?(Temporary_Powers.Temporary_Powers.Perfection_of_Body_Level_2) || source.ownPower?(Temporary_Powers.Temporary_Powers.Perfection_of_Body_Level_3)",
      "flags": [

      ],
      "eval_flags": 0,
      "child_effects": [

      ],
      "templates": [
        {
          "attribs": [
            "Grant_Power"
          ],
          "type": "Magnitude",
          "application_type": "OnTick",
          "aspect": "Absolute",
          "target": "Self",
          "table": "Melee_Ones",
          "scale": 1.0,
          "duration": "0 seconds",
          "magnitude": 1.0,
          "delay": 0.0,
          "duration_expression": "",
          "magnitude_expression": "",
          "application_period": 0.0,
          "tick_chance": 1.0,
          "jit_requires": "",
          "caster_stack": "Individual",
          "stack": "Ignore",
          "stack_limit": 2,
          "stack_key": null,
          "cancel_events": [

          ],
          "boost_mod_allowed": "Science_Boost",
          "flags": [
            "IgnoreStrength (4)",
            "IgnoreResistance (5)",
            "CombatModMagnitude (9)"
          ],
          "mode_name": null,
          "target_info": null,
          "messages": {
            "display_attacker_hit": "You boost your Perfection of Body to level 3!",
            "display_victim_hit": null,
            "display_float": null,
            "display_defense_float": null
          },
          "suppress_events": [

          ],
          "params": {
            "type": "Power",
            "count": 1,
            "category_names": [

            ],
            "powerset_names": [

            ],
            "power_names": [
              "Temporary_Powers.Temporary_Powers.Perfection_of_Body_Level_3"
            ]
          },
          "fx": null
        }
      ],
      "is_pvp": "EITHER"
    },
    {
      "tags": [
        "PerfectionofBody"
      ],
      "chance": 0.0,
      "ppm": 0.0,
      "delay": 0.0,
      "radius_inner": -1.0,
      "radius_outer": -1.0,
      "requires_expression": "source.ownPower?(Temporary_Powers.Temporary_Powers.Perfection_of_Body_Level_2)",
      "flags": [

      ],
      "eval_flags": 0,
      "child_effects": [

      ],
      "templates": [
        {
          "attribs": [
            "Revoke_Power"
          ],
          "type": "Magnitude",
          "application_type": "OnTick",
          "aspect": "Absolute",
          "target": "Self",
          "table": "Melee_Ones",
          "scale": 1.0,
          "duration": "0 seconds",
          "magnitude": 1.0,
          "delay": 0.0,
          "duration_expression": "",
          "magnitude_expression": "",
          "application_period": 0.0,
          "tick_chance": 1.0,
          "jit_requires": "",
          "caster_stack": "Individual",
          "stack": "Ignore",
          "stack_limit": 2,
          "stack_key": null,
          "cancel_events": [

          ],
          "boost_mod_allowed": "Science_Boost",
          "flags": [
            "IgnoreStrength (4)",
            "IgnoreResistance (5)",
            "CombatModMagnitude (9)"
          ],
          "mode_name": null,
          "target_info": null,
          "messages": null,
          "suppress_events": [

          ],
          "params": {
            "type": "Power",
            "count": 1,
            "category_names": [

            ],
            "powerset_names": [

            ],
            "power_names": [
              "Temporary_Powers.Temporary_Powers.Perfection_of_Body_Level_2"
            ]
          },
          "fx": null
        }
      ],
      "is_pvp": "EITHER"
    },
    {
      "tags": [
        "PerfectionofMind"
      ],
      "chance": 0.0,
      "ppm": 0.0,
      "delay": 0.0,
      "radius_inner": -1.0,
      "radius_outer": -1.0,
      "requires_expression": "!source.ownPower?(Temporary_Powers.Temporary_Powers.Perfection_of_Mind_Level_1) && !source.ownPower?(Temporary_Powers.Temporary_Powers.Perfection_of_Mind_Level_2) && !source.ownPower?(Temporary_Powers.Temporary_Powers.Perfection_of_Mind_Level_3)",
      "flags": [

      ],
      "eval_flags": 0,
      "child_effects": [

      ],
      "templates": [
        {
          "attribs": [
            "Grant_Power"
          ],
          "type": "Magnitude",
          "application_type": "OnTick",
          "aspect": "Absolute",
          "target": "Self",
          "table": "Melee_Ones",
          "scale": 1.0,
          "duration": "0 seconds",
          "magnitude": 1.0,
          "delay": 0.0,
          "duration_expression": "",
          "magnitude_expression": "",
          "application_period": 0.0,
          "tick_chance": 1.0,
          "jit_requires": "",
          "caster_stack": "Individual",
          "stack": "Ignore",
          "stack_limit": 2,
          "stack_key": null,
          "cancel_events": [

          ],
          "boost_mod_allowed": "Science_Boost",
          "flags": [
            "IgnoreStrength (4)",
            "IgnoreResistance (5)",
            "CombatModMagnitude (9)"
          ],
          "mode_name": null,
          "target_info": null,
          "messages": {
            "display_attacker_hit": "You boost your Perfection of Mind to level 1!",
            "display_victim_hit": null,
            "display_float": null,
            "display_defense_float": null
          },
          "suppress_events": [

          ],
          "params": {
            "type": "Power",
            "count": 1,
            "category_names": [

            ],
            "powerset_names": [

            ],
            "power_names": [
              "Temporary_Powers.Temporary_Powers.Perfection_of_Mind_Level_1"
            ]
          },
          "fx": null
        }
      ],
      "is_pvp": "EITHER"
    },
    {
      "tags": [
        "PerfectionofMind"
      ],
      "chance": 0.0,
      "ppm": 0.0,
      "delay": 0.0,
      "radius_inner": -1.0,
      "radius_outer": -1.0,
      "requires_expression": "source.ownPower?(Temporary_Powers.Temporary_Powers.Perfection_of_Mind_Level_1)",
      "flags": [

      ],
      "eval_flags": 0,
      "child_effects": [

      ],
      "templates": [
        {
          "attribs": [
            "Grant_Power"
          ],
          "type": "Magnitude",
          "application_type": "OnTick",
          "aspect": "Absolute",
          "target": "Self",
          "table": "Melee_Ones",
          "scale": 1.0,
          "duration": "0 seconds",
          "magnitude": 1.0,
          "delay": 0.0,
          "duration_expression": "",
          "magnitude_expression": "",
          "application_period": 0.0,
          "tick_chance": 1.0,
          "jit_requires": "",
          "caster_stack": "Individual",
          "stack": "Ignore",
          "stack_limit": 2,
          "stack_key": null,
          "cancel_events": [

          ],
          "boost_mod_allowed": "Science_Boost",
          "flags": [
            "IgnoreStrength (4)",
            "IgnoreResistance (5)",
            "CombatModMagnitude (9)"
          ],
          "mode_name": null,
          "target_info": null,
          "messages": {
            "display_attacker_hit": "You boost your Perfection of Mind to level 2!",
            "display_victim_hit": null,
            "display_float": null,
            "display_defense_float": null
          },
          "suppress_events": [

          ],
          "params": {
            "type": "Power",
            "count": 1,
            "category_names": [

            ],
            "powerset_names": [

            ],
            "power_names": [
              "Temporary_Powers.Temporary_Powers.Perfection_of_Mind_Level_2"
            ]
          },
          "fx": null
        },
        {
          "attribs": [
            "Revoke_Power"
          ],
          "type": "Magnitude",
          "application_type": "OnTick",
          "aspect": "Absolute",
          "target": "Self",
          "table": "Melee_Ones",
          "scale": 1.0,
          "duration": "0 seconds",
          "magnitude": 1.0,
          "delay": 0.0,
          "duration_expression": "",
          "magnitude_expression": "",
          "application_period": 0.0,
          "tick_chance": 1.0,
          "jit_requires": "",
          "caster_stack": "Individual",
          "stack": "Ignore",
          "stack_limit": 2,
          "stack_key": null,
          "cancel_events": [

          ],
          "boost_mod_allowed": "Science_Boost",
          "flags": [
            "IgnoreStrength (4)",
            "IgnoreResistance (5)",
            "CombatModMagnitude (9)"
          ],
          "mode_name": null,
          "target_info": null,
          "messages": null,
          "suppress_events": [

          ],
          "params": {
            "type": "Power",
            "count": 1,
            "category_names": [

            ],
            "powerset_names": [

            ],
            "power_names": [
              "Temporary_Powers.Temporary_Powers.Perfection_of_Mind_Level_1"
            ]
          },
          "fx": null
        }
      ],
      "is_pvp": "EITHER"
    },
    {
      "tags": [
        "PerfectionofMind"
      ],
      "chance": 0.0,
      "ppm": 0.0,
      "delay": 0.0,
      "radius_inner": -1.0,
      "radius_outer": -1.0,
      "requires_expression": "source.ownPower?(Temporary_Powers.Temporary_Powers.Perfection_of_Mind_Level_2) || source.ownPower?(Temporary_Powers.Temporary_Powers.Perfection_of_Mind_Level_3)",
      "flags": [

      ],
      "eval_flags": 0,
      "child_effects": [

      ],
      "templates": [
        {
          "attribs": [
            "Grant_Power"
          ],
          "type": "Magnitude",
          "application_type": "OnTick",
          "aspect": "Absolute",
          "target": "Self",
          "table": "Melee_Ones",
          "scale": 1.0,
          "duration": "0 seconds",
          "magnitude": 1.0,
          "delay": 0.0,
          "duration_expression": "",
          "magnitude_expression": "",
          "application_period": 0.0,
          "tick_chance": 1.0,
          "jit_requires": "",
          "caster_stack": "Individual",
          "stack": "Ignore",
          "stack_limit": 2,
          "stack_key": null,
          "cancel_events": [

          ],
          "boost_mod_allowed": "Science_Boost",
          "flags": [
            "IgnoreStrength (4)",
            "IgnoreResistance (5)",
            "CombatModMagnitude (9)"
          ],
          "mode_name": null,
          "target_info": null,
          "messages": {
            "display_attacker_hit": "You boost your Perfection of Mind to level 3!",
            "display_victim_hit": null,
            "display_float": null,
            "display_defense_float": null
          },
          "suppress_events": [

          ],
          "params": {
            "type": "Power",
            "count": 1,
            "category_names": [

            ],
            "powerset_names": [

            ],
            "power_names": [
              "Temporary_Powers.Temporary_Powers.Perfection_of_Mind_Level_3"
            ]
          },
          "fx": null
        }
      ],
      "is_pvp": "EITHER"
    },
    {
      "tags": [
        "PerfectionofMind"
      ],
      "chance": 0.0,
      "ppm": 0.0,
      "delay": 0.0,
      "radius_inner": -1.0,
      "radius_outer": -1.0,
      "requires_expression": "source.ownPower?(Temporary_Powers.Temporary_Powers.Perfection_of_Mind_Level_2)",
      "flags": [

      ],
      "eval_flags": 0,
      "child_effects": [

      ],
      "templates": [
        {
          "attribs": [
            "Revoke_Power"
          ],
          "type": "Magnitude",
          "application_type": "OnTick",
          "aspect": "Absolute",
          "target": "Self",
          "table": "Melee_Ones",
          "scale": 1.0,
          "duration": "0 seconds",
          "magnitude": 1.0,
          "delay": 0.0,
          "duration_expression": "",
          "magnitude_expression": "",
          "application_period": 0.0,
          "tick_chance": 1.0,
          "jit_requires": "",
          "caster_stack": "Individual",
          "stack": "Ignore",
          "stack_limit": 2,
          "stack_key": null,
          "cancel_events": [

          ],
          "boost_mod_allowed": "Science_Boost",
          "flags": [
            "IgnoreStrength (4)",
            "IgnoreResistance (5)",
            "CombatModMagnitude (9)"
          ],
          "mode_name": null,
          "target_info": null,
          "messages": null,
          "suppress_events": [

          ],
          "params": {
            "type": "Power",
            "count": 1,
            "category_names": [

            ],
            "powerset_names": [

            ],
            "power_names": [
              "Temporary_Powers.Temporary_Powers.Perfection_of_Mind_Level_2"
            ]
          },
          "fx": null
        }
      ],
      "is_pvp": "EITHER"
    },
    {
      "tags": [
        "PerfectionofSoul"
      ],
      "chance": 0.0,
      "ppm": 0.0,
      "delay": 0.0,
      "radius_inner": -1.0,
      "radius_outer": -1.0,
      "requires_expression": "!source.ownPower?(Temporary_Powers.Temporary_Powers.Perfection_of_Soul_Level_1) && !source.ownPower?(Temporary_Powers.Temporary_Powers.Perfection_of_Soul_Level_2) && !source.ownPower?(Temporary_Powers.Temporary_Powers.Perfection_of_Soul_Level_3)",
      "flags": [

      ],
      "eval_flags": 0,
      "child_effects": [

      ],
      "templates": [
        {
          "attribs": [
            "Grant_Power"
          ],
          "type": "Magnitude",
          "application_type": "OnTick",
          "aspect": "Absolute",
          "target": "Self",
          "table": "Melee_Ones",
          "scale": 1.0,
          "duration": "0 seconds",
          "magnitude": 1.0,
          "delay": 0.0,
          "duration_expression": "",
          "magnitude_expression": "",
          "application_period": 0.0,
          "tick_chance": 1.0,
          "jit_requires": "",
          "caster_stack": "Individual",
          "stack": "Ignore",
          "stack_limit": 2,
          "stack_key": null,
          "cancel_events": [

          ],
          "boost_mod_allowed": "Science_Boost",
          "flags": [
            "IgnoreStrength (4)",
            "IgnoreResistance (5)",
            "CombatModMagnitude (9)"
          ],
          "mode_name": null,
          "target_info": null,
          "messages": {
            "display_attacker_hit": "You boost your Perfection of Soul to level 1!",
            "display_victim_hit": null,
            "display_float": null,
            "display_defense_float": null
          },
          "suppress_events": [

          ],
          "params": {
            "type": "Power",
            "count": 1,
            "category_names": [

            ],
            "powerset_names": [

            ],
            "power_names": [
              "Temporary_Powers.Temporary_Powers.Perfection_of_Soul_Level_1"
            ]
          },
          "fx": null
        }
      ],
      "is_pvp": "EITHER"
    },
    {
      "tags": [
        "PerfectionofSoul"
      ],
      "chance": 0.0,
      "ppm": 0.0,
      "delay": 0.0,
      "radius_inner": -1.0,
      "radius_outer": -1.0,
      "requires_expression": "source.ownPower?(Temporary_Powers.Temporary_Powers.Perfection_of_Soul_Level_1)",
      "flags": [

      ],
      "eval_flags": 0,
      "child_effects": [

      ],
      "templates": [
        {
          "attribs": [
            "Grant_Power"
          ],
          "type": "Magnitude",
          "application_type": "OnTick",
          "aspect": "Absolute",
          "target": "Self",
          "table": "Melee_Ones",
          "scale": 1.0,
          "duration": "0 seconds",
          "magnitude": 1.0,
          "delay": 0.0,
          "duration_expression": "",
          "magnitude_expression": "",
          "application_period": 0.0,
          "tick_chance": 1.0,
          "jit_requires": "",
          "caster_stack": "Individual",
          "stack": "Ignore",
          "stack_limit": 2,
          "stack_key": null,
          "cancel_events": [

          ],
          "boost_mod_allowed": "Science_Boost",
          "flags": [
            "IgnoreStrength (4)",
            "IgnoreResistance (5)",
            "CombatModMagnitude (9)"
          ],
          "mode_name": null,
          "target_info": null,
          "messages": {
            "display_attacker_hit": "You boost your Perfection of Soul to level 2!",
            "display_victim_hit": null,
            "display_float": null,
            "display_defense_float": null
          },
          "suppress_events": [

          ],
          "params": {
            "type": "Power",
            "count": 1,
            "category_names": [

            ],
            "powerset_names": [

            ],
            "power_names": [
              "Temporary_Powers.Temporary_Powers.Perfection_of_Soul_Level_2"
            ]
          },
          "fx": null
        },
        {
          "attribs": [
            "Revoke_Power"
          ],
          "type": "Magnitude",
          "application_type": "OnTick",
          "aspect": "Absolute",
          "target": "Self",
          "table": "Melee_Ones",
          "scale": 1.0,
          "duration": "0 seconds",
          "magnitude": 1.0,
          "delay": 0.0,
          "duration_expression": "",
          "magnitude_expression": "",
          "application_period": 0.0,
          "tick_chance": 1.0,
          "jit_requires": "",
          "caster_stack": "Individual",
          "stack": "Ignore",
          "stack_limit": 2,
          "stack_key": null,
          "cancel_events": [

          ],
          "boost_mod_allowed": "Science_Boost",
          "flags": [
            "IgnoreStrength (4)",
            "IgnoreResistance (5)",
            "CombatModMagnitude (9)"
          ],
          "mode_name": null,
          "target_info": null,
          "messages": null,
          "suppress_events": [

          ],
          "params": {
            "type": "Power",
            "count": 1,
            "category_names": [

            ],
            "powerset_names": [

            ],
            "power_names": [
              "Temporary_Powers.Temporary_Powers.Perfection_of_Soul_Level_1"
            ]
          },
          "fx": null
        }
      ],
      "is_pvp": "EITHER"
    },
    {
      "tags": [
        "PerfectionofSoul"
      ],
      "chance": 0.0,
      "ppm": 0.0,
      "delay": 0.0,
      "radius_inner": -1.0,
      "radius_outer": -1.0,
      "requires_expression": "source.ownPower?(Temporary_Powers.Temporary_Powers.Perfection_of_Soul_Level_2) || source.ownPower?(Temporary_Powers.Temporary_Powers.Perfection_of_Soul_Level_3)",
      "flags": [

      ],
      "eval_flags": 0,
      "child_effects": [

      ],
      "templates": [
        {
          "attribs": [
            "Grant_Power"
          ],
          "type": "Magnitude",
          "application_type": "OnTick",
          "aspect": "Absolute",
          "target": "Self",
          "table": "Melee_Ones",
          "scale": 1.0,
          "duration": "0 seconds",
          "magnitude": 1.0,
          "delay": 0.0,
          "duration_expression": "",
          "magnitude_expression": "",
          "application_period": 0.0,
          "tick_chance": 1.0,
          "jit_requires": "",
          "caster_stack": "Individual",
          "stack": "Ignore",
          "stack_limit": 2,
          "stack_key": null,
          "cancel_events": [

          ],
          "boost_mod_allowed": "Science_Boost",
          "flags": [
            "IgnoreStrength (4)",
            "IgnoreResistance (5)",
            "CombatModMagnitude (9)"
          ],
          "mode_name": null,
          "target_info": null,
          "messages": {
            "display_attacker_hit": "You boost your Perfection of Soul to level 3!",
            "display_victim_hit": null,
            "display_float": null,
            "display_defense_float": null
          },
          "suppress_events": [

          ],
          "params": {
            "type": "Power",
            "count": 1,
            "category_names": [

            ],
            "powerset_names": [

            ],
            "power_names": [
              "Temporary_Powers.Temporary_Powers.Perfection_of_Soul_Level_3"
            ]
          },
          "fx": null
        }
      ],
      "is_pvp": "EITHER"
    },
    {
      "tags": [
        "PerfectionofSoul"
      ],
      "chance": 0.0,
      "ppm": 0.0,
      "delay": 0.0,
      "radius_inner": -1.0,
      "radius_outer": -1.0,
      "requires_expression": "source.ownPower?(Temporary_Powers.Temporary_Powers.Perfection_of_Soul_Level_2)",
      "flags": [

      ],
      "eval_flags": 0,
      "child_effects": [

      ],
      "templates": [
        {
          "attribs": [
            "Revoke_Power"
          ],
          "type": "Magnitude",
          "application_type": "OnTick",
          "aspect": "Absolute",
          "target": "Self",
          "table": "Melee_Ones",
          "scale": 1.0,
          "duration": "0 seconds",
          "magnitude": 1.0,
          "delay": 0.0,
          "duration_expression": "",
          "magnitude_expression": "",
          "application_period": 0.0,
          "tick_chance": 1.0,
          "jit_requires": "",
          "caster_stack": "Individual",
          "stack": "Ignore",
          "stack_limit": 2,
          "stack_key": null,
          "cancel_events": [

          ],
          "boost_mod_allowed": "Science_Boost",
          "flags": [
            "IgnoreStrength (4)",
            "IgnoreResistance (5)",
            "CombatModMagnitude (9)"
          ],
          "mode_name": null,
          "target_info": null,
          "messages": null,
          "suppress_events": [

          ],
          "params": {
            "type": "Power",
            "count": 1,
            "category_names": [

            ],
            "powerset_names": [

            ],
            "power_names": [
              "Temporary_Powers.Temporary_Powers.Perfection_of_Soul_Level_2"
            ]
          },
          "fx": null
        }
      ],
      "is_pvp": "EITHER"
    }
  ],
  "activation_effects": [

  ],
  "fx": {
    "source_file": "MENU/POWERS/ANIMFX/PLAYERPOWERS/SCRAPPERMELEE_LONGSTAFF_SERPENTREACH.PFX",
    "attack_bits": [
      20,
      132,
      142,
      171,
      277
    ],
    "block_bits": [
      53
    ],
    "wind_up_bits": [

    ],
    "hit_bits": [
      49,
      681
    ],
    "death_bits": [

    ],
    "activation_bits": [
      20,
      132,
      142,
      187
    ],
    "deactivation_bits": [

    ],
    "initial_attack_bits": [
      20,
      132,
      142,
      171,
      277,
      187
    ],
    "continuing_bits": [

    ],
    "conditional_bits": [

    ],
    "activation_fx": null,
    "deactivation_fx": null,
    "attack_fx": "CUSTOMIZEABLEPOWERS/STAFFFIGHTING/SERPENTSREACH_ATTACK.FX",
    "secondary_attack_fx": null,
    "hit_fx": "CUSTOMIZEABLEPOWERS/STAFFFIGHTING/SERPENTSREACH_HIT.FX",
    "wind_up_fx": null,
    "block_fx": null,
    "death_fx": null,
    "initial_attack_fx": "CUSTOMIZEABLEPOWERS/STAFFFIGHTING/SERPENTSREACH_ATTACK.FX",
    "continuing_fx": [

    ],
    "conditional_fx": [

    ],
    "mode_bits": [
      20,
      132,
      142
    ],
    "frames_before_hit": 37,
    "frames_before_secondary_hit": 0,
    "delayed_hit": true,
    "frames_attack": 53,
    "initial_frames_before_hit": 63,
    "initial_attack_fx_frame_delay": 28,
    "projectile_speed": 120.0,
    "secondary_projectile_speed": 0.0,
    "initial_frames_before_block": 0,
    "ignore_attack_time_errors": null,
    "frames_before_block": 0,
    "fx_important": false
  },
  "custom_fx": [
    {
      "display_name": null,
      "token": "Bright",
      "alt_themes": [

      ],
      "category": null,
      "palette_name": "Additive",
      "fx": {
        "source_file": "MENU/POWERS/ANIMFX/PLAYERPOWERS/SCRAPPERMELEE_LONGSTAFF_SERPENTREACH.PFX",
        "attack_bits": [
          20,
          132,
          142,
          171,
          277
        ],
        "block_bits": [
          53
        ],
        "wind_up_bits": [

        ],
        "hit_bits": [
          49,
          681
        ],
        "death_bits": [

        ],
        "activation_bits": [
          20,
          132,
          142,
          187
        ],
        "deactivation_bits": [

        ],
        "initial_attack_bits": [
          20,
          132,
          142,
          171,
          277,
          187
        ],
        "continuing_bits": [

        ],
        "conditional_bits": [

        ],
        "activation_fx": null,
        "deactivation_fx": null,
        "attack_fx": "CUSTOMIZEABLEPOWERS/STAFFFIGHTING/SERPENTSREACH_ATTACK.FX",
        "secondary_attack_fx": null,
        "hit_fx": "CUSTOMIZEABLEPOWERS/STAFFFIGHTING/SERPENTSREACH_HIT.FX",
        "wind_up_fx": null,
        "block_fx": null,
        "death_fx": null,
        "initial_attack_fx": "CUSTOMIZEABLEPOWERS/STAFFFIGHTING/SERPENTSREACH_ATTACK.FX",
        "continuing_fx": [

        ],
        "conditional_fx": [

        ],
        "mode_bits": [
          20,
          132,
          142
        ],
        "frames_before_hit": 37,
        "frames_before_secondary_hit": 0,
        "delayed_hit": true,
        "frames_attack": 53,
        "initial_frames_before_hit": 63,
        "initial_attack_fx_frame_delay": 28,
        "projectile_speed": 120.0,
        "secondary_projectile_speed": 0.0,
        "initial_frames_before_block": 0,
        "ignore_attack_time_errors": null,
        "frames_before_block": 0,
        "fx_important": false
      }
    },
    {
      "display_name": null,
      "token": "Dark",
      "alt_themes": [

      ],
      "category": null,
      "palette_name": "Subtractive",
      "fx": {
        "source_file": "MENU/POWERS/ANIMFX/PLAYERPOWERS/SCRAPPERMELEE_LONGSTAFF_SERPENTREACH.PFX",
        "attack_bits": [
          20,
          132,
          142,
          171,
          277
        ],
        "block_bits": [
          53
        ],
        "wind_up_bits": [

        ],
        "hit_bits": [
          49,
          681
        ],
        "death_bits": [

        ],
        "activation_bits": [
          20,
          132,
          142,
          187
        ],
        "deactivation_bits": [

        ],
        "initial_attack_bits": [
          20,
          132,
          142,
          171,
          277,
          187
        ],
        "continuing_bits": [

        ],
        "conditional_bits": [

        ],
        "activation_fx": null,
        "deactivation_fx": null,
        "attack_fx": "CUSTOMIZEABLEPOWERS/STAFFFIGHTING/SUBTRACTIVE/SERPENTSREACH_ATTACK.FX",
        "secondary_attack_fx": null,
        "hit_fx": "CUSTOMIZEABLEPOWERS/STAFFFIGHTING/SUBTRACTIVE/SERPENTSREACH_HIT.FX",
        "wind_up_fx": null,
        "block_fx": null,
        "death_fx": null,
        "initial_attack_fx": "CUSTOMIZEABLEPOWERS/STAFFFIGHTING/SUBTRACTIVE/SERPENTSREACH_ATTACK.FX",
        "continuing_fx": [

        ],
        "conditional_fx": [

        ],
        "mode_bits": [
          20,
          132,
          142
        ],
        "frames_before_hit": 37,
        "frames_before_secondary_hit": 0,
        "delayed_hit": true,
        "frames_attack": 53,
        "initial_frames_before_hit": 63,
        "initial_attack_fx_frame_delay": 28,
        "projectile_speed": 120.0,
        "secondary_projectile_speed": 0.0,
        "initial_frames_before_block": 0,
        "ignore_attack_time_errors": null,
        "frames_before_block": 0,
        "fx_important": false
      }
    }
  ],
  "fx_only_on_main_target": false
}