{
  "name": "Hamidon_Accuracy_Mez",
  "display_name": "Hamidon Accuracy Mez",
  "display_fullname": "Boosts.Hamidon Accuracy Mez",
  "display_help": "Enhances the accuracy and the duration of all mez powers.",
  "display_short_help": "Hamidon (All Origins)",
  "available_level": [
    0
  ],
  "source_file": "DEFS/POWERS/BOOSTS/HAMIDON_ACCURACY_MEZ.POWERSETS",
  "requires": "",
  "power_names": [
    "Boosts.Hamidon_Accuracy_Mez.Hamidon_Accuracy_Mez"
  ],
  "power_display_names": [
    "Endoplasm Exposure (Acc/Mez)"
  ]
}