{
  "name": "Reflections",
  "display_name": "Reflections",
  "display_fullname": "Rularuu.Reflections",
  "display_help": "Rularuu",
  "display_short_help": "Rularuu",
  "available_level": [
    0
  ],
  "source_file": "DEFS/POWERS/RULARUU/REFLECTIONS.POWERSETS",
  "requires": "",
  "power_names": [
    "Rularuu.Reflections.Resistance"
  ],
  "power_display_names": [
    "Resistance"
  ]
}