{
  "name": "Banish_Pendragon",
  "full_name": "Magisterium.Netherworld_Empowerment.Banish_Pendragon",
  "type": "Click",
  "display_name": "Banish",
  "display_fullname": "Magisterium.Netherworld Empowerment.Banish",
  "display_help": "If you are hit by Sequestration Field 3 times within a 30 second period, you and nearby allies will be imprisoned temporarily. Recharge 10 seconds.",
  "display_short_help": "Special",
  "icon": "powerblast_explosion.png",
  "auto_issue": false,
  "auto_issue_keeps_level": false,
  "message_caster": null,
  "message_floater": null,
  "message_attacker_hit": null,
  "message_target_hit": null,
  "message_target_confirm": null,
  "message_float_reward": null,
  "message_defense_avoidance": null,
  "attack_types": [

  ],
  "requires": "",
  "activate_requires": "",
  "accuracy": 1.0,
  "number_allowed": 1,
  "caster_near_ground": false,
  "target_near_ground": false,
  "cast_when_dead": "AliveOnly",
  "cast_through": [

  ],
  "toggle_ignores": [

  ],
  "ignore_level_gained": false,
  "works_on_untouchable": false,
  "works_through_vision_phase": false,
  "target_untargetable": false,
  "interrupt_like_sleep": false,
  "notify_ai_when": "Always",
  "effect_area": "SingleTarget",
  "max_targets_hit": 0,
  "radius": 0.0,
  "arc": 0.0,
  "range": 250.0,
  "range_secondary": 0.0,
  "activation_time": 2.33,
  "root_time": 2.33,
  "interrupt_time": 0.0,
  "recharge_time": 12.0,
  "activate_period": 0.0,
  "endurance_cost": 0.0,
  "cancelable": false,
  "self_confirm": false,
  "confirm_requires": "",
  "time_to_confirm": 0,
  "chain_delay": 0.0,
  "chain_effect_expr": "",
  "chain_forks": [

  ],
  "chain_into_power_name": null,
  "vec_box_offset": [
    0.0,
    0.0,
    0.0
  ],
  "vec_box_size": [
    0.0,
    0.0,
    0.0
  ],
  "number_of_charges": 0,
  "max_num_charges": 0,
  "destroy_on_last_use": true,
  "power_lifetime": 0.0,
  "max_power_lifetime": 0.0,
  "power_lifetime_ingame": 0.0,
  "max_power_lifetime_ingame": 0.0,
  "stacking_lifetime": false,
  "toggle_on_time": 0.0,
  "max_toggle_on_time": 0.0,
  "toggle_detoggle_time": 0.0,
  "toggle_droppable": "Sometimes",
  "ignore_toggle_max_distance": false,
  "target_type": "Foe (Alive)",
  "target_type_secondary": null,
  "target_visibility": "LineOfSight",
  "targets_affected": [
    "Foe (Alive)"
  ],
  "targets_autohit": [
    "Foe (Alive)"
  ],
  "target_requires": "",
  "proc_allowed": "All",
  "boosts_allowed": [

  ],
  "allowed_boostset_cats": [

  ],
  "exclusion_groups": [

  ],
  "modes_required": [

  ],
  "modes_disallowed": [

  ],
  "recharge_groups": [

  ],
  "ignore_strength": false,
  "strengths_disallowed": [

  ],
  "global_strengths_disallowed": [

  ],
  "procs_only_on_main_target": false,
  "vars_attribmods_can_reference": [

  ],
  "show_buff_icon": true,
  "show_in_info": true,
  "show_in_manage": true,
  "show_in_inventory": "Show",
  "deletable": false,
  "tradeable": false,
  "do_not_save": false,
  "max_boosts": 6,
  "ignore_level_differences": false,
  "ignore_exemplar_for_bonuses": false,
  "boost_combinable": true,
  "boost_tradeable": true,
  "boost_account_bound": false,
  "boost_boostable": false,
  "boost_use_player_level": false,
  "boost_catalyzable": null,
  "boost_store_product": null,
  "boost_min_slot_level": -3,
  "boost_max_level": 50,
  "instance_locked": false,
  "is_environment_hit": false,
  "shuffle_target_list": false,
  "enforced_level_bought": -1,
  "refreshes_on_active_player_change": false,
  "highlight_expression": "",
  "highlight_icon": null,
  "highlight_color": "#00000000",
  "travel_suppression_time": 0.0,
  "server_tray_priority": 0,
  "server_tray_requires": "",
  "abusive_buff": true,
  "position_center": "kModTarget_Caster",
  "position_distance": 0.0,
  "position_height": 0.0,
  "position_yaw": 0.0,
  "face_target": true,
  "attrib_cache": [
    "Set_Mode",
    "Combat_Phase",
    "Vision_Phase",
    "Designer_Status"
  ],
  "max_targets_expression": "",
  "chain_target_expr": "",
  "powerset": "Magisterium.Netherworld_Empowerment",
  "available_level": 0,
  "archetypes": [
    "boss_praetorianarchvillain"
  ],
  "redirect": [

  ],
  "effects": [
    {
      "tags": [

      ],
      "chance": 1.0,
      "ppm": 0.0,
      "delay": 0.0,
      "radius_inner": -1.0,
      "radius_outer": -1.0,
      "requires_expression": "!target.mode?(kSequestor_1) && !target.mode?(kSequestor_2)",
      "flags": [

      ],
      "eval_flags": 0,
      "child_effects": [

      ],
      "templates": [
        {
          "attribs": [
            "Set_Mode"
          ],
          "type": "Constant",
          "application_type": "OnTick",
          "aspect": "Current",
          "target": "AnyAffected",
          "table": "Ranged_Ones",
          "scale": 1.0,
          "duration": "60 seconds",
          "magnitude": 66.0,
          "delay": 0.0,
          "duration_expression": "",
          "magnitude_expression": "",
          "application_period": 0.0,
          "tick_chance": 1.0,
          "jit_requires": "",
          "caster_stack": "Individual",
          "stack": "Replace",
          "stack_limit": 2,
          "stack_key": null,
          "cancel_events": [

          ],
          "boost_mod_allowed": "Science_Boost",
          "flags": [
            "IgnoreStrength (4)",
            "IgnoreResistance (5)",
            "IgnoreLevelDifference (6)"
          ],
          "mode_name": "Sequestor_1",
          "target_info": null,
          "messages": {
            "display_attacker_hit": null,
            "display_victim_hit": "{PlayerSource} hits you with {PowerName}.",
            "display_float": "First warning, {PlayerDest}",
            "display_defense_float": null
          },
          "suppress_events": [

          ],
          "params": null,
          "fx": null
        }
      ],
      "is_pvp": "EITHER"
    },
    {
      "tags": [

      ],
      "chance": 1.0,
      "ppm": 0.0,
      "delay": 0.0,
      "radius_inner": -1.0,
      "radius_outer": -1.0,
      "requires_expression": "target.mode?(kSequestor_1) && !target.mode?(kSequestor_2)",
      "flags": [

      ],
      "eval_flags": 0,
      "child_effects": [

      ],
      "templates": [
        {
          "attribs": [
            "Set_Mode"
          ],
          "type": "Constant",
          "application_type": "OnTick",
          "aspect": "Current",
          "target": "AnyAffected",
          "table": "Ranged_Ones",
          "scale": 1.0,
          "duration": "60 seconds",
          "magnitude": 67.0,
          "delay": 0.25,
          "duration_expression": "",
          "magnitude_expression": "",
          "application_period": 0.0,
          "tick_chance": 1.0,
          "jit_requires": "",
          "caster_stack": "Individual",
          "stack": "Replace",
          "stack_limit": 2,
          "stack_key": null,
          "cancel_events": [

          ],
          "boost_mod_allowed": "Science_Boost",
          "flags": [
            "IgnoreStrength (4)",
            "IgnoreResistance (5)",
            "IgnoreLevelDifference (6)"
          ],
          "mode_name": "Sequestor_2",
          "target_info": null,
          "messages": {
            "display_attacker_hit": null,
            "display_victim_hit": "{PlayerSource} hits you with {PowerName}.",
            "display_float": "Second warning, {PlayerDest}",
            "display_defense_float": null
          },
          "suppress_events": [

          ],
          "params": null,
          "fx": null
        }
      ],
      "is_pvp": "EITHER"
    },
    {
      "tags": [

      ],
      "chance": 1.0,
      "ppm": 0.0,
      "delay": 0.0,
      "radius_inner": -1.0,
      "radius_outer": -1.0,
      "requires_expression": "target.mode?(kSequestor_1) && target.mode?(kSequestor_2)",
      "flags": [

      ],
      "eval_flags": 0,
      "child_effects": [

      ],
      "templates": [
        {
          "attribs": [
            "Combat_Phase"
          ],
          "type": "Duration",
          "application_type": "OnTick",
          "aspect": "Current",
          "target": "AnyAffected",
          "table": "Ranged_Ones",
          "scale": 20.0,
          "duration": "0 seconds",
          "magnitude": 3.0,
          "delay": 0.0,
          "duration_expression": "",
          "magnitude_expression": "",
          "application_period": 0.0,
          "tick_chance": 1.0,
          "jit_requires": "",
          "caster_stack": "Individual",
          "stack": "Replace",
          "stack_limit": 2,
          "stack_key": null,
          "cancel_events": [

          ],
          "boost_mod_allowed": "Science_Boost",
          "flags": [
            "IgnoreStrength (4)",
            "IgnoreResistance (5)",
            "IgnoreLevelDifference (6)"
          ],
          "mode_name": null,
          "target_info": null,
          "messages": {
            "display_attacker_hit": null,
            "display_victim_hit": "{PlayerSource} banishes you to the Netherworld!",
            "display_float": "{PlayerDest} has been banished!",
            "display_defense_float": null
          },
          "suppress_events": [

          ],
          "params": {
            "type": "Phase",
            "combat_phases": [
              3
            ],
            "vision_phases": [

            ],
            "exclusive_vision_phase": -1
          },
          "fx": null
        },
        {
          "attribs": [
            "Combat_Phase"
          ],
          "type": "Duration",
          "application_type": "OnTick",
          "aspect": "Current",
          "target": "AnyAffected",
          "table": "Ranged_Ones",
          "scale": 20.0,
          "duration": "0 seconds",
          "magnitude": 3.0,
          "delay": 0.0,
          "duration_expression": "",
          "magnitude_expression": "",
          "application_period": 0.0,
          "tick_chance": 1.0,
          "jit_requires": "",
          "caster_stack": "Individual",
          "stack": "Replace",
          "stack_limit": 2,
          "stack_key": null,
          "cancel_events": [

          ],
          "boost_mod_allowed": "Science_Boost",
          "flags": [
            "IgnoreStrength (4)",
            "IgnoreResistance (5)",
            "IgnoreLevelDifference (6)"
          ],
          "mode_name": null,
          "target_info": null,
          "messages": null,
          "suppress_events": [

          ],
          "params": {
            "type": "Phase",
            "combat_phases": [
              0
            ],
            "vision_phases": [

            ],
            "exclusive_vision_phase": -1
          },
          "fx": null
        },
        {
          "attribs": [
            "Vision_Phase"
          ],
          "type": "Magnitude",
          "application_type": "OnTick",
          "aspect": "Current",
          "target": "AnyAffected",
          "table": "Ranged_Ones",
          "scale": 9001.0,
          "duration": "20 seconds",
          "magnitude": 1.0,
          "delay": 0.0,
          "duration_expression": "",
          "magnitude_expression": "",
          "application_period": 0.0,
          "tick_chance": 1.0,
          "jit_requires": "",
          "caster_stack": "Individual",
          "stack": "Stack",
          "stack_limit": 2,
          "stack_key": null,
          "cancel_events": [

          ],
          "boost_mod_allowed": "Science_Boost",
          "flags": [
            "IgnoreStrength (4)",
            "IgnoreResistance (5)",
            "IgnoreLevelDifference (6)"
          ],
          "mode_name": null,
          "target_info": null,
          "messages": null,
          "suppress_events": [

          ],
          "params": {
            "type": "Phase",
            "combat_phases": [

            ],
            "vision_phases": [
              15
            ],
            "exclusive_vision_phase": -1
          },
          "fx": null
        },
        {
          "attribs": [
            "Vision_Phase"
          ],
          "type": "Magnitude",
          "application_type": "OnTick",
          "aspect": "Current",
          "target": "AnyAffected",
          "table": "Ranged_Ones",
          "scale": 9001.0,
          "duration": "20 seconds",
          "magnitude": 1.0,
          "delay": 0.0,
          "duration_expression": "",
          "magnitude_expression": "",
          "application_period": 0.0,
          "tick_chance": 1.0,
          "jit_requires": "",
          "caster_stack": "Individual",
          "stack": "Stack",
          "stack_limit": 2,
          "stack_key": null,
          "cancel_events": [

          ],
          "boost_mod_allowed": "Science_Boost",
          "flags": [
            "IgnoreStrength (4)",
            "IgnoreResistance (5)",
            "IgnoreLevelDifference (6)"
          ],
          "mode_name": null,
          "target_info": null,
          "messages": null,
          "suppress_events": [

          ],
          "params": {
            "type": "Phase",
            "combat_phases": [

            ],
            "vision_phases": [
              0
            ],
            "exclusive_vision_phase": -1
          },
          "fx": null
        },
        {
          "attribs": [
            "Designer_Status"
          ],
          "type": "Magnitude",
          "application_type": "OnTick",
          "aspect": "Absolute",
          "target": "AnyAffected",
          "table": "Ranged_Ones",
          "scale": 1.0,
          "duration": "20 seconds",
          "magnitude": 1.0,
          "delay": 0.0,
          "duration_expression": "",
          "magnitude_expression": "",
          "application_period": 0.0,
          "tick_chance": 1.0,
          "jit_requires": "",
          "caster_stack": "Individual",
          "stack": "Replace",
          "stack_limit": 2,
          "stack_key": null,
          "cancel_events": [

          ],
          "boost_mod_allowed": "Science_Boost",
          "flags": [
            "IgnoreStrength (4)",
            "IgnoreResistance (5)",
            "CombatModMagnitude (9)"
          ],
          "mode_name": null,
          "target_info": null,
          "messages": {
            "display_attacker_hit": null,
            "display_victim_hit": "Banished!",
            "display_float": null,
            "display_defense_float": null
          },
          "suppress_events": [

          ],
          "params": null,
          "fx": null
        }
      ],
      "is_pvp": "EITHER"
    }
  ],
  "activation_effects": [

  ],
  "fx": {
    "source_file": "MENU/POWERS/ANIMFX/GREG_MAG_PENDRAGON_BANISH.PFX",
    "attack_bits": [
      20,
      132,
      142,
      766,
      256,
      681
    ],
    "block_bits": [
      53
    ],
    "wind_up_bits": [

    ],
    "hit_bits": [
      49,
      681
    ],
    "death_bits": [

    ],
    "activation_bits": [
      20,
      132,
      142,
      187
    ],
    "deactivation_bits": [

    ],
    "initial_attack_bits": [
      20,
      132,
      142,
      766,
      256,
      681,
      187
    ],
    "continuing_bits": [

    ],
    "conditional_bits": [

    ],
    "activation_fx": null,
    "deactivation_fx": null,
    "attack_fx": "POWERS/DARKNESSCONTROL/MOONBEAM.FX",
    "secondary_attack_fx": null,
    "hit_fx": "POWERS/DARKNESSCONTROL/MOONBEAMBLASTHIT.FX",
    "wind_up_fx": null,
    "block_fx": null,
    "death_fx": null,
    "initial_attack_fx": "POWERS/DARKNESSCONTROL/MOONBEAM.FX",
    "continuing_fx": [

    ],
    "conditional_fx": [

    ],
    "mode_bits": [
      20,
      132,
      142
    ],
    "frames_before_hit": 37,
    "frames_before_secondary_hit": 0,
    "delayed_hit": false,
    "frames_attack": 70,
    "initial_frames_before_hit": 67,
    "initial_attack_fx_frame_delay": 20,
    "projectile_speed": 3.4028234663852886e38,
    "secondary_projectile_speed": 0.0,
    "initial_frames_before_block": 0,
    "ignore_attack_time_errors": null,
    "frames_before_block": 0,
    "fx_important": false
  },
  "custom_fx": [

  ],
  "fx_only_on_main_target": false
}