{
  "name": "Temporal_Mending",
  "full_name": "Defender_Buff.Time_Manipulation.Temporal_Mending",
  "type": "Click",
  "display_name": "Temporal Mending",
  "display_fullname": "Defender Buff.Time Manipulation.Temporal Mending",
  "display_help": "You mend the wounds of yourself and nearby allies by placing your bodies in a past or future state where they are far less injured. Temporal Mending will immediately heal its targets and continue to heal them for an equal amount over the next 6 seconds. Additionally, affected allies will gain some resistance to slow effects and regeneration debuffs. Allies affected by the Accelerated effect will receive additional healing from this power.<br><br><color #fcfc95>Recharge: Slow.</color>",
  "display_short_help": "PBAoE, Ally +Heal, Heal Over Time, +Res(Slow, Regen Debuff)",
  "icon": "timemanipulation_temporalmending.png",
  "auto_issue": false,
  "auto_issue_keeps_level": false,
  "message_caster": null,
  "message_floater": null,
  "message_attacker_hit": null,
  "message_target_hit": null,
  "message_target_confirm": null,
  "message_float_reward": null,
  "message_defense_avoidance": null,
  "attack_types": [

  ],
  "requires": "",
  "activate_requires": "",
  "accuracy": 1.0,
  "number_allowed": 1,
  "caster_near_ground": false,
  "target_near_ground": false,
  "cast_when_dead": "AliveOnly",
  "cast_through": [

  ],
  "toggle_ignores": [

  ],
  "ignore_level_gained": false,
  "works_on_untouchable": false,
  "works_through_vision_phase": false,
  "target_untargetable": false,
  "interrupt_like_sleep": false,
  "notify_ai_when": "Always",
  "effect_area": "AoE",
  "max_targets_hit": 255,
  "radius": 25.0,
  "arc": 0.0,
  "range": 0.0,
  "range_secondary": 0.0,
  "activation_time": 2.03,
  "root_time": 0.0,
  "interrupt_time": 0.0,
  "recharge_time": 18.0,
  "activate_period": 0.0,
  "endurance_cost": 13.0,
  "cancelable": true,
  "self_confirm": false,
  "confirm_requires": "",
  "time_to_confirm": 0,
  "chain_delay": 0.0,
  "chain_effect_expr": "",
  "chain_forks": [

  ],
  "chain_into_power_name": null,
  "vec_box_offset": [
    0.0,
    0.0,
    0.0
  ],
  "vec_box_size": [
    0.0,
    0.0,
    0.0
  ],
  "number_of_charges": 0,
  "max_num_charges": 0,
  "destroy_on_last_use": true,
  "power_lifetime": 0.0,
  "max_power_lifetime": 0.0,
  "power_lifetime_ingame": 0.0,
  "max_power_lifetime_ingame": 0.0,
  "stacking_lifetime": false,
  "toggle_on_time": 0.0,
  "max_toggle_on_time": 0.0,
  "toggle_detoggle_time": 0.0,
  "toggle_droppable": "Sometimes",
  "ignore_toggle_max_distance": false,
  "target_type": "Self",
  "target_type_secondary": null,
  "target_visibility": "LineOfSight",
  "targets_affected": [
    "Ally (Alive)",
    "Self"
  ],
  "targets_autohit": [
    "Ally (Alive)",
    "Self"
  ],
  "target_requires": "",
  "proc_allowed": "All",
  "boosts_allowed": [
    "Reduce Endurance Cost",
    "Enhance Recharge Speed",
    "Enhance Heal"
  ],
  "allowed_boostset_cats": [
    "Healing"
  ],
  "exclusion_groups": [

  ],
  "modes_required": [

  ],
  "modes_disallowed": [
    "Disable_All"
  ],
  "recharge_groups": [

  ],
  "ignore_strength": false,
  "strengths_disallowed": [

  ],
  "global_strengths_disallowed": [

  ],
  "procs_only_on_main_target": false,
  "vars_attribmods_can_reference": [

  ],
  "show_buff_icon": true,
  "show_in_info": true,
  "show_in_manage": true,
  "show_in_inventory": "Show",
  "deletable": false,
  "tradeable": false,
  "do_not_save": false,
  "max_boosts": 6,
  "ignore_level_differences": false,
  "ignore_exemplar_for_bonuses": false,
  "boost_combinable": true,
  "boost_tradeable": true,
  "boost_account_bound": false,
  "boost_boostable": false,
  "boost_use_player_level": false,
  "boost_catalyzable": null,
  "boost_store_product": null,
  "boost_min_slot_level": -3,
  "boost_max_level": 50,
  "instance_locked": false,
  "is_environment_hit": false,
  "shuffle_target_list": false,
  "enforced_level_bought": -1,
  "refreshes_on_active_player_change": false,
  "highlight_expression": "",
  "highlight_icon": null,
  "highlight_color": "#00000000",
  "travel_suppression_time": 4.0,
  "server_tray_priority": 0,
  "server_tray_requires": "",
  "abusive_buff": true,
  "position_center": "kModTarget_Caster",
  "position_distance": 0.0,
  "position_height": 0.0,
  "position_yaw": 0.0,
  "face_target": true,
  "attrib_cache": [
    "Heal_Dmg",
    "RunningSpeed",
    "FlyingSpeed",
    "JumpingSpeed",
    "JumpHeight",
    "Regeneration",
    "RechargeTime"
  ],
  "max_targets_expression": "",
  "chain_target_expr": "",
  "powerset": "Defender_Buff.Time_Manipulation",
  "available_level": 0,
  "archetypes": [
    "defender"
  ],
  "redirect": [

  ],
  "effects": [
    {
      "tags": [

      ],
      "chance": 1.0,
      "ppm": 0.0,
      "delay": 0.0,
      "radius_inner": -1.0,
      "radius_outer": -1.0,
      "requires_expression": "",
      "flags": [

      ],
      "eval_flags": 0,
      "child_effects": [

      ],
      "templates": [
        {
          "attribs": [
            "RunningSpeed",
            "FlyingSpeed",
            "JumpingSpeed",
            "JumpHeight",
            "RechargeTime"
          ],
          "type": "Magnitude",
          "application_type": "OnTick",
          "aspect": "Resistance",
          "target": "AnyAffected",
          "table": "Ranged_Ones",
          "scale": 0.2,
          "duration": "30 seconds",
          "magnitude": 1.0,
          "delay": 0.0,
          "duration_expression": "",
          "magnitude_expression": "",
          "application_period": 0.0,
          "tick_chance": 1.0,
          "jit_requires": "",
          "caster_stack": "Individual",
          "stack": "Replace",
          "stack_limit": 2,
          "stack_key": null,
          "cancel_events": [

          ],
          "boost_mod_allowed": "Science_Boost",
          "flags": [
            "IgnoreStrength (4)",
            "IgnoreResistance (5)",
            "CombatModMagnitude (9)"
          ],
          "mode_name": null,
          "target_info": null,
          "messages": null,
          "suppress_events": [

          ],
          "params": null,
          "fx": {
            "continuing_bits": [

            ],
            "continuing_fx": "PFX",
            "conditional_bits": [

            ],
            "conditional_fx": null
          }
        },
        {
          "attribs": [
            "Regeneration"
          ],
          "type": "Magnitude",
          "application_type": "OnTick",
          "aspect": "Resistance",
          "target": "AnyAffected",
          "table": "Ranged_Res_Boolean",
          "scale": 1.0,
          "duration": "30 seconds",
          "magnitude": 1.0,
          "delay": 0.0,
          "duration_expression": "",
          "magnitude_expression": "",
          "application_period": 0.0,
          "tick_chance": 1.0,
          "jit_requires": "",
          "caster_stack": "Individual",
          "stack": "Replace",
          "stack_limit": 2,
          "stack_key": null,
          "cancel_events": [

          ],
          "boost_mod_allowed": "Science_Boost",
          "flags": [
            "IgnoreStrength (4)",
            "IgnoreResistance (5)",
            "CombatModMagnitude (9)"
          ],
          "mode_name": null,
          "target_info": null,
          "messages": null,
          "suppress_events": [

          ],
          "params": null,
          "fx": null
        }
      ],
      "is_pvp": "EITHER"
    },
    {
      "tags": [

      ],
      "chance": 1.0,
      "ppm": 0.0,
      "delay": 0.0,
      "radius_inner": -1.0,
      "radius_outer": -1.0,
      "requires_expression": "target.ownPower?(Temporary_Powers.Temporary_Powers.Temporal_Selection_Buff)",
      "flags": [

      ],
      "eval_flags": 0,
      "child_effects": [

      ],
      "templates": [
        {
          "attribs": [
            "Heal_Dmg"
          ],
          "type": "Magnitude",
          "application_type": "OnTick",
          "aspect": "Absolute",
          "target": "AnyAffected",
          "table": "Ranged_Heal",
          "scale": 1.125,
          "duration": "0 seconds",
          "magnitude": 1.0,
          "delay": 0.0,
          "duration_expression": "",
          "magnitude_expression": "",
          "application_period": 0.0,
          "tick_chance": 1.0,
          "jit_requires": "",
          "caster_stack": "Individual",
          "stack": "Stack",
          "stack_limit": 2,
          "stack_key": null,
          "cancel_events": [

          ],
          "boost_mod_allowed": "Science_Boost",
          "flags": [
            "ResistMagnitude (7)",
            "CombatModMagnitude (9)"
          ],
          "mode_name": null,
          "target_info": null,
          "messages": {
            "display_attacker_hit": "You heal {PlayerDest} with {PowerName} for {Damage} health points.",
            "display_victim_hit": "{PlayerSource} heals you with their {PowerName} for {Damage} health points.",
            "display_float": null,
            "display_defense_float": null
          },
          "suppress_events": [

          ],
          "params": null,
          "fx": null
        },
        {
          "attribs": [
            "Heal_Dmg"
          ],
          "type": "Magnitude",
          "application_type": "OnTick",
          "aspect": "Absolute",
          "target": "AnyAffected",
          "table": "Ranged_Heal",
          "scale": 0.3,
          "duration": "6 seconds",
          "magnitude": 1.0,
          "delay": 1.0,
          "duration_expression": "",
          "magnitude_expression": "",
          "application_period": 1.5,
          "tick_chance": 1.0,
          "jit_requires": "",
          "caster_stack": "Individual",
          "stack": "Stack",
          "stack_limit": 2,
          "stack_key": null,
          "cancel_events": [

          ],
          "boost_mod_allowed": "Science_Boost",
          "flags": [
            "ResistMagnitude (7)",
            "CombatModMagnitude (9)"
          ],
          "mode_name": null,
          "target_info": null,
          "messages": {
            "display_attacker_hit": "You heal {PlayerDest} with {PowerName} for {Damage} health points over time.",
            "display_victim_hit": "{PlayerSource} heals you with their {PowerName} for {Damage} health points over time.",
            "display_float": null,
            "display_defense_float": null
          },
          "suppress_events": [

          ],
          "params": null,
          "fx": null
        }
      ],
      "is_pvp": "EITHER"
    },
    {
      "tags": [

      ],
      "chance": 1.0,
      "ppm": 0.0,
      "delay": 0.0,
      "radius_inner": -1.0,
      "radius_outer": -1.0,
      "requires_expression": "!target.ownPower?(Temporary_Powers.Temporary_Powers.Temporal_Selection_Buff)",
      "flags": [

      ],
      "eval_flags": 0,
      "child_effects": [

      ],
      "templates": [
        {
          "attribs": [
            "Heal_Dmg"
          ],
          "type": "Magnitude",
          "application_type": "OnTick",
          "aspect": "Absolute",
          "target": "AnyAffected",
          "table": "Ranged_Heal",
          "scale": 0.75,
          "duration": "0 seconds",
          "magnitude": 1.0,
          "delay": 0.0,
          "duration_expression": "",
          "magnitude_expression": "",
          "application_period": 0.0,
          "tick_chance": 1.0,
          "jit_requires": "",
          "caster_stack": "Individual",
          "stack": "Stack",
          "stack_limit": 2,
          "stack_key": null,
          "cancel_events": [

          ],
          "boost_mod_allowed": "Science_Boost",
          "flags": [
            "ResistMagnitude (7)",
            "CombatModMagnitude (9)"
          ],
          "mode_name": null,
          "target_info": null,
          "messages": {
            "display_attacker_hit": "You heal {PlayerDest} with {PowerName} for {Damage} health points.",
            "display_victim_hit": "{PlayerSource} heals you with their {PowerName} for {Damage} health points.",
            "display_float": null,
            "display_defense_float": null
          },
          "suppress_events": [

          ],
          "params": null,
          "fx": null
        },
        {
          "attribs": [
            "Heal_Dmg"
          ],
          "type": "Magnitude",
          "application_type": "OnTick",
          "aspect": "Absolute",
          "target": "AnyAffected",
          "table": "Ranged_Heal",
          "scale": 0.2,
          "duration": "6 seconds",
          "magnitude": 1.0,
          "delay": 1.0,
          "duration_expression": "",
          "magnitude_expression": "",
          "application_period": 1.5,
          "tick_chance": 1.0,
          "jit_requires": "",
          "caster_stack": "Individual",
          "stack": "Stack",
          "stack_limit": 2,
          "stack_key": null,
          "cancel_events": [

          ],
          "boost_mod_allowed": "Science_Boost",
          "flags": [
            "ResistMagnitude (7)",
            "CombatModMagnitude (9)"
          ],
          "mode_name": null,
          "target_info": null,
          "messages": {
            "display_attacker_hit": "You heal {PlayerDest} with {PowerName} for {Damage} health points over time.",
            "display_victim_hit": "{PlayerSource} heals you with their {PowerName} for {Damage} health points over time.",
            "display_float": null,
            "display_defense_float": null
          },
          "suppress_events": [

          ],
          "params": null,
          "fx": null
        }
      ],
      "is_pvp": "PVE_ONLY"
    }
  ],
  "activation_effects": [

  ],
  "fx": {
    "source_file": "MENU/POWERS/ANIMFX/PLAYERPOWERS/DEFENDERBUFF_TIMEMANIPULATION_TEMPORALMENDING.PFX",
    "attack_bits": [
      255,
      723
    ],
    "block_bits": [

    ],
    "wind_up_bits": [

    ],
    "hit_bits": [
      49,
      245
    ],
    "death_bits": [

    ],
    "activation_bits": [

    ],
    "deactivation_bits": [

    ],
    "initial_attack_bits": [
      255,
      723
    ],
    "continuing_bits": [

    ],
    "conditional_bits": [

    ],
    "activation_fx": null,
    "deactivation_fx": null,
    "attack_fx": "CUSTOMIZEABLEPOWERS/TIMEMANIPULATION/TEMPORALMENDING_ATTACK.FX",
    "secondary_attack_fx": null,
    "hit_fx": "CUSTOMIZEABLEPOWERS/TIMEMANIPULATION/TEMPORALMENDING_HIT.FX",
    "wind_up_fx": null,
    "block_fx": null,
    "death_fx": null,
    "initial_attack_fx": "CUSTOMIZEABLEPOWERS/TIMEMANIPULATION/TEMPORALMENDING_ATTACK.FX",
    "continuing_fx": [
      "CUSTOMIZEABLEPOWERS/TIMEMANIPULATION/TEMPORALMENDING_CONTINUING.FX"
    ],
    "conditional_fx": [

    ],
    "mode_bits": [

    ],
    "frames_before_hit": 50,
    "frames_before_secondary_hit": 0,
    "delayed_hit": false,
    "frames_attack": 61,
    "initial_frames_before_hit": 50,
    "initial_attack_fx_frame_delay": 0,
    "projectile_speed": 3.4028234663852886e38,
    "secondary_projectile_speed": 0.0,
    "initial_frames_before_block": 0,
    "ignore_attack_time_errors": null,
    "frames_before_block": 0,
    "fx_important": false
  },
  "custom_fx": [
    {
      "display_name": null,
      "token": "Bright",
      "alt_themes": [

      ],
      "category": null,
      "palette_name": "Additive",
      "fx": {
        "source_file": "MENU/POWERS/ANIMFX/PLAYERPOWERS/DEFENDERBUFF_TIMEMANIPULATION_TEMPORALMENDING.PFX",
        "attack_bits": [
          255,
          723
        ],
        "block_bits": [

        ],
        "wind_up_bits": [

        ],
        "hit_bits": [
          49,
          245
        ],
        "death_bits": [

        ],
        "activation_bits": [

        ],
        "deactivation_bits": [

        ],
        "initial_attack_bits": [
          255,
          723
        ],
        "continuing_bits": [

        ],
        "conditional_bits": [

        ],
        "activation_fx": null,
        "deactivation_fx": null,
        "attack_fx": "CUSTOMIZEABLEPOWERS/TIMEMANIPULATION/TEMPORALMENDING_ATTACK.FX",
        "secondary_attack_fx": null,
        "hit_fx": "CUSTOMIZEABLEPOWERS/TIMEMANIPULATION/TEMPORALMENDING_HIT.FX",
        "wind_up_fx": null,
        "block_fx": null,
        "death_fx": null,
        "initial_attack_fx": "CUSTOMIZEABLEPOWERS/TIMEMANIPULATION/TEMPORALMENDING_ATTACK.FX",
        "continuing_fx": [
          "CUSTOMIZEABLEPOWERS/TIMEMANIPULATION/TEMPORALMENDING_CONTINUING.FX"
        ],
        "conditional_fx": [

        ],
        "mode_bits": [

        ],
        "frames_before_hit": 50,
        "frames_before_secondary_hit": 0,
        "delayed_hit": false,
        "frames_attack": 61,
        "initial_frames_before_hit": 50,
        "initial_attack_fx_frame_delay": 0,
        "projectile_speed": 3.4028234663852886e38,
        "secondary_projectile_speed": 0.0,
        "initial_frames_before_block": 0,
        "ignore_attack_time_errors": null,
        "frames_before_block": 0,
        "fx_important": false
      }
    },
    {
      "display_name": null,
      "token": "Dark",
      "alt_themes": [

      ],
      "category": null,
      "palette_name": "Subtractive",
      "fx": {
        "source_file": "MENU/POWERS/ANIMFX/PLAYERPOWERS/DEFENDERBUFF_TIMEMANIPULATION_TEMPORALMENDING.PFX",
        "attack_bits": [
          255,
          723
        ],
        "block_bits": [

        ],
        "wind_up_bits": [

        ],
        "hit_bits": [
          49,
          245
        ],
        "death_bits": [

        ],
        "activation_bits": [

        ],
        "deactivation_bits": [

        ],
        "initial_attack_bits": [
          255,
          723
        ],
        "continuing_bits": [

        ],
        "conditional_bits": [

        ],
        "activation_fx": null,
        "deactivation_fx": null,
        "attack_fx": "CUSTOMIZEABLEPOWERS/TIMEMANIPULATION/SUBTRACTIVE/TEMPORALMENDING_ATTACK.FX",
        "secondary_attack_fx": null,
        "hit_fx": "CUSTOMIZEABLEPOWERS/TIMEMANIPULATION/SUBTRACTIVE/TEMPORALMENDING_HIT.FX",
        "wind_up_fx": null,
        "block_fx": null,
        "death_fx": null,
        "initial_attack_fx": "CUSTOMIZEABLEPOWERS/TIMEMANIPULATION/SUBTRACTIVE/TEMPORALMENDING_ATTACK.FX",
        "continuing_fx": [
          "CUSTOMIZEABLEPOWERS/TIMEMANIPULATION/SUBTRACTIVE/TEMPORALMENDING_CONTINUING.FX"
        ],
        "conditional_fx": [

        ],
        "mode_bits": [

        ],
        "frames_before_hit": 50,
        "frames_before_secondary_hit": 0,
        "delayed_hit": false,
        "frames_attack": 61,
        "initial_frames_before_hit": 50,
        "initial_attack_fx_frame_delay": 0,
        "projectile_speed": 3.4028234663852886e38,
        "secondary_projectile_speed": 0.0,
        "initial_frames_before_block": 0,
        "ignore_attack_time_errors": null,
        "frames_before_block": 0,
        "fx_important": false
      }
    }
  ],
  "fx_only_on_main_target": false
}