{
  "name": "Superior_Attuned_Apocalypse_D",
  "display_name": "Superior Attuned Apocalypse D",
  "display_fullname": "Boosts.Superior Attuned Apocalypse D",
  "display_help": "UNIQUE -- No more than 1 enhancement of this type may be slotted by a character. Enhances the Accuracy of a power by {Boost.Attrib.Accuracy.Scale}% and recharge rate by {Boost.Attrib.RechargeTime.Scale}%.",
  "display_short_help": "Set: Apocalypse",
  "available_level": [
    0
  ],
  "source_file": "DEFS/POWERS/BOOSTS/SUPERIOR_ATTUNED_APOCALYPSE_D.POWERSETS",
  "requires": "",
  "power_names": [
    "Boosts.Superior_Attuned_Apocalypse_D.Superior_Attuned_Apocalypse_D"
  ],
  "power_display_names": [
    "Apocalypse: Recharge/Accuracy"
  ]
}