{
  "name": "Archon_High",
  "display_name": "Archon High",
  "display_fullname": "Council.Archon High",
  "display_help": "Vindicators",
  "display_short_help": "Vindicators",
  "available_level": [
    0,
    0,
    0,
    0,
    0,
    0,
    0,
    0
  ],
  "source_file": "DEFS/POWERS/COUNCIL/ARCHON_HIGH.POWERSETS",
  "requires": "",
  "power_names": [
    "Council.Archon_High.Power_Bolt",
    "Council.Archon_High.Energy_Torrent",
    "Council.Archon_High.Power_Burst",
    "Council.Archon_High.Power_Thrust",
    "Council.Archon_High.Energy_Punch",
    "Council.Archon_High.Bone_Smasher",
    "Council.Archon_High.Nova",
    "Council.Archon_High.Total_Focus"
  ],
  "power_display_names": [
    "Power Bolt",
    "Energy Torrent",
    "Power Burst",
    "Power Thrust",
    "Energy Punch",
    "Bone Smasher",
    "Nova",
    "Total Focus"
  ]
}