{
  "name": "Crafted_Nightmare_B",
  "display_name": "Crafted Nightmare B",
  "display_fullname": "Boosts.Crafted Nightmare B",
  "display_help": "Enhances the fear duration of a power by {Boost.Attrib.Mez.Scale}% and reduces the endurance cost of a power by {Boost.Attrib.Endurance.Scale}%.",
  "display_short_help": "Set: Nightmare",
  "available_level": [
    0
  ],
  "source_file": "DEFS/POWERS/BOOSTS/CRAFTED_NIGHTMARE_B.POWERSETS",
  "requires": "",
  "power_names": [
    "Boosts.Crafted_Nightmare_B.Crafted_Nightmare_B"
  ],
  "power_display_names": [
    "Nightmare: Endurance/Fear"
  ]
}