{
  "name": "Shock_Therapy",
  "display_name": "Electrical Affinity",
  "display_fullname": "Redirects.Electrical Affinity",
  "display_help": "Electrical Affinity",
  "display_short_help": "Electrical Affinity",
  "available_level": [
    0,
    0,
    0,
    0,
    0,
    0,
    0,
    0,
    0,
    0,
    0,
    0
  ],
  "source_file": "DEFS/POWERS/REDIRECTS/SHOCK_THERAPY.POWERSETS",
  "requires": "",
  "power_names": [
    "Redirects.Shock_Therapy.Consume_Static",
    "Redirects.Shock_Therapy.Shock_Therapy_Static",
    "Redirects.Shock_Therapy.Shock_Therapy_Amp_Up",
    "Redirects.Shock_Therapy.Shock_Therapy_Amp_Up_Enemy_Chain_Doom",
    "Redirects.Shock_Therapy.FaradayCage",
    "Redirects.Shock_Therapy.FaradayStatic",
    "Redirects.Shock_Therapy.FaradayCageFx",
    "Redirects.Shock_Therapy.Galvanic_Sentinel_Discharge",
    "Redirects.Shock_Therapy.Galvanic_Sentinel_Fly",
    "Redirects.Shock_Therapy.Galvanic_Sentinel_Resist",
    "Redirects.Shock_Therapy.Defibrillate_Revive",
    "Redirects.Shock_Therapy.Defibrillate_Debuff"
  ],
  "power_display_names": [
    "Static",
    "Static",
    "Amp Up",
    "Amp Up",
    "Faraday Cage",
    "Faraday Cage",
    "Faraday Cage",
    "Discharge",
    "Fly",
    "Resist Energy",
    "Defibrillate",
    "Defibrillate"
  ]
}