{
  "name": "Generic_Interrupt",
  "display_name": "Generic Interrupt",
  "display_fullname": "Boosts.Generic Interrupt",
  "display_help": "Decreases the interrupt time of powers that can be interrupted.",
  "display_short_help": "Training (All Origins)",
  "available_level": [
    0
  ],
  "source_file": "DEFS/POWERS/BOOSTS/GENERIC_INTERRUPT.POWERSETS",
  "requires": "",
  "power_names": [
    "Boosts.Generic_Interrupt.Generic_Interrupt"
  ],
  "power_display_names": [
    "Training: Activation Acceleration"
  ]
}