{
  "name": "Banespawn",
  "display_name": "Banespawn",
  "display_fullname": "BanishedPantheon.Banespawn",
  "display_help": "Banished Pantheon",
  "display_short_help": "Banished Pantheon",
  "available_level": [
    0,
    0,
    0,
    0
  ],
  "source_file": "DEFS/POWERS/BANISHEDPANTHEON/BANESPAWN.POWERSETS",
  "requires": "",
  "power_names": [
    "BanishedPantheon.Banespawn.Frigid_Slash",
    "BanishedPantheon.Banespawn.Frigid_Slice",
    "BanishedPantheon.Banespawn.Frigid_Quills",
    "BanishedPantheon.Banespawn.Frigid_Burst"
  ],
  "power_display_names": [
    "Frigid Slash",
    "Frigid Slice",
    "Frigid Quills",
    "Frigid Burst"
  ]
}