{
  "name": "Dark_Miasma",
  "display_name": "Dark Miasma",
  "display_fullname": "Redirects.Dark Miasma",
  "display_help": "These powers are used by Dark Miasma powers.",
  "display_short_help": "Tanker Melee",
  "available_level": [
    0,
    0
  ],
  "source_file": "DEFS/POWERS/REDIRECTS/DARK_MIASMA.POWERSETS",
  "requires": "",
  "power_names": [
    "Redirects.Dark_Miasma.Twilight",
    "Redirects.Dark_Miasma.Tar"
  ],
  "power_display_names": [
    "Twilight Grasp",
    "Tar"
  ]
}