{
  "name": "Mind_Dominator_High",
  "display_name": "Mind Dominator High",
  "display_fullname": "V GenericVillains.Mind Dominator High",
  "display_help": "Villain",
  "display_short_help": "Villain",
  "available_level": [
    0,
    0
  ],
  "source_file": "DEFS/POWERS/V_GENERICVILLAINS/MIND_DOMINATOR_HIGH.POWERSETS",
  "requires": "",
  "power_names": [
    "V_GenericVillains.Mind_Dominator_High.Total_Domination",
    "V_GenericVillains.Mind_Dominator_High.Psychic_Shockwave"
  ],
  "power_display_names": [
    "Total Domination",
    "Psychic Shockwave"
  ]
}