{
  "name": "Crafted_Focused_Smite_D",
  "display_name": "Crafted Focused Smite D",
  "display_fullname": "Boosts.Crafted Focused Smite D",
  "display_help": "Enhances the accuracy of a power by {Boost.Attrib.Accuracy.Scale}%, reduces recharge time by {Boost.Attrib.RechargeTime.Scale}% and endurance cost by {Boost.Attrib.Endurance.Scale}%.",
  "display_short_help": "Set: Focused Smite",
  "available_level": [
    0
  ],
  "source_file": "DEFS/POWERS/BOOSTS/CRAFTED_FOCUSED_SMITE_D.POWERSETS",
  "requires": "",
  "power_names": [
    "Boosts.Crafted_Focused_Smite_D.Crafted_Focused_Smite_D"
  ],
  "power_display_names": [
    "Focused Smite: Accuracy/Endurance/Recharge"
  ]
}