{
  "name": "Tech_Lab_DeBuff_Regeneration",
  "display_name": "Tech Lab",
  "display_fullname": "Pets.Tech Lab",
  "display_help": "Lab Equipment",
  "display_short_help": "Lab Equipment",
  "available_level": [
    0
  ],
  "source_file": "DEFS/POWERS/PETS/TECH_LAB_DEBUFF_REGENERATION.POWERSETS",
  "requires": "",
  "power_names": [
    "Pets.Tech_Lab_DeBuff_Regeneration.Sick"
  ],
  "power_display_names": [
    "Sick"
  ]
}