{
  "name": "NictusOrb_1",
  "display_name": "NictusOrb_1",
  "display_fullname": "Romans.NictusOrb 1",
  "display_help": "NictusOrb_1",
  "display_short_help": "NictusOrb_1",
  "available_level": [
    0,
    0,
    0
  ],
  "source_file": "DEFS/POWERS/ROMANS/NICTUSORB_1.POWERSETS",
  "requires": "",
  "power_names": [
    "Romans.NictusOrb_1.Twilight_Grasp",
    "Romans.NictusOrb_1.Resistance",
    "Romans.NictusOrb_1.Fly"
  ],
  "power_display_names": [
    "Twilight Grasp",
    "Resistance",
    "Fly"
  ]
}