{
  "name": "Ascendant_Boss",
  "display_name": "Ascendant_Boss",
  "display_fullname": "Council.Ascendant Boss",
  "display_help": "Council",
  "display_short_help": "Council",
  "available_level": [
    0
  ],
  "source_file": "DEFS/POWERS/COUNCIL/ASCENDANT_BOSS.POWERSETS",
  "requires": "",
  "power_names": [
    "Council.Ascendant_Boss.Detention_Field"
  ],
  "power_display_names": [
    "Detention Field"
  ]
}