{
  "name": "Claws_Stalker",
  "display_name": "Claws Stalker",
  "display_fullname": "V GenericVillains.Claws Stalker",
  "display_help": "Villain",
  "display_short_help": "Villain",
  "available_level": [
    0,
    0,
    0,
    0,
    0,
    0,
    0,
    0,
    0,
    0,
    0
  ],
  "source_file": "DEFS/POWERS/V_GENERICVILLAINS/CLAWS_STALKER.POWERSETS",
  "requires": "",
  "power_names": [
    "V_GenericVillains.Claws_Stalker.Swipe",
    "V_GenericVillains.Claws_Stalker.Strike",
    "V_GenericVillains.Claws_Stalker.Focus",
    "V_GenericVillains.Claws_Stalker.Slash",
    "V_GenericVillains.Claws_Stalker.Focused_Fighting",
    "V_GenericVillains.Claws_Stalker.Assassins_Claw",
    "V_GenericVillains.Claws_Stalker.Shockwave",
    "V_GenericVillains.Claws_Stalker.Inner_Focus",
    "V_GenericVillains.Claws_Stalker.Eviscerate",
    "V_GenericVillains.Claws_Stalker.Quickness",
    "V_GenericVillains.Claws_Stalker.Elude"
  ],
  "power_display_names": [
    "Swipe",
    "Strike",
    "Focus",
    "Slash",
    "Focused Fighting",
    "Assassin's Claw",
    "Shockwave",
    "Inner Focus",
    "Eviscerate",
    "Quickness",
    "Elude"
  ]
}