{
  "name": "Crab_Spider",
  "display_name": "Crab Spider",
  "display_fullname": "Pets.Crab Spider",
  "display_help": "Arachnos",
  "display_short_help": "Arachnos",
  "available_level": [
    0,
    9,
    9,
    14,
    24
  ],
  "source_file": "DEFS/POWERS/PETS/CRAB_SPIDER.POWERSETS",
  "requires": "",
  "power_names": [
    "Pets.Crab_Spider.Resistance",
    "Pets.Crab_Spider.Slice",
    "Pets.Crab_Spider.Longfang",
    "Pets.Crab_Spider.Channelgun",
    "Pets.Crab_Spider.Suppression"
  ],
  "power_display_names": [
    "Resistance",
    "Slice",
    "Longfang",
    "Channelgun",
    "Suppression"
  ]
}