{
  "name": "Turret_Inherent",
  "display_name": "Turret Inherent",
  "display_fullname": "Turrets.Turret Inherent",
  "display_help": "Turrets",
  "display_short_help": "Turrets",
  "available_level": [
    0
  ],
  "source_file": "DEFS/POWERS/TURRETS/TURRET_INHERENT.POWERSETS",
  "requires": "",
  "power_names": [
    "Turrets.Turret_Inherent.Resistance"
  ],
  "power_display_names": [
    "Resistance"
  ]
}