{
  "name": "Fifth_Nightwolf_Defense",
  "display_name": "Fifth_Nightwolf_Defense",
  "display_fullname": "5thColumn.Fifth Nightwolf Defense",
  "display_help": "5th Column",
  "display_short_help": "5th Column",
  "available_level": [
    0
  ],
  "source_file": "DEFS/POWERS/5THCOLUMN/FIFTH_NIGHTWOLF_DEFENSE.POWERSETS",
  "requires": "",
  "power_names": [
    "5thColumn.Fifth_Nightwolf_Defense.Resistance"
  ],
  "power_display_names": [
    "Resistance"
  ]
}