{
  "name": "Superior_Attuned_Entomb_D",
  "display_name": "Superior Attuned Entomb D",
  "display_fullname": "Boosts.Superior Attuned Entomb D",
  "display_help": "UNIQUE -- No more than 1 enhancement of this type may be slotted by a character. Enhances the accuracy of a power by {Boost.Attrib.Accuracy.Scale}% and hold duration of a power by {Boost.Attrib.Mez.Scale}% and reduces the endurance cost of a power by {Boost.Attrib.Endurance.Scale}%.",
  "display_short_help": "Set: Superior Entomb",
  "available_level": [
    0
  ],
  "source_file": "DEFS/POWERS/BOOSTS/SUPERIOR_ATTUNED_ENTOMB_D.POWERSETS",
  "requires": "",
  "power_names": [
    "Boosts.Superior_Attuned_Entomb_D.Superior_Attuned_Entomb_D"
  ],
  "power_display_names": [
    "Superior Entomb: Accuracy/Hold Duration/Endurance"
  ]
}