{
  "name": "Soldier_2",
  "display_name": "Soldier",
  "display_fullname": "Mastermind Pets.Soldier",
  "display_help": "Mercenaries",
  "display_short_help": "Mercenaries",
  "available_level": [
    0,
    0,
    0
  ],
  "source_file": "DEFS/POWERS/MASTERMIND_PETS/SOLDIER_2.POWERSETS",
  "requires": "",
  "power_names": [
    "Mastermind_Pets.Soldier_2.ASMG_Heavy_Burst",
    "Mastermind_Pets.Soldier_2.Assault_Rifle_Heavy_Burst",
    "Mastermind_Pets.Soldier_2.Equip"
  ],
  "power_display_names": [
    "ASMG Heavy Burst",
    "Assault Rifle Heavy Burst",
    "Equip"
  ]
}