{
  "name": "Minion_Slag_Heap",
  "display_name": "",
  "display_fullname": "V SlagGolems.Minion Slag Heap",
  "display_help": "Slag Golems",
  "display_short_help": "Slag Golems",
  "available_level": [
    0,
    0
  ],
  "source_file": "DEFS/POWERS/V_SLAGGOLEMS/MINION_SLAG_HEAP.POWERSETS",
  "requires": "",
  "power_names": [
    "V_SlagGolems.Minion_Slag_Heap.Slash",
    "V_SlagGolems.Minion_Slag_Heap.Throw_Debris"
  ],
  "power_display_names": [
    "Slash",
    "Throw Debris"
  ]
}