{
  "name": "Crafted_Neuronic_Shutdown_A",
  "display_name": "Crafted Neuronic Shutdown A",
  "display_fullname": "Boosts.Crafted Neuronic Shutdown A",
  "display_help": "Enhances the accuracy of a power by {Boost.Attrib.Accuracy.Scale}% and reduces the recharge time of a power by {Boost.Attrib.RechargeTime.Scale}%.",
  "display_short_help": "Set: Neuronic Shutdown",
  "available_level": [
    0
  ],
  "source_file": "DEFS/POWERS/BOOSTS/CRAFTED_NEURONIC_SHUTDOWN_A.POWERSETS",
  "requires": "",
  "power_names": [
    "Boosts.Crafted_Neuronic_Shutdown_A.Crafted_Neuronic_Shutdown_A"
  ],
  "power_display_names": [
    "Neuronic Shutdown: Accuracy/Recharge"
  ]
}