{
  "name": "Money_Bag_Auto",
  "display_name": "Money_Bag_Auto",
  "display_fullname": "Objects.Money Bag Auto",
  "display_help": "Money_Bag",
  "display_short_help": "Money_Bag",
  "available_level": [
    0
  ],
  "source_file": "DEFS/POWERS/OBJECTS/MONEY_BAG_AUTO.POWERSETS",
  "requires": "",
  "power_names": [
    "Objects.Money_Bag_Auto.Loot_Bag"
  ],
  "power_display_names": [
    "Loot Bag"
  ]
}