{
  "name": "Minion_Sledge",
  "display_name": "Minion Sledge",
  "display_fullname": "V Luddites.Minion Sledge",
  "display_help": "Luddites",
  "display_short_help": "Luddites",
  "available_level": [
    0
  ],
  "source_file": "DEFS/POWERS/V_LUDDITES/MINION_SLEDGE.POWERSETS",
  "requires": "",
  "power_names": [
    "V_Luddites.Minion_Sledge.Sledgehammer"
  ],
  "power_display_names": [
    "Sledgehammer"
  ]
}