{
  "name": "Crafted_Devastation_F",
  "display_name": "Crafted Devastation F",
  "display_fullname": "Boosts.Crafted Devastation F",
  "display_help": "Gives a small chance to hold your target. This effect will trigger roughly 3 times per minute.",
  "display_short_help": "Set: Devastation",
  "available_level": [
    0
  ],
  "source_file": "DEFS/POWERS/BOOSTS/CRAFTED_DEVASTATION_F.POWERSETS",
  "requires": "",
  "power_names": [
    "Boosts.Crafted_Devastation_F.Crafted_Devastation_F"
  ],
  "power_display_names": [
    "Devastation: Chance for Hold"
  ]
}