{
  "name": "Outcast_Low_Lt_Stone",
  "display_name": "Outcast_Low_Lt_Stone",
  "display_fullname": "Outcasts.Outcast Low Lt Stone",
  "display_help": "Outcast",
  "display_short_help": "Outcast",
  "available_level": [
    0
  ],
  "source_file": "DEFS/POWERS/OUTCASTS/OUTCAST_LOW_LT_STONE.POWERSETS",
  "requires": "",
  "power_names": [
    "Outcasts.Outcast_Low_Lt_Stone.Stone_Fist"
  ],
  "power_display_names": [
    "Stone Fist"
  ]
}