{
  "name": "Arcane_Light_Analyzer_Turret",
  "display_name": "Arcane_Light_Analyzer_Turret",
  "display_fullname": "Base Defenses.Arcane Light Analyzer Turret",
  "display_help": "Base Defenses",
  "display_short_help": "Base Defenses",
  "available_level": [
    0
  ],
  "source_file": "DEFS/POWERS/BASE_DEFENSES/ARCANE_LIGHT_ANALYZER_TURRET.POWERSETS",
  "requires": "",
  "power_names": [
    "Base_Defenses.Arcane_Light_Analyzer_Turret.Analyzer"
  ],
  "power_display_names": [
    "Analyzer"
  ]
}