{
  "name": "ForceGenerator",
  "display_name": "ForceGenerator",
  "display_fullname": "SkyRaiders.ForceGenerator",
  "display_help": "SkyRaiders",
  "display_short_help": "SkyRaiders",
  "available_level": [
    0,
    0
  ],
  "source_file": "DEFS/POWERS/SKYRAIDERS/FORCEGENERATOR.POWERSETS",
  "requires": "",
  "power_names": [
    "SkyRaiders.ForceGenerator.Generator",
    "SkyRaiders.ForceGenerator.Resistance"
  ],
  "power_display_names": [
    "Generator",
    "Resistance"
  ]
}