{
  "name": "Repairmen",
  "display_name": "Repairmen",
  "display_fullname": "V Arachnos.Repairmen",
  "display_help": "Arachnos",
  "display_short_help": "Arachnos",
  "available_level": [
    0,
    0
  ],
  "source_file": "DEFS/POWERS/V_ARACHNOS/REPAIRMEN.POWERSETS",
  "requires": "",
  "power_names": [
    "V_Arachnos.Repairmen.Summon_Workers_Live",
    "V_Arachnos.Repairmen.Summon_Workers"
  ],
  "power_display_names": [
    "Summon Workers Live",
    "Summon Workers"
  ]
}