{
  "name": "Attuned_Induced_Coma_C",
  "display_name": "Attuned Induced Coma C",
  "display_fullname": "Boosts.Attuned Induced Coma C",
  "display_help": "Enhances the accuracy by {Boost.Attrib.Accuracy.Scale}% and reduces the endurance cost of a power by {Boost.Attrib.Endurance.Scale}%.",
  "display_short_help": "Set: Induced Coma",
  "available_level": [
    0
  ],
  "source_file": "DEFS/POWERS/BOOSTS/ATTUNED_INDUCED_COMA_C.POWERSETS",
  "requires": "",
  "power_names": [
    "Boosts.Attuned_Induced_Coma_C.Attuned_Induced_Coma_C"
  ],
  "power_display_names": [
    "Induced Coma: Accuracy/Endurance"
  ]
}