{
  "name": "Crafted_Gift_of_the_Ancients_B",
  "display_name": "Crafted Gift of the Ancients B",
  "display_fullname": "Boosts.Crafted Gift of the Ancients B",
  "display_help": "Enhances the effectiveness of defense buffs.",
  "display_short_help": "Set: Gift of the Ancients",
  "available_level": [
    0
  ],
  "source_file": "DEFS/POWERS/BOOSTS/CRAFTED_GIFT_OF_THE_ANCIENTS_B.POWERSETS",
  "requires": "",
  "power_names": [
    "Boosts.Crafted_Gift_of_the_Ancients_B.Crafted_Gift_of_the_Ancients_B"
  ],
  "power_display_names": [
    "Gift of the Ancients: Defense/Recharge"
  ]
}