{
  "name": "DarrinWade",
  "display_name": "",
  "display_fullname": "OneWillDie Issue2Powers.DarrinWade",
  "display_help": "Darrin Wade",
  "display_short_help": "Darrin Wade",
  "available_level": [
    0,
    0,
    0,
    0
  ],
  "source_file": "DEFS/POWERS/ONEWILLDIE_ISSUE2POWERS/DARRINWADE.POWERSETS",
  "requires": "",
  "power_names": [
    "OneWillDie_Issue2Powers.DarrinWade.Shadow_Bolt",
    "OneWillDie_Issue2Powers.DarrinWade.Shadow_Blast",
    "OneWillDie_Issue2Powers.DarrinWade.Sunless_Mire",
    "OneWillDie_Issue2Powers.DarrinWade.Essence_Drain"
  ],
  "power_display_names": [
    "Shadow Bolt",
    "Shadow Blast",
    "Sunless Mire",
    "Essence Drain"
  ]
}