{
  "name": "Diabolique_Spirits",
  "display_name": "Diabolique_Spirits",
  "display_fullname": "Praetorians.Diabolique Spirits",
  "display_help": "Praetorians",
  "display_short_help": "Praetorians",
  "available_level": [
    0,
    0,
    0,
    0,
    0,
    0,
    0,
    0
  ],
  "source_file": "DEFS/POWERS/PRAETORIANS/DIABOLIQUE_SPIRITS.POWERSETS",
  "requires": "",
  "power_names": [
    "Praetorians.Diabolique_Spirits.Smite",
    "Praetorians.Diabolique_Spirits.Siphon_Life",
    "Praetorians.Diabolique_Spirits.Midnight_Grasp",
    "Praetorians.Diabolique_Spirits.Chill_of_the_Night",
    "Praetorians.Diabolique_Spirits.Resistance",
    "Praetorians.Diabolique_Spirits.Ethereal",
    "Praetorians.Diabolique_Spirits.Fly",
    "Praetorians.Diabolique_Spirits.Fly_fx"
  ],
  "power_display_names": [
    "Smite",
    "Siphon Life",
    "Midnight Grasp",
    "Chill of the Night",
    "Resistance",
    "Ethereal",
    "Fly",
    "Fly fx"
  ]
}