{
  "name": "Adamastor_Ranged_Powers",
  "display_name": "Adamastor_Ranged_Powers",
  "display_fullname": "BanishedPantheon.Adamastor Ranged Powers",
  "display_help": "Banished Pantheon",
  "display_short_help": "Banished Pantheon",
  "available_level": [
    0
  ],
  "source_file": "DEFS/POWERS/BANISHEDPANTHEON/ADAMASTOR_RANGED_POWERS.POWERSETS",
  "requires": "",
  "power_names": [
    "BanishedPantheon.Adamastor_Ranged_Powers.Dry_Heave"
  ],
  "power_display_names": [
    "Dry Heave"
  ]
}