{
  "name": "Crafted_Unspeakable_Terror_E",
  "display_name": "Crafted Unspeakable Terror E",
  "display_fullname": "Boosts.Crafted Unspeakable Terror E",
  "display_help": "Enhances the accuracy of a power by {Boost.Attrib.Accuracy.Scale}%, Fear duration by {Boost.Attrib.Mez.Scale}% and reduces the attack rate by {Boost.Attrib.RechargeTime.Scale}%.",
  "display_short_help": "Set: Unspeakable Terror",
  "available_level": [
    0
  ],
  "source_file": "DEFS/POWERS/BOOSTS/CRAFTED_UNSPEAKABLE_TERROR_E.POWERSETS",
  "requires": "",
  "power_names": [
    "Boosts.Crafted_Unspeakable_Terror_E.Crafted_Unspeakable_Terror_E"
  ],
  "power_display_names": [
    "Unspeakable Terror: Accuracy/Fear/Recharge"
  ]
}