{
  "name": "Chimera_Redirect",
  "display_name": "Chimera",
  "display_fullname": "Magisterium.Chimera",
  "display_help": "Chimera",
  "display_short_help": "Chimera",
  "available_level": [
    0,
    0
  ],
  "source_file": "DEFS/POWERS/MAGISTERIUM/CHIMERA_REDIRECT.POWERSETS",
  "requires": "",
  "power_names": [
    "Magisterium.Chimera_Redirect.Rain_of_Arrows",
    "Magisterium.Chimera_Redirect.Teleport_Arrows"
  ],
  "power_display_names": [
    "Rain of Arrows",
    "Teleport Arrows"
  ]
}