{
  "name": "Clockwork_Support_B",
  "display_name": "Clockwork Support B",
  "display_fullname": "NewPraetorians.Clockwork Support B",
  "display_help": "Clockwork",
  "display_short_help": "Clockwork",
  "available_level": [
    0,
    0
  ],
  "source_file": "DEFS/POWERS/NEWPRAETORIANS/CLOCKWORK_SUPPORT_B.POWERSETS",
  "requires": "",
  "power_names": [
    "NewPraetorians.Clockwork_Support_B.Particle_Spray",
    "NewPraetorians.Clockwork_Support_B.Quick_Repair"
  ],
  "power_display_names": [
    "Particle Spray",
    "Quick Repair"
  ]
}