{
  "name": "Attuned_Horror_D",
  "display_name": "Attuned Horror D",
  "display_fullname": "Boosts.Attuned Horror D",
  "display_help": "Enhances the range of a power by {Boost.Attrib.Range.Scale}% and fear duration by {Boost.Attrib.Mez.Scale}%.",
  "display_short_help": "Set: Horror",
  "available_level": [
    0
  ],
  "source_file": "DEFS/POWERS/BOOSTS/ATTUNED_HORROR_D.POWERSETS",
  "requires": "",
  "power_names": [
    "Boosts.Attuned_Horror_D.Attuned_Horror_D"
  ],
  "power_display_names": [
    "Horror: Fear/Range"
  ]
}