{
  "name": "Crafted_Razzle_Dazzle_A",
  "display_name": "Crafted Razzle Dazzle A",
  "display_fullname": "Boosts.Crafted Razzle Dazzle A",
  "display_help": "Enhances the accuracy of a power by {Boost.Attrib.Accuracy.Scale}% and reduces the recharge time of a power by {Boost.Attrib.RechargeTime.Scale}%.",
  "display_short_help": "Set: Razzle Dazzle",
  "available_level": [
    0
  ],
  "source_file": "DEFS/POWERS/BOOSTS/CRAFTED_RAZZLE_DAZZLE_A.POWERSETS",
  "requires": "",
  "power_names": [
    "Boosts.Crafted_Razzle_Dazzle_A.Crafted_Razzle_Dazzle_A"
  ],
  "power_display_names": [
    "Razzle Dazzle: Accuracy/Recharge"
  ]
}