{
  "name": "Ice_Armor",
  "display_name": "Ice Armor",
  "display_fullname": "Brute Defense.Ice Armor",
  "display_help": "You can dramatically reduce your core body temperature to form various armors of ice around yourself. You can protect yourself from many different damage types, and you gain exceptional resistance to Cold based attacks. However, this set offers little protection to Fire based powers and no protection against Psionics.",
  "display_short_help": "Ice Armor",
  "available_level": [
    0,
    1,
    3,
    9,
    15,
    19,
    27,
    34,
    37
  ],
  "source_file": "DEFS/POWERS/BRUTE_DEFENSE/ICE_ARMOR.POWERSETS",
  "requires": "",
  "power_names": [
    "Brute_Defense.Ice_Armor.Ice_Armor",
    "Brute_Defense.Ice_Armor.Hoarfrost",
    "Brute_Defense.Ice_Armor.Chilling_Embrace",
    "Brute_Defense.Ice_Armor.Wet_Ice",
    "Brute_Defense.Ice_Armor.Glacial_Armor",
    "Brute_Defense.Ice_Armor.Energy_Absorption",
    "Brute_Defense.Ice_Armor.Permafrost",
    "Brute_Defense.Ice_Armor.Icicles",
    "Brute_Defense.Ice_Armor.Hibernate"
  ],
  "power_display_names": [
    "Frozen Armor",
    "Hoarfrost",
    "Chilling Embrace",
    "Wet Ice",
    "Glacial Armor",
    "Energy Absorption",
    "Permafrost",
    "Icicles",
    "Hibernate"
  ]
}