{
  "name": "prestige_BlueWisp_Pet",
  "full_name": "Prestige.Combat_Pets.prestige_BlueWisp_Pet",
  "type": "Toggle",
  "display_name": "Blue Wisp Pet",
  "display_fullname": "Prestige.Combat Pets.Blue Wisp Pet",
  "display_help": "You can use this power to summon a Wisp helper from the Lost Lands. It will follow you around and help you by increasing your endurance recovery and defense. It's fragile, though, and will flee if attacked.",
  "display_short_help": "Summon Wisp Pet: +Rec, +Def",
  "icon": "inherent_bluewisppet.png",
  "auto_issue": false,
  "auto_issue_keeps_level": false,
  "message_caster": null,
  "message_floater": null,
  "message_attacker_hit": null,
  "message_target_hit": null,
  "message_target_confirm": null,
  "message_float_reward": null,
  "message_defense_avoidance": null,
  "attack_types": [

  ],
  "requires": "",
  "activate_requires": "",
  "accuracy": 1.0,
  "number_allowed": 1,
  "caster_near_ground": true,
  "target_near_ground": true,
  "cast_when_dead": "AliveOnly",
  "cast_through": [

  ],
  "toggle_ignores": [
    "hold",
    "sleep",
    "stun"
  ],
  "ignore_level_gained": false,
  "works_on_untouchable": false,
  "works_through_vision_phase": false,
  "target_untargetable": false,
  "interrupt_like_sleep": false,
  "notify_ai_when": "Always",
  "effect_area": "Location",
  "max_targets_hit": 0,
  "radius": 0.0,
  "arc": 0.0,
  "range": 60.0,
  "range_secondary": 0.0,
  "activation_time": 2.33,
  "root_time": 2.33,
  "interrupt_time": 0.0,
  "recharge_time": 20.0,
  "activate_period": 10.0,
  "endurance_cost": 0.0,
  "cancelable": false,
  "self_confirm": false,
  "confirm_requires": "",
  "time_to_confirm": 0,
  "chain_delay": 0.0,
  "chain_effect_expr": "",
  "chain_forks": [

  ],
  "chain_into_power_name": null,
  "vec_box_offset": [
    0.0,
    0.0,
    0.0
  ],
  "vec_box_size": [
    0.0,
    0.0,
    0.0
  ],
  "number_of_charges": 0,
  "max_num_charges": 0,
  "destroy_on_last_use": true,
  "power_lifetime": 0.0,
  "max_power_lifetime": 0.0,
  "power_lifetime_ingame": 0.0,
  "max_power_lifetime_ingame": 0.0,
  "stacking_lifetime": false,
  "toggle_on_time": 0.0,
  "max_toggle_on_time": 0.0,
  "toggle_detoggle_time": 0.0,
  "toggle_droppable": "Sometimes",
  "ignore_toggle_max_distance": true,
  "target_type": "Location",
  "target_type_secondary": null,
  "target_visibility": "LineOfSight",
  "targets_affected": [
    "Self"
  ],
  "targets_autohit": [
    "Self"
  ],
  "target_requires": "",
  "proc_allowed": "All",
  "boosts_allowed": [

  ],
  "allowed_boostset_cats": [

  ],
  "exclusion_groups": [
    "CombatPet_Group"
  ],
  "modes_required": [

  ],
  "modes_disallowed": [
    "Disable_Walk",
    "Disable_Temp"
  ],
  "recharge_groups": [

  ],
  "ignore_strength": false,
  "strengths_disallowed": [

  ],
  "global_strengths_disallowed": [

  ],
  "procs_only_on_main_target": false,
  "vars_attribmods_can_reference": [

  ],
  "show_buff_icon": true,
  "show_in_info": true,
  "show_in_manage": false,
  "show_in_inventory": "Show",
  "deletable": false,
  "tradeable": false,
  "do_not_save": false,
  "max_boosts": 0,
  "ignore_level_differences": false,
  "ignore_exemplar_for_bonuses": false,
  "boost_combinable": true,
  "boost_tradeable": true,
  "boost_account_bound": false,
  "boost_boostable": false,
  "boost_use_player_level": false,
  "boost_catalyzable": null,
  "boost_store_product": null,
  "boost_min_slot_level": -3,
  "boost_max_level": 50,
  "instance_locked": false,
  "is_environment_hit": false,
  "shuffle_target_list": false,
  "enforced_level_bought": 0,
  "refreshes_on_active_player_change": false,
  "highlight_expression": "",
  "highlight_icon": null,
  "highlight_color": "#00000000",
  "travel_suppression_time": 4.0,
  "server_tray_priority": 0,
  "server_tray_requires": "",
  "abusive_buff": true,
  "position_center": "kModTarget_Caster",
  "position_distance": 0.0,
  "position_height": 0.0,
  "position_yaw": 0.0,
  "face_target": true,
  "attrib_cache": [
    "Create_Entity"
  ],
  "max_targets_expression": "",
  "chain_target_expr": "",
  "powerset": "Prestige.Combat_Pets",
  "available_level": 0,
  "archetypes": [
    "arachnos_soldier",
    "arachnos_widow",
    "blaster",
    "brute",
    "controller",
    "corruptor",
    "defender",
    "dominator",
    "mastermind",
    "peacebringer",
    "scrapper",
    "sentinel",
    "stalker",
    "tanker",
    "warshade"
  ],
  "redirect": [

  ],
  "effects": [
    {
      "tags": [

      ],
      "chance": 1.0,
      "ppm": 0.0,
      "delay": 0.0,
      "radius_inner": -1.0,
      "radius_outer": -1.0,
      "requires_expression": "",
      "flags": [

      ],
      "eval_flags": 0,
      "child_effects": [

      ],
      "templates": [
        {
          "attribs": [
            "Create_Entity"
          ],
          "type": "Magnitude",
          "application_type": "OnActivate",
          "aspect": "Current",
          "target": "Self",
          "table": "Ranged_Ones",
          "scale": -1.0,
          "duration": "UntilKilled",
          "magnitude": 1.0,
          "delay": 1.5,
          "duration_expression": "",
          "magnitude_expression": "",
          "application_period": 0.0,
          "tick_chance": 1.0,
          "jit_requires": "",
          "caster_stack": "Individual",
          "stack": "Ignore",
          "stack_limit": 2,
          "stack_key": null,
          "cancel_events": [

          ],
          "boost_mod_allowed": "Science_Boost",
          "flags": [
            "NearGround (3)",
            "IgnoreStrength (4)",
            "IgnoreResistance (5)",
            "CombatModMagnitude (9)",
            "CopyBoosts (34)"
          ],
          "mode_name": null,
          "target_info": null,
          "messages": null,
          "suppress_events": [

          ],
          "params": {
            "type": "EntCreate",
            "entity_def": "Pets_Blue_Wisp_Pet",
            "class_name": null,
            "costume_name": null,
            "display_name": null,
            "priorities": "Pet.Follow",
            "ai_config": null,
            "category_names": [

            ],
            "powerset_names": [

            ],
            "power_names": [

            ],
            "redirects": [

            ]
          },
          "fx": null
        }
      ],
      "is_pvp": "EITHER"
    }
  ],
  "activation_effects": [

  ],
  "fx": {
    "source_file": "MENU/POWERS/ANIMFX/TEMPORARY_POWER_SHIVAN_SUMMON_TOGGLE.PFX",
    "attack_bits": [

    ],
    "block_bits": [

    ],
    "wind_up_bits": [

    ],
    "hit_bits": [

    ],
    "death_bits": [

    ],
    "activation_bits": [
      20,
      260,
      258,
      414
    ],
    "deactivation_bits": [

    ],
    "initial_attack_bits": [

    ],
    "continuing_bits": [

    ],
    "conditional_bits": [

    ],
    "activation_fx": null,
    "deactivation_fx": null,
    "attack_fx": null,
    "secondary_attack_fx": null,
    "hit_fx": null,
    "wind_up_fx": null,
    "block_fx": null,
    "death_fx": null,
    "initial_attack_fx": null,
    "continuing_fx": [

    ],
    "conditional_fx": [

    ],
    "mode_bits": [

    ],
    "frames_before_hit": 36,
    "frames_before_secondary_hit": 0,
    "delayed_hit": false,
    "frames_attack": 70,
    "initial_frames_before_hit": 36,
    "initial_attack_fx_frame_delay": 0,
    "projectile_speed": 3.4028234663852886e38,
    "secondary_projectile_speed": 0.0,
    "initial_frames_before_block": 0,
    "ignore_attack_time_errors": null,
    "frames_before_block": 0,
    "fx_important": false
  },
  "custom_fx": [

  ],
  "fx_only_on_main_target": false
}