{
  "name": "Superior_Attuned_Superior_Overpowering_Presence_F",
  "display_name": "Superior Attuned Superior Overpowering Presence F",
  "display_fullname": "Boosts.Superior Attuned Overpowering Presence F",
  "display_help": "UNIQUE -- No more than 1 enhancement of this type may be slotted by a character. Gives the slotted power a chance to create an Energy Font which will damage and stun enemies and reduces recharge time by {Boost.Attrib.RechargeTime.Scale}%. This enhancement's chance to trigger is equal to approximately 2 times per minute. This enhancement can only be slotted by Controllers and may be slotted into most control powers.",
  "display_short_help": "Set: Superior Overpowering Presence",
  "available_level": [
    0
  ],
  "source_file": "DEFS/POWERS/BOOSTS/SUPERIOR_ATTUNED_SUPERIOR_OVERPOWERING_PRESENCE_F.POWERSETS",
  "requires": "",
  "power_names": [
    "Boosts.Superior_Attuned_Superior_Overpowering_Presence_F.Superior_Attuned_Superior_Overpowering_Presence_F"
  ],
  "power_display_names": [
    "Superior Overpowering Presence: Recharge/Chance for Energy Font (Controller)"
  ]
}