{
  "name": "GraveKnight",
  "display_name": "Grave Knight",
  "display_fullname": "Skulls.Grave Knight",
  "display_help": "Grave Knight",
  "display_short_help": "Grave Knight",
  "available_level": [
    0,
    0,
    0,
    0
  ],
  "source_file": "DEFS/POWERS/SKULLS/GRAVEKNIGHT.POWERSETS",
  "requires": "",
  "power_names": [
    "Skulls.GraveKnight.Resistance",
    "Skulls.GraveKnight.Super_Leap",
    "Skulls.GraveKnight.Hack",
    "Skulls.GraveKnight.Slash"
  ],
  "power_display_names": [
    "Resistance",
    "Super Leap",
    "Hack",
    "Slash"
  ]
}