{
  "name": "Cyclops",
  "display_name": "Cyclops",
  "display_fullname": "Romans.Cyclops",
  "display_help": "Hero",
  "display_short_help": "Hero",
  "available_level": [
    0,
    0,
    0,
    0,
    0,
    0,
    0,
    0,
    0,
    0
  ],
  "source_file": "DEFS/POWERS/ROMANS/CYCLOPS.POWERSETS",
  "requires": "",
  "power_names": [
    "Romans.Cyclops.Jab",
    "Romans.Cyclops.Punch",
    "Romans.Cyclops.Hurl",
    "Romans.Cyclops.Resistance",
    "Romans.Cyclops.Haymaker",
    "Romans.Cyclops.Hand_Clap",
    "Romans.Cyclops.Unyielding",
    "Romans.Cyclops.Knockout_Blow",
    "Romans.Cyclops.Foot_Stomp",
    "Romans.Cyclops.Unstoppable"
  ],
  "power_display_names": [
    "Jab",
    "Punch",
    "Hurl",
    "Resistance",
    "Haymaker",
    "Hand Clap",
    "Unyielding",
    "Knockout Blow",
    "Foot Stomp",
    "Unstoppable"
  ]
}