{
  "name": "Shield_Charge_AoE4",
  "display_name": "Shield Defense",
  "display_fullname": "Villain Pets.Shield Defense",
  "display_help": "Shield Defense",
  "display_short_help": "Shield Defense",
  "available_level": [
    0
  ],
  "source_file": "DEFS/POWERS/VILLAIN_PETS/SHIELD_CHARGE_AOE4.POWERSETS",
  "requires": "",
  "power_names": [
    "Villain_Pets.Shield_Charge_AoE4.Shield_Charge_AoE_Scrapper"
  ],
  "power_display_names": [
    "Shield Charge"
  ]
}