{
  "name": "Attuned_Avalanche_E",
  "display_name": "Attuned Avalanche E",
  "display_fullname": "Boosts.Attuned Avalanche E",
  "display_help": "UNIQUE -- No more than 1 enhancement of this type may be slotted by a character. Enhances the accuracy of a power by {Boost.Attrib.Accuracy.Scale}%, damage by {Boost.Attrib.Damage.Scale}%, reduces endurance cost by {Boost.Attrib.Endurance.Scale}% and reduces recharge time by {Boost.Attrib.RechargeTime.Scale}%. This enhancement can only be slotted by Blasters and may be slotted into any Blaster damage power.",
  "display_short_help": "Set: Avalanche",
  "available_level": [
    0
  ],
  "source_file": "DEFS/POWERS/BOOSTS/ATTUNED_AVALANCHE_E.POWERSETS",
  "requires": "",
  "power_names": [
    "Boosts.Attuned_Avalanche_E.Attuned_Avalanche_E"
  ],
  "power_display_names": [
    "Avalanche: Accuracy/Damage/Endurance/Recharge"
  ]
}