{
  "name": "Science_Hold",
  "display_name": "Science Hold",
  "display_fullname": "Boosts.Science Hold",
  "display_help": "Increases the duration of a hold power.",
  "display_short_help": "Experiment (Science)",
  "available_level": [
    0
  ],
  "source_file": "DEFS/POWERS/BOOSTS/SCIENCE_HOLD.POWERSETS",
  "requires": "",
  "power_names": [
    "Boosts.Science_Hold.Science_Hold"
  ],
  "power_display_names": [
    "Thallium Exposure (Hold)"
  ]
}