{
  "name": "Prowler_Form_Powers",
  "display_name": "Feral Might",
  "display_fullname": "Primalist Misc.Feral Might",
  "display_help": "Feral Might",
  "display_short_help": "Feral Might",
  "available_level": [
    0,
    0,
    0,
    0,
    0,
    0
  ],
  "source_file": "DEFS/POWERS/PRIMALIST_MISC/PROWLER_FORM_POWERS.POWERSETS",
  "requires": "",
  "power_names": [
    "Primalist_Misc.Prowler_Form_Powers.Feral_Blow_Prowler",
    "Primalist_Misc.Prowler_Form_Powers.Vicious_Strike_Prowler",
    "Primalist_Misc.Prowler_Form_Powers.Brutal_Swipe_Prowler",
    "Primalist_Misc.Prowler_Form_Powers.Primal_Strike_Prowler",
    "Primalist_Misc.Prowler_Form_Powers.Upheaval_Prowler",
    "Primalist_Misc.Prowler_Form_Powers.Savage_Blow_Prowler"
  ],
  "power_display_names": [
    "Feral Blow",
    "Vicious Strike",
    "Brutal Swipe",
    "Primal Strike",
    "Upheaval",
    "Savage Blow"
  ]
}