{
  "name": "Energy_Transfer",
  "full_name": "Stalker_Melee.Energy_Melee.Energy_Transfer",
  "type": "Click",
  "display_name": "Energy Transfer",
  "display_fullname": "Stalker Melee.Energy Melee.Energy Transfer",
  "display_help": "Mastery of Energy Melee culminates with the ability to transfer your own Hit Points into a punch that deals extreme damage. Energy Transfer has a good chance of Disorienting the target. This power will execute extremely quickly if under Energy Focus mode.<br><br><color #fcfc95>Damage: Extreme.</color><br><color #fcfc95>Recharge: Moderate.</color>",
  "display_short_help": "Melee, Extreme DMG(Energy), Foe Disorient, Self -HP, Special",
  "icon": "powerpunch_energytransfer.png",
  "auto_issue": false,
  "auto_issue_keeps_level": false,
  "message_caster": null,
  "message_floater": null,
  "message_attacker_hit": null,
  "message_target_hit": null,
  "message_target_confirm": null,
  "message_float_reward": null,
  "message_defense_avoidance": null,
  "attack_types": [
    "Melee",
    "Energy"
  ],
  "requires": "",
  "activate_requires": "",
  "accuracy": 1.2,
  "number_allowed": 1,
  "caster_near_ground": false,
  "target_near_ground": false,
  "cast_when_dead": "AliveOnly",
  "cast_through": [

  ],
  "toggle_ignores": [

  ],
  "ignore_level_gained": false,
  "works_on_untouchable": false,
  "works_through_vision_phase": false,
  "target_untargetable": false,
  "interrupt_like_sleep": false,
  "notify_ai_when": "Always",
  "effect_area": "SingleTarget",
  "max_targets_hit": 0,
  "radius": 0.0,
  "arc": 0.0,
  "range": 7.0,
  "range_secondary": 0.0,
  "activation_time": 2.67,
  "root_time": 2.67,
  "interrupt_time": 0.0,
  "recharge_time": 10.0,
  "activate_period": 0.0,
  "endurance_cost": 0.0,
  "cancelable": false,
  "self_confirm": false,
  "confirm_requires": "",
  "time_to_confirm": 0,
  "chain_delay": 0.0,
  "chain_effect_expr": "",
  "chain_forks": [

  ],
  "chain_into_power_name": null,
  "vec_box_offset": [
    0.0,
    0.0,
    0.0
  ],
  "vec_box_size": [
    0.0,
    0.0,
    0.0
  ],
  "number_of_charges": 0,
  "max_num_charges": 0,
  "destroy_on_last_use": true,
  "power_lifetime": 0.0,
  "max_power_lifetime": 0.0,
  "power_lifetime_ingame": 0.0,
  "max_power_lifetime_ingame": 0.0,
  "stacking_lifetime": false,
  "toggle_on_time": 0.0,
  "max_toggle_on_time": 0.0,
  "toggle_detoggle_time": 0.0,
  "toggle_droppable": "Sometimes",
  "ignore_toggle_max_distance": false,
  "target_type": "Foe (Alive)",
  "target_type_secondary": null,
  "target_visibility": "LineOfSight",
  "targets_affected": [
    "Foe (Alive)"
  ],
  "targets_autohit": [

  ],
  "target_requires": "",
  "proc_allowed": "All",
  "boosts_allowed": [
    "Enhance Disorient",
    "Enhance Recharge Speed",
    "Enhance Damage",
    "Enhance Accuracy"
  ],
  "allowed_boostset_cats": [
    "Melee Damage",
    "Stalker Archetype Sets",
    "Stuns",
    "Universal Damage Sets"
  ],
  "exclusion_groups": [

  ],
  "modes_required": [

  ],
  "modes_disallowed": [
    "Disable_All"
  ],
  "recharge_groups": [

  ],
  "ignore_strength": false,
  "strengths_disallowed": [
    "Range"
  ],
  "global_strengths_disallowed": [

  ],
  "procs_only_on_main_target": false,
  "vars_attribmods_can_reference": [

  ],
  "show_buff_icon": true,
  "show_in_info": true,
  "show_in_manage": true,
  "show_in_inventory": "Show",
  "deletable": false,
  "tradeable": false,
  "do_not_save": false,
  "max_boosts": 6,
  "ignore_level_differences": false,
  "ignore_exemplar_for_bonuses": false,
  "boost_combinable": true,
  "boost_tradeable": true,
  "boost_account_bound": false,
  "boost_boostable": false,
  "boost_use_player_level": false,
  "boost_catalyzable": null,
  "boost_store_product": null,
  "boost_min_slot_level": -3,
  "boost_max_level": 50,
  "instance_locked": false,
  "is_environment_hit": false,
  "shuffle_target_list": false,
  "enforced_level_bought": -1,
  "refreshes_on_active_player_change": false,
  "highlight_expression": "Redirects.Energy_Melee.Energy_Store",
  "highlight_icon": null,
  "highlight_color": "#C0C0FFFF",
  "travel_suppression_time": 1.0,
  "server_tray_priority": 0,
  "server_tray_requires": "",
  "abusive_buff": true,
  "position_center": "kModTarget_Caster",
  "position_distance": 0.0,
  "position_height": 0.0,
  "position_yaw": 0.0,
  "face_target": true,
  "attrib_cache": [

  ],
  "max_targets_expression": "",
  "chain_target_expr": "",
  "powerset": "Stalker_Melee.Energy_Melee",
  "available_level": 31,
  "archetypes": [
    "stalker"
  ],
  "redirect": [
    {
      "name": "Redirects.Energy_Melee.Energy_Transfer_Slow_Stalker",
      "condition_expression": "!source.ownPower?(Redirects.Energy_Melee.Energy_Store)"
    },
    {
      "name": "Redirects.Energy_Melee.Energy_Transfer_Fast_Stalker",
      "condition_expression": "source.ownPower?(Redirects.Energy_Melee.Energy_Store)"
    }
  ],
  "effects": [

  ],
  "activation_effects": [

  ],
  "fx": {
    "source_file": "MENU/POWERS/ANIMFX/PLAYERPOWERS/STALKERMELEE_ENERGYMELEE_ENERGYTRANSFER.PFX",
    "attack_bits": [
      20,
      652
    ],
    "block_bits": [

    ],
    "wind_up_bits": [

    ],
    "hit_bits": [
      49,
      681
    ],
    "death_bits": [

    ],
    "activation_bits": [

    ],
    "deactivation_bits": [

    ],
    "initial_attack_bits": [
      20,
      652
    ],
    "continuing_bits": [

    ],
    "conditional_bits": [

    ],
    "activation_fx": "POWERS/POWERPUNCH/POWERPUNCHATTACHED.FX",
    "deactivation_fx": null,
    "attack_fx": "POWERS/POWERPUNCH/ENERGYTRANSFER.FX",
    "secondary_attack_fx": null,
    "hit_fx": "POWERS/POWERPUNCH/ENERGYTRANSFER_HIT.FX",
    "wind_up_fx": null,
    "block_fx": null,
    "death_fx": null,
    "initial_attack_fx": "POWERS/POWERPUNCH/ENERGYTRANSFER.FX",
    "continuing_fx": [

    ],
    "conditional_fx": [

    ],
    "mode_bits": [
      20
    ],
    "frames_before_hit": 66,
    "frames_before_secondary_hit": 0,
    "delayed_hit": false,
    "frames_attack": 80,
    "initial_frames_before_hit": 66,
    "initial_attack_fx_frame_delay": 0,
    "projectile_speed": 3.4028234663852886e38,
    "secondary_projectile_speed": 0.0,
    "initial_frames_before_block": 0,
    "ignore_attack_time_errors": null,
    "frames_before_block": 0,
    "fx_important": false
  },
  "custom_fx": [
    {
      "display_name": null,
      "token": "Bright Energy",
      "alt_themes": [

      ],
      "category": null,
      "palette_name": "Additive",
      "fx": {
        "source_file": "MENU/POWERS/ANIMFX/PLAYERPOWERS/STALKERMELEE_ENERGYMELEE_ENERGYTRANSFER.PFX",
        "attack_bits": [
          20,
          652
        ],
        "block_bits": [

        ],
        "wind_up_bits": [

        ],
        "hit_bits": [
          49,
          681
        ],
        "death_bits": [

        ],
        "activation_bits": [

        ],
        "deactivation_bits": [

        ],
        "initial_attack_bits": [
          20,
          652
        ],
        "continuing_bits": [

        ],
        "conditional_bits": [

        ],
        "activation_fx": "CUSTOMIZEABLEPOWERS/ENERGYMELEE/POWERPUNCHATTACHED.FX",
        "deactivation_fx": null,
        "attack_fx": "CUSTOMIZEABLEPOWERS/ENERGYMELEE/ENERGYTRANSFER.FX",
        "secondary_attack_fx": null,
        "hit_fx": "CUSTOMIZEABLEPOWERS/ENERGYMELEE/ENERGYTRANSFER_HIT.FX",
        "wind_up_fx": null,
        "block_fx": null,
        "death_fx": null,
        "initial_attack_fx": "CUSTOMIZEABLEPOWERS/ENERGYMELEE/ENERGYTRANSFER.FX",
        "continuing_fx": [

        ],
        "conditional_fx": [

        ],
        "mode_bits": [
          20
        ],
        "frames_before_hit": 66,
        "frames_before_secondary_hit": 0,
        "delayed_hit": false,
        "frames_attack": 80,
        "initial_frames_before_hit": 66,
        "initial_attack_fx_frame_delay": 0,
        "projectile_speed": 3.4028234663852886e38,
        "secondary_projectile_speed": 0.0,
        "initial_frames_before_block": 0,
        "ignore_attack_time_errors": null,
        "frames_before_block": 0,
        "fx_important": false
      }
    },
    {
      "display_name": null,
      "token": "Dark Energy",
      "alt_themes": [

      ],
      "category": null,
      "palette_name": "Subtractive",
      "fx": {
        "source_file": "MENU/POWERS/ANIMFX/PLAYERPOWERS/STALKERMELEE_ENERGYMELEE_ENERGYTRANSFER.PFX",
        "attack_bits": [
          20,
          652
        ],
        "block_bits": [

        ],
        "wind_up_bits": [

        ],
        "hit_bits": [
          49,
          681
        ],
        "death_bits": [

        ],
        "activation_bits": [

        ],
        "deactivation_bits": [

        ],
        "initial_attack_bits": [
          20,
          652
        ],
        "continuing_bits": [

        ],
        "conditional_bits": [

        ],
        "activation_fx": "CUSTOMIZEABLEPOWERS/ENERGYMELEE/SUBTRACTIVE/POWERPUNCHATTACHED.FX",
        "deactivation_fx": null,
        "attack_fx": "CUSTOMIZEABLEPOWERS/ENERGYMELEE/SUBTRACTIVE/ENERGYTRANSFER.FX",
        "secondary_attack_fx": null,
        "hit_fx": "CUSTOMIZEABLEPOWERS/ENERGYMELEE/SUBTRACTIVE/ENERGYTRANSFER_HIT.FX",
        "wind_up_fx": null,
        "block_fx": null,
        "death_fx": null,
        "initial_attack_fx": "CUSTOMIZEABLEPOWERS/ENERGYMELEE/SUBTRACTIVE/ENERGYTRANSFER.FX",
        "continuing_fx": [

        ],
        "conditional_fx": [

        ],
        "mode_bits": [
          20
        ],
        "frames_before_hit": 66,
        "frames_before_secondary_hit": 0,
        "delayed_hit": false,
        "frames_attack": 80,
        "initial_frames_before_hit": 66,
        "initial_attack_fx_frame_delay": 0,
        "projectile_speed": 3.4028234663852886e38,
        "secondary_projectile_speed": 0.0,
        "initial_frames_before_block": 0,
        "ignore_attack_time_errors": null,
        "frames_before_block": 0,
        "fx_important": false
      }
    }
  ],
  "fx_only_on_main_target": false
}