{
  "name": "Attuned_Impervium_Armor_B",
  "display_name": "Attuned Impervium Armor B",
  "display_fullname": "Boosts.Attuned Impervium Armor B",
  "display_help": "Enhances the effectiveness of Resistance buffs.",
  "display_short_help": "Set: Impervium Armor",
  "available_level": [
    0
  ],
  "source_file": "DEFS/POWERS/BOOSTS/ATTUNED_IMPERVIUM_ARMOR_B.POWERSETS",
  "requires": "",
  "power_names": [
    "Boosts.Attuned_Impervium_Armor_B.Attuned_Impervium_Armor_B"
  ],
  "power_display_names": [
    "Impervium Armor: Resistance/Recharge"
  ]
}