{
  "name": "Crafted_Jump_50",
  "display_name": "Crafted Jump 50",
  "display_fullname": "Boosts.Crafted Jump 50",
  "display_help": "Increases jump height and distance by {Boost.Attrib.Movement.Scale}%.",
  "display_short_help": "Invention",
  "available_level": [
    0
  ],
  "source_file": "DEFS/POWERS/BOOSTS/CRAFTED_JUMP_50.POWERSETS",
  "requires": "",
  "power_names": [
    "Boosts.Crafted_Jump_50.Crafted_Jump_50"
  ],
  "power_display_names": [
    "Invention: Jumping"
  ]
}