{
  "name": "Jacobs_Ladder",
  "full_name": "Stalker_Melee.Electrical_Melee.Jacobs_Ladder",
  "type": "Click",
  "display_name": "Jacobs Ladder",
  "display_fullname": "Stalker Melee.Electrical Melee.Jacobs Ladder",
  "display_help": "You are able to generate a strong current between your arms and snap a powerful bolt of electricity in an arc in front of you. This melee attack can electrocute all foes within the arc dealing High energy damage. Jacobs Ladder can drain some Endurance from your target and may overload their synapses, leaving them writhing for a moment. Disturbing an overloaded target will disperse the electrical charge and release him.<br><br><color #fcfc95>Damage: Moderate.</color><br><color #fcfc95>Recharge: Moderate.</color>",
  "display_short_help": "Melee (Cone), Moderate DMG(Energy), Foe Sleep, -End",
  "icon": "electricmelee_conemoderatedmg.png",
  "auto_issue": false,
  "auto_issue_keeps_level": false,
  "message_caster": null,
  "message_floater": null,
  "message_attacker_hit": null,
  "message_target_hit": null,
  "message_target_confirm": null,
  "message_float_reward": null,
  "message_defense_avoidance": null,
  "attack_types": [
    "Melee",
    "Energy"
  ],
  "requires": "",
  "activate_requires": "",
  "accuracy": 1.0,
  "number_allowed": 1,
  "caster_near_ground": false,
  "target_near_ground": false,
  "cast_when_dead": "AliveOnly",
  "cast_through": [

  ],
  "toggle_ignores": [

  ],
  "ignore_level_gained": false,
  "works_on_untouchable": false,
  "works_through_vision_phase": false,
  "target_untargetable": false,
  "interrupt_like_sleep": false,
  "notify_ai_when": "Always",
  "effect_area": "Cone",
  "max_targets_hit": 5,
  "radius": 7.0,
  "arc": 0.8727,
  "range": 7.0,
  "range_secondary": 0.0,
  "activation_time": 1.67,
  "root_time": 1.67,
  "interrupt_time": 0.0,
  "recharge_time": 8.0,
  "activate_period": 0.0,
  "endurance_cost": 8.528,
  "cancelable": false,
  "self_confirm": false,
  "confirm_requires": "",
  "time_to_confirm": 0,
  "chain_delay": 0.0,
  "chain_effect_expr": "",
  "chain_forks": [

  ],
  "chain_into_power_name": null,
  "vec_box_offset": [
    0.0,
    0.0,
    0.0
  ],
  "vec_box_size": [
    0.0,
    0.0,
    0.0
  ],
  "number_of_charges": 0,
  "max_num_charges": 0,
  "destroy_on_last_use": true,
  "power_lifetime": 0.0,
  "max_power_lifetime": 0.0,
  "power_lifetime_ingame": 0.0,
  "max_power_lifetime_ingame": 0.0,
  "stacking_lifetime": false,
  "toggle_on_time": 0.0,
  "max_toggle_on_time": 0.0,
  "toggle_detoggle_time": 0.0,
  "toggle_droppable": "Sometimes",
  "ignore_toggle_max_distance": false,
  "target_type": "Foe (Alive)",
  "target_type_secondary": null,
  "target_visibility": "LineOfSight",
  "targets_affected": [
    "Foe (Alive)"
  ],
  "targets_autohit": [

  ],
  "target_requires": "",
  "proc_allowed": "All",
  "boosts_allowed": [
    "Enhance Endurance Modification",
    "Reduce Endurance Cost",
    "Enhance Sleep",
    "Enhance Recharge Speed",
    "Enhance Damage",
    "Enhance Accuracy"
  ],
  "allowed_boostset_cats": [
    "Endurance Modification",
    "Melee AoE Damage",
    "Sleep",
    "Stalker Archetype Sets",
    "Universal Damage Sets"
  ],
  "exclusion_groups": [

  ],
  "modes_required": [

  ],
  "modes_disallowed": [
    "Disable_All"
  ],
  "recharge_groups": [

  ],
  "ignore_strength": false,
  "strengths_disallowed": [
    "Range"
  ],
  "global_strengths_disallowed": [

  ],
  "procs_only_on_main_target": false,
  "vars_attribmods_can_reference": [

  ],
  "show_buff_icon": true,
  "show_in_info": true,
  "show_in_manage": true,
  "show_in_inventory": "Show",
  "deletable": false,
  "tradeable": false,
  "do_not_save": false,
  "max_boosts": 6,
  "ignore_level_differences": false,
  "ignore_exemplar_for_bonuses": false,
  "boost_combinable": true,
  "boost_tradeable": true,
  "boost_account_bound": false,
  "boost_boostable": false,
  "boost_use_player_level": false,
  "boost_catalyzable": null,
  "boost_store_product": null,
  "boost_min_slot_level": -3,
  "boost_max_level": 50,
  "instance_locked": false,
  "is_environment_hit": false,
  "shuffle_target_list": false,
  "enforced_level_bought": -1,
  "refreshes_on_active_player_change": false,
  "highlight_expression": "",
  "highlight_icon": null,
  "highlight_color": "#00000000",
  "travel_suppression_time": 1.0,
  "server_tray_priority": 0,
  "server_tray_requires": "",
  "abusive_buff": true,
  "position_center": "kModTarget_Caster",
  "position_distance": 0.0,
  "position_height": 0.0,
  "position_yaw": 0.0,
  "face_target": true,
  "attrib_cache": [
    "Energy_Dmg",
    "Endurance",
    "Recovery",
    "Sleep",
    "Grant_Power"
  ],
  "max_targets_expression": "",
  "chain_target_expr": "",
  "powerset": "Stalker_Melee.Electrical_Melee",
  "available_level": 1,
  "archetypes": [
    "stalker"
  ],
  "redirect": [

  ],
  "effects": [
    {
      "tags": [

      ],
      "chance": 1.0,
      "ppm": 0.0,
      "delay": 0.0,
      "radius_inner": -1.0,
      "radius_outer": -1.0,
      "requires_expression": "target>enttype eq 'critter'",
      "flags": [

      ],
      "eval_flags": 0,
      "child_effects": [
        {
          "tags": [
            "StealthCrit"
          ],
          "chance": 0.5,
          "ppm": 0.0,
          "delay": 0.0,
          "radius_inner": -1.0,
          "radius_outer": -1.0,
          "requires_expression": "target>enttype eq 'critter' && (source>kMeter > 0)",
          "flags": [

          ],
          "eval_flags": 0,
          "child_effects": [

          ],
          "templates": [
            {
              "attribs": [
                "Energy_Dmg"
              ],
              "type": "Magnitude",
              "application_type": "OnTick",
              "aspect": "Absolute",
              "target": "AnyAffected",
              "table": "Melee_Damage",
              "scale": 1.5,
              "duration": "0 seconds",
              "magnitude": 1.0,
              "delay": 0.0,
              "duration_expression": "",
              "magnitude_expression": "",
              "application_period": 0.0,
              "tick_chance": 1.0,
              "jit_requires": "",
              "caster_stack": "Individual",
              "stack": "Stack",
              "stack_limit": 2,
              "stack_key": null,
              "cancel_events": [

              ],
              "boost_mod_allowed": "Science_Boost",
              "flags": [
                "ResistMagnitude (7)",
                "CombatModMagnitude (9)"
              ],
              "mode_name": null,
              "target_info": null,
              "messages": {
                "display_attacker_hit": "You hit {PlayerDest} with your {PowerName} for {Damage} points of Energy damage [CRITICAL].",
                "display_victim_hit": "{PlayerSource} hits you with their {PowerName} for {Damage} points of Energy damage [CRITICAL].",
                "display_float": "CRITICAL",
                "display_defense_float": null
              },
              "suppress_events": [

              ],
              "params": null,
              "fx": null
            }
          ],
          "is_pvp": "EITHER"
        },
        {
          "tags": [
            "ASTeamCrit"
          ],
          "chance": 0.07,
          "ppm": 0.0,
          "delay": 0.0,
          "radius_inner": -1.0,
          "radius_outer": -1.0,
          "requires_expression": "target>enttype eq 'critter' && (source>kMeter < 0.9)",
          "flags": [

          ],
          "eval_flags": 0,
          "child_effects": [

          ],
          "templates": [
            {
              "attribs": [
                "Energy_Dmg"
              ],
              "type": "Magnitude",
              "application_type": "OnTick",
              "aspect": "Absolute",
              "target": "AnyAffected",
              "table": "Melee_Damage",
              "scale": 1.5,
              "duration": "0 seconds",
              "magnitude": 1.0,
              "delay": 0.0,
              "duration_expression": "",
              "magnitude_expression": "",
              "application_period": 0.0,
              "tick_chance": 1.0,
              "jit_requires": "",
              "caster_stack": "Individual",
              "stack": "Stack",
              "stack_limit": 2,
              "stack_key": null,
              "cancel_events": [

              ],
              "boost_mod_allowed": "Science_Boost",
              "flags": [
                "ResistMagnitude (7)",
                "CombatModMagnitude (9)",
                "HideZero (12)"
              ],
              "mode_name": null,
              "target_info": null,
              "messages": {
                "display_attacker_hit": "You hit {PlayerDest} with your {PowerName} for {Damage} points of Energy damage [CRITICAL].",
                "display_victim_hit": "{PlayerSource} hits you with their {PowerName} for {Damage} points of Energy damage [CRITICAL].",
                "display_float": "CRITICAL",
                "display_defense_float": null
              },
              "suppress_events": [

              ],
              "params": null,
              "fx": null
            }
          ],
          "is_pvp": "EITHER"
        },
        {
          "tags": [

          ],
          "chance": 0.1,
          "ppm": 0.0,
          "delay": 0.0,
          "radius_inner": -1.0,
          "radius_outer": -1.0,
          "requires_expression": "target>enttype eq 'critter'",
          "flags": [

          ],
          "eval_flags": 0,
          "child_effects": [

          ],
          "templates": [
            {
              "attribs": [
                "Sleep"
              ],
              "type": "Duration",
              "application_type": "OnTick",
              "aspect": "Current",
              "target": "AnyAffected",
              "table": "Melee_Sleep",
              "scale": 6.0,
              "duration": "0 seconds",
              "magnitude": 2.0,
              "delay": 0.25,
              "duration_expression": "",
              "magnitude_expression": "",
              "application_period": 0.0,
              "tick_chance": 1.0,
              "jit_requires": "",
              "caster_stack": "Individual",
              "stack": "Stack",
              "stack_limit": 2,
              "stack_key": null,
              "cancel_events": [

              ],
              "boost_mod_allowed": "Science_Boost",
              "flags": [
                "ResistDuration (8)",
                "CombatModDuration (10)"
              ],
              "mode_name": null,
              "target_info": null,
              "messages": {
                "display_attacker_hit": "You Sleep {PlayerDest} with your {PowerName}.",
                "display_victim_hit": "{PlayerSource} Sleeps you with their {PowerName}.",
                "display_float": null,
                "display_defense_float": null
              },
              "suppress_events": [

              ],
              "params": null,
              "fx": {
                "continuing_bits": [

                ],
                "continuing_fx": null,
                "conditional_bits": [
                  380
                ],
                "conditional_fx": "PFX"
              }
            }
          ],
          "is_pvp": "EITHER"
        }
      ],
      "templates": [
        {
          "attribs": [
            "Energy_Dmg"
          ],
          "type": "Magnitude",
          "application_type": "OnTick",
          "aspect": "Absolute",
          "target": "AnyAffected",
          "table": "Melee_Damage",
          "scale": 1.5,
          "duration": "0 seconds",
          "magnitude": 1.0,
          "delay": 0.0,
          "duration_expression": "",
          "magnitude_expression": "",
          "application_period": 0.0,
          "tick_chance": 1.0,
          "jit_requires": "",
          "caster_stack": "Individual",
          "stack": "Stack",
          "stack_limit": 2,
          "stack_key": null,
          "cancel_events": [

          ],
          "boost_mod_allowed": "Science_Boost",
          "flags": [
            "ResistMagnitude (7)",
            "CombatModMagnitude (9)"
          ],
          "mode_name": null,
          "target_info": null,
          "messages": {
            "display_attacker_hit": "You hit {PlayerDest} with your {PowerName} for {Damage} points of Energy damage.",
            "display_victim_hit": "{PlayerSource} hits you with their {PowerName} for {Damage} points of Energy damage.",
            "display_float": null,
            "display_defense_float": null
          },
          "suppress_events": [

          ],
          "params": null,
          "fx": null
        },
        {
          "attribs": [
            "Endurance"
          ],
          "type": "Magnitude",
          "application_type": "OnTick",
          "aspect": "Current",
          "target": "AnyAffected",
          "table": "Melee_Ones",
          "scale": -0.07,
          "duration": "0 seconds",
          "magnitude": 1.0,
          "delay": 0.0,
          "duration_expression": "",
          "magnitude_expression": "",
          "application_period": 0.0,
          "tick_chance": 1.0,
          "jit_requires": "",
          "caster_stack": "Individual",
          "stack": "Stack",
          "stack_limit": 2,
          "stack_key": null,
          "cancel_events": [

          ],
          "boost_mod_allowed": "Science_Boost",
          "flags": [
            "ResistMagnitude (7)",
            "CombatModMagnitude (9)"
          ],
          "mode_name": null,
          "target_info": null,
          "messages": {
            "display_attacker_hit": "You hit {PlayerDest} with your {PowerName} for {Damage} points of their endurance.",
            "display_victim_hit": "{PlayerSource} hits you with their {PowerName} draining {Damage} points of your endurance.",
            "display_float": null,
            "display_defense_float": null
          },
          "suppress_events": [

          ],
          "params": null,
          "fx": null
        }
      ],
      "is_pvp": "EITHER"
    },
    {
      "tags": [

      ],
      "chance": 1.0,
      "ppm": 0.0,
      "delay": 0.0,
      "radius_inner": -1.0,
      "radius_outer": -1.0,
      "requires_expression": "target>enttype eq 'player'",
      "flags": [

      ],
      "eval_flags": 0,
      "child_effects": [
        {
          "tags": [
            "StealthCrit"
          ],
          "chance": 0.5,
          "ppm": 0.0,
          "delay": 0.0,
          "radius_inner": -1.0,
          "radius_outer": -1.0,
          "requires_expression": "target>enttype eq 'player' && (source>kMeter > 0)",
          "flags": [

          ],
          "eval_flags": 0,
          "child_effects": [

          ],
          "templates": [
            {
              "attribs": [
                "Energy_Dmg"
              ],
              "type": "Magnitude",
              "application_type": "OnTick",
              "aspect": "Absolute",
              "target": "AnyAffected",
              "table": "Melee_PvPDamage",
              "scale": 1.8889,
              "duration": "0 seconds",
              "magnitude": 1.0,
              "delay": 0.0,
              "duration_expression": "",
              "magnitude_expression": "",
              "application_period": 0.0,
              "tick_chance": 1.0,
              "jit_requires": "",
              "caster_stack": "Individual",
              "stack": "Stack",
              "stack_limit": 2,
              "stack_key": null,
              "cancel_events": [

              ],
              "boost_mod_allowed": "Science_Boost",
              "flags": [
                "ResistMagnitude (7)",
                "CombatModMagnitude (9)"
              ],
              "mode_name": null,
              "target_info": null,
              "messages": {
                "display_attacker_hit": "You hit {PlayerDest} with your {PowerName} for {Damage} points of Energy damage [CRITICAL].",
                "display_victim_hit": "{PlayerSource} hits you with their {PowerName} for {Damage} points of Energy damage [CRITICAL].",
                "display_float": "CRITICAL",
                "display_defense_float": null
              },
              "suppress_events": [

              ],
              "params": null,
              "fx": null
            }
          ],
          "is_pvp": "EITHER"
        },
        {
          "tags": [

          ],
          "chance": 0.2,
          "ppm": 0.0,
          "delay": 0.0,
          "radius_inner": -1.0,
          "radius_outer": -1.0,
          "requires_expression": "target>enttype eq 'player' && (source>kMeter < 0.9) && ((target>kHeld > 0) || (target>kSleep > 0))",
          "flags": [

          ],
          "eval_flags": 0,
          "child_effects": [

          ],
          "templates": [
            {
              "attribs": [
                "Energy_Dmg"
              ],
              "type": "Magnitude",
              "application_type": "OnTick",
              "aspect": "Absolute",
              "target": "AnyAffected",
              "table": "Melee_PvPDamage",
              "scale": 1.8889,
              "duration": "0 seconds",
              "magnitude": 1.0,
              "delay": 0.0,
              "duration_expression": "",
              "magnitude_expression": "",
              "application_period": 0.0,
              "tick_chance": 1.0,
              "jit_requires": "",
              "caster_stack": "Individual",
              "stack": "Stack",
              "stack_limit": 2,
              "stack_key": null,
              "cancel_events": [

              ],
              "boost_mod_allowed": "Science_Boost",
              "flags": [
                "ResistMagnitude (7)",
                "CombatModMagnitude (9)"
              ],
              "mode_name": null,
              "target_info": null,
              "messages": {
                "display_attacker_hit": "You hit {PlayerDest} with your {PowerName} for {Damage} points of Energy damage [CRITICAL].",
                "display_victim_hit": "{PlayerSource} hits you with their {PowerName} for {Damage} points of Energy damage [CRITICAL].",
                "display_float": "CRITICAL",
                "display_defense_float": null
              },
              "suppress_events": [

              ],
              "params": null,
              "fx": null
            }
          ],
          "is_pvp": "EITHER"
        },
        {
          "tags": [

          ],
          "chance": 0.1,
          "ppm": 0.0,
          "delay": 0.0,
          "radius_inner": -1.0,
          "radius_outer": -1.0,
          "requires_expression": "target>enttype eq 'player'",
          "flags": [

          ],
          "eval_flags": 0,
          "child_effects": [

          ],
          "templates": [
            {
              "attribs": [
                "Sleep"
              ],
              "type": "Duration",
              "application_type": "OnTick",
              "aspect": "Current",
              "target": "AnyAffected",
              "table": "Melee_PvPMez",
              "scale": 1.0,
              "duration": "0 seconds",
              "magnitude": 2.0,
              "delay": 0.25,
              "duration_expression": "",
              "magnitude_expression": "",
              "application_period": 0.0,
              "tick_chance": 1.0,
              "jit_requires": "",
              "caster_stack": "Individual",
              "stack": "Stack",
              "stack_limit": 2,
              "stack_key": null,
              "cancel_events": [

              ],
              "boost_mod_allowed": "Science_Boost",
              "flags": [
                "ResistDuration (8)",
                "CombatModDuration (10)"
              ],
              "mode_name": null,
              "target_info": null,
              "messages": {
                "display_attacker_hit": "You Sleep {PlayerDest} with your {PowerName}.",
                "display_victim_hit": "{PlayerSource} Sleeps you with their {PowerName}.",
                "display_float": null,
                "display_defense_float": null
              },
              "suppress_events": [
                {
                  "event": "Stunned",
                  "post_event_delay": 15,
                  "always_suppress": false
                },
                {
                  "event": "Immobilized",
                  "post_event_delay": 15,
                  "always_suppress": false
                },
                {
                  "event": "Held",
                  "post_event_delay": 15,
                  "always_suppress": false
                },
                {
                  "event": "Sleep",
                  "post_event_delay": 15,
                  "always_suppress": false
                },
                {
                  "event": "Terrorized",
                  "post_event_delay": 15,
                  "always_suppress": false
                }
              ],
              "params": null,
              "fx": {
                "continuing_bits": [

                ],
                "continuing_fx": null,
                "conditional_bits": [
                  380
                ],
                "conditional_fx": "PFX"
              }
            }
          ],
          "is_pvp": "EITHER"
        }
      ],
      "templates": [
        {
          "attribs": [
            "Energy_Dmg"
          ],
          "type": "Magnitude",
          "application_type": "OnTick",
          "aspect": "Absolute",
          "target": "AnyAffected",
          "table": "Melee_PvPDamage",
          "scale": 1.8889,
          "duration": "0 seconds",
          "magnitude": 1.0,
          "delay": 0.0,
          "duration_expression": "",
          "magnitude_expression": "",
          "application_period": 0.0,
          "tick_chance": 1.0,
          "jit_requires": "",
          "caster_stack": "Individual",
          "stack": "Stack",
          "stack_limit": 2,
          "stack_key": null,
          "cancel_events": [

          ],
          "boost_mod_allowed": "Science_Boost",
          "flags": [
            "ResistMagnitude (7)",
            "CombatModMagnitude (9)"
          ],
          "mode_name": null,
          "target_info": null,
          "messages": {
            "display_attacker_hit": "You hit {PlayerDest} with your {PowerName} for {Damage} points of Energy damage.",
            "display_victim_hit": "{PlayerSource} hits you with their {PowerName} for {Damage} points of Energy damage.",
            "display_float": null,
            "display_defense_float": null
          },
          "suppress_events": [

          ],
          "params": null,
          "fx": null
        },
        {
          "attribs": [
            "Endurance"
          ],
          "type": "Magnitude",
          "application_type": "OnTick",
          "aspect": "Absolute",
          "target": "AnyAffected",
          "table": "Melee_EndDrain",
          "scale": -1.25,
          "duration": "0 seconds",
          "magnitude": 1.0,
          "delay": 0.0,
          "duration_expression": "",
          "magnitude_expression": "",
          "application_period": 0.0,
          "tick_chance": 1.0,
          "jit_requires": "",
          "caster_stack": "Individual",
          "stack": "Stack",
          "stack_limit": 2,
          "stack_key": null,
          "cancel_events": [

          ],
          "boost_mod_allowed": "Science_Boost",
          "flags": [
            "ResistMagnitude (7)",
            "CombatModMagnitude (9)"
          ],
          "mode_name": null,
          "target_info": null,
          "messages": {
            "display_attacker_hit": "You hit {PlayerDest} with your {PowerName} for {Damage} points of their endurance.",
            "display_victim_hit": "{PlayerSource} hits you with their {PowerName} draining {Damage} points of your endurance.",
            "display_float": null,
            "display_defense_float": null
          },
          "suppress_events": [

          ],
          "params": null,
          "fx": null
        }
      ],
      "is_pvp": "EITHER"
    },
    {
      "tags": [

      ],
      "chance": 0.1,
      "ppm": 0.0,
      "delay": 0.0,
      "radius_inner": -1.0,
      "radius_outer": -1.0,
      "requires_expression": "",
      "flags": [

      ],
      "eval_flags": 0,
      "child_effects": [

      ],
      "templates": [
        {
          "attribs": [
            "Recovery"
          ],
          "type": "Magnitude",
          "application_type": "OnTick",
          "aspect": "Current",
          "target": "AnyAffected",
          "table": "Melee_Ones",
          "scale": -1.0,
          "duration": "2 seconds",
          "magnitude": 1.0,
          "delay": 0.0,
          "duration_expression": "",
          "magnitude_expression": "",
          "application_period": 0.0,
          "tick_chance": 1.0,
          "jit_requires": "",
          "caster_stack": "Individual",
          "stack": "Stack",
          "stack_limit": 2,
          "stack_key": null,
          "cancel_events": [

          ],
          "boost_mod_allowed": "Science_Boost",
          "flags": [
            "ResistMagnitude (7)",
            "CombatModMagnitude (9)"
          ],
          "mode_name": null,
          "target_info": null,
          "messages": null,
          "suppress_events": [

          ],
          "params": null,
          "fx": {
            "continuing_bits": [

            ],
            "continuing_fx": "PFX",
            "conditional_bits": [

            ],
            "conditional_fx": null
          }
        }
      ],
      "is_pvp": "EITHER"
    },
    {
      "tags": [

      ],
      "chance": 0.9,
      "ppm": 0.0,
      "delay": 0.0,
      "radius_inner": 0.0,
      "radius_outer": 0.0,
      "requires_expression": "",
      "flags": [

      ],
      "eval_flags": 0,
      "child_effects": [

      ],
      "templates": [
        {
          "attribs": [
            "Grant_Power"
          ],
          "type": "Magnitude",
          "application_type": "OnTick",
          "aspect": "Absolute",
          "target": "Self",
          "table": "Melee_Ones",
          "scale": 1.0,
          "duration": "0 seconds",
          "magnitude": 1.0,
          "delay": 0.0,
          "duration_expression": "",
          "magnitude_expression": "",
          "application_period": 0.0,
          "tick_chance": 1.0,
          "jit_requires": "",
          "caster_stack": "Individual",
          "stack": "Ignore",
          "stack_limit": 2,
          "stack_key": null,
          "cancel_events": [

          ],
          "boost_mod_allowed": "Science_Boost",
          "flags": [
            "IgnoreStrength (4)",
            "IgnoreResistance (5)",
            "CombatModMagnitude (9)"
          ],
          "mode_name": null,
          "target_info": null,
          "messages": {
            "display_attacker_hit": "You gain 1 stack of Assassin's Focus!",
            "display_victim_hit": null,
            "display_float": null,
            "display_defense_float": null
          },
          "suppress_events": [

          ],
          "params": {
            "type": "Power",
            "count": 1,
            "category_names": [

            ],
            "powerset_names": [

            ],
            "power_names": [
              "Temporary_Powers.Temporary_Powers.Assassins_Focus"
            ]
          },
          "fx": null
        }
      ],
      "is_pvp": "EITHER"
    }
  ],
  "activation_effects": [

  ],
  "fx": {
    "source_file": "MENU/POWERS/ANIMFX/PLAYERPOWERS/STALKERMELEE_ELECTRICALMELEE_JACOBSLADDER.PFX",
    "attack_bits": [
      20,
      568
    ],
    "block_bits": [

    ],
    "wind_up_bits": [

    ],
    "hit_bits": [

    ],
    "death_bits": [

    ],
    "activation_bits": [

    ],
    "deactivation_bits": [

    ],
    "initial_attack_bits": [
      20,
      568
    ],
    "continuing_bits": [

    ],
    "conditional_bits": [

    ],
    "activation_fx": null,
    "deactivation_fx": null,
    "attack_fx": "POWERS/ELECTRICITYCONTROL/RED_ELECTRICITYSHOTGUN.FX",
    "secondary_attack_fx": null,
    "hit_fx": "POWERS/ELECTRICITYCONTROL/RED_CHRAGEDBRAWLHIT.FX",
    "wind_up_fx": null,
    "block_fx": null,
    "death_fx": null,
    "initial_attack_fx": "POWERS/ELECTRICITYCONTROL/RED_ELECTRICITYSHOTGUN.FX",
    "continuing_fx": [
      "POWERS/ELECTRICITYCONTROL/RED_ELECTRICITYBOLTHITCONTINUING.FX"
    ],
    "conditional_fx": [
      "POWERS/DARKNESSCONTROL/CHILLOFNIGHTHITCONTNUING_SUBTRACTIVE.FX"
    ],
    "mode_bits": [
      20
    ],
    "frames_before_hit": 40,
    "frames_before_secondary_hit": 0,
    "delayed_hit": false,
    "frames_attack": 50,
    "initial_frames_before_hit": 40,
    "initial_attack_fx_frame_delay": 0,
    "projectile_speed": 3.4028234663852886e38,
    "secondary_projectile_speed": 0.0,
    "initial_frames_before_block": 0,
    "ignore_attack_time_errors": null,
    "frames_before_block": 0,
    "fx_important": false
  },
  "custom_fx": [
    {
      "display_name": null,
      "token": "Bright Electricity",
      "alt_themes": [

      ],
      "category": null,
      "palette_name": "Additive",
      "fx": {
        "source_file": "MENU/POWERS/ANIMFX/PLAYERPOWERS/STALKERMELEE_ELECTRICALMELEE_JACOBSLADDER.PFX",
        "attack_bits": [
          20,
          568
        ],
        "block_bits": [

        ],
        "wind_up_bits": [

        ],
        "hit_bits": [

        ],
        "death_bits": [

        ],
        "activation_bits": [

        ],
        "deactivation_bits": [

        ],
        "initial_attack_bits": [
          20,
          568
        ],
        "continuing_bits": [

        ],
        "conditional_bits": [

        ],
        "activation_fx": null,
        "deactivation_fx": null,
        "attack_fx": "CUSTOMIZEABLEPOWERS/ELECTRICALMELEE/JACOBSLADDER_ATTACK.FX",
        "secondary_attack_fx": null,
        "hit_fx": "CUSTOMIZEABLEPOWERS/ELECTRICALMELEE/HAVOKPUNCH_HIT.FX",
        "wind_up_fx": null,
        "block_fx": null,
        "death_fx": null,
        "initial_attack_fx": "CUSTOMIZEABLEPOWERS/ELECTRICALMELEE/JACOBSLADDER_ATTACK.FX",
        "continuing_fx": [
          "CUSTOMIZEABLEPOWERS/CONTINUINGCONDITIONALFX/ELECTRICITY_CONTINUING.FX"
        ],
        "conditional_fx": [
          "CUSTOMIZEABLEPOWERS/ELECTRICALMELEE/CHILLOFNIGHTHITCONTNUING_SUBTRACTIVE.FX"
        ],
        "mode_bits": [
          20
        ],
        "frames_before_hit": 40,
        "frames_before_secondary_hit": 0,
        "delayed_hit": false,
        "frames_attack": 50,
        "initial_frames_before_hit": 40,
        "initial_attack_fx_frame_delay": 0,
        "projectile_speed": 3.4028234663852886e38,
        "secondary_projectile_speed": 0.0,
        "initial_frames_before_block": 0,
        "ignore_attack_time_errors": null,
        "frames_before_block": 0,
        "fx_important": false
      }
    },
    {
      "display_name": null,
      "token": "Dark Electricity",
      "alt_themes": [

      ],
      "category": null,
      "palette_name": "Subtractive",
      "fx": {
        "source_file": "MENU/POWERS/ANIMFX/PLAYERPOWERS/STALKERMELEE_ELECTRICALMELEE_JACOBSLADDER.PFX",
        "attack_bits": [
          20,
          568
        ],
        "block_bits": [

        ],
        "wind_up_bits": [

        ],
        "hit_bits": [

        ],
        "death_bits": [

        ],
        "activation_bits": [

        ],
        "deactivation_bits": [

        ],
        "initial_attack_bits": [
          20,
          568
        ],
        "continuing_bits": [

        ],
        "conditional_bits": [

        ],
        "activation_fx": null,
        "deactivation_fx": null,
        "attack_fx": "CUSTOMIZEABLEPOWERS/ELECTRICALMELEE/SUBTRACTIVE/JACOBSLADDER_ATTACK.FX",
        "secondary_attack_fx": null,
        "hit_fx": "CUSTOMIZEABLEPOWERS/ELECTRICALMELEE/SUBTRACTIVE/HAVOKPUNCH_HIT.FX",
        "wind_up_fx": null,
        "block_fx": null,
        "death_fx": null,
        "initial_attack_fx": "CUSTOMIZEABLEPOWERS/ELECTRICALMELEE/SUBTRACTIVE/JACOBSLADDER_ATTACK.FX",
        "continuing_fx": [
          "CUSTOMIZEABLEPOWERS/CONTINUINGCONDITIONALFX/SUBTRACTIVE/ELECTRICITY_CONTINUING.FX"
        ],
        "conditional_fx": [
          "CUSTOMIZEABLEPOWERS/ELECTRICALMELEE/SUBTRACTIVE/CHILLOFNIGHTHITCONTNUING_SUBTRACTIVE.FX"
        ],
        "mode_bits": [
          20
        ],
        "frames_before_hit": 40,
        "frames_before_secondary_hit": 0,
        "delayed_hit": false,
        "frames_attack": 50,
        "initial_frames_before_hit": 40,
        "initial_attack_fx_frame_delay": 0,
        "projectile_speed": 3.4028234663852886e38,
        "secondary_projectile_speed": 0.0,
        "initial_frames_before_block": 0,
        "ignore_attack_time_errors": null,
        "frames_before_block": 0,
        "fx_important": false
      }
    }
  ],
  "fx_only_on_main_target": false
}