{
  "name": "Zane",
  "display_name": "Zane",
  "display_fullname": "PraetorianPolice.Zane",
  "display_help": "You can surround yourself in powerful defensive Energy Auras that can deflect your foes' attacks. Like other defensive powers, Energy Auras do not reduce the damage you take, but rather reduce your chance of getting hit by deflecting your foes' attacks. Energy Auras offer good defense to most attack types, but offer superior defense to Energy based attacks. However, Energy Aura offers no defense to Psionic attacks.",
  "display_short_help": "Zane",
  "available_level": [
    0,
    0,
    0,
    0,
    0,
    0,
    0,
    0
  ],
  "source_file": "DEFS/POWERS/PRAETORIANPOLICE/ZANE.POWERSETS",
  "requires": "",
  "power_names": [
    "PraetorianPolice.Zane.Kinetic_Shield",
    "PraetorianPolice.Zane.Dampening_Field",
    "PraetorianPolice.Zane.Power_Shield",
    "PraetorianPolice.Zane.Energy_Protection",
    "PraetorianPolice.Zane.Quick_Strike",
    "PraetorianPolice.Zane.Body_Blow",
    "PraetorianPolice.Zane.Repulsing_Torrent",
    "PraetorianPolice.Zane.Power_Blast"
  ],
  "power_display_names": [
    "Kinetic Shield",
    "Dampening Field",
    "Power Shield",
    "Energy Protection",
    "Quick Strike",
    "Body Blow",
    "Repulsing Torrent",
    "Power Blast"
  ]
}