{
  "name": "Resistances",
  "display_name": "Resistances",
  "display_fullname": "RuluShinPowers.Resistances",
  "display_help": "Rulu-Shin Innate",
  "display_short_help": "Rulu-Shin Innate",
  "available_level": [
    0,
    0,
    0
  ],
  "source_file": "DEFS/POWERS/RULUSHINPOWERS/RESISTANCES.POWERSETS",
  "requires": "",
  "power_names": [
    "RuluShinPowers.Resistances.Damage_MN",
    "RuluShinPowers.Resistances.Damage_LT",
    "RuluShinPowers.Resistances.Damage_BS"
  ],
  "power_display_names": [
    "Damage Resistance",
    "Damage Resistance",
    "Damage Resistance"
  ]
}