{
  "name": "Sleet",
  "display_name": "Sleet",
  "display_fullname": "Villain Pets.Sleet",
  "display_help": "Cold Domination",
  "display_short_help": "Cold Domination",
  "available_level": [
    0,
    0
  ],
  "source_file": "DEFS/POWERS/VILLAIN_PETS/SLEET.POWERSETS",
  "requires": "",
  "power_names": [
    "Villain_Pets.Sleet.Sleet",
    "Villain_Pets.Sleet.Avoid"
  ],
  "power_display_names": [
    "Sleet",
    "Avoid"
  ]
}