{
  "name": "Crafted_Power_Transfer_D",
  "display_name": "Power Transfer D",
  "display_fullname": "Boosts.Crafted Power Transfer D",
  "display_help": "Enhances accuracy by {Boost.Attrib.Accuracy.Scale}%. Enhances damage by {Boost.Attrib.Damage.Scale}%. Reduces endurance cost by {Boost.Attrib.Endurance.Scale}%.",
  "display_short_help": "Set: Power Transfer",
  "available_level": [
    0
  ],
  "source_file": "DEFS/POWERS/BOOSTS/CRAFTED_POWER_TRANSFER_D.POWERSETS",
  "requires": "",
  "power_names": [
    "Boosts.Crafted_Power_Transfer_D.Crafted_Power_Transfer_D"
  ],
  "power_display_names": [
    "Power Transfer: Accuracy/Damage/Endurance"
  ]
}