{
  "name": "Chain_Jolt_Gremlin_Jump1",
  "display_name": "Chain Jolt Jump 1",
  "display_fullname": "Pets.Chain Jolt Jump 1",
  "display_help": "Chain Jolt Jump 1",
  "display_short_help": "Chain Jolt Jump 1",
  "available_level": [
    0
  ],
  "source_file": "DEFS/POWERS/PETS/CHAIN_JOLT_GREMLIN_JUMP1.POWERSETS",
  "requires": "",
  "power_names": [
    "Pets.Chain_Jolt_Gremlin_Jump1.Charge"
  ],
  "power_display_names": [
    "Charge"
  ]
}