{
  "name": "Crafted_Perplex_D",
  "display_name": "Crafted Perplex D",
  "display_fullname": "Boosts.Crafted Perplex D",
  "display_help": "Enhances the range of a power by {Boost.Attrib.Range.Scale}% and confuse duration by {Boost.Attrib.Mez.Scale}%.",
  "display_short_help": "Set: Perplex",
  "available_level": [
    0
  ],
  "source_file": "DEFS/POWERS/BOOSTS/CRAFTED_PERPLEX_D.POWERSETS",
  "requires": "",
  "power_names": [
    "Boosts.Crafted_Perplex_D.Crafted_Perplex_D"
  ],
  "power_display_names": [
    "Perplex: Confuse/Range"
  ]
}