{
  "name": "Door_Dampening_Field",
  "display_name": "Dampening Field",
  "display_fullname": "Objects.Dampening Field",
  "display_help": "Door",
  "display_short_help": "Door",
  "available_level": [
    0
  ],
  "source_file": "DEFS/POWERS/OBJECTS/DOOR_DAMPENING_FIELD.POWERSETS",
  "requires": "",
  "power_names": [
    "Objects.Door_Dampening_Field.Dampening_Field"
  ],
  "power_display_names": [
    "Dampening Field"
  ]
}