{
  "name": "Crafted_Mocking_Beratement_F",
  "display_name": "Crafted Mocking Beratement F",
  "display_fullname": "Boosts.Crafted Mocking Beratement F",
  "display_help": "Reduces the recharge time of a power by {Boost.Attrib.RechargeTime.Scale}%.",
  "display_short_help": "Set: Mocking Beratement",
  "available_level": [
    0
  ],
  "source_file": "DEFS/POWERS/BOOSTS/CRAFTED_MOCKING_BERATEMENT_F.POWERSETS",
  "requires": "",
  "power_names": [
    "Boosts.Crafted_Mocking_Beratement_F.Crafted_Mocking_Beratement_F"
  ],
  "power_display_names": [
    "Mocking Beratement: Recharge"
  ]
}