{
  "name": "Attuned_Entropic_Chaos_D",
  "display_name": "Attuned Entropic Chaos D",
  "display_fullname": "Boosts.Attuned Entropic Chaos D",
  "display_help": "Enhances the damage of a power by {Boost.Attrib.Damage.Scale}%, reduces endurance costs by {Boost.Attrib.Endurance.Scale}% and recharge time by {Boost.Attrib.RechargeTime.Scale}%.",
  "display_short_help": "Set: Entropic Chaos",
  "available_level": [
    0
  ],
  "source_file": "DEFS/POWERS/BOOSTS/ATTUNED_ENTROPIC_CHAOS_D.POWERSETS",
  "requires": "",
  "power_names": [
    "Boosts.Attuned_Entropic_Chaos_D.Attuned_Entropic_Chaos_D"
  ],
  "power_display_names": [
    "Entropic Chaos: Damage/Endurance/Recharge"
  ]
}