{
  "name": "Chain_Induction_Jump2",
  "display_name": "Chain Induction Jump 2",
  "display_fullname": "Villain Pets.Chain Induction Jump 2",
  "display_help": "Chain Induction Jump 2",
  "display_short_help": "Chain Induction Jump 2",
  "available_level": [
    0
  ],
  "source_file": "DEFS/POWERS/VILLAIN_PETS/CHAIN_INDUCTION_JUMP2.POWERSETS",
  "requires": "",
  "power_names": [
    "Villain_Pets.Chain_Induction_Jump2.Charge"
  ],
  "power_display_names": [
    "Charge"
  ]
}