{
  "name": "Crafted_Accuracy_10",
  "display_name": "Crafted Accuracy 10",
  "display_fullname": "Boosts.Crafted Accuracy 10",
  "display_help": "Increases accuracy by {Boost.Attrib.Accuracy.Scale}%.",
  "display_short_help": "Invention",
  "available_level": [
    0
  ],
  "source_file": "DEFS/POWERS/BOOSTS/CRAFTED_ACCURACY_10.POWERSETS",
  "requires": "",
  "power_names": [
    "Boosts.Crafted_Accuracy_10.Crafted_Accuracy_10"
  ],
  "power_display_names": [
    "Invention: Accuracy"
  ]
}