{
  "name": "Adamastor",
  "display_name": "Adamastor",
  "display_fullname": "BanishedPantheon.Adamastor",
  "display_help": "Nightmares",
  "display_short_help": "Nightmares",
  "available_level": [
    0,
    0,
    0,
    0
  ],
  "source_file": "DEFS/POWERS/BANISHEDPANTHEON/ADAMASTOR.POWERSETS",
  "requires": "",
  "power_names": [
    "BanishedPantheon.Adamastor.Dry_Heave",
    "BanishedPantheon.Adamastor.Shockwave_Stomp",
    "BanishedPantheon.Adamastor.Blast_of_Decay",
    "BanishedPantheon.Adamastor.Earthen_Prison"
  ],
  "power_display_names": [
    "Frigid Blast",
    "Shockwave Stomp",
    "Blast of Decay",
    "Earthen Prison"
  ]
}