{
  "name": "Battle_Orb_Mk_2",
  "display_name": "Battle_Orb_Mk_2",
  "display_fullname": "PraetorianIDF.Battle Orb Mk 2",
  "display_help": "Imperial Defense Force",
  "display_short_help": "Imperial Defense Force",
  "available_level": [
    0,
    0
  ],
  "source_file": "DEFS/POWERS/PRAETORIANIDF/BATTLE_ORB_MK_2.POWERSETS",
  "requires": "",
  "power_names": [
    "PraetorianIDF.Battle_Orb_Mk_2.Sonic_Augmentation",
    "PraetorianIDF.Battle_Orb_Mk_2.Plasma_Spray"
  ],
  "power_display_names": [
    "Sonic Augmentation",
    "Plasma Spray"
  ]
}