{
  "name": "Superior_Attuned_Superior_Blasters_Wrath_D",
  "display_name": "Superior Attuned Superior Blasters Wrath D",
  "display_fullname": "Boosts.Superior Attuned Blasters Wrath D",
  "display_help": "UNIQUE -- No more than 1 enhancement of this type may be slotted by a character. Enhances the accuracy of a power by {Boost.Attrib.Accuracy.Scale}%, damage by {Boost.Attrib.Damage.Scale}% and reduces endurance cost by {Boost.Attrib.Endurance.Scale}%. This enhancement can only be slotted by Blasters and may be slotted into any Blaster damage power and requires the user to be level 50. ATTUNED -- This enhancement's effective level is always the same as the user's. In addition, its effectiveness will increase when the user levels up.",
  "display_short_help": "Set: Superior Blaster's Wrath",
  "available_level": [
    0
  ],
  "source_file": "DEFS/POWERS/BOOSTS/SUPERIOR_ATTUNED_SUPERIOR_BLASTERS_WRATH_D.POWERSETS",
  "requires": "",
  "power_names": [
    "Boosts.Superior_Attuned_Superior_Blasters_Wrath_D.Superior_Attuned_Superior_Blasters_Wrath_D"
  ],
  "power_display_names": [
    "Superior Blaster's Wrath: Accuracy/Damage/Endurance"
  ]
}