{
  "name": "Mind_Controller_High",
  "display_name": "Mind Controller High",
  "display_fullname": "V GenericHeroes.Mind Controller High",
  "display_help": "Hero",
  "display_short_help": "Hero",
  "available_level": [
    0
  ],
  "source_file": "DEFS/POWERS/V_GENERICHEROES/MIND_CONTROLLER_HIGH.POWERSETS",
  "requires": "",
  "power_names": [
    "V_GenericHeroes.Mind_Controller_High.Total_Domination"
  ],
  "power_display_names": [
    "Total Domination"
  ]
}