{
  "name": "Superior_Attuned_Superior_Dominion_of_Arachnos_E",
  "display_name": "Superior Attuned Superior Dominion of Arachnos E",
  "display_fullname": "Boosts.Superior Attuned Dominion of Arachnos E",
  "display_help": "UNIQUE -- No more than 1 enhancement of this type may be slotted by a character. Enhances the accuracy of a power by {Boost.Attrib.Accuracy.Scale}%, damage by {Boost.Attrib.Damage.Scale}%, reduces endurance cost by {Boost.Attrib.Endurance.Scale}% and reduces recharge time by {Boost.Attrib.RechargeTime.Scale}%. This enhancement can only be slotted by Soldiers of Arachnos and may be slotted into any Arachnos Soldier or Arachnos Widow damage power.",
  "display_short_help": "Set: Superior Dominion of Arachnos",
  "available_level": [
    0
  ],
  "source_file": "DEFS/POWERS/BOOSTS/SUPERIOR_ATTUNED_SUPERIOR_DOMINION_OF_ARACHNOS_E.POWERSETS",
  "requires": "",
  "power_names": [
    "Boosts.Superior_Attuned_Superior_Dominion_of_Arachnos_E.Superior_Attuned_Superior_Dominion_of_Arachnos_E"
  ],
  "power_display_names": [
    "Superior Dominion of Arachnos: Accuracy/Damage/Endurance/Recharge"
  ]
}