{
  "name": "Warrior_Minion_Sword",
  "display_name": "Warrior_Minion_Sword",
  "display_fullname": "Warriors.Warrior Minion Sword",
  "display_help": "Warriors",
  "display_short_help": "Warriors",
  "available_level": [
    0
  ],
  "source_file": "DEFS/POWERS/WARRIORS/WARRIOR_MINION_SWORD.POWERSETS",
  "requires": "",
  "power_names": [
    "Warriors.Warrior_Minion_Sword.Hack"
  ],
  "power_display_names": [
    "Hack"
  ]
}