{
  "name": "Galaxy_Boss",
  "display_name": "Galaxy_Boss",
  "display_fullname": "Council.Galaxy Boss",
  "display_help": "Council",
  "display_short_help": "Council",
  "available_level": [
    0,
    0
  ],
  "source_file": "DEFS/POWERS/COUNCIL/GALAXY_BOSS.POWERSETS",
  "requires": "",
  "power_names": [
    "Council.Galaxy_Boss.Gravitic_Emanation",
    "Council.Galaxy_Boss.Gravity_Well"
  ],
  "power_display_names": [
    "Gravitic Emanation",
    "Gravity Well"
  ]
}