{
  "name": "Generic_Confuse",
  "display_name": "Generic Confuse",
  "display_fullname": "Boosts.Generic Confuse",
  "display_help": "Increases the duration of a confuse power.",
  "display_short_help": "Training (All Origins)",
  "available_level": [
    0
  ],
  "source_file": "DEFS/POWERS/BOOSTS/GENERIC_CONFUSE.POWERSETS",
  "requires": "",
  "power_names": [
    "Boosts.Generic_Confuse.Generic_Confuse"
  ],
  "power_display_names": [
    "Training: Confusion Duration"
  ]
}