{
  "name": "Blechley",
  "display_name": "Blechley",
  "display_fullname": "Council.Blechley",
  "display_help": "Council",
  "display_short_help": "Council",
  "available_level": [
    0,
    0,
    0
  ],
  "source_file": "DEFS/POWERS/COUNCIL/BLECHLEY.POWERSETS",
  "requires": "",
  "power_names": [
    "Council.Blechley.Mesmerize",
    "Council.Blechley.Tenebrous_Tentacles",
    "Council.Blechley.Reconstruction"
  ],
  "power_display_names": [
    "Mesmerize",
    "Tenebrous Tentacles",
    "Reconstruction"
  ]
}