{
  "name": "Lilitu",
  "display_name": "Lilitu",
  "display_fullname": "CircleOfThorns.Lilitu",
  "display_help": "Circle of Thorns",
  "display_short_help": "Circle of Thorns",
  "available_level": [
    0,
    0,
    0,
    0,
    0,
    0,
    0,
    0,
    0
  ],
  "source_file": "DEFS/POWERS/CIRCLEOFTHORNS/LILITU.POWERSETS",
  "requires": "",
  "power_names": [
    "CircleOfThorns.Lilitu.Resistance",
    "CircleOfThorns.Lilitu.Come_Hither",
    "CircleOfThorns.Lilitu.Hellish_Bolts",
    "CircleOfThorns.Lilitu.Entrance",
    "CircleOfThorns.Lilitu.Bitter_Ice_Blast",
    "CircleOfThorns.Lilitu.Glacier",
    "CircleOfThorns.Lilitu.Fire_Ball",
    "CircleOfThorns.Lilitu.Fire_Cages",
    "CircleOfThorns.Lilitu.Blaze"
  ],
  "power_display_names": [
    "Resistance",
    "Come Hither",
    "Hellish Bolts",
    "Entrance",
    "Bitter Ice Blast",
    "Glacier",
    "Fire Ball",
    "Fire Cages",
    "Blaze"
  ]
}