{
  "name": "Dispel_Magic",
  "display_name": "Dispel Magic",
  "display_fullname": "AnimusArcana.Dispel Magic",
  "display_help": "Animus Arcana",
  "display_short_help": "Animus Arcana",
  "available_level": [
    0,
    0,
    0,
    0,
    0,
    0
  ],
  "source_file": "DEFS/POWERS/ANIMUSARCANA/DISPEL_MAGIC.POWERSETS",
  "requires": "",
  "power_names": [
    "AnimusArcana.Dispel_Magic.Power_Blast",
    "AnimusArcana.Dispel_Magic.Explosive_Blast",
    "AnimusArcana.Dispel_Magic.Energy_Torrent",
    "AnimusArcana.Dispel_Magic.Energy_Drain",
    "AnimusArcana.Dispel_Magic.Siphon_Power",
    "AnimusArcana.Dispel_Magic.Siphon_Speed"
  ],
  "power_display_names": [
    "Power Blast",
    "Explosive Blast",
    "Energy Torrent",
    "Energy Drain",
    "Siphon Power",
    "Siphon Speed"
  ]
}