{
  "name": "Medium",
  "display_name": "Medium",
  "display_fullname": "Inspirations.Medium",
  "display_help": "Inspirations are one time use powers that have a variety of effects.",
  "display_short_help": "Medium",
  "available_level": [
    0,
    0,
    0,
    0,
    0,
    0,
    0,
    0,
    0
  ],
  "source_file": "DEFS/POWERS/INSPIRATIONS/MEDIUM.POWERSETS",
  "requires": "",
  "power_names": [
    "Inspirations.Medium.Good_Luck",
    "Inspirations.Medium.Rugged",
    "Inspirations.Medium.Keen_Insight",
    "Inspirations.Medium.Take_a_Breather",
    "Inspirations.Medium.Dramatic_Improvement",
    "Inspirations.Medium.Focused_Rage",
    "Inspirations.Medium.Strength_of_Will",
    "Inspirations.Medium.Emerge",
    "Inspirations.Medium.Bounce_Back"
  ],
  "power_display_names": [
    "Good Luck",
    "Rugged",
    "Keen Insight",
    "Take a Breather",
    "Dramatic Improvement",
    "Focused Rage",
    "Strength of Will",
    "Emerge",
    "Bounce Back"
  ]
}