{
  "name": "Radiation_Armor",
  "display_name": "Radiation Armor",
  "display_fullname": "Scrapper Defense.Radiation Armor",
  "display_help": "Radiation emanates from your body which harms foes, but empowers and shields yourself. You can use this energy to absorb damage, heal from your wounds and debilitate nearby foes.",
  "display_short_help": "Radiation Armor",
  "available_level": [
    0,
    1,
    3,
    9,
    15,
    19,
    27,
    34,
    37
  ],
  "source_file": "DEFS/POWERS/SCRAPPER_DEFENSE/RADIATION_ARMOR.POWERSETS",
  "requires": "",
  "power_names": [
    "Scrapper_Defense.Radiation_Armor.Alpha_Barrier",
    "Scrapper_Defense.Radiation_Armor.Gamma_Boost",
    "Scrapper_Defense.Radiation_Armor.Proton_Armor",
    "Scrapper_Defense.Radiation_Armor.Fallout_Shelter",
    "Scrapper_Defense.Radiation_Armor.Radiation_Therapy",
    "Scrapper_Defense.Radiation_Armor.Beta_Decay",
    "Scrapper_Defense.Radiation_Armor.Particle_Shielding",
    "Scrapper_Defense.Radiation_Armor.Ground_Zero",
    "Scrapper_Defense.Radiation_Armor.Meltdown"
  ],
  "power_display_names": [
    "Alpha Barrier",
    "Gamma Boost",
    "Proton Armor",
    "Fallout Shelter",
    "Radiation Therapy",
    "Beta Decay",
    "Particle Shielding",
    "Ground Zero",
    "Meltdown"
  ]
}