{
  "name": "Invention_Jet_Pack_Goldbricker",
  "full_name": "Temporary_Powers.Temporary_Powers.Invention_Jet_Pack_Goldbricker",
  "type": "Toggle",
  "display_name": "Goldbricker Rocket Pack",
  "display_fullname": "Temporary Powers.Temporary Powers.Goldbricker Rocket Pack",
  "display_help": "This power grants you the ability to fly for a limited time. If you engage in combat while in flight, your flight speed will be temporarily reduced. You may acquire additional time for this power at a Pay 2 Win or Transact 4 Victory vendor.<br><br><color #fcfc95>Notes:<br>Goldbricker Rocket Pack is unaffected by Endurance Discount changes.</color>",
  "display_short_help": "Toggle: Self Fly",
  "icon": "temporary_antigravitymatrix.png",
  "auto_issue": false,
  "auto_issue_keeps_level": false,
  "message_caster": null,
  "message_floater": null,
  "message_attacker_hit": null,
  "message_target_hit": null,
  "message_target_confirm": null,
  "message_float_reward": null,
  "message_defense_avoidance": null,
  "attack_types": [

  ],
  "requires": "",
  "activate_requires": "",
  "accuracy": 1.0,
  "number_allowed": 1,
  "caster_near_ground": false,
  "target_near_ground": false,
  "cast_when_dead": "AliveOnly",
  "cast_through": [

  ],
  "toggle_ignores": [
    "hold",
    "sleep",
    "stun"
  ],
  "ignore_level_gained": false,
  "works_on_untouchable": false,
  "works_through_vision_phase": false,
  "target_untargetable": false,
  "interrupt_like_sleep": false,
  "notify_ai_when": "Always",
  "effect_area": "SingleTarget",
  "max_targets_hit": 0,
  "radius": 0.0,
  "arc": 0.0,
  "range": 0.0,
  "range_secondary": 0.0,
  "activation_time": 0.0,
  "root_time": 0.0,
  "interrupt_time": 0.0,
  "recharge_time": 0.0,
  "activate_period": 0.5,
  "endurance_cost": 0.2844,
  "cancelable": false,
  "self_confirm": false,
  "confirm_requires": "",
  "time_to_confirm": 0,
  "chain_delay": 0.0,
  "chain_effect_expr": "",
  "chain_forks": [

  ],
  "chain_into_power_name": null,
  "vec_box_offset": [
    0.0,
    0.0,
    0.0
  ],
  "vec_box_size": [
    0.0,
    0.0,
    0.0
  ],
  "number_of_charges": 0,
  "max_num_charges": 0,
  "destroy_on_last_use": true,
  "power_lifetime": 0.0,
  "max_power_lifetime": 0.0,
  "power_lifetime_ingame": 0.0,
  "max_power_lifetime_ingame": 0.0,
  "stacking_lifetime": true,
  "toggle_on_time": 1800.0,
  "max_toggle_on_time": 18000.0,
  "toggle_detoggle_time": 0.0,
  "toggle_droppable": "Sometimes",
  "ignore_toggle_max_distance": false,
  "target_type": "Self",
  "target_type_secondary": null,
  "target_visibility": "LineOfSight",
  "targets_affected": [
    "Self"
  ],
  "targets_autohit": [
    "Self"
  ],
  "target_requires": "",
  "proc_allowed": "All",
  "boosts_allowed": [

  ],
  "allowed_boostset_cats": [

  ],
  "exclusion_groups": [
    "Flying_Group"
  ],
  "modes_required": [

  ],
  "modes_disallowed": [
    "Disable_Travel",
    "Disable_FlyToggles",
    "Disable_All",
    "Arena",
    "Peacebringer_Blaster_Mode",
    "Peacebringer_Tanker_Mode",
    "Warshade_Blaster_Mode",
    "Warshade_Tanker_Mode"
  ],
  "recharge_groups": [

  ],
  "ignore_strength": true,
  "strengths_disallowed": [
    "EnduranceDiscount"
  ],
  "global_strengths_disallowed": [

  ],
  "procs_only_on_main_target": false,
  "vars_attribmods_can_reference": [

  ],
  "show_buff_icon": true,
  "show_in_info": true,
  "show_in_manage": false,
  "show_in_inventory": "Show",
  "deletable": true,
  "tradeable": false,
  "do_not_save": false,
  "max_boosts": 0,
  "ignore_level_differences": false,
  "ignore_exemplar_for_bonuses": false,
  "boost_combinable": true,
  "boost_tradeable": true,
  "boost_account_bound": false,
  "boost_boostable": false,
  "boost_use_player_level": false,
  "boost_catalyzable": null,
  "boost_store_product": null,
  "boost_min_slot_level": -3,
  "boost_max_level": 50,
  "instance_locked": false,
  "is_environment_hit": false,
  "shuffle_target_list": false,
  "enforced_level_bought": -1,
  "refreshes_on_active_player_change": false,
  "highlight_expression": "",
  "highlight_icon": null,
  "highlight_color": "#00000000",
  "travel_suppression_time": 0.0,
  "server_tray_priority": 0,
  "server_tray_requires": "",
  "abusive_buff": true,
  "position_center": "kModTarget_Caster",
  "position_distance": 0.0,
  "position_height": 0.0,
  "position_yaw": 0.0,
  "face_target": true,
  "attrib_cache": [
    "FlyingSpeed",
    "MovementControl",
    "MovementFriction",
    "Fly",
    "Null"
  ],
  "max_targets_expression": "",
  "chain_target_expr": "",
  "powerset": "Temporary_Powers.Temporary_Powers",
  "available_level": 0,
  "archetypes": [

  ],
  "redirect": [

  ],
  "effects": [
    {
      "tags": [

      ],
      "chance": 1.0,
      "ppm": 0.0,
      "delay": 0.0,
      "radius_inner": -1.0,
      "radius_outer": -1.0,
      "requires_expression": "",
      "flags": [

      ],
      "eval_flags": 0,
      "child_effects": [

      ],
      "templates": [
        {
          "attribs": [
            "Fly"
          ],
          "type": "Magnitude",
          "application_type": "OnTick",
          "aspect": "Current",
          "target": "Self",
          "table": "Melee_Ones",
          "scale": 0.75,
          "duration": "0.75 seconds",
          "magnitude": 1.0,
          "delay": 0.0,
          "duration_expression": "",
          "magnitude_expression": "",
          "application_period": 0.0,
          "tick_chance": 1.0,
          "jit_requires": "",
          "caster_stack": "Individual",
          "stack": "Suppress",
          "stack_limit": 2,
          "stack_key": "TravelBuff",
          "cancel_events": [

          ],
          "boost_mod_allowed": "Science_Boost",
          "flags": [
            "IgnoreResistance (5)",
            "CombatModMagnitude (9)",
            "StackByAttribAndKey (17)"
          ],
          "mode_name": null,
          "target_info": null,
          "messages": null,
          "suppress_events": [

          ],
          "params": null,
          "fx": null
        },
        {
          "attribs": [
            "FlyingSpeed"
          ],
          "type": "Magnitude",
          "application_type": "OnTick",
          "aspect": "Current",
          "target": "Self",
          "table": "Melee_SpeedFlying",
          "scale": 1.1,
          "duration": "0.75 seconds",
          "magnitude": 1.0,
          "delay": 0.0,
          "duration_expression": "",
          "magnitude_expression": "",
          "application_period": 0.0,
          "tick_chance": 1.0,
          "jit_requires": "",
          "caster_stack": "Individual",
          "stack": "Suppress",
          "stack_limit": 2,
          "stack_key": "TravelBuff",
          "cancel_events": [
            "Stunned",
            "Held",
            "Sleep"
          ],
          "boost_mod_allowed": "Science_Boost",
          "flags": [
            "IgnoreResistance (5)",
            "CombatModMagnitude (9)",
            "StackByAttribAndKey (17)"
          ],
          "mode_name": null,
          "target_info": null,
          "messages": null,
          "suppress_events": [
            {
              "event": "ActivateAttackClick",
              "post_event_delay": 4,
              "always_suppress": true
            }
          ],
          "params": null,
          "fx": null
        },
        {
          "attribs": [
            "MovementControl"
          ],
          "type": "Magnitude",
          "application_type": "OnTick",
          "aspect": "Current",
          "target": "Self",
          "table": "Melee_Control",
          "scale": 2.0,
          "duration": "0.75 seconds",
          "magnitude": 1.0,
          "delay": 0.0,
          "duration_expression": "",
          "magnitude_expression": "",
          "application_period": 0.0,
          "tick_chance": 1.0,
          "jit_requires": "",
          "caster_stack": "Individual",
          "stack": "Suppress",
          "stack_limit": 2,
          "stack_key": "TravelBuff",
          "cancel_events": [
            "Stunned",
            "Held",
            "Sleep"
          ],
          "boost_mod_allowed": "Science_Boost",
          "flags": [
            "IgnoreResistance (5)",
            "CombatModMagnitude (9)",
            "StackByAttribAndKey (17)"
          ],
          "mode_name": null,
          "target_info": null,
          "messages": null,
          "suppress_events": [

          ],
          "params": null,
          "fx": null
        },
        {
          "attribs": [
            "MovementFriction"
          ],
          "type": "Magnitude",
          "application_type": "OnTick",
          "aspect": "Current",
          "target": "Self",
          "table": "Melee_Friction",
          "scale": 2.0,
          "duration": "0.75 seconds",
          "magnitude": 1.0,
          "delay": 0.0,
          "duration_expression": "",
          "magnitude_expression": "",
          "application_period": 0.0,
          "tick_chance": 1.0,
          "jit_requires": "",
          "caster_stack": "Individual",
          "stack": "Suppress",
          "stack_limit": 2,
          "stack_key": "TravelBuff",
          "cancel_events": [
            "Stunned",
            "Held",
            "Sleep"
          ],
          "boost_mod_allowed": "Science_Boost",
          "flags": [
            "IgnoreResistance (5)",
            "CombatModMagnitude (9)",
            "StackByAttribAndKey (17)"
          ],
          "mode_name": null,
          "target_info": null,
          "messages": null,
          "suppress_events": [

          ],
          "params": null,
          "fx": null
        },
        {
          "attribs": [
            "Null"
          ],
          "type": "Magnitude",
          "application_type": "OnTick",
          "aspect": "Strength",
          "target": "AnyAffected",
          "table": "Melee_Ones",
          "scale": 0.0,
          "duration": "0.75 seconds",
          "magnitude": 0.0,
          "delay": 0.0,
          "duration_expression": "",
          "magnitude_expression": "",
          "application_period": 0.0,
          "tick_chance": 1.0,
          "jit_requires": "",
          "caster_stack": "Individual",
          "stack": "Replace",
          "stack_limit": 2,
          "stack_key": null,
          "cancel_events": [

          ],
          "boost_mod_allowed": "Science_Boost",
          "flags": [
            "ResistMagnitude (7)",
            "CombatModMagnitude (9)"
          ],
          "mode_name": null,
          "target_info": null,
          "messages": null,
          "suppress_events": [

          ],
          "params": null,
          "fx": {
            "continuing_bits": [

            ],
            "continuing_fx": "PFX",
            "conditional_bits": [

            ],
            "conditional_fx": "PFX"
          }
        }
      ],
      "is_pvp": "EITHER"
    }
  ],
  "activation_effects": [

  ],
  "fx": {
    "source_file": "MENU/POWERS/ANIMFX/TEMPORARY_POWER_GOLDBRICKER_ROCKETPACK.PFX",
    "attack_bits": [

    ],
    "block_bits": [

    ],
    "wind_up_bits": [

    ],
    "hit_bits": [

    ],
    "death_bits": [

    ],
    "activation_bits": [

    ],
    "deactivation_bits": [

    ],
    "initial_attack_bits": [

    ],
    "continuing_bits": [

    ],
    "conditional_bits": [

    ],
    "activation_fx": "ENEMYFX/V_GOLDBRICKERS/TEMP_POWER_GB_JETPACK.FX",
    "deactivation_fx": null,
    "attack_fx": null,
    "secondary_attack_fx": null,
    "hit_fx": null,
    "wind_up_fx": null,
    "block_fx": null,
    "death_fx": null,
    "initial_attack_fx": null,
    "continuing_fx": [

    ],
    "conditional_fx": [

    ],
    "mode_bits": [

    ],
    "frames_before_hit": 15,
    "frames_before_secondary_hit": 0,
    "delayed_hit": false,
    "frames_attack": 35,
    "initial_frames_before_hit": 15,
    "initial_attack_fx_frame_delay": 0,
    "projectile_speed": 3.4028234663852886e38,
    "secondary_projectile_speed": 0.0,
    "initial_frames_before_block": 0,
    "ignore_attack_time_errors": null,
    "frames_before_block": 0,
    "fx_important": false
  },
  "custom_fx": [

  ],
  "fx_only_on_main_target": false
}