{
  "name": "Savage_Assault",
  "display_name": "Savage Assault",
  "display_fullname": "Dominator Assault.Savage Assault",
  "display_help": "Command wild animals and Tear at your foes with your own animalistic attacks that primarily inflict Lethal damage and cause additional damage over time. Call Swarm, Maiming Slash, Vicious Slash, Unkindness and Feral Charge all grant stacks of Blood Frenzy. Each stack of this buff grants a small recharge buff and endurance cost discount. You may have up to 5 stacks of Blood Frenzy active at a time. Blood Frenzy can be maintained, or it can be consumed to empower Rending Flurry and Call Hawk. Using one of these consumers while you have 5 stacks of Blood Frenzy offers an additional benefit to these powers, but will also leave you Exhausted for a short time. While Exhausted you cannot build Blood Frenzy.",
  "display_short_help": "Savage Assault",
  "available_level": [
    0,
    1,
    3,
    9,
    15,
    19,
    27,
    34,
    37
  ],
  "source_file": "DEFS/POWERS/DOMINATOR_ASSAULT/SAVAGE_ASSAULT.POWERSETS",
  "requires": "",
  "power_names": [
    "Dominator_Assault.Savage_Assault.Call_Swarm",
    "Dominator_Assault.Savage_Assault.Maiming_Slash",
    "Dominator_Assault.Savage_Assault.Vicious_Slash",
    "Dominator_Assault.Savage_Assault.Call_Ravens",
    "Dominator_Assault.Savage_Assault.Spot_Prey",
    "Dominator_Assault.Savage_Assault.Rending_Flurry",
    "Dominator_Assault.Savage_Assault.Blood_Craze",
    "Dominator_Assault.Savage_Assault.Call_Hawk",
    "Dominator_Assault.Savage_Assault.Feral_Charge"
  ],
  "power_display_names": [
    "Call Swarm",
    "Maiming Slash",
    "Vicious Slash",
    "Unkindness",
    "Spot Prey",
    "Rending Flurry",
    "Blood Craze",
    "Call Hawk",
    "Feral Charge"
  ]
}