{
  "name": "Attuned_Kinetic_Combat_B",
  "display_name": "Attuned Kinetic Combat B",
  "display_fullname": "Boosts.Attuned Kinetic Combat B",
  "display_help": "Enhances the damage of a power by {Boost.Attrib.Damage.Scale}% and reduces endurance cost by {Boost.Attrib.Endurance.Scale}%.",
  "display_short_help": "Set: Kinetic Combat",
  "available_level": [
    0
  ],
  "source_file": "DEFS/POWERS/BOOSTS/ATTUNED_KINETIC_COMBAT_B.POWERSETS",
  "requires": "",
  "power_names": [
    "Boosts.Attuned_Kinetic_Combat_B.Attuned_Kinetic_Combat_B"
  ],
  "power_display_names": [
    "Kinetic Combat: Damage/Endurance"
  ]
}