{
  "name": "Endgame_LT_Crescent",
  "display_name": "Endgame_LT_Crescent",
  "display_fullname": "Tsoo.Endgame LT Crescent",
  "display_help": "Tsoo",
  "display_short_help": "Tsoo",
  "available_level": [
    0,
    0,
    0,
    0,
    0,
    0
  ],
  "source_file": "DEFS/POWERS/TSOO/ENDGAME_LT_CRESCENT.POWERSETS",
  "requires": "",
  "power_names": [
    "Tsoo.Endgame_LT_Crescent.Crush",
    "Tsoo.Endgame_LT_Crescent.Gravity_Distortion",
    "Tsoo.Endgame_LT_Crescent.Propel",
    "Tsoo.Endgame_LT_Crescent.Eagles_Claw",
    "Tsoo.Endgame_LT_Crescent.Cobra_Strike",
    "Tsoo.Endgame_LT_Crescent.Crane_Kick"
  ],
  "power_display_names": [
    "Crush",
    "Gravity Distortion",
    "Propel",
    "Eagles Claw",
    "Cobra Strike",
    "Crane Kick"
  ]
}