{
  "name": "Super",
  "display_name": "Super!",
  "display_fullname": "Inspirations.Super!",
  "display_help": "Inspirations are one time use powers that have a variety of effects.",
  "display_short_help": "Super",
  "available_level": [
    0,
    0,
    0,
    0,
    0,
    0,
    0,
    0,
    0
  ],
  "source_file": "DEFS/POWERS/INSPIRATIONS/SUPER.POWERSETS",
  "requires": "",
  "power_names": [
    "Inspirations.Super.Amazing_Luck",
    "Inspirations.Super.Resistant",
    "Inspirations.Super.Sight_Beyond_Sight",
    "Inspirations.Super.Back_in_the_Fight",
    "Inspirations.Super.Perfect_Health",
    "Inspirations.Super.Furious_Rage",
    "Inspirations.Super.Liberate",
    "Inspirations.Super.Immortal_Recovery",
    "Inspirations.Super.Ultimate"
  ],
  "power_display_names": [
    "Amazing Luck",
    "Resistant",
    "Sight Beyond Sight",
    "Back in the Fight",
    "Perfect Health",
    "Furious Rage",
    "Liberate",
    "Immortal Recovery",
    "Ultimate"
  ]
}