{
  "name": "Attuned_Doctored_Wounds_B",
  "display_name": "Attuned Doctored Wounds B",
  "display_fullname": "Boosts.Attuned Doctored Wounds B",
  "display_help": "Reduces the endurance cost of a power by {Boost.Attrib.Endurance.Scale}% and recharge time by {Boost.Attrib.RechargeTime.Scale}%.",
  "display_short_help": "Set: Doctored Wounds",
  "available_level": [
    0
  ],
  "source_file": "DEFS/POWERS/BOOSTS/ATTUNED_DOCTORED_WOUNDS_B.POWERSETS",
  "requires": "",
  "power_names": [
    "Boosts.Attuned_Doctored_Wounds_B.Attuned_Doctored_Wounds_B"
  ],
  "power_display_names": [
    "Doctored Wounds: Endurance/Recharge"
  ]
}