{
  "name": "Attuned_Blasters_Wrath_D",
  "display_name": "Attuned Blasters Wrath D",
  "display_fullname": "Boosts.Attuned Blasters Wrath D",
  "display_help": "UNIQUE -- No more than 1 enhancement of this type may be slotted by a character. Enhances the accuracy of a power by {Boost.Attrib.Accuracy.Scale}%, damage by {Boost.Attrib.Damage.Scale}% and reduces endurance cost by {Boost.Attrib.Endurance.Scale}%. This enhancement can only be slotted by Blasters and may be slotted into any Blaster damage power.",
  "display_short_help": "Set: Blaster's Wrath",
  "available_level": [
    0
  ],
  "source_file": "DEFS/POWERS/BOOSTS/ATTUNED_BLASTERS_WRATH_D.POWERSETS",
  "requires": "",
  "power_names": [
    "Boosts.Attuned_Blasters_Wrath_D.Attuned_Blasters_Wrath_D"
  ],
  "power_display_names": [
    "Blaster's Wrath: Accuracy/Damage/Endurance"
  ]
}