{
  "name": "Crey_Pistol",
  "display_name": "Crey_Pistol",
  "display_fullname": "Guns.Crey Pistol",
  "display_help": "Guns",
  "display_short_help": "Guns",
  "available_level": [
    0
  ],
  "source_file": "DEFS/POWERS/GUNS/CREY_PISTOL.POWERSETS",
  "requires": "",
  "power_names": [
    "Guns.Crey_Pistol.Crey_Pistol"
  ],
  "power_display_names": [
    "Crey Pistol"
  ]
}