{
  "name": "Submachine_Gun",
  "display_name": "Submachine_Gun",
  "display_fullname": "Guns.Submachine Gun",
  "display_help": "Guns",
  "display_short_help": "Guns",
  "available_level": [
    0,
    0
  ],
  "source_file": "DEFS/POWERS/GUNS/SUBMACHINE_GUN.POWERSETS",
  "requires": "",
  "power_names": [
    "Guns.Submachine_Gun.Submachine_Gun_Burst",
    "Guns.Submachine_Gun.Submachine_Heavy_Burst"
  ],
  "power_display_names": [
    "Submachine Gun Burst",
    "Submachine Heavy Burst"
  ]
}