{
  "name": "Superior_Attuned_Superior_Vigilant_Assault_E",
  "display_name": "Superior Attuned Superior Vigilant Assault E",
  "display_fullname": "Boosts.Superior Attuned Vigilant Assault E",
  "display_help": "UNIQUE -- No more than 1 enhancement of this type may be slotted by a character. Enhances the accuracy of a power by {Boost.Attrib.Accuracy.Scale}%, damage by {Boost.Attrib.Damage.Scale}%, reduces endurance cost by {Boost.Attrib.Endurance.Scale}% and reduces recharge time by {Boost.Attrib.RechargeTime.Scale}%. This enhancement can only be slotted by Defenders and may be slotted into any Defender damage power.",
  "display_short_help": "Set: Superior Vigilant Assault",
  "available_level": [
    0
  ],
  "source_file": "DEFS/POWERS/BOOSTS/SUPERIOR_ATTUNED_SUPERIOR_VIGILANT_ASSAULT_E.POWERSETS",
  "requires": "",
  "power_names": [
    "Boosts.Superior_Attuned_Superior_Vigilant_Assault_E.Superior_Attuned_Superior_Vigilant_Assault_E"
  ],
  "power_display_names": [
    "Superior Vigilant Assault: Accuracy/Damage/Endurance/Recharge (Defender)"
  ]
}