{
  "name": "Kinetics",
  "display_name": "Kinetics",
  "display_fullname": "Corruptor Buff.Kinetics",
  "display_help": "You are a master at manipulating and transferring Kinetic energy. You can manipulate the potential energy found in objects to aid your allies or weaken your foes.",
  "display_short_help": "Kinetics",
  "available_level": [
    0,
    1,
    3,
    9,
    15,
    19,
    27,
    34,
    37
  ],
  "source_file": "DEFS/POWERS/CORRUPTOR_BUFF/KINETICS.POWERSETS",
  "requires": "",
  "power_names": [
    "Corruptor_Buff.Kinetics.Transfusion",
    "Corruptor_Buff.Kinetics.Siphon_Power",
    "Corruptor_Buff.Kinetics.Repel",
    "Corruptor_Buff.Kinetics.Siphon_Speed",
    "Corruptor_Buff.Kinetics.Increase_Density",
    "Corruptor_Buff.Kinetics.Speed_Boost",
    "Corruptor_Buff.Kinetics.Inertial_Reduction",
    "Corruptor_Buff.Kinetics.Transference",
    "Corruptor_Buff.Kinetics.Fulcrum_Shift"
  ],
  "power_display_names": [
    "Transfusion",
    "Siphon Power",
    "Repel",
    "Siphon Speed",
    "Increase Density",
    "Speed Boost",
    "Inertial Reduction",
    "Transference",
    "Fulcrum Shift"
  ]
}