{
  "name": "BrutalSwipe_Heal",
  "display_name": "Brutal Swipe Primal Heal",
  "display_fullname": "Primalist Misc.Brutal Swipe Primal Heal",
  "display_help": "Feral Might",
  "display_short_help": "Feral Might",
  "available_level": [
    0
  ],
  "source_file": "DEFS/POWERS/PRIMALIST_MISC/BRUTALSWIPE_HEAL.POWERSETS",
  "requires": "",
  "power_names": [
    "Primalist_Misc.BrutalSwipe_Heal.Brutal_Swipe_Primal_Heal"
  ],
  "power_display_names": [
    "Brutal Swipe Primal Heal"
  ]
}