{
  "name": "Crafted_Detonation_C",
  "display_name": "Crafted Detonation C",
  "display_fullname": "Boosts.Crafted Detonation C",
  "display_help": "Enhances the damage of a power by {Boost.Attrib.Damage.Scale}% and reduces recharge time by {Boost.Attrib.RechargeTime.Scale}%.",
  "display_short_help": "Set: Detonation",
  "available_level": [
    0
  ],
  "source_file": "DEFS/POWERS/BOOSTS/CRAFTED_DETONATION_C.POWERSETS",
  "requires": "",
  "power_names": [
    "Boosts.Crafted_Detonation_C.Crafted_Detonation_C"
  ],
  "power_display_names": [
    "Detonation: Damage/Recharge"
  ]
}