{
  "name": "Crafted_Unbreakable_Constraint_A",
  "display_name": "Crafted Unbreakable Constraint A",
  "display_fullname": "Boosts.Crafted Unbreakable Constraint A",
  "display_help": "UNIQUE -- No more than 1 enhancement of this type may be slotted by a character. Enhances the Hold duration of a power by {Boost.Attrib.Mez.Scale}%.",
  "display_short_help": "Set: Unbreakable Constraint",
  "available_level": [
    0
  ],
  "source_file": "DEFS/POWERS/BOOSTS/CRAFTED_UNBREAKABLE_CONSTRAINT_A.POWERSETS",
  "requires": "",
  "power_names": [
    "Boosts.Crafted_Unbreakable_Constraint_A.Crafted_Unbreakable_Constraint_A"
  ],
  "power_display_names": [
    "Unbreakable Constraint: Hold Duration"
  ]
}