{
  "name": "Noble_Savage",
  "display_name": "Noble Savage",
  "display_fullname": "NewPraetorians.Noble Savage",
  "display_help": "Noble Savage",
  "display_short_help": "Noble Savage",
  "available_level": [
    0,
    0,
    19,
    0,
    11,
    27,
    0,
    0
  ],
  "source_file": "DEFS/POWERS/NEWPRAETORIANS/NOBLE_SAVAGE.POWERSETS",
  "requires": "",
  "power_names": [
    "NewPraetorians.Noble_Savage.Jab",
    "NewPraetorians.Noble_Savage.Punch",
    "NewPraetorians.Noble_Savage.Haymaker",
    "NewPraetorians.Noble_Savage.Hurl",
    "NewPraetorians.Noble_Savage.Foot_Stomp",
    "NewPraetorians.Noble_Savage.Dull_Pain",
    "NewPraetorians.Noble_Savage.Metabolic_Superiority",
    "NewPraetorians.Noble_Savage.Integration"
  ],
  "power_display_names": [
    "Jab",
    "Punch",
    "Haymaker",
    "Hurl",
    "Foot Stomp",
    "Dull Pain",
    "Metabolic Superiority",
    "Integration"
  ]
}