{
  "name": "Crafted_Cleaving_Blow_A",
  "display_name": "Crafted Cleaving Blow A",
  "display_fullname": "Boosts.Crafted Cleaving Blow A",
  "display_help": "Enhances the damage of a power by {Boost.Attrib.Damage.Scale}% and accuracy by {Boost.Attrib.Accuracy.Scale}%.",
  "display_short_help": "Set: Cleaving Blow",
  "available_level": [
    0
  ],
  "source_file": "DEFS/POWERS/BOOSTS/CRAFTED_CLEAVING_BLOW_A.POWERSETS",
  "requires": "",
  "power_names": [
    "Boosts.Crafted_Cleaving_Blow_A.Crafted_Cleaving_Blow_A"
  ],
  "power_display_names": [
    "Cleaving Blow: Accuracy/Damage"
  ]
}