{
  "name": "Flesh_Wrench",
  "display_name": "Flesh_Wrench",
  "display_fullname": "Freaklok.Flesh Wrench",
  "display_help": "Flesh_Wrench",
  "display_short_help": "Flesh_Wrench",
  "available_level": [
    0,
    0,
    17,
    31,
    0,
    0,
    7,
    31
  ],
  "source_file": "DEFS/POWERS/FREAKLOK/FLESH_WRENCH.POWERSETS",
  "requires": "",
  "power_names": [
    "Freaklok.Flesh_Wrench.Beheader",
    "Freaklok.Flesh_Wrench.FWChop",
    "Freaklok.Flesh_Wrench.Whirling_Axe",
    "Freaklok.Flesh_Wrench.Pendulum",
    "Freaklok.Flesh_Wrench.Lightning_Rod",
    "Freaklok.Flesh_Wrench.Mind_Over_Body",
    "Freaklok.Flesh_Wrench.Rise_to_the_Challenge",
    "Freaklok.Flesh_Wrench.Strength_of_Will"
  ],
  "power_display_names": [
    "Beheader",
    "Chop",
    "Whirling Axe",
    "Pendulum",
    "Lightning Rod",
    "Mind Over Body",
    "Rise to the Challenge",
    "Strength of Will"
  ]
}