{
  "name": "PatronPowerGranter",
  "display_name": "PatronPowerGranter",
  "display_fullname": "Objects.PatronPowerGranter",
  "display_help": "Power of the Patrons",
  "display_short_help": "Power of the Patrons",
  "available_level": [
    0
  ],
  "source_file": "DEFS/POWERS/OBJECTS/PATRONPOWERGRANTER.POWERSETS",
  "requires": "",
  "power_names": [
    "Objects.PatronPowerGranter.Power_of_the_Patrons"
  ],
  "power_display_names": [
    "Power of the Patrons"
  ]
}