{
  "name": "Clockwork_King_Ranged_Powers",
  "display_name": "Clockwork_King_Ranged_Powers",
  "display_fullname": "Portal.Clockwork King Ranged Powers",
  "display_help": "Psychic Clockwork",
  "display_short_help": "Psychic Clockwork",
  "available_level": [
    0,
    0,
    0,
    0,
    0,
    0,
    0,
    0
  ],
  "source_file": "DEFS/POWERS/PORTAL/CLOCKWORK_KING_RANGED_POWERS.POWERSETS",
  "requires": "",
  "power_names": [
    "Portal.Clockwork_King_Ranged_Powers.Telekinetic_blast",
    "Portal.Clockwork_King_Ranged_Powers.Mental_Blast",
    "Portal.Clockwork_King_Ranged_Powers.Psionic_Tornado",
    "Portal.Clockwork_King_Ranged_Powers.Dominate",
    "Portal.Clockwork_King_Ranged_Powers.Psychic_Scream",
    "Portal.Clockwork_King_Ranged_Powers.Subdue",
    "Portal.Clockwork_King_Ranged_Powers.Will_Domination",
    "Portal.Clockwork_King_Ranged_Powers.Psychic_Wail"
  ],
  "power_display_names": [
    "Telekinetic blast",
    "Mental Blast",
    "Psionic Tornado",
    "Dominate",
    "Psychic Scream",
    "Subdue",
    "Will Domination",
    "Psychic Wail"
  ]
}