{
  "name": "Crafted_Lockdown_B",
  "display_name": "Crafted Lockdown B",
  "display_fullname": "Boosts.Crafted Lockdown B",
  "display_help": "Enhances the accuracy of a power by {Boost.Attrib.Accuracy.Scale}% and reduces the attack rate by {Boost.Attrib.RechargeTime.Scale}%.",
  "display_short_help": "Set: Lockdown",
  "available_level": [
    0
  ],
  "source_file": "DEFS/POWERS/BOOSTS/CRAFTED_LOCKDOWN_B.POWERSETS",
  "requires": "",
  "power_names": [
    "Boosts.Crafted_Lockdown_B.Crafted_Lockdown_B"
  ],
  "power_display_names": [
    "Lockdown: Accuracy/Recharge"
  ]
}