{
  "name": "Coral_Empowerment",
  "display_name": "Coral Empowerment",
  "display_fullname": "Objects.Coral Empowerment",
  "display_help": "Incarnate",
  "display_short_help": "Incarnate",
  "available_level": [
    0
  ],
  "source_file": "DEFS/POWERS/OBJECTS/CORAL_EMPOWERMENT.POWERSETS",
  "requires": "",
  "power_names": [
    "Objects.Coral_Empowerment.Blood_Coral_Empowerment"
  ],
  "power_display_names": [
    "Blood Coral Empowerment"
  ]
}