{
  "name": "Attuned_Call_to_Arms_D",
  "display_name": "Attuned Call to Arms D",
  "display_fullname": "Boosts.Attuned Call to Arms D",
  "display_help": "Enhances the accuracy of a power by {Boost.Attrib.Accuracy.Scale}%, enhances the damage of a power by {Boost.Attrib.Damage.Scale}% and reduces the attack rate by {Boost.Attrib.RechargeTime.Scale}%.",
  "display_short_help": "Set: Call to Arms",
  "available_level": [
    0
  ],
  "source_file": "DEFS/POWERS/BOOSTS/ATTUNED_CALL_TO_ARMS_D.POWERSETS",
  "requires": "",
  "power_names": [
    "Boosts.Attuned_Call_to_Arms_D.Attuned_Call_to_Arms_D"
  ],
  "power_display_names": [
    "Call to Arms: Accuracy/Damage/Recharge"
  ]
}