{
  "name": "Crafted_Tempered_Readiness_B",
  "display_name": "Crafted Tempered Readiness B",
  "display_fullname": "Boosts.Crafted Tempered Readiness B",
  "display_help": "Enhances the damage by {Boost.Attrib.Damage.Scale}% and slowing ability of a power by {Boost.Attrib.Movement.Scale}%.",
  "display_short_help": "Set: Tempered Readiness",
  "available_level": [
    0
  ],
  "source_file": "DEFS/POWERS/BOOSTS/CRAFTED_TEMPERED_READINESS_B.POWERSETS",
  "requires": "",
  "power_names": [
    "Boosts.Crafted_Tempered_Readiness_B.Crafted_Tempered_Readiness_B"
  ],
  "power_display_names": [
    "Tempered Readiness: Damage/Slow"
  ]
}