{
  "name": "Assault_Rifle",
  "display_name": "Assault Rifle",
  "display_fullname": "Corruptor Ranged.Assault Rifle",
  "display_help": "The Assault Rifle is a state-of-the-art piece of hardware. It is equipped to handle an impressive arsenal of munitions and firing modes. The Assault Rifle is also equipped with the latest in targeting technology, and is a very accurate weapon.",
  "display_short_help": "Assault Rifle",
  "available_level": [
    0,
    0,
    1,
    5,
    7,
    11,
    17,
    25,
    31
  ],
  "source_file": "DEFS/POWERS/CORRUPTOR_RANGED/ASSAULT_RIFLE.POWERSETS",
  "requires": "",
  "power_names": [
    "Corruptor_Ranged.Assault_Rifle.Burst",
    "Corruptor_Ranged.Assault_Rifle.Slug",
    "Corruptor_Ranged.Assault_Rifle.Buckshot",
    "Corruptor_Ranged.Assault_Rifle.M30_Grenade",
    "Corruptor_Ranged.Assault_Rifle.Beanbag",
    "Corruptor_Ranged.Assault_Rifle.Sniper_Rifle",
    "Corruptor_Ranged.Assault_Rifle.Flamethrower",
    "Corruptor_Ranged.Assault_Rifle.Ignite",
    "Corruptor_Ranged.Assault_Rifle.Full_Auto"
  ],
  "power_display_names": [
    "Burst",
    "Slug",
    "Buckshot",
    "M30 Grenade",
    "Beanbag",
    "Sniper Rifle",
    "Flamethrower",
    "Ignite",
    "Full Auto"
  ]
}