{
  "name": "Savage_Melee_Assassins_Strike",
  "display_name": "",
  "display_fullname": "Villain Pets.Savage Melee Assassins Strike",
  "display_help": "Claws are bones or blades that extend from your hands and cause Lethal damage. The lightweight, natural feel of claws gives this power set a reduced Endurance cost and faster attack rate than other Stalker melee sets. Like all Stalker primary attack powers, Claw attacks can land a Critical Hit for double damage, if you are properly Hidden or if your target is Slept or Held.",
  "display_short_help": "Claws",
  "available_level": [
    0,
    0
  ],
  "source_file": "DEFS/POWERS/VILLAIN_PETS/SAVAGE_MELEE_ASSASSINS_STRIKE.POWERSETS",
  "requires": "",
  "power_names": [
    "Villain_Pets.Savage_Melee_Assassins_Strike.Assassins_Frenzy_Stealth",
    "Villain_Pets.Savage_Melee_Assassins_Strike.Assassins_Frenzy_Quick"
  ],
  "power_display_names": [
    "Assassin's Frenzy",
    "Assassin's Frenzy"
  ]
}