{
  "name": "Prisoners_Boss_SubmachineGun",
  "display_name": "Prisoners_Boss_SubmachineGun",
  "display_fullname": "Prisoners.Prisoners Boss SubmachineGun",
  "display_help": "Prisoners",
  "display_short_help": "Prisoners",
  "available_level": [
    0
  ],
  "source_file": "DEFS/POWERS/PRISONERS/PRISONERS_BOSS_SUBMACHINEGUN.POWERSETS",
  "requires": "",
  "power_names": [
    "Prisoners.Prisoners_Boss_SubmachineGun.Submachine_Gun"
  ],
  "power_display_names": [
    "Submachine Gun"
  ]
}