{
  "name": "Infernal",
  "display_name": "Infernal",
  "display_fullname": "Praetorians.Infernal",
  "display_help": "Praetorians",
  "display_short_help": "Praetorians",
  "available_level": [
    0,
    0,
    0,
    0,
    0,
    0,
    0,
    0,
    0,
    0,
    0
  ],
  "source_file": "DEFS/POWERS/PRAETORIANS/INFERNAL.POWERSETS",
  "requires": "",
  "power_names": [
    "Praetorians.Infernal.Resistance",
    "Praetorians.Infernal.Fire_Aura",
    "Praetorians.Infernal.Gash",
    "Praetorians.Infernal.Chop",
    "Praetorians.Infernal.Beheader",
    "Praetorians.Infernal.Pendulum",
    "Praetorians.Infernal.Whirling_Axe",
    "Praetorians.Infernal.Flares",
    "Praetorians.Infernal.Fire_Breath",
    "Praetorians.Infernal.Fire_Blast",
    "Praetorians.Infernal.Fire_Ball"
  ],
  "power_display_names": [
    "Resistance",
    "Fire Aura",
    "Gash",
    "Chop",
    "Beheader",
    "Pendulum",
    "Whirling Axe",
    "Flares",
    "Fire Breath",
    "Fire Blast",
    "Fire Ball"
  ]
}