{
  "name": "Analyze_Weakness",
  "display_name": "Analyze Weakness",
  "group_name": "Accurate Defense Debuff",
  "conversion_groups": [
    "Rarity: Rare",
    "Category: Accurate Defense Debuff"
  ],
  "boost_lists": [
    [
      "Boosts.Crafted_Analyze_Weakness_A.Crafted_Analyze_Weakness_A",
      "Boosts.Attuned_Analyze_Weakness_A.Attuned_Analyze_Weakness_A"
    ],
    [
      "Boosts.Crafted_Analyze_Weakness_B.Crafted_Analyze_Weakness_B",
      "Boosts.Attuned_Analyze_Weakness_B.Attuned_Analyze_Weakness_B"
    ],
    [
      "Boosts.Crafted_Analyze_Weakness_C.Crafted_Analyze_Weakness_C",
      "Boosts.Attuned_Analyze_Weakness_C.Attuned_Analyze_Weakness_C"
    ],
    [
      "Boosts.Crafted_Analyze_Weakness_D.Crafted_Analyze_Weakness_D",
      "Boosts.Attuned_Analyze_Weakness_D.Attuned_Analyze_Weakness_D"
    ],
    [
      "Boosts.Crafted_Analyze_Weakness_E.Crafted_Analyze_Weakness_E",
      "Boosts.Attuned_Analyze_Weakness_E.Attuned_Analyze_Weakness_E"
    ],
    [
      "Boosts.Crafted_Analyze_Weakness_F.Crafted_Analyze_Weakness_F",
      "Boosts.Attuned_Analyze_Weakness_F.Attuned_Analyze_Weakness_F"
    ]
  ],
  "min_level": 30,
  "max_level": 50,
  "bonuses": [
    {
      "min_boosts": 2,
      "max_boosts": 6,
      "auto_powers": [
        "set_bonus.set_bonus.improved_regeneration_4"
      ],
      "bonus_power": "",
      "requires": ""
    },
    {
      "min_boosts": 3,
      "max_boosts": 6,
      "auto_powers": [
        "set_bonus.set_bonus.energy_neg_mez_res_2"
      ],
      "bonus_power": "",
      "requires": ""
    },
    {
      "min_boosts": 4,
      "max_boosts": 6,
      "auto_powers": [
        "set_bonus.set_bonus.increased_damage_5"
      ],
      "bonus_power": "",
      "requires": ""
    },
    {
      "min_boosts": 5,
      "max_boosts": 6,
      "auto_powers": [
        "set_bonus.set_bonus.accuracy_5"
      ],
      "bonus_power": "",
      "requires": ""
    },
    {
      "min_boosts": 6,
      "max_boosts": 6,
      "auto_powers": [
        "set_bonus.set_bonus.lethal_smash_mez_res_5"
      ],
      "bonus_power": "",
      "requires": ""
    }
  ],
  "computed": {
    "icons": [
      "e_icon_analyzeweakness.png"
    ],
    "boost_type": [
      "Enhance Defense DeBuff"
    ],
    "boosts": [
      [
        "Analyze Weakness: Base_Defense",
        "Attuned Analyze Weakness: Base_Defense"
      ],
      [
        "Analyze Weakness: Accuracy/Base_Defense",
        "Attuned Analyze Weakness: Accuracy/Base_Defense"
      ],
      [
        "Analyze Weakness: Accuracy/Recharge",
        "Attuned Analyze Weakness: Accuracy/Recharge"
      ],
      [
        "Analyze Weakness: Base_Defense/Endurance/Recharge",
        "Attuned Analyze Weakness: Base_Defense/Endurance/Recharge"
      ],
      [
        "Analyze Weakness: Accuracy/Endurance/Recharge",
        "Attuned Analyze Weakness: Accuracy/Endurance/Recharge"
      ],
      [
        "Analyze Weakness: Proc",
        "Attuned Analyze Weakness: Proc"
      ]
    ],
    "bonuses": [
      [
        [
          "set_bonus.set_bonus.improved_regeneration_4",
          "Large Improved Regeneration Bonus"
        ]
      ],
      [
        [
          "set_bonus.set_bonus.energy_neg_mez_res_2",
          "Small Energy, Negative Energy and Mez Resistance"
        ]
      ],
      [
        [
          "set_bonus.set_bonus.increased_damage_5",
          "Huge Increased Damage Bonus"
        ]
      ],
      [
        [
          "set_bonus.set_bonus.accuracy_5",
          "Huge Accuracy Bonus"
        ]
      ],
      [
        [
          "set_bonus.set_bonus.lethal_smash_mez_res_5",
          "Huge Lethal, Smash and Mez Resistance"
        ]
      ]
    ],
    "globals": {

    }
  }
}