{
  "name": "Annoyance",
  "display_name": "Annoyance",
  "group_name": "Taunt",
  "conversion_groups": [
    "Rarity: Uncommon",
    "Category: Taunt"
  ],
  "boost_lists": [
    [
      "Boosts.Crafted_Annoyance_A.Crafted_Annoyance_A",
      "Boosts.Attuned_Annoyance_A.Attuned_Annoyance_A"
    ],
    [
      "Boosts.Crafted_Annoyance_B.Crafted_Annoyance_B",
      "Boosts.Attuned_Annoyance_B.Attuned_Annoyance_B"
    ],
    [
      "Boosts.Crafted_Annoyance_C.Crafted_Annoyance_C",
      "Boosts.Attuned_Annoyance_C.Attuned_Annoyance_C"
    ]
  ],
  "min_level": 10,
  "max_level": 20,
  "bonuses": [
    {
      "min_boosts": 2,
      "max_boosts": 3,
      "auto_powers": [
        "set_bonus.set_bonus.improved_regeneration_1"
      ],
      "bonus_power": "",
      "requires": ""
    },
    {
      "min_boosts": 3,
      "max_boosts": 3,
      "auto_powers": [
        "set_bonus.set_bonus.increased_lethal_smash_melee_def_1"
      ],
      "bonus_power": "",
      "requires": ""
    }
  ],
  "computed": {
    "icons": [
      "e_icon_annoyance.png"
    ],
    "boost_type": [
      "Enhance Taunt"
    ],
    "boosts": [
      [
        "Annoyance: Taunt",
        "Attuned Annoyance: Taunt"
      ],
      [
        "Annoyance: Recharge/Taunt",
        "Attuned Annoyance: Recharge/Taunt"
      ],
      [
        "Annoyance: Range/Recharge/Taunt",
        "Attuned Annoyance: Range/Recharge/Taunt"
      ]
    ],
    "bonuses": [
      [
        [
          "set_bonus.set_bonus.improved_regeneration_1",
          "Tiny Improved Regeneration Bonus"
        ]
      ],
      [
        [
          "set_bonus.set_bonus.increased_lethal_smash_melee_def_1",
          "Tiny Increased Lethal/Smashing/Melee Def Bonus"
        ]
      ]
    ],
    "globals": {

    }
  }
}