{
  "name": "Command_of_the_Mastermind",
  "display_name": "Command of the Mastermind",
  "group_name": "Mastermind Archetype Sets",
  "conversion_groups": [
    "Rarity: Archetype",
    "Category: Mastermind"
  ],
  "boost_lists": [
    [
      "Boosts.Attuned_Command_of_the_Mastermind_A.Attuned_Command_of_the_Mastermind_A"
    ],
    [
      "Boosts.Attuned_Command_of_the_Mastermind_B.Attuned_Command_of_the_Mastermind_B"
    ],
    [
      "Boosts.Attuned_Command_of_the_Mastermind_C.Attuned_Command_of_the_Mastermind_C"
    ],
    [
      "Boosts.Attuned_Command_of_the_Mastermind_D.Attuned_Command_of_the_Mastermind_D"
    ],
    [
      "Boosts.Attuned_Command_of_the_Mastermind_E.Attuned_Command_of_the_Mastermind_E"
    ],
    [
      "Boosts.Attuned_Command_of_the_Mastermind_F.Attuned_Command_of_the_Mastermind_F"
    ]
  ],
  "min_level": 1,
  "max_level": 1,
  "bonuses": [
    {
      "min_boosts": 1,
      "max_boosts": 6,
      "auto_powers": [
        "set_bonus.set_bonus.command_of_the_mastermind"
      ],
      "bonus_power": "",
      "requires": "PowerBoostsSlotted>Attuned_Command_of_the_Mastermind_F >= 1"
    },
    {
      "min_boosts": 2,
      "max_boosts": 6,
      "auto_powers": [
        "set_bonus.set_bonus.increased_damage_3"
      ],
      "bonus_power": "",
      "requires": ""
    },
    {
      "min_boosts": 3,
      "max_boosts": 6,
      "auto_powers": [
        "set_bonus.set_bonus.increased_health_4"
      ],
      "bonus_power": "",
      "requires": ""
    },
    {
      "min_boosts": 4,
      "max_boosts": 6,
      "auto_powers": [
        "set_bonus.set_bonus.improved_recharge_time_5"
      ],
      "bonus_power": "",
      "requires": ""
    },
    {
      "min_boosts": 5,
      "max_boosts": 6,
      "auto_powers": [
        "set_bonus.set_bonus.toxic_psi_mez_res_5"
      ],
      "bonus_power": "",
      "requires": ""
    },
    {
      "min_boosts": 6,
      "max_boosts": 6,
      "auto_powers": [
        "set_bonus.set_bonus.lethal_smash_mez_res_6"
      ],
      "bonus_power": "",
      "requires": ""
    }
  ],
  "computed": {
    "icons": [
      "e_icon_commandofthemastermind.png"
    ],
    "boost_type": [
      "Enhance Damage"
    ],
    "boosts": [
      [
        "Attuned Command of the Mastermind: Accuracy/Damage"
      ],
      [
        "Attuned Command of the Mastermind: Damage/Endurance"
      ],
      [
        "Attuned Command of the Mastermind: Accuracy/Damage/Recharge"
      ],
      [
        "Attuned Command of the Mastermind: Damage/Endurance/Recharge"
      ],
      [
        "Attuned Command of the Mastermind: Accuracy/Damage/Endurance/Recharge"
      ],
      [
        "Attuned Command of the Mastermind: Recharge/Global"
      ]
    ],
    "bonuses": [
      [
        [
          "set_bonus.set_bonus.increased_damage_3",
          "Moderate Increased Damage Bonus"
        ]
      ],
      [
        [
          "set_bonus.set_bonus.increased_health_4",
          "Large Increased Health Bonus"
        ]
      ],
      [
        [
          "set_bonus.set_bonus.improved_recharge_time_5",
          "Huge Improved Recharge Time Bonus"
        ]
      ],
      [
        [
          "set_bonus.set_bonus.toxic_psi_mez_res_5",
          "Huge Toxic, Psionic and Mez Resistance"
        ]
      ],
      [
        [
          "set_bonus.set_bonus.lethal_smash_mez_res_6",
          "Gargantuan Lethal, Smash and Mez Resistance"
        ]
      ]
    ],
    "globals": {
      "attuned_command_of_the_mastermind_f": [
        [
          "set_bonus.set_bonus.command_of_the_mastermind",
          "Command of the Mastermind"
        ]
      ]
    }
  }
}