{
  "name": "Enfeebled_Operation",
  "display_name": "Enfeebled Operation",
  "group_name": "Immobilize",
  "conversion_groups": [
    "Rarity: Uncommon",
    "Category: Immobilize"
  ],
  "boost_lists": [
    [
      "Boosts.Crafted_Enfeebled_Operation_A.Crafted_Enfeebled_Operation_A",
      "Boosts.Attuned_Enfeebled_Operation_A.Attuned_Enfeebled_Operation_A"
    ],
    [
      "Boosts.Crafted_Enfeebled_Operation_B.Crafted_Enfeebled_Operation_B",
      "Boosts.Attuned_Enfeebled_Operation_B.Attuned_Enfeebled_Operation_B"
    ],
    [
      "Boosts.Crafted_Enfeebled_Operation_C.Crafted_Enfeebled_Operation_C",
      "Boosts.Attuned_Enfeebled_Operation_C.Attuned_Enfeebled_Operation_C"
    ],
    [
      "Boosts.Crafted_Enfeebled_Operation_D.Crafted_Enfeebled_Operation_D",
      "Boosts.Attuned_Enfeebled_Operation_D.Attuned_Enfeebled_Operation_D"
    ],
    [
      "Boosts.Crafted_Enfeebled_Operation_E.Crafted_Enfeebled_Operation_E",
      "Boosts.Attuned_Enfeebled_Operation_E.Attuned_Enfeebled_Operation_E"
    ],
    [
      "Boosts.Crafted_Enfeebled_Operation_F.Crafted_Enfeebled_Operation_F",
      "Boosts.Attuned_Enfeebled_Operation_F.Attuned_Enfeebled_Operation_F"
    ]
  ],
  "min_level": 20,
  "max_level": 50,
  "bonuses": [
    {
      "min_boosts": 2,
      "max_boosts": 6,
      "auto_powers": [
        "set_bonus.set_bonus.immob_dur_2"
      ],
      "bonus_power": "",
      "requires": ""
    },
    {
      "min_boosts": 3,
      "max_boosts": 6,
      "auto_powers": [
        "set_bonus.set_bonus.energy_neg_mez_res_2"
      ],
      "bonus_power": "",
      "requires": ""
    },
    {
      "min_boosts": 4,
      "max_boosts": 6,
      "auto_powers": [
        "set_bonus.set_bonus.increased_lethal_smash_melee_def_3"
      ],
      "bonus_power": "",
      "requires": ""
    },
    {
      "min_boosts": 5,
      "max_boosts": 6,
      "auto_powers": [
        "set_bonus.set_bonus.improved_recharge_time_2"
      ],
      "bonus_power": "",
      "requires": ""
    },
    {
      "min_boosts": 6,
      "max_boosts": 6,
      "auto_powers": [
        "set_bonus.set_bonus.increased_melee_lethal_smash_def_4"
      ],
      "bonus_power": "",
      "requires": ""
    }
  ],
  "computed": {
    "icons": [
      "e_icon_enfeebledoperation.png"
    ],
    "boost_type": [
      "Enhance Immobilization"
    ],
    "boosts": [
      [
        "Enfeebled Operation: Accuracy/Recharge",
        "Attuned Enfeebled Operation: Accuracy/Recharge"
      ],
      [
        "Enfeebled Operation: Endurance/Immobilized",
        "Attuned Enfeebled Operation: Endurance/Immobilized"
      ],
      [
        "Enfeebled Operation: Accuracy/Endurance",
        "Attuned Enfeebled Operation: Accuracy/Endurance"
      ],
      [
        "Enfeebled Operation: Immobilized/Range",
        "Attuned Enfeebled Operation: Immobilized/Range"
      ],
      [
        "Enfeebled Operation: Accuracy/Immobilized/Recharge",
        "Attuned Enfeebled Operation: Accuracy/Immobilized/Recharge"
      ],
      [
        "Enfeebled Operation: Accuracy/Immobilized",
        "Attuned Enfeebled Operation: Accuracy/Immobilized"
      ]
    ],
    "bonuses": [
      [
        [
          "set_bonus.set_bonus.immob_dur_2",
          "Small Immobilize Duration Bonus"
        ]
      ],
      [
        [
          "set_bonus.set_bonus.energy_neg_mez_res_2",
          "Small Energy, Negative Energy and Mez Resistance"
        ]
      ],
      [
        [
          "set_bonus.set_bonus.increased_lethal_smash_melee_def_3",
          "Moderate Increased Lethal/Smashing/Melee Def Bonus"
        ]
      ],
      [
        [
          "set_bonus.set_bonus.improved_recharge_time_2",
          "Small Improved Recharge Time Bonus"
        ]
      ],
      [
        [
          "set_bonus.set_bonus.increased_melee_lethal_smash_def_4",
          "Large Increased Melee/Lethal/Smashing Def Bonus"
        ]
      ]
    ],
    "globals": {

    }
  }
}