{
  "name": "Entomb",
  "display_name": "Entomb",
  "group_name": "Holds",
  "conversion_groups": [
    "Rarity: Winter Pack Series"
  ],
  "boost_lists": [
    [
      "Boosts.Attuned_Entomb_A.Attuned_Entomb_A"
    ],
    [
      "Boosts.Attuned_Entomb_B.Attuned_Entomb_B"
    ],
    [
      "Boosts.Attuned_Entomb_C.Attuned_Entomb_C"
    ],
    [
      "Boosts.Attuned_Entomb_D.Attuned_Entomb_D"
    ],
    [
      "Boosts.Attuned_Entomb_E.Attuned_Entomb_E"
    ],
    [
      "Boosts.Attuned_Entomb_F.Attuned_Entomb_F"
    ]
  ],
  "min_level": 1,
  "max_level": 1,
  "bonuses": [
    {
      "min_boosts": 2,
      "max_boosts": 6,
      "auto_powers": [
        "set_bonus.set_bonus.fire_cold_mez_res_2"
      ],
      "bonus_power": "",
      "requires": ""
    },
    {
      "min_boosts": 3,
      "max_boosts": 6,
      "auto_powers": [
        "set_bonus.set_bonus.slow_resist_3"
      ],
      "bonus_power": "",
      "requires": ""
    },
    {
      "min_boosts": 4,
      "max_boosts": 6,
      "auto_powers": [
        "set_bonus.set_bonus.improved_recovery_3"
      ],
      "bonus_power": "",
      "requires": ""
    },
    {
      "min_boosts": 5,
      "max_boosts": 6,
      "auto_powers": [
        "set_bonus.set_bonus.increased_energy_neg_ranged_def_2"
      ],
      "bonus_power": "",
      "requires": ""
    },
    {
      "min_boosts": 6,
      "max_boosts": 6,
      "auto_powers": [
        "set_bonus.set_bonus.increased_fire_cold_aoe_def_5"
      ],
      "bonus_power": "",
      "requires": ""
    }
  ],
  "computed": {
    "icons": [
      "e_icon_entomb.png"
    ],
    "boost_type": [
      "Enhance Hold"
    ],
    "boosts": [
      [
        "Attuned Entomb: Accuracy/Hold"
      ],
      [
        "Attuned Entomb: Hold/Recharge"
      ],
      [
        "Attuned Entomb: Endurance/Recharge"
      ],
      [
        "Attuned Entomb: Accuracy/Endurance/Hold"
      ],
      [
        "Attuned Entomb: Accuracy/Endurance/Hold/Recharge"
      ],
      [
        "Attuned Entomb: Recharge/Proc"
      ]
    ],
    "bonuses": [
      [
        [
          "set_bonus.set_bonus.fire_cold_mez_res_2",
          "Small Fire, Cold and Mez Resistance"
        ]
      ],
      [
        [
          "set_bonus.set_bonus.slow_resist_3",
          "Large Slow Resist"
        ]
      ],
      [
        [
          "set_bonus.set_bonus.improved_recovery_3",
          "Moderate Improved Recovery Bonus"
        ]
      ],
      [
        [
          "set_bonus.set_bonus.increased_energy_neg_ranged_def_2",
          "Small Increased Energy/Negative Energy/Ranged Def Bonus"
        ]
      ],
      [
        [
          "set_bonus.set_bonus.increased_fire_cold_aoe_def_5",
          "Huge Increased Fire/Cold/AoE Def Bonus"
        ]
      ]
    ],
    "globals": {

    }
  }
}