{
  "name": "Entropic_Chaos",
  "display_name": "Entropic Chaos",
  "group_name": "Ranged Damage",
  "conversion_groups": [
    "Rarity: Rare",
    "Category: Ranged"
  ],
  "boost_lists": [
    [
      "Boosts.Crafted_Entropic_Chaos_A.Crafted_Entropic_Chaos_A",
      "Boosts.Attuned_Entropic_Chaos_A.Attuned_Entropic_Chaos_A"
    ],
    [
      "Boosts.Crafted_Entropic_Chaos_B.Crafted_Entropic_Chaos_B",
      "Boosts.Attuned_Entropic_Chaos_B.Attuned_Entropic_Chaos_B"
    ],
    [
      "Boosts.Crafted_Entropic_Chaos_C.Crafted_Entropic_Chaos_C",
      "Boosts.Attuned_Entropic_Chaos_C.Attuned_Entropic_Chaos_C"
    ],
    [
      "Boosts.Crafted_Entropic_Chaos_D.Crafted_Entropic_Chaos_D",
      "Boosts.Attuned_Entropic_Chaos_D.Attuned_Entropic_Chaos_D"
    ],
    [
      "Boosts.Crafted_Entropic_Chaos_E.Crafted_Entropic_Chaos_E",
      "Boosts.Attuned_Entropic_Chaos_E.Attuned_Entropic_Chaos_E"
    ]
  ],
  "min_level": 20,
  "max_level": 35,
  "bonuses": [
    {
      "min_boosts": 2,
      "max_boosts": 5,
      "auto_powers": [
        "set_bonus.set_bonus.improved_regeneration_4"
      ],
      "bonus_power": "",
      "requires": ""
    },
    {
      "min_boosts": 3,
      "max_boosts": 5,
      "auto_powers": [
        "set_bonus.set_bonus.fire_cold_mez_res_2"
      ],
      "bonus_power": "",
      "requires": ""
    },
    {
      "min_boosts": 4,
      "max_boosts": 5,
      "auto_powers": [
        "set_bonus.set_bonus.increased_endurance_4"
      ],
      "bonus_power": "",
      "requires": ""
    },
    {
      "min_boosts": 5,
      "max_boosts": 5,
      "auto_powers": [
        "set_bonus.set_bonus.improved_recharge_time_4"
      ],
      "bonus_power": "",
      "requires": ""
    }
  ],
  "computed": {
    "icons": [
      "e_icon_entropicchaos.png"
    ],
    "boost_type": [
      "Enhance Damage"
    ],
    "boosts": [
      [
        "Entropic Chaos: Accuracy/Damage",
        "Attuned Entropic Chaos: Accuracy/Damage"
      ],
      [
        "Entropic Chaos: Damage/Endurance",
        "Attuned Entropic Chaos: Damage/Endurance"
      ],
      [
        "Entropic Chaos: Damage/Recharge",
        "Attuned Entropic Chaos: Damage/Recharge"
      ],
      [
        "Entropic Chaos: Damage/Endurance/Recharge",
        "Attuned Entropic Chaos: Damage/Endurance/Recharge"
      ],
      [
        "Entropic Chaos: Proc",
        "Attuned Entropic Chaos: Proc"
      ]
    ],
    "bonuses": [
      [
        [
          "set_bonus.set_bonus.improved_regeneration_4",
          "Large Improved Regeneration Bonus"
        ]
      ],
      [
        [
          "set_bonus.set_bonus.fire_cold_mez_res_2",
          "Small Fire, Cold and Mez Resistance"
        ]
      ],
      [
        [
          "set_bonus.set_bonus.increased_endurance_4",
          "Large Increased Endurance Bonus"
        ]
      ],
      [
        [
          "set_bonus.set_bonus.improved_recharge_time_4",
          "Large Improved Recharge Time Bonus"
        ]
      ]
    ],
    "globals": {

    }
  }
}