{
  "name": "Eradication",
  "display_name": "Eradication",
  "group_name": "Melee AoE Damage",
  "conversion_groups": [
    "Rarity: Rare",
    "Category: Melee AoE"
  ],
  "boost_lists": [
    [
      "Boosts.Crafted_Eradication_A.Crafted_Eradication_A",
      "Boosts.Attuned_Eradication_A.Attuned_Eradication_A"
    ],
    [
      "Boosts.Crafted_Eradication_B.Crafted_Eradication_B",
      "Boosts.Attuned_Eradication_B.Attuned_Eradication_B"
    ],
    [
      "Boosts.Crafted_Eradication_C.Crafted_Eradication_C",
      "Boosts.Attuned_Eradication_C.Attuned_Eradication_C"
    ],
    [
      "Boosts.Crafted_Eradication_D.Crafted_Eradication_D",
      "Boosts.Attuned_Eradication_D.Attuned_Eradication_D"
    ],
    [
      "Boosts.Crafted_Eradication_E.Crafted_Eradication_E",
      "Boosts.Attuned_Eradication_E.Attuned_Eradication_E"
    ],
    [
      "Boosts.Crafted_Eradication_F.Crafted_Eradication_F",
      "Boosts.Attuned_Eradication_F.Attuned_Eradication_F"
    ]
  ],
  "min_level": 10,
  "max_level": 30,
  "bonuses": [
    {
      "min_boosts": 2,
      "max_boosts": 6,
      "auto_powers": [
        "set_bonus.set_bonus.increased_endurance_3"
      ],
      "bonus_power": "",
      "requires": ""
    },
    {
      "min_boosts": 3,
      "max_boosts": 6,
      "auto_powers": [
        "set_bonus.set_bonus.increased_energy_neg_ranged_def_4"
      ],
      "bonus_power": "",
      "requires": ""
    },
    {
      "min_boosts": 4,
      "max_boosts": 6,
      "auto_powers": [
        "set_bonus.set_bonus.increased_health_5"
      ],
      "bonus_power": "",
      "requires": ""
    },
    {
      "min_boosts": 5,
      "max_boosts": 6,
      "auto_powers": [
        "set_bonus.set_bonus.improved_regeneration_5"
      ],
      "bonus_power": "",
      "requires": ""
    },
    {
      "min_boosts": 6,
      "max_boosts": 6,
      "auto_powers": [
        "set_bonus.set_bonus.increased_aoe_fire_cold_def_4"
      ],
      "bonus_power": "",
      "requires": ""
    }
  ],
  "computed": {
    "icons": [
      "e_icon_eradication.png"
    ],
    "boost_type": [
      "Enhance Damage"
    ],
    "boosts": [
      [
        "Eradication: Damage",
        "Attuned Eradication: Damage"
      ],
      [
        "Eradication: Accuracy/Recharge",
        "Attuned Eradication: Accuracy/Recharge"
      ],
      [
        "Eradication: Damage/Recharge",
        "Attuned Eradication: Damage/Recharge"
      ],
      [
        "Eradication: Accuracy/Damage/Recharge",
        "Attuned Eradication: Accuracy/Damage/Recharge"
      ],
      [
        "Eradication: Accuracy/Damage/Endurance/Recharge",
        "Attuned Eradication: Accuracy/Damage/Endurance/Recharge"
      ],
      [
        "Eradication: Proc",
        "Attuned Eradication: Proc"
      ]
    ],
    "bonuses": [
      [
        [
          "set_bonus.set_bonus.increased_endurance_3",
          "Moderate Increased Endurance Bonus"
        ]
      ],
      [
        [
          "set_bonus.set_bonus.increased_energy_neg_ranged_def_4",
          "Large Increased Energy/Negative Energy/Ranged Def Bonus"
        ]
      ],
      [
        [
          "set_bonus.set_bonus.increased_health_5",
          "Huge Increased Health Bonus"
        ]
      ],
      [
        [
          "set_bonus.set_bonus.improved_regeneration_5",
          "Huge Improved Regeneration Bonus"
        ]
      ],
      [
        [
          "set_bonus.set_bonus.increased_aoe_fire_cold_def_4",
          "Large Increased AoE/Fire/Cold Def Bonus"
        ]
      ]
    ],
    "globals": {

    }
  }
}