{
  "name": "Gladiators_Strike",
  "display_name": "Gladiator's Strike",
  "group_name": "Melee Damage",
  "conversion_groups": [
    "ECPvP"
  ],
  "boost_lists": [
    [
      "Boosts.Crafted_Gladiators_Strike_A.Crafted_Gladiators_Strike_A",
      "Boosts.Attuned_Gladiators_Strike_A.Attuned_Gladiators_Strike_A"
    ],
    [
      "Boosts.Crafted_Gladiators_Strike_B.Crafted_Gladiators_Strike_B",
      "Boosts.Attuned_Gladiators_Strike_B.Attuned_Gladiators_Strike_B"
    ],
    [
      "Boosts.Crafted_Gladiators_Strike_C.Crafted_Gladiators_Strike_C",
      "Boosts.Attuned_Gladiators_Strike_C.Attuned_Gladiators_Strike_C"
    ],
    [
      "Boosts.Crafted_Gladiators_Strike_D.Crafted_Gladiators_Strike_D",
      "Boosts.Attuned_Gladiators_Strike_D.Attuned_Gladiators_Strike_D"
    ],
    [
      "Boosts.Crafted_Gladiators_Strike_E.Crafted_Gladiators_Strike_E",
      "Boosts.Attuned_Gladiators_Strike_E.Attuned_Gladiators_Strike_E"
    ],
    [
      "Boosts.Crafted_Gladiators_Strike_F.Crafted_Gladiators_Strike_F",
      "Boosts.Attuned_Gladiators_Strike_F.Attuned_Gladiators_Strike_F"
    ]
  ],
  "min_level": 10,
  "max_level": 50,
  "bonuses": [
    {
      "min_boosts": 2,
      "max_boosts": 6,
      "auto_powers": [
        "set_bonus.set_bonus.improved_recovery_4"
      ],
      "bonus_power": "",
      "requires": ""
    },
    {
      "min_boosts": 2,
      "max_boosts": 6,
      "auto_powers": [
        "set_bonus.pvp_set_bonus.increased_endurance_4"
      ],
      "bonus_power": "",
      "requires": "isPVPMap?"
    },
    {
      "min_boosts": 3,
      "max_boosts": 6,
      "auto_powers": [
        "set_bonus.set_bonus.increased_health_2"
      ],
      "bonus_power": "",
      "requires": ""
    },
    {
      "min_boosts": 3,
      "max_boosts": 6,
      "auto_powers": [
        "set_bonus.pvp_set_bonus.energy_neg_mez_res_2"
      ],
      "bonus_power": "",
      "requires": "isPVPMap?"
    },
    {
      "min_boosts": 4,
      "max_boosts": 6,
      "auto_powers": [
        "set_bonus.set_bonus.increased_damage_4"
      ],
      "bonus_power": "",
      "requires": ""
    },
    {
      "min_boosts": 4,
      "max_boosts": 6,
      "auto_powers": [
        "set_bonus.pvp_set_bonus.increased_lethal_smash_melee_def_4"
      ],
      "bonus_power": "",
      "requires": "isPVPMap?"
    },
    {
      "min_boosts": 5,
      "max_boosts": 6,
      "auto_powers": [
        "set_bonus.set_bonus.lethal_smash_mez_res_4"
      ],
      "bonus_power": "",
      "requires": ""
    },
    {
      "min_boosts": 5,
      "max_boosts": 6,
      "auto_powers": [
        "set_bonus.pvp_set_bonus.repel_resist_4"
      ],
      "bonus_power": "",
      "requires": "isPVPMap?"
    },
    {
      "min_boosts": 6,
      "max_boosts": 6,
      "auto_powers": [
        "set_bonus.set_bonus.accuracy_3"
      ],
      "bonus_power": "",
      "requires": ""
    },
    {
      "min_boosts": 6,
      "max_boosts": 6,
      "auto_powers": [
        "set_bonus.pvp_set_bonus.improved_recharge_time_5"
      ],
      "bonus_power": "",
      "requires": "isPVPMap?"
    }
  ],
  "computed": {
    "icons": [
      "e_icon_gladiatorsstrike.png"
    ],
    "boost_type": [
      "Enhance Damage"
    ],
    "boosts": [
      [
        "Gladiator's Strike: Accuracy/Damage",
        "Attuned Gladiator's Strike: Accuracy/Damage"
      ],
      [
        "Gladiator's Strike: Damage/Recharge",
        "Attuned Gladiator's Strike: Damage/Recharge"
      ],
      [
        "Gladiator's Strike: Damage/Endurance/Recharge",
        "Attuned Gladiator's Strike: Damage/Endurance/Recharge"
      ],
      [
        "Gladiator's Strike: Accuracy/Endurance/Recharge",
        "Attuned Gladiator's Strike: Accuracy/Endurance/Recharge"
      ],
      [
        "Gladiator's Strike: Accuracy/Damage/Endurance/Recharge",
        "Attuned Gladiator's Strike: Accuracy/Damage/Endurance/Recharge"
      ],
      [
        "Gladiator's Strike: Proc",
        "Attuned Gladiator's Strike: Proc"
      ]
    ],
    "bonuses": [
      [
        [
          "set_bonus.pvp_set_bonus.increased_endurance_4",
          "Large Increased Endurance Bonus (PVP)"
        ]
      ],
      [
        [
          "set_bonus.pvp_set_bonus.energy_neg_mez_res_2",
          "Small Energy, Negative Energy and Mez Resistance"
        ]
      ],
      [
        [
          "set_bonus.pvp_set_bonus.increased_lethal_smash_melee_def_4",
          "Large Increased Lethal/Smashing/Melee Def Bonus (PVP)"
        ]
      ],
      [
        [
          "set_bonus.pvp_set_bonus.repel_resist_4",
          "Huge Increased Repel Resistance (PVP)"
        ]
      ],
      [
        [
          "set_bonus.pvp_set_bonus.improved_recharge_time_5",
          "Huge Improved Recharge Time Bonus (PVP)"
        ]
      ]
    ],
    "globals": {

    }
  }
}