{
  "name": "Horror",
  "display_name": "Horror",
  "group_name": "Fear",
  "conversion_groups": [
    "Rarity: Uncommon",
    "Category: Fear"
  ],
  "boost_lists": [
    [
      "Boosts.Crafted_Horror_A.Crafted_Horror_A",
      "Boosts.Attuned_Horror_A.Attuned_Horror_A"
    ],
    [
      "Boosts.Crafted_Horror_B.Crafted_Horror_B",
      "Boosts.Attuned_Horror_B.Attuned_Horror_B"
    ],
    [
      "Boosts.Crafted_Horror_C.Crafted_Horror_C",
      "Boosts.Attuned_Horror_C.Attuned_Horror_C"
    ],
    [
      "Boosts.Crafted_Horror_D.Crafted_Horror_D",
      "Boosts.Attuned_Horror_D.Attuned_Horror_D"
    ],
    [
      "Boosts.Crafted_Horror_E.Crafted_Horror_E",
      "Boosts.Attuned_Horror_E.Attuned_Horror_E"
    ]
  ],
  "min_level": 10,
  "max_level": 30,
  "bonuses": [
    {
      "min_boosts": 2,
      "max_boosts": 5,
      "auto_powers": [
        "set_bonus.set_bonus.fear_dur_1"
      ],
      "bonus_power": "",
      "requires": ""
    },
    {
      "min_boosts": 3,
      "max_boosts": 5,
      "auto_powers": [
        "set_bonus.set_bonus.increased_health_1"
      ],
      "bonus_power": "",
      "requires": ""
    },
    {
      "min_boosts": 4,
      "max_boosts": 5,
      "auto_powers": [
        "set_bonus.set_bonus.lethal_smash_mez_res_2"
      ],
      "bonus_power": "",
      "requires": ""
    },
    {
      "min_boosts": 5,
      "max_boosts": 5,
      "auto_powers": [
        "set_bonus.set_bonus.improved_recharge_time_1"
      ],
      "bonus_power": "",
      "requires": ""
    }
  ],
  "computed": {
    "icons": [
      "e_icon_horror.png"
    ],
    "boost_type": [
      "Enhance Fear"
    ],
    "boosts": [
      [
        "Horror: Accuracy/Recharge",
        "Attuned Horror: Accuracy/Recharge"
      ],
      [
        "Horror: Endurance/Terrorized",
        "Attuned Horror: Endurance/Terrorized"
      ],
      [
        "Horror: Accuracy/Endurance",
        "Attuned Horror: Accuracy/Endurance"
      ],
      [
        "Horror: Range/Terrorized",
        "Attuned Horror: Range/Terrorized"
      ],
      [
        "Horror: Accuracy/Recharge/Terrorized",
        "Attuned Horror: Accuracy/Recharge/Terrorized"
      ]
    ],
    "bonuses": [
      [
        [
          "set_bonus.set_bonus.fear_dur_1",
          "Tiny Fear Duration Bonus"
        ]
      ],
      [
        [
          "set_bonus.set_bonus.increased_health_1",
          "Tiny Increased Health Bonus"
        ]
      ],
      [
        [
          "set_bonus.set_bonus.lethal_smash_mez_res_2",
          "Small Lethal, Smash and Mez Resistance"
        ]
      ],
      [
        [
          "set_bonus.set_bonus.improved_recharge_time_1",
          "Tiny Improved Recharge Time Bonus"
        ]
      ]
    ],
    "globals": {

    }
  }
}