{
  "name": "Maelstroms_Fury",
  "display_name": "Maelstrom's Fury",
  "group_name": "Ranged Damage",
  "conversion_groups": [
    "Rarity: Uncommon",
    "Category: Ranged"
  ],
  "boost_lists": [
    [
      "Boosts.Crafted_Maelstroms_Fury_A.Crafted_Maelstroms_Fury_A",
      "Boosts.Attuned_Maelstroms_Fury_A.Attuned_Maelstroms_Fury_A"
    ],
    [
      "Boosts.Crafted_Maelstroms_Fury_B.Crafted_Maelstroms_Fury_B",
      "Boosts.Attuned_Maelstroms_Fury_B.Attuned_Maelstroms_Fury_B"
    ],
    [
      "Boosts.Crafted_Maelstroms_Fury_C.Crafted_Maelstroms_Fury_C",
      "Boosts.Attuned_Maelstroms_Fury_C.Attuned_Maelstroms_Fury_C"
    ],
    [
      "Boosts.Crafted_Maelstroms_Fury_D.Crafted_Maelstroms_Fury_D",
      "Boosts.Attuned_Maelstroms_Fury_D.Attuned_Maelstroms_Fury_D"
    ]
  ],
  "min_level": 20,
  "max_level": 35,
  "bonuses": [
    {
      "min_boosts": 2,
      "max_boosts": 4,
      "auto_powers": [
        "set_bonus.set_bonus.increased_move_2"
      ],
      "bonus_power": "",
      "requires": ""
    },
    {
      "min_boosts": 3,
      "max_boosts": 4,
      "auto_powers": [
        "set_bonus.set_bonus.increased_fire_cold_aoe_def_2"
      ],
      "bonus_power": "",
      "requires": ""
    },
    {
      "min_boosts": 4,
      "max_boosts": 4,
      "auto_powers": [
        "set_bonus.set_bonus.energy_neg_mez_res_3"
      ],
      "bonus_power": "",
      "requires": ""
    }
  ],
  "computed": {
    "icons": [
      "e_icon_maelstromsfury.png"
    ],
    "boost_type": [
      "Enhance Damage"
    ],
    "boosts": [
      [
        "Maelstrom's Fury: Accuracy/Damage",
        "Attuned Maelstrom's Fury: Accuracy/Damage"
      ],
      [
        "Maelstrom's Fury: Damage/Endurance",
        "Attuned Maelstrom's Fury: Damage/Endurance"
      ],
      [
        "Maelstrom's Fury: Damage/Recharge",
        "Attuned Maelstrom's Fury: Damage/Recharge"
      ],
      [
        "Maelstrom's Fury: Damage/Endurance/Recharge",
        "Attuned Maelstrom's Fury: Damage/Endurance/Recharge"
      ]
    ],
    "bonuses": [
      [
        [
          "set_bonus.set_bonus.increased_move_2",
          "Small Improved Movement Bonus"
        ]
      ],
      [
        [
          "set_bonus.set_bonus.increased_fire_cold_aoe_def_2",
          "Small Increased Fire/Cold/AoE Def Bonus"
        ]
      ],
      [
        [
          "set_bonus.set_bonus.energy_neg_mez_res_3",
          "Moderate Energy, Negative Energy and Mez Resistance"
        ]
      ]
    ],
    "globals": {

    }
  }
}