{
  "name": "Malaises_Illusions",
  "display_name": "Malaise's Illusions",
  "group_name": "Confuse",
  "conversion_groups": [
    "Rarity: Rare",
    "Category: Confuse"
  ],
  "boost_lists": [
    [
      "Boosts.Crafted_Malaises_Illusions_A.Crafted_Malaises_Illusions_A",
      "Boosts.Attuned_Malaises_Illusions_A.Attuned_Malaises_Illusions_A"
    ],
    [
      "Boosts.Crafted_Malaises_Illusions_B.Crafted_Malaises_Illusions_B",
      "Boosts.Attuned_Malaises_Illusions_B.Attuned_Malaises_Illusions_B"
    ],
    [
      "Boosts.Crafted_Malaises_Illusions_C.Crafted_Malaises_Illusions_C",
      "Boosts.Attuned_Malaises_Illusions_C.Attuned_Malaises_Illusions_C"
    ],
    [
      "Boosts.Crafted_Malaises_Illusions_D.Crafted_Malaises_Illusions_D",
      "Boosts.Attuned_Malaises_Illusions_D.Attuned_Malaises_Illusions_D"
    ],
    [
      "Boosts.Crafted_Malaises_Illusions_E.Crafted_Malaises_Illusions_E",
      "Boosts.Attuned_Malaises_Illusions_E.Attuned_Malaises_Illusions_E"
    ],
    [
      "Boosts.Crafted_Malaises_Illusions_F.Crafted_Malaises_Illusions_F",
      "Boosts.Attuned_Malaises_Illusions_F.Attuned_Malaises_Illusions_F"
    ]
  ],
  "min_level": 20,
  "max_level": 50,
  "bonuses": [
    {
      "min_boosts": 2,
      "max_boosts": 6,
      "auto_powers": [
        "set_bonus.set_bonus.improved_recovery_4"
      ],
      "bonus_power": "",
      "requires": ""
    },
    {
      "min_boosts": 3,
      "max_boosts": 6,
      "auto_powers": [
        "set_bonus.set_bonus.confuse_dur_4"
      ],
      "bonus_power": "",
      "requires": ""
    },
    {
      "min_boosts": 4,
      "max_boosts": 6,
      "auto_powers": [
        "set_bonus.set_bonus.increased_damage_4"
      ],
      "bonus_power": "",
      "requires": ""
    },
    {
      "min_boosts": 5,
      "max_boosts": 6,
      "auto_powers": [
        "set_bonus.set_bonus.improved_recharge_time_4"
      ],
      "bonus_power": "",
      "requires": ""
    },
    {
      "min_boosts": 6,
      "max_boosts": 6,
      "auto_powers": [
        "set_bonus.set_bonus.increased_ranged_energy_neg_def_4"
      ],
      "bonus_power": "",
      "requires": ""
    }
  ],
  "computed": {
    "icons": [
      "e_icon_malaisesillusions.png"
    ],
    "boost_type": [
      "Enhance Confuse"
    ],
    "boosts": [
      [
        "Malaise's Illusions: Accuracy/Recharge",
        "Attuned Malaise's Illusions: Accuracy/Recharge"
      ],
      [
        "Malaise's Illusions: Confused/Endurance",
        "Attuned Malaise's Illusions: Confused/Endurance"
      ],
      [
        "Malaise's Illusions: Accuracy/Endurance",
        "Attuned Malaise's Illusions: Accuracy/Endurance"
      ],
      [
        "Malaise's Illusions: Confused/Range",
        "Attuned Malaise's Illusions: Confused/Range"
      ],
      [
        "Malaise's Illusions: Accuracy/Confused/Recharge",
        "Attuned Malaise's Illusions: Accuracy/Confused/Recharge"
      ],
      [
        "Malaise's Illusions: Proc",
        "Attuned Malaise's Illusions: Proc"
      ]
    ],
    "bonuses": [
      [
        [
          "set_bonus.set_bonus.improved_recovery_4",
          "Large Improved Recovery Bonus"
        ]
      ],
      [
        [
          "set_bonus.set_bonus.confuse_dur_4",
          "Large Confuse Duration Bonus"
        ]
      ],
      [
        [
          "set_bonus.set_bonus.increased_damage_4",
          "Large Increased Damage Bonus"
        ]
      ],
      [
        [
          "set_bonus.set_bonus.improved_recharge_time_4",
          "Large Improved Recharge Time Bonus"
        ]
      ],
      [
        [
          "set_bonus.set_bonus.increased_ranged_energy_neg_def_4",
          "Large Increased Ranged/Energy/Negative Energy Def Bonus"
        ]
      ]
    ],
    "globals": {

    }
  }
}