{
  "name": "Miracle",
  "display_name": "Miracle",
  "group_name": "Healing",
  "conversion_groups": [
    "Rarity: Rare",
    "Category: Healing"
  ],
  "boost_lists": [
    [
      "Boosts.Crafted_Miracle_A.Crafted_Miracle_A",
      "Boosts.Attuned_Miracle_A.Attuned_Miracle_A"
    ],
    [
      "Boosts.Crafted_Miracle_B.Crafted_Miracle_B",
      "Boosts.Attuned_Miracle_B.Attuned_Miracle_B"
    ],
    [
      "Boosts.Crafted_Miracle_C.Crafted_Miracle_C",
      "Boosts.Attuned_Miracle_C.Attuned_Miracle_C"
    ],
    [
      "Boosts.Crafted_Miracle_D.Crafted_Miracle_D",
      "Boosts.Attuned_Miracle_D.Attuned_Miracle_D"
    ],
    [
      "Boosts.Crafted_Miracle_E.Crafted_Miracle_E",
      "Boosts.Attuned_Miracle_E.Attuned_Miracle_E"
    ],
    [
      "Boosts.Crafted_Miracle_F.Crafted_Miracle_F",
      "Boosts.Attuned_Miracle_F.Attuned_Miracle_F"
    ]
  ],
  "min_level": 20,
  "max_level": 40,
  "bonuses": [
    {
      "min_boosts": 2,
      "max_boosts": 6,
      "auto_powers": [
        "set_bonus.set_bonus.improved_recovery_4"
      ],
      "bonus_power": "",
      "requires": ""
    },
    {
      "min_boosts": 3,
      "max_boosts": 6,
      "auto_powers": [
        "set_bonus.set_bonus.increased_health_4"
      ],
      "bonus_power": "",
      "requires": ""
    },
    {
      "min_boosts": 4,
      "max_boosts": 6,
      "auto_powers": [
        "set_bonus.set_bonus.improved_heal_4"
      ],
      "bonus_power": "",
      "requires": ""
    },
    {
      "min_boosts": 5,
      "max_boosts": 6,
      "auto_powers": [
        "set_bonus.set_bonus.increased_aoe_fire_cold_def_2"
      ],
      "bonus_power": "",
      "requires": ""
    },
    {
      "min_boosts": 6,
      "max_boosts": 6,
      "auto_powers": [
        "set_bonus.set_bonus.increased_psionic_def_2"
      ],
      "bonus_power": "",
      "requires": ""
    }
  ],
  "computed": {
    "icons": [
      "e_icon_miracle.png"
    ],
    "boost_type": [
      "Enhance Heal"
    ],
    "boosts": [
      [
        "Miracle: Endurance/Heal",
        "Attuned Miracle: Endurance/Heal"
      ],
      [
        "Miracle: Endurance/Recharge",
        "Attuned Miracle: Endurance/Recharge"
      ],
      [
        "Miracle: Heal/Recharge",
        "Attuned Miracle: Heal/Recharge"
      ],
      [
        "Miracle: Endurance/Heal/Recharge",
        "Attuned Miracle: Endurance/Heal/Recharge"
      ],
      [
        "Miracle: Heal",
        "Attuned Miracle: Heal"
      ],
      [
        "Miracle: Proc",
        "Attuned Miracle: Proc"
      ]
    ],
    "bonuses": [
      [
        [
          "set_bonus.set_bonus.improved_recovery_4",
          "Large Improved Recovery Bonus"
        ]
      ],
      [
        [
          "set_bonus.set_bonus.increased_health_4",
          "Large Increased Health Bonus"
        ]
      ],
      [
        [
          "set_bonus.set_bonus.improved_heal_4",
          "Large Improved Heal Bonus"
        ]
      ],
      [
        [
          "set_bonus.set_bonus.increased_aoe_fire_cold_def_2",
          "Small Increased AoE/Fire/Cold Def Bonus"
        ]
      ],
      [
        [
          "set_bonus.set_bonus.increased_psionic_def_2",
          "Small Increased Psionic Def Bonus"
        ]
      ]
    ],
    "globals": {

    }
  }
}