{
  "name": "Mocking_Beratement",
  "display_name": "Mocking Beratement",
  "group_name": "Taunt",
  "conversion_groups": [
    "Rarity: Uncommon",
    "Category: Taunt"
  ],
  "boost_lists": [
    [
      "Boosts.Crafted_Mocking_Beratement_A.Crafted_Mocking_Beratement_A",
      "Boosts.Attuned_Mocking_Beratement_A.Attuned_Mocking_Beratement_A"
    ],
    [
      "Boosts.Crafted_Mocking_Beratement_B.Crafted_Mocking_Beratement_B",
      "Boosts.Attuned_Mocking_Beratement_B.Attuned_Mocking_Beratement_B"
    ],
    [
      "Boosts.Crafted_Mocking_Beratement_C.Crafted_Mocking_Beratement_C",
      "Boosts.Attuned_Mocking_Beratement_C.Attuned_Mocking_Beratement_C"
    ],
    [
      "Boosts.Crafted_Mocking_Beratement_D.Crafted_Mocking_Beratement_D",
      "Boosts.Attuned_Mocking_Beratement_D.Attuned_Mocking_Beratement_D"
    ],
    [
      "Boosts.Crafted_Mocking_Beratement_E.Crafted_Mocking_Beratement_E",
      "Boosts.Attuned_Mocking_Beratement_E.Attuned_Mocking_Beratement_E"
    ],
    [
      "Boosts.Crafted_Mocking_Beratement_F.Crafted_Mocking_Beratement_F",
      "Boosts.Attuned_Mocking_Beratement_F.Attuned_Mocking_Beratement_F"
    ]
  ],
  "min_level": 21,
  "max_level": 50,
  "bonuses": [
    {
      "min_boosts": 2,
      "max_boosts": 6,
      "auto_powers": [
        "set_bonus.set_bonus.increased_endurance_3"
      ],
      "bonus_power": "",
      "requires": ""
    },
    {
      "min_boosts": 3,
      "max_boosts": 6,
      "auto_powers": [
        "set_bonus.set_bonus.lethal_smash_mez_res_2"
      ],
      "bonus_power": "",
      "requires": ""
    },
    {
      "min_boosts": 4,
      "max_boosts": 6,
      "auto_powers": [
        "set_bonus.set_bonus.increased_lethal_smash_melee_def_3"
      ],
      "bonus_power": "",
      "requires": ""
    },
    {
      "min_boosts": 5,
      "max_boosts": 6,
      "auto_powers": [
        "set_bonus.set_bonus.increased_fire_cold_aoe_def_4"
      ],
      "bonus_power": "",
      "requires": ""
    },
    {
      "min_boosts": 6,
      "max_boosts": 6,
      "auto_powers": [
        "set_bonus.set_bonus.improved_recharge_time_5"
      ],
      "bonus_power": "",
      "requires": ""
    }
  ],
  "computed": {
    "icons": [
      "e_icon_mockingberatement.png"
    ],
    "boost_type": [
      "Enhance Taunt"
    ],
    "boosts": [
      [
        "Mocking Beratement: Taunt",
        "Attuned Mocking Beratement: Taunt"
      ],
      [
        "Mocking Beratement: Recharge/Taunt",
        "Attuned Mocking Beratement: Recharge/Taunt"
      ],
      [
        "Mocking Beratement: Range/Recharge/Taunt",
        "Attuned Mocking Beratement: Range/Recharge/Taunt"
      ],
      [
        "Mocking Beratement: Accuracy/Recharge",
        "Attuned Mocking Beratement: Accuracy/Recharge"
      ],
      [
        "Mocking Beratement: Range/Taunt",
        "Attuned Mocking Beratement: Range/Taunt"
      ],
      [
        "Mocking Beratement: Recharge",
        "Attuned Mocking Beratement: Recharge"
      ]
    ],
    "bonuses": [
      [
        [
          "set_bonus.set_bonus.increased_endurance_3",
          "Moderate Increased Endurance Bonus"
        ]
      ],
      [
        [
          "set_bonus.set_bonus.lethal_smash_mez_res_2",
          "Small Lethal, Smash and Mez Resistance"
        ]
      ],
      [
        [
          "set_bonus.set_bonus.increased_lethal_smash_melee_def_3",
          "Moderate Increased Lethal/Smashing/Melee Def Bonus"
        ]
      ],
      [
        [
          "set_bonus.set_bonus.increased_fire_cold_aoe_def_4",
          "Large Increased Fire/Cold/AoE Def Bonus"
        ]
      ],
      [
        [
          "set_bonus.set_bonus.improved_recharge_time_5",
          "Huge Improved Recharge Time Bonus"
        ]
      ]
    ],
    "globals": {

    }
  }
}