{
  "name": "Rooting_Grasp",
  "display_name": "Rooting Grasp",
  "group_name": "Immobilize",
  "conversion_groups": [
    "Rarity: Uncommon",
    "Category: Immobilize"
  ],
  "boost_lists": [
    [
      "Boosts.Crafted_Rooting_Grasp_A.Crafted_Rooting_Grasp_A",
      "Boosts.Attuned_Rooting_Grasp_A.Attuned_Rooting_Grasp_A"
    ],
    [
      "Boosts.Crafted_Rooting_Grasp_B.Crafted_Rooting_Grasp_B",
      "Boosts.Attuned_Rooting_Grasp_B.Attuned_Rooting_Grasp_B"
    ],
    [
      "Boosts.Crafted_Rooting_Grasp_C.Crafted_Rooting_Grasp_C",
      "Boosts.Attuned_Rooting_Grasp_C.Attuned_Rooting_Grasp_C"
    ],
    [
      "Boosts.Crafted_Rooting_Grasp_D.Crafted_Rooting_Grasp_D",
      "Boosts.Attuned_Rooting_Grasp_D.Attuned_Rooting_Grasp_D"
    ],
    [
      "Boosts.Crafted_Rooting_Grasp_E.Crafted_Rooting_Grasp_E",
      "Boosts.Attuned_Rooting_Grasp_E.Attuned_Rooting_Grasp_E"
    ]
  ],
  "min_level": 10,
  "max_level": 30,
  "bonuses": [
    {
      "min_boosts": 2,
      "max_boosts": 5,
      "auto_powers": [
        "set_bonus.set_bonus.immob_dur_1"
      ],
      "bonus_power": "",
      "requires": ""
    },
    {
      "min_boosts": 3,
      "max_boosts": 5,
      "auto_powers": [
        "set_bonus.set_bonus.increased_health_1"
      ],
      "bonus_power": "",
      "requires": ""
    },
    {
      "min_boosts": 4,
      "max_boosts": 5,
      "auto_powers": [
        "set_bonus.set_bonus.increased_damage_1"
      ],
      "bonus_power": "",
      "requires": ""
    },
    {
      "min_boosts": 5,
      "max_boosts": 5,
      "auto_powers": [
        "set_bonus.set_bonus.improved_recharge_time_1"
      ],
      "bonus_power": "",
      "requires": ""
    }
  ],
  "computed": {
    "icons": [
      "e_icon_rootinggrasp.png"
    ],
    "boost_type": [
      "Enhance Immobilization"
    ],
    "boosts": [
      [
        "Rooting Grasp: Accuracy/Recharge",
        "Attuned Rooting Grasp: Accuracy/Recharge"
      ],
      [
        "Rooting Grasp: Endurance/Immobilized",
        "Attuned Rooting Grasp: Endurance/Immobilized"
      ],
      [
        "Rooting Grasp: Accuracy/Endurance",
        "Attuned Rooting Grasp: Accuracy/Endurance"
      ],
      [
        "Rooting Grasp: Immobilized/Range",
        "Attuned Rooting Grasp: Immobilized/Range"
      ],
      [
        "Rooting Grasp: Accuracy/Immobilized/Recharge",
        "Attuned Rooting Grasp: Accuracy/Immobilized/Recharge"
      ]
    ],
    "bonuses": [
      [
        [
          "set_bonus.set_bonus.immob_dur_1",
          "Tiny Immobilize Duration Bonus"
        ]
      ],
      [
        [
          "set_bonus.set_bonus.increased_health_1",
          "Tiny Increased Health Bonus"
        ]
      ],
      [
        [
          "set_bonus.set_bonus.increased_damage_1",
          "Tiny Increased Damage Bonus"
        ]
      ],
      [
        [
          "set_bonus.set_bonus.improved_recharge_time_1",
          "Tiny Improved Recharge Time Bonus"
        ]
      ]
    ],
    "globals": {

    }
  }
}