{
  "name": "Superior_Defenders_Bastion",
  "display_name": "Superior Defender's Bastion",
  "group_name": "Defender Archetype Sets",
  "conversion_groups": [
    "Rarity: Superior Archetype",
    "Category: Superior Defender"
  ],
  "boost_lists": [
    [
      "Boosts.Superior_Attuned_Superior_Defenders_Bastion_A.Superior_Attuned_Superior_Defenders_Bastion_A"
    ],
    [
      "Boosts.Superior_Attuned_Superior_Defenders_Bastion_B.Superior_Attuned_Superior_Defenders_Bastion_B"
    ],
    [
      "Boosts.Superior_Attuned_Superior_Defenders_Bastion_C.Superior_Attuned_Superior_Defenders_Bastion_C"
    ],
    [
      "Boosts.Superior_Attuned_Superior_Defenders_Bastion_D.Superior_Attuned_Superior_Defenders_Bastion_D"
    ],
    [
      "Boosts.Superior_Attuned_Superior_Defenders_Bastion_E.Superior_Attuned_Superior_Defenders_Bastion_E"
    ],
    [
      "Boosts.Superior_Attuned_Superior_Defenders_Bastion_F.Superior_Attuned_Superior_Defenders_Bastion_F"
    ]
  ],
  "min_level": 1,
  "max_level": 1,
  "bonuses": [
    {
      "min_boosts": 2,
      "max_boosts": 6,
      "auto_powers": [
        "set_bonus.set_bonus.increased_health_7"
      ],
      "bonus_power": "",
      "requires": ""
    },
    {
      "min_boosts": 3,
      "max_boosts": 6,
      "auto_powers": [
        "set_bonus.set_bonus.increased_range_3"
      ],
      "bonus_power": "",
      "requires": ""
    },
    {
      "min_boosts": 4,
      "max_boosts": 6,
      "auto_powers": [
        "set_bonus.set_bonus.improved_heal_7"
      ],
      "bonus_power": "",
      "requires": ""
    },
    {
      "min_boosts": 5,
      "max_boosts": 6,
      "auto_powers": [
        "set_bonus.set_bonus.increased_ranged_energy_neg_def_7"
      ],
      "bonus_power": "",
      "requires": ""
    },
    {
      "min_boosts": 6,
      "max_boosts": 6,
      "auto_powers": [
        "set_bonus.set_bonus.improved_recharge_time_7"
      ],
      "bonus_power": "",
      "requires": ""
    }
  ],
  "computed": {
    "icons": [
      "e_icon_defendersbastion.png"
    ],
    "boost_type": [
      "Enhance Damage"
    ],
    "boosts": [
      [
        "Attuned Superior Defender's Bastion: Accuracy/Damage"
      ],
      [
        "Attuned Superior Defender's Bastion: Damage/Recharge"
      ],
      [
        "Attuned Superior Defender's Bastion: Damage/Endurance/Recharge"
      ],
      [
        "Attuned Superior Defender's Bastion: Accuracy/Damage/Endurance"
      ],
      [
        "Attuned Superior Defender's Bastion: Accuracy/Damage/Endurance/Recharge"
      ],
      [
        "Attuned Defender's Bastion: Recharge/Proc"
      ]
    ],
    "bonuses": [
      [
        [
          "set_bonus.set_bonus.increased_health_7",
          "Ultimate Increased Health Bonus"
        ]
      ],
      [
        [
          "set_bonus.set_bonus.increased_range_3",
          "Ultimate Increased Range"
        ]
      ],
      [
        [
          "set_bonus.set_bonus.improved_heal_7",
          "Ultimate Improved Heal Bonus"
        ]
      ],
      [
        [
          "set_bonus.set_bonus.increased_ranged_energy_neg_def_7",
          "Ultimate Increased Ranged/Energy/Negative Energy Def Bonus"
        ]
      ],
      [
        [
          "set_bonus.set_bonus.improved_recharge_time_7",
          "Ultimate Improved Recharge Time Bonus"
        ]
      ]
    ],
    "globals": {

    }
  }
}