{
  "name": "Superior_Malice_of_the_Corruptor",
  "display_name": "Superior Malice of the Corruptor",
  "group_name": "Corruptor Archetype Sets",
  "conversion_groups": [
    "Rarity: Superior Archetype",
    "Category: Superior Corruptor"
  ],
  "boost_lists": [
    [
      "Boosts.Superior_Attuned_Superior_Malice_of_the_Corruptor_A.Superior_Attuned_Superior_Malice_of_the_Corruptor_A"
    ],
    [
      "Boosts.Superior_Attuned_Superior_Malice_of_the_Corruptor_B.Superior_Attuned_Superior_Malice_of_the_Corruptor_B"
    ],
    [
      "Boosts.Superior_Attuned_Superior_Malice_of_the_Corruptor_C.Superior_Attuned_Superior_Malice_of_the_Corruptor_C"
    ],
    [
      "Boosts.Superior_Attuned_Superior_Malice_of_the_Corruptor_D.Superior_Attuned_Superior_Malice_of_the_Corruptor_D"
    ],
    [
      "Boosts.Superior_Attuned_Superior_Malice_of_the_Corruptor_E.Superior_Attuned_Superior_Malice_of_the_Corruptor_E"
    ],
    [
      "Boosts.Superior_Attuned_Superior_Malice_of_the_Corruptor_F.Superior_Attuned_Superior_Malice_of_the_Corruptor_F"
    ]
  ],
  "min_level": 1,
  "max_level": 1,
  "bonuses": [
    {
      "min_boosts": 2,
      "max_boosts": 6,
      "auto_powers": [
        "set_bonus.set_bonus.increased_health_7"
      ],
      "bonus_power": "",
      "requires": ""
    },
    {
      "min_boosts": 3,
      "max_boosts": 6,
      "auto_powers": [
        "set_bonus.set_bonus.increased_range_3"
      ],
      "bonus_power": "",
      "requires": ""
    },
    {
      "min_boosts": 4,
      "max_boosts": 6,
      "auto_powers": [
        "set_bonus.set_bonus.increased_damage_7"
      ],
      "bonus_power": "",
      "requires": ""
    },
    {
      "min_boosts": 5,
      "max_boosts": 6,
      "auto_powers": [
        "set_bonus.set_bonus.increased_ranged_energy_neg_def_7"
      ],
      "bonus_power": "",
      "requires": ""
    },
    {
      "min_boosts": 6,
      "max_boosts": 6,
      "auto_powers": [
        "set_bonus.set_bonus.improved_recharge_time_7"
      ],
      "bonus_power": "",
      "requires": ""
    }
  ],
  "computed": {
    "icons": [
      "e_icon_maliceofthecorruptor.png"
    ],
    "boost_type": [
      "Enhance Damage"
    ],
    "boosts": [
      [
        "Attuned Superior Malice of the Corruptor: Accuracy/Damage"
      ],
      [
        "Attuned Superior Malice of the Corruptor: Damage/Recharge"
      ],
      [
        "Attuned Superior Malice of the Corruptor: Accuracy/Damage/Recharge"
      ],
      [
        "Attuned Superior Malice of the Corruptor: Damage/Endurance/Recharge"
      ],
      [
        "Attuned Superior Malice of the Corruptor: Accuracy/Damage/Endurance/Recharge"
      ],
      [
        "Attuned Superior Malice of the Corruptor: Recharge/Proc"
      ]
    ],
    "bonuses": [
      [
        [
          "set_bonus.set_bonus.increased_health_7",
          "Ultimate Increased Health Bonus"
        ]
      ],
      [
        [
          "set_bonus.set_bonus.increased_range_3",
          "Ultimate Increased Range"
        ]
      ],
      [
        [
          "set_bonus.set_bonus.increased_damage_7",
          "Ultimate Increased Damage Bonus"
        ]
      ],
      [
        [
          "set_bonus.set_bonus.increased_ranged_energy_neg_def_7",
          "Ultimate Increased Ranged/Energy/Negative Energy Def Bonus"
        ]
      ],
      [
        [
          "set_bonus.set_bonus.improved_recharge_time_7",
          "Ultimate Improved Recharge Time Bonus"
        ]
      ]
    ],
    "globals": {

    }
  }
}