{
  "name": "Superior_Defiant_Barrage",
  "display_name": "Superior Defiant Barrage",
  "group_name": "Blaster Archetype Sets",
  "conversion_groups": [
    "Rarity: Superior Archetype",
    "Category: Superior Blaster"
  ],
  "boost_lists": [
    [
      "Boosts.Superior_Attuned_Superior_Defiant_Barrage_A.Superior_Attuned_Superior_Defiant_Barrage_A"
    ],
    [
      "Boosts.Superior_Attuned_Superior_Defiant_Barrage_B.Superior_Attuned_Superior_Defiant_Barrage_B"
    ],
    [
      "Boosts.Superior_Attuned_Superior_Defiant_Barrage_C.Superior_Attuned_Superior_Defiant_Barrage_C"
    ],
    [
      "Boosts.Superior_Attuned_Superior_Defiant_Barrage_D.Superior_Attuned_Superior_Defiant_Barrage_D"
    ],
    [
      "Boosts.Superior_Attuned_Superior_Defiant_Barrage_E.Superior_Attuned_Superior_Defiant_Barrage_E"
    ],
    [
      "Boosts.Superior_Attuned_Superior_Defiant_Barrage_F.Superior_Attuned_Superior_Defiant_Barrage_F"
    ]
  ],
  "min_level": 1,
  "max_level": 1,
  "bonuses": [
    {
      "min_boosts": 2,
      "max_boosts": 6,
      "auto_powers": [
        "set_bonus.set_bonus.increased_damage_7"
      ],
      "bonus_power": "",
      "requires": ""
    },
    {
      "min_boosts": 3,
      "max_boosts": 6,
      "auto_powers": [
        "set_bonus.set_bonus.increased_endurance_7"
      ],
      "bonus_power": "",
      "requires": ""
    },
    {
      "min_boosts": 4,
      "max_boosts": 6,
      "auto_powers": [
        "set_bonus.set_bonus.increased_health_7"
      ],
      "bonus_power": "",
      "requires": ""
    },
    {
      "min_boosts": 5,
      "max_boosts": 6,
      "auto_powers": [
        "set_bonus.set_bonus.improved_recharge_time_7"
      ],
      "bonus_power": "",
      "requires": ""
    },
    {
      "min_boosts": 6,
      "max_boosts": 6,
      "auto_powers": [
        "set_bonus.set_bonus.increased_energy_neg_ranged_def_7"
      ],
      "bonus_power": "",
      "requires": ""
    }
  ],
  "computed": {
    "icons": [
      "e_icon_defiant_barrage_ato.png"
    ],
    "boost_type": [
      "Enhance Damage"
    ],
    "boosts": [
      [
        "Attuned Superior Defiant Barrage: Accuracy/Damage"
      ],
      [
        "Attuned Superior Defiant Barrage: Damage/Recharge"
      ],
      [
        "Attuned Defiant Barrage: Accuracy/Damage/Recharge"
      ],
      [
        "Attuned Defiant Barrage: Accuracy/Damage/Endurance"
      ],
      [
        "Attuned Superior Defiant Barrage: Accuracy/Damage/Endurance/Recharge"
      ],
      [
        "Attuned Superior Defiant Barrage: Recharge/Proc"
      ]
    ],
    "bonuses": [
      [
        [
          "set_bonus.set_bonus.increased_damage_7",
          "Ultimate Increased Damage Bonus"
        ]
      ],
      [
        [
          "set_bonus.set_bonus.increased_endurance_7",
          "Ultimate Increased Endurance Bonus"
        ]
      ],
      [
        [
          "set_bonus.set_bonus.increased_health_7",
          "Ultimate Increased Health Bonus"
        ]
      ],
      [
        [
          "set_bonus.set_bonus.improved_recharge_time_7",
          "Ultimate Improved Recharge Time Bonus"
        ]
      ],
      [
        [
          "set_bonus.set_bonus.increased_energy_neg_ranged_def_7",
          "Ultimate Increased Energy/Negative Energy/Ranged Def Bonus"
        ]
      ]
    ],
    "globals": {

    }
  }
}