{
  "name": "Touch_of_Lady_Grey",
  "display_name": "Touch of Lady Grey",
  "group_name": "Defense Debuff",
  "conversion_groups": [
    "Rarity: Rare",
    "Category: Defense Debuff"
  ],
  "boost_lists": [
    [
      "Boosts.Crafted_Touch_of_Lady_Grey_A.Crafted_Touch_of_Lady_Grey_A",
      "Boosts.Attuned_Touch_of_Lady_Grey_A.Attuned_Touch_of_Lady_Grey_A"
    ],
    [
      "Boosts.Crafted_Touch_of_Lady_Grey_B.Crafted_Touch_of_Lady_Grey_B",
      "Boosts.Attuned_Touch_of_Lady_Grey_B.Attuned_Touch_of_Lady_Grey_B"
    ],
    [
      "Boosts.Crafted_Touch_of_Lady_Grey_C.Crafted_Touch_of_Lady_Grey_C",
      "Boosts.Attuned_Touch_of_Lady_Grey_C.Attuned_Touch_of_Lady_Grey_C"
    ],
    [
      "Boosts.Crafted_Touch_of_Lady_Grey_D.Crafted_Touch_of_Lady_Grey_D",
      "Boosts.Attuned_Touch_of_Lady_Grey_D.Attuned_Touch_of_Lady_Grey_D"
    ],
    [
      "Boosts.Crafted_Touch_of_Lady_Grey_E.Crafted_Touch_of_Lady_Grey_E",
      "Boosts.Attuned_Touch_of_Lady_Grey_E.Attuned_Touch_of_Lady_Grey_E"
    ],
    [
      "Boosts.Crafted_Touch_of_Lady_Grey_F.Crafted_Touch_of_Lady_Grey_F",
      "Boosts.Attuned_Touch_of_Lady_Grey_F.Attuned_Touch_of_Lady_Grey_F"
    ]
  ],
  "min_level": 21,
  "max_level": 50,
  "bonuses": [
    {
      "min_boosts": 2,
      "max_boosts": 6,
      "auto_powers": [
        "set_bonus.set_bonus.increased_health_3"
      ],
      "bonus_power": "",
      "requires": ""
    },
    {
      "min_boosts": 3,
      "max_boosts": 6,
      "auto_powers": [
        "set_bonus.set_bonus.improved_recovery_4"
      ],
      "bonus_power": "",
      "requires": ""
    },
    {
      "min_boosts": 4,
      "max_boosts": 6,
      "auto_powers": [
        "set_bonus.set_bonus.improved_regeneration_3"
      ],
      "bonus_power": "",
      "requires": ""
    },
    {
      "min_boosts": 5,
      "max_boosts": 6,
      "auto_powers": [
        "set_bonus.set_bonus.increased_damage_3"
      ],
      "bonus_power": "",
      "requires": ""
    },
    {
      "min_boosts": 6,
      "max_boosts": 6,
      "auto_powers": [
        "set_bonus.set_bonus.accuracy_5"
      ],
      "bonus_power": "",
      "requires": ""
    }
  ],
  "computed": {
    "icons": [
      "e_icon_touchofladygray.png"
    ],
    "boost_type": [
      "Enhance Defense DeBuff"
    ],
    "boosts": [
      [
        "Touch of Lady Grey: Base_Defense",
        "Attuned Touch of Lady Grey: Base_Defense"
      ],
      [
        "Touch of Lady Grey: Base_Defense/Recharge",
        "Attuned Touch of Lady Grey: Base_Defense/Recharge"
      ],
      [
        "Touch of Lady Grey: Base_Defense/Endurance/Recharge",
        "Attuned Touch of Lady Grey: Base_Defense/Endurance/Recharge"
      ],
      [
        "Touch of Lady Grey: Endurance/Recharge",
        "Attuned Touch of Lady Grey: Endurance/Recharge"
      ],
      [
        "Touch of Lady Grey: Base_Defense/Endurance",
        "Attuned Touch of Lady Grey: Base_Defense/Endurance"
      ],
      [
        "Touch of Lady Grey: Proc",
        "Attuned Touch of Lady Grey: Proc"
      ]
    ],
    "bonuses": [
      [
        [
          "set_bonus.set_bonus.increased_health_3",
          "Moderate Increased Health Bonus"
        ]
      ],
      [
        [
          "set_bonus.set_bonus.improved_recovery_4",
          "Large Improved Recovery Bonus"
        ]
      ],
      [
        [
          "set_bonus.set_bonus.improved_regeneration_3",
          "Moderate Improved Regeneration Bonus"
        ]
      ],
      [
        [
          "set_bonus.set_bonus.increased_damage_3",
          "Moderate Increased Damage Bonus"
        ]
      ],
      [
        [
          "set_bonus.set_bonus.accuracy_5",
          "Huge Accuracy Bonus"
        ]
      ]
    ],
    "globals": {

    }
  }
}