{
  "name": "Undermined_Defenses",
  "display_name": "Undermined Defenses",
  "group_name": "Defense Debuff",
  "conversion_groups": [
    "Rarity: Uncommon",
    "Category: Defense Debuff"
  ],
  "boost_lists": [
    [
      "Boosts.Crafted_Undermined_Defenses_A.Crafted_Undermined_Defenses_A",
      "Boosts.Attuned_Undermined_Defenses_A.Attuned_Undermined_Defenses_A"
    ],
    [
      "Boosts.Crafted_Undermined_Defenses_B.Crafted_Undermined_Defenses_B",
      "Boosts.Attuned_Undermined_Defenses_B.Attuned_Undermined_Defenses_B"
    ],
    [
      "Boosts.Crafted_Undermined_Defenses_C.Crafted_Undermined_Defenses_C",
      "Boosts.Attuned_Undermined_Defenses_C.Attuned_Undermined_Defenses_C"
    ],
    [
      "Boosts.Crafted_Undermined_Defenses_D.Crafted_Undermined_Defenses_D",
      "Boosts.Attuned_Undermined_Defenses_D.Attuned_Undermined_Defenses_D"
    ],
    [
      "Boosts.Crafted_Undermined_Defenses_E.Crafted_Undermined_Defenses_E",
      "Boosts.Attuned_Undermined_Defenses_E.Attuned_Undermined_Defenses_E"
    ],
    [
      "Boosts.Crafted_Undermined_Defenses_F.Crafted_Undermined_Defenses_F",
      "Boosts.Attuned_Undermined_Defenses_F.Attuned_Undermined_Defenses_F"
    ]
  ],
  "min_level": 21,
  "max_level": 50,
  "bonuses": [
    {
      "min_boosts": 2,
      "max_boosts": 6,
      "auto_powers": [
        "set_bonus.set_bonus.increased_damage_3"
      ],
      "bonus_power": "",
      "requires": ""
    },
    {
      "min_boosts": 3,
      "max_boosts": 6,
      "auto_powers": [
        "set_bonus.set_bonus.increased_endurance_3"
      ],
      "bonus_power": "",
      "requires": ""
    },
    {
      "min_boosts": 4,
      "max_boosts": 6,
      "auto_powers": [
        "set_bonus.set_bonus.accuracy_3"
      ],
      "bonus_power": "",
      "requires": ""
    },
    {
      "min_boosts": 5,
      "max_boosts": 6,
      "auto_powers": [
        "set_bonus.set_bonus.increased_health_3"
      ],
      "bonus_power": "",
      "requires": ""
    },
    {
      "min_boosts": 6,
      "max_boosts": 6,
      "auto_powers": [
        "set_bonus.set_bonus.increased_aoe_fire_cold_def_3"
      ],
      "bonus_power": "",
      "requires": ""
    }
  ],
  "computed": {
    "icons": [
      "e_icon_undermineddefenses.png"
    ],
    "boost_type": [
      "Enhance Defense DeBuff"
    ],
    "boosts": [
      [
        "Undermined Defenses: Base_Defense",
        "Attuned Undermined Defenses: Base_Defense"
      ],
      [
        "Undermined Defenses: Base_Defense/Recharge",
        "Attuned Undermined Defenses: Base_Defense/Recharge"
      ],
      [
        "Undermined Defenses: Base_Defense/Endurance/Recharge",
        "Attuned Undermined Defenses: Base_Defense/Endurance/Recharge"
      ],
      [
        "Undermined Defenses: Endurance/Recharge",
        "Attuned Undermined Defenses: Endurance/Recharge"
      ],
      [
        "Undermined Defenses: Base_Defense/Endurance",
        "Attuned Undermined Defenses: Base_Defense/Endurance"
      ],
      [
        "Undermined Defenses: Recharge",
        "Attuned Undermined Defenses: Recharge"
      ]
    ],
    "bonuses": [
      [
        [
          "set_bonus.set_bonus.increased_damage_3",
          "Moderate Increased Damage Bonus"
        ]
      ],
      [
        [
          "set_bonus.set_bonus.increased_endurance_3",
          "Moderate Increased Endurance Bonus"
        ]
      ],
      [
        [
          "set_bonus.set_bonus.accuracy_3",
          "Moderate Accuracy Bonus"
        ]
      ],
      [
        [
          "set_bonus.set_bonus.increased_health_3",
          "Moderate Increased Health Bonus"
        ]
      ],
      [
        [
          "set_bonus.set_bonus.increased_aoe_fire_cold_def_3",
          "Moderate Increased AoE/Fire/Cold Def Bonus"
        ]
      ]
    ],
    "globals": {

    }
  }
}