{
  "name": "Winters_Bite",
  "display_name": "Winter's Bite",
  "group_name": "Ranged Damage",
  "conversion_groups": [
    "Rarity: Winter Pack Series"
  ],
  "boost_lists": [
    [
      "Boosts.Attuned_Winters_Bite_A.Attuned_Winters_Bite_A"
    ],
    [
      "Boosts.Attuned_Winters_Bite_B.Attuned_Winters_Bite_B"
    ],
    [
      "Boosts.Attuned_Winters_Bite_C.Attuned_Winters_Bite_C"
    ],
    [
      "Boosts.Attuned_Winters_Bite_D.Attuned_Winters_Bite_D"
    ],
    [
      "Boosts.Attuned_Winters_Bite_E.Attuned_Winters_Bite_E"
    ],
    [
      "Boosts.Attuned_Winters_Bite_F.Attuned_Winters_Bite_F"
    ]
  ],
  "min_level": 1,
  "max_level": 1,
  "bonuses": [
    {
      "min_boosts": 2,
      "max_boosts": 6,
      "auto_powers": [
        "set_bonus.set_bonus.fire_cold_mez_res_2"
      ],
      "bonus_power": "",
      "requires": ""
    },
    {
      "min_boosts": 3,
      "max_boosts": 6,
      "auto_powers": [
        "set_bonus.set_bonus.slow_resist_3"
      ],
      "bonus_power": "",
      "requires": ""
    },
    {
      "min_boosts": 4,
      "max_boosts": 6,
      "auto_powers": [
        "set_bonus.set_bonus.improved_recovery_3"
      ],
      "bonus_power": "",
      "requires": ""
    },
    {
      "min_boosts": 5,
      "max_boosts": 6,
      "auto_powers": [
        "set_bonus.set_bonus.increased_energy_neg_ranged_def_2"
      ],
      "bonus_power": "",
      "requires": ""
    },
    {
      "min_boosts": 6,
      "max_boosts": 6,
      "auto_powers": [
        "set_bonus.set_bonus.increased_fire_cold_aoe_def_5"
      ],
      "bonus_power": "",
      "requires": ""
    }
  ],
  "computed": {
    "icons": [
      "e_icon_winters_bite.png"
    ],
    "boost_type": [
      "Enhance Damage"
    ],
    "boosts": [
      [
        "Attuned Winter's Bite: Accuracy/Damage"
      ],
      [
        "Attuned Winter's Bite: Damage/Recharge"
      ],
      [
        "Attuned Winter's Bite: Accuracy/Damage/Recharge"
      ],
      [
        "Attuned Winter's Bite: Accuracy/Damage/Endurance"
      ],
      [
        "Attuned Winter's Bite: Accuracy/Damage/Endurance/Recharge"
      ],
      [
        "Attuned Winter's Bite: Recharge/Proc"
      ]
    ],
    "bonuses": [
      [
        [
          "set_bonus.set_bonus.fire_cold_mez_res_2",
          "Small Fire, Cold and Mez Resistance"
        ]
      ],
      [
        [
          "set_bonus.set_bonus.slow_resist_3",
          "Large Slow Resist"
        ]
      ],
      [
        [
          "set_bonus.set_bonus.improved_recovery_3",
          "Moderate Improved Recovery Bonus"
        ]
      ],
      [
        [
          "set_bonus.set_bonus.increased_energy_neg_ranged_def_2",
          "Small Increased Energy/Negative Energy/Ranged Def Bonus"
        ]
      ],
      [
        [
          "set_bonus.set_bonus.increased_fire_cold_aoe_def_5",
          "Huge Increased Fire/Cold/AoE Def Bonus"
        ]
      ]
    ],
    "globals": {

    }
  }
}