{
  "name": "Fifth_Column_Vandal_Defense",
  "display_name": "Fifth_Column_Vandal_Defense",
  "display_fullname": "5thColumn.Fifth Column Vandal Defense",
  "display_help": "5th Column",
  "display_short_help": "5th Column",
  "available_level": [
    0
  ],
  "source_file": "DEFS/POWERS/5THCOLUMN/FIFTH_COLUMN_VANDAL_DEFENSE.POWERSETS",
  "requires": "",
  "power_names": [
    "5thColumn.Fifth_Column_Vandal_Defense.Resistance"
  ],
  "power_display_names": [
    "Resistance"
  ]
}