{
  "name": "Sister_Psyche",
  "display_name": "Sister Psyche",
  "display_fullname": "DilemmaDiabolique.Sister Psyche",
  "display_help": "Freedom Phalanx",
  "display_short_help": "Freedom Phalanx",
  "available_level": [
    0,
    0,
    0,
    0,
    0,
    0,
    0
  ],
  "source_file": "DEFS/POWERS/DILEMMADIABOLIQUE/SISTER_PSYCHE.POWERSETS",
  "requires": "",
  "power_names": [
    "DilemmaDiabolique.Sister_Psyche.Mesmerize",
    "DilemmaDiabolique.Sister_Psyche.Levitate",
    "DilemmaDiabolique.Sister_Psyche.Dominate",
    "DilemmaDiabolique.Sister_Psyche.Psychic_Shockwave",
    "DilemmaDiabolique.Sister_Psyche.Force_Bolt",
    "DilemmaDiabolique.Sister_Psyche.Power_Blast",
    "DilemmaDiabolique.Sister_Psyche.Power_Burst"
  ],
  "power_display_names": [
    "Mesmerize",
    "Levitate",
    "Dominate",
    "Psychic Shockwave",
    "Force Bolt",
    "Power Blast",
    "Power Burst"
  ]
}