{
  "name": "Crafted_Enfeebled_Operation_D",
  "display_name": "Crafted Enfeebled Operation D",
  "display_fullname": "Boosts.Crafted Enfeebled Operation D",
  "display_help": "Enhances the range of a power by {Boost.Attrib.Range.Scale}% and immobilize duration by {Boost.Attrib.Mez.Scale}%.",
  "display_short_help": "Set: Enfeebled Operation",
  "available_level": [
    0
  ],
  "source_file": "DEFS/POWERS/BOOSTS/CRAFTED_ENFEEBLED_OPERATION_D.POWERSETS",
  "requires": "",
  "power_names": [
    "Boosts.Crafted_Enfeebled_Operation_D.Crafted_Enfeebled_Operation_D"
  ],
  "power_display_names": [
    "Enfeebled Operation: Immobilize/Range"
  ]
}