{
  "name": "5thColumnEndgame_Fury_Ubermenschen_Chaingun",
  "gender": "GENDER_MALE",
  "description": "Every member of the 5th Column aspires to become one of the Raserei Ubermenschen, but few of them achieve this lofty goal. They are the spiritual and philosophical leaders of the 5th Column - totally devoted to its beliefs and goals. Like any good soldier, they lead by example. Their intense training and physical enhancements make them perfect soldiers and perfect models of behavior. In battle, they serve as an inspiration to all who fight at their side.",
  "group_description": null,
  "display_class_name": null,
  "character_class_name": "minion_praetoriangrunt",
  "ai_config": "5thColumn_Fog_Base",
  "commandable_pet": false,
  "power_tags": [

  ],
  "additional_rewards": [

  ],
  "skill_hp_rewards": [

  ],
  "skill_status_rewards": [

  ],
  "ally": null,
  "gang": null,
  "reward_scale": 1.0,
  "game_exclusion": "None",
  "inactive_state_weapon": null,
  "ignores_combat_mods": false,
  "copy_creator_mods": false,
  "spawn_limit": -1,
  "spawn_limit_mission": -1,
  "ignore_av_to_eb_scaling": false,
  "can_zone": false,
  "custom_badge_stat": null,
  "badge_stat_flags": "DefaultBadgeStat",
  "rank": "VR_MINION",
  "power_full_names": [
    "5thColumn.Fifth_Column_Soldier_Melee.Brawl",
    "5thColumn.Fifth_Column_Minion_Soldier_Heavy.Chain_Gun"
  ],
  "power_display_names": [
    "Brawl",
    "Chain Gun"
  ],
  "power_levels": [
    0,
    0
  ],
  "powers": [
    {
      "power_category": "5thColumn",
      "power_set": "Fifth_Column_Soldier_Melee",
      "power": "*",
      "level": 0
    },
    {
      "power_category": "5thColumn",
      "power_set": "Fifth_Column_Minion_Soldier_Heavy",
      "power": "Chain_Gun",
      "level": 0
    }
  ],
  "levels": [
    {
      "level": 50,
      "experience": 0,
      "display_names": [
        "Raserei Ubermenschen Force"
      ],
      "costumes": [
        "5thUber_Endgame_01"
      ]
    },
    {
      "level": 51,
      "experience": 0,
      "display_names": [
        "Raserei Ubermenschen Force"
      ],
      "costumes": [
        "5thUber_Endgame_01"
      ]
    },
    {
      "level": 52,
      "experience": 0,
      "display_names": [
        "Raserei Ubermenschen Force"
      ],
      "costumes": [
        "5thUber_Endgame_01"
      ]
    },
    {
      "level": 53,
      "experience": 0,
      "display_names": [
        "Raserei Ubermenschen Force"
      ],
      "costumes": [
        "5thUber_Endgame_01"
      ]
    },
    {
      "level": 54,
      "experience": 0,
      "display_names": [
        "Raserei Ubermenschen Force"
      ],
      "costumes": [
        "5thUber_Endgame_01"
      ]
    }
  ]
}