{
  "name": "5thColumn_Night_Ubermenschen_Grenade",
  "gender": "GENDER_MALE",
  "description": "The Ubermenschen of the Nacht have transcended mere special ops status. They are each unto themselves a powerful covert force, capable of taking on operations that would normally require an entire team of commandos. In addition to their enhanced physical and mental attributes, they receive training in security systems, computer infiltration, and surveillance equipment. In many ways, they are the perfect spies.",
  "group_description": null,
  "display_class_name": null,
  "character_class_name": "minion_grunt",
  "ai_config": "5thColumn_Fog_Base",
  "commandable_pet": false,
  "power_tags": [

  ],
  "additional_rewards": [

  ],
  "skill_hp_rewards": [

  ],
  "skill_status_rewards": [

  ],
  "ally": null,
  "gang": null,
  "reward_scale": 1.0,
  "game_exclusion": "None",
  "inactive_state_weapon": null,
  "ignores_combat_mods": false,
  "copy_creator_mods": false,
  "spawn_limit": -1,
  "spawn_limit_mission": -1,
  "ignore_av_to_eb_scaling": false,
  "can_zone": false,
  "custom_badge_stat": null,
  "badge_stat_flags": "DefaultBadgeStat",
  "rank": "VR_MINION",
  "power_full_names": [
    "5thColumn.Fifth_Column_Soldier_Melee.Brawl",
    "5thColumn.Fifth_Column_Minion_Soldier_Heavy.Grenade_Launcher"
  ],
  "power_display_names": [
    "Brawl",
    "Grenade Launcher"
  ],
  "power_levels": [
    0,
    0
  ],
  "powers": [
    {
      "power_category": "5thColumn",
      "power_set": "Fifth_Column_Soldier_Melee",
      "power": "*",
      "level": 0
    },
    {
      "power_category": "5thColumn",
      "power_set": "Fifth_Column_Minion_Soldier_Heavy",
      "power": "Grenade_Launcher",
      "level": 0
    }
  ],
  "levels": [
    {
      "level": 25,
      "experience": 0,
      "display_names": [
        "Nacht Ubermenschen Grenade"
      ],
      "costumes": [
        "5thUber_30"
      ]
    },
    {
      "level": 26,
      "experience": 0,
      "display_names": [
        "Nacht Ubermenschen Grenade"
      ],
      "costumes": [
        "5thUber_30"
      ]
    },
    {
      "level": 27,
      "experience": 0,
      "display_names": [
        "Nacht Ubermenschen Grenade"
      ],
      "costumes": [
        "5thUber_30"
      ]
    },
    {
      "level": 28,
      "experience": 0,
      "display_names": [
        "Nacht Ubermenschen Grenade"
      ],
      "costumes": [
        "5thUber_30"
      ]
    },
    {
      "level": 29,
      "experience": 0,
      "display_names": [
        "Nacht Ubermenschen Grenade"
      ],
      "costumes": [
        "5thUber_30"
      ]
    }
  ]
}