{
  "name": "5thColumnEndgame_Requiem_Elite",
  "gender": "GENDER_MALE",
  "description": "Ridolfo Uzzano has come a long way from his humble beginning as one of Mussolini's lapdogs. The primary cause of his success was his fusion with a Nictus, a being of utter darkness. The Nictus gave Ridolfo the ability to scorch his foes with an infernal fire. Though he is now over 100 years old, Requiem remains a fearsome foe in battle.",
  "group_description": null,
  "display_class_name": null,
  "character_class_name": "boss_praetorianelite",
  "ai_config": "Default_Ranged",
  "commandable_pet": false,
  "power_tags": [

  ],
  "additional_rewards": [

  ],
  "skill_hp_rewards": [

  ],
  "skill_status_rewards": [

  ],
  "ally": null,
  "gang": null,
  "reward_scale": 1.0,
  "game_exclusion": "None",
  "inactive_state_weapon": null,
  "ignores_combat_mods": false,
  "copy_creator_mods": false,
  "spawn_limit": 0,
  "spawn_limit_mission": 0,
  "ignore_av_to_eb_scaling": false,
  "can_zone": false,
  "custom_badge_stat": null,
  "badge_stat_flags": "DefaultBadgeStat",
  "rank": "VR_ELITE",
  "power_full_names": [
    "5thColumn.Fifth_Column_Requiem_Defense.Resistance",
    "5thColumn.Fifth_Column_Requiem_Defense.Dark_Regeneration",
    "5thColumn.Fifth_Column_Requiem_Defense.Oppressive_Gloom",
    "5thColumn.Fifth_Column_Requiem_Melee.Shadow_Punch",
    "5thColumn.Fifth_Column_Requiem_Melee.Smite",
    "5thColumn.Fifth_Column_Requiem_Melee.Shadow_Maul",
    "5thColumn.Fifth_Column_Requiem_Ranged.Life_Drain",
    "5thColumn.Fifth_Column_Requiem_Ranged.Dark_Blast",
    "5thColumn.Fifth_Column_Requiem_Ranged.Gloom",
    "5thColumn.Fifth_Column_Requiem_Ranged.Tenebrous_Tentacles",
    "5thColumn.Protean.Resistance"
  ],
  "power_display_names": [
    "Resistance",
    "Dark Regeneration",
    "Oppressive Gloom",
    "Shadow Punch",
    "Smite",
    "Shadow Maul",
    "Life Drain",
    "Dark Blast",
    "Gloom",
    "Tenebrous Tentacles",
    "Resistance"
  ],
  "power_levels": [
    0,
    0,
    0,
    0,
    0,
    0,
    0,
    0,
    0,
    0,
    0
  ],
  "powers": [
    {
      "power_category": "5thColumn",
      "power_set": "Fifth_Column_Requiem_Defense",
      "power": "*",
      "level": 0
    },
    {
      "power_category": "5thColumn",
      "power_set": "Fifth_Column_Requiem_Melee",
      "power": "*",
      "level": 0
    },
    {
      "power_category": "5thColumn",
      "power_set": "Fifth_Column_Requiem_Ranged",
      "power": "*",
      "level": 0
    },
    {
      "power_category": "5thColumn",
      "power_set": "Protean",
      "power": "Resistance",
      "level": 0
    }
  ],
  "levels": [
    {
      "level": 50,
      "experience": 0,
      "display_names": [
        "Requiem"
      ],
      "costumes": [
        "5thRequiem"
      ]
    },
    {
      "level": 51,
      "experience": 0,
      "display_names": [
        "Requiem"
      ],
      "costumes": [
        "5thRequiem"
      ]
    },
    {
      "level": 52,
      "experience": 0,
      "display_names": [
        "Requiem"
      ],
      "costumes": [
        "5thRequiem"
      ]
    },
    {
      "level": 53,
      "experience": 0,
      "display_names": [
        "Requiem"
      ],
      "costumes": [
        "5thRequiem"
      ]
    },
    {
      "level": 54,
      "experience": 0,
      "display_names": [
        "Requiem"
      ],
      "costumes": [
        "5thRequiem"
      ]
    }
  ]
}