{
  "name": "5thColumn_Fog_Ubermenschen_Chaingun",
  "gender": "GENDER_MALE",
  "description": "An Ubermensch, or 'Over Man' is a 5th Column soldier who has undergone a long and painful regimen of super soldier treatments. The Nebel Ubermenschen are the most numerous of these medical marvels, but that doesn't mean they're common. They've had extensive training and thousands of dollars worth of drugs pumped into them. It's an investment that usually pays off, since a first rank Ubermensch is stronger than five normal men.",
  "group_description": null,
  "display_class_name": null,
  "character_class_name": "minion_grunt",
  "ai_config": "5thColumn_Fog_Base",
  "commandable_pet": false,
  "power_tags": [

  ],
  "additional_rewards": [

  ],
  "skill_hp_rewards": [

  ],
  "skill_status_rewards": [

  ],
  "ally": null,
  "gang": null,
  "reward_scale": 1.0,
  "game_exclusion": "None",
  "inactive_state_weapon": null,
  "ignores_combat_mods": false,
  "copy_creator_mods": false,
  "spawn_limit": -1,
  "spawn_limit_mission": -1,
  "ignore_av_to_eb_scaling": false,
  "can_zone": false,
  "custom_badge_stat": null,
  "badge_stat_flags": "DefaultBadgeStat",
  "rank": "VR_MINION",
  "power_full_names": [
    "5thColumn.Fifth_Column_Soldier_Melee.Brawl",
    "5thColumn.Fifth_Column_Minion_Soldier_Heavy.Chain_Gun"
  ],
  "power_display_names": [
    "Brawl",
    "Chain Gun"
  ],
  "power_levels": [
    0,
    0
  ],
  "powers": [
    {
      "power_category": "5thColumn",
      "power_set": "Fifth_Column_Soldier_Melee",
      "power": "*",
      "level": 0
    },
    {
      "power_category": "5thColumn",
      "power_set": "Fifth_Column_Minion_Soldier_Heavy",
      "power": "Chain_Gun",
      "level": 0
    }
  ],
  "levels": [
    {
      "level": 20,
      "experience": 0,
      "display_names": [
        "Nebel Ubermenschen Force"
      ],
      "costumes": [
        "5thUber_00"
      ]
    },
    {
      "level": 21,
      "experience": 0,
      "display_names": [
        "Nebel Ubermenschen Force"
      ],
      "costumes": [
        "5thUber_00"
      ]
    },
    {
      "level": 22,
      "experience": 0,
      "display_names": [
        "Nebel Ubermenschen Force"
      ],
      "costumes": [
        "5thUber_00"
      ]
    },
    {
      "level": 23,
      "experience": 0,
      "display_names": [
        "Nebel Ubermenschen Force"
      ],
      "costumes": [
        "5thUber_00"
      ]
    },
    {
      "level": 24,
      "experience": 0,
      "display_names": [
        "Nebel Ubermenschen Force"
      ],
      "costumes": [
        "5thUber_00"
      ]
    }
  ]
}