{
  "name": "5thColumn_Fog_Soldier_Boss",
  "gender": "GENDER_MALE",
  "description": "To be commissioned an Oberst, or Colonel, a Nebel soldier must prove himself over the course of many battles. Many of them resent having to continue working with raw recruits, but this indignity is more than compensated for by their first taste of super soldier serums and body enhancements. Combined with their combat experience, these enhancements make them formidable foes.",
  "group_description": null,
  "display_class_name": null,
  "character_class_name": "boss_grunt",
  "ai_config": "5thColumn_Fog_Base",
  "commandable_pet": false,
  "power_tags": [

  ],
  "additional_rewards": [

  ],
  "skill_hp_rewards": [

  ],
  "skill_status_rewards": [

  ],
  "ally": null,
  "gang": null,
  "reward_scale": 1.0,
  "game_exclusion": "None",
  "inactive_state_weapon": null,
  "ignores_combat_mods": false,
  "copy_creator_mods": false,
  "spawn_limit": -1,
  "spawn_limit_mission": -1,
  "ignore_av_to_eb_scaling": false,
  "can_zone": false,
  "custom_badge_stat": null,
  "badge_stat_flags": "DefaultBadgeStat",
  "rank": "VR_BOSS",
  "power_full_names": [
    "5thColumn.Fifth_Column_Lt_Boss_Solider_Ranged.12_Gauge",
    "5thColumn.Fifth_Column_Lt_Boss_Solider_Ranged.12_Gauge_2",
    "5thColumn.Fifth_Column_Lt_Boss_Solider_Ranged.Rifle_Butt",
    "5thColumn.Fifth_Column_Lt_Boss_Solider_Ranged.Frag_Grenade"
  ],
  "power_display_names": [
    "12 Gauge",
    "12 Gauge",
    "Rifle Butt",
    "Frag Grenade"
  ],
  "power_levels": [
    0,
    0,
    0,
    0
  ],
  "powers": [
    {
      "power_category": "5thColumn",
      "power_set": "Fifth_Column_Lt_Boss_Solider_Ranged",
      "power": "*",
      "level": 0
    }
  ],
  "levels": [
    {
      "level": 1,
      "experience": 0,
      "display_names": [
        "Nebel Oberst"
      ],
      "costumes": [
        "5thFog_09"
      ]
    },
    {
      "level": 2,
      "experience": 0,
      "display_names": [
        "Nebel Oberst"
      ],
      "costumes": [
        "5thFog_09"
      ]
    },
    {
      "level": 3,
      "experience": 0,
      "display_names": [
        "Nebel Oberst"
      ],
      "costumes": [
        "5thFog_09"
      ]
    },
    {
      "level": 4,
      "experience": 0,
      "display_names": [
        "Nebel Oberst"
      ],
      "costumes": [
        "5thFog_09"
      ]
    }
  ]
}