{
  "name": "5thColumn_Fog_Soldier_Flamethrower",
  "gender": "GENDER_MALE",
  "description": "It doesn't take much training or expertise to join the 5th Column. Members who have neither receive basic weapons and are immediately put into service in the ranks of the Nebel, the 5th Column's front-line ranks. After all, the 5th Column believes in survival of the fittest.",
  "group_description": null,
  "display_class_name": null,
  "character_class_name": "minion_grunt",
  "ai_config": "5thColumn_Fog_Base",
  "commandable_pet": false,
  "power_tags": [

  ],
  "additional_rewards": [

  ],
  "skill_hp_rewards": [

  ],
  "skill_status_rewards": [

  ],
  "ally": null,
  "gang": null,
  "reward_scale": 1.0,
  "game_exclusion": "None",
  "inactive_state_weapon": null,
  "ignores_combat_mods": false,
  "copy_creator_mods": false,
  "spawn_limit": -1,
  "spawn_limit_mission": -1,
  "ignore_av_to_eb_scaling": false,
  "can_zone": false,
  "custom_badge_stat": null,
  "badge_stat_flags": "DefaultBadgeStat",
  "rank": "VR_MINION",
  "power_full_names": [
    "5thColumn.Fifth_Column_Soldier_Melee.Brawl",
    "5thColumn.Fifth_Column_Minion_Soldier_Heavy.Flamethrower"
  ],
  "power_display_names": [
    "Brawl",
    "Flamethrower"
  ],
  "power_levels": [
    0,
    0
  ],
  "powers": [
    {
      "power_category": "5thColumn",
      "power_set": "Fifth_Column_Soldier_Melee",
      "power": "*",
      "level": 0
    },
    {
      "power_category": "5thColumn",
      "power_set": "Fifth_Column_Minion_Soldier_Heavy",
      "power": "Flamethrower",
      "level": 0
    }
  ],
  "levels": [
    {
      "level": 1,
      "experience": 0,
      "display_names": [
        "Nebel Fire"
      ],
      "costumes": [
        "5thFog_00"
      ]
    },
    {
      "level": 2,
      "experience": 0,
      "display_names": [
        "Nebel Fire"
      ],
      "costumes": [
        "5thFog_00"
      ]
    },
    {
      "level": 3,
      "experience": 0,
      "display_names": [
        "Nebel Fire"
      ],
      "costumes": [
        "5thFog_00"
      ]
    },
    {
      "level": 4,
      "experience": 0,
      "display_names": [
        "Nebel Fire"
      ],
      "costumes": [
        "5thFog_00"
      ]
    }
  ]
}