{
  "name": "5thColumn_Door",
  "gender": "GENDER_MALE",
  "description": "This reinforced door stands between you and freedom!  The door seems to be vibrate and hum, as though it is coursing with energy.",
  "group_description": null,
  "display_class_name": "Object",
  "character_class_name": "boss_grunt",
  "ai_config": "Default_Stationary",
  "commandable_pet": false,
  "power_tags": [

  ],
  "additional_rewards": [

  ],
  "skill_hp_rewards": [

  ],
  "skill_status_rewards": [

  ],
  "ally": null,
  "gang": null,
  "reward_scale": 1.0,
  "game_exclusion": "None",
  "inactive_state_weapon": null,
  "ignores_combat_mods": false,
  "copy_creator_mods": false,
  "spawn_limit": 0,
  "spawn_limit_mission": 0,
  "ignore_av_to_eb_scaling": false,
  "can_zone": false,
  "custom_badge_stat": "kills.Doorbuster",
  "badge_stat_flags": "DefaultBadgeStat",
  "rank": "VR_DESTRUCTIBLE",
  "power_full_names": [
    "5thColumn.Fifth_Column_Door.Resistance",
    "5thColumn.Fifth_Column_Door.Explode"
  ],
  "power_display_names": [
    "Resistance",
    "Explode"
  ],
  "power_levels": [
    0,
    0
  ],
  "powers": [
    {
      "power_category": "5thColumn",
      "power_set": "Fifth_Column_Door",
      "power": "*",
      "level": 0
    }
  ],
  "levels": [
    {
      "level": 1,
      "experience": 0,
      "display_names": [
        "Reinforced Door"
      ],
      "costumes": [
        "AE_5th_Celldoor_01"
      ]
    },
    {
      "level": 2,
      "experience": 0,
      "display_names": [
        "Reinforced Door"
      ],
      "costumes": [
        "AE_5th_Celldoor_01"
      ]
    },
    {
      "level": 3,
      "experience": 0,
      "display_names": [
        "Reinforced Door"
      ],
      "costumes": [
        "AE_5th_Celldoor_01"
      ]
    },
    {
      "level": 4,
      "experience": 0,
      "display_names": [
        "Reinforced Door"
      ],
      "costumes": [
        "AE_5th_Celldoor_01"
      ]
    },
    {
      "level": 5,
      "experience": 0,
      "display_names": [
        "Reinforced Door"
      ],
      "costumes": [
        "AE_5th_Celldoor_01"
      ]
    },
    {
      "level": 6,
      "experience": 0,
      "display_names": [
        "Reinforced Door"
      ],
      "costumes": [
        "AE_5th_Celldoor_01"
      ]
    },
    {
      "level": 7,
      "experience": 0,
      "display_names": [
        "Reinforced Door"
      ],
      "costumes": [
        "AE_5th_Celldoor_01"
      ]
    },
    {
      "level": 8,
      "experience": 0,
      "display_names": [
        "Reinforced Door"
      ],
      "costumes": [
        "AE_5th_Celldoor_01"
      ]
    },
    {
      "level": 9,
      "experience": 0,
      "display_names": [
        "Reinforced Door"
      ],
      "costumes": [
        "AE_5th_Celldoor_01"
      ]
    },
    {
      "level": 10,
      "experience": 0,
      "display_names": [
        "Reinforced Door"
      ],
      "costumes": [
        "AE_5th_Celldoor_01"
      ]
    },
    {
      "level": 11,
      "experience": 0,
      "display_names": [
        "Reinforced Door"
      ],
      "costumes": [
        "AE_5th_Celldoor_01"
      ]
    },
    {
      "level": 12,
      "experience": 0,
      "display_names": [
        "Reinforced Door"
      ],
      "costumes": [
        "AE_5th_Celldoor_01"
      ]
    },
    {
      "level": 13,
      "experience": 0,
      "display_names": [
        "Reinforced Door"
      ],
      "costumes": [
        "AE_5th_Celldoor_01"
      ]
    },
    {
      "level": 14,
      "experience": 0,
      "display_names": [
        "Reinforced Door"
      ],
      "costumes": [
        "AE_5th_Celldoor_01"
      ]
    },
    {
      "level": 15,
      "experience": 0,
      "display_names": [
        "Reinforced Door"
      ],
      "costumes": [
        "AE_5th_Celldoor_01"
      ]
    },
    {
      "level": 16,
      "experience": 0,
      "display_names": [
        "Reinforced Door"
      ],
      "costumes": [
        "AE_5th_Celldoor_01"
      ]
    },
    {
      "level": 17,
      "experience": 0,
      "display_names": [
        "Reinforced Door"
      ],
      "costumes": [
        "AE_5th_Celldoor_01"
      ]
    },
    {
      "level": 18,
      "experience": 0,
      "display_names": [
        "Reinforced Door"
      ],
      "costumes": [
        "AE_5th_Celldoor_01"
      ]
    },
    {
      "level": 19,
      "experience": 0,
      "display_names": [
        "Reinforced Door"
      ],
      "costumes": [
        "AE_5th_Celldoor_01"
      ]
    },
    {
      "level": 20,
      "experience": 0,
      "display_names": [
        "Reinforced Door"
      ],
      "costumes": [
        "AE_5th_Celldoor_01"
      ]
    },
    {
      "level": 21,
      "experience": 0,
      "display_names": [
        "Reinforced Door"
      ],
      "costumes": [
        "AE_5th_Celldoor_01"
      ]
    },
    {
      "level": 22,
      "experience": 0,
      "display_names": [
        "Reinforced Door"
      ],
      "costumes": [
        "AE_5th_Celldoor_01"
      ]
    },
    {
      "level": 23,
      "experience": 0,
      "display_names": [
        "Reinforced Door"
      ],
      "costumes": [
        "AE_5th_Celldoor_01"
      ]
    },
    {
      "level": 24,
      "experience": 0,
      "display_names": [
        "Reinforced Door"
      ],
      "costumes": [
        "AE_5th_Celldoor_01"
      ]
    },
    {
      "level": 25,
      "experience": 0,
      "display_names": [
        "Reinforced Door"
      ],
      "costumes": [
        "AE_5th_Celldoor_01"
      ]
    },
    {
      "level": 26,
      "experience": 0,
      "display_names": [
        "Reinforced Door"
      ],
      "costumes": [
        "AE_5th_Celldoor_01"
      ]
    },
    {
      "level": 27,
      "experience": 0,
      "display_names": [
        "Reinforced Door"
      ],
      "costumes": [
        "AE_5th_Celldoor_01"
      ]
    },
    {
      "level": 28,
      "experience": 0,
      "display_names": [
        "Reinforced Door"
      ],
      "costumes": [
        "AE_5th_Celldoor_01"
      ]
    },
    {
      "level": 29,
      "experience": 0,
      "display_names": [
        "Reinforced Door"
      ],
      "costumes": [
        "AE_5th_Celldoor_01"
      ]
    },
    {
      "level": 30,
      "experience": 0,
      "display_names": [
        "Reinforced Door"
      ],
      "costumes": [
        "AE_5th_Celldoor_01"
      ]
    },
    {
      "level": 31,
      "experience": 0,
      "display_names": [
        "Reinforced Door"
      ],
      "costumes": [
        "AE_5th_Celldoor_01"
      ]
    },
    {
      "level": 32,
      "experience": 0,
      "display_names": [
        "Reinforced Door"
      ],
      "costumes": [
        "AE_5th_Celldoor_01"
      ]
    },
    {
      "level": 33,
      "experience": 0,
      "display_names": [
        "Reinforced Door"
      ],
      "costumes": [
        "AE_5th_Celldoor_01"
      ]
    },
    {
      "level": 34,
      "experience": 0,
      "display_names": [
        "Reinforced Door"
      ],
      "costumes": [
        "AE_5th_Celldoor_01"
      ]
    },
    {
      "level": 35,
      "experience": 0,
      "display_names": [
        "Reinforced Door"
      ],
      "costumes": [
        "AE_5th_Celldoor_01"
      ]
    },
    {
      "level": 36,
      "experience": 0,
      "display_names": [
        "Reinforced Door"
      ],
      "costumes": [
        "AE_5th_Celldoor_01"
      ]
    },
    {
      "level": 37,
      "experience": 0,
      "display_names": [
        "Reinforced Door"
      ],
      "costumes": [
        "AE_5th_Celldoor_01"
      ]
    },
    {
      "level": 38,
      "experience": 0,
      "display_names": [
        "Reinforced Door"
      ],
      "costumes": [
        "AE_5th_Celldoor_01"
      ]
    },
    {
      "level": 39,
      "experience": 0,
      "display_names": [
        "Reinforced Door"
      ],
      "costumes": [
        "AE_5th_Celldoor_01"
      ]
    },
    {
      "level": 40,
      "experience": 0,
      "display_names": [
        "Reinforced Door"
      ],
      "costumes": [
        "AE_5th_Celldoor_01"
      ]
    },
    {
      "level": 41,
      "experience": 0,
      "display_names": [
        "Reinforced Door"
      ],
      "costumes": [
        "AE_5th_Celldoor_01"
      ]
    },
    {
      "level": 42,
      "experience": 0,
      "display_names": [
        "Reinforced Door"
      ],
      "costumes": [
        "AE_5th_Celldoor_01"
      ]
    },
    {
      "level": 43,
      "experience": 0,
      "display_names": [
        "Reinforced Door"
      ],
      "costumes": [
        "AE_5th_Celldoor_01"
      ]
    },
    {
      "level": 44,
      "experience": 0,
      "display_names": [
        "Reinforced Door"
      ],
      "costumes": [
        "AE_5th_Celldoor_01"
      ]
    },
    {
      "level": 45,
      "experience": 0,
      "display_names": [
        "Reinforced Door"
      ],
      "costumes": [
        "AE_5th_Celldoor_01"
      ]
    },
    {
      "level": 46,
      "experience": 0,
      "display_names": [
        "Reinforced Door"
      ],
      "costumes": [
        "AE_5th_Celldoor_01"
      ]
    },
    {
      "level": 47,
      "experience": 0,
      "display_names": [
        "Reinforced Door"
      ],
      "costumes": [
        "AE_5th_Celldoor_01"
      ]
    },
    {
      "level": 48,
      "experience": 0,
      "display_names": [
        "Reinforced Door"
      ],
      "costumes": [
        "AE_5th_Celldoor_01"
      ]
    },
    {
      "level": 49,
      "experience": 0,
      "display_names": [
        "Reinforced Door"
      ],
      "costumes": [
        "AE_5th_Celldoor_01"
      ]
    },
    {
      "level": 50,
      "experience": 0,
      "display_names": [
        "Reinforced Door"
      ],
      "costumes": [
        "AE_5th_Celldoor_01"
      ]
    },
    {
      "level": 51,
      "experience": 0,
      "display_names": [
        "Reinforced Door"
      ],
      "costumes": [
        "AE_5th_Celldoor_01"
      ]
    },
    {
      "level": 52,
      "experience": 0,
      "display_names": [
        "Reinforced Door"
      ],
      "costumes": [
        "AE_5th_Celldoor_01"
      ]
    },
    {
      "level": 53,
      "experience": 0,
      "display_names": [
        "Reinforced Door"
      ],
      "costumes": [
        "AE_5th_Celldoor_01"
      ]
    },
    {
      "level": 54,
      "experience": 0,
      "display_names": [
        "Reinforced Door"
      ],
      "costumes": [
        "AE_5th_Celldoor_01"
      ]
    }
  ]
}