{
  "name": "5thColumn_Fifth_Mek_Man",
  "gender": "GENDER_MALE",
  "description": "Vandal, the genius behind the 5th Column's technology, created the first Mek Men during World War II. He's been improving on them ever since. The tough and deadly versions in operation today are 100 times more dangerous than their predecessors of 60 years ago. Modern Mek Men have tough, thick armor, redundant systems that resist damage, and a powerful onboard AI that makes them faster and smarter than most human soldiers.",
  "group_description": null,
  "display_class_name": null,
  "character_class_name": "minion_grunt",
  "ai_config": "5thColumn_Fifth_Mek_Man",
  "commandable_pet": false,
  "power_tags": [

  ],
  "additional_rewards": [

  ],
  "skill_hp_rewards": [

  ],
  "skill_status_rewards": [

  ],
  "ally": null,
  "gang": null,
  "reward_scale": 1.1,
  "game_exclusion": "None",
  "inactive_state_weapon": null,
  "ignores_combat_mods": false,
  "copy_creator_mods": false,
  "spawn_limit": -1,
  "spawn_limit_mission": -1,
  "ignore_av_to_eb_scaling": false,
  "can_zone": false,
  "custom_badge_stat": null,
  "badge_stat_flags": "DefaultBadgeStat",
  "rank": "VR_MINION",
  "power_full_names": [
    "5thColumn.Fifth_Column_Mek_Man_Melee.Energy_Punch",
    "5thColumn.Fifth_Column_Mek_Man_Melee.Barrage",
    "5thColumn.Fifth_Column_Mek_Man_Melee.Whirling_Hands",
    "5thColumn.Fifth_Column_Mek_Man_Melee.Stun",
    "5thColumn.Fifth_Column_Mek_Man_Ranged.Mek_Man_Blast",
    "5thColumn.Fifth_Column_Robot_Defense.Resistance"
  ],
  "power_display_names": [
    "Energy Punch",
    "Barrage",
    "Whirling Hands",
    "Stun",
    "Mek Man Blast",
    "Resistance"
  ],
  "power_levels": [
    0,
    0,
    0,
    0,
    0,
    0
  ],
  "powers": [
    {
      "power_category": "5thColumn",
      "power_set": "Fifth_Column_Mek_Man_Melee",
      "power": "*",
      "level": 0
    },
    {
      "power_category": "5thColumn",
      "power_set": "Fifth_Column_Mek_Man_Ranged",
      "power": "*",
      "level": 0
    },
    {
      "power_category": "5thColumn",
      "power_set": "Fifth_Column_Robot_Defense",
      "power": "*",
      "level": 0
    }
  ],
  "levels": [
    {
      "level": 25,
      "experience": 0,
      "display_names": [
        "Mek Man"
      ],
      "costumes": [
        "5th_Mek_Man"
      ]
    },
    {
      "level": 26,
      "experience": 0,
      "display_names": [
        "Mek Man"
      ],
      "costumes": [
        "5th_Mek_Man"
      ]
    },
    {
      "level": 27,
      "experience": 0,
      "display_names": [
        "Mek Man"
      ],
      "costumes": [
        "5th_Mek_Man"
      ]
    },
    {
      "level": 28,
      "experience": 0,
      "display_names": [
        "Mek Man"
      ],
      "costumes": [
        "5th_Mek_Man"
      ]
    },
    {
      "level": 29,
      "experience": 0,
      "display_names": [
        "Mek Man"
      ],
      "costumes": [
        "5th_Mek_Man"
      ]
    },
    {
      "level": 30,
      "experience": 0,
      "display_names": [
        "Mek Man"
      ],
      "costumes": [
        "5th_Mek_Man"
      ]
    },
    {
      "level": 31,
      "experience": 0,
      "display_names": [
        "Mek Man"
      ],
      "costumes": [
        "5th_Mek_Man"
      ]
    },
    {
      "level": 32,
      "experience": 0,
      "display_names": [
        "Mek Man"
      ],
      "costumes": [
        "5th_Mek_Man"
      ]
    },
    {
      "level": 33,
      "experience": 0,
      "display_names": [
        "Mek Man"
      ],
      "costumes": [
        "5th_Mek_Man"
      ]
    },
    {
      "level": 34,
      "experience": 0,
      "display_names": [
        "Mek Man"
      ],
      "costumes": [
        "5th_Mek_Man"
      ]
    }
  ]
}