{
  "name": "AnimusArcana_Vorpal_Sword",
  "gender": "GENDER_MALE",
  "description": "The Animus Arcana are magical spells or items brought to life by the very nature of Night Ward's tenuous dimensional connections.  Legendary artifacts only known in rumors and legends, Vorpal Swords are few and far between even in the Midnight Squad's prestigious membership, capable of dealing severe damage to any being wandering between dimensions.",
  "group_description": null,
  "display_class_name": null,
  "character_class_name": "boss_grunt",
  "ai_config": "Default_Melee",
  "commandable_pet": false,
  "power_tags": [

  ],
  "additional_rewards": [

  ],
  "skill_hp_rewards": [

  ],
  "skill_status_rewards": [

  ],
  "ally": null,
  "gang": null,
  "reward_scale": 1.0,
  "game_exclusion": "None",
  "inactive_state_weapon": null,
  "ignores_combat_mods": false,
  "copy_creator_mods": false,
  "spawn_limit": -1,
  "spawn_limit_mission": -1,
  "ignore_av_to_eb_scaling": false,
  "can_zone": false,
  "custom_badge_stat": null,
  "badge_stat_flags": "DefaultBadgeStat",
  "rank": "VR_BOSS",
  "power_full_names": [
    "AnimusArcana.Resistances.Damage_Vorpal_Sword",
    "AnimusArcana.Vorpal_Sword.Hack",
    "AnimusArcana.Vorpal_Sword.Slash",
    "AnimusArcana.Vorpal_Sword.Spear_of_Light",
    "AnimusArcana.Vorpal_Sword.Parry",
    "AnimusArcana.Vorpal_Sword.Whirling_Sword",
    "AnimusArcana.Vorpal_Sword.Disembowel",
    "AnimusArcana.Vorpal_Sword.Head_Splitter",
    "GenericVillains.Flight.Fly"
  ],
  "power_display_names": [
    "Damage Resistance",
    "Hack",
    "Slash",
    "Spear of Light",
    "Parry",
    "Whirling Sword",
    "Disembowel",
    "Head Splitter",
    "Fly"
  ],
  "power_levels": [
    0,
    0,
    0,
    0,
    0,
    0,
    0,
    0,
    0
  ],
  "powers": [
    {
      "power_category": "AnimusArcana",
      "power_set": "Resistances",
      "power": "Damage_Vorpal_Sword",
      "level": 0
    },
    {
      "power_category": "AnimusArcana",
      "power_set": "Vorpal_Sword",
      "power": "*",
      "level": 0
    },
    {
      "power_category": "GenericVillains",
      "power_set": "Flight",
      "power": "Fly",
      "level": 0
    }
  ],
  "levels": [
    {
      "level": 25,
      "experience": 0,
      "display_names": [
        "Vorpal Sword"
      ],
      "costumes": [
        "Vorpal_Sword"
      ]
    },
    {
      "level": 26,
      "experience": 0,
      "display_names": [
        "Vorpal Sword"
      ],
      "costumes": [
        "Vorpal_Sword"
      ]
    },
    {
      "level": 27,
      "experience": 0,
      "display_names": [
        "Vorpal Sword"
      ],
      "costumes": [
        "Vorpal_Sword"
      ]
    },
    {
      "level": 28,
      "experience": 0,
      "display_names": [
        "Vorpal Sword"
      ],
      "costumes": [
        "Vorpal_Sword"
      ]
    },
    {
      "level": 29,
      "experience": 0,
      "display_names": [
        "Vorpal Sword"
      ],
      "costumes": [
        "Vorpal_Sword"
      ]
    },
    {
      "level": 30,
      "experience": 0,
      "display_names": [
        "Vorpal Sword"
      ],
      "costumes": [
        "Vorpal_Sword"
      ]
    },
    {
      "level": 31,
      "experience": 0,
      "display_names": [
        "Vorpal Sword"
      ],
      "costumes": [
        "Vorpal_Sword"
      ]
    },
    {
      "level": 32,
      "experience": 0,
      "display_names": [
        "Vorpal Sword"
      ],
      "costumes": [
        "Vorpal_Sword"
      ]
    },
    {
      "level": 33,
      "experience": 0,
      "display_names": [
        "Vorpal Sword"
      ],
      "costumes": [
        "Vorpal_Sword"
      ]
    },
    {
      "level": 34,
      "experience": 0,
      "display_names": [
        "Vorpal Sword"
      ],
      "costumes": [
        "Vorpal_Sword"
      ]
    },
    {
      "level": 35,
      "experience": 0,
      "display_names": [
        "Vorpal Sword"
      ],
      "costumes": [
        "Vorpal_Sword"
      ]
    },
    {
      "level": 36,
      "experience": 0,
      "display_names": [
        "Vorpal Sword"
      ],
      "costumes": [
        "Vorpal_Sword"
      ]
    },
    {
      "level": 37,
      "experience": 0,
      "display_names": [
        "Vorpal Sword"
      ],
      "costumes": [
        "Vorpal_Sword"
      ]
    },
    {
      "level": 38,
      "experience": 0,
      "display_names": [
        "Vorpal Sword"
      ],
      "costumes": [
        "Vorpal_Sword"
      ]
    },
    {
      "level": 39,
      "experience": 0,
      "display_names": [
        "Vorpal Sword"
      ],
      "costumes": [
        "Vorpal_Sword"
      ]
    },
    {
      "level": 40,
      "experience": 0,
      "display_names": [
        "Vorpal Sword"
      ],
      "costumes": [
        "Vorpal_Sword"
      ]
    },
    {
      "level": 41,
      "experience": 0,
      "display_names": [
        "Vorpal Sword"
      ],
      "costumes": [
        "Vorpal_Sword"
      ]
    },
    {
      "level": 42,
      "experience": 0,
      "display_names": [
        "Vorpal Sword"
      ],
      "costumes": [
        "Vorpal_Sword"
      ]
    },
    {
      "level": 43,
      "experience": 0,
      "display_names": [
        "Vorpal Sword"
      ],
      "costumes": [
        "Vorpal_Sword"
      ]
    },
    {
      "level": 44,
      "experience": 0,
      "display_names": [
        "Vorpal Sword"
      ],
      "costumes": [
        "Vorpal_Sword"
      ]
    },
    {
      "level": 45,
      "experience": 0,
      "display_names": [
        "Vorpal Sword"
      ],
      "costumes": [
        "Vorpal_Sword"
      ]
    },
    {
      "level": 46,
      "experience": 0,
      "display_names": [
        "Vorpal Sword"
      ],
      "costumes": [
        "Vorpal_Sword"
      ]
    },
    {
      "level": 47,
      "experience": 0,
      "display_names": [
        "Vorpal Sword"
      ],
      "costumes": [
        "Vorpal_Sword"
      ]
    },
    {
      "level": 48,
      "experience": 0,
      "display_names": [
        "Vorpal Sword"
      ],
      "costumes": [
        "Vorpal_Sword"
      ]
    },
    {
      "level": 49,
      "experience": 0,
      "display_names": [
        "Vorpal Sword"
      ],
      "costumes": [
        "Vorpal_Sword"
      ]
    },
    {
      "level": 50,
      "experience": 0,
      "display_names": [
        "Vorpal Sword"
      ],
      "costumes": [
        "Vorpal_Sword"
      ]
    },
    {
      "level": 51,
      "experience": 0,
      "display_names": [
        "Vorpal Sword"
      ],
      "costumes": [
        "Vorpal_Sword"
      ]
    },
    {
      "level": 52,
      "experience": 0,
      "display_names": [
        "Vorpal Sword"
      ],
      "costumes": [
        "Vorpal_Sword"
      ]
    },
    {
      "level": 53,
      "experience": 0,
      "display_names": [
        "Vorpal Sword"
      ],
      "costumes": [
        "Vorpal_Sword"
      ]
    },
    {
      "level": 54,
      "experience": 0,
      "display_names": [
        "Vorpal Sword"
      ],
      "costumes": [
        "Vorpal_Sword"
      ]
    }
  ]
}