{
  "name": "AnimusArcana_Cloud_of_Ice",
  "gender": "GENDER_MALE",
  "description": "The Animus Arcana are magical spells or items brought to life by the very nature of Night Ward's tenuous dimensional connections.  Frigid temperatures permeate the air surrounding this living spell, slowing the movement of nearby aggressors.",
  "group_description": null,
  "display_class_name": null,
  "character_class_name": "minion_grunt",
  "ai_config": "Default_Melee",
  "commandable_pet": false,
  "power_tags": [

  ],
  "additional_rewards": [

  ],
  "skill_hp_rewards": [

  ],
  "skill_status_rewards": [

  ],
  "ally": null,
  "gang": null,
  "reward_scale": 1.0,
  "game_exclusion": "None",
  "inactive_state_weapon": null,
  "ignores_combat_mods": false,
  "copy_creator_mods": false,
  "spawn_limit": -1,
  "spawn_limit_mission": -1,
  "ignore_av_to_eb_scaling": false,
  "can_zone": false,
  "custom_badge_stat": null,
  "badge_stat_flags": "DefaultBadgeStat",
  "rank": "VR_MINION",
  "power_full_names": [
    "AnimusArcana.Cloud_of_Ice.Ice_Blast",
    "AnimusArcana.Cloud_of_Ice.Freeze_Ray",
    "AnimusArcana.Cloud_of_Ice.Ice_Storm",
    "AnimusArcana.Resistances.Damage_Cloud_of_Ice",
    "GenericVillains.Flight.Fly"
  ],
  "power_display_names": [
    "Ice Blast",
    "Freeze Ray",
    "Ice Storm",
    "Damage Resistance",
    "Fly"
  ],
  "power_levels": [
    0,
    0,
    0,
    0,
    0
  ],
  "powers": [
    {
      "power_category": "AnimusArcana",
      "power_set": "Cloud_of_Ice",
      "power": "*",
      "level": 0
    },
    {
      "power_category": "AnimusArcana",
      "power_set": "Resistances",
      "power": "Damage_Cloud_of_Ice",
      "level": 0
    },
    {
      "power_category": "GenericVillains",
      "power_set": "Flight",
      "power": "Fly",
      "level": 0
    }
  ],
  "levels": [
    {
      "level": 25,
      "experience": 0,
      "display_names": [
        "Cloud of Ice"
      ],
      "costumes": [
        "Cloud_of_Ice"
      ]
    },
    {
      "level": 26,
      "experience": 0,
      "display_names": [
        "Cloud of Ice"
      ],
      "costumes": [
        "Cloud_of_Ice"
      ]
    },
    {
      "level": 27,
      "experience": 0,
      "display_names": [
        "Cloud of Ice"
      ],
      "costumes": [
        "Cloud_of_Ice"
      ]
    },
    {
      "level": 28,
      "experience": 0,
      "display_names": [
        "Cloud of Ice"
      ],
      "costumes": [
        "Cloud_of_Ice"
      ]
    },
    {
      "level": 29,
      "experience": 0,
      "display_names": [
        "Cloud of Ice"
      ],
      "costumes": [
        "Cloud_of_Ice"
      ]
    },
    {
      "level": 30,
      "experience": 0,
      "display_names": [
        "Cloud of Ice"
      ],
      "costumes": [
        "Cloud_of_Ice"
      ]
    },
    {
      "level": 31,
      "experience": 0,
      "display_names": [
        "Cloud of Ice"
      ],
      "costumes": [
        "Cloud_of_Ice"
      ]
    },
    {
      "level": 32,
      "experience": 0,
      "display_names": [
        "Cloud of Ice"
      ],
      "costumes": [
        "Cloud_of_Ice"
      ]
    },
    {
      "level": 33,
      "experience": 0,
      "display_names": [
        "Cloud of Ice"
      ],
      "costumes": [
        "Cloud_of_Ice"
      ]
    },
    {
      "level": 34,
      "experience": 0,
      "display_names": [
        "Cloud of Ice"
      ],
      "costumes": [
        "Cloud_of_Ice"
      ]
    },
    {
      "level": 35,
      "experience": 0,
      "display_names": [
        "Cloud of Ice"
      ],
      "costumes": [
        "Cloud_of_Ice"
      ]
    },
    {
      "level": 36,
      "experience": 0,
      "display_names": [
        "Cloud of Ice"
      ],
      "costumes": [
        "Cloud_of_Ice"
      ]
    },
    {
      "level": 37,
      "experience": 0,
      "display_names": [
        "Cloud of Ice"
      ],
      "costumes": [
        "Cloud_of_Ice"
      ]
    },
    {
      "level": 38,
      "experience": 0,
      "display_names": [
        "Cloud of Ice"
      ],
      "costumes": [
        "Cloud_of_Ice"
      ]
    },
    {
      "level": 39,
      "experience": 0,
      "display_names": [
        "Cloud of Ice"
      ],
      "costumes": [
        "Cloud_of_Ice"
      ]
    },
    {
      "level": 40,
      "experience": 0,
      "display_names": [
        "Cloud of Ice"
      ],
      "costumes": [
        "Cloud_of_Ice"
      ]
    },
    {
      "level": 41,
      "experience": 0,
      "display_names": [
        "Cloud of Ice"
      ],
      "costumes": [
        "Cloud_of_Ice"
      ]
    },
    {
      "level": 42,
      "experience": 0,
      "display_names": [
        "Cloud of Ice"
      ],
      "costumes": [
        "Cloud_of_Ice"
      ]
    },
    {
      "level": 43,
      "experience": 0,
      "display_names": [
        "Cloud of Ice"
      ],
      "costumes": [
        "Cloud_of_Ice"
      ]
    },
    {
      "level": 44,
      "experience": 0,
      "display_names": [
        "Cloud of Ice"
      ],
      "costumes": [
        "Cloud_of_Ice"
      ]
    },
    {
      "level": 45,
      "experience": 0,
      "display_names": [
        "Cloud of Ice"
      ],
      "costumes": [
        "Cloud_of_Ice"
      ]
    },
    {
      "level": 46,
      "experience": 0,
      "display_names": [
        "Cloud of Ice"
      ],
      "costumes": [
        "Cloud_of_Ice"
      ]
    },
    {
      "level": 47,
      "experience": 0,
      "display_names": [
        "Cloud of Ice"
      ],
      "costumes": [
        "Cloud_of_Ice"
      ]
    },
    {
      "level": 48,
      "experience": 0,
      "display_names": [
        "Cloud of Ice"
      ],
      "costumes": [
        "Cloud_of_Ice"
      ]
    },
    {
      "level": 49,
      "experience": 0,
      "display_names": [
        "Cloud of Ice"
      ],
      "costumes": [
        "Cloud_of_Ice"
      ]
    },
    {
      "level": 50,
      "experience": 0,
      "display_names": [
        "Cloud of Ice"
      ],
      "costumes": [
        "Cloud_of_Ice"
      ]
    },
    {
      "level": 51,
      "experience": 0,
      "display_names": [
        "Cloud of Ice"
      ],
      "costumes": [
        "Cloud_of_Ice"
      ]
    },
    {
      "level": 52,
      "experience": 0,
      "display_names": [
        "Cloud of Ice"
      ],
      "costumes": [
        "Cloud_of_Ice"
      ]
    },
    {
      "level": 53,
      "experience": 0,
      "display_names": [
        "Cloud of Ice"
      ],
      "costumes": [
        "Cloud_of_Ice"
      ]
    },
    {
      "level": 54,
      "experience": 0,
      "display_names": [
        "Cloud of Ice"
      ],
      "costumes": [
        "Cloud_of_Ice"
      ]
    }
  ]
}