{
  "name": "ApparitionsPossessed_Possessed_Manslayer",
  "gender": "GENDER_MALE",
  "description": "As if the Failed Experiments weren't bad enough already, this one seems to be different somehow. Just being near it makes your head swim.",
  "group_description": null,
  "display_class_name": null,
  "character_class_name": "boss_grunt",
  "ai_config": "Ghoul",
  "commandable_pet": false,
  "power_tags": [
    "HumanSkeleton",
    "Human"
  ],
  "additional_rewards": [

  ],
  "skill_hp_rewards": [

  ],
  "skill_status_rewards": [

  ],
  "ally": null,
  "gang": null,
  "reward_scale": 1.0,
  "game_exclusion": "None",
  "inactive_state_weapon": null,
  "ignores_combat_mods": false,
  "copy_creator_mods": false,
  "spawn_limit": -1,
  "spawn_limit_mission": -1,
  "ignore_av_to_eb_scaling": false,
  "can_zone": false,
  "custom_badge_stat": null,
  "badge_stat_flags": "DefaultBadgeStat",
  "rank": "VR_BOSS",
  "power_full_names": [
    "P_Ghouls.Dirty_Ghoul_Boss.Jab",
    "P_Ghouls.Dirty_Ghoul_Boss.Haymaker",
    "Apparitions.Resistances.Damage_BS",
    "Apparitions.Possessed_Aura.Aura_of_Possession",
    "Apparitions.Possessed_Emerge.Emerge_BS"
  ],
  "power_display_names": [
    "Jab",
    "Haymaker",
    "Damage Resistance",
    "Aura of Possession",
    "Emerge BS"
  ],
  "power_levels": [
    0,
    0,
    0,
    0,
    0
  ],
  "powers": [
    {
      "power_category": "P_Ghouls",
      "power_set": "Dirty_Ghoul_Boss",
      "power": "Jab",
      "level": 0
    },
    {
      "power_category": "P_Ghouls",
      "power_set": "Dirty_Ghoul_Boss",
      "power": "Haymaker",
      "level": 0
    },
    {
      "power_category": "Apparitions",
      "power_set": "Resistances",
      "power": "Damage_BS",
      "level": 0
    },
    {
      "power_category": "Apparitions",
      "power_set": "Possessed_Aura",
      "power": "*",
      "level": 0
    },
    {
      "power_category": "Apparitions",
      "power_set": "Possessed_Emerge",
      "power": "Emerge_BS",
      "level": 0
    }
  ],
  "levels": [
    {
      "level": 20,
      "experience": 0,
      "display_names": [
        "Possessed Manslayer"
      ],
      "costumes": [
        "Ghoul_Dirty_Boss_01",
        "Ghoul_Dirty_Boss_02",
        "Ghoul_Dirty_Boss_03"
      ]
    },
    {
      "level": 21,
      "experience": 0,
      "display_names": [
        "Possessed Manslayer"
      ],
      "costumes": [
        "Ghoul_Dirty_Boss_01",
        "Ghoul_Dirty_Boss_02",
        "Ghoul_Dirty_Boss_03"
      ]
    },
    {
      "level": 22,
      "experience": 0,
      "display_names": [
        "Possessed Manslayer"
      ],
      "costumes": [
        "Ghoul_Dirty_Boss_01",
        "Ghoul_Dirty_Boss_02",
        "Ghoul_Dirty_Boss_03"
      ]
    },
    {
      "level": 23,
      "experience": 0,
      "display_names": [
        "Possessed Manslayer"
      ],
      "costumes": [
        "Ghoul_Dirty_Boss_01",
        "Ghoul_Dirty_Boss_02",
        "Ghoul_Dirty_Boss_03"
      ]
    },
    {
      "level": 24,
      "experience": 0,
      "display_names": [
        "Possessed Manslayer"
      ],
      "costumes": [
        "Ghoul_Dirty_Boss_01",
        "Ghoul_Dirty_Boss_02",
        "Ghoul_Dirty_Boss_03"
      ]
    },
    {
      "level": 25,
      "experience": 0,
      "display_names": [
        "Possessed Manslayer"
      ],
      "costumes": [
        "Ghoul_Dirty_Boss_01",
        "Ghoul_Dirty_Boss_02",
        "Ghoul_Dirty_Boss_03"
      ]
    },
    {
      "level": 26,
      "experience": 0,
      "display_names": [
        "Possessed Manslayer"
      ],
      "costumes": [
        "Ghoul_Dirty_Boss_01",
        "Ghoul_Dirty_Boss_02",
        "Ghoul_Dirty_Boss_03"
      ]
    },
    {
      "level": 27,
      "experience": 0,
      "display_names": [
        "Possessed Manslayer"
      ],
      "costumes": [
        "Ghoul_Dirty_Boss_01",
        "Ghoul_Dirty_Boss_02",
        "Ghoul_Dirty_Boss_03"
      ]
    },
    {
      "level": 28,
      "experience": 0,
      "display_names": [
        "Possessed Manslayer"
      ],
      "costumes": [
        "Ghoul_Dirty_Boss_01",
        "Ghoul_Dirty_Boss_02",
        "Ghoul_Dirty_Boss_03"
      ]
    },
    {
      "level": 29,
      "experience": 0,
      "display_names": [
        "Possessed Manslayer"
      ],
      "costumes": [
        "Ghoul_Dirty_Boss_01",
        "Ghoul_Dirty_Boss_02",
        "Ghoul_Dirty_Boss_03"
      ]
    },
    {
      "level": 30,
      "experience": 0,
      "display_names": [
        "Possessed Manslayer"
      ],
      "costumes": [
        "Ghoul_Dirty_Boss_01",
        "Ghoul_Dirty_Boss_02",
        "Ghoul_Dirty_Boss_03"
      ]
    },
    {
      "level": 31,
      "experience": 0,
      "display_names": [
        "Possessed Manslayer"
      ],
      "costumes": [
        "Ghoul_Dirty_Boss_01",
        "Ghoul_Dirty_Boss_02",
        "Ghoul_Dirty_Boss_03"
      ]
    },
    {
      "level": 32,
      "experience": 0,
      "display_names": [
        "Possessed Manslayer"
      ],
      "costumes": [
        "Ghoul_Dirty_Boss_01",
        "Ghoul_Dirty_Boss_02",
        "Ghoul_Dirty_Boss_03"
      ]
    },
    {
      "level": 33,
      "experience": 0,
      "display_names": [
        "Possessed Manslayer"
      ],
      "costumes": [
        "Ghoul_Dirty_Boss_01",
        "Ghoul_Dirty_Boss_02",
        "Ghoul_Dirty_Boss_03"
      ]
    },
    {
      "level": 34,
      "experience": 0,
      "display_names": [
        "Possessed Manslayer"
      ],
      "costumes": [
        "Ghoul_Dirty_Boss_01",
        "Ghoul_Dirty_Boss_02",
        "Ghoul_Dirty_Boss_03"
      ]
    }
  ]
}