{
  "name": "ApparitionsPossessed_Possessed_Officer_Female",
  "gender": "GENDER_FEMALE",
  "description": "There's definitely something wrong with this Resistance fighter. Just being near them causes your head to swim.",
  "group_description": null,
  "display_class_name": null,
  "character_class_name": "boss_grunt",
  "ai_config": "Default_Melee",
  "commandable_pet": false,
  "power_tags": [
    "HumanSkeleton",
    "Human"
  ],
  "additional_rewards": [

  ],
  "skill_hp_rewards": [

  ],
  "skill_status_rewards": [

  ],
  "ally": null,
  "gang": null,
  "reward_scale": 0.0,
  "game_exclusion": "None",
  "inactive_state_weapon": null,
  "ignores_combat_mods": false,
  "copy_creator_mods": false,
  "spawn_limit": -1,
  "spawn_limit_mission": -1,
  "ignore_av_to_eb_scaling": false,
  "can_zone": false,
  "custom_badge_stat": null,
  "badge_stat_flags": "DefaultBadgeStat",
  "rank": "VR_BOSS",
  "power_full_names": [
    "PraetorianResistance.Boss_Officer.Snap_Shots",
    "PraetorianResistance.Boss_Officer.Aimed_Shot",
    "Apparitions.Resistances.Damage_BS",
    "Apparitions.Possessed_Aura.Aura_of_Possession",
    "Apparitions.Possessed_Emerge.Emerge_BS"
  ],
  "power_display_names": [
    "Snap Shots",
    "Aimed Shot",
    "Damage Resistance",
    "Aura of Possession",
    "Emerge BS"
  ],
  "power_levels": [
    0,
    0,
    0,
    0,
    0
  ],
  "powers": [
    {
      "power_category": "PraetorianResistance",
      "power_set": "Boss_Officer",
      "power": "Snap_Shots",
      "level": 0
    },
    {
      "power_category": "PraetorianResistance",
      "power_set": "Boss_Officer",
      "power": "Aimed_Shot",
      "level": 0
    },
    {
      "power_category": "Apparitions",
      "power_set": "Resistances",
      "power": "Damage_BS",
      "level": 0
    },
    {
      "power_category": "Apparitions",
      "power_set": "Possessed_Aura",
      "power": "*",
      "level": 0
    },
    {
      "power_category": "Apparitions",
      "power_set": "Possessed_Emerge",
      "power": "Emerge_BS",
      "level": 0
    }
  ],
  "levels": [
    {
      "level": 20,
      "experience": 0,
      "display_names": [
        "Possessed Officer"
      ],
      "costumes": [
        "Resistance_Fem_Officer_01",
        "Resistance_Fem_Officer_02",
        "Resistance_Fem_Officer_03"
      ]
    },
    {
      "level": 21,
      "experience": 0,
      "display_names": [
        "Possessed Officer"
      ],
      "costumes": [
        "Resistance_Fem_Officer_01",
        "Resistance_Fem_Officer_02",
        "Resistance_Fem_Officer_03"
      ]
    },
    {
      "level": 22,
      "experience": 0,
      "display_names": [
        "Possessed Officer"
      ],
      "costumes": [
        "Resistance_Fem_Officer_01",
        "Resistance_Fem_Officer_02",
        "Resistance_Fem_Officer_03"
      ]
    },
    {
      "level": 23,
      "experience": 0,
      "display_names": [
        "Possessed Officer"
      ],
      "costumes": [
        "Resistance_Fem_Officer_01",
        "Resistance_Fem_Officer_02",
        "Resistance_Fem_Officer_03"
      ]
    },
    {
      "level": 24,
      "experience": 0,
      "display_names": [
        "Possessed Officer"
      ],
      "costumes": [
        "Resistance_Fem_Officer_01",
        "Resistance_Fem_Officer_02",
        "Resistance_Fem_Officer_03"
      ]
    },
    {
      "level": 25,
      "experience": 0,
      "display_names": [
        "Possessed Officer"
      ],
      "costumes": [
        "Resistance_Fem_Officer_01",
        "Resistance_Fem_Officer_02",
        "Resistance_Fem_Officer_03"
      ]
    },
    {
      "level": 26,
      "experience": 0,
      "display_names": [
        "Possessed Officer"
      ],
      "costumes": [
        "Resistance_Fem_Officer_01",
        "Resistance_Fem_Officer_02",
        "Resistance_Fem_Officer_03"
      ]
    },
    {
      "level": 27,
      "experience": 0,
      "display_names": [
        "Possessed Officer"
      ],
      "costumes": [
        "Resistance_Fem_Officer_01",
        "Resistance_Fem_Officer_02",
        "Resistance_Fem_Officer_03"
      ]
    },
    {
      "level": 28,
      "experience": 0,
      "display_names": [
        "Possessed Officer"
      ],
      "costumes": [
        "Resistance_Fem_Officer_01",
        "Resistance_Fem_Officer_02",
        "Resistance_Fem_Officer_03"
      ]
    },
    {
      "level": 29,
      "experience": 0,
      "display_names": [
        "Possessed Officer"
      ],
      "costumes": [
        "Resistance_Fem_Officer_01",
        "Resistance_Fem_Officer_02",
        "Resistance_Fem_Officer_03"
      ]
    },
    {
      "level": 30,
      "experience": 0,
      "display_names": [
        "Possessed Officer"
      ],
      "costumes": [
        "Resistance_Fem_Officer_01",
        "Resistance_Fem_Officer_02",
        "Resistance_Fem_Officer_03"
      ]
    },
    {
      "level": 31,
      "experience": 0,
      "display_names": [
        "Possessed Officer"
      ],
      "costumes": [
        "Resistance_Fem_Officer_01",
        "Resistance_Fem_Officer_02",
        "Resistance_Fem_Officer_03"
      ]
    },
    {
      "level": 32,
      "experience": 0,
      "display_names": [
        "Possessed Officer"
      ],
      "costumes": [
        "Resistance_Fem_Officer_01",
        "Resistance_Fem_Officer_02",
        "Resistance_Fem_Officer_03"
      ]
    },
    {
      "level": 33,
      "experience": 0,
      "display_names": [
        "Possessed Officer"
      ],
      "costumes": [
        "Resistance_Fem_Officer_01",
        "Resistance_Fem_Officer_02",
        "Resistance_Fem_Officer_03"
      ]
    },
    {
      "level": 34,
      "experience": 0,
      "display_names": [
        "Possessed Officer"
      ],
      "costumes": [
        "Resistance_Fem_Officer_01",
        "Resistance_Fem_Officer_02",
        "Resistance_Fem_Officer_03"
      ]
    }
  ]
}