{
  "name": "ApparitionsPossessed_Peculiar_Leader",
  "gender": "GENDER_MALE",
  "description": "There's definitely something wrong with this D.U.S.T. soldier. Just being near them causes your head to swim.",
  "group_description": null,
  "display_class_name": null,
  "character_class_name": "lt_grunt",
  "ai_config": "Default_Ranged",
  "commandable_pet": false,
  "power_tags": [
    "HumanSkeleton",
    "Human"
  ],
  "additional_rewards": [

  ],
  "skill_hp_rewards": [

  ],
  "skill_status_rewards": [

  ],
  "ally": null,
  "gang": null,
  "reward_scale": 0.0,
  "game_exclusion": "None",
  "inactive_state_weapon": null,
  "ignores_combat_mods": false,
  "copy_creator_mods": false,
  "spawn_limit": -1,
  "spawn_limit_mission": -1,
  "ignore_av_to_eb_scaling": false,
  "can_zone": false,
  "custom_badge_stat": null,
  "badge_stat_flags": "DefaultBadgeStat",
  "rank": "VR_LIEUTENANT",
  "power_full_names": [
    "PraetorianPolice.DUST_MN.Force_Punch",
    "PraetorianPolice.DUST_MN.Plasma_Stream",
    "Apparitions.Resistances.Damage_LT",
    "Apparitions.Possessed_Aura.Aura_of_Possession",
    "Apparitions.Possessed_Emerge.Emerge_LT"
  ],
  "power_display_names": [
    "Force Punch",
    "Plasma Stream",
    "Damage Resistance",
    "Aura of Possession",
    "Emerge LT"
  ],
  "power_levels": [
    0,
    0,
    0,
    0,
    0
  ],
  "powers": [
    {
      "power_category": "PraetorianPolice",
      "power_set": "DUST_MN",
      "power": "Force_Punch",
      "level": 0
    },
    {
      "power_category": "PraetorianPolice",
      "power_set": "DUST_MN",
      "power": "Plasma_Stream",
      "level": 0
    },
    {
      "power_category": "Apparitions",
      "power_set": "Resistances",
      "power": "Damage_LT",
      "level": 0
    },
    {
      "power_category": "Apparitions",
      "power_set": "Possessed_Aura",
      "power": "*",
      "level": 0
    },
    {
      "power_category": "Apparitions",
      "power_set": "Possessed_Emerge",
      "power": "Emerge_LT",
      "level": 0
    }
  ],
  "levels": [
    {
      "level": 20,
      "experience": 0,
      "display_names": [
        "Peculiar Leader"
      ],
      "costumes": [
        "Praetorian_DUST_Leader_01",
        "Praetorian_DUST_Leader_02",
        "Praetorian_DUST_Leader_03",
        "Praetorian_DUST_Leader_04"
      ]
    },
    {
      "level": 21,
      "experience": 0,
      "display_names": [
        "Peculiar Leader"
      ],
      "costumes": [
        "Praetorian_DUST_Leader_01",
        "Praetorian_DUST_Leader_02",
        "Praetorian_DUST_Leader_03",
        "Praetorian_DUST_Leader_04"
      ]
    },
    {
      "level": 22,
      "experience": 0,
      "display_names": [
        "Peculiar Leader"
      ],
      "costumes": [
        "Praetorian_DUST_Leader_01",
        "Praetorian_DUST_Leader_02",
        "Praetorian_DUST_Leader_03",
        "Praetorian_DUST_Leader_04"
      ]
    },
    {
      "level": 23,
      "experience": 0,
      "display_names": [
        "Peculiar Leader"
      ],
      "costumes": [
        "Praetorian_DUST_Leader_01",
        "Praetorian_DUST_Leader_02",
        "Praetorian_DUST_Leader_03",
        "Praetorian_DUST_Leader_04"
      ]
    },
    {
      "level": 24,
      "experience": 0,
      "display_names": [
        "Peculiar Leader"
      ],
      "costumes": [
        "Praetorian_DUST_Leader_01",
        "Praetorian_DUST_Leader_02",
        "Praetorian_DUST_Leader_03",
        "Praetorian_DUST_Leader_04"
      ]
    },
    {
      "level": 25,
      "experience": 0,
      "display_names": [
        "Peculiar Leader"
      ],
      "costumes": [
        "Praetorian_DUST_Leader_01",
        "Praetorian_DUST_Leader_02",
        "Praetorian_DUST_Leader_03",
        "Praetorian_DUST_Leader_04"
      ]
    },
    {
      "level": 26,
      "experience": 0,
      "display_names": [
        "Peculiar Leader"
      ],
      "costumes": [
        "Praetorian_DUST_Leader_01",
        "Praetorian_DUST_Leader_02",
        "Praetorian_DUST_Leader_03",
        "Praetorian_DUST_Leader_04"
      ]
    },
    {
      "level": 27,
      "experience": 0,
      "display_names": [
        "Peculiar Leader"
      ],
      "costumes": [
        "Praetorian_DUST_Leader_01",
        "Praetorian_DUST_Leader_02",
        "Praetorian_DUST_Leader_03",
        "Praetorian_DUST_Leader_04"
      ]
    },
    {
      "level": 28,
      "experience": 0,
      "display_names": [
        "Peculiar Leader"
      ],
      "costumes": [
        "Praetorian_DUST_Leader_01",
        "Praetorian_DUST_Leader_02",
        "Praetorian_DUST_Leader_03",
        "Praetorian_DUST_Leader_04"
      ]
    },
    {
      "level": 29,
      "experience": 0,
      "display_names": [
        "Peculiar Leader"
      ],
      "costumes": [
        "Praetorian_DUST_Leader_01",
        "Praetorian_DUST_Leader_02",
        "Praetorian_DUST_Leader_03",
        "Praetorian_DUST_Leader_04"
      ]
    },
    {
      "level": 30,
      "experience": 0,
      "display_names": [
        "Peculiar Leader"
      ],
      "costumes": [
        "Praetorian_DUST_Leader_01",
        "Praetorian_DUST_Leader_02",
        "Praetorian_DUST_Leader_03",
        "Praetorian_DUST_Leader_04"
      ]
    },
    {
      "level": 31,
      "experience": 0,
      "display_names": [
        "Peculiar Leader"
      ],
      "costumes": [
        "Praetorian_DUST_Leader_01",
        "Praetorian_DUST_Leader_02",
        "Praetorian_DUST_Leader_03",
        "Praetorian_DUST_Leader_04"
      ]
    },
    {
      "level": 32,
      "experience": 0,
      "display_names": [
        "Peculiar Leader"
      ],
      "costumes": [
        "Praetorian_DUST_Leader_01",
        "Praetorian_DUST_Leader_02",
        "Praetorian_DUST_Leader_03",
        "Praetorian_DUST_Leader_04"
      ]
    },
    {
      "level": 33,
      "experience": 0,
      "display_names": [
        "Peculiar Leader"
      ],
      "costumes": [
        "Praetorian_DUST_Leader_01",
        "Praetorian_DUST_Leader_02",
        "Praetorian_DUST_Leader_03",
        "Praetorian_DUST_Leader_04"
      ]
    },
    {
      "level": 34,
      "experience": 0,
      "display_names": [
        "Peculiar Leader"
      ],
      "costumes": [
        "Praetorian_DUST_Leader_01",
        "Praetorian_DUST_Leader_02",
        "Praetorian_DUST_Leader_03",
        "Praetorian_DUST_Leader_04"
      ]
    }
  ]
}