{
  "name": "Arachnos_Barracuda_EB_20_34",
  "gender": "GENDER_MALE",
  "description": "A former treasure hunter, Kelli Forston was infected by mysterious creatures known as the Coralax. What she found in the briny deep remains a mystery, but it turned her heart as dark and cold as the depths. In combat, she is almost as quick and savage as her bloodthirsty mentor, Captain Mako.",
  "group_description": null,
  "display_class_name": null,
  "character_class_name": "boss_elite",
  "ai_config": "Signatures_Ranged",
  "commandable_pet": false,
  "power_tags": [
    "Raid"
  ],
  "additional_rewards": [

  ],
  "skill_hp_rewards": [

  ],
  "skill_status_rewards": [

  ],
  "ally": null,
  "gang": null,
  "reward_scale": 1.0,
  "game_exclusion": "None",
  "inactive_state_weapon": null,
  "ignores_combat_mods": false,
  "copy_creator_mods": false,
  "spawn_limit": 0,
  "spawn_limit_mission": 0,
  "ignore_av_to_eb_scaling": false,
  "can_zone": false,
  "custom_badge_stat": null,
  "badge_stat_flags": "DefaultBadgeStat",
  "rank": "VR_ELITE",
  "power_full_names": [
    "V_Arachnos.Barracuda_EB.Wave_of_Cold",
    "V_Arachnos.Barracuda_EB.Spiny_Urchins",
    "V_Arachnos.Barracuda_EB.Urchin_Spray",
    "V_Arachnos.Barracuda_EB.Psychic_Coral_Blast",
    "V_Arachnos.Barracuda_EB.Subdue",
    "V_Arachnos.Barracuda_EB.Super_Leap",
    "V_Arachnos.Barracuda_EB.Resistance"
  ],
  "power_display_names": [
    "Wave of Cold",
    "Spiny Urchins",
    "Urchin Spray",
    "Psychic Coral Blast",
    "Subdue",
    "Super Leap",
    "Resistance"
  ],
  "power_levels": [
    0,
    0,
    0,
    0,
    0,
    0,
    0
  ],
  "powers": [
    {
      "power_category": "V_Arachnos",
      "power_set": "Barracuda_EB",
      "power": "*",
      "level": 0
    }
  ],
  "levels": [
    {
      "level": 20,
      "experience": 0,
      "display_names": [
        "Barracuda"
      ],
      "costumes": [
        "Arachnos_Barracuda"
      ]
    },
    {
      "level": 21,
      "experience": 0,
      "display_names": [
        "Barracuda"
      ],
      "costumes": [
        "Arachnos_Barracuda"
      ]
    },
    {
      "level": 22,
      "experience": 0,
      "display_names": [
        "Barracuda"
      ],
      "costumes": [
        "Arachnos_Barracuda"
      ]
    },
    {
      "level": 23,
      "experience": 0,
      "display_names": [
        "Barracuda"
      ],
      "costumes": [
        "Arachnos_Barracuda"
      ]
    },
    {
      "level": 24,
      "experience": 0,
      "display_names": [
        "Barracuda"
      ],
      "costumes": [
        "Arachnos_Barracuda"
      ]
    },
    {
      "level": 25,
      "experience": 0,
      "display_names": [
        "Barracuda"
      ],
      "costumes": [
        "Arachnos_Barracuda"
      ]
    },
    {
      "level": 26,
      "experience": 0,
      "display_names": [
        "Barracuda"
      ],
      "costumes": [
        "Arachnos_Barracuda"
      ]
    },
    {
      "level": 27,
      "experience": 0,
      "display_names": [
        "Barracuda"
      ],
      "costumes": [
        "Arachnos_Barracuda"
      ]
    },
    {
      "level": 28,
      "experience": 0,
      "display_names": [
        "Barracuda"
      ],
      "costumes": [
        "Arachnos_Barracuda"
      ]
    },
    {
      "level": 29,
      "experience": 0,
      "display_names": [
        "Barracuda"
      ],
      "costumes": [
        "Arachnos_Barracuda"
      ]
    },
    {
      "level": 30,
      "experience": 0,
      "display_names": [
        "Barracuda"
      ],
      "costumes": [
        "Arachnos_Barracuda"
      ]
    },
    {
      "level": 31,
      "experience": 0,
      "display_names": [
        "Barracuda"
      ],
      "costumes": [
        "Arachnos_Barracuda"
      ]
    },
    {
      "level": 32,
      "experience": 0,
      "display_names": [
        "Barracuda"
      ],
      "costumes": [
        "Arachnos_Barracuda"
      ]
    },
    {
      "level": 33,
      "experience": 0,
      "display_names": [
        "Barracuda"
      ],
      "costumes": [
        "Arachnos_Barracuda"
      ]
    },
    {
      "level": 34,
      "experience": 0,
      "display_names": [
        "Barracuda"
      ],
      "costumes": [
        "Arachnos_Barracuda"
      ]
    }
  ]
}