{
  "name": "Arachnos_Spectral_Minion_High",
  "gender": "GENDER_MALE",
  "description": "These Wolf Spiders have discovered a method to become living ghosts. Though they're not completely used to it, they've already begun to master their new ghostly powers.",
  "group_description": null,
  "display_class_name": null,
  "character_class_name": "minion_grunt",
  "ai_config": "Default_Ranged",
  "commandable_pet": false,
  "power_tags": [
    "HumanSkeleton",
    "Ghost",
    "Undead"
  ],
  "additional_rewards": [

  ],
  "skill_hp_rewards": [

  ],
  "skill_status_rewards": [

  ],
  "ally": "Monster",
  "gang": null,
  "reward_scale": 1.0,
  "game_exclusion": "None",
  "inactive_state_weapon": null,
  "ignores_combat_mods": false,
  "copy_creator_mods": false,
  "spawn_limit": 0,
  "spawn_limit_mission": 0,
  "ignore_av_to_eb_scaling": false,
  "can_zone": false,
  "custom_badge_stat": null,
  "badge_stat_flags": "DefaultBadgeStat",
  "rank": "VR_MINION",
  "power_full_names": [
    "V_Arachnos.Ghosts.Ethereal",
    "V_Arachnos.Ghosts.Resistance",
    "V_Arachnos.Ghosts.Fly",
    "V_Arachnos.Ghosts.Ghastly_Blast",
    "V_Arachnos.Ghosts.Smite",
    "V_Arachnos.Ghosts_High.Gloom",
    "V_Arachnos.Ghosts_High.Shadow_Punch"
  ],
  "power_display_names": [
    "Ethereal",
    "Resistance",
    "Fly",
    "Ghastly Blast",
    "Smite",
    "Gloom",
    "Shadow Punch"
  ],
  "power_levels": [
    0,
    0,
    0,
    0,
    0,
    0,
    0
  ],
  "powers": [
    {
      "power_category": "V_Arachnos",
      "power_set": "Ghosts",
      "power": "*",
      "level": 0
    },
    {
      "power_category": "V_Arachnos",
      "power_set": "Ghosts_High",
      "power": "*",
      "level": 0
    }
  ],
  "levels": [
    {
      "level": 10,
      "experience": 0,
      "display_names": [
        "Wolf Spider Ghost"
      ],
      "costumes": [
        "Ghost_Wolf_Minion_01",
        "Ghost_Wolf_Minion_02"
      ]
    },
    {
      "level": 11,
      "experience": 0,
      "display_names": [
        "Wolf Spider Ghost"
      ],
      "costumes": [
        "Ghost_Wolf_Minion_01",
        "Ghost_Wolf_Minion_02"
      ]
    },
    {
      "level": 12,
      "experience": 0,
      "display_names": [
        "Wolf Spider Ghost"
      ],
      "costumes": [
        "Ghost_Wolf_Minion_01",
        "Ghost_Wolf_Minion_02"
      ]
    },
    {
      "level": 13,
      "experience": 0,
      "display_names": [
        "Wolf Spider Ghost"
      ],
      "costumes": [
        "Ghost_Wolf_Minion_01",
        "Ghost_Wolf_Minion_02"
      ]
    },
    {
      "level": 14,
      "experience": 0,
      "display_names": [
        "Wolf Spider Ghost"
      ],
      "costumes": [
        "Ghost_Wolf_Minion_01",
        "Ghost_Wolf_Minion_02"
      ]
    },
    {
      "level": 15,
      "experience": 0,
      "display_names": [
        "Wolf Spider Ghost"
      ],
      "costumes": [
        "Ghost_Wolf_Minion_01",
        "Ghost_Wolf_Minion_02"
      ]
    },
    {
      "level": 16,
      "experience": 0,
      "display_names": [
        "Wolf Spider Ghost"
      ],
      "costumes": [
        "Ghost_Wolf_Minion_01",
        "Ghost_Wolf_Minion_02"
      ]
    },
    {
      "level": 17,
      "experience": 0,
      "display_names": [
        "Wolf Spider Ghost"
      ],
      "costumes": [
        "Ghost_Wolf_Minion_01",
        "Ghost_Wolf_Minion_02"
      ]
    },
    {
      "level": 18,
      "experience": 0,
      "display_names": [
        "Wolf Spider Ghost"
      ],
      "costumes": [
        "Ghost_Wolf_Minion_01",
        "Ghost_Wolf_Minion_02"
      ]
    }
  ]
}