{
  "name": "Arachnos_Wolf_Spider_Lieutenant_High",
  "gender": "GENDER_MALE",
  "description": "Tactical Operators are Wolf Spiders who have shown keen tactical sense and lead small detachments of Wolf Spiders.",
  "group_description": null,
  "display_class_name": null,
  "character_class_name": "lt_grunt",
  "ai_config": "Default_Ranged",
  "commandable_pet": false,
  "power_tags": [
    "Humanoid",
    "HumanSkeleton"
  ],
  "additional_rewards": [

  ],
  "skill_hp_rewards": [

  ],
  "skill_status_rewards": [

  ],
  "ally": "Monster",
  "gang": null,
  "reward_scale": 1.0,
  "game_exclusion": "None",
  "inactive_state_weapon": null,
  "ignores_combat_mods": false,
  "copy_creator_mods": false,
  "spawn_limit": -1,
  "spawn_limit_mission": -1,
  "ignore_av_to_eb_scaling": false,
  "can_zone": false,
  "custom_badge_stat": null,
  "badge_stat_flags": "DefaultBadgeStat",
  "rank": "VR_LIEUTENANT",
  "power_full_names": [
    "V_Arachnos.Wolf_Spider_Nullifier_Mace.Pulverize",
    "V_Arachnos.Wolf_Spider_Nullifier_Mace.Mace_Beam",
    "V_Arachnos.Wolf_Spider_Nullifier_Mace.Poisonous_Ray",
    "V_Arachnos.Wolf_Spider_Web_Grenade.Web_Grenade"
  ],
  "power_display_names": [
    "Pulverize",
    "Mace Beam",
    "Poisonous Ray",
    "Web Grenade"
  ],
  "power_levels": [
    0,
    0,
    0,
    0
  ],
  "powers": [
    {
      "power_category": "V_Arachnos",
      "power_set": "Wolf_Spider_Nullifier_Mace",
      "power": "*",
      "level": 0
    },
    {
      "power_category": "V_Arachnos",
      "power_set": "Wolf_Spider_Web_Grenade",
      "power": "Web_Grenade",
      "level": 0
    }
  ],
  "levels": [
    {
      "level": 21,
      "experience": 0,
      "display_names": [
        "Wolf Spider TacOps"
      ],
      "costumes": [
        "Wolf_Webslinger_01"
      ]
    },
    {
      "level": 22,
      "experience": 0,
      "display_names": [
        "Wolf Spider TacOps"
      ],
      "costumes": [
        "Wolf_Webslinger_01"
      ]
    },
    {
      "level": 23,
      "experience": 0,
      "display_names": [
        "Wolf Spider TacOps"
      ],
      "costumes": [
        "Wolf_Webslinger_01"
      ]
    },
    {
      "level": 24,
      "experience": 0,
      "display_names": [
        "Wolf Spider TacOps"
      ],
      "costumes": [
        "Wolf_Webslinger_01"
      ]
    },
    {
      "level": 25,
      "experience": 0,
      "display_names": [
        "Wolf Spider TacOps"
      ],
      "costumes": [
        "Wolf_Webslinger_01"
      ]
    },
    {
      "level": 26,
      "experience": 0,
      "display_names": [
        "Wolf Spider TacOps"
      ],
      "costumes": [
        "Wolf_Webslinger_01"
      ]
    },
    {
      "level": 27,
      "experience": 0,
      "display_names": [
        "Wolf Spider TacOps"
      ],
      "costumes": [
        "Wolf_Webslinger_01"
      ]
    },
    {
      "level": 28,
      "experience": 0,
      "display_names": [
        "Wolf Spider TacOps"
      ],
      "costumes": [
        "Wolf_Webslinger_01"
      ]
    },
    {
      "level": 29,
      "experience": 0,
      "display_names": [
        "Wolf Spider TacOps"
      ],
      "costumes": [
        "Wolf_Webslinger_01"
      ]
    }
  ]
}