{
  "name": "ArachnosEndgame_Tarantula_Queen",
  "gender": "GENDER_FEMALE",
  "description": "What terrible process pushes a woman to become one of these unholy terrors is a subject of much speculation. What is known is that their suits are little different from Tarantula Mistresses. Instead, it seems the user somehow suffers the upgrade. Tarantula Queens are all incredibly powerful, but also quite mad.",
  "group_description": null,
  "display_class_name": null,
  "character_class_name": "boss_praetoriangrunt",
  "ai_config": "Default_Ranged",
  "commandable_pet": false,
  "power_tags": [
    "Electronic"
  ],
  "additional_rewards": [

  ],
  "skill_hp_rewards": [

  ],
  "skill_status_rewards": [

  ],
  "ally": null,
  "gang": null,
  "reward_scale": 1.0,
  "game_exclusion": "None",
  "inactive_state_weapon": null,
  "ignores_combat_mods": false,
  "copy_creator_mods": false,
  "spawn_limit": -1,
  "spawn_limit_mission": -1,
  "ignore_av_to_eb_scaling": false,
  "can_zone": false,
  "custom_badge_stat": null,
  "badge_stat_flags": "DefaultBadgeStat",
  "rank": "VR_BOSS",
  "power_full_names": [
    "V_Arachnos.Tarantula_Queen.Psychic_Scream",
    "V_Arachnos.Tarantula_Queen.Telekinetic_blast",
    "V_Arachnos.Tarantula_Queen.Scramble_Thoughts",
    "V_Arachnos.Tarantula_Queen.Will_Domination",
    "V_Arachnos.Tarantula_Queen.Total_Domination",
    "V_Arachnos.Tarantula_Queen.Psychic_Wail",
    "V_Arachnos.Tarantula_Queen.Claw_Pierce",
    "V_Arachnos.Tarantula_Queen.Claw_Shred",
    "V_Arachnos.Tarantula_Queen.Mind_Link",
    "V_Arachnos.Tarantula_Queen.Armored_Exoskeleton"
  ],
  "power_display_names": [
    "Psychic Scream",
    "Telekinetic blast",
    "Scramble Thoughts",
    "Will Domination",
    "Total Domination",
    "Psychic Wail",
    "Claw Pierce",
    "Claw Shred",
    "Mind Link",
    "Armored Exoskeleton"
  ],
  "power_levels": [
    0,
    0,
    0,
    0,
    0,
    0,
    0,
    0,
    0,
    0
  ],
  "powers": [
    {
      "power_category": "V_Arachnos",
      "power_set": "Tarantula_Queen",
      "power": "*",
      "level": 0
    }
  ],
  "levels": [
    {
      "level": 50,
      "experience": 0,
      "display_names": [
        "Tarantula Queen"
      ],
      "costumes": [
        "Arachnos_Tarantulas_Boss"
      ]
    },
    {
      "level": 51,
      "experience": 0,
      "display_names": [
        "Tarantula Queen"
      ],
      "costumes": [
        "Arachnos_Tarantulas_Boss"
      ]
    },
    {
      "level": 52,
      "experience": 0,
      "display_names": [
        "Tarantula Queen"
      ],
      "costumes": [
        "Arachnos_Tarantulas_Boss"
      ]
    },
    {
      "level": 53,
      "experience": 0,
      "display_names": [
        "Tarantula Queen"
      ],
      "costumes": [
        "Arachnos_Tarantulas_Boss"
      ]
    },
    {
      "level": 54,
      "experience": 0,
      "display_names": [
        "Tarantula Queen"
      ],
      "costumes": [
        "Arachnos_Tarantulas_Boss"
      ]
    }
  ]
}