{
  "name": "Arachnos_Arbiter_Sands_Teleporting_Pet",
  "gender": "GENDER_MALE",
  "description": "Arbiter Sands is considered a somewhat unconventional member of the Arachnos Arbiter Corps. Though still completely dedicated to the will of Lord Recluse, Sands is known for using unusual and effective tactics. His status as an Arbiter makes him untouchable within Arachnos, for to harm an Arbiter is to attack the will of Lord Recluse himself..",
  "group_description": null,
  "display_class_name": "Villain",
  "character_class_name": "boss_signature_pets",
  "ai_config": "Default_Ranged",
  "commandable_pet": false,
  "power_tags": [
    "Humanoid",
    "HumanSkeleton",
    "Raid"
  ],
  "additional_rewards": [

  ],
  "skill_hp_rewards": [

  ],
  "skill_status_rewards": [

  ],
  "ally": "Monster",
  "gang": null,
  "reward_scale": 1.0,
  "game_exclusion": "None",
  "inactive_state_weapon": null,
  "ignores_combat_mods": false,
  "copy_creator_mods": false,
  "spawn_limit": 0,
  "spawn_limit_mission": 0,
  "ignore_av_to_eb_scaling": false,
  "can_zone": false,
  "custom_badge_stat": null,
  "badge_stat_flags": "DefaultBadgeStat",
  "rank": "VR_PET",
  "power_full_names": [
    "V_Arachnos.Wolf_Spider_Huntsman.Rifle_Butt",
    "V_Arachnos.Wolf_Spider_Huntsman.Shotgun",
    "V_Arachnos.Wolf_Spider_Grenade.Frag_Grenade",
    "V_Arachnos.Wolf_Spider_WideWebGrenade.Wide_Area_Web_Grenade",
    "V_Arachnos.Wolf_Spider_PoisonGrenade.Venom_Grenade",
    "V_Arachnos.ArbiterSands.Summon_Drones",
    "V_Arachnos.Villain_Teleport_End.Teleport",
    "V_Arachnos.AV_Resistances.Resistance"
  ],
  "power_display_names": [
    "Rifle Butt",
    "Shotgun",
    "Frag Grenade",
    "Wide Area Web Grenade",
    "Venom Grenade",
    "Summon Drones",
    "Teleport",
    "Resistance"
  ],
  "power_levels": [
    0,
    0,
    0,
    0,
    0,
    0,
    0,
    0
  ],
  "powers": [
    {
      "power_category": "V_Arachnos",
      "power_set": "Wolf_Spider_Huntsman",
      "power": "*",
      "level": 0
    },
    {
      "power_category": "V_Arachnos",
      "power_set": "Wolf_Spider_Grenade",
      "power": "Frag_Grenade",
      "level": 0
    },
    {
      "power_category": "V_Arachnos",
      "power_set": "Wolf_Spider_WideWebGrenade",
      "power": "Wide_Area_Web_Grenade",
      "level": 0
    },
    {
      "power_category": "V_Arachnos",
      "power_set": "Wolf_Spider_PoisonGrenade",
      "power": "Venom_Grenade",
      "level": 0
    },
    {
      "power_category": "V_Arachnos",
      "power_set": "ArbiterSands",
      "power": "*",
      "level": 0
    },
    {
      "power_category": "V_Arachnos",
      "power_set": "Villain_Teleport_End",
      "power": "*",
      "level": 0
    },
    {
      "power_category": "V_Arachnos",
      "power_set": "AV_Resistances",
      "power": "*",
      "level": 0
    }
  ],
  "levels": [
    {
      "level": 15,
      "experience": 0,
      "display_names": [
        "Arbiter Sands"
      ],
      "costumes": [
        "Model_Arbiter_Sands_Teleport"
      ]
    },
    {
      "level": 16,
      "experience": 0,
      "display_names": [
        "Arbiter Sands"
      ],
      "costumes": [
        "Model_Arbiter_Sands_Teleport"
      ]
    },
    {
      "level": 17,
      "experience": 0,
      "display_names": [
        "Arbiter Sands"
      ],
      "costumes": [
        "Model_Arbiter_Sands_Teleport"
      ]
    },
    {
      "level": 18,
      "experience": 0,
      "display_names": [
        "Arbiter Sands"
      ],
      "costumes": [
        "Model_Arbiter_Sands_Teleport"
      ]
    },
    {
      "level": 19,
      "experience": 0,
      "display_names": [
        "Arbiter Sands"
      ],
      "costumes": [
        "Model_Arbiter_Sands_Teleport"
      ]
    },
    {
      "level": 20,
      "experience": 0,
      "display_names": [
        "Arbiter Sands"
      ],
      "costumes": [
        "Model_Arbiter_Sands_Teleport"
      ]
    },
    {
      "level": 21,
      "experience": 0,
      "display_names": [
        "Arbiter Sands"
      ],
      "costumes": [
        "Model_Arbiter_Sands_Teleport"
      ]
    },
    {
      "level": 22,
      "experience": 0,
      "display_names": [
        "Arbiter Sands"
      ],
      "costumes": [
        "Model_Arbiter_Sands_Teleport"
      ]
    },
    {
      "level": 23,
      "experience": 0,
      "display_names": [
        "Arbiter Sands"
      ],
      "costumes": [
        "Model_Arbiter_Sands_Teleport"
      ]
    },
    {
      "level": 24,
      "experience": 0,
      "display_names": [
        "Arbiter Sands"
      ],
      "costumes": [
        "Model_Arbiter_Sands_Teleport"
      ]
    },
    {
      "level": 25,
      "experience": 0,
      "display_names": [
        "Arbiter Sands"
      ],
      "costumes": [
        "Model_Arbiter_Sands_Teleport"
      ]
    },
    {
      "level": 26,
      "experience": 0,
      "display_names": [
        "Arbiter Sands"
      ],
      "costumes": [
        "Model_Arbiter_Sands_Teleport"
      ]
    },
    {
      "level": 27,
      "experience": 0,
      "display_names": [
        "Arbiter Sands"
      ],
      "costumes": [
        "Model_Arbiter_Sands_Teleport"
      ]
    }
  ]
}