{
  "name": "Arachnos_Aeon_Clone_1",
  "gender": "GENDER_MALE",
  "description": "An unethical scientific genius, Dr. Aeon is not a man to be trifled with. Some think he may soon become a major player within Arachnos, assuming he survives the plans of his enemies.",
  "group_description": "Arachnos",
  "display_class_name": null,
  "character_class_name": "boss_elite",
  "ai_config": "Default_Melee",
  "commandable_pet": false,
  "power_tags": [
    "HumanSkeleton",
    "Human"
  ],
  "additional_rewards": [

  ],
  "skill_hp_rewards": [

  ],
  "skill_status_rewards": [

  ],
  "ally": "Monster",
  "gang": null,
  "reward_scale": 1.0,
  "game_exclusion": "None",
  "inactive_state_weapon": null,
  "ignores_combat_mods": false,
  "copy_creator_mods": false,
  "spawn_limit": 0,
  "spawn_limit_mission": 0,
  "ignore_av_to_eb_scaling": true,
  "can_zone": false,
  "custom_badge_stat": null,
  "badge_stat_flags": "DefaultBadgeStat",
  "rank": "VR_PET",
  "power_full_names": [
    "V_Arachnos.Aeon_Claws.Swipe",
    "V_Arachnos.Aeon_Claws.Strike",
    "V_Arachnos.Aeon_Claws.Slash",
    "V_Arachnos.Aeon_Claws.Spin",
    "V_Arachnos.Aeon_Claws.Eviscerate",
    "V_Arachnos.Aeon_Claws.Focus",
    "V_Arachnos.Aeon_Claws.Focused_Fighting",
    "V_Arachnos.Aeon_Claws.Unstoppable"
  ],
  "power_display_names": [
    "Swipe",
    "Strike",
    "Slash",
    "Spin",
    "Eviscerate",
    "Focus",
    "Focused Fighting",
    "Unstoppable"
  ],
  "power_levels": [
    0,
    0,
    0,
    0,
    0,
    0,
    0,
    0
  ],
  "powers": [
    {
      "power_category": "V_Arachnos",
      "power_set": "Aeon_Claws",
      "power": "*",
      "level": 0
    }
  ],
  "levels": [
    {
      "level": 46,
      "experience": 0,
      "display_names": [
        "Dr. Aeon"
      ],
      "costumes": [
        "Doctor_Aeon_1950",
        "Doctor_Aeon_1960",
        "Doctor_Aeon_1970",
        "Doctor_Aeon_1980",
        "Doctor_Aeon_1990",
        "Doctor_Aeon_Casual"
      ]
    },
    {
      "level": 47,
      "experience": 0,
      "display_names": [
        "Dr. Aeon"
      ],
      "costumes": [
        "Doctor_Aeon_1950",
        "Doctor_Aeon_1960",
        "Doctor_Aeon_1970",
        "Doctor_Aeon_1980",
        "Doctor_Aeon_1990",
        "Doctor_Aeon_Casual"
      ]
    },
    {
      "level": 48,
      "experience": 0,
      "display_names": [
        "Dr. Aeon"
      ],
      "costumes": [
        "Doctor_Aeon_1950",
        "Doctor_Aeon_1960",
        "Doctor_Aeon_1970",
        "Doctor_Aeon_1980",
        "Doctor_Aeon_1990",
        "Doctor_Aeon_Casual"
      ]
    },
    {
      "level": 49,
      "experience": 0,
      "display_names": [
        "Dr. Aeon"
      ],
      "costumes": [
        "Doctor_Aeon_1950",
        "Doctor_Aeon_1960",
        "Doctor_Aeon_1970",
        "Doctor_Aeon_1980",
        "Doctor_Aeon_1990",
        "Doctor_Aeon_Casual"
      ]
    },
    {
      "level": 50,
      "experience": 0,
      "display_names": [
        "Dr. Aeon"
      ],
      "costumes": [
        "Doctor_Aeon_1950",
        "Doctor_Aeon_1960",
        "Doctor_Aeon_1970",
        "Doctor_Aeon_1980",
        "Doctor_Aeon_1990",
        "Doctor_Aeon_Casual"
      ]
    },
    {
      "level": 51,
      "experience": 0,
      "display_names": [
        "Dr. Aeon"
      ],
      "costumes": [
        "Doctor_Aeon_1950",
        "Doctor_Aeon_1960",
        "Doctor_Aeon_1970",
        "Doctor_Aeon_1980",
        "Doctor_Aeon_1990",
        "Doctor_Aeon_Casual"
      ]
    },
    {
      "level": 52,
      "experience": 0,
      "display_names": [
        "Dr. Aeon"
      ],
      "costumes": [
        "Doctor_Aeon_1950",
        "Doctor_Aeon_1960",
        "Doctor_Aeon_1970",
        "Doctor_Aeon_1980",
        "Doctor_Aeon_1990",
        "Doctor_Aeon_Casual"
      ]
    },
    {
      "level": 53,
      "experience": 0,
      "display_names": [
        "Dr. Aeon"
      ],
      "costumes": [
        "Doctor_Aeon_1950",
        "Doctor_Aeon_1960",
        "Doctor_Aeon_1970",
        "Doctor_Aeon_1980",
        "Doctor_Aeon_1990",
        "Doctor_Aeon_Casual"
      ]
    },
    {
      "level": 54,
      "experience": 0,
      "display_names": [
        "Dr. Aeon"
      ],
      "costumes": [
        "Doctor_Aeon_1950",
        "Doctor_Aeon_1960",
        "Doctor_Aeon_1970",
        "Doctor_Aeon_1980",
        "Doctor_Aeon_1990",
        "Doctor_Aeon_Casual"
      ]
    }
  ]
}