{
  "name": "Arachnos_Night_Widow",
  "gender": "GENDER_MALE",
  "description": "Night Widows are trained in stealth, infiltration, disguise, and cold-blooded murder. Most of their victims never even see them coming.",
  "group_description": null,
  "display_class_name": null,
  "character_class_name": "boss_grunt",
  "ai_config": "Default_Melee",
  "commandable_pet": false,
  "power_tags": [
    "Humanoid",
    "HumanSkeleton"
  ],
  "additional_rewards": [

  ],
  "skill_hp_rewards": [

  ],
  "skill_status_rewards": [

  ],
  "ally": "Monster",
  "gang": null,
  "reward_scale": 1.33,
  "game_exclusion": "None",
  "inactive_state_weapon": null,
  "ignores_combat_mods": false,
  "copy_creator_mods": false,
  "spawn_limit": 1,
  "spawn_limit_mission": 1,
  "ignore_av_to_eb_scaling": false,
  "can_zone": false,
  "custom_badge_stat": null,
  "badge_stat_flags": "DefaultBadgeStat",
  "rank": "VR_BOSS",
  "power_full_names": [
    "V_Arachnos.Night_Widow.Stealth",
    "V_Arachnos.Night_Widow.Mental_Training",
    "V_Arachnos.Night_Widow.Smoke_Grenade",
    "V_Arachnos.Night_Widow.Mental_Blast",
    "V_Arachnos.Night_Widow.Psychic_Scream",
    "V_Arachnos.Night_Widow.Strike",
    "V_Arachnos.Night_Widow.Spin",
    "V_Arachnos.Night_Widow.Slash"
  ],
  "power_display_names": [
    "Stealth",
    "Mental Training",
    "Smoke Grenade",
    "Mental Blast",
    "Psychic Scream",
    "Strike",
    "Spin",
    "Slash"
  ],
  "power_levels": [
    0,
    0,
    0,
    0,
    0,
    0,
    0,
    0
  ],
  "powers": [
    {
      "power_category": "V_Arachnos",
      "power_set": "Night_Widow",
      "power": "*",
      "level": 0
    }
  ],
  "levels": [
    {
      "level": 21,
      "experience": 0,
      "display_names": [
        "Night Widow"
      ],
      "costumes": [
        "Arachnos_Widow_05"
      ]
    },
    {
      "level": 22,
      "experience": 0,
      "display_names": [
        "Night Widow"
      ],
      "costumes": [
        "Arachnos_Widow_05"
      ]
    },
    {
      "level": 23,
      "experience": 0,
      "display_names": [
        "Night Widow"
      ],
      "costumes": [
        "Arachnos_Widow_05"
      ]
    },
    {
      "level": 24,
      "experience": 0,
      "display_names": [
        "Night Widow"
      ],
      "costumes": [
        "Arachnos_Widow_05"
      ]
    }
  ]
}