{
  "name": "Arachnos_Frag_Missile_Turret",
  "gender": "GENDER_MALE",
  "description": "Turrets like these are rumored to be based on designs stolen (or bought) from Crey industries. This one matches the design for a High-Explosive Missile Turret. The Crey security catalog entry reads: 'When you need maximum defense and cost is no concern, the Hi-Explosive Missile Turret is the premier choice. It's high-powered explosive rockets can ruin the day for nearly any attacker.'",
  "group_description": null,
  "display_class_name": null,
  "character_class_name": "boss_turret",
  "ai_config": "Turrets_Base",
  "commandable_pet": false,
  "power_tags": [
    "Electronic"
  ],
  "additional_rewards": [

  ],
  "skill_hp_rewards": [

  ],
  "skill_status_rewards": [

  ],
  "ally": "Villain",
  "gang": null,
  "reward_scale": 1.0,
  "game_exclusion": "None",
  "inactive_state_weapon": null,
  "ignores_combat_mods": false,
  "copy_creator_mods": false,
  "spawn_limit": 0,
  "spawn_limit_mission": 0,
  "ignore_av_to_eb_scaling": false,
  "can_zone": false,
  "custom_badge_stat": null,
  "badge_stat_flags": "DefaultBadgeStat",
  "rank": "VR_BOSS",
  "power_full_names": [
    "Turrets.Turret_Inherent.Resistance",
    "Turrets.Frag_Missile_Turret.Swarm_Missile",
    "Turrets.Evil_Turret_FlameThrower.Flame_Thrower"
  ],
  "power_display_names": [
    "Resistance",
    "Swarm Missile",
    "Flame Thrower"
  ],
  "power_levels": [
    0,
    0,
    0
  ],
  "powers": [
    {
      "power_category": "Turrets",
      "power_set": "Turret_Inherent",
      "power": "*",
      "level": 0
    },
    {
      "power_category": "Turrets",
      "power_set": "Frag_Missile_Turret",
      "power": "*",
      "level": 0
    },
    {
      "power_category": "Turrets",
      "power_set": "Evil_Turret_FlameThrower",
      "power": "*",
      "level": 0
    }
  ],
  "levels": [
    {
      "level": 1,
      "experience": 0,
      "display_names": [
        "High-Explosive Missile Turret"
      ],
      "costumes": [
        "V_Arachnos_Missile_Turrets"
      ]
    },
    {
      "level": 2,
      "experience": 0,
      "display_names": [
        "High-Explosive Missile Turret"
      ],
      "costumes": [
        "V_Arachnos_Missile_Turrets"
      ]
    },
    {
      "level": 3,
      "experience": 0,
      "display_names": [
        "High-Explosive Missile Turret"
      ],
      "costumes": [
        "V_Arachnos_Missile_Turrets"
      ]
    },
    {
      "level": 4,
      "experience": 0,
      "display_names": [
        "High-Explosive Missile Turret"
      ],
      "costumes": [
        "V_Arachnos_Missile_Turrets"
      ]
    },
    {
      "level": 5,
      "experience": 0,
      "display_names": [
        "High-Explosive Missile Turret"
      ],
      "costumes": [
        "V_Arachnos_Missile_Turrets"
      ]
    },
    {
      "level": 6,
      "experience": 0,
      "display_names": [
        "High-Explosive Missile Turret"
      ],
      "costumes": [
        "V_Arachnos_Missile_Turrets"
      ]
    },
    {
      "level": 7,
      "experience": 0,
      "display_names": [
        "High-Explosive Missile Turret"
      ],
      "costumes": [
        "V_Arachnos_Missile_Turrets"
      ]
    },
    {
      "level": 8,
      "experience": 0,
      "display_names": [
        "High-Explosive Missile Turret"
      ],
      "costumes": [
        "V_Arachnos_Missile_Turrets"
      ]
    },
    {
      "level": 9,
      "experience": 0,
      "display_names": [
        "High-Explosive Missile Turret"
      ],
      "costumes": [
        "V_Arachnos_Missile_Turrets"
      ]
    },
    {
      "level": 10,
      "experience": 0,
      "display_names": [
        "High-Explosive Missile Turret"
      ],
      "costumes": [
        "V_Arachnos_Missile_Turrets"
      ]
    },
    {
      "level": 11,
      "experience": 0,
      "display_names": [
        "High-Explosive Missile Turret"
      ],
      "costumes": [
        "V_Arachnos_Missile_Turrets"
      ]
    },
    {
      "level": 12,
      "experience": 0,
      "display_names": [
        "High-Explosive Missile Turret"
      ],
      "costumes": [
        "V_Arachnos_Missile_Turrets"
      ]
    },
    {
      "level": 13,
      "experience": 0,
      "display_names": [
        "High-Explosive Missile Turret"
      ],
      "costumes": [
        "V_Arachnos_Missile_Turrets"
      ]
    },
    {
      "level": 14,
      "experience": 0,
      "display_names": [
        "High-Explosive Missile Turret"
      ],
      "costumes": [
        "V_Arachnos_Missile_Turrets"
      ]
    },
    {
      "level": 15,
      "experience": 0,
      "display_names": [
        "High-Explosive Missile Turret"
      ],
      "costumes": [
        "V_Arachnos_Missile_Turrets"
      ]
    },
    {
      "level": 16,
      "experience": 0,
      "display_names": [
        "High-Explosive Missile Turret"
      ],
      "costumes": [
        "V_Arachnos_Missile_Turrets"
      ]
    },
    {
      "level": 17,
      "experience": 0,
      "display_names": [
        "High-Explosive Missile Turret"
      ],
      "costumes": [
        "V_Arachnos_Missile_Turrets"
      ]
    },
    {
      "level": 18,
      "experience": 0,
      "display_names": [
        "High-Explosive Missile Turret"
      ],
      "costumes": [
        "V_Arachnos_Missile_Turrets"
      ]
    },
    {
      "level": 19,
      "experience": 0,
      "display_names": [
        "High-Explosive Missile Turret"
      ],
      "costumes": [
        "V_Arachnos_Missile_Turrets"
      ]
    },
    {
      "level": 20,
      "experience": 0,
      "display_names": [
        "High-Explosive Missile Turret"
      ],
      "costumes": [
        "V_Arachnos_Missile_Turrets"
      ]
    },
    {
      "level": 21,
      "experience": 0,
      "display_names": [
        "High-Explosive Missile Turret"
      ],
      "costumes": [
        "V_Arachnos_Missile_Turrets"
      ]
    },
    {
      "level": 22,
      "experience": 0,
      "display_names": [
        "High-Explosive Missile Turret"
      ],
      "costumes": [
        "V_Arachnos_Missile_Turrets"
      ]
    },
    {
      "level": 23,
      "experience": 0,
      "display_names": [
        "High-Explosive Missile Turret"
      ],
      "costumes": [
        "V_Arachnos_Missile_Turrets"
      ]
    },
    {
      "level": 24,
      "experience": 0,
      "display_names": [
        "High-Explosive Missile Turret"
      ],
      "costumes": [
        "V_Arachnos_Missile_Turrets"
      ]
    },
    {
      "level": 25,
      "experience": 0,
      "display_names": [
        "High-Explosive Missile Turret"
      ],
      "costumes": [
        "V_Arachnos_Missile_Turrets"
      ]
    },
    {
      "level": 26,
      "experience": 0,
      "display_names": [
        "High-Explosive Missile Turret"
      ],
      "costumes": [
        "V_Arachnos_Missile_Turrets"
      ]
    },
    {
      "level": 27,
      "experience": 0,
      "display_names": [
        "High-Explosive Missile Turret"
      ],
      "costumes": [
        "V_Arachnos_Missile_Turrets"
      ]
    },
    {
      "level": 28,
      "experience": 0,
      "display_names": [
        "High-Explosive Missile Turret"
      ],
      "costumes": [
        "V_Arachnos_Missile_Turrets"
      ]
    },
    {
      "level": 29,
      "experience": 0,
      "display_names": [
        "High-Explosive Missile Turret"
      ],
      "costumes": [
        "V_Arachnos_Missile_Turrets"
      ]
    },
    {
      "level": 30,
      "experience": 0,
      "display_names": [
        "High-Explosive Missile Turret"
      ],
      "costumes": [
        "V_Arachnos_Missile_Turrets"
      ]
    },
    {
      "level": 31,
      "experience": 0,
      "display_names": [
        "High-Explosive Missile Turret"
      ],
      "costumes": [
        "V_Arachnos_Missile_Turrets"
      ]
    },
    {
      "level": 32,
      "experience": 0,
      "display_names": [
        "High-Explosive Missile Turret"
      ],
      "costumes": [
        "V_Arachnos_Missile_Turrets"
      ]
    },
    {
      "level": 33,
      "experience": 0,
      "display_names": [
        "High-Explosive Missile Turret"
      ],
      "costumes": [
        "V_Arachnos_Missile_Turrets"
      ]
    },
    {
      "level": 34,
      "experience": 0,
      "display_names": [
        "High-Explosive Missile Turret"
      ],
      "costumes": [
        "V_Arachnos_Missile_Turrets"
      ]
    },
    {
      "level": 35,
      "experience": 0,
      "display_names": [
        "High-Explosive Missile Turret"
      ],
      "costumes": [
        "V_Arachnos_Missile_Turrets"
      ]
    },
    {
      "level": 36,
      "experience": 0,
      "display_names": [
        "High-Explosive Missile Turret"
      ],
      "costumes": [
        "V_Arachnos_Missile_Turrets"
      ]
    },
    {
      "level": 37,
      "experience": 0,
      "display_names": [
        "High-Explosive Missile Turret"
      ],
      "costumes": [
        "V_Arachnos_Missile_Turrets"
      ]
    },
    {
      "level": 38,
      "experience": 0,
      "display_names": [
        "High-Explosive Missile Turret"
      ],
      "costumes": [
        "V_Arachnos_Missile_Turrets"
      ]
    },
    {
      "level": 39,
      "experience": 0,
      "display_names": [
        "High-Explosive Missile Turret"
      ],
      "costumes": [
        "V_Arachnos_Missile_Turrets"
      ]
    },
    {
      "level": 40,
      "experience": 0,
      "display_names": [
        "High-Explosive Missile Turret"
      ],
      "costumes": [
        "V_Arachnos_Missile_Turrets"
      ]
    },
    {
      "level": 41,
      "experience": 0,
      "display_names": [
        "High-Explosive Missile Turret"
      ],
      "costumes": [
        "V_Arachnos_Missile_Turrets"
      ]
    },
    {
      "level": 42,
      "experience": 0,
      "display_names": [
        "High-Explosive Missile Turret"
      ],
      "costumes": [
        "V_Arachnos_Missile_Turrets"
      ]
    },
    {
      "level": 43,
      "experience": 0,
      "display_names": [
        "High-Explosive Missile Turret"
      ],
      "costumes": [
        "V_Arachnos_Missile_Turrets"
      ]
    },
    {
      "level": 44,
      "experience": 0,
      "display_names": [
        "High-Explosive Missile Turret"
      ],
      "costumes": [
        "V_Arachnos_Missile_Turrets"
      ]
    },
    {
      "level": 45,
      "experience": 0,
      "display_names": [
        "High-Explosive Missile Turret"
      ],
      "costumes": [
        "V_Arachnos_Missile_Turrets"
      ]
    },
    {
      "level": 46,
      "experience": 0,
      "display_names": [
        "High-Explosive Missile Turret"
      ],
      "costumes": [
        "V_Arachnos_Missile_Turrets"
      ]
    },
    {
      "level": 47,
      "experience": 0,
      "display_names": [
        "High-Explosive Missile Turret"
      ],
      "costumes": [
        "V_Arachnos_Missile_Turrets"
      ]
    },
    {
      "level": 48,
      "experience": 0,
      "display_names": [
        "High-Explosive Missile Turret"
      ],
      "costumes": [
        "V_Arachnos_Missile_Turrets"
      ]
    },
    {
      "level": 49,
      "experience": 0,
      "display_names": [
        "High-Explosive Missile Turret"
      ],
      "costumes": [
        "V_Arachnos_Missile_Turrets"
      ]
    },
    {
      "level": 50,
      "experience": 0,
      "display_names": [
        "High-Explosive Missile Turret"
      ],
      "costumes": [
        "V_Arachnos_Missile_Turrets"
      ]
    },
    {
      "level": 51,
      "experience": 0,
      "display_names": [
        "High-Explosive Missile Turret"
      ],
      "costumes": [
        "V_Arachnos_Missile_Turrets"
      ]
    },
    {
      "level": 52,
      "experience": 0,
      "display_names": [
        "High-Explosive Missile Turret"
      ],
      "costumes": [
        "V_Arachnos_Missile_Turrets"
      ]
    },
    {
      "level": 53,
      "experience": 0,
      "display_names": [
        "High-Explosive Missile Turret"
      ],
      "costumes": [
        "V_Arachnos_Missile_Turrets"
      ]
    },
    {
      "level": 54,
      "experience": 0,
      "display_names": [
        "High-Explosive Missile Turret"
      ],
      "costumes": [
        "V_Arachnos_Missile_Turrets"
      ]
    }
  ]
}