{
  "name": "ArachnosEndgame_Bane_Spider_Clobber",
  "gender": "GENDER_MALE",
  "description": "Taken from the ranks of the Wolf Spiders, Bane Spider Scouts are given specialized covert operations training. They are elite spies used by Lord Recluse to monitor activities both on the Rogue Isles and beyond.",
  "group_description": null,
  "display_class_name": null,
  "character_class_name": "lt_praetoriangrunt",
  "ai_config": "Default_Melee",
  "commandable_pet": false,
  "power_tags": [

  ],
  "additional_rewards": [

  ],
  "skill_hp_rewards": [

  ],
  "skill_status_rewards": [

  ],
  "ally": null,
  "gang": null,
  "reward_scale": 1.0,
  "game_exclusion": "None",
  "inactive_state_weapon": null,
  "ignores_combat_mods": false,
  "copy_creator_mods": false,
  "spawn_limit": -1,
  "spawn_limit_mission": -1,
  "ignore_av_to_eb_scaling": false,
  "can_zone": false,
  "custom_badge_stat": null,
  "badge_stat_flags": "DefaultBadgeStat",
  "rank": "VR_LIEUTENANT",
  "power_full_names": [
    "V_Arachnos.Bane_Spider_Minion.Body_Armor",
    "V_Arachnos.Bane_Spider_Minion.Bash",
    "V_Arachnos.Bane_Spider_Minion.Pulverize",
    "V_Arachnos.Bane_Spider_Minion.Mace_Beam",
    "V_Arachnos.Bane_Spider_Minion.Web_Grenade",
    "V_Arachnos.Bane_Spider_Lt.Mace_Beam_Volley",
    "V_Arachnos.Bane_Spider_Lt.Poisonous_Ray",
    "V_Arachnos.Bane_Spider_Lt.Surveillance",
    "V_Arachnos.Bane_Spider_Lt.Hide",
    "V_Arachnos.Bane_Spider_Lt.Placate",
    "V_Arachnos.Bane_Spider_Lt_Clobber.Clobber"
  ],
  "power_display_names": [
    "Body Armor",
    "Bash",
    "Pulverize",
    "Mace Beam",
    "Web Grenade",
    "Mace Beam Volley",
    "Poisonous Ray",
    "Surveillance",
    "Hide",
    "Placate",
    "Clobber"
  ],
  "power_levels": [
    0,
    0,
    0,
    0,
    0,
    0,
    0,
    0,
    0,
    0,
    0
  ],
  "powers": [
    {
      "power_category": "V_Arachnos",
      "power_set": "Bane_Spider_Minion",
      "power": "*",
      "level": 0
    },
    {
      "power_category": "V_Arachnos",
      "power_set": "Bane_Spider_Lt",
      "power": "*",
      "level": 0
    },
    {
      "power_category": "V_Arachnos",
      "power_set": "Bane_Spider_Lt_Clobber",
      "power": "*",
      "level": 0
    }
  ],
  "levels": [
    {
      "level": 50,
      "experience": 0,
      "display_names": [
        "Bane Spider Scout"
      ],
      "costumes": [
        "Arachnos_Bane_LT"
      ]
    },
    {
      "level": 51,
      "experience": 0,
      "display_names": [
        "Bane Spider Scout"
      ],
      "costumes": [
        "Arachnos_Bane_LT"
      ]
    },
    {
      "level": 52,
      "experience": 0,
      "display_names": [
        "Bane Spider Scout"
      ],
      "costumes": [
        "Arachnos_Bane_LT"
      ]
    },
    {
      "level": 53,
      "experience": 0,
      "display_names": [
        "Bane Spider Scout"
      ],
      "costumes": [
        "Arachnos_Bane_LT"
      ]
    },
    {
      "level": 54,
      "experience": 0,
      "display_names": [
        "Bane Spider Scout"
      ],
      "costumes": [
        "Arachnos_Bane_LT"
      ]
    }
  ]
}