{
  "name": "ArachnosEndgame_Mu_Striker",
  "gender": "GENDER_MALE",
  "description": "Strikers are descendents of the long-lost Mu, drafted into Arachnos service to fight both mystic heroes and the troublesome Circle of Thorns.",
  "group_description": null,
  "display_class_name": null,
  "character_class_name": "minion_praetoriangrunt",
  "ai_config": "Default_Ranged",
  "commandable_pet": false,
  "power_tags": [
    "Humanoid"
  ],
  "additional_rewards": [

  ],
  "skill_hp_rewards": [

  ],
  "skill_status_rewards": [

  ],
  "ally": null,
  "gang": null,
  "reward_scale": 1.0,
  "game_exclusion": "None",
  "inactive_state_weapon": null,
  "ignores_combat_mods": false,
  "copy_creator_mods": false,
  "spawn_limit": -1,
  "spawn_limit_mission": -1,
  "ignore_av_to_eb_scaling": false,
  "can_zone": false,
  "custom_badge_stat": null,
  "badge_stat_flags": "DefaultBadgeStat",
  "rank": "VR_MINION",
  "power_full_names": [
    "V_Arachnos.Mu_Small_Attack.Lightning_Bolt",
    "V_Arachnos.Mu_Inherent.Resistance",
    "V_Arachnos.Mu_Defense.Lightning_Armor",
    "V_Arachnos.Mu_Flight.Fly",
    "V_Arachnos.Mu_Large_Attack.Lightning_Blast"
  ],
  "power_display_names": [
    "Lightning Bolt",
    "Resistance",
    "Lightning Armor",
    "Fly",
    "Lightning Blast"
  ],
  "power_levels": [
    0,
    0,
    0,
    0,
    0
  ],
  "powers": [
    {
      "power_category": "V_Arachnos",
      "power_set": "Mu_Small_Attack",
      "power": "*",
      "level": 0
    },
    {
      "power_category": "V_Arachnos",
      "power_set": "Mu_Inherent",
      "power": "*",
      "level": 0
    },
    {
      "power_category": "V_Arachnos",
      "power_set": "Mu_Defense",
      "power": "*",
      "level": 0
    },
    {
      "power_category": "V_Arachnos",
      "power_set": "Mu_Flight",
      "power": "*",
      "level": 0
    },
    {
      "power_category": "V_Arachnos",
      "power_set": "Mu_Large_Attack",
      "power": "*",
      "level": 0
    }
  ],
  "levels": [
    {
      "level": 50,
      "experience": 0,
      "display_names": [
        "Mu Striker"
      ],
      "costumes": [
        "Arachnos_MuMystic_01"
      ]
    },
    {
      "level": 51,
      "experience": 0,
      "display_names": [
        "Mu Striker"
      ],
      "costumes": [
        "Arachnos_MuMystic_01"
      ]
    },
    {
      "level": 52,
      "experience": 0,
      "display_names": [
        "Mu Striker"
      ],
      "costumes": [
        "Arachnos_MuMystic_01"
      ]
    },
    {
      "level": 53,
      "experience": 0,
      "display_names": [
        "Mu Striker"
      ],
      "costumes": [
        "Arachnos_MuMystic_01"
      ]
    },
    {
      "level": 54,
      "experience": 0,
      "display_names": [
        "Mu Striker"
      ],
      "costumes": [
        "Arachnos_MuMystic_01"
      ]
    }
  ]
}