{
  "name": "Arachnos_Mako_Boss_NoScale",
  "gender": "GENDER_MALE",
  "description": "Gideon Ray is a savage mutant who has evolved into what can only be described as a humanoid shark. His acts are even more terrible than his appearance, and few foes are even identifiable once Mako is through with them. Mako is responsible for the death of Sharkhead Isle's most famous hero, Scrapyard.",
  "group_description": null,
  "display_class_name": "Patron",
  "character_class_name": "boss_grunt",
  "ai_config": "Signatures_Melee",
  "commandable_pet": false,
  "power_tags": [
    "HumanSkeleton"
  ],
  "additional_rewards": [

  ],
  "skill_hp_rewards": [

  ],
  "skill_status_rewards": [

  ],
  "ally": null,
  "gang": null,
  "reward_scale": 1.0,
  "game_exclusion": "None",
  "inactive_state_weapon": null,
  "ignores_combat_mods": false,
  "copy_creator_mods": false,
  "spawn_limit": 0,
  "spawn_limit_mission": 0,
  "ignore_av_to_eb_scaling": true,
  "can_zone": false,
  "custom_badge_stat": null,
  "badge_stat_flags": "DefaultBadgeStat",
  "rank": "VR_BOSS",
  "power_full_names": [
    "V_Arachnos.AV_Resistances.Resistance",
    "V_Arachnos.Mako.Strike",
    "V_Arachnos.Mako.Spin",
    "V_Arachnos.Mako.Follow_Up",
    "V_Arachnos.Mako.Eviscerate",
    "V_Arachnos.Mako.Spirit_Shark",
    "V_Arachnos.Mako.Circle_of_Sharks",
    "V_Arachnos.Mako.Chum_Attack",
    "V_Arachnos.Mako.Placate",
    "V_FreedomPhalanx.Hero_Teleport.Teleport"
  ],
  "power_display_names": [
    "Resistance",
    "Strike",
    "Spin",
    "Follow Up",
    "Eviscerate",
    "Spirit Shark",
    "Circle of Sharks",
    "Chum Attack",
    "Placate",
    "Teleport"
  ],
  "power_levels": [
    0,
    0,
    0,
    0,
    0,
    0,
    0,
    0,
    0,
    0
  ],
  "powers": [
    {
      "power_category": "V_Arachnos",
      "power_set": "AV_Resistances",
      "power": "*",
      "level": 0
    },
    {
      "power_category": "V_Arachnos",
      "power_set": "Mako",
      "power": "Strike",
      "level": 0
    },
    {
      "power_category": "V_Arachnos",
      "power_set": "Mako",
      "power": "Spin",
      "level": 0
    },
    {
      "power_category": "V_Arachnos",
      "power_set": "Mako",
      "power": "Follow_Up",
      "level": 0
    },
    {
      "power_category": "V_Arachnos",
      "power_set": "Mako",
      "power": "Eviscerate",
      "level": 0
    },
    {
      "power_category": "V_Arachnos",
      "power_set": "Mako",
      "power": "Spirit_Shark",
      "level": 0
    },
    {
      "power_category": "V_Arachnos",
      "power_set": "Mako",
      "power": "Circle_Of_Sharks",
      "level": 0
    },
    {
      "power_category": "V_Arachnos",
      "power_set": "Mako",
      "power": "Chum_Attack",
      "level": 0
    },
    {
      "power_category": "V_Arachnos",
      "power_set": "Mako",
      "power": "Placate",
      "level": 0
    },
    {
      "power_category": "V_FreedomPhalanx",
      "power_set": "Hero_Teleport",
      "power": "*",
      "level": 0
    }
  ],
  "levels": [
    {
      "level": 40,
      "experience": 0,
      "display_names": [
        "Captain Mako"
      ],
      "costumes": [
        "Signature_Captain_Mako"
      ]
    },
    {
      "level": 41,
      "experience": 0,
      "display_names": [
        "Captain Mako"
      ],
      "costumes": [
        "Signature_Captain_Mako"
      ]
    },
    {
      "level": 42,
      "experience": 0,
      "display_names": [
        "Captain Mako"
      ],
      "costumes": [
        "Signature_Captain_Mako"
      ]
    },
    {
      "level": 43,
      "experience": 0,
      "display_names": [
        "Captain Mako"
      ],
      "costumes": [
        "Signature_Captain_Mako"
      ]
    },
    {
      "level": 44,
      "experience": 0,
      "display_names": [
        "Captain Mako"
      ],
      "costumes": [
        "Signature_Captain_Mako"
      ]
    },
    {
      "level": 45,
      "experience": 0,
      "display_names": [
        "Captain Mako"
      ],
      "costumes": [
        "Signature_Captain_Mako"
      ]
    },
    {
      "level": 46,
      "experience": 0,
      "display_names": [
        "Captain Mako"
      ],
      "costumes": [
        "Signature_Captain_Mako"
      ]
    },
    {
      "level": 47,
      "experience": 0,
      "display_names": [
        "Captain Mako"
      ],
      "costumes": [
        "Signature_Captain_Mako"
      ]
    },
    {
      "level": 48,
      "experience": 0,
      "display_names": [
        "Captain Mako"
      ],
      "costumes": [
        "Signature_Captain_Mako"
      ]
    },
    {
      "level": 49,
      "experience": 0,
      "display_names": [
        "Captain Mako"
      ],
      "costumes": [
        "Signature_Captain_Mako"
      ]
    },
    {
      "level": 50,
      "experience": 0,
      "display_names": [
        "Captain Mako"
      ],
      "costumes": [
        "Signature_Captain_Mako"
      ]
    },
    {
      "level": 51,
      "experience": 0,
      "display_names": [
        "Captain Mako"
      ],
      "costumes": [
        "Signature_Captain_Mako"
      ]
    },
    {
      "level": 52,
      "experience": 0,
      "display_names": [
        "Captain Mako"
      ],
      "costumes": [
        "Signature_Captain_Mako"
      ]
    },
    {
      "level": 53,
      "experience": 0,
      "display_names": [
        "Captain Mako"
      ],
      "costumes": [
        "Signature_Captain_Mako"
      ]
    },
    {
      "level": 54,
      "experience": 0,
      "display_names": [
        "Captain Mako"
      ],
      "costumes": [
        "Signature_Captain_Mako"
      ]
    }
  ]
}