{
  "name": "Arachnoids_Arachnoid",
  "gender": "GENDER_MALE",
  "description": "Lord Recluse guards the secrets of the Arachnoids closely, but what is known is that they were created in Project Fury. Some speculate this experimental program was designed to create soldiers in Lord Recluse's image, but if this is true, the results so far are hideously flawed.",
  "group_description": null,
  "display_class_name": null,
  "character_class_name": "minion_grunt",
  "ai_config": "Default_Melee",
  "commandable_pet": false,
  "power_tags": [
    "Humanoid",
    "HumanSkeleton"
  ],
  "additional_rewards": [

  ],
  "skill_hp_rewards": [

  ],
  "skill_status_rewards": [

  ],
  "ally": null,
  "gang": null,
  "reward_scale": 1.1,
  "game_exclusion": "None",
  "inactive_state_weapon": null,
  "ignores_combat_mods": false,
  "copy_creator_mods": false,
  "spawn_limit": -1,
  "spawn_limit_mission": -1,
  "ignore_av_to_eb_scaling": false,
  "can_zone": false,
  "custom_badge_stat": null,
  "badge_stat_flags": "DefaultBadgeStat",
  "rank": "VR_MINION",
  "power_full_names": [
    "V_Arachnos.Arachnoid_Minion.Claw_1",
    "V_Arachnos.Arachnoid_Minion.Claw_2",
    "V_Arachnos.Arachnoid_Minion.Barb_1",
    "V_Arachnos.Arachnoid_Minion.Barb_2",
    "V_Arachnos.Arachnoid_Minion.Super_Jumping",
    "V_Arachnos.Arachnoid_Minion.Resistance"
  ],
  "power_display_names": [
    "Claw",
    "Claw",
    "Venom Barb",
    "Venom Barb",
    "Super Jumping",
    "Resistance"
  ],
  "power_levels": [
    0,
    0,
    0,
    0,
    0,
    0
  ],
  "powers": [
    {
      "power_category": "V_Arachnos",
      "power_set": "Arachnoid_Minion",
      "power": "*",
      "level": 0
    }
  ],
  "levels": [
    {
      "level": 30,
      "experience": 0,
      "display_names": [
        "Arachnoid"
      ],
      "costumes": [
        "Arachnos_Arachnoid_01"
      ]
    },
    {
      "level": 31,
      "experience": 0,
      "display_names": [
        "Arachnoid"
      ],
      "costumes": [
        "Arachnos_Arachnoid_01"
      ]
    },
    {
      "level": 32,
      "experience": 0,
      "display_names": [
        "Arachnoid"
      ],
      "costumes": [
        "Arachnos_Arachnoid_01"
      ]
    },
    {
      "level": 33,
      "experience": 0,
      "display_names": [
        "Arachnoid"
      ],
      "costumes": [
        "Arachnos_Arachnoid_01"
      ]
    },
    {
      "level": 34,
      "experience": 0,
      "display_names": [
        "Arachnoid"
      ],
      "costumes": [
        "Arachnos_Arachnoid_01"
      ]
    },
    {
      "level": 35,
      "experience": 0,
      "display_names": [
        "Arachnoid"
      ],
      "costumes": [
        "Arachnos_Arachnoid_01"
      ]
    },
    {
      "level": 36,
      "experience": 0,
      "display_names": [
        "Arachnoid"
      ],
      "costumes": [
        "Arachnos_Arachnoid_01"
      ]
    },
    {
      "level": 37,
      "experience": 0,
      "display_names": [
        "Arachnoid"
      ],
      "costumes": [
        "Arachnos_Arachnoid_01"
      ]
    },
    {
      "level": 38,
      "experience": 0,
      "display_names": [
        "Arachnoid"
      ],
      "costumes": [
        "Arachnos_Arachnoid_01"
      ]
    },
    {
      "level": 39,
      "experience": 0,
      "display_names": [
        "Arachnoid"
      ],
      "costumes": [
        "Arachnos_Arachnoid_01"
      ]
    },
    {
      "level": 40,
      "experience": 0,
      "display_names": [
        "Arachnoid"
      ],
      "costumes": [
        "Arachnos_Arachnoid_01"
      ]
    },
    {
      "level": 41,
      "experience": 0,
      "display_names": [
        "Arachnoid"
      ],
      "costumes": [
        "Arachnos_Arachnoid_01"
      ]
    },
    {
      "level": 42,
      "experience": 0,
      "display_names": [
        "Arachnoid"
      ],
      "costumes": [
        "Arachnos_Arachnoid_01"
      ]
    },
    {
      "level": 43,
      "experience": 0,
      "display_names": [
        "Arachnoid"
      ],
      "costumes": [
        "Arachnos_Arachnoid_01"
      ]
    },
    {
      "level": 44,
      "experience": 0,
      "display_names": [
        "Arachnoid"
      ],
      "costumes": [
        "Arachnos_Arachnoid_01"
      ]
    },
    {
      "level": 45,
      "experience": 0,
      "display_names": [
        "Arachnoid"
      ],
      "costumes": [
        "Arachnos_Arachnoid_01"
      ]
    },
    {
      "level": 46,
      "experience": 0,
      "display_names": [
        "Arachnoid"
      ],
      "costumes": [
        "Arachnos_Arachnoid_01"
      ]
    },
    {
      "level": 47,
      "experience": 0,
      "display_names": [
        "Arachnoid"
      ],
      "costumes": [
        "Arachnos_Arachnoid_01"
      ]
    },
    {
      "level": 48,
      "experience": 0,
      "display_names": [
        "Arachnoid"
      ],
      "costumes": [
        "Arachnos_Arachnoid_01"
      ]
    },
    {
      "level": 49,
      "experience": 0,
      "display_names": [
        "Arachnoid"
      ],
      "costumes": [
        "Arachnos_Arachnoid_01"
      ]
    },
    {
      "level": 50,
      "experience": 0,
      "display_names": [
        "Arachnoid"
      ],
      "costumes": [
        "Arachnos_Arachnoid_01"
      ]
    },
    {
      "level": 51,
      "experience": 0,
      "display_names": [
        "Arachnoid"
      ],
      "costumes": [
        "Arachnos_Arachnoid_01"
      ]
    },
    {
      "level": 52,
      "experience": 0,
      "display_names": [
        "Arachnoid"
      ],
      "costumes": [
        "Arachnos_Arachnoid_01"
      ]
    },
    {
      "level": 53,
      "experience": 0,
      "display_names": [
        "Arachnoid"
      ],
      "costumes": [
        "Arachnos_Arachnoid_01"
      ]
    },
    {
      "level": 54,
      "experience": 0,
      "display_names": [
        "Arachnoid"
      ],
      "costumes": [
        "Arachnos_Arachnoid_01"
      ]
    }
  ]
}