{
  "name": "Arachnos_MuDrakhan_Boss_NoScale",
  "gender": "GENDER_MALE",
  "description": "Magus Mu'Drakhan is a leading figure among the growing ranks of mystics working under the banner of Arachnos who trace their lineage to the ancient civilization known as Mu. Some whisper that he may be more loyal to his ancient bloodline than to Arachnos, but such whispers are often quietly silenced.",
  "group_description": null,
  "display_class_name": null,
  "character_class_name": "boss_grunt",
  "ai_config": "Default_Ranged",
  "commandable_pet": false,
  "power_tags": [
    "Humanoid",
    "Raid"
  ],
  "additional_rewards": [

  ],
  "skill_hp_rewards": [

  ],
  "skill_status_rewards": [

  ],
  "ally": null,
  "gang": null,
  "reward_scale": 1.0,
  "game_exclusion": "None",
  "inactive_state_weapon": null,
  "ignores_combat_mods": false,
  "copy_creator_mods": false,
  "spawn_limit": 0,
  "spawn_limit_mission": 0,
  "ignore_av_to_eb_scaling": true,
  "can_zone": false,
  "custom_badge_stat": null,
  "badge_stat_flags": "DefaultBadgeStat",
  "rank": "VR_BOSS",
  "power_full_names": [
    "V_Arachnos.Mu_Small_Attack.Lightning_Bolt",
    "V_Arachnos.Mu_Ball.Ball_Lightning",
    "V_Arachnos.Mu_Cone.Static_Discharge",
    "V_Arachnos.Mu_Boss.Sentinel_of_Lightning",
    "V_Arachnos.Mu_Boss_High.EM_Pulse",
    "V_Arachnos.Mu_Hold.Shocking_Bolt",
    "V_Arachnos.Mu_Heal.Touch_of_the_Storm",
    "V_Arachnos.Mu_Heal.Touch_of_the_Storm",
    "V_Arachnos.Mu_Defense.Lightning_Armor",
    "V_Arachnos.Mu_Inherent.Resistance",
    "V_Arachnos.AV_Resistances.Resistance",
    "V_FreedomPhalanx.Hero_Teleport.Teleport"
  ],
  "power_display_names": [
    "Lightning Bolt",
    "Ball Lightning",
    "Static Discharge",
    "Sentinel of Lightning",
    "EM Pulse",
    "Shocking Bolt",
    "Touch of the Storm",
    "Touch of the Storm",
    "Lightning Armor",
    "Resistance",
    "Resistance",
    "Teleport"
  ],
  "power_levels": [
    0,
    0,
    0,
    0,
    0,
    0,
    0,
    0,
    0,
    0,
    0,
    0
  ],
  "powers": [
    {
      "power_category": "V_Arachnos",
      "power_set": "Mu_Small_Attack",
      "power": "*",
      "level": 0
    },
    {
      "power_category": "V_Arachnos",
      "power_set": "Mu_Ball",
      "power": "*",
      "level": 0
    },
    {
      "power_category": "V_Arachnos",
      "power_set": "Mu_Cone",
      "power": "*",
      "level": 0
    },
    {
      "power_category": "V_Arachnos",
      "power_set": "Mu_Boss",
      "power": "*",
      "level": 0
    },
    {
      "power_category": "V_Arachnos",
      "power_set": "Mu_Boss_High",
      "power": "*",
      "level": 0
    },
    {
      "power_category": "V_Arachnos",
      "power_set": "Mu_Hold",
      "power": "*",
      "level": 0
    },
    {
      "power_category": "V_Arachnos",
      "power_set": "Mu_Heal",
      "power": "*",
      "level": 0
    },
    {
      "power_category": "V_Arachnos",
      "power_set": "Mu_Heal",
      "power": "*",
      "level": 0
    },
    {
      "power_category": "V_Arachnos",
      "power_set": "Mu_Defense",
      "power": "*",
      "level": 0
    },
    {
      "power_category": "V_Arachnos",
      "power_set": "Mu_Inherent",
      "power": "*",
      "level": 0
    },
    {
      "power_category": "V_Arachnos",
      "power_set": "AV_Resistances",
      "power": "*",
      "level": 0
    },
    {
      "power_category": "V_FreedomPhalanx",
      "power_set": "Hero_Teleport",
      "power": "*",
      "level": 0
    }
  ],
  "levels": [
    {
      "level": 40,
      "experience": 0,
      "display_names": [
        "Magus Mu Drakhan"
      ],
      "costumes": [
        "Magus_MuDrakhan_No_Ring"
      ]
    },
    {
      "level": 41,
      "experience": 0,
      "display_names": [
        "Magus Mu Drakhan"
      ],
      "costumes": [
        "Magus_MuDrakhan_No_Ring"
      ]
    },
    {
      "level": 42,
      "experience": 0,
      "display_names": [
        "Magus Mu Drakhan"
      ],
      "costumes": [
        "Magus_MuDrakhan_No_Ring"
      ]
    },
    {
      "level": 43,
      "experience": 0,
      "display_names": [
        "Magus Mu Drakhan"
      ],
      "costumes": [
        "Magus_MuDrakhan_No_Ring"
      ]
    },
    {
      "level": 44,
      "experience": 0,
      "display_names": [
        "Magus Mu Drakhan"
      ],
      "costumes": [
        "Magus_MuDrakhan_No_Ring"
      ]
    },
    {
      "level": 45,
      "experience": 0,
      "display_names": [
        "Magus Mu Drakhan"
      ],
      "costumes": [
        "Magus_MuDrakhan_No_Ring"
      ]
    },
    {
      "level": 46,
      "experience": 0,
      "display_names": [
        "Magus Mu Drakhan"
      ],
      "costumes": [
        "Magus_MuDrakhan_No_Ring"
      ]
    },
    {
      "level": 47,
      "experience": 0,
      "display_names": [
        "Magus Mu Drakhan"
      ],
      "costumes": [
        "Magus_MuDrakhan_No_Ring"
      ]
    },
    {
      "level": 48,
      "experience": 0,
      "display_names": [
        "Magus Mu Drakhan"
      ],
      "costumes": [
        "Magus_MuDrakhan_No_Ring"
      ]
    },
    {
      "level": 49,
      "experience": 0,
      "display_names": [
        "Magus Mu Drakhan"
      ],
      "costumes": [
        "Magus_MuDrakhan_No_Ring"
      ]
    },
    {
      "level": 50,
      "experience": 0,
      "display_names": [
        "Magus Mu Drakhan"
      ],
      "costumes": [
        "Magus_MuDrakhan_No_Ring"
      ]
    },
    {
      "level": 51,
      "experience": 0,
      "display_names": [
        "Magus Mu Drakhan"
      ],
      "costumes": [
        "Magus_MuDrakhan_No_Ring"
      ]
    },
    {
      "level": 52,
      "experience": 0,
      "display_names": [
        "Magus Mu Drakhan"
      ],
      "costumes": [
        "Magus_MuDrakhan_No_Ring"
      ]
    },
    {
      "level": 53,
      "experience": 0,
      "display_names": [
        "Magus Mu Drakhan"
      ],
      "costumes": [
        "Magus_MuDrakhan_No_Ring"
      ]
    },
    {
      "level": 54,
      "experience": 0,
      "display_names": [
        "Magus Mu Drakhan"
      ],
      "costumes": [
        "Magus_MuDrakhan_No_Ring"
      ]
    }
  ]
}