{
  "name": "Arachnos_Wolf_Spider_Mace",
  "gender": "GENDER_MALE",
  "description": "Wolf Spiders are little more than legalized thugs. Lord Recluse recruits legions of desperate souls to fill their ranks, then puts them through a rigorous training program that emphasizes loyalty, brutality, and discipline, in that order.",
  "group_description": null,
  "display_class_name": null,
  "character_class_name": "minion_grunt",
  "ai_config": "Default_Melee",
  "commandable_pet": false,
  "power_tags": [
    "Humanoid",
    "HumanSkeleton"
  ],
  "additional_rewards": [

  ],
  "skill_hp_rewards": [

  ],
  "skill_status_rewards": [

  ],
  "ally": "Monster",
  "gang": null,
  "reward_scale": 1.0,
  "game_exclusion": "None",
  "inactive_state_weapon": null,
  "ignores_combat_mods": false,
  "copy_creator_mods": false,
  "spawn_limit": -1,
  "spawn_limit_mission": -1,
  "ignore_av_to_eb_scaling": false,
  "can_zone": false,
  "custom_badge_stat": null,
  "badge_stat_flags": "DefaultBadgeStat",
  "rank": "VR_MINION",
  "power_full_names": [
    "V_Arachnos.Wolf_Spider_Mace.Pulverize",
    "V_Arachnos.Wolf_Spider_Mace.Pummel",
    "V_Arachnos.Wolf_Spider_Pistol.Pistol"
  ],
  "power_display_names": [
    "Pulverize",
    "Pummel",
    "Pistol"
  ],
  "power_levels": [
    0,
    0,
    0
  ],
  "powers": [
    {
      "power_category": "V_Arachnos",
      "power_set": "Wolf_Spider_Mace",
      "power": "*",
      "level": 0
    },
    {
      "power_category": "V_Arachnos",
      "power_set": "Wolf_Spider_Pistol",
      "power": "*",
      "level": 0
    }
  ],
  "levels": [
    {
      "level": 1,
      "experience": 0,
      "display_names": [
        "Wolf Spider"
      ],
      "costumes": [
        "Wolf_Minion_01",
        "Wolf_Minion_02"
      ]
    },
    {
      "level": 2,
      "experience": 0,
      "display_names": [
        "Wolf Spider"
      ],
      "costumes": [
        "Wolf_Minion_01",
        "Wolf_Minion_02"
      ]
    },
    {
      "level": 3,
      "experience": 0,
      "display_names": [
        "Wolf Spider"
      ],
      "costumes": [
        "Wolf_Minion_01",
        "Wolf_Minion_02"
      ]
    },
    {
      "level": 4,
      "experience": 0,
      "display_names": [
        "Wolf Spider"
      ],
      "costumes": [
        "Wolf_Minion_01",
        "Wolf_Minion_02"
      ]
    },
    {
      "level": 5,
      "experience": 0,
      "display_names": [
        "Wolf Spider"
      ],
      "costumes": [
        "Wolf_Minion_01",
        "Wolf_Minion_02"
      ]
    },
    {
      "level": 6,
      "experience": 0,
      "display_names": [
        "Wolf Spider"
      ],
      "costumes": [
        "Wolf_Minion_01",
        "Wolf_Minion_02"
      ]
    },
    {
      "level": 7,
      "experience": 0,
      "display_names": [
        "Wolf Spider"
      ],
      "costumes": [
        "Wolf_Minion_01",
        "Wolf_Minion_02"
      ]
    },
    {
      "level": 8,
      "experience": 0,
      "display_names": [
        "Wolf Spider"
      ],
      "costumes": [
        "Wolf_Minion_01",
        "Wolf_Minion_02"
      ]
    },
    {
      "level": 9,
      "experience": 0,
      "display_names": [
        "Wolf Spider"
      ],
      "costumes": [
        "Wolf_Minion_01",
        "Wolf_Minion_02"
      ]
    },
    {
      "level": 10,
      "experience": 0,
      "display_names": [
        "Wolf Spider"
      ],
      "costumes": [
        "Wolf_Minion_01",
        "Wolf_Minion_02"
      ]
    },
    {
      "level": 11,
      "experience": 0,
      "display_names": [
        "Wolf Spider"
      ],
      "costumes": [
        "Wolf_Minion_01",
        "Wolf_Minion_02"
      ]
    },
    {
      "level": 12,
      "experience": 0,
      "display_names": [
        "Wolf Spider"
      ],
      "costumes": [
        "Wolf_Minion_01",
        "Wolf_Minion_02"
      ]
    },
    {
      "level": 13,
      "experience": 0,
      "display_names": [
        "Wolf Spider"
      ],
      "costumes": [
        "Wolf_Minion_01",
        "Wolf_Minion_02"
      ]
    },
    {
      "level": 14,
      "experience": 0,
      "display_names": [
        "Wolf Spider"
      ],
      "costumes": [
        "Wolf_Minion_01",
        "Wolf_Minion_02"
      ]
    },
    {
      "level": 15,
      "experience": 0,
      "display_names": [
        "Wolf Spider"
      ],
      "costumes": [
        "Wolf_Minion_01",
        "Wolf_Minion_02"
      ]
    }
  ]
}