{
  "name": "Awakened_Subjugated_Citizen_Lieutenant_Female",
  "gender": "GENDER_FEMALE",
  "description": "This citizen has fallen prey to one of the Awakened and is no longer an individual with any survival instinct. It serves its Awakened controllers without question.",
  "group_description": null,
  "display_class_name": null,
  "character_class_name": "lt_grunt",
  "ai_config": null,
  "commandable_pet": false,
  "power_tags": [
    "HumanSkeleton",
    "Human"
  ],
  "additional_rewards": [

  ],
  "skill_hp_rewards": [

  ],
  "skill_status_rewards": [

  ],
  "ally": null,
  "gang": null,
  "reward_scale": 0.33,
  "game_exclusion": "None",
  "inactive_state_weapon": null,
  "ignores_combat_mods": false,
  "copy_creator_mods": false,
  "spawn_limit": 0,
  "spawn_limit_mission": 0,
  "ignore_av_to_eb_scaling": false,
  "can_zone": false,
  "custom_badge_stat": null,
  "badge_stat_flags": "DefaultBadgeStat",
  "rank": "VR_LIEUTENANT",
  "power_full_names": [
    "P_Citizens.Citizen_Lieutenant_Serious.Rock",
    "P_Citizens.Citizen_Lieutenant_Serious.Molotov_Cocktail",
    "P_Citizens.Citizen_Lieutenant_Serious.Brawl"
  ],
  "power_display_names": [
    "Rock",
    "Molotov Cocktail",
    "Brawl"
  ],
  "power_levels": [
    0,
    0,
    0
  ],
  "powers": [
    {
      "power_category": "P_Citizens",
      "power_set": "Citizen_Lieutenant_Serious",
      "power": "*",
      "level": 0
    }
  ],
  "levels": [
    {
      "level": 20,
      "experience": 0,
      "display_names": [
        "Subjugated Citizen"
      ],
      "costumes": [
        "Citizen_FirstWard_Fem_01",
        "Citizen_FirstWard_Fem_02",
        "Citizen_FirstWard_Fem_03",
        "Citizen_FirstWard_Fem_04",
        "Citizen_FirstWard_Fem_05",
        "Citizen_FirstWard_Fem_06",
        "Citizen_FirstWard_Fem_07",
        "Citizen_FirstWard_Fem_08",
        "Citizen_FirstWard_Fem_09",
        "Citizen_FirstWard_Fem_10",
        "Citizen_FirstWard_Fem_11"
      ]
    },
    {
      "level": 21,
      "experience": 0,
      "display_names": [
        "Subjugated Citizen"
      ],
      "costumes": [
        "Citizen_FirstWard_Fem_01",
        "Citizen_FirstWard_Fem_02",
        "Citizen_FirstWard_Fem_03",
        "Citizen_FirstWard_Fem_04",
        "Citizen_FirstWard_Fem_05",
        "Citizen_FirstWard_Fem_06",
        "Citizen_FirstWard_Fem_07",
        "Citizen_FirstWard_Fem_08",
        "Citizen_FirstWard_Fem_09",
        "Citizen_FirstWard_Fem_10",
        "Citizen_FirstWard_Fem_11"
      ]
    },
    {
      "level": 22,
      "experience": 0,
      "display_names": [
        "Subjugated Citizen"
      ],
      "costumes": [
        "Citizen_FirstWard_Fem_01",
        "Citizen_FirstWard_Fem_02",
        "Citizen_FirstWard_Fem_03",
        "Citizen_FirstWard_Fem_04",
        "Citizen_FirstWard_Fem_05",
        "Citizen_FirstWard_Fem_06",
        "Citizen_FirstWard_Fem_07",
        "Citizen_FirstWard_Fem_08",
        "Citizen_FirstWard_Fem_09",
        "Citizen_FirstWard_Fem_10",
        "Citizen_FirstWard_Fem_11"
      ]
    },
    {
      "level": 23,
      "experience": 0,
      "display_names": [
        "Subjugated Citizen"
      ],
      "costumes": [
        "Citizen_FirstWard_Fem_01",
        "Citizen_FirstWard_Fem_02",
        "Citizen_FirstWard_Fem_03",
        "Citizen_FirstWard_Fem_04",
        "Citizen_FirstWard_Fem_05",
        "Citizen_FirstWard_Fem_06",
        "Citizen_FirstWard_Fem_07",
        "Citizen_FirstWard_Fem_08",
        "Citizen_FirstWard_Fem_09",
        "Citizen_FirstWard_Fem_10",
        "Citizen_FirstWard_Fem_11"
      ]
    },
    {
      "level": 24,
      "experience": 0,
      "display_names": [
        "Subjugated Citizen"
      ],
      "costumes": [
        "Citizen_FirstWard_Fem_01",
        "Citizen_FirstWard_Fem_02",
        "Citizen_FirstWard_Fem_03",
        "Citizen_FirstWard_Fem_04",
        "Citizen_FirstWard_Fem_05",
        "Citizen_FirstWard_Fem_06",
        "Citizen_FirstWard_Fem_07",
        "Citizen_FirstWard_Fem_08",
        "Citizen_FirstWard_Fem_09",
        "Citizen_FirstWard_Fem_10",
        "Citizen_FirstWard_Fem_11"
      ]
    },
    {
      "level": 25,
      "experience": 0,
      "display_names": [
        "Subjugated Citizen"
      ],
      "costumes": [
        "Citizen_FirstWard_Fem_01",
        "Citizen_FirstWard_Fem_02",
        "Citizen_FirstWard_Fem_03",
        "Citizen_FirstWard_Fem_04",
        "Citizen_FirstWard_Fem_05",
        "Citizen_FirstWard_Fem_06",
        "Citizen_FirstWard_Fem_07",
        "Citizen_FirstWard_Fem_08",
        "Citizen_FirstWard_Fem_09",
        "Citizen_FirstWard_Fem_10",
        "Citizen_FirstWard_Fem_11"
      ]
    },
    {
      "level": 26,
      "experience": 0,
      "display_names": [
        "Subjugated Citizen"
      ],
      "costumes": [
        "Citizen_FirstWard_Fem_01",
        "Citizen_FirstWard_Fem_02",
        "Citizen_FirstWard_Fem_03",
        "Citizen_FirstWard_Fem_04",
        "Citizen_FirstWard_Fem_05",
        "Citizen_FirstWard_Fem_06",
        "Citizen_FirstWard_Fem_07",
        "Citizen_FirstWard_Fem_08",
        "Citizen_FirstWard_Fem_09",
        "Citizen_FirstWard_Fem_10",
        "Citizen_FirstWard_Fem_11"
      ]
    },
    {
      "level": 27,
      "experience": 0,
      "display_names": [
        "Subjugated Citizen"
      ],
      "costumes": [
        "Citizen_FirstWard_Fem_01",
        "Citizen_FirstWard_Fem_02",
        "Citizen_FirstWard_Fem_03",
        "Citizen_FirstWard_Fem_04",
        "Citizen_FirstWard_Fem_05",
        "Citizen_FirstWard_Fem_06",
        "Citizen_FirstWard_Fem_07",
        "Citizen_FirstWard_Fem_08",
        "Citizen_FirstWard_Fem_09",
        "Citizen_FirstWard_Fem_10",
        "Citizen_FirstWard_Fem_11"
      ]
    },
    {
      "level": 28,
      "experience": 0,
      "display_names": [
        "Subjugated Citizen"
      ],
      "costumes": [
        "Citizen_FirstWard_Fem_01",
        "Citizen_FirstWard_Fem_02",
        "Citizen_FirstWard_Fem_03",
        "Citizen_FirstWard_Fem_04",
        "Citizen_FirstWard_Fem_05",
        "Citizen_FirstWard_Fem_06",
        "Citizen_FirstWard_Fem_07",
        "Citizen_FirstWard_Fem_08",
        "Citizen_FirstWard_Fem_09",
        "Citizen_FirstWard_Fem_10",
        "Citizen_FirstWard_Fem_11"
      ]
    },
    {
      "level": 29,
      "experience": 0,
      "display_names": [
        "Subjugated Citizen"
      ],
      "costumes": [
        "Citizen_FirstWard_Fem_01",
        "Citizen_FirstWard_Fem_02",
        "Citizen_FirstWard_Fem_03",
        "Citizen_FirstWard_Fem_04",
        "Citizen_FirstWard_Fem_05",
        "Citizen_FirstWard_Fem_06",
        "Citizen_FirstWard_Fem_07",
        "Citizen_FirstWard_Fem_08",
        "Citizen_FirstWard_Fem_09",
        "Citizen_FirstWard_Fem_10",
        "Citizen_FirstWard_Fem_11"
      ]
    },
    {
      "level": 30,
      "experience": 0,
      "display_names": [
        "Subjugated Citizen"
      ],
      "costumes": [
        "Citizen_FirstWard_Fem_01",
        "Citizen_FirstWard_Fem_02",
        "Citizen_FirstWard_Fem_03",
        "Citizen_FirstWard_Fem_04",
        "Citizen_FirstWard_Fem_05",
        "Citizen_FirstWard_Fem_06",
        "Citizen_FirstWard_Fem_07",
        "Citizen_FirstWard_Fem_08",
        "Citizen_FirstWard_Fem_09",
        "Citizen_FirstWard_Fem_10",
        "Citizen_FirstWard_Fem_11"
      ]
    },
    {
      "level": 31,
      "experience": 0,
      "display_names": [
        "Subjugated Citizen"
      ],
      "costumes": [
        "Citizen_FirstWard_Fem_01",
        "Citizen_FirstWard_Fem_02",
        "Citizen_FirstWard_Fem_03",
        "Citizen_FirstWard_Fem_04",
        "Citizen_FirstWard_Fem_05",
        "Citizen_FirstWard_Fem_06",
        "Citizen_FirstWard_Fem_07",
        "Citizen_FirstWard_Fem_08",
        "Citizen_FirstWard_Fem_09",
        "Citizen_FirstWard_Fem_10",
        "Citizen_FirstWard_Fem_11"
      ]
    },
    {
      "level": 32,
      "experience": 0,
      "display_names": [
        "Subjugated Citizen"
      ],
      "costumes": [
        "Citizen_FirstWard_Fem_01",
        "Citizen_FirstWard_Fem_02",
        "Citizen_FirstWard_Fem_03",
        "Citizen_FirstWard_Fem_04",
        "Citizen_FirstWard_Fem_05",
        "Citizen_FirstWard_Fem_06",
        "Citizen_FirstWard_Fem_07",
        "Citizen_FirstWard_Fem_08",
        "Citizen_FirstWard_Fem_09",
        "Citizen_FirstWard_Fem_10",
        "Citizen_FirstWard_Fem_11"
      ]
    },
    {
      "level": 33,
      "experience": 0,
      "display_names": [
        "Subjugated Citizen"
      ],
      "costumes": [
        "Citizen_FirstWard_Fem_01",
        "Citizen_FirstWard_Fem_02",
        "Citizen_FirstWard_Fem_03",
        "Citizen_FirstWard_Fem_04",
        "Citizen_FirstWard_Fem_05",
        "Citizen_FirstWard_Fem_06",
        "Citizen_FirstWard_Fem_07",
        "Citizen_FirstWard_Fem_08",
        "Citizen_FirstWard_Fem_09",
        "Citizen_FirstWard_Fem_10",
        "Citizen_FirstWard_Fem_11"
      ]
    },
    {
      "level": 34,
      "experience": 0,
      "display_names": [
        "Subjugated Citizen"
      ],
      "costumes": [
        "Citizen_FirstWard_Fem_01",
        "Citizen_FirstWard_Fem_02",
        "Citizen_FirstWard_Fem_03",
        "Citizen_FirstWard_Fem_04",
        "Citizen_FirstWard_Fem_05",
        "Citizen_FirstWard_Fem_06",
        "Citizen_FirstWard_Fem_07",
        "Citizen_FirstWard_Fem_08",
        "Citizen_FirstWard_Fem_09",
        "Citizen_FirstWard_Fem_10",
        "Citizen_FirstWard_Fem_11"
      ]
    },
    {
      "level": 35,
      "experience": 0,
      "display_names": [
        "Subjugated Citizen"
      ],
      "costumes": [
        "Citizen_FirstWard_Fem_01",
        "Citizen_FirstWard_Fem_02",
        "Citizen_FirstWard_Fem_03",
        "Citizen_FirstWard_Fem_04",
        "Citizen_FirstWard_Fem_05",
        "Citizen_FirstWard_Fem_06",
        "Citizen_FirstWard_Fem_07",
        "Citizen_FirstWard_Fem_08",
        "Citizen_FirstWard_Fem_09",
        "Citizen_FirstWard_Fem_10",
        "Citizen_FirstWard_Fem_11"
      ]
    },
    {
      "level": 36,
      "experience": 0,
      "display_names": [
        "Subjugated Citizen"
      ],
      "costumes": [
        "Citizen_FirstWard_Fem_01",
        "Citizen_FirstWard_Fem_02",
        "Citizen_FirstWard_Fem_03",
        "Citizen_FirstWard_Fem_04",
        "Citizen_FirstWard_Fem_05",
        "Citizen_FirstWard_Fem_06",
        "Citizen_FirstWard_Fem_07",
        "Citizen_FirstWard_Fem_08",
        "Citizen_FirstWard_Fem_09",
        "Citizen_FirstWard_Fem_10",
        "Citizen_FirstWard_Fem_11"
      ]
    },
    {
      "level": 37,
      "experience": 0,
      "display_names": [
        "Subjugated Citizen"
      ],
      "costumes": [
        "Citizen_FirstWard_Fem_01",
        "Citizen_FirstWard_Fem_02",
        "Citizen_FirstWard_Fem_03",
        "Citizen_FirstWard_Fem_04",
        "Citizen_FirstWard_Fem_05",
        "Citizen_FirstWard_Fem_06",
        "Citizen_FirstWard_Fem_07",
        "Citizen_FirstWard_Fem_08",
        "Citizen_FirstWard_Fem_09",
        "Citizen_FirstWard_Fem_10",
        "Citizen_FirstWard_Fem_11"
      ]
    },
    {
      "level": 38,
      "experience": 0,
      "display_names": [
        "Subjugated Citizen"
      ],
      "costumes": [
        "Citizen_FirstWard_Fem_01",
        "Citizen_FirstWard_Fem_02",
        "Citizen_FirstWard_Fem_03",
        "Citizen_FirstWard_Fem_04",
        "Citizen_FirstWard_Fem_05",
        "Citizen_FirstWard_Fem_06",
        "Citizen_FirstWard_Fem_07",
        "Citizen_FirstWard_Fem_08",
        "Citizen_FirstWard_Fem_09",
        "Citizen_FirstWard_Fem_10",
        "Citizen_FirstWard_Fem_11"
      ]
    },
    {
      "level": 39,
      "experience": 0,
      "display_names": [
        "Subjugated Citizen"
      ],
      "costumes": [
        "Citizen_FirstWard_Fem_01",
        "Citizen_FirstWard_Fem_02",
        "Citizen_FirstWard_Fem_03",
        "Citizen_FirstWard_Fem_04",
        "Citizen_FirstWard_Fem_05",
        "Citizen_FirstWard_Fem_06",
        "Citizen_FirstWard_Fem_07",
        "Citizen_FirstWard_Fem_08",
        "Citizen_FirstWard_Fem_09",
        "Citizen_FirstWard_Fem_10",
        "Citizen_FirstWard_Fem_11"
      ]
    },
    {
      "level": 40,
      "experience": 0,
      "display_names": [
        "Subjugated Citizen"
      ],
      "costumes": [
        "Citizen_FirstWard_Fem_01",
        "Citizen_FirstWard_Fem_02",
        "Citizen_FirstWard_Fem_03",
        "Citizen_FirstWard_Fem_04",
        "Citizen_FirstWard_Fem_05",
        "Citizen_FirstWard_Fem_06",
        "Citizen_FirstWard_Fem_07",
        "Citizen_FirstWard_Fem_08",
        "Citizen_FirstWard_Fem_09",
        "Citizen_FirstWard_Fem_10",
        "Citizen_FirstWard_Fem_11"
      ]
    },
    {
      "level": 41,
      "experience": 0,
      "display_names": [
        "Subjugated Citizen"
      ],
      "costumes": [
        "Citizen_FirstWard_Fem_01",
        "Citizen_FirstWard_Fem_02",
        "Citizen_FirstWard_Fem_03",
        "Citizen_FirstWard_Fem_04",
        "Citizen_FirstWard_Fem_05",
        "Citizen_FirstWard_Fem_06",
        "Citizen_FirstWard_Fem_07",
        "Citizen_FirstWard_Fem_08",
        "Citizen_FirstWard_Fem_09",
        "Citizen_FirstWard_Fem_10",
        "Citizen_FirstWard_Fem_11"
      ]
    },
    {
      "level": 42,
      "experience": 0,
      "display_names": [
        "Subjugated Citizen"
      ],
      "costumes": [
        "Citizen_FirstWard_Fem_01",
        "Citizen_FirstWard_Fem_02",
        "Citizen_FirstWard_Fem_03",
        "Citizen_FirstWard_Fem_04",
        "Citizen_FirstWard_Fem_05",
        "Citizen_FirstWard_Fem_06",
        "Citizen_FirstWard_Fem_07",
        "Citizen_FirstWard_Fem_08",
        "Citizen_FirstWard_Fem_09",
        "Citizen_FirstWard_Fem_10",
        "Citizen_FirstWard_Fem_11"
      ]
    },
    {
      "level": 43,
      "experience": 0,
      "display_names": [
        "Subjugated Citizen"
      ],
      "costumes": [
        "Citizen_FirstWard_Fem_01",
        "Citizen_FirstWard_Fem_02",
        "Citizen_FirstWard_Fem_03",
        "Citizen_FirstWard_Fem_04",
        "Citizen_FirstWard_Fem_05",
        "Citizen_FirstWard_Fem_06",
        "Citizen_FirstWard_Fem_07",
        "Citizen_FirstWard_Fem_08",
        "Citizen_FirstWard_Fem_09",
        "Citizen_FirstWard_Fem_10",
        "Citizen_FirstWard_Fem_11"
      ]
    },
    {
      "level": 44,
      "experience": 0,
      "display_names": [
        "Subjugated Citizen"
      ],
      "costumes": [
        "Citizen_FirstWard_Fem_01",
        "Citizen_FirstWard_Fem_02",
        "Citizen_FirstWard_Fem_03",
        "Citizen_FirstWard_Fem_04",
        "Citizen_FirstWard_Fem_05",
        "Citizen_FirstWard_Fem_06",
        "Citizen_FirstWard_Fem_07",
        "Citizen_FirstWard_Fem_08",
        "Citizen_FirstWard_Fem_09",
        "Citizen_FirstWard_Fem_10",
        "Citizen_FirstWard_Fem_11"
      ]
    },
    {
      "level": 45,
      "experience": 0,
      "display_names": [
        "Subjugated Citizen"
      ],
      "costumes": [
        "Citizen_FirstWard_Fem_01",
        "Citizen_FirstWard_Fem_02",
        "Citizen_FirstWard_Fem_03",
        "Citizen_FirstWard_Fem_04",
        "Citizen_FirstWard_Fem_05",
        "Citizen_FirstWard_Fem_06",
        "Citizen_FirstWard_Fem_07",
        "Citizen_FirstWard_Fem_08",
        "Citizen_FirstWard_Fem_09",
        "Citizen_FirstWard_Fem_10",
        "Citizen_FirstWard_Fem_11"
      ]
    },
    {
      "level": 46,
      "experience": 0,
      "display_names": [
        "Subjugated Citizen"
      ],
      "costumes": [
        "Citizen_FirstWard_Fem_01",
        "Citizen_FirstWard_Fem_02",
        "Citizen_FirstWard_Fem_03",
        "Citizen_FirstWard_Fem_04",
        "Citizen_FirstWard_Fem_05",
        "Citizen_FirstWard_Fem_06",
        "Citizen_FirstWard_Fem_07",
        "Citizen_FirstWard_Fem_08",
        "Citizen_FirstWard_Fem_09",
        "Citizen_FirstWard_Fem_10",
        "Citizen_FirstWard_Fem_11"
      ]
    },
    {
      "level": 47,
      "experience": 0,
      "display_names": [
        "Subjugated Citizen"
      ],
      "costumes": [
        "Citizen_FirstWard_Fem_01",
        "Citizen_FirstWard_Fem_02",
        "Citizen_FirstWard_Fem_03",
        "Citizen_FirstWard_Fem_04",
        "Citizen_FirstWard_Fem_05",
        "Citizen_FirstWard_Fem_06",
        "Citizen_FirstWard_Fem_07",
        "Citizen_FirstWard_Fem_08",
        "Citizen_FirstWard_Fem_09",
        "Citizen_FirstWard_Fem_10",
        "Citizen_FirstWard_Fem_11"
      ]
    },
    {
      "level": 48,
      "experience": 0,
      "display_names": [
        "Subjugated Citizen"
      ],
      "costumes": [
        "Citizen_FirstWard_Fem_01",
        "Citizen_FirstWard_Fem_02",
        "Citizen_FirstWard_Fem_03",
        "Citizen_FirstWard_Fem_04",
        "Citizen_FirstWard_Fem_05",
        "Citizen_FirstWard_Fem_06",
        "Citizen_FirstWard_Fem_07",
        "Citizen_FirstWard_Fem_08",
        "Citizen_FirstWard_Fem_09",
        "Citizen_FirstWard_Fem_10",
        "Citizen_FirstWard_Fem_11"
      ]
    },
    {
      "level": 49,
      "experience": 0,
      "display_names": [
        "Subjugated Citizen"
      ],
      "costumes": [
        "Citizen_FirstWard_Fem_01",
        "Citizen_FirstWard_Fem_02",
        "Citizen_FirstWard_Fem_03",
        "Citizen_FirstWard_Fem_04",
        "Citizen_FirstWard_Fem_05",
        "Citizen_FirstWard_Fem_06",
        "Citizen_FirstWard_Fem_07",
        "Citizen_FirstWard_Fem_08",
        "Citizen_FirstWard_Fem_09",
        "Citizen_FirstWard_Fem_10",
        "Citizen_FirstWard_Fem_11"
      ]
    },
    {
      "level": 50,
      "experience": 0,
      "display_names": [
        "Subjugated Citizen"
      ],
      "costumes": [
        "Citizen_FirstWard_Fem_01",
        "Citizen_FirstWard_Fem_02",
        "Citizen_FirstWard_Fem_03",
        "Citizen_FirstWard_Fem_04",
        "Citizen_FirstWard_Fem_05",
        "Citizen_FirstWard_Fem_06",
        "Citizen_FirstWard_Fem_07",
        "Citizen_FirstWard_Fem_08",
        "Citizen_FirstWard_Fem_09",
        "Citizen_FirstWard_Fem_10",
        "Citizen_FirstWard_Fem_11"
      ]
    },
    {
      "level": 51,
      "experience": 0,
      "display_names": [
        "Subjugated Citizen"
      ],
      "costumes": [
        "Citizen_FirstWard_Fem_01",
        "Citizen_FirstWard_Fem_02",
        "Citizen_FirstWard_Fem_03",
        "Citizen_FirstWard_Fem_04",
        "Citizen_FirstWard_Fem_05",
        "Citizen_FirstWard_Fem_06",
        "Citizen_FirstWard_Fem_07",
        "Citizen_FirstWard_Fem_08",
        "Citizen_FirstWard_Fem_09",
        "Citizen_FirstWard_Fem_10",
        "Citizen_FirstWard_Fem_11"
      ]
    },
    {
      "level": 52,
      "experience": 0,
      "display_names": [
        "Subjugated Citizen"
      ],
      "costumes": [
        "Citizen_FirstWard_Fem_01",
        "Citizen_FirstWard_Fem_02",
        "Citizen_FirstWard_Fem_03",
        "Citizen_FirstWard_Fem_04",
        "Citizen_FirstWard_Fem_05",
        "Citizen_FirstWard_Fem_06",
        "Citizen_FirstWard_Fem_07",
        "Citizen_FirstWard_Fem_08",
        "Citizen_FirstWard_Fem_09",
        "Citizen_FirstWard_Fem_10",
        "Citizen_FirstWard_Fem_11"
      ]
    },
    {
      "level": 53,
      "experience": 0,
      "display_names": [
        "Subjugated Citizen"
      ],
      "costumes": [
        "Citizen_FirstWard_Fem_01",
        "Citizen_FirstWard_Fem_02",
        "Citizen_FirstWard_Fem_03",
        "Citizen_FirstWard_Fem_04",
        "Citizen_FirstWard_Fem_05",
        "Citizen_FirstWard_Fem_06",
        "Citizen_FirstWard_Fem_07",
        "Citizen_FirstWard_Fem_08",
        "Citizen_FirstWard_Fem_09",
        "Citizen_FirstWard_Fem_10",
        "Citizen_FirstWard_Fem_11"
      ]
    },
    {
      "level": 54,
      "experience": 0,
      "display_names": [
        "Subjugated Citizen"
      ],
      "costumes": [
        "Citizen_FirstWard_Fem_01",
        "Citizen_FirstWard_Fem_02",
        "Citizen_FirstWard_Fem_03",
        "Citizen_FirstWard_Fem_04",
        "Citizen_FirstWard_Fem_05",
        "Citizen_FirstWard_Fem_06",
        "Citizen_FirstWard_Fem_07",
        "Citizen_FirstWard_Fem_08",
        "Citizen_FirstWard_Fem_09",
        "Citizen_FirstWard_Fem_10",
        "Citizen_FirstWard_Fem_11"
      ]
    }
  ]
}