{
  "name": "BanishedPantheonEndgame_Chamber_Club",
  "gender": "GENDER_MALE",
  "description": "Their hatred for humanity and utter disdain for life have left the Banished Pantheon with few allies. Thus they must make their own, by raising the dead to create armies of zombie-like servants totally devoted to their devilish agenda.",
  "group_description": null,
  "display_class_name": "Underling",
  "character_class_name": "minion_praetoriansmall",
  "ai_config": "BanishedPantheon_Minion",
  "commandable_pet": false,
  "power_tags": [
    "HumanSkeleton",
    "Undead"
  ],
  "additional_rewards": [

  ],
  "skill_hp_rewards": [

  ],
  "skill_status_rewards": [

  ],
  "ally": null,
  "gang": null,
  "reward_scale": 1.0,
  "game_exclusion": "None",
  "inactive_state_weapon": null,
  "ignores_combat_mods": false,
  "copy_creator_mods": false,
  "spawn_limit": -1,
  "spawn_limit_mission": -1,
  "ignore_av_to_eb_scaling": false,
  "can_zone": false,
  "custom_badge_stat": null,
  "badge_stat_flags": "DefaultBadgeStat",
  "rank": "VR_SMALL",
  "power_full_names": [
    "BanishedPantheon.Banished_Minion_Ranged.Musket",
    "BanishedPantheon.Banished_Minion_Melee.Wooden_Club",
    "BanishedPantheon.Banished_Minion_Defense.Resistance"
  ],
  "power_display_names": [
    "Musket",
    "Wooden Club",
    "Resistance"
  ],
  "power_levels": [
    0,
    0,
    0
  ],
  "powers": [
    {
      "power_category": "BanishedPantheon",
      "power_set": "Banished_Minion_Ranged",
      "power": "Musket",
      "level": 0
    },
    {
      "power_category": "BanishedPantheon",
      "power_set": "Banished_Minion_Melee",
      "power": "Wooden_Club",
      "level": 0
    },
    {
      "power_category": "BanishedPantheon",
      "power_set": "Banished_Minion_Defense",
      "power": "*",
      "level": 0
    }
  ],
  "levels": [
    {
      "level": 50,
      "experience": 0,
      "display_names": [
        "Mummified Chamber"
      ],
      "costumes": [
        "Pantheon_Hull_01",
        "Pantheon_Hull_05",
        "Pantheon_Hull_06"
      ]
    },
    {
      "level": 51,
      "experience": 0,
      "display_names": [
        "Mummified Chamber"
      ],
      "costumes": [
        "Pantheon_Hull_01",
        "Pantheon_Hull_05",
        "Pantheon_Hull_06"
      ]
    },
    {
      "level": 52,
      "experience": 0,
      "display_names": [
        "Mummified Chamber"
      ],
      "costumes": [
        "Pantheon_Hull_01",
        "Pantheon_Hull_05",
        "Pantheon_Hull_06"
      ]
    },
    {
      "level": 53,
      "experience": 0,
      "display_names": [
        "Mummified Chamber"
      ],
      "costumes": [
        "Pantheon_Hull_01",
        "Pantheon_Hull_05",
        "Pantheon_Hull_06"
      ]
    },
    {
      "level": 54,
      "experience": 0,
      "display_names": [
        "Mummified Chamber"
      ],
      "costumes": [
        "Pantheon_Hull_01",
        "Pantheon_Hull_05",
        "Pantheon_Hull_06"
      ]
    }
  ]
}