{
  "name": "BanishedPantheonEndgame_Sentinel_of_Mot",
  "gender": "GENDER_MALE",
  "description": "After the defeat of Mot and the purging of Maximus from the Sentinel, the creature was left a soulless husk, perfect for Diabolique to claim for her own ends. Where once the Sentinel served Mot with strength and intelligence, this mindless creature is little more than a brutish monster whose only objective is to sow death and destruction while his new master completes her apotheosis.",
  "group_description": null,
  "display_class_name": null,
  "character_class_name": "boss_praetorianarchvillain",
  "ai_config": null,
  "commandable_pet": false,
  "power_tags": [

  ],
  "additional_rewards": [

  ],
  "skill_hp_rewards": [

  ],
  "skill_status_rewards": [

  ],
  "ally": null,
  "gang": null,
  "reward_scale": 1.0,
  "game_exclusion": "None",
  "inactive_state_weapon": null,
  "ignores_combat_mods": false,
  "copy_creator_mods": false,
  "spawn_limit": 0,
  "spawn_limit_mission": 0,
  "ignore_av_to_eb_scaling": false,
  "can_zone": false,
  "custom_badge_stat": null,
  "badge_stat_flags": "DefaultBadgeStat",
  "rank": "VR_ARCHVILLAIN",
  "power_full_names": [
    "DilemmaDiabolique.Sentinel.Frigid_Smash",
    "DilemmaDiabolique.Sentinel.Frigid_Stomp",
    "DilemmaDiabolique.Sentinel.Reapers_Bolt",
    "DilemmaDiabolique.Sentinel.Frenzied_Slash",
    "DilemmaDiabolique.Sentinel.Enervating_Strike",
    "DilemmaDiabolique.Sentinel.Frigid_Grasp",
    "DilemmaDiabolique.Sentinel.Impale",
    "DilemmaDiabolique.Sentinel.Voracious_Maw",
    "DilemmaDiabolique.Captured_Hero_Grants.Grant_A",
    "DilemmaDiabolique.Captured_Hero_Grants.Grant_B",
    "DilemmaDiabolique.Captured_Hero_Grants.Grant_C",
    "DilemmaDiabolique.Captured_Hero_Grants.Grant_D",
    "DilemmaDiabolique.Captured_Hero_Grants.Grant_E",
    "DilemmaDiabolique.Captured_Hero_Grants.Grant_F",
    "DilemmaDiabolique.Captured_Hero_Grants.Grant_G",
    "DilemmaDiabolique.Captured_Hero_Revokes.Revoke_A",
    "DilemmaDiabolique.Captured_Hero_Revokes.Revoke_B",
    "DilemmaDiabolique.Captured_Hero_Revokes.Revoke_C",
    "DilemmaDiabolique.Captured_Hero_Revokes.Revoke_D",
    "DilemmaDiabolique.Captured_Hero_Revokes.Revoke_E",
    "DilemmaDiabolique.Captured_Hero_Revokes.Revoke_F",
    "DilemmaDiabolique.Captured_Hero_Revokes.Revoke_G",
    "GenericVillains.Scaling.HP_30_Dmg_4_Min_12",
    "GenericVillains.Supervillain_Resistance.Resistance"
  ],
  "power_display_names": [
    "Frigid Smash",
    "Frigid Stomp",
    "Reaper's Bolt",
    "Frenzied Slash",
    "Enervating Strike",
    "Frigid Grasp",
    "Impale",
    "Voracious Maw",
    "Consumed Essence",
    "Consumed Essence",
    "Consumed Essence",
    "Consumed Essence",
    "Consumed Essence",
    "Consumed Essence",
    "Consumed Essence",
    "Freed Essence",
    "Freed Essence",
    "Freed Essence",
    "Freed Essence",
    "Freed Essence",
    "Freed Essence",
    "Freed Essence",
    "Scaling",
    "Resistance"
  ],
  "power_levels": [
    0,
    0,
    0,
    0,
    0,
    0,
    0,
    0,
    0,
    0,
    0,
    0,
    0,
    0,
    0,
    0,
    0,
    0,
    0,
    0,
    0,
    0,
    0,
    0
  ],
  "powers": [
    {
      "power_category": "DilemmaDiabolique",
      "power_set": "Sentinel",
      "power": "*",
      "level": 0
    },
    {
      "power_category": "DilemmaDiabolique",
      "power_set": "Captured_Hero_Grants",
      "power": "*",
      "level": 0
    },
    {
      "power_category": "DilemmaDiabolique",
      "power_set": "Captured_Hero_Revokes",
      "power": "*",
      "level": 0
    },
    {
      "power_category": "GenericVillains",
      "power_set": "Scaling",
      "power": "HP_30_Dmg_4_Min_12",
      "level": 0
    },
    {
      "power_category": "GenericVillains",
      "power_set": "Supervillain_Resistance",
      "power": "Resistance",
      "level": 0
    }
  ],
  "levels": [
    {
      "level": 54,
      "experience": 0,
      "display_names": [
        "The Sentinel of Mot"
      ],
      "costumes": [
        "BanishedPantheon_Sentinel_01"
      ]
    }
  ]
}