{
  "name": "BanishedPantheon_Ancient_of_Sorrow_Male",
  "gender": "GENDER_MALE",
  "description": "The Ancients are preists and priestesses within the Banished Pantheon who long ago merged their essence with one of the many spirits who serve the gods, granting both the person and the spirit a far greater share of power than they could ever achieve individually. This Ancient channels the Spirit of Sorrow and projects blasts of pure sorrow that explode in life-sapping bursts, seeping the will and life force from anyone caught in the explosion.",
  "group_description": null,
  "display_class_name": null,
  "character_class_name": "boss_grunt",
  "ai_config": "Default_Ranged",
  "commandable_pet": false,
  "power_tags": [
    "HumanSkeleton",
    "Human"
  ],
  "additional_rewards": [

  ],
  "skill_hp_rewards": [

  ],
  "skill_status_rewards": [

  ],
  "ally": null,
  "gang": null,
  "reward_scale": 1.0,
  "game_exclusion": "None",
  "inactive_state_weapon": null,
  "ignores_combat_mods": false,
  "copy_creator_mods": false,
  "spawn_limit": -1,
  "spawn_limit_mission": -1,
  "ignore_av_to_eb_scaling": false,
  "can_zone": false,
  "custom_badge_stat": null,
  "badge_stat_flags": "DefaultBadgeStat",
  "rank": "VR_BOSS",
  "power_full_names": [
    "BanishedPantheon.EndgameSorrow.Bolt_of_Sorrow",
    "BanishedPantheon.EndgameSorrow.Piercing_Gaze",
    "BanishedPantheon.EndgameSorrow.Mournful_Blast",
    "BanishedPantheon.EndgameSorrow.Grievous_Bomb",
    "BanishedPantheon.EndgameSorrow.Depression",
    "BanishedPantheon.EndgameSorrow.Enervating_Field"
  ],
  "power_display_names": [
    "Bolt of Sorrow",
    "Piercing Gaze",
    "Mournful Blast",
    "Grievous Bomb",
    "Depression",
    "Enervating Field"
  ],
  "power_levels": [
    0,
    0,
    0,
    0,
    0,
    0
  ],
  "powers": [
    {
      "power_category": "BanishedPantheon",
      "power_set": "EndgameSorrow",
      "power": "Bolt_of_Sorrow",
      "level": 0
    },
    {
      "power_category": "BanishedPantheon",
      "power_set": "EndgameSorrow",
      "power": "Piercing_Gaze",
      "level": 0
    },
    {
      "power_category": "BanishedPantheon",
      "power_set": "EndgameSorrow",
      "power": "Mournful_Blast",
      "level": 0
    },
    {
      "power_category": "BanishedPantheon",
      "power_set": "EndgameSorrow",
      "power": "Grievous_Bomb",
      "level": 0
    },
    {
      "power_category": "BanishedPantheon",
      "power_set": "EndgameSorrow",
      "power": "Depression",
      "level": 0
    },
    {
      "power_category": "BanishedPantheon",
      "power_set": "EndgameSorrow",
      "power": "Enervating_Field",
      "level": 0
    }
  ],
  "levels": [
    {
      "level": 40,
      "experience": 0,
      "display_names": [
        "Ancient of Sorrow"
      ],
      "costumes": [
        "BanishedPantheon_Ancient_Male_Sorrow_01",
        "BanishedPantheon_Ancient_Male_Sorrow_02",
        "BanishedPantheon_Ancient_Male_Sorrow_03",
        "BanishedPantheon_Ancient_Male_Sorrow_04"
      ]
    },
    {
      "level": 41,
      "experience": 0,
      "display_names": [
        "Ancient of Sorrow"
      ],
      "costumes": [
        "BanishedPantheon_Ancient_Male_Sorrow_01",
        "BanishedPantheon_Ancient_Male_Sorrow_02",
        "BanishedPantheon_Ancient_Male_Sorrow_03",
        "BanishedPantheon_Ancient_Male_Sorrow_04"
      ]
    },
    {
      "level": 42,
      "experience": 0,
      "display_names": [
        "Ancient of Sorrow"
      ],
      "costumes": [
        "BanishedPantheon_Ancient_Male_Sorrow_01",
        "BanishedPantheon_Ancient_Male_Sorrow_02",
        "BanishedPantheon_Ancient_Male_Sorrow_03",
        "BanishedPantheon_Ancient_Male_Sorrow_04"
      ]
    },
    {
      "level": 43,
      "experience": 0,
      "display_names": [
        "Ancient of Sorrow"
      ],
      "costumes": [
        "BanishedPantheon_Ancient_Male_Sorrow_01",
        "BanishedPantheon_Ancient_Male_Sorrow_02",
        "BanishedPantheon_Ancient_Male_Sorrow_03",
        "BanishedPantheon_Ancient_Male_Sorrow_04"
      ]
    },
    {
      "level": 44,
      "experience": 0,
      "display_names": [
        "Ancient of Sorrow"
      ],
      "costumes": [
        "BanishedPantheon_Ancient_Male_Sorrow_01",
        "BanishedPantheon_Ancient_Male_Sorrow_02",
        "BanishedPantheon_Ancient_Male_Sorrow_03",
        "BanishedPantheon_Ancient_Male_Sorrow_04"
      ]
    },
    {
      "level": 45,
      "experience": 0,
      "display_names": [
        "Ancient of Sorrow"
      ],
      "costumes": [
        "BanishedPantheon_Ancient_Male_Sorrow_01",
        "BanishedPantheon_Ancient_Male_Sorrow_02",
        "BanishedPantheon_Ancient_Male_Sorrow_03",
        "BanishedPantheon_Ancient_Male_Sorrow_04"
      ]
    },
    {
      "level": 46,
      "experience": 0,
      "display_names": [
        "Ancient of Sorrow"
      ],
      "costumes": [
        "BanishedPantheon_Ancient_Male_Sorrow_01",
        "BanishedPantheon_Ancient_Male_Sorrow_02",
        "BanishedPantheon_Ancient_Male_Sorrow_03",
        "BanishedPantheon_Ancient_Male_Sorrow_04"
      ]
    },
    {
      "level": 47,
      "experience": 0,
      "display_names": [
        "Ancient of Sorrow"
      ],
      "costumes": [
        "BanishedPantheon_Ancient_Male_Sorrow_01",
        "BanishedPantheon_Ancient_Male_Sorrow_02",
        "BanishedPantheon_Ancient_Male_Sorrow_03",
        "BanishedPantheon_Ancient_Male_Sorrow_04"
      ]
    },
    {
      "level": 48,
      "experience": 0,
      "display_names": [
        "Ancient of Sorrow"
      ],
      "costumes": [
        "BanishedPantheon_Ancient_Male_Sorrow_01",
        "BanishedPantheon_Ancient_Male_Sorrow_02",
        "BanishedPantheon_Ancient_Male_Sorrow_03",
        "BanishedPantheon_Ancient_Male_Sorrow_04"
      ]
    },
    {
      "level": 49,
      "experience": 0,
      "display_names": [
        "Ancient of Sorrow"
      ],
      "costumes": [
        "BanishedPantheon_Ancient_Male_Sorrow_01",
        "BanishedPantheon_Ancient_Male_Sorrow_02",
        "BanishedPantheon_Ancient_Male_Sorrow_03",
        "BanishedPantheon_Ancient_Male_Sorrow_04"
      ]
    },
    {
      "level": 50,
      "experience": 0,
      "display_names": [
        "Ancient of Sorrow"
      ],
      "costumes": [
        "BanishedPantheon_Ancient_Male_Sorrow_01",
        "BanishedPantheon_Ancient_Male_Sorrow_02",
        "BanishedPantheon_Ancient_Male_Sorrow_03",
        "BanishedPantheon_Ancient_Male_Sorrow_04"
      ]
    },
    {
      "level": 51,
      "experience": 0,
      "display_names": [
        "Ancient of Sorrow"
      ],
      "costumes": [
        "BanishedPantheon_Ancient_Male_Sorrow_01",
        "BanishedPantheon_Ancient_Male_Sorrow_02",
        "BanishedPantheon_Ancient_Male_Sorrow_03",
        "BanishedPantheon_Ancient_Male_Sorrow_04"
      ]
    },
    {
      "level": 52,
      "experience": 0,
      "display_names": [
        "Ancient of Sorrow"
      ],
      "costumes": [
        "BanishedPantheon_Ancient_Male_Sorrow_01",
        "BanishedPantheon_Ancient_Male_Sorrow_02",
        "BanishedPantheon_Ancient_Male_Sorrow_03",
        "BanishedPantheon_Ancient_Male_Sorrow_04"
      ]
    },
    {
      "level": 53,
      "experience": 0,
      "display_names": [
        "Ancient of Sorrow"
      ],
      "costumes": [
        "BanishedPantheon_Ancient_Male_Sorrow_01",
        "BanishedPantheon_Ancient_Male_Sorrow_02",
        "BanishedPantheon_Ancient_Male_Sorrow_03",
        "BanishedPantheon_Ancient_Male_Sorrow_04"
      ]
    },
    {
      "level": 54,
      "experience": 0,
      "display_names": [
        "Ancient of Sorrow"
      ],
      "costumes": [
        "BanishedPantheon_Ancient_Male_Sorrow_01",
        "BanishedPantheon_Ancient_Male_Sorrow_02",
        "BanishedPantheon_Ancient_Male_Sorrow_03",
        "BanishedPantheon_Ancient_Male_Sorrow_04"
      ]
    }
  ]
}