{
  "name": "BanishedPantheonEndgame_Ravager",
  "gender": "GENDER_MALE",
  "description": "The Ravager is a twisted creature whose origins are not fully understood. Its appearance is remarkably similar to that of the much larger and more powerful Sentinel, but it also shares many features with the lesser creatures spawned by a god of the Pantheon. It seems that a Ravager represents a point of transition within the service of a god, where one has acquired many gifts and blessings from its master, but is not yet strong enough to be seen as one of a god's primary lieutenants.",
  "group_description": null,
  "display_class_name": null,
  "character_class_name": "boss_praetoriangrunt",
  "ai_config": null,
  "commandable_pet": false,
  "power_tags": [

  ],
  "additional_rewards": [

  ],
  "skill_hp_rewards": [

  ],
  "skill_status_rewards": [

  ],
  "ally": null,
  "gang": null,
  "reward_scale": 1.0,
  "game_exclusion": "None",
  "inactive_state_weapon": null,
  "ignores_combat_mods": false,
  "copy_creator_mods": false,
  "spawn_limit": 0,
  "spawn_limit_mission": 1,
  "ignore_av_to_eb_scaling": false,
  "can_zone": false,
  "custom_badge_stat": null,
  "badge_stat_flags": "DefaultBadgeStat",
  "rank": "VR_BOSS",
  "power_full_names": [
    "BanishedPantheon.Ravager.Frigid_Smash",
    "BanishedPantheon.Ravager.Frigid_Stomp",
    "BanishedPantheon.Ravager.Frigid_Beam",
    "BanishedPantheon.Ravager.Frigid_Blast",
    "BanishedPantheon.Ravager.Frigid_Grasp",
    "BanishedPantheon.Ravager.Frigid_Enervation",
    "BanishedPantheon.Ravager.Deathless_Shell",
    "BanishedPantheon.Resistances_Mot.Damage_BS"
  ],
  "power_display_names": [
    "Frigid Slam",
    "Frigid Crush",
    "Frigid Beam",
    "Frigid Blast",
    "Frigid Grasp",
    "Frigid Enervation",
    "Deathless Shell",
    "Damage BS"
  ],
  "power_levels": [
    0,
    0,
    0,
    0,
    0,
    0,
    0,
    0
  ],
  "powers": [
    {
      "power_category": "BanishedPantheon",
      "power_set": "Ravager",
      "power": "*",
      "level": 0
    },
    {
      "power_category": "BanishedPantheon",
      "power_set": "Resistances_Mot",
      "power": "Damage_BS",
      "level": 0
    }
  ],
  "levels": [
    {
      "level": 50,
      "experience": 0,
      "display_names": [
        "Ravager"
      ],
      "costumes": [
        "BanishedPantheon_Ravager_01",
        "BanishedPantheon_Ravager_02",
        "BanishedPantheon_Ravager_03",
        "BanishedPantheon_Ravager_04"
      ]
    },
    {
      "level": 51,
      "experience": 0,
      "display_names": [
        "Ravager"
      ],
      "costumes": [
        "BanishedPantheon_Ravager_01",
        "BanishedPantheon_Ravager_02",
        "BanishedPantheon_Ravager_03",
        "BanishedPantheon_Ravager_04"
      ]
    },
    {
      "level": 52,
      "experience": 0,
      "display_names": [
        "Ravager"
      ],
      "costumes": [
        "BanishedPantheon_Ravager_01",
        "BanishedPantheon_Ravager_02",
        "BanishedPantheon_Ravager_03",
        "BanishedPantheon_Ravager_04"
      ]
    },
    {
      "level": 53,
      "experience": 0,
      "display_names": [
        "Ravager"
      ],
      "costumes": [
        "BanishedPantheon_Ravager_01",
        "BanishedPantheon_Ravager_02",
        "BanishedPantheon_Ravager_03",
        "BanishedPantheon_Ravager_04"
      ]
    },
    {
      "level": 54,
      "experience": 0,
      "display_names": [
        "Ravager"
      ],
      "costumes": [
        "BanishedPantheon_Ravager_01",
        "BanishedPantheon_Ravager_02",
        "BanishedPantheon_Ravager_03",
        "BanishedPantheon_Ravager_04"
      ]
    }
  ]
}