{
  "name": "base_AutonomousExpertSystem",
  "gender": "GENDER_MALE",
  "description": "This computer uses the latest experimental technology and software programming to create a true synthetic intelligence.  While its function is limited to security systems, the processing ability of this AI is such that it can handle all but the most demanding base needs.",
  "group_description": "Control",
  "display_class_name": "",
  "character_class_name": "boss_archvillain",
  "ai_config": "Default_Stationary",
  "commandable_pet": false,
  "power_tags": [
    "Base_HugeDevice"
  ],
  "additional_rewards": [

  ],
  "skill_hp_rewards": [

  ],
  "skill_status_rewards": [

  ],
  "ally": "Hero",
  "gang": "3",
  "reward_scale": 1.0,
  "game_exclusion": "None",
  "inactive_state_weapon": null,
  "ignores_combat_mods": false,
  "copy_creator_mods": false,
  "spawn_limit": 0,
  "spawn_limit_mission": 0,
  "ignore_av_to_eb_scaling": false,
  "can_zone": false,
  "custom_badge_stat": null,
  "badge_stat_flags": "DefaultBadgeStat",
  "rank": "VR_SMALL",
  "power_full_names": [
    "Objects.Inherent.Resistance"
  ],
  "power_display_names": [
    "Resistance"
  ],
  "power_levels": [
    0
  ],
  "powers": [
    {
      "power_category": "Objects",
      "power_set": "Inherent",
      "power": "*",
      "level": 0
    }
  ],
  "levels": [
    {
      "level": 1,
      "experience": 0,
      "display_names": [
        "Autonomous Expert System"
      ],
      "costumes": [
        "v_base_object_unselectable"
      ]
    },
    {
      "level": 2,
      "experience": 0,
      "display_names": [
        "Autonomous Expert System"
      ],
      "costumes": [
        "v_base_object_unselectable"
      ]
    },
    {
      "level": 3,
      "experience": 0,
      "display_names": [
        "Autonomous Expert System"
      ],
      "costumes": [
        "v_base_object_unselectable"
      ]
    },
    {
      "level": 4,
      "experience": 0,
      "display_names": [
        "Autonomous Expert System"
      ],
      "costumes": [
        "v_base_object_unselectable"
      ]
    },
    {
      "level": 5,
      "experience": 0,
      "display_names": [
        "Autonomous Expert System"
      ],
      "costumes": [
        "v_base_object_unselectable"
      ]
    },
    {
      "level": 6,
      "experience": 0,
      "display_names": [
        "Autonomous Expert System"
      ],
      "costumes": [
        "v_base_object_unselectable"
      ]
    },
    {
      "level": 7,
      "experience": 0,
      "display_names": [
        "Autonomous Expert System"
      ],
      "costumes": [
        "v_base_object_unselectable"
      ]
    },
    {
      "level": 8,
      "experience": 0,
      "display_names": [
        "Autonomous Expert System"
      ],
      "costumes": [
        "v_base_object_unselectable"
      ]
    },
    {
      "level": 9,
      "experience": 0,
      "display_names": [
        "Autonomous Expert System"
      ],
      "costumes": [
        "v_base_object_unselectable"
      ]
    },
    {
      "level": 10,
      "experience": 0,
      "display_names": [
        "Autonomous Expert System"
      ],
      "costumes": [
        "v_base_object_unselectable"
      ]
    },
    {
      "level": 11,
      "experience": 0,
      "display_names": [
        "Autonomous Expert System"
      ],
      "costumes": [
        "v_base_object_unselectable"
      ]
    },
    {
      "level": 12,
      "experience": 0,
      "display_names": [
        "Autonomous Expert System"
      ],
      "costumes": [
        "v_base_object_unselectable"
      ]
    },
    {
      "level": 13,
      "experience": 0,
      "display_names": [
        "Autonomous Expert System"
      ],
      "costumes": [
        "v_base_object_unselectable"
      ]
    },
    {
      "level": 14,
      "experience": 0,
      "display_names": [
        "Autonomous Expert System"
      ],
      "costumes": [
        "v_base_object_unselectable"
      ]
    },
    {
      "level": 15,
      "experience": 0,
      "display_names": [
        "Autonomous Expert System"
      ],
      "costumes": [
        "v_base_object_unselectable"
      ]
    },
    {
      "level": 16,
      "experience": 0,
      "display_names": [
        "Autonomous Expert System"
      ],
      "costumes": [
        "v_base_object_unselectable"
      ]
    },
    {
      "level": 17,
      "experience": 0,
      "display_names": [
        "Autonomous Expert System"
      ],
      "costumes": [
        "v_base_object_unselectable"
      ]
    },
    {
      "level": 18,
      "experience": 0,
      "display_names": [
        "Autonomous Expert System"
      ],
      "costumes": [
        "v_base_object_unselectable"
      ]
    },
    {
      "level": 19,
      "experience": 0,
      "display_names": [
        "Autonomous Expert System"
      ],
      "costumes": [
        "v_base_object_unselectable"
      ]
    },
    {
      "level": 20,
      "experience": 0,
      "display_names": [
        "Autonomous Expert System"
      ],
      "costumes": [
        "v_base_object_unselectable"
      ]
    },
    {
      "level": 21,
      "experience": 0,
      "display_names": [
        "Autonomous Expert System"
      ],
      "costumes": [
        "v_base_object_unselectable"
      ]
    },
    {
      "level": 22,
      "experience": 0,
      "display_names": [
        "Autonomous Expert System"
      ],
      "costumes": [
        "v_base_object_unselectable"
      ]
    },
    {
      "level": 23,
      "experience": 0,
      "display_names": [
        "Autonomous Expert System"
      ],
      "costumes": [
        "v_base_object_unselectable"
      ]
    },
    {
      "level": 24,
      "experience": 0,
      "display_names": [
        "Autonomous Expert System"
      ],
      "costumes": [
        "v_base_object_unselectable"
      ]
    },
    {
      "level": 25,
      "experience": 0,
      "display_names": [
        "Autonomous Expert System"
      ],
      "costumes": [
        "v_base_object_unselectable"
      ]
    },
    {
      "level": 26,
      "experience": 0,
      "display_names": [
        "Autonomous Expert System"
      ],
      "costumes": [
        "v_base_object_unselectable"
      ]
    },
    {
      "level": 27,
      "experience": 0,
      "display_names": [
        "Autonomous Expert System"
      ],
      "costumes": [
        "v_base_object_unselectable"
      ]
    },
    {
      "level": 28,
      "experience": 0,
      "display_names": [
        "Autonomous Expert System"
      ],
      "costumes": [
        "v_base_object_unselectable"
      ]
    },
    {
      "level": 29,
      "experience": 0,
      "display_names": [
        "Autonomous Expert System"
      ],
      "costumes": [
        "v_base_object_unselectable"
      ]
    },
    {
      "level": 30,
      "experience": 0,
      "display_names": [
        "Autonomous Expert System"
      ],
      "costumes": [
        "v_base_object_unselectable"
      ]
    },
    {
      "level": 31,
      "experience": 0,
      "display_names": [
        "Autonomous Expert System"
      ],
      "costumes": [
        "v_base_object_unselectable"
      ]
    },
    {
      "level": 32,
      "experience": 0,
      "display_names": [
        "Autonomous Expert System"
      ],
      "costumes": [
        "v_base_object_unselectable"
      ]
    },
    {
      "level": 33,
      "experience": 0,
      "display_names": [
        "Autonomous Expert System"
      ],
      "costumes": [
        "v_base_object_unselectable"
      ]
    },
    {
      "level": 34,
      "experience": 0,
      "display_names": [
        "Autonomous Expert System"
      ],
      "costumes": [
        "v_base_object_unselectable"
      ]
    },
    {
      "level": 35,
      "experience": 0,
      "display_names": [
        "Autonomous Expert System"
      ],
      "costumes": [
        "v_base_object_unselectable"
      ]
    },
    {
      "level": 36,
      "experience": 0,
      "display_names": [
        "Autonomous Expert System"
      ],
      "costumes": [
        "v_base_object_unselectable"
      ]
    },
    {
      "level": 37,
      "experience": 0,
      "display_names": [
        "Autonomous Expert System"
      ],
      "costumes": [
        "v_base_object_unselectable"
      ]
    },
    {
      "level": 38,
      "experience": 0,
      "display_names": [
        "Autonomous Expert System"
      ],
      "costumes": [
        "v_base_object_unselectable"
      ]
    },
    {
      "level": 39,
      "experience": 0,
      "display_names": [
        "Autonomous Expert System"
      ],
      "costumes": [
        "v_base_object_unselectable"
      ]
    },
    {
      "level": 40,
      "experience": 0,
      "display_names": [
        "Autonomous Expert System"
      ],
      "costumes": [
        "v_base_object_unselectable"
      ]
    },
    {
      "level": 41,
      "experience": 0,
      "display_names": [
        "Autonomous Expert System"
      ],
      "costumes": [
        "v_base_object_unselectable"
      ]
    },
    {
      "level": 42,
      "experience": 0,
      "display_names": [
        "Autonomous Expert System"
      ],
      "costumes": [
        "v_base_object_unselectable"
      ]
    },
    {
      "level": 43,
      "experience": 0,
      "display_names": [
        "Autonomous Expert System"
      ],
      "costumes": [
        "v_base_object_unselectable"
      ]
    },
    {
      "level": 44,
      "experience": 0,
      "display_names": [
        "Autonomous Expert System"
      ],
      "costumes": [
        "v_base_object_unselectable"
      ]
    },
    {
      "level": 45,
      "experience": 0,
      "display_names": [
        "Autonomous Expert System"
      ],
      "costumes": [
        "v_base_object_unselectable"
      ]
    },
    {
      "level": 46,
      "experience": 0,
      "display_names": [
        "Autonomous Expert System"
      ],
      "costumes": [
        "v_base_object_unselectable"
      ]
    },
    {
      "level": 47,
      "experience": 0,
      "display_names": [
        "Autonomous Expert System"
      ],
      "costumes": [
        "v_base_object_unselectable"
      ]
    },
    {
      "level": 48,
      "experience": 0,
      "display_names": [
        "Autonomous Expert System"
      ],
      "costumes": [
        "v_base_object_unselectable"
      ]
    },
    {
      "level": 49,
      "experience": 0,
      "display_names": [
        "Autonomous Expert System"
      ],
      "costumes": [
        "v_base_object_unselectable"
      ]
    },
    {
      "level": 50,
      "experience": 0,
      "display_names": [
        "Autonomous Expert System"
      ],
      "costumes": [
        "v_base_object_unselectable"
      ]
    },
    {
      "level": 51,
      "experience": 0,
      "display_names": [
        "Autonomous Expert System"
      ],
      "costumes": [
        "v_base_object_unselectable"
      ]
    },
    {
      "level": 52,
      "experience": 0,
      "display_names": [
        "Autonomous Expert System"
      ],
      "costumes": [
        "v_base_object_unselectable"
      ]
    },
    {
      "level": 53,
      "experience": 0,
      "display_names": [
        "Autonomous Expert System"
      ],
      "costumes": [
        "v_base_object_unselectable"
      ]
    },
    {
      "level": 54,
      "experience": 0,
      "display_names": [
        "Autonomous Expert System"
      ],
      "costumes": [
        "v_base_object_unselectable"
      ]
    }
  ]
}