{
  "name": "base_MysticalBookshelf_I14",
  "gender": "GENDER_MALE",
  "description": "Information is key to defeating your enemies. These magical texts generate additional control for your defenses.",
  "group_description": "ControlAux",
  "display_class_name": "Large Device",
  "character_class_name": "boss_elite",
  "ai_config": "Default_Stationary",
  "commandable_pet": false,
  "power_tags": [
    "Base_LargeDevice"
  ],
  "additional_rewards": [

  ],
  "skill_hp_rewards": [

  ],
  "skill_status_rewards": [

  ],
  "ally": "Hero",
  "gang": "3",
  "reward_scale": 1.0,
  "game_exclusion": "None",
  "inactive_state_weapon": null,
  "ignores_combat_mods": false,
  "copy_creator_mods": false,
  "spawn_limit": 0,
  "spawn_limit_mission": 0,
  "ignore_av_to_eb_scaling": false,
  "can_zone": false,
  "custom_badge_stat": null,
  "badge_stat_flags": "DefaultBadgeStat",
  "rank": "VR_SMALL",
  "power_full_names": [
    "Base_Traps.Trap_Defenses.Defenses",
    "Objects.Inherent.Resistance"
  ],
  "power_display_names": [
    "Defenses",
    "Resistance"
  ],
  "power_levels": [
    0,
    0
  ],
  "powers": [
    {
      "power_category": "Base_Traps",
      "power_set": "Trap_Defenses",
      "power": "*",
      "level": 0
    },
    {
      "power_category": "Objects",
      "power_set": "Inherent",
      "power": "*",
      "level": 0
    }
  ],
  "levels": [
    {
      "level": 1,
      "experience": 0,
      "display_names": [
        "Mystical Bookshelf"
      ],
      "costumes": [
        "v_base_object"
      ]
    },
    {
      "level": 2,
      "experience": 0,
      "display_names": [
        "Mystical Bookshelf"
      ],
      "costumes": [
        "v_base_object"
      ]
    },
    {
      "level": 3,
      "experience": 0,
      "display_names": [
        "Mystical Bookshelf"
      ],
      "costumes": [
        "v_base_object"
      ]
    },
    {
      "level": 4,
      "experience": 0,
      "display_names": [
        "Mystical Bookshelf"
      ],
      "costumes": [
        "v_base_object"
      ]
    },
    {
      "level": 5,
      "experience": 0,
      "display_names": [
        "Mystical Bookshelf"
      ],
      "costumes": [
        "v_base_object"
      ]
    },
    {
      "level": 6,
      "experience": 0,
      "display_names": [
        "Mystical Bookshelf"
      ],
      "costumes": [
        "v_base_object"
      ]
    },
    {
      "level": 7,
      "experience": 0,
      "display_names": [
        "Mystical Bookshelf"
      ],
      "costumes": [
        "v_base_object"
      ]
    },
    {
      "level": 8,
      "experience": 0,
      "display_names": [
        "Mystical Bookshelf"
      ],
      "costumes": [
        "v_base_object"
      ]
    },
    {
      "level": 9,
      "experience": 0,
      "display_names": [
        "Mystical Bookshelf"
      ],
      "costumes": [
        "v_base_object"
      ]
    },
    {
      "level": 10,
      "experience": 0,
      "display_names": [
        "Mystical Bookshelf"
      ],
      "costumes": [
        "v_base_object"
      ]
    },
    {
      "level": 11,
      "experience": 0,
      "display_names": [
        "Mystical Bookshelf"
      ],
      "costumes": [
        "v_base_object"
      ]
    },
    {
      "level": 12,
      "experience": 0,
      "display_names": [
        "Mystical Bookshelf"
      ],
      "costumes": [
        "v_base_object"
      ]
    },
    {
      "level": 13,
      "experience": 0,
      "display_names": [
        "Mystical Bookshelf"
      ],
      "costumes": [
        "v_base_object"
      ]
    },
    {
      "level": 14,
      "experience": 0,
      "display_names": [
        "Mystical Bookshelf"
      ],
      "costumes": [
        "v_base_object"
      ]
    },
    {
      "level": 15,
      "experience": 0,
      "display_names": [
        "Mystical Bookshelf"
      ],
      "costumes": [
        "v_base_object"
      ]
    },
    {
      "level": 16,
      "experience": 0,
      "display_names": [
        "Mystical Bookshelf"
      ],
      "costumes": [
        "v_base_object"
      ]
    },
    {
      "level": 17,
      "experience": 0,
      "display_names": [
        "Mystical Bookshelf"
      ],
      "costumes": [
        "v_base_object"
      ]
    },
    {
      "level": 18,
      "experience": 0,
      "display_names": [
        "Mystical Bookshelf"
      ],
      "costumes": [
        "v_base_object"
      ]
    },
    {
      "level": 19,
      "experience": 0,
      "display_names": [
        "Mystical Bookshelf"
      ],
      "costumes": [
        "v_base_object"
      ]
    },
    {
      "level": 20,
      "experience": 0,
      "display_names": [
        "Mystical Bookshelf"
      ],
      "costumes": [
        "v_base_object"
      ]
    },
    {
      "level": 21,
      "experience": 0,
      "display_names": [
        "Mystical Bookshelf"
      ],
      "costumes": [
        "v_base_object"
      ]
    },
    {
      "level": 22,
      "experience": 0,
      "display_names": [
        "Mystical Bookshelf"
      ],
      "costumes": [
        "v_base_object"
      ]
    },
    {
      "level": 23,
      "experience": 0,
      "display_names": [
        "Mystical Bookshelf"
      ],
      "costumes": [
        "v_base_object"
      ]
    },
    {
      "level": 24,
      "experience": 0,
      "display_names": [
        "Mystical Bookshelf"
      ],
      "costumes": [
        "v_base_object"
      ]
    },
    {
      "level": 25,
      "experience": 0,
      "display_names": [
        "Mystical Bookshelf"
      ],
      "costumes": [
        "v_base_object"
      ]
    },
    {
      "level": 26,
      "experience": 0,
      "display_names": [
        "Mystical Bookshelf"
      ],
      "costumes": [
        "v_base_object"
      ]
    },
    {
      "level": 27,
      "experience": 0,
      "display_names": [
        "Mystical Bookshelf"
      ],
      "costumes": [
        "v_base_object"
      ]
    },
    {
      "level": 28,
      "experience": 0,
      "display_names": [
        "Mystical Bookshelf"
      ],
      "costumes": [
        "v_base_object"
      ]
    },
    {
      "level": 29,
      "experience": 0,
      "display_names": [
        "Mystical Bookshelf"
      ],
      "costumes": [
        "v_base_object"
      ]
    },
    {
      "level": 30,
      "experience": 0,
      "display_names": [
        "Mystical Bookshelf"
      ],
      "costumes": [
        "v_base_object"
      ]
    },
    {
      "level": 31,
      "experience": 0,
      "display_names": [
        "Mystical Bookshelf"
      ],
      "costumes": [
        "v_base_object"
      ]
    },
    {
      "level": 32,
      "experience": 0,
      "display_names": [
        "Mystical Bookshelf"
      ],
      "costumes": [
        "v_base_object"
      ]
    },
    {
      "level": 33,
      "experience": 0,
      "display_names": [
        "Mystical Bookshelf"
      ],
      "costumes": [
        "v_base_object"
      ]
    },
    {
      "level": 34,
      "experience": 0,
      "display_names": [
        "Mystical Bookshelf"
      ],
      "costumes": [
        "v_base_object"
      ]
    },
    {
      "level": 35,
      "experience": 0,
      "display_names": [
        "Mystical Bookshelf"
      ],
      "costumes": [
        "v_base_object"
      ]
    },
    {
      "level": 36,
      "experience": 0,
      "display_names": [
        "Mystical Bookshelf"
      ],
      "costumes": [
        "v_base_object"
      ]
    },
    {
      "level": 37,
      "experience": 0,
      "display_names": [
        "Mystical Bookshelf"
      ],
      "costumes": [
        "v_base_object"
      ]
    },
    {
      "level": 38,
      "experience": 0,
      "display_names": [
        "Mystical Bookshelf"
      ],
      "costumes": [
        "v_base_object"
      ]
    },
    {
      "level": 39,
      "experience": 0,
      "display_names": [
        "Mystical Bookshelf"
      ],
      "costumes": [
        "v_base_object"
      ]
    },
    {
      "level": 40,
      "experience": 0,
      "display_names": [
        "Mystical Bookshelf"
      ],
      "costumes": [
        "v_base_object"
      ]
    },
    {
      "level": 41,
      "experience": 0,
      "display_names": [
        "Mystical Bookshelf"
      ],
      "costumes": [
        "v_base_object"
      ]
    },
    {
      "level": 42,
      "experience": 0,
      "display_names": [
        "Mystical Bookshelf"
      ],
      "costumes": [
        "v_base_object"
      ]
    },
    {
      "level": 43,
      "experience": 0,
      "display_names": [
        "Mystical Bookshelf"
      ],
      "costumes": [
        "v_base_object"
      ]
    },
    {
      "level": 44,
      "experience": 0,
      "display_names": [
        "Mystical Bookshelf"
      ],
      "costumes": [
        "v_base_object"
      ]
    },
    {
      "level": 45,
      "experience": 0,
      "display_names": [
        "Mystical Bookshelf"
      ],
      "costumes": [
        "v_base_object"
      ]
    },
    {
      "level": 46,
      "experience": 0,
      "display_names": [
        "Mystical Bookshelf"
      ],
      "costumes": [
        "v_base_object"
      ]
    },
    {
      "level": 47,
      "experience": 0,
      "display_names": [
        "Mystical Bookshelf"
      ],
      "costumes": [
        "v_base_object"
      ]
    },
    {
      "level": 48,
      "experience": 0,
      "display_names": [
        "Mystical Bookshelf"
      ],
      "costumes": [
        "v_base_object"
      ]
    },
    {
      "level": 49,
      "experience": 0,
      "display_names": [
        "Mystical Bookshelf"
      ],
      "costumes": [
        "v_base_object"
      ]
    },
    {
      "level": 50,
      "experience": 0,
      "display_names": [
        "Mystical Bookshelf"
      ],
      "costumes": [
        "v_base_object"
      ]
    },
    {
      "level": 51,
      "experience": 0,
      "display_names": [
        "Mystical Bookshelf"
      ],
      "costumes": [
        "v_base_object"
      ]
    },
    {
      "level": 52,
      "experience": 0,
      "display_names": [
        "Mystical Bookshelf"
      ],
      "costumes": [
        "v_base_object"
      ]
    },
    {
      "level": 53,
      "experience": 0,
      "display_names": [
        "Mystical Bookshelf"
      ],
      "costumes": [
        "v_base_object"
      ]
    },
    {
      "level": 54,
      "experience": 0,
      "display_names": [
        "Mystical Bookshelf"
      ],
      "costumes": [
        "v_base_object"
      ]
    }
  ]
}