{
  "name": "BattleMaiden_Nictus_Hunter_Lieutenant",
  "gender": "GENDER_MALE",
  "description": "To defeat the enemy in front of you and take the battle is the second lesson of the Champions of War Earth. They believe that if you cannot hold your place in the line then not only will you fall, but so will your comrades around you.",
  "group_description": "Praetorians",
  "display_class_name": null,
  "character_class_name": "lt_grunt",
  "ai_config": "Nictus_Hunter",
  "commandable_pet": false,
  "power_tags": [
    "HumanSkeleton",
    "Human"
  ],
  "additional_rewards": [

  ],
  "skill_hp_rewards": [

  ],
  "skill_status_rewards": [

  ],
  "ally": null,
  "gang": null,
  "reward_scale": 1.0,
  "game_exclusion": "None",
  "inactive_state_weapon": null,
  "ignores_combat_mods": false,
  "copy_creator_mods": false,
  "spawn_limit": 0,
  "spawn_limit_mission": 0,
  "ignore_av_to_eb_scaling": false,
  "can_zone": false,
  "custom_badge_stat": null,
  "badge_stat_flags": "DefaultBadgeStat",
  "rank": "VR_LIEUTENANT",
  "power_full_names": [
    "Nictus.Hunter.Quantum_Array_gun"
  ],
  "power_display_names": [
    "Quantum Array gun"
  ],
  "power_levels": [
    0
  ],
  "powers": [
    {
      "power_category": "Nictus",
      "power_set": "Hunter",
      "power": "Quantum_Array_gun",
      "level": 0
    }
  ],
  "levels": [
    {
      "level": 45,
      "experience": 0,
      "display_names": [
        "Quantum Champion of Battle"
      ],
      "costumes": [
        "Battle_Maiden_Minion_03"
      ]
    },
    {
      "level": 46,
      "experience": 0,
      "display_names": [
        "Quantum Champion of Battle"
      ],
      "costumes": [
        "Battle_Maiden_Minion_03"
      ]
    },
    {
      "level": 47,
      "experience": 0,
      "display_names": [
        "Quantum Champion of Battle"
      ],
      "costumes": [
        "Battle_Maiden_Minion_03"
      ]
    },
    {
      "level": 48,
      "experience": 0,
      "display_names": [
        "Quantum Champion of Battle"
      ],
      "costumes": [
        "Battle_Maiden_Minion_03"
      ]
    },
    {
      "level": 49,
      "experience": 0,
      "display_names": [
        "Quantum Champion of Battle"
      ],
      "costumes": [
        "Battle_Maiden_Minion_03"
      ]
    },
    {
      "level": 50,
      "experience": 0,
      "display_names": [
        "Quantum Champion of Battle"
      ],
      "costumes": [
        "Battle_Maiden_Minion_03"
      ]
    },
    {
      "level": 51,
      "experience": 0,
      "display_names": [
        "Quantum Champion of Battle"
      ],
      "costumes": [
        "Battle_Maiden_Minion_03"
      ]
    },
    {
      "level": 52,
      "experience": 0,
      "display_names": [
        "Quantum Champion of Battle"
      ],
      "costumes": [
        "Battle_Maiden_Minion_03"
      ]
    },
    {
      "level": 53,
      "experience": 0,
      "display_names": [
        "Quantum Champion of Battle"
      ],
      "costumes": [
        "Battle_Maiden_Minion_03"
      ]
    },
    {
      "level": 54,
      "experience": 0,
      "display_names": [
        "Quantum Champion of Battle"
      ],
      "costumes": [
        "Battle_Maiden_Minion_03"
      ]
    }
  ]
}