{
  "name": "BlackKnights_Black_Queen",
  "gender": "GENDER_MALE",
  "description": "The Black Queen rules at the side of Lord Lorn and is normally in charge of the running of the Eternal Prison while Lorn is on campaign. She has come with her husband to Night Ward in search of the Black Swan, whose villainy has earned her a very special cage in the Black Queen's collection within the Eternal Prison. She is no stranger to warfare and weilds potent magic against any who dare raise a weapon against her.",
  "group_description": null,
  "display_class_name": null,
  "character_class_name": "boss_grunt",
  "ai_config": "Default_Ranged",
  "commandable_pet": false,
  "power_tags": [
    "HumanSkeleton",
    "Human",
    "Undead"
  ],
  "additional_rewards": [

  ],
  "skill_hp_rewards": [

  ],
  "skill_status_rewards": [

  ],
  "ally": null,
  "gang": null,
  "reward_scale": 1.0,
  "game_exclusion": "None",
  "inactive_state_weapon": null,
  "ignores_combat_mods": false,
  "copy_creator_mods": false,
  "spawn_limit": 0,
  "spawn_limit_mission": 0,
  "ignore_av_to_eb_scaling": true,
  "can_zone": false,
  "custom_badge_stat": null,
  "badge_stat_flags": "DefaultBadgeStat",
  "rank": "VR_BOSS",
  "power_full_names": [
    "BlackKnights.Dark_Blast.Dark_Blast",
    "BlackKnights.Dark_Blast.Tenebrous_Tentacles",
    "BlackKnights.Dark_Blast.Torrent",
    "BlackKnights.Dark_Miasma.Twilight_Grasp",
    "BlackKnights.Dark_Miasma.Nether_Well",
    "BlackKnights.Dark_Miasma.Shadow_Fall",
    "BlackKnights.Dark_Miasma.Nether_Void",
    "BlackKnights.Dark_Miasma.Fade",
    "BlackKnights.Dark_Miasma.Dread_Servant",
    "BlackKnights.Resistances.Damage_BS"
  ],
  "power_display_names": [
    "Dark Blast",
    "Tenebrous Tentacles",
    "Torrent",
    "Twilight Grasp",
    "Nether Well",
    "Shadow Fall",
    "Nether Void",
    "Fade",
    "Dread Servant",
    "Damage Resistance"
  ],
  "power_levels": [
    0,
    0,
    0,
    0,
    0,
    0,
    0,
    0,
    0,
    0
  ],
  "powers": [
    {
      "power_category": "BlackKnights",
      "power_set": "Dark_Blast",
      "power": "*",
      "level": 0
    },
    {
      "power_category": "BlackKnights",
      "power_set": "Dark_Miasma",
      "power": "*",
      "level": 0
    },
    {
      "power_category": "BlackKnights",
      "power_set": "Resistances",
      "power": "Damage_BS",
      "level": 0
    }
  ],
  "levels": [
    {
      "level": 25,
      "experience": 0,
      "display_names": [
        "Black Queen"
      ],
      "costumes": [
        "Model_Black_Queen"
      ]
    },
    {
      "level": 26,
      "experience": 0,
      "display_names": [
        "Black Queen"
      ],
      "costumes": [
        "Model_Black_Queen"
      ]
    },
    {
      "level": 27,
      "experience": 0,
      "display_names": [
        "Black Queen"
      ],
      "costumes": [
        "Model_Black_Queen"
      ]
    },
    {
      "level": 28,
      "experience": 0,
      "display_names": [
        "Black Queen"
      ],
      "costumes": [
        "Model_Black_Queen"
      ]
    },
    {
      "level": 29,
      "experience": 0,
      "display_names": [
        "Black Queen"
      ],
      "costumes": [
        "Model_Black_Queen"
      ]
    },
    {
      "level": 30,
      "experience": 0,
      "display_names": [
        "Black Queen"
      ],
      "costumes": [
        "Model_Black_Queen"
      ]
    },
    {
      "level": 31,
      "experience": 0,
      "display_names": [
        "Black Queen"
      ],
      "costumes": [
        "Model_Black_Queen"
      ]
    },
    {
      "level": 32,
      "experience": 0,
      "display_names": [
        "Black Queen"
      ],
      "costumes": [
        "Model_Black_Queen"
      ]
    },
    {
      "level": 33,
      "experience": 0,
      "display_names": [
        "Black Queen"
      ],
      "costumes": [
        "Model_Black_Queen"
      ]
    },
    {
      "level": 34,
      "experience": 0,
      "display_names": [
        "Black Queen"
      ],
      "costumes": [
        "Model_Black_Queen"
      ]
    },
    {
      "level": 35,
      "experience": 0,
      "display_names": [
        "Black Queen"
      ],
      "costumes": [
        "Model_Black_Queen"
      ]
    },
    {
      "level": 36,
      "experience": 0,
      "display_names": [
        "Black Queen"
      ],
      "costumes": [
        "Model_Black_Queen"
      ]
    },
    {
      "level": 37,
      "experience": 0,
      "display_names": [
        "Black Queen"
      ],
      "costumes": [
        "Model_Black_Queen"
      ]
    },
    {
      "level": 38,
      "experience": 0,
      "display_names": [
        "Black Queen"
      ],
      "costumes": [
        "Model_Black_Queen"
      ]
    },
    {
      "level": 39,
      "experience": 0,
      "display_names": [
        "Black Queen"
      ],
      "costumes": [
        "Model_Black_Queen"
      ]
    },
    {
      "level": 40,
      "experience": 0,
      "display_names": [
        "Black Queen"
      ],
      "costumes": [
        "Model_Black_Queen"
      ]
    },
    {
      "level": 41,
      "experience": 0,
      "display_names": [
        "Black Queen"
      ],
      "costumes": [
        "Model_Black_Queen"
      ]
    },
    {
      "level": 42,
      "experience": 0,
      "display_names": [
        "Black Queen"
      ],
      "costumes": [
        "Model_Black_Queen"
      ]
    },
    {
      "level": 43,
      "experience": 0,
      "display_names": [
        "Black Queen"
      ],
      "costumes": [
        "Model_Black_Queen"
      ]
    },
    {
      "level": 44,
      "experience": 0,
      "display_names": [
        "Black Queen"
      ],
      "costumes": [
        "Model_Black_Queen"
      ]
    },
    {
      "level": 45,
      "experience": 0,
      "display_names": [
        "Black Queen"
      ],
      "costumes": [
        "Model_Black_Queen"
      ]
    },
    {
      "level": 46,
      "experience": 0,
      "display_names": [
        "Black Queen"
      ],
      "costumes": [
        "Model_Black_Queen"
      ]
    },
    {
      "level": 47,
      "experience": 0,
      "display_names": [
        "Black Queen"
      ],
      "costumes": [
        "Model_Black_Queen"
      ]
    },
    {
      "level": 48,
      "experience": 0,
      "display_names": [
        "Black Queen"
      ],
      "costumes": [
        "Model_Black_Queen"
      ]
    },
    {
      "level": 49,
      "experience": 0,
      "display_names": [
        "Black Queen"
      ],
      "costumes": [
        "Model_Black_Queen"
      ]
    },
    {
      "level": 50,
      "experience": 0,
      "display_names": [
        "Black Queen"
      ],
      "costumes": [
        "Model_Black_Queen"
      ]
    },
    {
      "level": 51,
      "experience": 0,
      "display_names": [
        "Black Queen"
      ],
      "costumes": [
        "Model_Black_Queen"
      ]
    },
    {
      "level": 52,
      "experience": 0,
      "display_names": [
        "Black Queen"
      ],
      "costumes": [
        "Model_Black_Queen"
      ]
    },
    {
      "level": 53,
      "experience": 0,
      "display_names": [
        "Black Queen"
      ],
      "costumes": [
        "Model_Black_Queen"
      ]
    },
    {
      "level": 54,
      "experience": 0,
      "display_names": [
        "Black Queen"
      ],
      "costumes": [
        "Model_Black_Queen"
      ]
    }
  ]
}