{
  "name": "BlackSwan_Minion",
  "gender": "GENDER_MALE",
  "description": "These small shadowy beings serve Black Swan loyally. They seem to have no desires or motivations of their own. Some people say that after they encounter them they experience a chill for up to several weeks. They can channel dark energy into focused blasts.",
  "group_description": "Praetorians",
  "display_class_name": null,
  "character_class_name": "minion_grunt",
  "ai_config": "Default_Ranged",
  "commandable_pet": false,
  "power_tags": [

  ],
  "additional_rewards": [

  ],
  "skill_hp_rewards": [

  ],
  "skill_status_rewards": [

  ],
  "ally": null,
  "gang": null,
  "reward_scale": 1.0,
  "game_exclusion": "None",
  "inactive_state_weapon": null,
  "ignores_combat_mods": false,
  "copy_creator_mods": false,
  "spawn_limit": -1,
  "spawn_limit_mission": -1,
  "ignore_av_to_eb_scaling": false,
  "can_zone": false,
  "custom_badge_stat": null,
  "badge_stat_flags": "DefaultBadgeStat",
  "rank": "VR_MINION",
  "power_full_names": [
    "Praetorians.Black_Swan_Minion.Dark_Blast",
    "Praetorians.Black_Swan_Minion.Shadow_Punch",
    "Praetorians.Black_Swan_Minion.Gloom",
    "Praetorians.Black_Swan_Minion.Shadow_Maul",
    "Praetorians.Black_Swan_Minion.Resistance"
  ],
  "power_display_names": [
    "Dark Blast",
    "Shadow Punch",
    "Gloom",
    "Shadow Maul",
    "Resistance"
  ],
  "power_levels": [
    0,
    0,
    0,
    0,
    0
  ],
  "powers": [
    {
      "power_category": "Praetorians",
      "power_set": "Black_Swan_Minion",
      "power": "*",
      "level": 0
    }
  ],
  "levels": [
    {
      "level": 45,
      "experience": 0,
      "display_names": [
        "Minor Shadow"
      ],
      "costumes": [
        "Black_Swan_Minions"
      ]
    },
    {
      "level": 46,
      "experience": 0,
      "display_names": [
        "Minor Shadow"
      ],
      "costumes": [
        "Black_Swan_Minions"
      ]
    },
    {
      "level": 47,
      "experience": 0,
      "display_names": [
        "Minor Shadow"
      ],
      "costumes": [
        "Black_Swan_Minions"
      ]
    },
    {
      "level": 48,
      "experience": 0,
      "display_names": [
        "Minor Shadow"
      ],
      "costumes": [
        "Black_Swan_Minions"
      ]
    },
    {
      "level": 49,
      "experience": 0,
      "display_names": [
        "Minor Shadow"
      ],
      "costumes": [
        "Black_Swan_Minions"
      ]
    },
    {
      "level": 50,
      "experience": 0,
      "display_names": [
        "Minor Shadow"
      ],
      "costumes": [
        "Black_Swan_Minions"
      ]
    },
    {
      "level": 51,
      "experience": 0,
      "display_names": [
        "Minor Shadow"
      ],
      "costumes": [
        "Black_Swan_Minions"
      ]
    },
    {
      "level": 52,
      "experience": 0,
      "display_names": [
        "Minor Shadow"
      ],
      "costumes": [
        "Black_Swan_Minions"
      ]
    },
    {
      "level": 53,
      "experience": 0,
      "display_names": [
        "Minor Shadow"
      ],
      "costumes": [
        "Black_Swan_Minions"
      ]
    },
    {
      "level": 54,
      "experience": 0,
      "display_names": [
        "Minor Shadow"
      ],
      "costumes": [
        "Black_Swan_Minions"
      ]
    }
  ]
}