{
  "name": "Cabal_Cabal_Minister_Mavan",
  "gender": "GENDER_FEMALE",
  "description": "It takes more than just hard work and dedication to become a Maven of Ministry. It takes a certain raw talent, and a sensitivity to the power wafting through every breeze in Croatoa. Some Mavens insist that they can hear the voices of their late husbands floating on those breezes. Whether true or not, this belief only strengthens their fury in battle.",
  "group_description": null,
  "display_class_name": null,
  "character_class_name": "lt_grunt",
  "ai_config": "Default_Ranged",
  "commandable_pet": false,
  "power_tags": [
    "HumanSkeleton",
    "Human"
  ],
  "additional_rewards": [

  ],
  "skill_hp_rewards": [

  ],
  "skill_status_rewards": [

  ],
  "ally": null,
  "gang": "GhostCabalFirbolg",
  "reward_scale": 1.0,
  "game_exclusion": "None",
  "inactive_state_weapon": null,
  "ignores_combat_mods": false,
  "copy_creator_mods": false,
  "spawn_limit": -1,
  "spawn_limit_mission": -1,
  "ignore_av_to_eb_scaling": false,
  "can_zone": false,
  "custom_badge_stat": null,
  "badge_stat_flags": "DefaultBadgeStat",
  "rank": "VR_LIEUTENANT",
  "power_full_names": [
    "Cabal.Cabal_Maven_Lt_Resists.Resistance",
    "Cabal.Cabal_Adept_Minion_Melee.Storm_Strike",
    "Cabal.Cabal_Adept_Minion_Melee.Charged_Brawl",
    "Cabal.Cabal_Maven_Lt_Movement.Fly",
    "Cabal.Cabal_Maven_Lt_Movement.Fly_fx",
    "Cabal.Cabal_Maven_Lt_Movement.Positioning",
    "Cabal.Cabal_Maven_Lt_Healer.Lightning_Bolt",
    "Cabal.Cabal_Maven_Lt_Healer.O2_Boost"
  ],
  "power_display_names": [
    "Resistance",
    "Storm Strike",
    "Charged Brawl",
    "Fly",
    "Fly fx",
    "Positioning",
    "Lightning Bolt",
    "O2 Boost"
  ],
  "power_levels": [
    0,
    0,
    0,
    0,
    0,
    0,
    0,
    0
  ],
  "powers": [
    {
      "power_category": "Cabal",
      "power_set": "Cabal_Maven_Lt_Resists",
      "power": "*",
      "level": 0
    },
    {
      "power_category": "Cabal",
      "power_set": "Cabal_Adept_Minion_Melee",
      "power": "*",
      "level": 0
    },
    {
      "power_category": "Cabal",
      "power_set": "Cabal_Maven_Lt_Movement",
      "power": "*",
      "level": 0
    },
    {
      "power_category": "Cabal",
      "power_set": "Cabal_Maven_Lt_Healer",
      "power": "*",
      "level": 0
    }
  ],
  "levels": [
    {
      "level": 25,
      "experience": 0,
      "display_names": [
        "Maven of Ministry"
      ],
      "costumes": [
        "Croatoa_Cabal_Lieutenant_01",
        "Croatoa_Cabal_Lieutenant_03",
        "Croatoa_Cabal_Lieutenant_02"
      ]
    },
    {
      "level": 26,
      "experience": 0,
      "display_names": [
        "Maven of Ministry"
      ],
      "costumes": [
        "Croatoa_Cabal_Lieutenant_01",
        "Croatoa_Cabal_Lieutenant_03",
        "Croatoa_Cabal_Lieutenant_02"
      ]
    },
    {
      "level": 27,
      "experience": 0,
      "display_names": [
        "Maven of Ministry"
      ],
      "costumes": [
        "Croatoa_Cabal_Lieutenant_01",
        "Croatoa_Cabal_Lieutenant_03",
        "Croatoa_Cabal_Lieutenant_02"
      ]
    },
    {
      "level": 28,
      "experience": 0,
      "display_names": [
        "Maven of Ministry"
      ],
      "costumes": [
        "Croatoa_Cabal_Lieutenant_01",
        "Croatoa_Cabal_Lieutenant_03",
        "Croatoa_Cabal_Lieutenant_02"
      ]
    },
    {
      "level": 29,
      "experience": 0,
      "display_names": [
        "Maven of Ministry"
      ],
      "costumes": [
        "Croatoa_Cabal_Lieutenant_01",
        "Croatoa_Cabal_Lieutenant_03",
        "Croatoa_Cabal_Lieutenant_02"
      ]
    },
    {
      "level": 30,
      "experience": 0,
      "display_names": [
        "Maven of Ministry"
      ],
      "costumes": [
        "Croatoa_Cabal_Lieutenant_01",
        "Croatoa_Cabal_Lieutenant_03",
        "Croatoa_Cabal_Lieutenant_02"
      ]
    },
    {
      "level": 31,
      "experience": 0,
      "display_names": [
        "Maven of Ministry"
      ],
      "costumes": [
        "Croatoa_Cabal_Lieutenant_01",
        "Croatoa_Cabal_Lieutenant_03",
        "Croatoa_Cabal_Lieutenant_02"
      ]
    },
    {
      "level": 32,
      "experience": 0,
      "display_names": [
        "Maven of Ministry"
      ],
      "costumes": [
        "Croatoa_Cabal_Lieutenant_01",
        "Croatoa_Cabal_Lieutenant_03",
        "Croatoa_Cabal_Lieutenant_02"
      ]
    },
    {
      "level": 33,
      "experience": 0,
      "display_names": [
        "Maven of Ministry"
      ],
      "costumes": [
        "Croatoa_Cabal_Lieutenant_01",
        "Croatoa_Cabal_Lieutenant_03",
        "Croatoa_Cabal_Lieutenant_02"
      ]
    },
    {
      "level": 34,
      "experience": 0,
      "display_names": [
        "Maven of Ministry"
      ],
      "costumes": [
        "Croatoa_Cabal_Lieutenant_01",
        "Croatoa_Cabal_Lieutenant_03",
        "Croatoa_Cabal_Lieutenant_02"
      ]
    }
  ]
}