{
  "name": "CarnivalOfVengeance_Anchorite_Female",
  "gender": "GENDER_MALE",
  "description": "The Implacable Anchorites are well-trained in the mystical arts and serve as commanders in the Carnival of Vengeance, a faction of the Carnival of Light which believes it would be better to join the Talons of Vengeance, rather than resist them. Many of them can trace their origins back to the Midnight Squad of Praetoria, but others have been derived from the followers of Vanessa DeVore.",
  "group_description": null,
  "display_class_name": null,
  "character_class_name": "lt_grunt",
  "ai_config": "Default_Ranged",
  "commandable_pet": false,
  "power_tags": [
    "HumanSkeleton",
    "Human"
  ],
  "additional_rewards": [

  ],
  "skill_hp_rewards": [

  ],
  "skill_status_rewards": [

  ],
  "ally": null,
  "gang": null,
  "reward_scale": 1.0,
  "game_exclusion": "None",
  "inactive_state_weapon": null,
  "ignores_combat_mods": false,
  "copy_creator_mods": false,
  "spawn_limit": -1,
  "spawn_limit_mission": -1,
  "ignore_av_to_eb_scaling": false,
  "can_zone": false,
  "custom_badge_stat": null,
  "badge_stat_flags": "DefaultBadgeStat",
  "rank": "VR_LIEUTENANT",
  "power_full_names": [
    "CarnivalOfLight.Lightstaff_Melee.Lightstaff",
    "CarnivalOfLight.Lightstaff_Ranged.Lightstaff_Bolt",
    "CarnivalOfLight.Anchorite.Incandescent_Burst",
    "CarnivalOfLight.Anchorite.Radiant_Burst",
    "CarnivalOfLight.Resistances.Damage_LT"
  ],
  "power_display_names": [
    "Lightstaff",
    "Lightstaff Bolt",
    "Incandescent Burst",
    "Radiant Burst",
    "Damage Resistance"
  ],
  "power_levels": [
    0,
    0,
    0,
    0,
    0
  ],
  "powers": [
    {
      "power_category": "CarnivalOfLight",
      "power_set": "Lightstaff_Melee",
      "power": "*",
      "level": 0
    },
    {
      "power_category": "CarnivalOfLight",
      "power_set": "Lightstaff_Ranged",
      "power": "*",
      "level": 0
    },
    {
      "power_category": "CarnivalOfLight",
      "power_set": "Anchorite",
      "power": "*",
      "level": 0
    },
    {
      "power_category": "CarnivalOfLight",
      "power_set": "Resistances",
      "power": "Damage_LT",
      "level": 0
    }
  ],
  "levels": [
    {
      "level": 20,
      "experience": 0,
      "display_names": [
        "Implacable Anchorite"
      ],
      "costumes": [
        "CoV_Implacable_Anchorite_Female_Suit_01",
        "CoV_Implacable_Anchorite_Female_Suit_02",
        "CoV_Implacable_Anchorite_Female_Shirt_01",
        "CoV_Implacable_Anchorite_Female_Shirt_02",
        "CoV_Implacable_Anchorite_Female_TopHat_01"
      ]
    },
    {
      "level": 21,
      "experience": 0,
      "display_names": [
        "Implacable Anchorite"
      ],
      "costumes": [
        "CoV_Implacable_Anchorite_Female_Suit_01",
        "CoV_Implacable_Anchorite_Female_Suit_02",
        "CoV_Implacable_Anchorite_Female_Shirt_01",
        "CoV_Implacable_Anchorite_Female_Shirt_02",
        "CoV_Implacable_Anchorite_Female_TopHat_01"
      ]
    },
    {
      "level": 22,
      "experience": 0,
      "display_names": [
        "Implacable Anchorite"
      ],
      "costumes": [
        "CoV_Implacable_Anchorite_Female_Suit_01",
        "CoV_Implacable_Anchorite_Female_Suit_02",
        "CoV_Implacable_Anchorite_Female_Shirt_01",
        "CoV_Implacable_Anchorite_Female_Shirt_02",
        "CoV_Implacable_Anchorite_Female_TopHat_01"
      ]
    },
    {
      "level": 23,
      "experience": 0,
      "display_names": [
        "Implacable Anchorite"
      ],
      "costumes": [
        "CoV_Implacable_Anchorite_Female_Suit_01",
        "CoV_Implacable_Anchorite_Female_Suit_02",
        "CoV_Implacable_Anchorite_Female_Shirt_01",
        "CoV_Implacable_Anchorite_Female_Shirt_02",
        "CoV_Implacable_Anchorite_Female_TopHat_01"
      ]
    },
    {
      "level": 24,
      "experience": 0,
      "display_names": [
        "Implacable Anchorite"
      ],
      "costumes": [
        "CoV_Implacable_Anchorite_Female_Suit_01",
        "CoV_Implacable_Anchorite_Female_Suit_02",
        "CoV_Implacable_Anchorite_Female_Shirt_01",
        "CoV_Implacable_Anchorite_Female_Shirt_02",
        "CoV_Implacable_Anchorite_Female_TopHat_01"
      ]
    },
    {
      "level": 25,
      "experience": 0,
      "display_names": [
        "Implacable Anchorite"
      ],
      "costumes": [
        "CoV_Implacable_Anchorite_Female_Suit_01",
        "CoV_Implacable_Anchorite_Female_Suit_02",
        "CoV_Implacable_Anchorite_Female_Shirt_01",
        "CoV_Implacable_Anchorite_Female_Shirt_02",
        "CoV_Implacable_Anchorite_Female_TopHat_01"
      ]
    },
    {
      "level": 26,
      "experience": 0,
      "display_names": [
        "Implacable Anchorite"
      ],
      "costumes": [
        "CoV_Implacable_Anchorite_Female_Suit_01",
        "CoV_Implacable_Anchorite_Female_Suit_02",
        "CoV_Implacable_Anchorite_Female_Shirt_01",
        "CoV_Implacable_Anchorite_Female_Shirt_02",
        "CoV_Implacable_Anchorite_Female_TopHat_01"
      ]
    },
    {
      "level": 27,
      "experience": 0,
      "display_names": [
        "Implacable Anchorite"
      ],
      "costumes": [
        "CoV_Implacable_Anchorite_Female_Suit_01",
        "CoV_Implacable_Anchorite_Female_Suit_02",
        "CoV_Implacable_Anchorite_Female_Shirt_01",
        "CoV_Implacable_Anchorite_Female_Shirt_02",
        "CoV_Implacable_Anchorite_Female_TopHat_01"
      ]
    },
    {
      "level": 28,
      "experience": 0,
      "display_names": [
        "Implacable Anchorite"
      ],
      "costumes": [
        "CoV_Implacable_Anchorite_Female_Suit_01",
        "CoV_Implacable_Anchorite_Female_Suit_02",
        "CoV_Implacable_Anchorite_Female_Shirt_01",
        "CoV_Implacable_Anchorite_Female_Shirt_02",
        "CoV_Implacable_Anchorite_Female_TopHat_01"
      ]
    },
    {
      "level": 29,
      "experience": 0,
      "display_names": [
        "Implacable Anchorite"
      ],
      "costumes": [
        "CoV_Implacable_Anchorite_Female_Suit_01",
        "CoV_Implacable_Anchorite_Female_Suit_02",
        "CoV_Implacable_Anchorite_Female_Shirt_01",
        "CoV_Implacable_Anchorite_Female_Shirt_02",
        "CoV_Implacable_Anchorite_Female_TopHat_01"
      ]
    },
    {
      "level": 30,
      "experience": 0,
      "display_names": [
        "Implacable Anchorite"
      ],
      "costumes": [
        "CoV_Implacable_Anchorite_Female_Suit_01",
        "CoV_Implacable_Anchorite_Female_Suit_02",
        "CoV_Implacable_Anchorite_Female_Shirt_01",
        "CoV_Implacable_Anchorite_Female_Shirt_02",
        "CoV_Implacable_Anchorite_Female_TopHat_01"
      ]
    },
    {
      "level": 31,
      "experience": 0,
      "display_names": [
        "Implacable Anchorite"
      ],
      "costumes": [
        "CoV_Implacable_Anchorite_Female_Suit_01",
        "CoV_Implacable_Anchorite_Female_Suit_02",
        "CoV_Implacable_Anchorite_Female_Shirt_01",
        "CoV_Implacable_Anchorite_Female_Shirt_02",
        "CoV_Implacable_Anchorite_Female_TopHat_01"
      ]
    },
    {
      "level": 32,
      "experience": 0,
      "display_names": [
        "Implacable Anchorite"
      ],
      "costumes": [
        "CoV_Implacable_Anchorite_Female_Suit_01",
        "CoV_Implacable_Anchorite_Female_Suit_02",
        "CoV_Implacable_Anchorite_Female_Shirt_01",
        "CoV_Implacable_Anchorite_Female_Shirt_02",
        "CoV_Implacable_Anchorite_Female_TopHat_01"
      ]
    },
    {
      "level": 33,
      "experience": 0,
      "display_names": [
        "Implacable Anchorite"
      ],
      "costumes": [
        "CoV_Implacable_Anchorite_Female_Suit_01",
        "CoV_Implacable_Anchorite_Female_Suit_02",
        "CoV_Implacable_Anchorite_Female_Shirt_01",
        "CoV_Implacable_Anchorite_Female_Shirt_02",
        "CoV_Implacable_Anchorite_Female_TopHat_01"
      ]
    },
    {
      "level": 34,
      "experience": 0,
      "display_names": [
        "Implacable Anchorite"
      ],
      "costumes": [
        "CoV_Implacable_Anchorite_Female_Suit_01",
        "CoV_Implacable_Anchorite_Female_Suit_02",
        "CoV_Implacable_Anchorite_Female_Shirt_01",
        "CoV_Implacable_Anchorite_Female_Shirt_02",
        "CoV_Implacable_Anchorite_Female_TopHat_01"
      ]
    }
  ]
}