{
  "name": "Carnival_Nictus_Hunter_Strongman",
  "gender": "GENDER_MALE",
  "description": "The Steel Strongmen are the pinnacle of the Carnival's muscle. Upon loyal service as an Iron Strongman for 5 years and a day, they are re-sealed into specially designed helms that provide the normal protections as well as the ability to harness their inner strength to weaken their opponent's attacks.",
  "group_description": null,
  "display_class_name": null,
  "character_class_name": "lt_grunt",
  "ai_config": "Nictus_Hunter",
  "commandable_pet": false,
  "power_tags": [
    "HumanSkeleton",
    "Human"
  ],
  "additional_rewards": [

  ],
  "skill_hp_rewards": [

  ],
  "skill_status_rewards": [

  ],
  "ally": null,
  "gang": null,
  "reward_scale": 1.0,
  "game_exclusion": "None",
  "inactive_state_weapon": null,
  "ignores_combat_mods": false,
  "copy_creator_mods": false,
  "spawn_limit": 0,
  "spawn_limit_mission": 0,
  "ignore_av_to_eb_scaling": false,
  "can_zone": false,
  "custom_badge_stat": null,
  "badge_stat_flags": "DefaultBadgeStat",
  "rank": "VR_LIEUTENANT",
  "power_full_names": [
    "Nictus.Hunter.Quantum_Array_gun",
    "Carnival.Carnival_Inherent_Defense.Resistance",
    "Carnival.Carnival_Inherent_Defense.Psychic_Visage",
    "Carnival.Carnival_Strongman_Inherent.Resistance"
  ],
  "power_display_names": [
    "Quantum Array gun",
    "Resistance",
    "Psychic Visage",
    "Resistance"
  ],
  "power_levels": [
    0,
    0,
    0,
    0
  ],
  "powers": [
    {
      "power_category": "Nictus",
      "power_set": "Hunter",
      "power": "Quantum_Array_gun",
      "level": 0
    },
    {
      "power_category": "Carnival",
      "power_set": "Carnival_Inherent_Defense",
      "power": "*",
      "level": 0
    },
    {
      "power_category": "Carnival",
      "power_set": "Carnival_Strongman_Inherent",
      "power": "Resistance",
      "level": 0
    }
  ],
  "levels": [
    {
      "level": 30,
      "experience": 0,
      "display_names": [
        "Quantum Strongman"
      ],
      "costumes": [
        "Carnival_Strongman_Boss_01",
        "Carnival_Strongman_Boss_02",
        "Carnival_Strongman_Boss_03"
      ]
    },
    {
      "level": 31,
      "experience": 0,
      "display_names": [
        "Quantum Strongman"
      ],
      "costumes": [
        "Carnival_Strongman_Boss_01",
        "Carnival_Strongman_Boss_02",
        "Carnival_Strongman_Boss_03"
      ]
    },
    {
      "level": 32,
      "experience": 0,
      "display_names": [
        "Quantum Strongman"
      ],
      "costumes": [
        "Carnival_Strongman_Boss_01",
        "Carnival_Strongman_Boss_02",
        "Carnival_Strongman_Boss_03"
      ]
    },
    {
      "level": 33,
      "experience": 0,
      "display_names": [
        "Quantum Strongman"
      ],
      "costumes": [
        "Carnival_Strongman_Boss_01",
        "Carnival_Strongman_Boss_02",
        "Carnival_Strongman_Boss_03"
      ]
    },
    {
      "level": 34,
      "experience": 0,
      "display_names": [
        "Quantum Strongman"
      ],
      "costumes": [
        "Carnival_Strongman_Boss_01",
        "Carnival_Strongman_Boss_02",
        "Carnival_Strongman_Boss_03"
      ]
    },
    {
      "level": 35,
      "experience": 0,
      "display_names": [
        "Quantum Strongman"
      ],
      "costumes": [
        "Carnival_Strongman_Boss_01",
        "Carnival_Strongman_Boss_02",
        "Carnival_Strongman_Boss_03"
      ]
    },
    {
      "level": 36,
      "experience": 0,
      "display_names": [
        "Quantum Strongman"
      ],
      "costumes": [
        "Carnival_Strongman_Boss_01",
        "Carnival_Strongman_Boss_02",
        "Carnival_Strongman_Boss_03"
      ]
    },
    {
      "level": 37,
      "experience": 0,
      "display_names": [
        "Quantum Strongman"
      ],
      "costumes": [
        "Carnival_Strongman_Boss_01",
        "Carnival_Strongman_Boss_02",
        "Carnival_Strongman_Boss_03"
      ]
    },
    {
      "level": 38,
      "experience": 0,
      "display_names": [
        "Quantum Strongman"
      ],
      "costumes": [
        "Carnival_Strongman_Boss_01",
        "Carnival_Strongman_Boss_02",
        "Carnival_Strongman_Boss_03"
      ]
    },
    {
      "level": 39,
      "experience": 0,
      "display_names": [
        "Quantum Strongman"
      ],
      "costumes": [
        "Carnival_Strongman_Boss_01",
        "Carnival_Strongman_Boss_02",
        "Carnival_Strongman_Boss_03"
      ]
    },
    {
      "level": 40,
      "experience": 0,
      "display_names": [
        "Quantum Strongman"
      ],
      "costumes": [
        "Carnival_Strongman_Boss_01",
        "Carnival_Strongman_Boss_02",
        "Carnival_Strongman_Boss_03"
      ]
    },
    {
      "level": 41,
      "experience": 0,
      "display_names": [
        "Quantum Strongman"
      ],
      "costumes": [
        "Carnival_Strongman_Boss_01",
        "Carnival_Strongman_Boss_02",
        "Carnival_Strongman_Boss_03"
      ]
    },
    {
      "level": 42,
      "experience": 0,
      "display_names": [
        "Quantum Strongman"
      ],
      "costumes": [
        "Carnival_Strongman_Boss_01",
        "Carnival_Strongman_Boss_02",
        "Carnival_Strongman_Boss_03"
      ]
    },
    {
      "level": 43,
      "experience": 0,
      "display_names": [
        "Quantum Strongman"
      ],
      "costumes": [
        "Carnival_Strongman_Boss_01",
        "Carnival_Strongman_Boss_02",
        "Carnival_Strongman_Boss_03"
      ]
    },
    {
      "level": 44,
      "experience": 0,
      "display_names": [
        "Quantum Strongman"
      ],
      "costumes": [
        "Carnival_Strongman_Boss_01",
        "Carnival_Strongman_Boss_02",
        "Carnival_Strongman_Boss_03"
      ]
    },
    {
      "level": 45,
      "experience": 0,
      "display_names": [
        "Quantum Strongman"
      ],
      "costumes": [
        "Carnival_Strongman_Boss_01",
        "Carnival_Strongman_Boss_02",
        "Carnival_Strongman_Boss_03"
      ]
    },
    {
      "level": 46,
      "experience": 0,
      "display_names": [
        "Quantum Strongman"
      ],
      "costumes": [
        "Carnival_Strongman_Boss_01",
        "Carnival_Strongman_Boss_02",
        "Carnival_Strongman_Boss_03"
      ]
    },
    {
      "level": 47,
      "experience": 0,
      "display_names": [
        "Quantum Strongman"
      ],
      "costumes": [
        "Carnival_Strongman_Boss_01",
        "Carnival_Strongman_Boss_02",
        "Carnival_Strongman_Boss_03"
      ]
    },
    {
      "level": 48,
      "experience": 0,
      "display_names": [
        "Quantum Strongman"
      ],
      "costumes": [
        "Carnival_Strongman_Boss_01",
        "Carnival_Strongman_Boss_02",
        "Carnival_Strongman_Boss_03"
      ]
    },
    {
      "level": 49,
      "experience": 0,
      "display_names": [
        "Quantum Strongman"
      ],
      "costumes": [
        "Carnival_Strongman_Boss_01",
        "Carnival_Strongman_Boss_02",
        "Carnival_Strongman_Boss_03"
      ]
    },
    {
      "level": 50,
      "experience": 0,
      "display_names": [
        "Quantum Strongman"
      ],
      "costumes": [
        "Carnival_Strongman_Boss_01",
        "Carnival_Strongman_Boss_02",
        "Carnival_Strongman_Boss_03"
      ]
    },
    {
      "level": 51,
      "experience": 0,
      "display_names": [
        "Quantum Strongman"
      ],
      "costumes": [
        "Carnival_Strongman_Boss_01",
        "Carnival_Strongman_Boss_02",
        "Carnival_Strongman_Boss_03"
      ]
    },
    {
      "level": 52,
      "experience": 0,
      "display_names": [
        "Quantum Strongman"
      ],
      "costumes": [
        "Carnival_Strongman_Boss_01",
        "Carnival_Strongman_Boss_02",
        "Carnival_Strongman_Boss_03"
      ]
    },
    {
      "level": 53,
      "experience": 0,
      "display_names": [
        "Quantum Strongman"
      ],
      "costumes": [
        "Carnival_Strongman_Boss_01",
        "Carnival_Strongman_Boss_02",
        "Carnival_Strongman_Boss_03"
      ]
    },
    {
      "level": 54,
      "experience": 0,
      "display_names": [
        "Quantum Strongman"
      ],
      "costumes": [
        "Carnival_Strongman_Boss_01",
        "Carnival_Strongman_Boss_02",
        "Carnival_Strongman_Boss_03"
      ]
    }
  ]
}