{
  "name": "CarnivalOfWar_Mistress",
  "gender": "GENDER_FEMALE",
  "description": "The Mistresses are extremely powerful sorceresses and mystics, able to twist magical energies into a diverse selection of abilities. With few exceptions, they are the most talented mystics in the Carnival of War, and form the core of its leadership. They represent some of the most loyal of Vanessa's original followers, and they would return to the fold if only she would see things as they do.",
  "group_description": null,
  "display_class_name": null,
  "character_class_name": "boss_grunt",
  "ai_config": "Default_Ranged",
  "commandable_pet": false,
  "power_tags": [
    "HumanSkeleton",
    "Human"
  ],
  "additional_rewards": [

  ],
  "skill_hp_rewards": [

  ],
  "skill_status_rewards": [

  ],
  "ally": null,
  "gang": null,
  "reward_scale": 1.0,
  "game_exclusion": "None",
  "inactive_state_weapon": null,
  "ignores_combat_mods": false,
  "copy_creator_mods": false,
  "spawn_limit": -1,
  "spawn_limit_mission": -1,
  "ignore_av_to_eb_scaling": false,
  "can_zone": false,
  "custom_badge_stat": null,
  "badge_stat_flags": "DefaultBadgeStat",
  "rank": "VR_BOSS",
  "power_full_names": [
    "CarnivalOfLight.Mistress.Shining_Blast",
    "CarnivalOfLight.Mistress.Judgement",
    "CarnivalOfLight.Mistress.Radiance",
    "CarnivalOfLight.Mistress.Brilliance",
    "CarnivalOfLight.Mistress.Coruscating_Lash",
    "CarnivalOfLight.Mistress.Coruscating_Thrash",
    "CarnivalOfLight.Mistress.Resistance",
    "CarnivalOfLight.Resistances.Damage_BS"
  ],
  "power_display_names": [
    "Shining Blast",
    "Judgement",
    "Radiance",
    "Brilliance",
    "Coruscating Lash",
    "Coruscating Thrash",
    "Blessing of Light",
    "Damage Resistance"
  ],
  "power_levels": [
    0,
    0,
    0,
    0,
    0,
    0,
    0,
    0
  ],
  "powers": [
    {
      "power_category": "CarnivalOfLight",
      "power_set": "Mistress",
      "power": "*",
      "level": 0
    },
    {
      "power_category": "CarnivalOfLight",
      "power_set": "Resistances",
      "power": "Damage_BS",
      "level": 0
    }
  ],
  "levels": [
    {
      "level": 20,
      "experience": 0,
      "display_names": [
        "Mistress of War"
      ],
      "costumes": [
        "CoW_Mistress_Of_War_01",
        "CoW_Mistress_Of_War_02",
        "CoW_Mistress_Of_War_03",
        "CoW_Mistress_Of_War_04"
      ]
    },
    {
      "level": 21,
      "experience": 0,
      "display_names": [
        "Mistress of War"
      ],
      "costumes": [
        "CoW_Mistress_Of_War_01",
        "CoW_Mistress_Of_War_02",
        "CoW_Mistress_Of_War_03",
        "CoW_Mistress_Of_War_04"
      ]
    },
    {
      "level": 22,
      "experience": 0,
      "display_names": [
        "Mistress of War"
      ],
      "costumes": [
        "CoW_Mistress_Of_War_01",
        "CoW_Mistress_Of_War_02",
        "CoW_Mistress_Of_War_03",
        "CoW_Mistress_Of_War_04"
      ]
    },
    {
      "level": 23,
      "experience": 0,
      "display_names": [
        "Mistress of War"
      ],
      "costumes": [
        "CoW_Mistress_Of_War_01",
        "CoW_Mistress_Of_War_02",
        "CoW_Mistress_Of_War_03",
        "CoW_Mistress_Of_War_04"
      ]
    },
    {
      "level": 24,
      "experience": 0,
      "display_names": [
        "Mistress of War"
      ],
      "costumes": [
        "CoW_Mistress_Of_War_01",
        "CoW_Mistress_Of_War_02",
        "CoW_Mistress_Of_War_03",
        "CoW_Mistress_Of_War_04"
      ]
    },
    {
      "level": 25,
      "experience": 0,
      "display_names": [
        "Mistress of War"
      ],
      "costumes": [
        "CoW_Mistress_Of_War_01",
        "CoW_Mistress_Of_War_02",
        "CoW_Mistress_Of_War_03",
        "CoW_Mistress_Of_War_04"
      ]
    },
    {
      "level": 26,
      "experience": 0,
      "display_names": [
        "Mistress of War"
      ],
      "costumes": [
        "CoW_Mistress_Of_War_01",
        "CoW_Mistress_Of_War_02",
        "CoW_Mistress_Of_War_03",
        "CoW_Mistress_Of_War_04"
      ]
    },
    {
      "level": 27,
      "experience": 0,
      "display_names": [
        "Mistress of War"
      ],
      "costumes": [
        "CoW_Mistress_Of_War_01",
        "CoW_Mistress_Of_War_02",
        "CoW_Mistress_Of_War_03",
        "CoW_Mistress_Of_War_04"
      ]
    },
    {
      "level": 28,
      "experience": 0,
      "display_names": [
        "Mistress of War"
      ],
      "costumes": [
        "CoW_Mistress_Of_War_01",
        "CoW_Mistress_Of_War_02",
        "CoW_Mistress_Of_War_03",
        "CoW_Mistress_Of_War_04"
      ]
    },
    {
      "level": 29,
      "experience": 0,
      "display_names": [
        "Mistress of War"
      ],
      "costumes": [
        "CoW_Mistress_Of_War_01",
        "CoW_Mistress_Of_War_02",
        "CoW_Mistress_Of_War_03",
        "CoW_Mistress_Of_War_04"
      ]
    },
    {
      "level": 30,
      "experience": 0,
      "display_names": [
        "Mistress of War"
      ],
      "costumes": [
        "CoW_Mistress_Of_War_01",
        "CoW_Mistress_Of_War_02",
        "CoW_Mistress_Of_War_03",
        "CoW_Mistress_Of_War_04"
      ]
    },
    {
      "level": 31,
      "experience": 0,
      "display_names": [
        "Mistress of War"
      ],
      "costumes": [
        "CoW_Mistress_Of_War_01",
        "CoW_Mistress_Of_War_02",
        "CoW_Mistress_Of_War_03",
        "CoW_Mistress_Of_War_04"
      ]
    },
    {
      "level": 32,
      "experience": 0,
      "display_names": [
        "Mistress of War"
      ],
      "costumes": [
        "CoW_Mistress_Of_War_01",
        "CoW_Mistress_Of_War_02",
        "CoW_Mistress_Of_War_03",
        "CoW_Mistress_Of_War_04"
      ]
    },
    {
      "level": 33,
      "experience": 0,
      "display_names": [
        "Mistress of War"
      ],
      "costumes": [
        "CoW_Mistress_Of_War_01",
        "CoW_Mistress_Of_War_02",
        "CoW_Mistress_Of_War_03",
        "CoW_Mistress_Of_War_04"
      ]
    },
    {
      "level": 34,
      "experience": 0,
      "display_names": [
        "Mistress of War"
      ],
      "costumes": [
        "CoW_Mistress_Of_War_01",
        "CoW_Mistress_Of_War_02",
        "CoW_Mistress_Of_War_03",
        "CoW_Mistress_Of_War_04"
      ]
    }
  ]
}