{
  "name": "Chimera_Nictus_Hunter_Minion",
  "gender": "GENDER_MALE",
  "description": "These low rank servants of Chimera have only the most rudimentary skills with poison. They can create a toxin that will slowly damage their target but is almost never fatal unless combined with other attacks.",
  "group_description": "Praetorians",
  "display_class_name": null,
  "character_class_name": "minion_grunt",
  "ai_config": "Nictus_Hunter",
  "commandable_pet": false,
  "power_tags": [
    "HumanSkeleton",
    "Human"
  ],
  "additional_rewards": [

  ],
  "skill_hp_rewards": [

  ],
  "skill_status_rewards": [

  ],
  "ally": null,
  "gang": null,
  "reward_scale": 1.0,
  "game_exclusion": "None",
  "inactive_state_weapon": null,
  "ignores_combat_mods": false,
  "copy_creator_mods": false,
  "spawn_limit": 0,
  "spawn_limit_mission": 0,
  "ignore_av_to_eb_scaling": false,
  "can_zone": false,
  "custom_badge_stat": null,
  "badge_stat_flags": "DefaultBadgeStat",
  "rank": "VR_MINION",
  "power_full_names": [
    "Nictus.Hunter.Quantum_Array_gun"
  ],
  "power_display_names": [
    "Quantum Array gun"
  ],
  "power_levels": [
    0
  ],
  "powers": [
    {
      "power_category": "Nictus",
      "power_set": "Hunter",
      "power": "Quantum_Array_gun",
      "level": 0
    }
  ],
  "levels": [
    {
      "level": 45,
      "experience": 0,
      "display_names": [
        "Cockatrice Quantum"
      ],
      "costumes": [
        "Chimera_Minions_01"
      ]
    },
    {
      "level": 46,
      "experience": 0,
      "display_names": [
        "Cockatrice Quantum"
      ],
      "costumes": [
        "Chimera_Minions_01"
      ]
    },
    {
      "level": 47,
      "experience": 0,
      "display_names": [
        "Cockatrice Quantum"
      ],
      "costumes": [
        "Chimera_Minions_01"
      ]
    },
    {
      "level": 48,
      "experience": 0,
      "display_names": [
        "Cockatrice Quantum"
      ],
      "costumes": [
        "Chimera_Minions_01"
      ]
    },
    {
      "level": 49,
      "experience": 0,
      "display_names": [
        "Cockatrice Quantum"
      ],
      "costumes": [
        "Chimera_Minions_01"
      ]
    },
    {
      "level": 50,
      "experience": 0,
      "display_names": [
        "Cockatrice Quantum"
      ],
      "costumes": [
        "Chimera_Minions_01"
      ]
    },
    {
      "level": 51,
      "experience": 0,
      "display_names": [
        "Cockatrice Quantum"
      ],
      "costumes": [
        "Chimera_Minions_01"
      ]
    },
    {
      "level": 52,
      "experience": 0,
      "display_names": [
        "Cockatrice Quantum"
      ],
      "costumes": [
        "Chimera_Minions_01"
      ]
    },
    {
      "level": 53,
      "experience": 0,
      "display_names": [
        "Cockatrice Quantum"
      ],
      "costumes": [
        "Chimera_Minions_01"
      ]
    },
    {
      "level": 54,
      "experience": 0,
      "display_names": [
        "Cockatrice Quantum"
      ],
      "costumes": [
        "Chimera_Minions_01"
      ]
    }
  ]
}