{
  "name": "CircleOfThorns_Possessed_Scientists_Thorn_Fire_Caster",
  "gender": "GENDER_MALE",
  "description": "The Circle of Thorns has possessed descendents of Mu for centuries, and has no intentions of stopping. Recently, they have begun possessing non-descendents for investigational purposes. When they discovered Portal Corporation's research, they began to possess employees to find a way to break their deal with the demonic brood. The Possessed Scientists have the powers of Thorn Casters, and are not afraid to use them.",
  "group_description": null,
  "display_class_name": null,
  "character_class_name": "minion_grunt",
  "ai_config": "CircleOfThorns_Thorn_Caster",
  "commandable_pet": false,
  "power_tags": [
    "HumanSkeleton",
    "Human"
  ],
  "additional_rewards": [

  ],
  "skill_hp_rewards": [

  ],
  "skill_status_rewards": [

  ],
  "ally": null,
  "gang": null,
  "reward_scale": 1.0,
  "game_exclusion": "None",
  "inactive_state_weapon": null,
  "ignores_combat_mods": false,
  "copy_creator_mods": false,
  "spawn_limit": 0,
  "spawn_limit_mission": 0,
  "ignore_av_to_eb_scaling": false,
  "can_zone": false,
  "custom_badge_stat": null,
  "badge_stat_flags": "DefaultBadgeStat",
  "rank": "VR_MINION",
  "power_full_names": [
    "CircleOfThorns.Cirle_Thorn_Caster_Fire_Melee.Fire_Sword",
    "CircleOfThorns.Cirle_Thorn_Caster_Fire_Ranged.Flares",
    "CircleOfThorns.Cirle_Thorn_Caster_Fire_Ranged.Fire_Ball",
    "CircleOfThorns.Circle_Thorn_Caster_Fire_Defense.Consume"
  ],
  "power_display_names": [
    "Fire Sword",
    "Flares",
    "Fire Ball",
    "Consume"
  ],
  "power_levels": [
    0,
    0,
    0,
    0
  ],
  "powers": [
    {
      "power_category": "CircleOfThorns",
      "power_set": "Cirle_Thorn_Caster_Fire_Melee",
      "power": "*",
      "level": 0
    },
    {
      "power_category": "CircleOfThorns",
      "power_set": "Cirle_Thorn_Caster_Fire_Ranged",
      "power": "*",
      "level": 0
    },
    {
      "power_category": "CircleOfThorns",
      "power_set": "Circle_Thorn_Caster_Fire_Defense",
      "power": "*",
      "level": 0
    }
  ],
  "levels": [
    {
      "level": 40,
      "experience": 0,
      "display_names": [
        "Possessed Scientist"
      ],
      "costumes": [
        "Possessed_01",
        "Possessed_02",
        "Possessed_03",
        "Possessed_04"
      ]
    },
    {
      "level": 41,
      "experience": 0,
      "display_names": [
        "Possessed Scientist"
      ],
      "costumes": [
        "Possessed_01",
        "Possessed_02",
        "Possessed_03",
        "Possessed_04"
      ]
    },
    {
      "level": 42,
      "experience": 0,
      "display_names": [
        "Possessed Scientist"
      ],
      "costumes": [
        "Possessed_01",
        "Possessed_02",
        "Possessed_03",
        "Possessed_04"
      ]
    },
    {
      "level": 43,
      "experience": 0,
      "display_names": [
        "Possessed Scientist"
      ],
      "costumes": [
        "Possessed_01",
        "Possessed_02",
        "Possessed_03",
        "Possessed_04"
      ]
    },
    {
      "level": 44,
      "experience": 0,
      "display_names": [
        "Possessed Scientist"
      ],
      "costumes": [
        "Possessed_01",
        "Possessed_02",
        "Possessed_03",
        "Possessed_04"
      ]
    },
    {
      "level": 45,
      "experience": 0,
      "display_names": [
        "Possessed Scientist"
      ],
      "costumes": [
        "Possessed_01",
        "Possessed_02",
        "Possessed_03",
        "Possessed_04"
      ]
    },
    {
      "level": 46,
      "experience": 0,
      "display_names": [
        "Possessed Scientist"
      ],
      "costumes": [
        "Possessed_01",
        "Possessed_02",
        "Possessed_03",
        "Possessed_04"
      ]
    },
    {
      "level": 47,
      "experience": 0,
      "display_names": [
        "Possessed Scientist"
      ],
      "costumes": [
        "Possessed_01",
        "Possessed_02",
        "Possessed_03",
        "Possessed_04"
      ]
    },
    {
      "level": 48,
      "experience": 0,
      "display_names": [
        "Possessed Scientist"
      ],
      "costumes": [
        "Possessed_01",
        "Possessed_02",
        "Possessed_03",
        "Possessed_04"
      ]
    },
    {
      "level": 49,
      "experience": 0,
      "display_names": [
        "Possessed Scientist"
      ],
      "costumes": [
        "Possessed_01",
        "Possessed_02",
        "Possessed_03",
        "Possessed_04"
      ]
    },
    {
      "level": 50,
      "experience": 0,
      "display_names": [
        "Possessed Scientist"
      ],
      "costumes": [
        "Possessed_01",
        "Possessed_02",
        "Possessed_03",
        "Possessed_04"
      ]
    },
    {
      "level": 51,
      "experience": 0,
      "display_names": [
        "Possessed Scientist"
      ],
      "costumes": [
        "Possessed_01",
        "Possessed_02",
        "Possessed_03",
        "Possessed_04"
      ]
    },
    {
      "level": 52,
      "experience": 0,
      "display_names": [
        "Possessed Scientist"
      ],
      "costumes": [
        "Possessed_01",
        "Possessed_02",
        "Possessed_03",
        "Possessed_04"
      ]
    },
    {
      "level": 53,
      "experience": 0,
      "display_names": [
        "Possessed Scientist"
      ],
      "costumes": [
        "Possessed_01",
        "Possessed_02",
        "Possessed_03",
        "Possessed_04"
      ]
    },
    {
      "level": 54,
      "experience": 0,
      "display_names": [
        "Possessed Scientist"
      ],
      "costumes": [
        "Possessed_01",
        "Possessed_02",
        "Possessed_03",
        "Possessed_04"
      ]
    }
  ]
}