{
  "name": "CircleOfThorns_Thorn_Ice_Caster_Bitter",
  "gender": "GENDER_MALE",
  "description": "The frigid magics of the Ice Casters take careful study to master. In the hands of these mages, ice becomes a deadly weapon, either shredding enemies with jagged blasts or freezing them in place and chilling them to their bones.",
  "group_description": null,
  "display_class_name": null,
  "character_class_name": "minion_grunt",
  "ai_config": "CircleOfThorns_Thorn_Caster",
  "commandable_pet": false,
  "power_tags": [
    "HumanSkeleton",
    "Human"
  ],
  "additional_rewards": [

  ],
  "skill_hp_rewards": [

  ],
  "skill_status_rewards": [

  ],
  "ally": null,
  "gang": null,
  "reward_scale": 1.0,
  "game_exclusion": "None",
  "inactive_state_weapon": null,
  "ignores_combat_mods": false,
  "copy_creator_mods": false,
  "spawn_limit": 1,
  "spawn_limit_mission": 1,
  "ignore_av_to_eb_scaling": false,
  "can_zone": false,
  "custom_badge_stat": null,
  "badge_stat_flags": "DefaultBadgeStat",
  "rank": "VR_MINION",
  "power_full_names": [
    "CircleOfThorns.Circle_Thorn_Caster_Cold.Ice_Blast",
    "CircleOfThorns.Circle_Thorn_Caster_Cold.Ice_Sword",
    "CircleOfThorns.Circle_Thorn_Caster_Cold.Chilblain",
    "CircleOfThorns.Circle_Thorn_Caster_Cold_Bitter.Bitter_Ice_Blast",
    "CircleOfThorns.Circle_Thorn_Caster_Cold_Defense.Frozen_Armor"
  ],
  "power_display_names": [
    "Ice Blast",
    "Ice Sword",
    "Chilblain",
    "Bitter Ice Blast",
    "Frozen Armor"
  ],
  "power_levels": [
    0,
    0,
    0,
    0,
    0
  ],
  "powers": [
    {
      "power_category": "CircleOfThorns",
      "power_set": "Circle_Thorn_Caster_Cold",
      "power": "*",
      "level": 0
    },
    {
      "power_category": "CircleOfThorns",
      "power_set": "Circle_Thorn_Caster_Cold_Bitter",
      "power": "*",
      "level": 0
    },
    {
      "power_category": "CircleOfThorns",
      "power_set": "Circle_Thorn_Caster_Cold_Defense",
      "power": "*",
      "level": 0
    }
  ],
  "levels": [
    {
      "level": 45,
      "experience": 0,
      "display_names": [
        "Ice Thorn Caster"
      ],
      "costumes": [
        "CoT_IceCaster_01",
        "CoT_IceCaster_02",
        "CoT_IceCaster_03"
      ]
    },
    {
      "level": 46,
      "experience": 0,
      "display_names": [
        "Ice Thorn Caster"
      ],
      "costumes": [
        "CoT_IceCaster_01",
        "CoT_IceCaster_02",
        "CoT_IceCaster_03"
      ]
    },
    {
      "level": 47,
      "experience": 0,
      "display_names": [
        "Ice Thorn Caster"
      ],
      "costumes": [
        "CoT_IceCaster_01",
        "CoT_IceCaster_02",
        "CoT_IceCaster_03"
      ]
    },
    {
      "level": 48,
      "experience": 0,
      "display_names": [
        "Ice Thorn Caster"
      ],
      "costumes": [
        "CoT_IceCaster_01",
        "CoT_IceCaster_02",
        "CoT_IceCaster_03"
      ]
    },
    {
      "level": 49,
      "experience": 0,
      "display_names": [
        "Ice Thorn Caster"
      ],
      "costumes": [
        "CoT_IceCaster_01",
        "CoT_IceCaster_02",
        "CoT_IceCaster_03"
      ]
    },
    {
      "level": 50,
      "experience": 0,
      "display_names": [
        "Ice Thorn Caster"
      ],
      "costumes": [
        "CoT_IceCaster_01",
        "CoT_IceCaster_02",
        "CoT_IceCaster_03"
      ]
    },
    {
      "level": 51,
      "experience": 0,
      "display_names": [
        "Ice Thorn Caster"
      ],
      "costumes": [
        "CoT_IceCaster_01",
        "CoT_IceCaster_02",
        "CoT_IceCaster_03"
      ]
    },
    {
      "level": 52,
      "experience": 0,
      "display_names": [
        "Ice Thorn Caster"
      ],
      "costumes": [
        "CoT_IceCaster_01",
        "CoT_IceCaster_02",
        "CoT_IceCaster_03"
      ]
    },
    {
      "level": 53,
      "experience": 0,
      "display_names": [
        "Ice Thorn Caster"
      ],
      "costumes": [
        "CoT_IceCaster_01",
        "CoT_IceCaster_02",
        "CoT_IceCaster_03"
      ]
    },
    {
      "level": 54,
      "experience": 0,
      "display_names": [
        "Ice Thorn Caster"
      ],
      "costumes": [
        "CoT_IceCaster_01",
        "CoT_IceCaster_02",
        "CoT_IceCaster_03"
      ]
    }
  ]
}