{
  "name": "Clockwork_Sprocket",
  "gender": "GENDER_MALE",
  "description": "These pint-sized junkyard contraptions have become a real plague on the streets of certain neighborhoods. Their exact workings are mysterious, but there's no mystery about the deadly bolts of electricity they hurl at anyone who gets in their way.",
  "group_description": null,
  "display_class_name": null,
  "character_class_name": "minion_grunt",
  "ai_config": "Clockwork_Sprocket",
  "commandable_pet": false,
  "power_tags": [
    "HumanSkeleton"
  ],
  "additional_rewards": [

  ],
  "skill_hp_rewards": [

  ],
  "skill_status_rewards": [

  ],
  "ally": null,
  "gang": null,
  "reward_scale": 1.2,
  "game_exclusion": "None",
  "inactive_state_weapon": null,
  "ignores_combat_mods": false,
  "copy_creator_mods": false,
  "spawn_limit": -1,
  "spawn_limit_mission": -1,
  "ignore_av_to_eb_scaling": false,
  "can_zone": false,
  "custom_badge_stat": null,
  "badge_stat_flags": "DefaultBadgeStat",
  "rank": "VR_MINION",
  "power_full_names": [
    "Clockwork.Clockwork_Minion_Powers.Resistance",
    "Clockwork.Clockwork_Minion_Powers.Charged_Brawl",
    "Clockwork.Clockwork_Minion_Powers.Charged_Bolts"
  ],
  "power_display_names": [
    "Resistance",
    "Charged Brawl",
    "Charged Bolts"
  ],
  "power_levels": [
    0,
    0,
    0
  ],
  "powers": [
    {
      "power_category": "Clockwork",
      "power_set": "Clockwork_Minion_Powers",
      "power": "*",
      "level": 0
    }
  ],
  "levels": [
    {
      "level": 1,
      "experience": 0,
      "display_names": [
        "Sprocket"
      ],
      "costumes": [
        "Sprocket_00",
        "Sprocket_01",
        "Sprocket_02"
      ]
    },
    {
      "level": 2,
      "experience": 0,
      "display_names": [
        "Sprocket"
      ],
      "costumes": [
        "Sprocket_00",
        "Sprocket_01",
        "Sprocket_02"
      ]
    },
    {
      "level": 3,
      "experience": 0,
      "display_names": [
        "Sprocket"
      ],
      "costumes": [
        "Sprocket_00",
        "Sprocket_01",
        "Sprocket_02"
      ]
    },
    {
      "level": 4,
      "experience": 0,
      "display_names": [
        "Sprocket"
      ],
      "costumes": [
        "Sprocket_00",
        "Sprocket_01",
        "Sprocket_02"
      ]
    },
    {
      "level": 5,
      "experience": 0,
      "display_names": [
        "Sprocket"
      ],
      "costumes": [
        "Sprocket_00",
        "Sprocket_01",
        "Sprocket_02"
      ]
    },
    {
      "level": 6,
      "experience": 0,
      "display_names": [
        "Sprocket"
      ],
      "costumes": [
        "Sprocket_00",
        "Sprocket_01",
        "Sprocket_02"
      ]
    },
    {
      "level": 7,
      "experience": 0,
      "display_names": [
        "Sprocket"
      ],
      "costumes": [
        "Sprocket_00",
        "Sprocket_01",
        "Sprocket_02"
      ]
    },
    {
      "level": 8,
      "experience": 0,
      "display_names": [
        "Sprocket"
      ],
      "costumes": [
        "Sprocket_00",
        "Sprocket_01",
        "Sprocket_02"
      ]
    },
    {
      "level": 9,
      "experience": 0,
      "display_names": [
        "Sprocket"
      ],
      "costumes": [
        "Sprocket_00",
        "Sprocket_01",
        "Sprocket_02"
      ]
    },
    {
      "level": 10,
      "experience": 0,
      "display_names": [
        "Sprocket"
      ],
      "costumes": [
        "Sprocket_00",
        "Sprocket_01",
        "Sprocket_02"
      ]
    }
  ]
}