{
  "name": "Coralax_Boss_Low",
  "gender": "GENDER_FEMALE",
  "description": "The Coralax are humans who have been infected with living coral. Stories persist that there is an entire society of coral-creatures in the seas around the Rogue Isles, but how these unfortunates became their servants is unknown.",
  "group_description": null,
  "display_class_name": null,
  "character_class_name": "boss_grunt",
  "ai_config": "Default_Ranged",
  "commandable_pet": false,
  "power_tags": [
    "HumanSkeleton"
  ],
  "additional_rewards": [

  ],
  "skill_hp_rewards": [

  ],
  "skill_status_rewards": [

  ],
  "ally": null,
  "gang": null,
  "reward_scale": 1.0,
  "game_exclusion": "None",
  "inactive_state_weapon": null,
  "ignores_combat_mods": false,
  "copy_creator_mods": false,
  "spawn_limit": -1,
  "spawn_limit_mission": -1,
  "ignore_av_to_eb_scaling": false,
  "can_zone": false,
  "custom_badge_stat": null,
  "badge_stat_flags": "DefaultBadgeStat",
  "rank": "VR_BOSS",
  "power_full_names": [
    "V_Coralax.Resistance.Resistance",
    "V_Coralax.Boss_Red_Low.Punch",
    "V_Coralax.Boss_Red_Low.Spiny_Urchins",
    "V_Coralax.Boss_Red_Low.Urchin_Spray",
    "V_Coralax.Boss_Red_Low.Psychic_Coral_Blast"
  ],
  "power_display_names": [
    "Resistance",
    "Punch",
    "Spiny Urchins",
    "Urchin Spray",
    "Psychic Coral Blast"
  ],
  "power_levels": [
    0,
    0,
    0,
    0,
    0
  ],
  "powers": [
    {
      "power_category": "V_Coralax",
      "power_set": "Resistance",
      "power": "*",
      "level": 0
    },
    {
      "power_category": "V_Coralax",
      "power_set": "Boss_Red_Low",
      "power": "*",
      "level": 0
    }
  ],
  "levels": [
    {
      "level": 1,
      "experience": 0,
      "display_names": [
        "Coralax Red Hybrid"
      ],
      "costumes": [
        "V_Coralax_Boss"
      ]
    },
    {
      "level": 2,
      "experience": 0,
      "display_names": [
        "Coralax Red Hybrid"
      ],
      "costumes": [
        "V_Coralax_Boss"
      ]
    },
    {
      "level": 3,
      "experience": 0,
      "display_names": [
        "Coralax Red Hybrid"
      ],
      "costumes": [
        "V_Coralax_Boss"
      ]
    },
    {
      "level": 4,
      "experience": 0,
      "display_names": [
        "Coralax Red Hybrid"
      ],
      "costumes": [
        "V_Coralax_Boss"
      ]
    },
    {
      "level": 5,
      "experience": 0,
      "display_names": [
        "Coralax Red Hybrid"
      ],
      "costumes": [
        "V_Coralax_Boss"
      ]
    },
    {
      "level": 6,
      "experience": 0,
      "display_names": [
        "Coralax Red Hybrid"
      ],
      "costumes": [
        "V_Coralax_Boss"
      ]
    },
    {
      "level": 7,
      "experience": 0,
      "display_names": [
        "Coralax Red Hybrid"
      ],
      "costumes": [
        "V_Coralax_Boss"
      ]
    },
    {
      "level": 8,
      "experience": 0,
      "display_names": [
        "Coralax Red Hybrid"
      ],
      "costumes": [
        "V_Coralax_Boss"
      ]
    },
    {
      "level": 9,
      "experience": 0,
      "display_names": [
        "Coralax Red Hybrid"
      ],
      "costumes": [
        "V_Coralax_Boss"
      ]
    },
    {
      "level": 10,
      "experience": 0,
      "display_names": [
        "Coralax Red Hybrid"
      ],
      "costumes": [
        "V_Coralax_Boss"
      ]
    }
  ]
}