{
  "name": "Council_Goliath_War_Walker_GM",
  "gender": "GENDER_MALE",
  "description": "Vandal and his engineers from the Council spent months during the Praetorian war engineering their own War Walkers. Now, their plans have finally come to light, and the Council intends to show the world their new, overwhelming force, with their new mass-produced War Walkers.",
  "group_description": null,
  "display_class_name": null,
  "character_class_name": "boss_monster",
  "ai_config": "Melee_NeverAfraid",
  "commandable_pet": false,
  "power_tags": [
    "HumanSkeleton",
    "Electronic",
    "Raid"
  ],
  "additional_rewards": [
    "Giant_Monster_Merit"
  ],
  "skill_hp_rewards": [

  ],
  "skill_status_rewards": [

  ],
  "ally": null,
  "gang": null,
  "reward_scale": 1.0,
  "game_exclusion": "None",
  "inactive_state_weapon": null,
  "ignores_combat_mods": true,
  "copy_creator_mods": false,
  "spawn_limit": 0,
  "spawn_limit_mission": 0,
  "ignore_av_to_eb_scaling": false,
  "can_zone": false,
  "custom_badge_stat": null,
  "badge_stat_flags": "DefaultBadgeStat",
  "rank": "VR_BIGMONSTER",
  "power_full_names": [
    "Council.Goliath_Event.Resistance",
    "Council.Goliath_Event.Smash",
    "Council.Goliath_Event.Pummel",
    "Council.Goliath_Event.Particle_Lance",
    "Council.Goliath_Event.Particle_Burst",
    "Council.Goliath_Event.Sweeping_Laser",
    "Council.Goliath_Event.Ground_Slam",
    "Council.Goliath_Event.Nano_Reconstruction",
    "Council.Goliath_Event.The_Harder_They_Fall",
    "Council.Goliath_Event.Repair_Field",
    "Council.Goliath_Event.Weaken"
  ],
  "power_display_names": [
    "Resistance",
    "Smash",
    "Pummel",
    "Particle Lance",
    "Particle Burst",
    "Sweeping Laser",
    "Ground Slam",
    "Nano Reconstruction",
    "The Harder They Fall",
    "Repair Field",
    "Weaken"
  ],
  "power_levels": [
    0,
    0,
    0,
    0,
    0,
    0,
    0,
    0,
    0,
    0,
    0
  ],
  "powers": [
    {
      "power_category": "Council",
      "power_set": "Goliath_Event",
      "power": "*",
      "level": 0
    }
  ],
  "levels": [
    {
      "level": 20,
      "experience": 0,
      "display_names": [
        "Council Goliath War Walker"
      ],
      "costumes": [
        "Council_WarWalker_Goliath_01"
      ]
    }
  ]
}