{
  "name": "Council_Penumbra_Cor_Leonis_Flamethrower",
  "gender": "GENDER_MALE",
  "description": "The Cor Leonis of the Penumbra have transcended mere special ops status. They are each unto themselves a powerful covert force, capable of taking on operations that would normally require an entire team of commandos. In addition to their enhanced physical and mental attributes, they receive training in security systems, computer infiltration, and surveillance equipment. In many ways, they are the perfect spies.",
  "group_description": null,
  "display_class_name": null,
  "character_class_name": "minion_grunt",
  "ai_config": "Default_Ranged",
  "commandable_pet": false,
  "power_tags": [
    "HumanSkeleton",
    "Human"
  ],
  "additional_rewards": [

  ],
  "skill_hp_rewards": [

  ],
  "skill_status_rewards": [

  ],
  "ally": null,
  "gang": null,
  "reward_scale": 1.0,
  "game_exclusion": "None",
  "inactive_state_weapon": null,
  "ignores_combat_mods": false,
  "copy_creator_mods": false,
  "spawn_limit": -1,
  "spawn_limit_mission": -1,
  "ignore_av_to_eb_scaling": false,
  "can_zone": false,
  "custom_badge_stat": null,
  "badge_stat_flags": "DefaultBadgeStat",
  "rank": "VR_MINION",
  "power_full_names": [
    "Council.Soldier_Melee.Brawl",
    "Council.Flamethrower.Flamethrower"
  ],
  "power_display_names": [
    "Brawl",
    "Flamethrower"
  ],
  "power_levels": [
    0,
    0
  ],
  "powers": [
    {
      "power_category": "Council",
      "power_set": "Soldier_Melee",
      "power": "*",
      "level": 0
    },
    {
      "power_category": "Council",
      "power_set": "Flamethrower",
      "power": "*",
      "level": 0
    }
  ],
  "levels": [
    {
      "level": 25,
      "experience": 0,
      "display_names": [
        "Penumbra Cor Leonis Fire"
      ],
      "costumes": [
        "Council_Vortex_Khaki_01"
      ]
    },
    {
      "level": 26,
      "experience": 0,
      "display_names": [
        "Penumbra Cor Leonis Fire"
      ],
      "costumes": [
        "Council_Vortex_Khaki_01"
      ]
    },
    {
      "level": 27,
      "experience": 0,
      "display_names": [
        "Penumbra Cor Leonis Fire"
      ],
      "costumes": [
        "Council_Vortex_Khaki_01"
      ]
    },
    {
      "level": 28,
      "experience": 0,
      "display_names": [
        "Penumbra Cor Leonis Fire"
      ],
      "costumes": [
        "Council_Vortex_Khaki_01"
      ]
    },
    {
      "level": 29,
      "experience": 0,
      "display_names": [
        "Penumbra Cor Leonis Fire"
      ],
      "costumes": [
        "Council_Vortex_Khaki_01"
      ]
    }
  ]
}