{
  "name": "Council_Galaxy_Wolf_Lt",
  "gender": "GENDER_MALE",
  "description": "The Galaxy Band of the Council has been trained by Arakhn in stealth and infiltration. They have also been conditioned by Kheldian mind control techniques to be loyal to her above all others.",
  "group_description": null,
  "display_class_name": null,
  "character_class_name": "lt_grunt",
  "ai_config": "Default_Ranged",
  "commandable_pet": false,
  "power_tags": [
    "HumanSkeleton",
    "Human"
  ],
  "additional_rewards": [

  ],
  "skill_hp_rewards": [

  ],
  "skill_status_rewards": [

  ],
  "ally": null,
  "gang": null,
  "reward_scale": 1.0,
  "game_exclusion": "None",
  "inactive_state_weapon": null,
  "ignores_combat_mods": false,
  "copy_creator_mods": false,
  "spawn_limit": 0,
  "spawn_limit_mission": 0,
  "ignore_av_to_eb_scaling": false,
  "can_zone": false,
  "custom_badge_stat": null,
  "badge_stat_flags": "DefaultBadgeStat",
  "rank": "VR_LIEUTENANT",
  "power_full_names": [
    "Council.Galaxy_Lt_Boss.Gravimetric_Snare",
    "Council.Galaxy_Lt_Boss.Shadow_Blast",
    "Council.Galaxy_Lt_Boss.Star_Punch",
    "Council.Nightwolf_Lt_Transform.Lycanthropy"
  ],
  "power_display_names": [
    "Gravimetric Snare",
    "Shadow Blast",
    "Star Punch",
    "Lycanthropy"
  ],
  "power_levels": [
    0,
    0,
    0,
    0
  ],
  "powers": [
    {
      "power_category": "Council",
      "power_set": "Galaxy_Lt_Boss",
      "power": "*",
      "level": 0
    },
    {
      "power_category": "Council",
      "power_set": "Nightwolf_Lt_Transform",
      "power": "*",
      "level": 0
    }
  ],
  "levels": [
    {
      "level": 30,
      "experience": 0,
      "display_names": [
        "Galaxy Adjutant"
      ],
      "costumes": [
        "Council_Galaxy_Lieutenant"
      ]
    },
    {
      "level": 31,
      "experience": 0,
      "display_names": [
        "Galaxy Adjutant"
      ],
      "costumes": [
        "Council_Galaxy_Lieutenant"
      ]
    },
    {
      "level": 32,
      "experience": 0,
      "display_names": [
        "Galaxy Adjutant"
      ],
      "costumes": [
        "Council_Galaxy_Lieutenant"
      ]
    },
    {
      "level": 33,
      "experience": 0,
      "display_names": [
        "Galaxy Adjutant"
      ],
      "costumes": [
        "Council_Galaxy_Lieutenant"
      ]
    },
    {
      "level": 34,
      "experience": 0,
      "display_names": [
        "Galaxy Adjutant"
      ],
      "costumes": [
        "Council_Galaxy_Lieutenant"
      ]
    },
    {
      "level": 35,
      "experience": 0,
      "display_names": [
        "Galaxy Adjutant"
      ],
      "costumes": [
        "Council_Galaxy_Lieutenant"
      ]
    },
    {
      "level": 36,
      "experience": 0,
      "display_names": [
        "Galaxy Adjutant"
      ],
      "costumes": [
        "Council_Galaxy_Lieutenant"
      ]
    },
    {
      "level": 37,
      "experience": 0,
      "display_names": [
        "Galaxy Adjutant"
      ],
      "costumes": [
        "Council_Galaxy_Lieutenant"
      ]
    },
    {
      "level": 38,
      "experience": 0,
      "display_names": [
        "Galaxy Adjutant"
      ],
      "costumes": [
        "Council_Galaxy_Lieutenant"
      ]
    },
    {
      "level": 39,
      "experience": 0,
      "display_names": [
        "Galaxy Adjutant"
      ],
      "costumes": [
        "Council_Galaxy_Lieutenant"
      ]
    }
  ]
}