{
  "name": "Council_Vortex_Cor_Leonis_Grenader",
  "gender": "GENDER_MALE",
  "description": "Every member of the Council aspires to become one of the Vortex Cor Leonis, but few of them achieve this lofty goal. They are the spiritual and philosophical leaders of the Council - totally devoted to its goal of world domination. Like any good soldier, they lead by example. Their intense training and physical enhancements make them perfect soldiers. In battle, they serve as an inspiration to all who fight at their side.",
  "group_description": null,
  "display_class_name": null,
  "character_class_name": "minion_grunt",
  "ai_config": "Default_Ranged",
  "commandable_pet": false,
  "power_tags": [
    "HumanSkeleton",
    "Human"
  ],
  "additional_rewards": [

  ],
  "skill_hp_rewards": [

  ],
  "skill_status_rewards": [

  ],
  "ally": null,
  "gang": null,
  "reward_scale": 1.0,
  "game_exclusion": "None",
  "inactive_state_weapon": null,
  "ignores_combat_mods": false,
  "copy_creator_mods": false,
  "spawn_limit": -1,
  "spawn_limit_mission": -1,
  "ignore_av_to_eb_scaling": false,
  "can_zone": false,
  "custom_badge_stat": null,
  "badge_stat_flags": "DefaultBadgeStat",
  "rank": "VR_MINION",
  "power_full_names": [
    "Council.Soldier_Melee.Brawl",
    "Council.GrenadeLauncher.Grenade_Launcher"
  ],
  "power_display_names": [
    "Brawl",
    "Grenade Launcher"
  ],
  "power_levels": [
    0,
    0
  ],
  "powers": [
    {
      "power_category": "Council",
      "power_set": "Soldier_Melee",
      "power": "*",
      "level": 0
    },
    {
      "power_category": "Council",
      "power_set": "GrenadeLauncher",
      "power": "*",
      "level": 0
    }
  ],
  "levels": [
    {
      "level": 30,
      "experience": 0,
      "display_names": [
        "Vortex Cor Leonis Grenade"
      ],
      "costumes": [
        "Council_Vortex_Black_01"
      ]
    },
    {
      "level": 31,
      "experience": 0,
      "display_names": [
        "Vortex Cor Leonis Grenade"
      ],
      "costumes": [
        "Council_Vortex_Black_01"
      ]
    },
    {
      "level": 32,
      "experience": 0,
      "display_names": [
        "Vortex Cor Leonis Grenade"
      ],
      "costumes": [
        "Council_Vortex_Black_01"
      ]
    },
    {
      "level": 33,
      "experience": 0,
      "display_names": [
        "Vortex Cor Leonis Grenade"
      ],
      "costumes": [
        "Council_Vortex_Black_01"
      ]
    },
    {
      "level": 34,
      "experience": 0,
      "display_names": [
        "Vortex Cor Leonis Grenade"
      ],
      "costumes": [
        "Council_Vortex_Black_01"
      ]
    },
    {
      "level": 35,
      "experience": 0,
      "display_names": [
        "Vortex Cor Leonis Grenade"
      ],
      "costumes": [
        "Council_Vortex_Black_01"
      ]
    },
    {
      "level": 36,
      "experience": 0,
      "display_names": [
        "Vortex Cor Leonis Grenade"
      ],
      "costumes": [
        "Council_Vortex_Black_01"
      ]
    },
    {
      "level": 37,
      "experience": 0,
      "display_names": [
        "Vortex Cor Leonis Grenade"
      ],
      "costumes": [
        "Council_Vortex_Black_01"
      ]
    },
    {
      "level": 38,
      "experience": 0,
      "display_names": [
        "Vortex Cor Leonis Grenade"
      ],
      "costumes": [
        "Council_Vortex_Black_01"
      ]
    },
    {
      "level": 39,
      "experience": 0,
      "display_names": [
        "Vortex Cor Leonis Grenade"
      ],
      "costumes": [
        "Council_Vortex_Black_01"
      ]
    },
    {
      "level": 40,
      "experience": 0,
      "display_names": [
        "Vortex Cor Leonis Grenade"
      ],
      "costumes": [
        "Council_Vortex_Black_01"
      ]
    },
    {
      "level": 41,
      "experience": 0,
      "display_names": [
        "Vortex Cor Leonis Grenade"
      ],
      "costumes": [
        "Council_Vortex_Black_01"
      ]
    },
    {
      "level": 42,
      "experience": 0,
      "display_names": [
        "Vortex Cor Leonis Grenade"
      ],
      "costumes": [
        "Council_Vortex_Black_01"
      ]
    },
    {
      "level": 43,
      "experience": 0,
      "display_names": [
        "Vortex Cor Leonis Grenade"
      ],
      "costumes": [
        "Council_Vortex_Black_01"
      ]
    },
    {
      "level": 44,
      "experience": 0,
      "display_names": [
        "Vortex Cor Leonis Grenade"
      ],
      "costumes": [
        "Council_Vortex_Black_01"
      ]
    },
    {
      "level": 45,
      "experience": 0,
      "display_names": [
        "Vortex Cor Leonis Grenade"
      ],
      "costumes": [
        "Council_Vortex_Black_01"
      ]
    },
    {
      "level": 46,
      "experience": 0,
      "display_names": [
        "Vortex Cor Leonis Grenade"
      ],
      "costumes": [
        "Council_Vortex_Black_01"
      ]
    },
    {
      "level": 47,
      "experience": 0,
      "display_names": [
        "Vortex Cor Leonis Grenade"
      ],
      "costumes": [
        "Council_Vortex_Black_01"
      ]
    },
    {
      "level": 48,
      "experience": 0,
      "display_names": [
        "Vortex Cor Leonis Grenade"
      ],
      "costumes": [
        "Council_Vortex_Black_01"
      ]
    },
    {
      "level": 49,
      "experience": 0,
      "display_names": [
        "Vortex Cor Leonis Grenade"
      ],
      "costumes": [
        "Council_Vortex_Black_01"
      ]
    },
    {
      "level": 50,
      "experience": 0,
      "display_names": [
        "Vortex Cor Leonis Grenade"
      ],
      "costumes": [
        "Council_Vortex_Black_01"
      ]
    },
    {
      "level": 51,
      "experience": 0,
      "display_names": [
        "Vortex Cor Leonis Grenade"
      ],
      "costumes": [
        "Council_Vortex_Black_01"
      ]
    },
    {
      "level": 52,
      "experience": 0,
      "display_names": [
        "Vortex Cor Leonis Grenade"
      ],
      "costumes": [
        "Council_Vortex_Black_01"
      ]
    },
    {
      "level": 53,
      "experience": 0,
      "display_names": [
        "Vortex Cor Leonis Grenade"
      ],
      "costumes": [
        "Council_Vortex_Black_01"
      ]
    },
    {
      "level": 54,
      "experience": 0,
      "display_names": [
        "Vortex Cor Leonis Grenade"
      ],
      "costumes": [
        "Council_Vortex_Black_01"
      ]
    }
  ]
}