{
  "name": "Council_Nebula_Elite_SMG",
  "gender": "GENDER_MALE",
  "description": "Once a soldier has proven his total commitment to the Council, he is transferred into the ranks of the Elite. Only one in five soldiers survive long enough to achieve this promotion. Nebula Elites receive first stage super soldier serum that improves their physical prowess to the level of Olympic athletes. They also go through training courses before being put back into the battle lines. After all, the Council has made an investment in their success.",
  "group_description": null,
  "display_class_name": null,
  "character_class_name": "minion_grunt",
  "ai_config": "Default_Ranged",
  "commandable_pet": false,
  "power_tags": [
    "HumanSkeleton",
    "Human"
  ],
  "additional_rewards": [

  ],
  "skill_hp_rewards": [

  ],
  "skill_status_rewards": [

  ],
  "ally": null,
  "gang": null,
  "reward_scale": 1.0,
  "game_exclusion": "None",
  "inactive_state_weapon": null,
  "ignores_combat_mods": false,
  "copy_creator_mods": false,
  "spawn_limit": -1,
  "spawn_limit_mission": -1,
  "ignore_av_to_eb_scaling": false,
  "can_zone": false,
  "custom_badge_stat": null,
  "badge_stat_flags": "DefaultBadgeStat",
  "rank": "VR_MINION",
  "power_full_names": [
    "Council.Soldier_Melee.Brawl",
    "Council.Submachine_Gun.Submachine_Gun"
  ],
  "power_display_names": [
    "Brawl",
    "Submachine Gun"
  ],
  "power_levels": [
    0,
    0
  ],
  "powers": [
    {
      "power_category": "Council",
      "power_set": "Soldier_Melee",
      "power": "*",
      "level": 0
    },
    {
      "power_category": "Council",
      "power_set": "Submachine_Gun",
      "power": "*",
      "level": 0
    }
  ],
  "levels": [
    {
      "level": 5,
      "experience": 0,
      "display_names": [
        "Nebula Elite Gunner"
      ],
      "costumes": [
        "Council_Penumbra_Green_01"
      ]
    },
    {
      "level": 6,
      "experience": 0,
      "display_names": [
        "Nebula Elite Gunner"
      ],
      "costumes": [
        "Council_Penumbra_Green_01"
      ]
    },
    {
      "level": 7,
      "experience": 0,
      "display_names": [
        "Nebula Elite Gunner"
      ],
      "costumes": [
        "Council_Penumbra_Green_01"
      ]
    },
    {
      "level": 8,
      "experience": 0,
      "display_names": [
        "Nebula Elite Gunner"
      ],
      "costumes": [
        "Council_Penumbra_Green_01"
      ]
    },
    {
      "level": 9,
      "experience": 0,
      "display_names": [
        "Nebula Elite Gunner"
      ],
      "costumes": [
        "Council_Penumbra_Green_01"
      ]
    },
    {
      "level": 10,
      "experience": 0,
      "display_names": [
        "Nebula Elite Gunner"
      ],
      "costumes": [
        "Council_Penumbra_Green_01"
      ]
    }
  ]
}