{
  "name": "Council_Penumbra_Soldier_Lieutenant_Flame",
  "gender": "GENDER_MALE",
  "description": "The Penumbra Adjutants have completed their covert ops training and are on the verge of being promoted to Elite status. They have yet to benefit from a course of super soldier serum, but they have honed their stealth and physique to a near perfect level. Adjutants are often tasked with leading squads of Penumbra soldiers on raids to raise funds for the Council.",
  "group_description": null,
  "display_class_name": null,
  "character_class_name": "lt_grunt",
  "ai_config": "Default_Ranged",
  "commandable_pet": false,
  "power_tags": [
    "HumanSkeleton",
    "Human"
  ],
  "additional_rewards": [

  ],
  "skill_hp_rewards": [

  ],
  "skill_status_rewards": [

  ],
  "ally": null,
  "gang": null,
  "reward_scale": 1.0,
  "game_exclusion": "None",
  "inactive_state_weapon": null,
  "ignores_combat_mods": false,
  "copy_creator_mods": false,
  "spawn_limit": -1,
  "spawn_limit_mission": -1,
  "ignore_av_to_eb_scaling": false,
  "can_zone": false,
  "custom_badge_stat": null,
  "badge_stat_flags": "DefaultBadgeStat",
  "rank": "VR_LIEUTENANT",
  "power_full_names": [
    "Council.Soldier_Melee.Brawl",
    "Council.FragGrenade.Frag_Grenade",
    "Council.Flamethrower.Flamethrower"
  ],
  "power_display_names": [
    "Brawl",
    "Frag Grenade",
    "Flamethrower"
  ],
  "power_levels": [
    0,
    0,
    0
  ],
  "powers": [
    {
      "power_category": "Council",
      "power_set": "Soldier_Melee",
      "power": "*",
      "level": 0
    },
    {
      "power_category": "Council",
      "power_set": "FragGrenade",
      "power": "*",
      "level": 0
    },
    {
      "power_category": "Council",
      "power_set": "Flamethrower",
      "power": "*",
      "level": 0
    }
  ],
  "levels": [
    {
      "level": 15,
      "experience": 0,
      "display_names": [
        "Penumbra Adjutant"
      ],
      "costumes": [
        "Council_Nebula_Khaki_02"
      ]
    },
    {
      "level": 16,
      "experience": 0,
      "display_names": [
        "Penumbra Adjutant"
      ],
      "costumes": [
        "Council_Nebula_Khaki_02"
      ]
    },
    {
      "level": 17,
      "experience": 0,
      "display_names": [
        "Penumbra Adjutant"
      ],
      "costumes": [
        "Council_Nebula_Khaki_02"
      ]
    },
    {
      "level": 18,
      "experience": 0,
      "display_names": [
        "Penumbra Adjutant"
      ],
      "costumes": [
        "Council_Nebula_Khaki_02"
      ]
    },
    {
      "level": 19,
      "experience": 0,
      "display_names": [
        "Penumbra Adjutant"
      ],
      "costumes": [
        "Council_Nebula_Khaki_02"
      ]
    }
  ]
}