{
  "name": "Council_Arakhn_Medium_High",
  "gender": "GENDER_FEMALE",
  "description": "Very little is known about the mysterious figure known as Arakhn. She is a deadly assassin and is the last thing seen by many enemies of the Council. What most of the Council is unaware of is that Arakhn's powers resulted from the fusion of her human body with a Nictus life form. She is on the front lines of a war with the Kheldians, ancient enemies of the Nictus.",
  "group_description": null,
  "display_class_name": null,
  "character_class_name": "boss_archvillain",
  "ai_config": "Default_Ranged",
  "commandable_pet": false,
  "power_tags": [
    "HumanSkeleton",
    "Human",
    "Raid"
  ],
  "additional_rewards": [

  ],
  "skill_hp_rewards": [

  ],
  "skill_status_rewards": [

  ],
  "ally": null,
  "gang": null,
  "reward_scale": 1.0,
  "game_exclusion": "None",
  "inactive_state_weapon": null,
  "ignores_combat_mods": false,
  "copy_creator_mods": false,
  "spawn_limit": 0,
  "spawn_limit_mission": 0,
  "ignore_av_to_eb_scaling": false,
  "can_zone": false,
  "custom_badge_stat": null,
  "badge_stat_flags": "DefaultBadgeStat",
  "rank": "VR_ARCHVILLAIN",
  "power_full_names": [
    "Council.Arakhn.Resistance",
    "Council.Arakhn.Ebon_Eye",
    "Council.Arakhn.Gravitic_Emanation",
    "Council.Arakhn.Inky_Aspect",
    "Council.Arakhn.Gravimetric_Snare",
    "Council.Arakhn.Gravity_Well",
    "Council.Arakhn.Stygian_Circle",
    "Council.Arakhn.Essence_Drain"
  ],
  "power_display_names": [
    "Resistance",
    "Ebon Eye",
    "Gravitic Emanation",
    "Inky Aspect",
    "Gravimetric Snare",
    "Gravity Well",
    "Stygian Circle",
    "Essence Drain"
  ],
  "power_levels": [
    0,
    0,
    0,
    0,
    0,
    0,
    0,
    0
  ],
  "powers": [
    {
      "power_category": "Council",
      "power_set": "Arakhn",
      "power": "*",
      "level": 0
    }
  ],
  "levels": [
    {
      "level": 30,
      "experience": 0,
      "display_names": [
        "Arakhn"
      ],
      "costumes": [
        "Council_Arakhn"
      ]
    },
    {
      "level": 31,
      "experience": 0,
      "display_names": [
        "Arakhn"
      ],
      "costumes": [
        "Council_Arakhn"
      ]
    },
    {
      "level": 32,
      "experience": 0,
      "display_names": [
        "Arakhn"
      ],
      "costumes": [
        "Council_Arakhn"
      ]
    },
    {
      "level": 33,
      "experience": 0,
      "display_names": [
        "Arakhn"
      ],
      "costumes": [
        "Council_Arakhn"
      ]
    },
    {
      "level": 34,
      "experience": 0,
      "display_names": [
        "Arakhn"
      ],
      "costumes": [
        "Council_Arakhn"
      ]
    },
    {
      "level": 35,
      "experience": 0,
      "display_names": [
        "Arakhn"
      ],
      "costumes": [
        "Council_Arakhn"
      ]
    },
    {
      "level": 36,
      "experience": 0,
      "display_names": [
        "Arakhn"
      ],
      "costumes": [
        "Council_Arakhn"
      ]
    },
    {
      "level": 37,
      "experience": 0,
      "display_names": [
        "Arakhn"
      ],
      "costumes": [
        "Council_Arakhn"
      ]
    },
    {
      "level": 38,
      "experience": 0,
      "display_names": [
        "Arakhn"
      ],
      "costumes": [
        "Council_Arakhn"
      ]
    },
    {
      "level": 39,
      "experience": 0,
      "display_names": [
        "Arakhn"
      ],
      "costumes": [
        "Council_Arakhn"
      ]
    },
    {
      "level": 40,
      "experience": 0,
      "display_names": [
        "Arakhn"
      ],
      "costumes": [
        "Council_Arakhn"
      ]
    },
    {
      "level": 41,
      "experience": 0,
      "display_names": [
        "Arakhn"
      ],
      "costumes": [
        "Council_Arakhn"
      ]
    },
    {
      "level": 42,
      "experience": 0,
      "display_names": [
        "Arakhn"
      ],
      "costumes": [
        "Council_Arakhn"
      ]
    },
    {
      "level": 43,
      "experience": 0,
      "display_names": [
        "Arakhn"
      ],
      "costumes": [
        "Council_Arakhn"
      ]
    },
    {
      "level": 44,
      "experience": 0,
      "display_names": [
        "Arakhn"
      ],
      "costumes": [
        "Council_Arakhn"
      ]
    },
    {
      "level": 45,
      "experience": 0,
      "display_names": [
        "Arakhn"
      ],
      "costumes": [
        "Council_Arakhn"
      ]
    },
    {
      "level": 46,
      "experience": 0,
      "display_names": [
        "Arakhn"
      ],
      "costumes": [
        "Council_Arakhn"
      ]
    },
    {
      "level": 47,
      "experience": 0,
      "display_names": [
        "Arakhn"
      ],
      "costumes": [
        "Council_Arakhn"
      ]
    },
    {
      "level": 48,
      "experience": 0,
      "display_names": [
        "Arakhn"
      ],
      "costumes": [
        "Council_Arakhn"
      ]
    },
    {
      "level": 49,
      "experience": 0,
      "display_names": [
        "Arakhn"
      ],
      "costumes": [
        "Council_Arakhn"
      ]
    },
    {
      "level": 50,
      "experience": 0,
      "display_names": [
        "Arakhn"
      ],
      "costumes": [
        "Council_Arakhn"
      ]
    },
    {
      "level": 51,
      "experience": 0,
      "display_names": [
        "Arakhn"
      ],
      "costumes": [
        "Council_Arakhn"
      ]
    },
    {
      "level": 52,
      "experience": 0,
      "display_names": [
        "Arakhn"
      ],
      "costumes": [
        "Council_Arakhn"
      ]
    },
    {
      "level": 53,
      "experience": 0,
      "display_names": [
        "Arakhn"
      ],
      "costumes": [
        "Council_Arakhn"
      ]
    },
    {
      "level": 54,
      "experience": 0,
      "display_names": [
        "Arakhn"
      ],
      "costumes": [
        "Council_Arakhn"
      ]
    }
  ]
}