{
  "name": "Council_Dark_Vampyr_Boss",
  "gender": "GENDER_MALE",
  "description": "The Dark Vampyri are the assistants to Nosferatu, the man responsible for the Council's super soldier program. They are scientists as well as super soldiers, and have a hand in the creation of other Vampyri. They often personalize their own transformation process, giving themselves special abilities and powers that lesser beings can only dream of.",
  "group_description": null,
  "display_class_name": null,
  "character_class_name": "boss_grunt",
  "ai_config": "5thColumn_Fifth_Vampyr_Base",
  "commandable_pet": false,
  "power_tags": [
    "HumanSkeleton"
  ],
  "additional_rewards": [

  ],
  "skill_hp_rewards": [

  ],
  "skill_status_rewards": [

  ],
  "ally": null,
  "gang": null,
  "reward_scale": 1.0,
  "game_exclusion": "None",
  "inactive_state_weapon": null,
  "ignores_combat_mods": false,
  "copy_creator_mods": false,
  "spawn_limit": 0,
  "spawn_limit_mission": 0,
  "ignore_av_to_eb_scaling": false,
  "can_zone": false,
  "custom_badge_stat": null,
  "badge_stat_flags": "DefaultBadgeStat",
  "rank": "VR_BOSS",
  "power_full_names": [
    "Council.Dark_Vampyri.Shadow_Blast",
    "Council.Dark_Vampyri.Dark_Matter_Detonation",
    "Council.Dark_Vampyri.Essence_Drain",
    "Council.Dark_Vampyri.Star_Punch",
    "Council.Dark_Vampyri.Gravity_Well",
    "Council.Vampyri_Defense.Fast_Healing",
    "Council.Nightwolf_Boss_Transform.Lycanthropy"
  ],
  "power_display_names": [
    "Shadow Blast",
    "Dark Matter Detonation",
    "Essence Drain",
    "Star Punch",
    "Gravity Well",
    "Fast Healing",
    "Lycanthropy"
  ],
  "power_levels": [
    0,
    0,
    0,
    0,
    0,
    0,
    0
  ],
  "powers": [
    {
      "power_category": "Council",
      "power_set": "Dark_Vampyri",
      "power": "*",
      "level": 0
    },
    {
      "power_category": "Council",
      "power_set": "Vampyri_Defense",
      "power": "*",
      "level": 0
    },
    {
      "power_category": "Council",
      "power_set": "Nightwolf_Boss_Transform",
      "power": "*",
      "level": 0
    }
  ],
  "levels": [
    {
      "level": 30,
      "experience": 0,
      "display_names": [
        "Dark Equinox Archon"
      ],
      "costumes": [
        "Council_Vampyri_03"
      ]
    },
    {
      "level": 31,
      "experience": 0,
      "display_names": [
        "Dark Equinox Archon"
      ],
      "costumes": [
        "Council_Vampyri_03"
      ]
    },
    {
      "level": 32,
      "experience": 0,
      "display_names": [
        "Dark Equinox Archon"
      ],
      "costumes": [
        "Council_Vampyri_03"
      ]
    },
    {
      "level": 33,
      "experience": 0,
      "display_names": [
        "Dark Equinox Archon"
      ],
      "costumes": [
        "Council_Vampyri_03"
      ]
    },
    {
      "level": 34,
      "experience": 0,
      "display_names": [
        "Dark Equinox Archon"
      ],
      "costumes": [
        "Council_Vampyri_03"
      ]
    },
    {
      "level": 35,
      "experience": 0,
      "display_names": [
        "Dark Equinox Archon"
      ],
      "costumes": [
        "Council_Vampyri_03"
      ]
    },
    {
      "level": 36,
      "experience": 0,
      "display_names": [
        "Dark Equinox Archon"
      ],
      "costumes": [
        "Council_Vampyri_03"
      ]
    },
    {
      "level": 37,
      "experience": 0,
      "display_names": [
        "Dark Equinox Archon"
      ],
      "costumes": [
        "Council_Vampyri_03"
      ]
    },
    {
      "level": 38,
      "experience": 0,
      "display_names": [
        "Dark Equinox Archon"
      ],
      "costumes": [
        "Council_Vampyri_03"
      ]
    },
    {
      "level": 39,
      "experience": 0,
      "display_names": [
        "Dark Equinox Archon"
      ],
      "costumes": [
        "Council_Vampyri_03"
      ]
    },
    {
      "level": 40,
      "experience": 0,
      "display_names": [
        "Dark Equinox Archon"
      ],
      "costumes": [
        "Council_Vampyri_03"
      ]
    },
    {
      "level": 41,
      "experience": 0,
      "display_names": [
        "Dark Equinox Archon"
      ],
      "costumes": [
        "Council_Vampyri_03"
      ]
    },
    {
      "level": 42,
      "experience": 0,
      "display_names": [
        "Dark Equinox Archon"
      ],
      "costumes": [
        "Council_Vampyri_03"
      ]
    },
    {
      "level": 43,
      "experience": 0,
      "display_names": [
        "Dark Equinox Archon"
      ],
      "costumes": [
        "Council_Vampyri_03"
      ]
    },
    {
      "level": 44,
      "experience": 0,
      "display_names": [
        "Dark Equinox Archon"
      ],
      "costumes": [
        "Council_Vampyri_03"
      ]
    },
    {
      "level": 45,
      "experience": 0,
      "display_names": [
        "Dark Equinox Archon"
      ],
      "costumes": [
        "Council_Vampyri_03"
      ]
    },
    {
      "level": 46,
      "experience": 0,
      "display_names": [
        "Dark Equinox Archon"
      ],
      "costumes": [
        "Council_Vampyri_03"
      ]
    },
    {
      "level": 47,
      "experience": 0,
      "display_names": [
        "Dark Equinox Archon"
      ],
      "costumes": [
        "Council_Vampyri_03"
      ]
    },
    {
      "level": 48,
      "experience": 0,
      "display_names": [
        "Dark Equinox Archon"
      ],
      "costumes": [
        "Council_Vampyri_03"
      ]
    },
    {
      "level": 49,
      "experience": 0,
      "display_names": [
        "Dark Equinox Archon"
      ],
      "costumes": [
        "Council_Vampyri_03"
      ]
    },
    {
      "level": 50,
      "experience": 0,
      "display_names": [
        "Dark Equinox Archon"
      ],
      "costumes": [
        "Council_Vampyri_03"
      ]
    },
    {
      "level": 51,
      "experience": 0,
      "display_names": [
        "Dark Equinox Archon"
      ],
      "costumes": [
        "Council_Vampyri_03"
      ]
    },
    {
      "level": 52,
      "experience": 0,
      "display_names": [
        "Dark Equinox Archon"
      ],
      "costumes": [
        "Council_Vampyri_03"
      ]
    },
    {
      "level": 53,
      "experience": 0,
      "display_names": [
        "Dark Equinox Archon"
      ],
      "costumes": [
        "Council_Vampyri_03"
      ]
    },
    {
      "level": 54,
      "experience": 0,
      "display_names": [
        "Dark Equinox Archon"
      ],
      "costumes": [
        "Council_Vampyri_03"
      ]
    }
  ]
}