{
  "name": "Crazed_Nictus_Hunter_Minion",
  "gender": "GENDER_MALE",
  "description": "These people seem to have been driven mad by the temporal disturbance affecting their dimension. Perhaps if you put an end to the disturbance, they will return to normal.",
  "group_description": null,
  "display_class_name": null,
  "character_class_name": "minion_grunt",
  "ai_config": "Nictus_Hunter",
  "commandable_pet": false,
  "power_tags": [
    "HumanSkeleton",
    "Human"
  ],
  "additional_rewards": [

  ],
  "skill_hp_rewards": [

  ],
  "skill_status_rewards": [

  ],
  "ally": null,
  "gang": null,
  "reward_scale": 1.0,
  "game_exclusion": "None",
  "inactive_state_weapon": null,
  "ignores_combat_mods": false,
  "copy_creator_mods": false,
  "spawn_limit": 0,
  "spawn_limit_mission": 0,
  "ignore_av_to_eb_scaling": false,
  "can_zone": false,
  "custom_badge_stat": null,
  "badge_stat_flags": "DefaultBadgeStat",
  "rank": "VR_MINION",
  "power_full_names": [
    "Nictus.Hunter.Quantum_Array_gun"
  ],
  "power_display_names": [
    "Quantum Array gun"
  ],
  "power_levels": [
    0
  ],
  "powers": [
    {
      "power_category": "Nictus",
      "power_set": "Hunter",
      "power": "Quantum_Array_gun",
      "level": 0
    }
  ],
  "levels": [
    {
      "level": 40,
      "experience": 0,
      "display_names": [
        "Crazed Quantum"
      ],
      "costumes": [
        "MaleNPC_Villain_101",
        "MaleNPC_Villain_102",
        "MaleNPC_Villain_103",
        "MaleNPC_Villain_104",
        "MaleNPC_Villain_105",
        "MaleNPC_Villain_106",
        "MaleNPC_Villain_107",
        "MaleNPC_Villain_108",
        "MaleNPC_Villain_109",
        "MaleNPC_Villain_110",
        "MaleNPC_Villain_111",
        "MaleNPC_Villain_112",
        "MaleNPC_Villain_113",
        "MaleNPC_Villain_114",
        "MaleNPC_Villain_115"
      ]
    },
    {
      "level": 41,
      "experience": 0,
      "display_names": [
        "Crazed Quantum"
      ],
      "costumes": [
        "MaleNPC_Villain_101",
        "MaleNPC_Villain_102",
        "MaleNPC_Villain_103",
        "MaleNPC_Villain_104",
        "MaleNPC_Villain_105",
        "MaleNPC_Villain_106",
        "MaleNPC_Villain_107",
        "MaleNPC_Villain_108",
        "MaleNPC_Villain_109",
        "MaleNPC_Villain_110",
        "MaleNPC_Villain_111",
        "MaleNPC_Villain_112",
        "MaleNPC_Villain_113",
        "MaleNPC_Villain_114",
        "MaleNPC_Villain_115"
      ]
    },
    {
      "level": 42,
      "experience": 0,
      "display_names": [
        "Crazed Quantum"
      ],
      "costumes": [
        "MaleNPC_Villain_101",
        "MaleNPC_Villain_102",
        "MaleNPC_Villain_103",
        "MaleNPC_Villain_104",
        "MaleNPC_Villain_105",
        "MaleNPC_Villain_106",
        "MaleNPC_Villain_107",
        "MaleNPC_Villain_108",
        "MaleNPC_Villain_109",
        "MaleNPC_Villain_110",
        "MaleNPC_Villain_111",
        "MaleNPC_Villain_112",
        "MaleNPC_Villain_113",
        "MaleNPC_Villain_114",
        "MaleNPC_Villain_115"
      ]
    },
    {
      "level": 43,
      "experience": 0,
      "display_names": [
        "Crazed Quantum"
      ],
      "costumes": [
        "MaleNPC_Villain_101",
        "MaleNPC_Villain_102",
        "MaleNPC_Villain_103",
        "MaleNPC_Villain_104",
        "MaleNPC_Villain_105",
        "MaleNPC_Villain_106",
        "MaleNPC_Villain_107",
        "MaleNPC_Villain_108",
        "MaleNPC_Villain_109",
        "MaleNPC_Villain_110",
        "MaleNPC_Villain_111",
        "MaleNPC_Villain_112",
        "MaleNPC_Villain_113",
        "MaleNPC_Villain_114",
        "MaleNPC_Villain_115"
      ]
    },
    {
      "level": 44,
      "experience": 0,
      "display_names": [
        "Crazed Quantum"
      ],
      "costumes": [
        "MaleNPC_Villain_101",
        "MaleNPC_Villain_102",
        "MaleNPC_Villain_103",
        "MaleNPC_Villain_104",
        "MaleNPC_Villain_105",
        "MaleNPC_Villain_106",
        "MaleNPC_Villain_107",
        "MaleNPC_Villain_108",
        "MaleNPC_Villain_109",
        "MaleNPC_Villain_110",
        "MaleNPC_Villain_111",
        "MaleNPC_Villain_112",
        "MaleNPC_Villain_113",
        "MaleNPC_Villain_114",
        "MaleNPC_Villain_115"
      ]
    }
  ]
}