{
  "name": "Crey_CoV_Flame_Scientist_Boss",
  "gender": "GENDER_MALE",
  "description": "The leaders of every Crey research team receive special training in leadership, tactics, and combat techniques. They also have access to the latest advanced weaponry, making them especially dangerous.",
  "group_description": null,
  "display_class_name": null,
  "character_class_name": "boss_grunt",
  "ai_config": "Default_Ranged",
  "commandable_pet": false,
  "power_tags": [
    "HumanSkeleton",
    "Human"
  ],
  "additional_rewards": [

  ],
  "skill_hp_rewards": [

  ],
  "skill_status_rewards": [

  ],
  "ally": null,
  "gang": null,
  "reward_scale": 1.0,
  "game_exclusion": "CoV Only",
  "inactive_state_weapon": null,
  "ignores_combat_mods": false,
  "copy_creator_mods": false,
  "spawn_limit": -1,
  "spawn_limit_mission": -1,
  "ignore_av_to_eb_scaling": false,
  "can_zone": false,
  "custom_badge_stat": null,
  "badge_stat_flags": "DefaultBadgeStat",
  "rank": "VR_BOSS",
  "power_full_names": [
    "Crey.CoV_Scientist_Lt_Flamethrower.Flamethrower"
  ],
  "power_display_names": [
    "Flamethrower"
  ],
  "power_levels": [
    0
  ],
  "powers": [
    {
      "power_category": "Crey",
      "power_set": "CoV_Scientist_Lt_Flamethrower",
      "power": "*",
      "level": 0
    }
  ],
  "levels": [
    {
      "level": 15,
      "experience": 0,
      "display_names": [
        "Chief Plasma Scientist"
      ],
      "costumes": [
        "CSC_03",
        "CSC_04"
      ]
    },
    {
      "level": 16,
      "experience": 0,
      "display_names": [
        "Chief Plasma Scientist"
      ],
      "costumes": [
        "CSC_03",
        "CSC_04"
      ]
    },
    {
      "level": 17,
      "experience": 0,
      "display_names": [
        "Chief Plasma Scientist"
      ],
      "costumes": [
        "CSC_03",
        "CSC_04"
      ]
    },
    {
      "level": 18,
      "experience": 0,
      "display_names": [
        "Chief Plasma Scientist"
      ],
      "costumes": [
        "CSC_03",
        "CSC_04"
      ]
    },
    {
      "level": 19,
      "experience": 0,
      "display_names": [
        "Chief Plasma Scientist"
      ],
      "costumes": [
        "CSC_03",
        "CSC_04"
      ]
    },
    {
      "level": 20,
      "experience": 0,
      "display_names": [
        "Chief Plasma Scientist"
      ],
      "costumes": [
        "CSC_03",
        "CSC_04"
      ]
    },
    {
      "level": 21,
      "experience": 0,
      "display_names": [
        "Chief Plasma Scientist"
      ],
      "costumes": [
        "CSC_03",
        "CSC_04"
      ]
    },
    {
      "level": 22,
      "experience": 0,
      "display_names": [
        "Chief Plasma Scientist"
      ],
      "costumes": [
        "CSC_03",
        "CSC_04"
      ]
    },
    {
      "level": 23,
      "experience": 0,
      "display_names": [
        "Chief Plasma Scientist"
      ],
      "costumes": [
        "CSC_03",
        "CSC_04"
      ]
    },
    {
      "level": 24,
      "experience": 0,
      "display_names": [
        "Chief Plasma Scientist"
      ],
      "costumes": [
        "CSC_03",
        "CSC_04"
      ]
    },
    {
      "level": 25,
      "experience": 0,
      "display_names": [
        "Chief Plasma Scientist"
      ],
      "costumes": [
        "CSC_03",
        "CSC_04"
      ]
    },
    {
      "level": 26,
      "experience": 0,
      "display_names": [
        "Chief Plasma Scientist"
      ],
      "costumes": [
        "CSC_03",
        "CSC_04"
      ]
    },
    {
      "level": 27,
      "experience": 0,
      "display_names": [
        "Chief Plasma Scientist"
      ],
      "costumes": [
        "CSC_03",
        "CSC_04"
      ]
    },
    {
      "level": 28,
      "experience": 0,
      "display_names": [
        "Chief Plasma Scientist"
      ],
      "costumes": [
        "CSC_03",
        "CSC_04"
      ]
    },
    {
      "level": 29,
      "experience": 0,
      "display_names": [
        "Chief Plasma Scientist"
      ],
      "costumes": [
        "CSC_03",
        "CSC_04"
      ]
    }
  ]
}