{
  "name": "Crey_Melee_Agent_Female",
  "gender": "GENDER_FEMALE",
  "description": "The stone-faced, suit clad Field Agents are Crey's main investigative branch. They can be found carrying out a variety of missions, from espionage to assassination ops. They carry the latest weapons and receive intense close combat training.",
  "group_description": null,
  "display_class_name": null,
  "character_class_name": "minion_grunt",
  "ai_config": "Default_Melee",
  "commandable_pet": false,
  "power_tags": [
    "HumanSkeleton",
    "Human"
  ],
  "additional_rewards": [

  ],
  "skill_hp_rewards": [

  ],
  "skill_status_rewards": [

  ],
  "ally": null,
  "gang": null,
  "reward_scale": 1.0,
  "game_exclusion": "None",
  "inactive_state_weapon": null,
  "ignores_combat_mods": false,
  "copy_creator_mods": false,
  "spawn_limit": -1,
  "spawn_limit_mission": -1,
  "ignore_av_to_eb_scaling": false,
  "can_zone": false,
  "custom_badge_stat": null,
  "badge_stat_flags": "DefaultBadgeStat",
  "rank": "VR_MINION",
  "power_full_names": [
    "Crey.Crey_Minion_Agent_Pistol.Automatic_Pistol",
    "Crey.Crey_Minion_Lt_Agent_Melee.Barrage",
    "Crey.Crey_Minion_Lt_Agent_Melee.Energy_Punch",
    "Crey.Crey_Minion_Lt_Agent_Melee.Bone_Smasher"
  ],
  "power_display_names": [
    "Automatic Pistol",
    "Barrage",
    "Energy Punch",
    "Bone Smasher"
  ],
  "power_levels": [
    0,
    0,
    0,
    0
  ],
  "powers": [
    {
      "power_category": "Crey",
      "power_set": "Crey_Minion_Agent_Pistol",
      "power": "*",
      "level": 0
    },
    {
      "power_category": "Crey",
      "power_set": "Crey_Minion_Lt_Agent_Melee",
      "power": "*",
      "level": 0
    }
  ],
  "levels": [
    {
      "level": 30,
      "experience": 0,
      "display_names": [
        "Vigilant"
      ],
      "costumes": [
        "Crey_Agent_F_01",
        "Crey_Agent_F_02",
        "Crey_Agent_F_03",
        "Crey_Agent_F_04",
        "Crey_Agent_F_05",
        "Crey_Agent_F_06",
        "Crey_Agent_F_07"
      ]
    },
    {
      "level": 31,
      "experience": 0,
      "display_names": [
        "Vigilant"
      ],
      "costumes": [
        "Crey_Agent_F_01",
        "Crey_Agent_F_02",
        "Crey_Agent_F_03",
        "Crey_Agent_F_04",
        "Crey_Agent_F_05",
        "Crey_Agent_F_06",
        "Crey_Agent_F_07"
      ]
    },
    {
      "level": 32,
      "experience": 0,
      "display_names": [
        "Vigilant"
      ],
      "costumes": [
        "Crey_Agent_F_01",
        "Crey_Agent_F_02",
        "Crey_Agent_F_03",
        "Crey_Agent_F_04",
        "Crey_Agent_F_05",
        "Crey_Agent_F_06",
        "Crey_Agent_F_07"
      ]
    },
    {
      "level": 33,
      "experience": 0,
      "display_names": [
        "Vigilant"
      ],
      "costumes": [
        "Crey_Agent_F_01",
        "Crey_Agent_F_02",
        "Crey_Agent_F_03",
        "Crey_Agent_F_04",
        "Crey_Agent_F_05",
        "Crey_Agent_F_06",
        "Crey_Agent_F_07"
      ]
    },
    {
      "level": 34,
      "experience": 0,
      "display_names": [
        "Vigilant"
      ],
      "costumes": [
        "Crey_Agent_F_01",
        "Crey_Agent_F_02",
        "Crey_Agent_F_03",
        "Crey_Agent_F_04",
        "Crey_Agent_F_05",
        "Crey_Agent_F_06",
        "Crey_Agent_F_07"
      ]
    },
    {
      "level": 35,
      "experience": 0,
      "display_names": [
        "Vigilant"
      ],
      "costumes": [
        "Crey_Agent_F_01",
        "Crey_Agent_F_02",
        "Crey_Agent_F_03",
        "Crey_Agent_F_04",
        "Crey_Agent_F_05",
        "Crey_Agent_F_06",
        "Crey_Agent_F_07"
      ]
    },
    {
      "level": 36,
      "experience": 0,
      "display_names": [
        "Vigilant"
      ],
      "costumes": [
        "Crey_Agent_F_01",
        "Crey_Agent_F_02",
        "Crey_Agent_F_03",
        "Crey_Agent_F_04",
        "Crey_Agent_F_05",
        "Crey_Agent_F_06",
        "Crey_Agent_F_07"
      ]
    },
    {
      "level": 37,
      "experience": 0,
      "display_names": [
        "Vigilant"
      ],
      "costumes": [
        "Crey_Agent_F_01",
        "Crey_Agent_F_02",
        "Crey_Agent_F_03",
        "Crey_Agent_F_04",
        "Crey_Agent_F_05",
        "Crey_Agent_F_06",
        "Crey_Agent_F_07"
      ]
    },
    {
      "level": 38,
      "experience": 0,
      "display_names": [
        "Vigilant"
      ],
      "costumes": [
        "Crey_Agent_F_01",
        "Crey_Agent_F_02",
        "Crey_Agent_F_03",
        "Crey_Agent_F_04",
        "Crey_Agent_F_05",
        "Crey_Agent_F_06",
        "Crey_Agent_F_07"
      ]
    },
    {
      "level": 39,
      "experience": 0,
      "display_names": [
        "Vigilant"
      ],
      "costumes": [
        "Crey_Agent_F_01",
        "Crey_Agent_F_02",
        "Crey_Agent_F_03",
        "Crey_Agent_F_04",
        "Crey_Agent_F_05",
        "Crey_Agent_F_06",
        "Crey_Agent_F_07"
      ]
    },
    {
      "level": 40,
      "experience": 0,
      "display_names": [
        "Vigilant"
      ],
      "costumes": [
        "Crey_Agent_F_01",
        "Crey_Agent_F_02",
        "Crey_Agent_F_03",
        "Crey_Agent_F_04",
        "Crey_Agent_F_05",
        "Crey_Agent_F_06",
        "Crey_Agent_F_07"
      ]
    },
    {
      "level": 41,
      "experience": 0,
      "display_names": [
        "Vigilant"
      ],
      "costumes": [
        "Crey_Agent_F_01",
        "Crey_Agent_F_02",
        "Crey_Agent_F_03",
        "Crey_Agent_F_04",
        "Crey_Agent_F_05",
        "Crey_Agent_F_06",
        "Crey_Agent_F_07"
      ]
    },
    {
      "level": 42,
      "experience": 0,
      "display_names": [
        "Vigilant"
      ],
      "costumes": [
        "Crey_Agent_F_01",
        "Crey_Agent_F_02",
        "Crey_Agent_F_03",
        "Crey_Agent_F_04",
        "Crey_Agent_F_05",
        "Crey_Agent_F_06",
        "Crey_Agent_F_07"
      ]
    },
    {
      "level": 43,
      "experience": 0,
      "display_names": [
        "Vigilant"
      ],
      "costumes": [
        "Crey_Agent_F_01",
        "Crey_Agent_F_02",
        "Crey_Agent_F_03",
        "Crey_Agent_F_04",
        "Crey_Agent_F_05",
        "Crey_Agent_F_06",
        "Crey_Agent_F_07"
      ]
    },
    {
      "level": 44,
      "experience": 0,
      "display_names": [
        "Vigilant"
      ],
      "costumes": [
        "Crey_Agent_F_01",
        "Crey_Agent_F_02",
        "Crey_Agent_F_03",
        "Crey_Agent_F_04",
        "Crey_Agent_F_05",
        "Crey_Agent_F_06",
        "Crey_Agent_F_07"
      ]
    },
    {
      "level": 45,
      "experience": 0,
      "display_names": [
        "Vigilant"
      ],
      "costumes": [
        "Crey_Agent_F_01",
        "Crey_Agent_F_02",
        "Crey_Agent_F_03",
        "Crey_Agent_F_04",
        "Crey_Agent_F_05",
        "Crey_Agent_F_06",
        "Crey_Agent_F_07"
      ]
    }
  ]
}