{
  "name": "DevouringEarthInfestedLow_Greater_Devoured_Boss_02",
  "gender": "GENDER_MALE",
  "description": "The ultimate eco-warriors, the Greater Devoured incorporate the biomass of fallen heroes into their monstrous forms. They rend foes with their slashing talons, spitting poison on those they can't reach. A Greater Devoured is a formidable foe, resistant to most kinds of attacks.",
  "group_description": null,
  "display_class_name": null,
  "character_class_name": "boss_grunt",
  "ai_config": "DevouringEarth_Boss",
  "commandable_pet": false,
  "power_tags": [

  ],
  "additional_rewards": [

  ],
  "skill_hp_rewards": [

  ],
  "skill_status_rewards": [

  ],
  "ally": null,
  "gang": null,
  "reward_scale": 1.0,
  "game_exclusion": "None",
  "inactive_state_weapon": null,
  "ignores_combat_mods": false,
  "copy_creator_mods": false,
  "spawn_limit": -1,
  "spawn_limit_mission": -1,
  "ignore_av_to_eb_scaling": false,
  "can_zone": false,
  "custom_badge_stat": null,
  "badge_stat_flags": "DefaultBadgeStat",
  "rank": "VR_BOSS",
  "power_full_names": [
    "DevouringEarth.Devouring_Earth_Devoured_Melee.Pummel",
    "DevouringEarth.Devouring_Earth_Devoured_Ranged.Spit",
    "DevouringEarth.Devouring_Earth_Greater_Devoured_Ranged.Hurl_Boulder",
    "DevouringEarth.Devouring_Earth_Greater_Devoured_Ranged.Foot_Stomp",
    "DevouringEarth.Devouring_Earth_Greater_Devoured_Defense.Resistance",
    "DevouringEarth.Devouring_Earth_Summon_Swarm.Call_Swarm"
  ],
  "power_display_names": [
    "Pummel",
    "Spit",
    "Hurl Boulder",
    "Foot Stomp",
    "Resistance",
    "Call Swarm"
  ],
  "power_levels": [
    0,
    0,
    0,
    0,
    0,
    0
  ],
  "powers": [
    {
      "power_category": "DevouringEarth",
      "power_set": "Devouring_Earth_Devoured_Melee",
      "power": "*",
      "level": 0
    },
    {
      "power_category": "DevouringEarth",
      "power_set": "Devouring_Earth_Devoured_Ranged",
      "power": "*",
      "level": 0
    },
    {
      "power_category": "DevouringEarth",
      "power_set": "Devouring_Earth_Greater_Devoured_Ranged",
      "power": "*",
      "level": 0
    },
    {
      "power_category": "DevouringEarth",
      "power_set": "Devouring_Earth_Greater_Devoured_Defense",
      "power": "*",
      "level": 0
    },
    {
      "power_category": "DevouringEarth",
      "power_set": "Devouring_Earth_Summon_Swarm",
      "power": "*",
      "level": 0
    }
  ],
  "levels": [
    {
      "level": 30,
      "experience": 0,
      "display_names": [
        "Greater Devoured"
      ],
      "costumes": [
        "Devoured_Infested_02"
      ]
    },
    {
      "level": 31,
      "experience": 0,
      "display_names": [
        "Greater Devoured"
      ],
      "costumes": [
        "Devoured_Infested_02"
      ]
    },
    {
      "level": 32,
      "experience": 0,
      "display_names": [
        "Greater Devoured"
      ],
      "costumes": [
        "Devoured_Infested_02"
      ]
    },
    {
      "level": 33,
      "experience": 0,
      "display_names": [
        "Greater Devoured"
      ],
      "costumes": [
        "Devoured_Infested_02"
      ]
    },
    {
      "level": 34,
      "experience": 0,
      "display_names": [
        "Greater Devoured"
      ],
      "costumes": [
        "Devoured_Infested_02"
      ]
    },
    {
      "level": 35,
      "experience": 0,
      "display_names": [
        "Greater Devoured"
      ],
      "costumes": [
        "Devoured_Infested_02"
      ]
    },
    {
      "level": 36,
      "experience": 0,
      "display_names": [
        "Greater Devoured"
      ],
      "costumes": [
        "Devoured_Infested_02"
      ]
    },
    {
      "level": 37,
      "experience": 0,
      "display_names": [
        "Greater Devoured"
      ],
      "costumes": [
        "Devoured_Infested_02"
      ]
    },
    {
      "level": 38,
      "experience": 0,
      "display_names": [
        "Greater Devoured"
      ],
      "costumes": [
        "Devoured_Infested_02"
      ]
    },
    {
      "level": 39,
      "experience": 0,
      "display_names": [
        "Greater Devoured"
      ],
      "costumes": [
        "Devoured_Infested_02"
      ]
    },
    {
      "level": 40,
      "experience": 0,
      "display_names": [
        "Greater Devoured"
      ],
      "costumes": [
        "Devoured_Infested_02"
      ]
    },
    {
      "level": 41,
      "experience": 0,
      "display_names": [
        "Greater Devoured"
      ],
      "costumes": [
        "Devoured_Infested_02"
      ]
    },
    {
      "level": 42,
      "experience": 0,
      "display_names": [
        "Greater Devoured"
      ],
      "costumes": [
        "Devoured_Infested_02"
      ]
    },
    {
      "level": 43,
      "experience": 0,
      "display_names": [
        "Greater Devoured"
      ],
      "costumes": [
        "Devoured_Infested_02"
      ]
    },
    {
      "level": 44,
      "experience": 0,
      "display_names": [
        "Greater Devoured"
      ],
      "costumes": [
        "Devoured_Infested_02"
      ]
    },
    {
      "level": 45,
      "experience": 0,
      "display_names": [
        "Greater Devoured"
      ],
      "costumes": [
        "Devoured_Infested_02"
      ]
    },
    {
      "level": 46,
      "experience": 0,
      "display_names": [
        "Greater Devoured"
      ],
      "costumes": [
        "Devoured_Infested_02"
      ]
    },
    {
      "level": 47,
      "experience": 0,
      "display_names": [
        "Greater Devoured"
      ],
      "costumes": [
        "Devoured_Infested_02"
      ]
    },
    {
      "level": 48,
      "experience": 0,
      "display_names": [
        "Greater Devoured"
      ],
      "costumes": [
        "Devoured_Infested_02"
      ]
    },
    {
      "level": 49,
      "experience": 0,
      "display_names": [
        "Greater Devoured"
      ],
      "costumes": [
        "Devoured_Infested_02"
      ]
    },
    {
      "level": 50,
      "experience": 0,
      "display_names": [
        "Greater Devoured"
      ],
      "costumes": [
        "Devoured_Infested_02"
      ]
    },
    {
      "level": 51,
      "experience": 0,
      "display_names": [
        "Greater Devoured"
      ],
      "costumes": [
        "Devoured_Infested_02"
      ]
    },
    {
      "level": 52,
      "experience": 0,
      "display_names": [
        "Greater Devoured"
      ],
      "costumes": [
        "Devoured_Infested_02"
      ]
    },
    {
      "level": 53,
      "experience": 0,
      "display_names": [
        "Greater Devoured"
      ],
      "costumes": [
        "Devoured_Infested_02"
      ]
    },
    {
      "level": 54,
      "experience": 0,
      "display_names": [
        "Greater Devoured"
      ],
      "costumes": [
        "Devoured_Infested_02"
      ]
    }
  ]
}