{
  "name": "DevouringEarthInfested_Endgame_Plant_Beast",
  "gender": "GENDER_MALE",
  "description": "These horrid perversions of normal flora have become one of the most identifiable monsters in the Devouring Earth's maniacal menagerie. In addition to their astonishing mobility, they can fire swarms of thorns at their enemies, tearing flesh to shreds in an instant.",
  "group_description": null,
  "display_class_name": null,
  "character_class_name": "minion_praetoriangrunt",
  "ai_config": "DevouringEarth_Minion",
  "commandable_pet": false,
  "power_tags": [

  ],
  "additional_rewards": [

  ],
  "skill_hp_rewards": [

  ],
  "skill_status_rewards": [

  ],
  "ally": null,
  "gang": null,
  "reward_scale": 1.0,
  "game_exclusion": "None",
  "inactive_state_weapon": null,
  "ignores_combat_mods": false,
  "copy_creator_mods": false,
  "spawn_limit": -1,
  "spawn_limit_mission": -1,
  "ignore_av_to_eb_scaling": false,
  "can_zone": false,
  "custom_badge_stat": null,
  "badge_stat_flags": "DefaultBadgeStat",
  "rank": "VR_MINION",
  "power_full_names": [
    "DevouringEarth.Devouring_Earth_All_Melee.Pummel",
    "DevouringEarth.Devouring_Earth_Plant_Ranged.Thorn_Blast",
    "DevouringEarth.Devouring_Earth_Plant_Ranged.Spur",
    "DevouringEarth.Devouring_Earth_Plant_Defense.Resistance",
    "DevouringEarth.Devouring_Earth_Summon_Swarm.Call_Swarm",
    "DevouringEarth.Devouring_Earth_Lt_Plant_Buff.Tree_of_Life"
  ],
  "power_display_names": [
    "Pummel",
    "Thorn Blast",
    "Spur",
    "Resistance",
    "Call Swarm",
    "Tree of Life"
  ],
  "power_levels": [
    0,
    0,
    0,
    0,
    0,
    0
  ],
  "powers": [
    {
      "power_category": "DevouringEarth",
      "power_set": "Devouring_Earth_All_Melee",
      "power": "*",
      "level": 0
    },
    {
      "power_category": "DevouringEarth",
      "power_set": "Devouring_Earth_Plant_Ranged",
      "power": "*",
      "level": 0
    },
    {
      "power_category": "DevouringEarth",
      "power_set": "Devouring_Earth_Plant_Defense",
      "power": "*",
      "level": 0
    },
    {
      "power_category": "DevouringEarth",
      "power_set": "Devouring_Earth_Summon_Swarm",
      "power": "*",
      "level": 0
    },
    {
      "power_category": "DevouringEarth",
      "power_set": "Devouring_Earth_Lt_Plant_Buff",
      "power": "*",
      "level": 0
    }
  ],
  "levels": [
    {
      "level": 50,
      "experience": 0,
      "display_names": [
        "Deathblossom"
      ],
      "costumes": [
        "Plant_Beast_04"
      ]
    },
    {
      "level": 51,
      "experience": 0,
      "display_names": [
        "Deathblossom"
      ],
      "costumes": [
        "Plant_Beast_04"
      ]
    },
    {
      "level": 52,
      "experience": 0,
      "display_names": [
        "Deathblossom"
      ],
      "costumes": [
        "Plant_Beast_04"
      ]
    },
    {
      "level": 53,
      "experience": 0,
      "display_names": [
        "Deathblossom"
      ],
      "costumes": [
        "Plant_Beast_04"
      ]
    },
    {
      "level": 54,
      "experience": 0,
      "display_names": [
        "Deathblossom"
      ],
      "costumes": [
        "Plant_Beast_04"
      ]
    }
  ]
}