{
  "name": "DevouringEarthInfested_Shock_Trooper",
  "gender": "GENDER_MALE",
  "description": "Tyrant's Imperial Defense Force Troopers are the most advanced soldiers in his arsenal. The IDF Shock Troopers are terrifying foes to engage. Their weaponry is far more advanced than the PPD Shock Glove, and they are decked out in nearly impenetrable power armor.",
  "group_description": "The Infested",
  "display_class_name": null,
  "character_class_name": "lt_praetoriangrunt",
  "ai_config": "Default_Melee",
  "commandable_pet": false,
  "power_tags": [
    "HumanSkeleton",
    "Human"
  ],
  "additional_rewards": [

  ],
  "skill_hp_rewards": [

  ],
  "skill_status_rewards": [

  ],
  "ally": null,
  "gang": null,
  "reward_scale": 1.0,
  "game_exclusion": "None",
  "inactive_state_weapon": null,
  "ignores_combat_mods": false,
  "copy_creator_mods": false,
  "spawn_limit": -1,
  "spawn_limit_mission": -1,
  "ignore_av_to_eb_scaling": false,
  "can_zone": false,
  "custom_badge_stat": null,
  "badge_stat_flags": "DefaultBadgeStat",
  "rank": "VR_LIEUTENANT",
  "power_full_names": [
    "PraetorianIDF.Trooper_Standard.Plasma_Smasher",
    "PraetorianIDF.Trooper_Standard.Plasma_Blast",
    "PraetorianIDF.Trooper_Melee.Plasma_Punch",
    "PraetorianIDF.Trooper_Melee.Plasma_Vortex",
    "PraetorianIDF.Trooper_LT_Melee.Total_Focus",
    "PraetorianIDF.Summon_Battle_Orb.Summon_Battle_Orb",
    "PraetorianIDF.Trooper_LT_Armor.IDF_Armor"
  ],
  "power_display_names": [
    "Plasma Smasher",
    "Plasma Blast",
    "Plasma Punch",
    "Plasma Vortex",
    "Total Focus",
    "Summon Battle Orb",
    "IDF Armor"
  ],
  "power_levels": [
    0,
    0,
    0,
    0,
    0,
    0,
    0
  ],
  "powers": [
    {
      "power_category": "PraetorianIDF",
      "power_set": "Trooper_Standard",
      "power": "*",
      "level": 0
    },
    {
      "power_category": "PraetorianIDF",
      "power_set": "Trooper_Melee",
      "power": "*",
      "level": 0
    },
    {
      "power_category": "PraetorianIDF",
      "power_set": "Trooper_LT_Melee",
      "power": "*",
      "level": 0
    },
    {
      "power_category": "PraetorianIDF",
      "power_set": "Summon_Battle_Orb",
      "power": "*",
      "level": 0
    },
    {
      "power_category": "PraetorianIDF",
      "power_set": "Trooper_LT_Armor",
      "power": "*",
      "level": 0
    }
  ],
  "levels": [
    {
      "level": 50,
      "experience": 0,
      "display_names": [
        "Infested Shock Trooper"
      ],
      "costumes": [
        "IDF_Shock_Trooper_Infested_01"
      ]
    },
    {
      "level": 51,
      "experience": 0,
      "display_names": [
        "Infested Shock Trooper"
      ],
      "costumes": [
        "IDF_Shock_Trooper_Infested_01"
      ]
    },
    {
      "level": 52,
      "experience": 0,
      "display_names": [
        "Infested Shock Trooper"
      ],
      "costumes": [
        "IDF_Shock_Trooper_Infested_01"
      ]
    },
    {
      "level": 53,
      "experience": 0,
      "display_names": [
        "Infested Shock Trooper"
      ],
      "costumes": [
        "IDF_Shock_Trooper_Infested_01"
      ]
    },
    {
      "level": 54,
      "experience": 0,
      "display_names": [
        "Infested Shock Trooper"
      ],
      "costumes": [
        "IDF_Shock_Trooper_Infested_01"
      ]
    }
  ]
}