{
  "name": "DevouringEarth_Eden_Trial_Black_Crystal_Beast",
  "gender": "GENDER_MALE",
  "description": "The Devouring Earth grows these crystalline warriors in special caves deep beneath the Earth. Their blasts of shards can cut deeply into a target's flesh and bone, and energy attacks have a diminished effect against their crystalline forms. Luckily, they're susceptible to smashing attacks.",
  "group_description": null,
  "display_class_name": null,
  "character_class_name": "minion_grunt",
  "ai_config": "DevouringEarth_Minion",
  "commandable_pet": false,
  "power_tags": [

  ],
  "additional_rewards": [

  ],
  "skill_hp_rewards": [

  ],
  "skill_status_rewards": [

  ],
  "ally": null,
  "gang": null,
  "reward_scale": 1.0,
  "game_exclusion": "None",
  "inactive_state_weapon": null,
  "ignores_combat_mods": false,
  "copy_creator_mods": false,
  "spawn_limit": 0,
  "spawn_limit_mission": 0,
  "ignore_av_to_eb_scaling": false,
  "can_zone": false,
  "custom_badge_stat": null,
  "badge_stat_flags": "DefaultBadgeStat",
  "rank": "VR_MINION",
  "power_full_names": [
    "DevouringEarth.Devouring_Earth_All_Melee.Pummel",
    "DevouringEarth.Devouring_Earth_Charcoal_Mineral_Ranged.Crystal_Shards",
    "DevouringEarth.Devouring_Earth_Charcoal_Mineral_Divide.Shatter",
    "DevouringEarth.Devouring_Earth_Mineral_Defense.Resistance"
  ],
  "power_display_names": [
    "Pummel",
    "Crystal Shards",
    "Shatter",
    "Resistance"
  ],
  "power_levels": [
    0,
    0,
    0,
    0
  ],
  "powers": [
    {
      "power_category": "DevouringEarth",
      "power_set": "Devouring_Earth_All_Melee",
      "power": "*",
      "level": 0
    },
    {
      "power_category": "DevouringEarth",
      "power_set": "Devouring_Earth_Charcoal_Mineral_Ranged",
      "power": "*",
      "level": 0
    },
    {
      "power_category": "DevouringEarth",
      "power_set": "Devouring_Earth_Charcoal_Mineral_Divide",
      "power": "*",
      "level": 0
    },
    {
      "power_category": "DevouringEarth",
      "power_set": "Devouring_Earth_Mineral_Defense",
      "power": "*",
      "level": 0
    }
  ],
  "levels": [
    {
      "level": 41,
      "experience": 0,
      "display_names": [
        "Sardonyx"
      ],
      "costumes": [
        "Crystal_Beast_04"
      ]
    },
    {
      "level": 42,
      "experience": 0,
      "display_names": [
        "Sardonyx"
      ],
      "costumes": [
        "Crystal_Beast_04"
      ]
    },
    {
      "level": 43,
      "experience": 0,
      "display_names": [
        "Sardonyx"
      ],
      "costumes": [
        "Crystal_Beast_04"
      ]
    },
    {
      "level": 44,
      "experience": 0,
      "display_names": [
        "Sardonyx"
      ],
      "costumes": [
        "Crystal_Beast_04"
      ]
    },
    {
      "level": 45,
      "experience": 0,
      "display_names": [
        "Sardonyx"
      ],
      "costumes": [
        "Crystal_Beast_04"
      ]
    },
    {
      "level": 46,
      "experience": 0,
      "display_names": [
        "Sardonyx"
      ],
      "costumes": [
        "Crystal_Beast_04"
      ]
    },
    {
      "level": 47,
      "experience": 0,
      "display_names": [
        "Sardonyx"
      ],
      "costumes": [
        "Crystal_Beast_04"
      ]
    },
    {
      "level": 48,
      "experience": 0,
      "display_names": [
        "Sardonyx"
      ],
      "costumes": [
        "Crystal_Beast_04"
      ]
    },
    {
      "level": 49,
      "experience": 0,
      "display_names": [
        "Sardonyx"
      ],
      "costumes": [
        "Crystal_Beast_04"
      ]
    },
    {
      "level": 50,
      "experience": 0,
      "display_names": [
        "Sardonyx"
      ],
      "costumes": [
        "Crystal_Beast_04"
      ]
    },
    {
      "level": 51,
      "experience": 0,
      "display_names": [
        "Sardonyx"
      ],
      "costumes": [
        "Crystal_Beast_04"
      ]
    },
    {
      "level": 52,
      "experience": 0,
      "display_names": [
        "Sardonyx"
      ],
      "costumes": [
        "Crystal_Beast_04"
      ]
    },
    {
      "level": 53,
      "experience": 0,
      "display_names": [
        "Sardonyx"
      ],
      "costumes": [
        "Crystal_Beast_04"
      ]
    },
    {
      "level": 54,
      "experience": 0,
      "display_names": [
        "Sardonyx"
      ],
      "costumes": [
        "Crystal_Beast_04"
      ]
    }
  ]
}