{
  "name": "DevouringEarth_Jurassik",
  "gender": "GENDER_MALE",
  "description": "The giant monster was dubbed Jurassik by a hero some time ago, and the name has stuck (though the hero has regrettably disappeared). It appears that Jurassik has been mutated by the many pollutants and chemicals in Crey's Folly. Now, it is a creature of pure violence.",
  "group_description": null,
  "display_class_name": "Monster",
  "character_class_name": "boss_archvillain",
  "ai_config": "DevouringEarth_Boss",
  "commandable_pet": false,
  "power_tags": [
    "Raid"
  ],
  "additional_rewards": [

  ],
  "skill_hp_rewards": [

  ],
  "skill_status_rewards": [

  ],
  "ally": null,
  "gang": null,
  "reward_scale": 1.0,
  "game_exclusion": "None",
  "inactive_state_weapon": null,
  "ignores_combat_mods": false,
  "copy_creator_mods": false,
  "spawn_limit": 0,
  "spawn_limit_mission": 0,
  "ignore_av_to_eb_scaling": false,
  "can_zone": false,
  "custom_badge_stat": null,
  "badge_stat_flags": "DefaultBadgeStat",
  "rank": "VR_ARCHVILLAIN",
  "power_full_names": [
    "DevouringEarth.Jurassik_Attack_Powers.Fault",
    "DevouringEarth.Jurassik_Attack_Powers.Jurassik_Club",
    "DevouringEarth.Jurassik_Attack_Powers.Hurl_Boulder",
    "DevouringEarth.Jurassik_Mission_Defense.Resistance",
    "DevouringEarth.Jurassik_Mission_Defense.Jurassik_Rubble"
  ],
  "power_display_names": [
    "Fault",
    "Jurassik Club",
    "Hurl Boulder",
    "Resistance",
    "Jurassik Rubble"
  ],
  "power_levels": [
    0,
    0,
    0,
    0,
    0
  ],
  "powers": [
    {
      "power_category": "DevouringEarth",
      "power_set": "Jurassik_Attack_Powers",
      "power": "*",
      "level": 0
    },
    {
      "power_category": "DevouringEarth",
      "power_set": "Jurassik_Mission_Defense",
      "power": "*",
      "level": 0
    }
  ],
  "levels": [
    {
      "level": 35,
      "experience": 0,
      "display_names": [
        "Jurassik"
      ],
      "costumes": [
        "Giant_Rock_Beast"
      ]
    },
    {
      "level": 36,
      "experience": 0,
      "display_names": [
        "Jurassik"
      ],
      "costumes": [
        "Giant_Rock_Beast"
      ]
    },
    {
      "level": 37,
      "experience": 0,
      "display_names": [
        "Jurassik"
      ],
      "costumes": [
        "Giant_Rock_Beast"
      ]
    },
    {
      "level": 38,
      "experience": 0,
      "display_names": [
        "Jurassik"
      ],
      "costumes": [
        "Giant_Rock_Beast"
      ]
    },
    {
      "level": 39,
      "experience": 0,
      "display_names": [
        "Jurassik"
      ],
      "costumes": [
        "Giant_Rock_Beast"
      ]
    },
    {
      "level": 40,
      "experience": 0,
      "display_names": [
        "Jurassik"
      ],
      "costumes": [
        "Giant_Rock_Beast"
      ]
    }
  ]
}