{
  "name": "DevouringEarth_Eden_Trial_Mold_Generator",
  "gender": "GENDER_MALE",
  "description": "The power of the Devouring Earth seems to have no bound.  This Lichen Colony seems to generating some sort of spores.",
  "group_description": null,
  "display_class_name": null,
  "character_class_name": "lt_sniper",
  "ai_config": "Default_Stationary",
  "commandable_pet": false,
  "power_tags": [

  ],
  "additional_rewards": [

  ],
  "skill_hp_rewards": [

  ],
  "skill_status_rewards": [

  ],
  "ally": null,
  "gang": null,
  "reward_scale": 1.0,
  "game_exclusion": "None",
  "inactive_state_weapon": null,
  "ignores_combat_mods": false,
  "copy_creator_mods": false,
  "spawn_limit": 0,
  "spawn_limit_mission": 0,
  "ignore_av_to_eb_scaling": false,
  "can_zone": false,
  "custom_badge_stat": null,
  "badge_stat_flags": "DefaultBadgeStat",
  "rank": "VR_LIEUTENANT",
  "power_full_names": [
    "DevouringEarth.Devouring_Earth_Mold_Generator.Summon_Devouring_Earth",
    "DevouringEarth.Devouring_Earth_Mold_Generator.Resistance"
  ],
  "power_display_names": [
    "Summon Devouring Earth",
    "Resistance"
  ],
  "power_levels": [
    0,
    0
  ],
  "powers": [
    {
      "power_category": "DevouringEarth",
      "power_set": "Devouring_Earth_Mold_Generator",
      "power": "*",
      "level": 0
    }
  ],
  "levels": [
    {
      "level": 41,
      "experience": 0,
      "display_names": [
        "Lichen Colony"
      ],
      "costumes": [
        "Devouring_Mold_Generator"
      ]
    },
    {
      "level": 42,
      "experience": 0,
      "display_names": [
        "Lichen Colony"
      ],
      "costumes": [
        "Devouring_Mold_Generator"
      ]
    },
    {
      "level": 43,
      "experience": 0,
      "display_names": [
        "Lichen Colony"
      ],
      "costumes": [
        "Devouring_Mold_Generator"
      ]
    },
    {
      "level": 44,
      "experience": 0,
      "display_names": [
        "Lichen Colony"
      ],
      "costumes": [
        "Devouring_Mold_Generator"
      ]
    },
    {
      "level": 45,
      "experience": 0,
      "display_names": [
        "Lichen Colony"
      ],
      "costumes": [
        "Devouring_Mold_Generator"
      ]
    },
    {
      "level": 46,
      "experience": 0,
      "display_names": [
        "Lichen Colony"
      ],
      "costumes": [
        "Devouring_Mold_Generator"
      ]
    },
    {
      "level": 47,
      "experience": 0,
      "display_names": [
        "Lichen Colony"
      ],
      "costumes": [
        "Devouring_Mold_Generator"
      ]
    },
    {
      "level": 48,
      "experience": 0,
      "display_names": [
        "Lichen Colony"
      ],
      "costumes": [
        "Devouring_Mold_Generator"
      ]
    },
    {
      "level": 49,
      "experience": 0,
      "display_names": [
        "Lichen Colony"
      ],
      "costumes": [
        "Devouring_Mold_Generator"
      ]
    },
    {
      "level": 50,
      "experience": 0,
      "display_names": [
        "Lichen Colony"
      ],
      "costumes": [
        "Devouring_Mold_Generator"
      ]
    },
    {
      "level": 51,
      "experience": 0,
      "display_names": [
        "Lichen Colony"
      ],
      "costumes": [
        "Devouring_Mold_Generator"
      ]
    },
    {
      "level": 52,
      "experience": 0,
      "display_names": [
        "Lichen Colony"
      ],
      "costumes": [
        "Devouring_Mold_Generator"
      ]
    },
    {
      "level": 53,
      "experience": 0,
      "display_names": [
        "Lichen Colony"
      ],
      "costumes": [
        "Devouring_Mold_Generator"
      ]
    },
    {
      "level": 54,
      "experience": 0,
      "display_names": [
        "Lichen Colony"
      ],
      "costumes": [
        "Devouring_Mold_Generator"
      ]
    }
  ]
}