{
  "name": "DevouringEarth_Eden_Hero1",
  "gender": "GENDER_MALE",
  "description": "Venom runs through Quill's veins.  His spines are toxic and deadly.",
  "group_description": "Woodsman",
  "display_class_name": null,
  "character_class_name": "boss_grunt",
  "ai_config": "DevouringEarth_Boss",
  "commandable_pet": false,
  "power_tags": [
    "HumanSkeleton",
    "Human"
  ],
  "additional_rewards": [

  ],
  "skill_hp_rewards": [

  ],
  "skill_status_rewards": [

  ],
  "ally": null,
  "gang": null,
  "reward_scale": 1.0,
  "game_exclusion": "None",
  "inactive_state_weapon": null,
  "ignores_combat_mods": false,
  "copy_creator_mods": false,
  "spawn_limit": 0,
  "spawn_limit_mission": 0,
  "ignore_av_to_eb_scaling": false,
  "can_zone": false,
  "custom_badge_stat": null,
  "badge_stat_flags": "DefaultBadgeStat",
  "rank": "VR_BOSS",
  "power_full_names": [
    "DevouringEarth.Hero1.Barb_Swipe",
    "DevouringEarth.Hero1.Lunge",
    "DevouringEarth.Hero1.Impale",
    "DevouringEarth.Hero1.Spine_Throwing",
    "DevouringEarth.Hero1.Ripper",
    "DevouringEarth.Hero1.Temp_Invulnerability",
    "DevouringEarth.Hero1.Invincibility",
    "DevouringEarth.Hero1.SummonFX"
  ],
  "power_display_names": [
    "Barb Swipe",
    "Lunge",
    "Impale",
    "Spine Throwing",
    "Ripper",
    "Temp Invulnerability",
    "Invincibility",
    "SummonFX"
  ],
  "power_levels": [
    0,
    0,
    0,
    0,
    0,
    0,
    0,
    0
  ],
  "powers": [
    {
      "power_category": "DevouringEarth",
      "power_set": "Hero1",
      "power": "*",
      "level": 0
    }
  ],
  "levels": [
    {
      "level": 41,
      "experience": 0,
      "display_names": [
        "Quill"
      ],
      "costumes": [
        "Eden_Trial_Hero_01"
      ]
    },
    {
      "level": 42,
      "experience": 0,
      "display_names": [
        "Quill"
      ],
      "costumes": [
        "Eden_Trial_Hero_01"
      ]
    },
    {
      "level": 43,
      "experience": 0,
      "display_names": [
        "Quill"
      ],
      "costumes": [
        "Eden_Trial_Hero_01"
      ]
    },
    {
      "level": 44,
      "experience": 0,
      "display_names": [
        "Quill"
      ],
      "costumes": [
        "Eden_Trial_Hero_01"
      ]
    },
    {
      "level": 45,
      "experience": 0,
      "display_names": [
        "Quill"
      ],
      "costumes": [
        "Eden_Trial_Hero_01"
      ]
    },
    {
      "level": 46,
      "experience": 0,
      "display_names": [
        "Quill"
      ],
      "costumes": [
        "Eden_Trial_Hero_01"
      ]
    },
    {
      "level": 47,
      "experience": 0,
      "display_names": [
        "Quill"
      ],
      "costumes": [
        "Eden_Trial_Hero_01"
      ]
    },
    {
      "level": 48,
      "experience": 0,
      "display_names": [
        "Quill"
      ],
      "costumes": [
        "Eden_Trial_Hero_01"
      ]
    },
    {
      "level": 49,
      "experience": 0,
      "display_names": [
        "Quill"
      ],
      "costumes": [
        "Eden_Trial_Hero_01"
      ]
    },
    {
      "level": 50,
      "experience": 0,
      "display_names": [
        "Quill"
      ],
      "costumes": [
        "Eden_Trial_Hero_01"
      ]
    },
    {
      "level": 51,
      "experience": 0,
      "display_names": [
        "Quill"
      ],
      "costumes": [
        "Eden_Trial_Hero_01"
      ]
    },
    {
      "level": 52,
      "experience": 0,
      "display_names": [
        "Quill"
      ],
      "costumes": [
        "Eden_Trial_Hero_01"
      ]
    },
    {
      "level": 53,
      "experience": 0,
      "display_names": [
        "Quill"
      ],
      "costumes": [
        "Eden_Trial_Hero_01"
      ]
    },
    {
      "level": 54,
      "experience": 0,
      "display_names": [
        "Quill"
      ],
      "costumes": [
        "Eden_Trial_Hero_01"
      ]
    }
  ]
}