{
  "name": "DevouringEarthSeed_Bulwark_Seedling",
  "gender": "GENDER_MALE",
  "description": "Bulwark Seedlings are the Seed's primary source of defense against Cole's forces and wayward superpowered beings.  Every Bulwark Seedling alive increases the Seed of Hamidon's defenses against all types of attack.",
  "group_description": null,
  "display_class_name": null,
  "character_class_name": "boss_grunt",
  "ai_config": "DevouringEarthSeed_Seedling",
  "commandable_pet": false,
  "power_tags": [

  ],
  "additional_rewards": [
    "ZE_Seed_FlightTable"
  ],
  "skill_hp_rewards": [

  ],
  "skill_status_rewards": [

  ],
  "ally": null,
  "gang": null,
  "reward_scale": 1.0,
  "game_exclusion": "None",
  "inactive_state_weapon": null,
  "ignores_combat_mods": true,
  "copy_creator_mods": false,
  "spawn_limit": 0,
  "spawn_limit_mission": 0,
  "ignore_av_to_eb_scaling": true,
  "can_zone": false,
  "custom_badge_stat": null,
  "badge_stat_flags": "DefaultBadgeStat",
  "rank": "VR_BOSS",
  "power_full_names": [
    "DevouringEarthSeed.General_Burr.Seedborne",
    "DevouringEarthSeed.General_Burr.Bullrush",
    "DevouringEarthSeed.General_Burr.Thorn_Blast",
    "DevouringEarthSeed.General_Burr.Revoke_Seedborne",
    "DevouringEarthSeed.General_Burr.Resilient",
    "DevouringEarthSeed.Bulwark_Burr.The_Seeds_Shell",
    "DevouringEarthSeed.Bulwark_Burr.Decomposition",
    "DevouringEarthSeed.Delayed_Flight.Delayed_Flight",
    "DevouringEarthSeed.Delayed_Flight.Delayed_Guard",
    "GenericVillains.Flight.Fly",
    "GenericVillains.Flight.Fly_FX",
    "GenericVillains.Debt_Protection_NoFX.Debt_Protection_NoFX",
    "DevouringEarthSeed.Resistances.Damage_Burr"
  ],
  "power_display_names": [
    "Seedborne",
    "Bullrush",
    "Thorn Blast",
    "Revoke Seedborne",
    "Resilient",
    "The Seed's Shell",
    "Decomposition",
    "Delayed Flight",
    "Delayed Guard",
    "Fly",
    "Fly FX",
    "Debt Protection",
    "Damage Resistance"
  ],
  "power_levels": [
    0,
    0,
    0,
    0,
    0,
    0,
    0,
    0,
    0,
    0,
    0,
    0,
    0
  ],
  "powers": [
    {
      "power_category": "DevouringEarthSeed",
      "power_set": "General_Burr",
      "power": "Seedborne",
      "level": 0
    },
    {
      "power_category": "DevouringEarthSeed",
      "power_set": "General_Burr",
      "power": "Bullrush",
      "level": 0
    },
    {
      "power_category": "DevouringEarthSeed",
      "power_set": "General_Burr",
      "power": "Thorn_Blast",
      "level": 0
    },
    {
      "power_category": "DevouringEarthSeed",
      "power_set": "General_Burr",
      "power": "Revoke_Seedborne",
      "level": 0
    },
    {
      "power_category": "DevouringEarthSeed",
      "power_set": "General_Burr",
      "power": "Resilient",
      "level": 0
    },
    {
      "power_category": "DevouringEarthSeed",
      "power_set": "Bulwark_Burr",
      "power": "*",
      "level": 0
    },
    {
      "power_category": "DevouringEarthSeed",
      "power_set": "Delayed_Flight",
      "power": "*",
      "level": 0
    },
    {
      "power_category": "GenericVillains",
      "power_set": "Flight",
      "power": "*",
      "level": 0
    },
    {
      "power_category": "GenericVillains",
      "power_set": "Debt_Protection_NoFX",
      "power": "*",
      "level": 0
    },
    {
      "power_category": "DevouringEarthSeed",
      "power_set": "Resistances",
      "power": "Damage_Burr",
      "level": 0
    }
  ],
  "levels": [
    {
      "level": 28,
      "experience": 0,
      "display_names": [
        "Bulwark Seedling"
      ],
      "costumes": [
        "Burr_Hamidon_01"
      ]
    }
  ]
}