{
  "name": "DevouringEarthInfested_Ranger",
  "gender": "GENDER_MALE",
  "description": "Tyrant's Imperial Defense Force troopers are the most advanced soldiers in his arsenal. The IDF Rangers are equipped with an upgraded Plasma Glove and Power Armor, making them resistant to all types of damage.",
  "group_description": "The Infested",
  "display_class_name": null,
  "character_class_name": "minion_praetoriangrunt",
  "ai_config": "Default_Ranged",
  "commandable_pet": false,
  "power_tags": [
    "HumanSkeleton",
    "Human"
  ],
  "additional_rewards": [

  ],
  "skill_hp_rewards": [

  ],
  "skill_status_rewards": [

  ],
  "ally": null,
  "gang": null,
  "reward_scale": 1.0,
  "game_exclusion": "None",
  "inactive_state_weapon": null,
  "ignores_combat_mods": false,
  "copy_creator_mods": false,
  "spawn_limit": -1,
  "spawn_limit_mission": -1,
  "ignore_av_to_eb_scaling": false,
  "can_zone": false,
  "custom_badge_stat": null,
  "badge_stat_flags": "DefaultBadgeStat",
  "rank": "VR_MINION",
  "power_full_names": [
    "PraetorianIDF.Trooper_Standard.Plasma_Smasher",
    "PraetorianIDF.Trooper_Standard.Plasma_Blast",
    "PraetorianIDF.Trooper_Ranged.Plasma_Spray",
    "PraetorianIDF.Trooper_Ranged.Plasma_Burst",
    "PraetorianIDF.Trooper_Minion_Armor.IDF_Armor"
  ],
  "power_display_names": [
    "Plasma Smasher",
    "Plasma Blast",
    "Plasma Spray",
    "Plasma Burst",
    "IDF Armor"
  ],
  "power_levels": [
    0,
    0,
    0,
    0,
    0
  ],
  "powers": [
    {
      "power_category": "PraetorianIDF",
      "power_set": "Trooper_Standard",
      "power": "*",
      "level": 0
    },
    {
      "power_category": "PraetorianIDF",
      "power_set": "Trooper_Ranged",
      "power": "*",
      "level": 0
    },
    {
      "power_category": "PraetorianIDF",
      "power_set": "Trooper_Minion_Armor",
      "power": "*",
      "level": 0
    }
  ],
  "levels": [
    {
      "level": 50,
      "experience": 0,
      "display_names": [
        "Infested Ranger"
      ],
      "costumes": [
        "IDF_Ranger_Infested_01"
      ]
    },
    {
      "level": 51,
      "experience": 0,
      "display_names": [
        "Infested Ranger"
      ],
      "costumes": [
        "IDF_Ranger_Infested_01"
      ]
    },
    {
      "level": 52,
      "experience": 0,
      "display_names": [
        "Infested Ranger"
      ],
      "costumes": [
        "IDF_Ranger_Infested_01"
      ]
    },
    {
      "level": 53,
      "experience": 0,
      "display_names": [
        "Infested Ranger"
      ],
      "costumes": [
        "IDF_Ranger_Infested_01"
      ]
    },
    {
      "level": 54,
      "experience": 0,
      "display_names": [
        "Infested Ranger"
      ],
      "costumes": [
        "IDF_Ranger_Infested_01"
      ]
    }
  ]
}