{
  "name": "DevouringEarth_Rock_Beast_Summon",
  "gender": "GENDER_MALE",
  "description": "Made from assemblages of rocks that are somehow given form and consciousness, the Rock Troops are tough, resilient creatures who can either pound their opponents in close combat or hurl rocks from a distance.",
  "group_description": null,
  "display_class_name": null,
  "character_class_name": "minion_grunt",
  "ai_config": "DevouringEarth_Minion",
  "commandable_pet": false,
  "power_tags": [

  ],
  "additional_rewards": [

  ],
  "skill_hp_rewards": [

  ],
  "skill_status_rewards": [

  ],
  "ally": null,
  "gang": null,
  "reward_scale": 0.0,
  "game_exclusion": "None",
  "inactive_state_weapon": null,
  "ignores_combat_mods": false,
  "copy_creator_mods": false,
  "spawn_limit": 0,
  "spawn_limit_mission": 0,
  "ignore_av_to_eb_scaling": false,
  "can_zone": false,
  "custom_badge_stat": null,
  "badge_stat_flags": "DefaultBadgeStat",
  "rank": "VR_MINION",
  "power_full_names": [
    "DevouringEarth.Devouring_Earth_All_Melee.Pummel",
    "DevouringEarth.Devouring_Earth_Rock_Ranged.Hurl_Boulder",
    "DevouringEarth.Devouring_Earth_Rock_Divide.Rubble",
    "DevouringEarth.Devouring_Earth_Rock_Defense.Resistance",
    "DevouringEarth.Summon_FX.SummonFX"
  ],
  "power_display_names": [
    "Pummel",
    "Hurl Boulder",
    "Rubble",
    "Resistance",
    "SummonFX"
  ],
  "power_levels": [
    0,
    0,
    0,
    0,
    0
  ],
  "powers": [
    {
      "power_category": "DevouringEarth",
      "power_set": "Devouring_Earth_All_Melee",
      "power": "*",
      "level": 0
    },
    {
      "power_category": "DevouringEarth",
      "power_set": "Devouring_Earth_Rock_Ranged",
      "power": "*",
      "level": 0
    },
    {
      "power_category": "DevouringEarth",
      "power_set": "Devouring_Earth_Rock_Divide",
      "power": "*",
      "level": 0
    },
    {
      "power_category": "DevouringEarth",
      "power_set": "Devouring_Earth_Rock_Defense",
      "power": "*",
      "level": 0
    },
    {
      "power_category": "DevouringEarth",
      "power_set": "Summon_FX",
      "power": "*",
      "level": 0
    }
  ],
  "levels": [
    {
      "level": 27,
      "experience": 0,
      "display_names": [
        "Bedrock"
      ],
      "costumes": [
        "Rock_Beast_01"
      ]
    },
    {
      "level": 28,
      "experience": 0,
      "display_names": [
        "Bedrock"
      ],
      "costumes": [
        "Rock_Beast_01"
      ]
    },
    {
      "level": 29,
      "experience": 0,
      "display_names": [
        "Bedrock"
      ],
      "costumes": [
        "Rock_Beast_01"
      ]
    },
    {
      "level": 30,
      "experience": 0,
      "display_names": [
        "Bedrock"
      ],
      "costumes": [
        "Rock_Beast_01"
      ]
    },
    {
      "level": 31,
      "experience": 0,
      "display_names": [
        "Bedrock"
      ],
      "costumes": [
        "Rock_Beast_01"
      ]
    },
    {
      "level": 32,
      "experience": 0,
      "display_names": [
        "Bedrock"
      ],
      "costumes": [
        "Rock_Beast_01"
      ]
    },
    {
      "level": 33,
      "experience": 0,
      "display_names": [
        "Bedrock"
      ],
      "costumes": [
        "Rock_Beast_01"
      ]
    },
    {
      "level": 34,
      "experience": 0,
      "display_names": [
        "Bedrock"
      ],
      "costumes": [
        "Rock_Beast_01"
      ]
    },
    {
      "level": 35,
      "experience": 0,
      "display_names": [
        "Bedrock"
      ],
      "costumes": [
        "Rock_Beast_01"
      ]
    },
    {
      "level": 36,
      "experience": 0,
      "display_names": [
        "Bedrock"
      ],
      "costumes": [
        "Rock_Beast_01"
      ]
    },
    {
      "level": 37,
      "experience": 0,
      "display_names": [
        "Bedrock"
      ],
      "costumes": [
        "Rock_Beast_01"
      ]
    },
    {
      "level": 38,
      "experience": 0,
      "display_names": [
        "Bedrock"
      ],
      "costumes": [
        "Rock_Beast_01"
      ]
    },
    {
      "level": 39,
      "experience": 0,
      "display_names": [
        "Bedrock"
      ],
      "costumes": [
        "Rock_Beast_01"
      ]
    },
    {
      "level": 40,
      "experience": 0,
      "display_names": [
        "Bedrock"
      ],
      "costumes": [
        "Rock_Beast_01"
      ]
    },
    {
      "level": 41,
      "experience": 0,
      "display_names": [
        "Bedrock"
      ],
      "costumes": [
        "Rock_Beast_01"
      ]
    },
    {
      "level": 42,
      "experience": 0,
      "display_names": [
        "Bedrock"
      ],
      "costumes": [
        "Rock_Beast_01"
      ]
    },
    {
      "level": 43,
      "experience": 0,
      "display_names": [
        "Boulder"
      ],
      "costumes": [
        "Rock_Beast_02"
      ]
    },
    {
      "level": 44,
      "experience": 0,
      "display_names": [
        "Boulder"
      ],
      "costumes": [
        "Rock_Beast_02"
      ]
    },
    {
      "level": 45,
      "experience": 0,
      "display_names": [
        "Boulder"
      ],
      "costumes": [
        "Rock_Beast_02"
      ]
    },
    {
      "level": 46,
      "experience": 0,
      "display_names": [
        "Boulder"
      ],
      "costumes": [
        "Rock_Beast_02"
      ]
    },
    {
      "level": 47,
      "experience": 0,
      "display_names": [
        "Boulder"
      ],
      "costumes": [
        "Rock_Beast_02"
      ]
    },
    {
      "level": 48,
      "experience": 0,
      "display_names": [
        "Boulder"
      ],
      "costumes": [
        "Rock_Beast_02"
      ]
    },
    {
      "level": 49,
      "experience": 0,
      "display_names": [
        "Boulder"
      ],
      "costumes": [
        "Rock_Beast_02"
      ]
    }
  ]
}