{
  "name": "DevouringEarth_Hamidon",
  "gender": "GENDER_MALE",
  "description": "Hamidon is nucleus of a giant single celled organism, spawned from some twisted primordial soup.  Its has one instinct, to Devour the Earth and all that infests it.",
  "group_description": null,
  "display_class_name": null,
  "character_class_name": "boss_hamidon",
  "ai_config": "DevouringEarth_Hamidon",
  "commandable_pet": false,
  "power_tags": [
    "Raid"
  ],
  "additional_rewards": [
    "Hamidon"
  ],
  "skill_hp_rewards": [

  ],
  "skill_status_rewards": [

  ],
  "ally": null,
  "gang": null,
  "reward_scale": 1.0,
  "game_exclusion": "None",
  "inactive_state_weapon": null,
  "ignores_combat_mods": false,
  "copy_creator_mods": false,
  "spawn_limit": 0,
  "spawn_limit_mission": 0,
  "ignore_av_to_eb_scaling": false,
  "can_zone": false,
  "custom_badge_stat": null,
  "badge_stat_flags": "DefaultBadgeStat",
  "rank": "VR_BIGMONSTER",
  "power_full_names": [
    "DevouringEarth.Hamidon_Powers.Resistance",
    "DevouringEarth.Hamidon_Powers.Protoplasm",
    "DevouringEarth.Hamidon_Powers.Electrolytic_Blast",
    "DevouringEarth.Hamidon_Powers.Cell_Death",
    "DevouringEarth.Hamidon_Powers.Electrolytic_Beam"
  ],
  "power_display_names": [
    "Resistance",
    "Protoplasm",
    "Electrolytic Blast",
    "Cell Death",
    "Electrolytic Beam"
  ],
  "power_levels": [
    0,
    0,
    0,
    0,
    0
  ],
  "powers": [
    {
      "power_category": "DevouringEarth",
      "power_set": "Hamidon_Powers",
      "power": "*",
      "level": 0
    }
  ],
  "levels": [
    {
      "level": 50,
      "experience": 0,
      "display_names": [
        "Hamidon"
      ],
      "costumes": [
        "Hamidon"
      ]
    }
  ]
}