{
  "name": "DevouringEarth_Plant_Beast_Lieutenant_Hive",
  "gender": "GENDER_MALE",
  "description": "The older, more mature plant creatures serve as leaders for their deadly cousins. They're stronger, tougher, and more deadly than the lesser plant creatures. They also have the ability to summon forth Swarms to further trouble their enemies.",
  "group_description": null,
  "display_class_name": null,
  "character_class_name": "lt_grunt",
  "ai_config": "DevouringEarth_Lt",
  "commandable_pet": false,
  "power_tags": [

  ],
  "additional_rewards": [

  ],
  "skill_hp_rewards": [

  ],
  "skill_status_rewards": [

  ],
  "ally": null,
  "gang": null,
  "reward_scale": 1.6,
  "game_exclusion": "None",
  "inactive_state_weapon": null,
  "ignores_combat_mods": false,
  "copy_creator_mods": false,
  "spawn_limit": 0,
  "spawn_limit_mission": 0,
  "ignore_av_to_eb_scaling": false,
  "can_zone": false,
  "custom_badge_stat": null,
  "badge_stat_flags": "DefaultBadgeStat",
  "rank": "VR_LIEUTENANT",
  "power_full_names": [
    "DevouringEarth.Devouring_Earth_All_Melee.Pummel",
    "DevouringEarth.Devouring_Earth_Plant_Ranged.Thorn_Blast",
    "DevouringEarth.Devouring_Earth_Plant_Ranged.Spur",
    "DevouringEarth.Devouring_Earth_Plant_Defense.Resistance",
    "DevouringEarth.Devouring_Earth_Summon_Swarm.Call_Swarm",
    "DevouringEarth.Devouring_Earth_Lt_Plant_Buff.Tree_of_Life"
  ],
  "power_display_names": [
    "Pummel",
    "Thorn Blast",
    "Spur",
    "Resistance",
    "Call Swarm",
    "Tree of Life"
  ],
  "power_levels": [
    0,
    0,
    0,
    0,
    0,
    0
  ],
  "powers": [
    {
      "power_category": "DevouringEarth",
      "power_set": "Devouring_Earth_All_Melee",
      "power": "*",
      "level": 0
    },
    {
      "power_category": "DevouringEarth",
      "power_set": "Devouring_Earth_Plant_Ranged",
      "power": "*",
      "level": 0
    },
    {
      "power_category": "DevouringEarth",
      "power_set": "Devouring_Earth_Plant_Defense",
      "power": "*",
      "level": 0
    },
    {
      "power_category": "DevouringEarth",
      "power_set": "Devouring_Earth_Summon_Swarm",
      "power": "*",
      "level": 0
    },
    {
      "power_category": "DevouringEarth",
      "power_set": "Devouring_Earth_Lt_Plant_Buff",
      "power": "*",
      "level": 0
    }
  ],
  "levels": [
    {
      "level": 38,
      "experience": 0,
      "display_names": [
        "Herder"
      ],
      "costumes": [
        "Plant_Beast_05"
      ]
    },
    {
      "level": 39,
      "experience": 0,
      "display_names": [
        "Herder"
      ],
      "costumes": [
        "Plant_Beast_05"
      ]
    },
    {
      "level": 40,
      "experience": 0,
      "display_names": [
        "Herder"
      ],
      "costumes": [
        "Plant_Beast_05"
      ]
    },
    {
      "level": 41,
      "experience": 0,
      "display_names": [
        "Herder"
      ],
      "costumes": [
        "Plant_Beast_05"
      ]
    },
    {
      "level": 42,
      "experience": 0,
      "display_names": [
        "Herder"
      ],
      "costumes": [
        "Plant_Beast_05"
      ]
    }
  ]
}