{
  "name": "Diabolique_Captured_Citadel",
  "gender": "GENDER_MALE",
  "description": "Citadel was the very first android hero. In the initial Rikti onslaught, he took heavy damage, and was almost completely destroyed. With Positrons help, scientists at DATA created a second version of Citadel using the old model's original memory core and the remnants of a power suit, once worn by the hero Horatio. Citadel does not fully understand human ways, but he is a valiant defender of Paragon City. He has recently undergone a major upgrade to his systems.",
  "group_description": "Freedom Phalanx",
  "display_class_name": "Hero",
  "character_class_name": "boss_praetorianarchvillain",
  "ai_config": "Signatures_Melee",
  "commandable_pet": false,
  "power_tags": [
    "HumanSkeleton",
    "Electronic",
    "Raid"
  ],
  "additional_rewards": [

  ],
  "skill_hp_rewards": [

  ],
  "skill_status_rewards": [

  ],
  "ally": null,
  "gang": null,
  "reward_scale": 1.0,
  "game_exclusion": "None",
  "inactive_state_weapon": null,
  "ignores_combat_mods": false,
  "copy_creator_mods": false,
  "spawn_limit": 0,
  "spawn_limit_mission": 0,
  "ignore_av_to_eb_scaling": false,
  "can_zone": false,
  "custom_badge_stat": null,
  "badge_stat_flags": "DefaultBadgeStat",
  "rank": "VR_ARCHVILLAIN",
  "power_full_names": [
    "DilemmaDiabolique.Citadel.Barrage",
    "DilemmaDiabolique.Citadel.Energy_Punch",
    "DilemmaDiabolique.Citadel.Bone_Smasher",
    "DilemmaDiabolique.Citadel.Whirling_Hands",
    "DilemmaDiabolique.Citadel.Energy_Transfer",
    "DilemmaDiabolique.Citadel.Power_Burst",
    "DilemmaDiabolique.Citadel.Energy_Torrent",
    "DilemmaDiabolique.Possession_Aura.Possession_Aura",
    "V_FreedomPhalanx.Hero_Teleport.Teleport",
    "GenericVillains.Supervillain_Resistance.Resistance"
  ],
  "power_display_names": [
    "Barrage",
    "Energy Punch",
    "Bone Smasher",
    "Whirling Hands",
    "Energy Transfer",
    "Power Burst",
    "Energy Torrent",
    "Possession Aura",
    "Teleport",
    "Resistance"
  ],
  "power_levels": [
    0,
    0,
    0,
    0,
    0,
    0,
    0,
    0,
    0,
    0
  ],
  "powers": [
    {
      "power_category": "DilemmaDiabolique",
      "power_set": "Citadel",
      "power": "*",
      "level": 0
    },
    {
      "power_category": "DilemmaDiabolique",
      "power_set": "Possession_Aura",
      "power": "*",
      "level": 0
    },
    {
      "power_category": "V_FreedomPhalanx",
      "power_set": "Hero_Teleport",
      "power": "*",
      "level": 0
    },
    {
      "power_category": "GenericVillains",
      "power_set": "Supervillain_Resistance",
      "power": "Resistance",
      "level": 0
    }
  ],
  "levels": [
    {
      "level": 54,
      "experience": 0,
      "display_names": [
        "Citadel"
      ],
      "costumes": [
        "Model_Bastion_NoRing"
      ]
    }
  ]
}