{
  "name": "Diabolique_Captured_SisterPsyche",
  "gender": "GENDER_FEMALE",
  "description": "Even in her childhood, it was obvious that Sister Psyche was blessed. The tremendous scope of her mental powers was far beyond that of any hero, past or present. When the Rikti War descended, Sister Psyche knew she had to make her gift count. She did, but at a price. She exhausted her powers so thoroughly that she fell into a coma. A young heroine named Aurora Borealis offered to play host to Sister Psyche's projected mental self. Of course, this situation could not last forever. Now back in her own body, Sister Psyche has dedicated herself to helping to shape the tremendous gifts of the young Aurora. It's a responsibility she takes seriously, as well as a consolation for the loss of her former protoge, Malaise. When the psychic link between the two women was first disrupted, Sister Psyche lost her mental control over Malaise's dual personalities. The evil Malaise reasserted himself, and quickly made his departure. His present whereabouts are as yet unknown.",
  "group_description": "Freedom Phalanx",
  "display_class_name": "Hero",
  "character_class_name": "boss_praetorianarchvillain",
  "ai_config": "Signatures_Ranged",
  "commandable_pet": false,
  "power_tags": [
    "HumanSkeleton",
    "Human",
    "Raid"
  ],
  "additional_rewards": [

  ],
  "skill_hp_rewards": [

  ],
  "skill_status_rewards": [

  ],
  "ally": null,
  "gang": null,
  "reward_scale": 1.0,
  "game_exclusion": "None",
  "inactive_state_weapon": null,
  "ignores_combat_mods": false,
  "copy_creator_mods": false,
  "spawn_limit": 0,
  "spawn_limit_mission": 0,
  "ignore_av_to_eb_scaling": false,
  "can_zone": false,
  "custom_badge_stat": null,
  "badge_stat_flags": "DefaultBadgeStat",
  "rank": "VR_ARCHVILLAIN",
  "power_full_names": [
    "DilemmaDiabolique.Sister_Psyche.Mesmerize",
    "DilemmaDiabolique.Sister_Psyche.Levitate",
    "DilemmaDiabolique.Sister_Psyche.Dominate",
    "DilemmaDiabolique.Sister_Psyche.Psychic_Shockwave",
    "DilemmaDiabolique.Sister_Psyche.Force_Bolt",
    "DilemmaDiabolique.Sister_Psyche.Power_Blast",
    "DilemmaDiabolique.Sister_Psyche.Power_Burst",
    "DilemmaDiabolique.Possession_Aura.Possession_Aura",
    "V_FreedomPhalanx.Hero_Teleport.Teleport",
    "GenericVillains.Supervillain_Resistance.Resistance"
  ],
  "power_display_names": [
    "Mesmerize",
    "Levitate",
    "Dominate",
    "Psychic Shockwave",
    "Force Bolt",
    "Power Blast",
    "Power Burst",
    "Possession Aura",
    "Teleport",
    "Resistance"
  ],
  "power_levels": [
    0,
    0,
    0,
    0,
    0,
    0,
    0,
    0,
    0,
    0
  ],
  "powers": [
    {
      "power_category": "DilemmaDiabolique",
      "power_set": "Sister_Psyche",
      "power": "*",
      "level": 0
    },
    {
      "power_category": "DilemmaDiabolique",
      "power_set": "Possession_Aura",
      "power": "*",
      "level": 0
    },
    {
      "power_category": "V_FreedomPhalanx",
      "power_set": "Hero_Teleport",
      "power": "*",
      "level": 0
    },
    {
      "power_category": "GenericVillains",
      "power_set": "Supervillain_Resistance",
      "power": "Resistance",
      "level": 0
    }
  ],
  "levels": [
    {
      "level": 54,
      "experience": 0,
      "display_names": [
        "Sister Psyche"
      ],
      "costumes": [
        "Model_Sister_Psyche_02_NoRing"
      ]
    }
  ]
}