{
  "name": "Diabolique_Captured_PenelopeYin_Free",
  "gender": "GENDER_FEMALE",
  "description": "Penelope Yin is a normal girl who works at her father's store, enjoys talking to her friends, and happens to be the most powerful psychic on the planet. Penny already uses her powers naturally, but has only recently had any combat training. Penelope has recently gained the protection of the Clockwork King, who thinks of her as his 'Clockwork Princess'.",
  "group_description": "Freedom Phalanx",
  "display_class_name": "Hero",
  "character_class_name": "boss_praetorianarchvillain",
  "ai_config": "Default_Melee",
  "commandable_pet": false,
  "power_tags": [
    "HumanSkeleton",
    "Human",
    "Raid"
  ],
  "additional_rewards": [

  ],
  "skill_hp_rewards": [

  ],
  "skill_status_rewards": [

  ],
  "ally": "Hero",
  "gang": "1",
  "reward_scale": 1.0,
  "game_exclusion": "None",
  "inactive_state_weapon": null,
  "ignores_combat_mods": false,
  "copy_creator_mods": false,
  "spawn_limit": 0,
  "spawn_limit_mission": 0,
  "ignore_av_to_eb_scaling": false,
  "can_zone": false,
  "custom_badge_stat": null,
  "badge_stat_flags": "DefaultBadgeStat",
  "rank": "VR_ARCHVILLAIN",
  "power_full_names": [
    "DilemmaDiabolique.Captured_Hero_Release.PenelopeYin"
  ],
  "power_display_names": [
    "Sentinel Rescue"
  ],
  "power_levels": [
    0
  ],
  "powers": [
    {
      "power_category": "DilemmaDiabolique",
      "power_set": "Captured_Hero_Release",
      "power": "PenelopeYin",
      "level": 0
    }
  ],
  "levels": [
    {
      "level": 54,
      "experience": 0,
      "display_names": [
        "Penelope Yin"
      ],
      "costumes": [
        "Model_Penelope_Yin_New"
      ]
    }
  ]
}