{
  "name": "Dominatrix_Dominatrix_EB",
  "gender": "GENDER_FEMALE",
  "description": "Being the powered grand-daughter of Emperor Cole has its perks. Praetor Duncan trains new Powers Division recruits while at the same time stringing Anti-Matter along, as if he ever had a chance to be with a woman of her stature.",
  "group_description": "Praetorians",
  "display_class_name": null,
  "character_class_name": "boss_elite",
  "ai_config": "Signatures_Ranged",
  "commandable_pet": false,
  "power_tags": [
    "HumanSkeleton",
    "Human",
    "Raid"
  ],
  "additional_rewards": [

  ],
  "skill_hp_rewards": [

  ],
  "skill_status_rewards": [

  ],
  "ally": null,
  "gang": null,
  "reward_scale": 1.0,
  "game_exclusion": "None",
  "inactive_state_weapon": null,
  "ignores_combat_mods": false,
  "copy_creator_mods": false,
  "spawn_limit": 0,
  "spawn_limit_mission": 0,
  "ignore_av_to_eb_scaling": false,
  "can_zone": false,
  "custom_badge_stat": null,
  "badge_stat_flags": "DefaultBadgeStat",
  "rank": "VR_ELITE",
  "power_full_names": [
    "Praetorians.Dominatrix.Resistance",
    "Praetorians.Dominatrix.Crush",
    "Praetorians.Dominatrix.Gravity_Distortion",
    "Praetorians.Dominatrix.Propel",
    "Praetorians.Dominatrix.Crushing_Field",
    "Praetorians.Dominatrix.Gravity_Distortion_Field"
  ],
  "power_display_names": [
    "Resistance",
    "Crush",
    "Gravity Distortion",
    "Propel",
    "Crushing Field",
    "Gravity Distortion Field"
  ],
  "power_levels": [
    0,
    0,
    0,
    0,
    0,
    0
  ],
  "powers": [
    {
      "power_category": "Praetorians",
      "power_set": "Dominatrix",
      "power": "*",
      "level": 0
    }
  ],
  "levels": [
    {
      "level": 20,
      "experience": 0,
      "display_names": [
        "Dominatrix"
      ],
      "costumes": [
        "Praetor Duncan"
      ]
    },
    {
      "level": 21,
      "experience": 0,
      "display_names": [
        "Dominatrix"
      ],
      "costumes": [
        "Praetor Duncan"
      ]
    },
    {
      "level": 22,
      "experience": 0,
      "display_names": [
        "Dominatrix"
      ],
      "costumes": [
        "Praetor Duncan"
      ]
    },
    {
      "level": 23,
      "experience": 0,
      "display_names": [
        "Dominatrix"
      ],
      "costumes": [
        "Praetor Duncan"
      ]
    },
    {
      "level": 24,
      "experience": 0,
      "display_names": [
        "Dominatrix"
      ],
      "costumes": [
        "Praetor Duncan"
      ]
    },
    {
      "level": 25,
      "experience": 0,
      "display_names": [
        "Dominatrix"
      ],
      "costumes": [
        "Praetor Duncan"
      ]
    },
    {
      "level": 26,
      "experience": 0,
      "display_names": [
        "Dominatrix"
      ],
      "costumes": [
        "Praetor Duncan"
      ]
    },
    {
      "level": 27,
      "experience": 0,
      "display_names": [
        "Dominatrix"
      ],
      "costumes": [
        "Praetor Duncan"
      ]
    },
    {
      "level": 28,
      "experience": 0,
      "display_names": [
        "Dominatrix"
      ],
      "costumes": [
        "Praetor Duncan"
      ]
    },
    {
      "level": 29,
      "experience": 0,
      "display_names": [
        "Dominatrix"
      ],
      "costumes": [
        "Praetor Duncan"
      ]
    },
    {
      "level": 30,
      "experience": 0,
      "display_names": [
        "Dominatrix"
      ],
      "costumes": [
        "Praetor Duncan"
      ]
    },
    {
      "level": 31,
      "experience": 0,
      "display_names": [
        "Dominatrix"
      ],
      "costumes": [
        "Praetor Duncan"
      ]
    },
    {
      "level": 32,
      "experience": 0,
      "display_names": [
        "Dominatrix"
      ],
      "costumes": [
        "Praetor Duncan"
      ]
    },
    {
      "level": 33,
      "experience": 0,
      "display_names": [
        "Dominatrix"
      ],
      "costumes": [
        "Praetor Duncan"
      ]
    },
    {
      "level": 34,
      "experience": 0,
      "display_names": [
        "Dominatrix"
      ],
      "costumes": [
        "Praetor Duncan"
      ]
    }
  ]
}