{
  "name": "Dr_V_Honeybees_Lt",
  "gender": "GENDER_MALE",
  "description": "These highly aggressive subterranean honeybees are one of Dr. Vahzilok's many side projects, cultivated for their antibiotic honey. Though adorable, their bite is vicious.",
  "group_description": null,
  "display_class_name": null,
  "character_class_name": "lt_grunt",
  "ai_config": "DevouringEarth_Minion",
  "commandable_pet": false,
  "power_tags": [

  ],
  "additional_rewards": [

  ],
  "skill_hp_rewards": [

  ],
  "skill_status_rewards": [

  ],
  "ally": null,
  "gang": null,
  "reward_scale": 1.0,
  "game_exclusion": "None",
  "inactive_state_weapon": null,
  "ignores_combat_mods": false,
  "copy_creator_mods": false,
  "spawn_limit": 0,
  "spawn_limit_mission": 0,
  "ignore_av_to_eb_scaling": false,
  "can_zone": false,
  "custom_badge_stat": null,
  "badge_stat_flags": "DefaultBadgeStat",
  "rank": "VR_LIEUTENANT",
  "power_full_names": [
    "DevouringEarth.Devouring_Earth_Swarm_Melee.Swarm",
    "DevouringEarth.Devouring_Earth_Swarm_Melee.Sting",
    "DevouringEarth.Devouring_Earth_Swarm_Movement.Fly",
    "DevouringEarth.Devouring_Earth_Swarm_Defense.Resistance"
  ],
  "power_display_names": [
    "Swarm",
    "Sting",
    "Fly",
    "Resistance"
  ],
  "power_levels": [
    0,
    0,
    0,
    0
  ],
  "powers": [
    {
      "power_category": "DevouringEarth",
      "power_set": "Devouring_Earth_Swarm_Melee",
      "power": "*",
      "level": 0
    },
    {
      "power_category": "DevouringEarth",
      "power_set": "Devouring_Earth_Swarm_Movement",
      "power": "*",
      "level": 0
    },
    {
      "power_category": "DevouringEarth",
      "power_set": "Devouring_Earth_Swarm_Defense",
      "power": "*",
      "level": 0
    }
  ],
  "levels": [
    {
      "level": 29,
      "experience": 0,
      "display_names": [
        "Subterranean Honeybee Swarm"
      ],
      "costumes": [
        "Devouring_Swarm"
      ]
    },
    {
      "level": 30,
      "experience": 0,
      "display_names": [
        "Subterranean Honeybee Swarm"
      ],
      "costumes": [
        "Devouring_Swarm"
      ]
    },
    {
      "level": 31,
      "experience": 0,
      "display_names": [
        "Subterranean Honeybee Swarm"
      ],
      "costumes": [
        "Devouring_Swarm"
      ]
    },
    {
      "level": 32,
      "experience": 0,
      "display_names": [
        "Subterranean Honeybee Swarm"
      ],
      "costumes": [
        "Devouring_Swarm"
      ]
    },
    {
      "level": 33,
      "experience": 0,
      "display_names": [
        "Subterranean Honeybee Swarm"
      ],
      "costumes": [
        "Devouring_Swarm"
      ]
    },
    {
      "level": 34,
      "experience": 0,
      "display_names": [
        "Subterranean Honeybee Swarm"
      ],
      "costumes": [
        "Devouring_Swarm"
      ]
    },
    {
      "level": 35,
      "experience": 0,
      "display_names": [
        "Subterranean Honeybee Swarm"
      ],
      "costumes": [
        "Devouring_Swarm"
      ]
    },
    {
      "level": 36,
      "experience": 0,
      "display_names": [
        "Subterranean Honeybee Swarm"
      ],
      "costumes": [
        "Devouring_Swarm"
      ]
    },
    {
      "level": 37,
      "experience": 0,
      "display_names": [
        "Subterranean Honeybee Swarm"
      ],
      "costumes": [
        "Devouring_Swarm"
      ]
    },
    {
      "level": 38,
      "experience": 0,
      "display_names": [
        "Subterranean Honeybee Swarm"
      ],
      "costumes": [
        "Devouring_Swarm"
      ]
    },
    {
      "level": 39,
      "experience": 0,
      "display_names": [
        "Subterranean Honeybee Swarm"
      ],
      "costumes": [
        "Devouring_Swarm"
      ]
    },
    {
      "level": 40,
      "experience": 0,
      "display_names": [
        "Subterranean Honeybee Swarm"
      ],
      "costumes": [
        "Devouring_Swarm"
      ]
    },
    {
      "level": 41,
      "experience": 0,
      "display_names": [
        "Subterranean Honeybee Swarm"
      ],
      "costumes": [
        "Devouring_Swarm"
      ]
    },
    {
      "level": 42,
      "experience": 0,
      "display_names": [
        "Subterranean Honeybee Swarm"
      ],
      "costumes": [
        "Devouring_Swarm"
      ]
    }
  ]
}