{
  "name": "Dregs_Raider",
  "gender": "GENDER_MALE",
  "description": "Raiders are toughened survivalists who embody the phrase \"Kill or be killed\".  These scavengers often take to robbing, killing, and enslaving the citizens of First Ward in order to sustain themselves.",
  "group_description": null,
  "display_class_name": null,
  "character_class_name": "minion_grunt",
  "ai_config": "Default_Melee",
  "commandable_pet": false,
  "power_tags": [
    "HumanSkeleton",
    "Human"
  ],
  "additional_rewards": [

  ],
  "skill_hp_rewards": [

  ],
  "skill_status_rewards": [

  ],
  "ally": null,
  "gang": null,
  "reward_scale": 1.0,
  "game_exclusion": "None",
  "inactive_state_weapon": null,
  "ignores_combat_mods": false,
  "copy_creator_mods": false,
  "spawn_limit": -1,
  "spawn_limit_mission": -1,
  "ignore_av_to_eb_scaling": false,
  "can_zone": false,
  "custom_badge_stat": null,
  "badge_stat_flags": "DefaultBadgeStat",
  "rank": "VR_MINION",
  "power_full_names": [
    "Dregs.Resistances.Damage_MN",
    "Dregs.Raider.Single_Shot",
    "Dregs.Raider.Double_Shot",
    "Dregs.Raider.Wild_Shot"
  ],
  "power_display_names": [
    "Damage Resistance",
    "Single Shot",
    "Double Shot",
    "Wild Shot"
  ],
  "power_levels": [
    0,
    0,
    0,
    0
  ],
  "powers": [
    {
      "power_category": "Dregs",
      "power_set": "Resistances",
      "power": "Damage_MN",
      "level": 0
    },
    {
      "power_category": "Dregs",
      "power_set": "Raider",
      "power": "*",
      "level": 0
    }
  ],
  "levels": [
    {
      "level": 20,
      "experience": 0,
      "display_names": [
        "Raider"
      ],
      "costumes": [
        "dregsmalemin1",
        "dregsmalemin2",
        "dregsmalemin3",
        "dregsmalemin4",
        "dregsmalemin5",
        "dregsmalemin6"
      ]
    },
    {
      "level": 21,
      "experience": 0,
      "display_names": [
        "Raider"
      ],
      "costumes": [
        "dregsmalemin1",
        "dregsmalemin2",
        "dregsmalemin3",
        "dregsmalemin4",
        "dregsmalemin5",
        "dregsmalemin6"
      ]
    },
    {
      "level": 22,
      "experience": 0,
      "display_names": [
        "Raider"
      ],
      "costumes": [
        "dregsmalemin1",
        "dregsmalemin2",
        "dregsmalemin3",
        "dregsmalemin4",
        "dregsmalemin5",
        "dregsmalemin6"
      ]
    },
    {
      "level": 23,
      "experience": 0,
      "display_names": [
        "Raider"
      ],
      "costumes": [
        "dregsmalemin1",
        "dregsmalemin2",
        "dregsmalemin3",
        "dregsmalemin4",
        "dregsmalemin5",
        "dregsmalemin6"
      ]
    },
    {
      "level": 24,
      "experience": 0,
      "display_names": [
        "Raider"
      ],
      "costumes": [
        "dregsmalemin1",
        "dregsmalemin2",
        "dregsmalemin3",
        "dregsmalemin4",
        "dregsmalemin5",
        "dregsmalemin6"
      ]
    },
    {
      "level": 25,
      "experience": 0,
      "display_names": [
        "Raider"
      ],
      "costumes": [
        "dregsmalemin1",
        "dregsmalemin2",
        "dregsmalemin3",
        "dregsmalemin4",
        "dregsmalemin5",
        "dregsmalemin6"
      ]
    },
    {
      "level": 26,
      "experience": 0,
      "display_names": [
        "Raider"
      ],
      "costumes": [
        "dregsmalemin1",
        "dregsmalemin2",
        "dregsmalemin3",
        "dregsmalemin4",
        "dregsmalemin5",
        "dregsmalemin6"
      ]
    },
    {
      "level": 27,
      "experience": 0,
      "display_names": [
        "Raider"
      ],
      "costumes": [
        "dregsmalemin1",
        "dregsmalemin2",
        "dregsmalemin3",
        "dregsmalemin4",
        "dregsmalemin5",
        "dregsmalemin6"
      ]
    },
    {
      "level": 28,
      "experience": 0,
      "display_names": [
        "Raider"
      ],
      "costumes": [
        "dregsmalemin1",
        "dregsmalemin2",
        "dregsmalemin3",
        "dregsmalemin4",
        "dregsmalemin5",
        "dregsmalemin6"
      ]
    },
    {
      "level": 29,
      "experience": 0,
      "display_names": [
        "Raider"
      ],
      "costumes": [
        "dregsmalemin1",
        "dregsmalemin2",
        "dregsmalemin3",
        "dregsmalemin4",
        "dregsmalemin5",
        "dregsmalemin6"
      ]
    },
    {
      "level": 30,
      "experience": 0,
      "display_names": [
        "Raider"
      ],
      "costumes": [
        "dregsmalemin1",
        "dregsmalemin2",
        "dregsmalemin3",
        "dregsmalemin4",
        "dregsmalemin5",
        "dregsmalemin6"
      ]
    },
    {
      "level": 31,
      "experience": 0,
      "display_names": [
        "Raider"
      ],
      "costumes": [
        "dregsmalemin1",
        "dregsmalemin2",
        "dregsmalemin3",
        "dregsmalemin4",
        "dregsmalemin5",
        "dregsmalemin6"
      ]
    },
    {
      "level": 32,
      "experience": 0,
      "display_names": [
        "Raider"
      ],
      "costumes": [
        "dregsmalemin1",
        "dregsmalemin2",
        "dregsmalemin3",
        "dregsmalemin4",
        "dregsmalemin5",
        "dregsmalemin6"
      ]
    },
    {
      "level": 33,
      "experience": 0,
      "display_names": [
        "Raider"
      ],
      "costumes": [
        "dregsmalemin1",
        "dregsmalemin2",
        "dregsmalemin3",
        "dregsmalemin4",
        "dregsmalemin5",
        "dregsmalemin6"
      ]
    },
    {
      "level": 34,
      "experience": 0,
      "display_names": [
        "Raider"
      ],
      "costumes": [
        "dregsmalemin1",
        "dregsmalemin2",
        "dregsmalemin3",
        "dregsmalemin4",
        "dregsmalemin5",
        "dregsmalemin6"
      ]
    }
  ]
}