{
  "name": "Drudges_HoodedLantern_Summoned",
  "gender": "GENDER_NEUTER",
  "description": "The Drudges' Hooded Lanterns are powered by the wax of souls which they collect and use as currency.  This torch flickers and floats before you, moving at the whim of the Taskmasters who control the Drudges' heirarchy.",
  "group_description": null,
  "display_class_name": null,
  "character_class_name": "minion_pets",
  "ai_config": "Default_Ranged",
  "commandable_pet": false,
  "power_tags": [
    "HumanSkeleton",
    "Human"
  ],
  "additional_rewards": [

  ],
  "skill_hp_rewards": [

  ],
  "skill_status_rewards": [

  ],
  "ally": null,
  "gang": null,
  "reward_scale": 1.0,
  "game_exclusion": "None",
  "inactive_state_weapon": null,
  "ignores_combat_mods": false,
  "copy_creator_mods": false,
  "spawn_limit": -1,
  "spawn_limit_mission": -1,
  "ignore_av_to_eb_scaling": false,
  "can_zone": false,
  "custom_badge_stat": null,
  "badge_stat_flags": "DefaultBadgeStat",
  "rank": "VR_PET",
  "power_full_names": [
    "Drudges.Resistances.Damage_MN",
    "Drudges.Hooded_Lantern.Flares"
  ],
  "power_display_names": [
    "Damage Resistance",
    "Soul Fire"
  ],
  "power_levels": [
    0,
    0
  ],
  "powers": [
    {
      "power_category": "Drudges",
      "power_set": "Resistances",
      "power": "Damage_MN",
      "level": 0
    },
    {
      "power_category": "Drudges",
      "power_set": "Hooded_Lantern",
      "power": "Flares",
      "level": 0
    }
  ],
  "levels": [
    {
      "level": 25,
      "experience": 0,
      "display_names": [
        "Hooded Lantern"
      ],
      "costumes": [
        "Drudges_HoodedLantern"
      ]
    },
    {
      "level": 26,
      "experience": 0,
      "display_names": [
        "Hooded Lantern"
      ],
      "costumes": [
        "Drudges_HoodedLantern"
      ]
    },
    {
      "level": 27,
      "experience": 0,
      "display_names": [
        "Hooded Lantern"
      ],
      "costumes": [
        "Drudges_HoodedLantern"
      ]
    },
    {
      "level": 28,
      "experience": 0,
      "display_names": [
        "Hooded Lantern"
      ],
      "costumes": [
        "Drudges_HoodedLantern"
      ]
    },
    {
      "level": 29,
      "experience": 0,
      "display_names": [
        "Hooded Lantern"
      ],
      "costumes": [
        "Drudges_HoodedLantern"
      ]
    },
    {
      "level": 30,
      "experience": 0,
      "display_names": [
        "Hooded Lantern"
      ],
      "costumes": [
        "Drudges_HoodedLantern"
      ]
    },
    {
      "level": 31,
      "experience": 0,
      "display_names": [
        "Hooded Lantern"
      ],
      "costumes": [
        "Drudges_HoodedLantern"
      ]
    },
    {
      "level": 32,
      "experience": 0,
      "display_names": [
        "Hooded Lantern"
      ],
      "costumes": [
        "Drudges_HoodedLantern"
      ]
    },
    {
      "level": 33,
      "experience": 0,
      "display_names": [
        "Hooded Lantern"
      ],
      "costumes": [
        "Drudges_HoodedLantern"
      ]
    },
    {
      "level": 34,
      "experience": 0,
      "display_names": [
        "Hooded Lantern"
      ],
      "costumes": [
        "Drudges_HoodedLantern"
      ]
    },
    {
      "level": 35,
      "experience": 0,
      "display_names": [
        "Hooded Lantern"
      ],
      "costumes": [
        "Drudges_HoodedLantern"
      ]
    },
    {
      "level": 36,
      "experience": 0,
      "display_names": [
        "Hooded Lantern"
      ],
      "costumes": [
        "Drudges_HoodedLantern"
      ]
    },
    {
      "level": 37,
      "experience": 0,
      "display_names": [
        "Hooded Lantern"
      ],
      "costumes": [
        "Drudges_HoodedLantern"
      ]
    },
    {
      "level": 38,
      "experience": 0,
      "display_names": [
        "Hooded Lantern"
      ],
      "costumes": [
        "Drudges_HoodedLantern"
      ]
    },
    {
      "level": 39,
      "experience": 0,
      "display_names": [
        "Hooded Lantern"
      ],
      "costumes": [
        "Drudges_HoodedLantern"
      ]
    },
    {
      "level": 40,
      "experience": 0,
      "display_names": [
        "Hooded Lantern"
      ],
      "costumes": [
        "Drudges_HoodedLantern"
      ]
    },
    {
      "level": 41,
      "experience": 0,
      "display_names": [
        "Hooded Lantern"
      ],
      "costumes": [
        "Drudges_HoodedLantern"
      ]
    },
    {
      "level": 42,
      "experience": 0,
      "display_names": [
        "Hooded Lantern"
      ],
      "costumes": [
        "Drudges_HoodedLantern"
      ]
    },
    {
      "level": 43,
      "experience": 0,
      "display_names": [
        "Hooded Lantern"
      ],
      "costumes": [
        "Drudges_HoodedLantern"
      ]
    },
    {
      "level": 44,
      "experience": 0,
      "display_names": [
        "Hooded Lantern"
      ],
      "costumes": [
        "Drudges_HoodedLantern"
      ]
    },
    {
      "level": 45,
      "experience": 0,
      "display_names": [
        "Hooded Lantern"
      ],
      "costumes": [
        "Drudges_HoodedLantern"
      ]
    },
    {
      "level": 46,
      "experience": 0,
      "display_names": [
        "Hooded Lantern"
      ],
      "costumes": [
        "Drudges_HoodedLantern"
      ]
    },
    {
      "level": 47,
      "experience": 0,
      "display_names": [
        "Hooded Lantern"
      ],
      "costumes": [
        "Drudges_HoodedLantern"
      ]
    },
    {
      "level": 48,
      "experience": 0,
      "display_names": [
        "Hooded Lantern"
      ],
      "costumes": [
        "Drudges_HoodedLantern"
      ]
    },
    {
      "level": 49,
      "experience": 0,
      "display_names": [
        "Hooded Lantern"
      ],
      "costumes": [
        "Drudges_HoodedLantern"
      ]
    },
    {
      "level": 50,
      "experience": 0,
      "display_names": [
        "Hooded Lantern"
      ],
      "costumes": [
        "Drudges_HoodedLantern"
      ]
    },
    {
      "level": 51,
      "experience": 0,
      "display_names": [
        "Hooded Lantern"
      ],
      "costumes": [
        "Drudges_HoodedLantern"
      ]
    },
    {
      "level": 52,
      "experience": 0,
      "display_names": [
        "Hooded Lantern"
      ],
      "costumes": [
        "Drudges_HoodedLantern"
      ]
    },
    {
      "level": 53,
      "experience": 0,
      "display_names": [
        "Hooded Lantern"
      ],
      "costumes": [
        "Drudges_HoodedLantern"
      ]
    },
    {
      "level": 54,
      "experience": 0,
      "display_names": [
        "Hooded Lantern"
      ],
      "costumes": [
        "Drudges_HoodedLantern"
      ]
    }
  ]
}