{
  "name": "Event_Halloween_11_Trial_Lieutenant_Zombie_Firebomb",
  "gender": "GENDER_MALE",
  "description": "Stuffed with volatile compounds, this mass of flesh has been built to explode when excited.",
  "group_description": "Dr. Kane's Horrors",
  "display_class_name": null,
  "character_class_name": "lt_grunt",
  "ai_config": "Default_Melee",
  "commandable_pet": false,
  "power_tags": [
    "HumanSkeleton"
  ],
  "additional_rewards": [
    "ZE_Halloween_ZombieTable"
  ],
  "skill_hp_rewards": [

  ],
  "skill_status_rewards": [

  ],
  "ally": null,
  "gang": null,
  "reward_scale": 0.01,
  "game_exclusion": "None",
  "inactive_state_weapon": null,
  "ignores_combat_mods": true,
  "copy_creator_mods": false,
  "spawn_limit": 0,
  "spawn_limit_mission": 0,
  "ignore_av_to_eb_scaling": false,
  "can_zone": false,
  "custom_badge_stat": null,
  "badge_stat_flags": "DefaultBadgeStat",
  "rank": "VR_LIEUTENANT",
  "power_full_names": [
    "Halloween.Harbinger_Ghoul.Kamikaze",
    "Halloween.Harbinger_Ghoul.Resistance"
  ],
  "power_display_names": [
    "Kamikaze",
    "Resistance"
  ],
  "power_levels": [
    0,
    0
  ],
  "powers": [
    {
      "power_category": "Halloween",
      "power_set": "Harbinger_Ghoul",
      "power": "*",
      "level": 0
    }
  ],
  "levels": [
    {
      "level": 29,
      "experience": 0,
      "display_names": [
        "Furious Zombie Firebomb"
      ],
      "costumes": [
        "Pantheon_Hull_Exploding"
      ]
    }
  ]
}