{
  "name": "Event_DAGiantMonster_JurassikPiece",
  "gender": "GENDER_MALE",
  "description": "These horrible creatures are a mere fragment of the wicked Greater Mystic Aspect.  Small as they might be they still pose a terrible threat.",
  "group_description": "Deadly Apocalypse",
  "display_class_name": null,
  "character_class_name": "minion_grunt",
  "ai_config": "Event_Melee",
  "commandable_pet": false,
  "power_tags": [

  ],
  "additional_rewards": [

  ],
  "skill_hp_rewards": [

  ],
  "skill_status_rewards": [

  ],
  "ally": null,
  "gang": null,
  "reward_scale": 0.5,
  "game_exclusion": "None",
  "inactive_state_weapon": null,
  "ignores_combat_mods": true,
  "copy_creator_mods": false,
  "spawn_limit": 0,
  "spawn_limit_mission": 0,
  "ignore_av_to_eb_scaling": false,
  "can_zone": false,
  "custom_badge_stat": null,
  "badge_stat_flags": "DefaultBadgeStat",
  "rank": "VR_MINION",
  "power_full_names": [
    "DevouringEarth.Devouring_Earth_All_Melee.Pummel",
    "DevouringEarth.Devouring_Earth_Rock_Ranged.Hurl_Boulder",
    "DevouringEarth.Devouring_Earth_Rock_Defense.Resistance",
    "Event.DeadlyApocalypse_GiantMonster_Transparency.Transparency"
  ],
  "power_display_names": [
    "Pummel",
    "Hurl Boulder",
    "Resistance",
    "Transparency"
  ],
  "power_levels": [
    0,
    0,
    0,
    0
  ],
  "powers": [
    {
      "power_category": "DevouringEarth",
      "power_set": "Devouring_Earth_All_Melee",
      "power": "*",
      "level": 0
    },
    {
      "power_category": "DevouringEarth",
      "power_set": "Devouring_Earth_Rock_Ranged",
      "power": "*",
      "level": 0
    },
    {
      "power_category": "DevouringEarth",
      "power_set": "Devouring_Earth_Rock_Defense",
      "power": "*",
      "level": 0
    },
    {
      "power_category": "Event",
      "power_set": "DeadlyApocalypse_GiantMonster_Transparency",
      "power": "*",
      "level": 0
    }
  ],
  "levels": [
    {
      "level": 30,
      "experience": 0,
      "display_names": [
        "Lesser Mystic Aspect"
      ],
      "costumes": [
        "Giant_Rock_Beast_Piece"
      ]
    }
  ]
}