{
  "name": "Event_War_Witch",
  "gender": "GENDER_FEMALE",
  "description": "Though War Witch has passed away, her spirit remains rooted to the world for which she gave her life. The ghost of War Witch has made her home in Croatoa over the last several months, sitting silently by the lake--but now she has sprung into action. It seems that War Witch's ghost retains the powers granted to her by her mystical coven, and will continue to use them in service of Paragon City.",
  "group_description": "LegacyChain",
  "display_class_name": "Blaster",
  "character_class_name": "boss_monster",
  "ai_config": "Default_Ranged",
  "commandable_pet": false,
  "power_tags": [
    "HumanSkeleton",
    "Human",
    "Raid"
  ],
  "additional_rewards": [

  ],
  "skill_hp_rewards": [

  ],
  "skill_status_rewards": [

  ],
  "ally": "Hero",
  "gang": null,
  "reward_scale": 3.0,
  "game_exclusion": "None",
  "inactive_state_weapon": null,
  "ignores_combat_mods": true,
  "copy_creator_mods": false,
  "spawn_limit": 0,
  "spawn_limit_mission": 0,
  "ignore_av_to_eb_scaling": false,
  "can_zone": false,
  "custom_badge_stat": null,
  "badge_stat_flags": "DefaultBadgeStat",
  "rank": "VR_ARCHVILLAIN",
  "power_full_names": [
    "Event.Event_Resistance.Resistance",
    "Blaster_Ranged.Ice_Blast.Ice_Bolt",
    "Blaster_Ranged.Ice_Blast.Ice_Blast",
    "Blaster_Ranged.Ice_Blast.Frost_Breath",
    "Blaster_Ranged.Ice_Blast.Aim",
    "Blaster_Ranged.Ice_Blast.Freeze_Ray",
    "Blaster_Ranged.Ice_Blast.Freezing_Rain",
    "Blaster_Ranged.Ice_Blast.Bitter_Ice_Blast",
    "Blaster_Ranged.Ice_Blast.Bitter_Freeze_Ray",
    "Blaster_Ranged.Ice_Blast.Blizzard",
    "Blaster_Support.Fire_Manipulation.Ring_of_Fire",
    "Blaster_Support.Fire_Manipulation.Fire_Sword",
    "Blaster_Support.Fire_Manipulation.Combustion",
    "Blaster_Support.Fire_Manipulation.Fire_Sword_Circle",
    "Blaster_Support.Fire_Manipulation.Build_Up",
    "Blaster_Support.Fire_Manipulation.Blazing_Aura",
    "Blaster_Support.Fire_Manipulation.Consume",
    "Blaster_Support.Fire_Manipulation.Burn",
    "Blaster_Support.Fire_Manipulation.Hot_Feet",
    "V_Arachnos.Ghost_Widow.Ethereal",
    "Pool.Fitness.Quick",
    "Pool.Fitness.Hurdle",
    "Pool.Fitness.Health",
    "Pool.Fitness.Stamina",
    "Event.Event_Fly.Fly"
  ],
  "power_display_names": [
    "Resistance",
    "Ice Bolt",
    "Ice Blast",
    "Frost Breath",
    "Aim",
    "Freeze Ray",
    "Ice Storm",
    "Bitter Ice Blast",
    "Bitter Freeze Ray",
    "Blizzard",
    "Ring of Fire",
    "Fire Sword",
    "Combustion",
    "Fire Sword Circle",
    "Build Up",
    "Cauterizing Aura",
    "Consume",
    "Burn",
    "Hot Feet",
    "Ethereal",
    "Swift",
    "Hurdle",
    "Health",
    "Stamina",
    "Fly"
  ],
  "power_levels": [
    0,
    0,
    0,
    0,
    0,
    0,
    0,
    0,
    0,
    0,
    0,
    0,
    0,
    0,
    0,
    0,
    0,
    0,
    0,
    0,
    0,
    0,
    0,
    0,
    0
  ],
  "powers": [
    {
      "power_category": "Event",
      "power_set": "Event_Resistance",
      "power": "*",
      "level": 0
    },
    {
      "power_category": "Blaster_Ranged",
      "power_set": "Ice_Blast",
      "power": "*",
      "level": 0
    },
    {
      "power_category": "Blaster_Support",
      "power_set": "Fire_Manipulation",
      "power": "*",
      "level": 0
    },
    {
      "power_category": "V_Arachnos",
      "power_set": "Ghost_Widow",
      "power": "Ethereal",
      "level": 0
    },
    {
      "power_category": "Pool",
      "power_set": "Fitness",
      "power": "*",
      "level": 0
    },
    {
      "power_category": "Event",
      "power_set": "Event_Fly",
      "power": "*",
      "level": 0
    }
  ],
  "levels": [
    {
      "level": 50,
      "experience": 0,
      "display_names": [
        "War Witch"
      ],
      "costumes": [
        "Model_Warwitch_Ghost_NoRing"
      ]
    }
  ]
}