{
  "name": "Event_Zombie_Rifle",
  "gender": "GENDER_MALE",
  "description": "The walking dead may be slow and stupid, but wise heroes know better than to underestimate them. Even when a person survives an encounter with a zombie, he rarely escapes entirely unscathed. He will often find himself waking in the night, shuddering at the memory of a dry and lifeless touch.",
  "group_description": "Zombies",
  "display_class_name": null,
  "character_class_name": "minion_grunt",
  "ai_config": "BanishedPantheon_Minion",
  "commandable_pet": false,
  "power_tags": [
    "HumanSkeleton",
    "Undead"
  ],
  "additional_rewards": [
    "2k9TrickMinion"
  ],
  "skill_hp_rewards": [

  ],
  "skill_status_rewards": [

  ],
  "ally": null,
  "gang": null,
  "reward_scale": 1.0,
  "game_exclusion": "None",
  "inactive_state_weapon": null,
  "ignores_combat_mods": false,
  "copy_creator_mods": false,
  "spawn_limit": -1,
  "spawn_limit_mission": -1,
  "ignore_av_to_eb_scaling": false,
  "can_zone": false,
  "custom_badge_stat": null,
  "badge_stat_flags": "DefaultBadgeStat",
  "rank": "VR_MINION",
  "power_full_names": [
    "Event.Zombie_Ranged.Lee-Enfield_Rifle",
    "Event.Zombie_Melee.Zombie_Brawl",
    "Event.Zombie_Defense.Resistance",
    "Event.TrickOrTreat_Inherent.Resistance"
  ],
  "power_display_names": [
    "Lee-Enfield Rifle",
    "Zombie Brawl",
    "Resistance",
    "Resistance"
  ],
  "power_levels": [
    0,
    0,
    0,
    0
  ],
  "powers": [
    {
      "power_category": "Event",
      "power_set": "Zombie_Ranged",
      "power": "Lee-Enfield_Rifle",
      "level": 0
    },
    {
      "power_category": "Event",
      "power_set": "Zombie_Melee",
      "power": "Zombie_Brawl",
      "level": 0
    },
    {
      "power_category": "Event",
      "power_set": "Zombie_Defense",
      "power": "*",
      "level": 0
    },
    {
      "power_category": "Event",
      "power_set": "TrickOrTreat_Inherent",
      "power": "*",
      "level": 0
    }
  ],
  "levels": [
    {
      "level": 1,
      "experience": 0,
      "display_names": [
        "Zombie"
      ],
      "costumes": [
        "Zombie_01",
        "Zombie_02",
        "Zombie_03",
        "Zombie_04",
        "Zombie_05",
        "Zombie_06",
        "Zombie_07",
        "Zombie_08",
        "Zombie_09",
        "Zombie_10"
      ]
    },
    {
      "level": 2,
      "experience": 0,
      "display_names": [
        "Zombie"
      ],
      "costumes": [
        "Zombie_01",
        "Zombie_02",
        "Zombie_03",
        "Zombie_04",
        "Zombie_05",
        "Zombie_06",
        "Zombie_07",
        "Zombie_08",
        "Zombie_09",
        "Zombie_10"
      ]
    },
    {
      "level": 3,
      "experience": 0,
      "display_names": [
        "Zombie"
      ],
      "costumes": [
        "Zombie_01",
        "Zombie_02",
        "Zombie_03",
        "Zombie_04",
        "Zombie_05",
        "Zombie_06",
        "Zombie_07",
        "Zombie_08",
        "Zombie_09",
        "Zombie_10"
      ]
    },
    {
      "level": 4,
      "experience": 0,
      "display_names": [
        "Zombie"
      ],
      "costumes": [
        "Zombie_01",
        "Zombie_02",
        "Zombie_03",
        "Zombie_04",
        "Zombie_05",
        "Zombie_06",
        "Zombie_07",
        "Zombie_08",
        "Zombie_09",
        "Zombie_10"
      ]
    },
    {
      "level": 5,
      "experience": 0,
      "display_names": [
        "Zombie"
      ],
      "costumes": [
        "Zombie_01",
        "Zombie_02",
        "Zombie_03",
        "Zombie_04",
        "Zombie_05",
        "Zombie_06",
        "Zombie_07",
        "Zombie_08",
        "Zombie_09",
        "Zombie_10"
      ]
    },
    {
      "level": 6,
      "experience": 0,
      "display_names": [
        "Zombie"
      ],
      "costumes": [
        "Zombie_01",
        "Zombie_02",
        "Zombie_03",
        "Zombie_04",
        "Zombie_05",
        "Zombie_06",
        "Zombie_07",
        "Zombie_08",
        "Zombie_09",
        "Zombie_10"
      ]
    },
    {
      "level": 7,
      "experience": 0,
      "display_names": [
        "Zombie"
      ],
      "costumes": [
        "Zombie_01",
        "Zombie_02",
        "Zombie_03",
        "Zombie_04",
        "Zombie_05",
        "Zombie_06",
        "Zombie_07",
        "Zombie_08",
        "Zombie_09",
        "Zombie_10"
      ]
    },
    {
      "level": 8,
      "experience": 0,
      "display_names": [
        "Zombie"
      ],
      "costumes": [
        "Zombie_01",
        "Zombie_02",
        "Zombie_03",
        "Zombie_04",
        "Zombie_05",
        "Zombie_06",
        "Zombie_07",
        "Zombie_08",
        "Zombie_09",
        "Zombie_10"
      ]
    },
    {
      "level": 9,
      "experience": 0,
      "display_names": [
        "Zombie"
      ],
      "costumes": [
        "Zombie_01",
        "Zombie_02",
        "Zombie_03",
        "Zombie_04",
        "Zombie_05",
        "Zombie_06",
        "Zombie_07",
        "Zombie_08",
        "Zombie_09",
        "Zombie_10"
      ]
    },
    {
      "level": 10,
      "experience": 0,
      "display_names": [
        "Zombie"
      ],
      "costumes": [
        "Zombie_01",
        "Zombie_02",
        "Zombie_03",
        "Zombie_04",
        "Zombie_05",
        "Zombie_06",
        "Zombie_07",
        "Zombie_08",
        "Zombie_09",
        "Zombie_10"
      ]
    },
    {
      "level": 11,
      "experience": 0,
      "display_names": [
        "Zombie"
      ],
      "costumes": [
        "Zombie_01",
        "Zombie_02",
        "Zombie_03",
        "Zombie_04",
        "Zombie_05",
        "Zombie_06",
        "Zombie_07",
        "Zombie_08",
        "Zombie_09",
        "Zombie_10"
      ]
    },
    {
      "level": 12,
      "experience": 0,
      "display_names": [
        "Zombie"
      ],
      "costumes": [
        "Zombie_01",
        "Zombie_02",
        "Zombie_03",
        "Zombie_04",
        "Zombie_05",
        "Zombie_06",
        "Zombie_07",
        "Zombie_08",
        "Zombie_09",
        "Zombie_10"
      ]
    },
    {
      "level": 13,
      "experience": 0,
      "display_names": [
        "Zombie"
      ],
      "costumes": [
        "Zombie_01",
        "Zombie_02",
        "Zombie_03",
        "Zombie_04",
        "Zombie_05",
        "Zombie_06",
        "Zombie_07",
        "Zombie_08",
        "Zombie_09",
        "Zombie_10"
      ]
    },
    {
      "level": 14,
      "experience": 0,
      "display_names": [
        "Zombie"
      ],
      "costumes": [
        "Zombie_01",
        "Zombie_02",
        "Zombie_03",
        "Zombie_04",
        "Zombie_05",
        "Zombie_06",
        "Zombie_07",
        "Zombie_08",
        "Zombie_09",
        "Zombie_10"
      ]
    },
    {
      "level": 15,
      "experience": 0,
      "display_names": [
        "Zombie"
      ],
      "costumes": [
        "Zombie_01",
        "Zombie_02",
        "Zombie_03",
        "Zombie_04",
        "Zombie_05",
        "Zombie_06",
        "Zombie_07",
        "Zombie_08",
        "Zombie_09",
        "Zombie_10"
      ]
    },
    {
      "level": 16,
      "experience": 0,
      "display_names": [
        "Zombie"
      ],
      "costumes": [
        "Zombie_01",
        "Zombie_02",
        "Zombie_03",
        "Zombie_04",
        "Zombie_05",
        "Zombie_06",
        "Zombie_07",
        "Zombie_08",
        "Zombie_09",
        "Zombie_10"
      ]
    },
    {
      "level": 17,
      "experience": 0,
      "display_names": [
        "Zombie"
      ],
      "costumes": [
        "Zombie_01",
        "Zombie_02",
        "Zombie_03",
        "Zombie_04",
        "Zombie_05",
        "Zombie_06",
        "Zombie_07",
        "Zombie_08",
        "Zombie_09",
        "Zombie_10"
      ]
    },
    {
      "level": 18,
      "experience": 0,
      "display_names": [
        "Zombie"
      ],
      "costumes": [
        "Zombie_01",
        "Zombie_02",
        "Zombie_03",
        "Zombie_04",
        "Zombie_05",
        "Zombie_06",
        "Zombie_07",
        "Zombie_08",
        "Zombie_09",
        "Zombie_10"
      ]
    },
    {
      "level": 19,
      "experience": 0,
      "display_names": [
        "Zombie"
      ],
      "costumes": [
        "Zombie_01",
        "Zombie_02",
        "Zombie_03",
        "Zombie_04",
        "Zombie_05",
        "Zombie_06",
        "Zombie_07",
        "Zombie_08",
        "Zombie_09",
        "Zombie_10"
      ]
    },
    {
      "level": 20,
      "experience": 0,
      "display_names": [
        "Zombie"
      ],
      "costumes": [
        "Zombie_01",
        "Zombie_02",
        "Zombie_03",
        "Zombie_04",
        "Zombie_05",
        "Zombie_06",
        "Zombie_07",
        "Zombie_08",
        "Zombie_09",
        "Zombie_10"
      ]
    },
    {
      "level": 21,
      "experience": 0,
      "display_names": [
        "Zombie"
      ],
      "costumes": [
        "Zombie_01",
        "Zombie_02",
        "Zombie_03",
        "Zombie_04",
        "Zombie_05",
        "Zombie_06",
        "Zombie_07",
        "Zombie_08",
        "Zombie_09",
        "Zombie_10"
      ]
    },
    {
      "level": 22,
      "experience": 0,
      "display_names": [
        "Zombie"
      ],
      "costumes": [
        "Zombie_01",
        "Zombie_02",
        "Zombie_03",
        "Zombie_04",
        "Zombie_05",
        "Zombie_06",
        "Zombie_07",
        "Zombie_08",
        "Zombie_09",
        "Zombie_10"
      ]
    },
    {
      "level": 23,
      "experience": 0,
      "display_names": [
        "Zombie"
      ],
      "costumes": [
        "Zombie_01",
        "Zombie_02",
        "Zombie_03",
        "Zombie_04",
        "Zombie_05",
        "Zombie_06",
        "Zombie_07",
        "Zombie_08",
        "Zombie_09",
        "Zombie_10"
      ]
    },
    {
      "level": 24,
      "experience": 0,
      "display_names": [
        "Zombie"
      ],
      "costumes": [
        "Zombie_01",
        "Zombie_02",
        "Zombie_03",
        "Zombie_04",
        "Zombie_05",
        "Zombie_06",
        "Zombie_07",
        "Zombie_08",
        "Zombie_09",
        "Zombie_10"
      ]
    },
    {
      "level": 25,
      "experience": 0,
      "display_names": [
        "Zombie"
      ],
      "costumes": [
        "Zombie_01",
        "Zombie_02",
        "Zombie_03",
        "Zombie_04",
        "Zombie_05",
        "Zombie_06",
        "Zombie_07",
        "Zombie_08",
        "Zombie_09",
        "Zombie_10"
      ]
    },
    {
      "level": 26,
      "experience": 0,
      "display_names": [
        "Zombie"
      ],
      "costumes": [
        "Zombie_01",
        "Zombie_02",
        "Zombie_03",
        "Zombie_04",
        "Zombie_05",
        "Zombie_06",
        "Zombie_07",
        "Zombie_08",
        "Zombie_09",
        "Zombie_10"
      ]
    },
    {
      "level": 27,
      "experience": 0,
      "display_names": [
        "Zombie"
      ],
      "costumes": [
        "Zombie_01",
        "Zombie_02",
        "Zombie_03",
        "Zombie_04",
        "Zombie_05",
        "Zombie_06",
        "Zombie_07",
        "Zombie_08",
        "Zombie_09",
        "Zombie_10"
      ]
    },
    {
      "level": 28,
      "experience": 0,
      "display_names": [
        "Zombie"
      ],
      "costumes": [
        "Zombie_01",
        "Zombie_02",
        "Zombie_03",
        "Zombie_04",
        "Zombie_05",
        "Zombie_06",
        "Zombie_07",
        "Zombie_08",
        "Zombie_09",
        "Zombie_10"
      ]
    },
    {
      "level": 29,
      "experience": 0,
      "display_names": [
        "Zombie"
      ],
      "costumes": [
        "Zombie_01",
        "Zombie_02",
        "Zombie_03",
        "Zombie_04",
        "Zombie_05",
        "Zombie_06",
        "Zombie_07",
        "Zombie_08",
        "Zombie_09",
        "Zombie_10"
      ]
    },
    {
      "level": 30,
      "experience": 0,
      "display_names": [
        "Zombie"
      ],
      "costumes": [
        "Zombie_01",
        "Zombie_02",
        "Zombie_03",
        "Zombie_04",
        "Zombie_05",
        "Zombie_06",
        "Zombie_07",
        "Zombie_08",
        "Zombie_09",
        "Zombie_10"
      ]
    },
    {
      "level": 31,
      "experience": 0,
      "display_names": [
        "Zombie"
      ],
      "costumes": [
        "Zombie_01",
        "Zombie_02",
        "Zombie_03",
        "Zombie_04",
        "Zombie_05",
        "Zombie_06",
        "Zombie_07",
        "Zombie_08",
        "Zombie_09",
        "Zombie_10"
      ]
    },
    {
      "level": 32,
      "experience": 0,
      "display_names": [
        "Zombie"
      ],
      "costumes": [
        "Zombie_01",
        "Zombie_02",
        "Zombie_03",
        "Zombie_04",
        "Zombie_05",
        "Zombie_06",
        "Zombie_07",
        "Zombie_08",
        "Zombie_09",
        "Zombie_10"
      ]
    },
    {
      "level": 33,
      "experience": 0,
      "display_names": [
        "Zombie"
      ],
      "costumes": [
        "Zombie_01",
        "Zombie_02",
        "Zombie_03",
        "Zombie_04",
        "Zombie_05",
        "Zombie_06",
        "Zombie_07",
        "Zombie_08",
        "Zombie_09",
        "Zombie_10"
      ]
    },
    {
      "level": 34,
      "experience": 0,
      "display_names": [
        "Zombie"
      ],
      "costumes": [
        "Zombie_01",
        "Zombie_02",
        "Zombie_03",
        "Zombie_04",
        "Zombie_05",
        "Zombie_06",
        "Zombie_07",
        "Zombie_08",
        "Zombie_09",
        "Zombie_10"
      ]
    },
    {
      "level": 35,
      "experience": 0,
      "display_names": [
        "Zombie"
      ],
      "costumes": [
        "Zombie_01",
        "Zombie_02",
        "Zombie_03",
        "Zombie_04",
        "Zombie_05",
        "Zombie_06",
        "Zombie_07",
        "Zombie_08",
        "Zombie_09",
        "Zombie_10"
      ]
    },
    {
      "level": 36,
      "experience": 0,
      "display_names": [
        "Zombie"
      ],
      "costumes": [
        "Zombie_01",
        "Zombie_02",
        "Zombie_03",
        "Zombie_04",
        "Zombie_05",
        "Zombie_06",
        "Zombie_07",
        "Zombie_08",
        "Zombie_09",
        "Zombie_10"
      ]
    },
    {
      "level": 37,
      "experience": 0,
      "display_names": [
        "Zombie"
      ],
      "costumes": [
        "Zombie_01",
        "Zombie_02",
        "Zombie_03",
        "Zombie_04",
        "Zombie_05",
        "Zombie_06",
        "Zombie_07",
        "Zombie_08",
        "Zombie_09",
        "Zombie_10"
      ]
    },
    {
      "level": 38,
      "experience": 0,
      "display_names": [
        "Zombie"
      ],
      "costumes": [
        "Zombie_01",
        "Zombie_02",
        "Zombie_03",
        "Zombie_04",
        "Zombie_05",
        "Zombie_06",
        "Zombie_07",
        "Zombie_08",
        "Zombie_09",
        "Zombie_10"
      ]
    },
    {
      "level": 39,
      "experience": 0,
      "display_names": [
        "Zombie"
      ],
      "costumes": [
        "Zombie_01",
        "Zombie_02",
        "Zombie_03",
        "Zombie_04",
        "Zombie_05",
        "Zombie_06",
        "Zombie_07",
        "Zombie_08",
        "Zombie_09",
        "Zombie_10"
      ]
    },
    {
      "level": 40,
      "experience": 0,
      "display_names": [
        "Zombie"
      ],
      "costumes": [
        "Zombie_01",
        "Zombie_02",
        "Zombie_03",
        "Zombie_04",
        "Zombie_05",
        "Zombie_06",
        "Zombie_07",
        "Zombie_08",
        "Zombie_09",
        "Zombie_10"
      ]
    },
    {
      "level": 41,
      "experience": 0,
      "display_names": [
        "Zombie"
      ],
      "costumes": [
        "Zombie_01",
        "Zombie_02",
        "Zombie_03",
        "Zombie_04",
        "Zombie_05",
        "Zombie_06",
        "Zombie_07",
        "Zombie_08",
        "Zombie_09",
        "Zombie_10"
      ]
    },
    {
      "level": 42,
      "experience": 0,
      "display_names": [
        "Zombie"
      ],
      "costumes": [
        "Zombie_01",
        "Zombie_02",
        "Zombie_03",
        "Zombie_04",
        "Zombie_05",
        "Zombie_06",
        "Zombie_07",
        "Zombie_08",
        "Zombie_09",
        "Zombie_10"
      ]
    },
    {
      "level": 43,
      "experience": 0,
      "display_names": [
        "Zombie"
      ],
      "costumes": [
        "Zombie_01",
        "Zombie_02",
        "Zombie_03",
        "Zombie_04",
        "Zombie_05",
        "Zombie_06",
        "Zombie_07",
        "Zombie_08",
        "Zombie_09",
        "Zombie_10"
      ]
    },
    {
      "level": 44,
      "experience": 0,
      "display_names": [
        "Zombie"
      ],
      "costumes": [
        "Zombie_01",
        "Zombie_02",
        "Zombie_03",
        "Zombie_04",
        "Zombie_05",
        "Zombie_06",
        "Zombie_07",
        "Zombie_08",
        "Zombie_09",
        "Zombie_10"
      ]
    },
    {
      "level": 45,
      "experience": 0,
      "display_names": [
        "Zombie"
      ],
      "costumes": [
        "Zombie_01",
        "Zombie_02",
        "Zombie_03",
        "Zombie_04",
        "Zombie_05",
        "Zombie_06",
        "Zombie_07",
        "Zombie_08",
        "Zombie_09",
        "Zombie_10"
      ]
    },
    {
      "level": 46,
      "experience": 0,
      "display_names": [
        "Zombie"
      ],
      "costumes": [
        "Zombie_01",
        "Zombie_02",
        "Zombie_03",
        "Zombie_04",
        "Zombie_05",
        "Zombie_06",
        "Zombie_07",
        "Zombie_08",
        "Zombie_09",
        "Zombie_10"
      ]
    },
    {
      "level": 47,
      "experience": 0,
      "display_names": [
        "Zombie"
      ],
      "costumes": [
        "Zombie_01",
        "Zombie_02",
        "Zombie_03",
        "Zombie_04",
        "Zombie_05",
        "Zombie_06",
        "Zombie_07",
        "Zombie_08",
        "Zombie_09",
        "Zombie_10"
      ]
    },
    {
      "level": 48,
      "experience": 0,
      "display_names": [
        "Zombie"
      ],
      "costumes": [
        "Zombie_01",
        "Zombie_02",
        "Zombie_03",
        "Zombie_04",
        "Zombie_05",
        "Zombie_06",
        "Zombie_07",
        "Zombie_08",
        "Zombie_09",
        "Zombie_10"
      ]
    },
    {
      "level": 49,
      "experience": 0,
      "display_names": [
        "Zombie"
      ],
      "costumes": [
        "Zombie_01",
        "Zombie_02",
        "Zombie_03",
        "Zombie_04",
        "Zombie_05",
        "Zombie_06",
        "Zombie_07",
        "Zombie_08",
        "Zombie_09",
        "Zombie_10"
      ]
    },
    {
      "level": 50,
      "experience": 0,
      "display_names": [
        "Zombie"
      ],
      "costumes": [
        "Zombie_01",
        "Zombie_02",
        "Zombie_03",
        "Zombie_04",
        "Zombie_05",
        "Zombie_06",
        "Zombie_07",
        "Zombie_08",
        "Zombie_09",
        "Zombie_10"
      ]
    },
    {
      "level": 51,
      "experience": 0,
      "display_names": [
        "Zombie"
      ],
      "costumes": [
        "Zombie_01",
        "Zombie_02",
        "Zombie_03",
        "Zombie_04",
        "Zombie_05",
        "Zombie_06",
        "Zombie_07",
        "Zombie_08",
        "Zombie_09",
        "Zombie_10"
      ]
    },
    {
      "level": 52,
      "experience": 0,
      "display_names": [
        "Zombie"
      ],
      "costumes": [
        "Zombie_01",
        "Zombie_02",
        "Zombie_03",
        "Zombie_04",
        "Zombie_05",
        "Zombie_06",
        "Zombie_07",
        "Zombie_08",
        "Zombie_09",
        "Zombie_10"
      ]
    },
    {
      "level": 53,
      "experience": 0,
      "display_names": [
        "Zombie"
      ],
      "costumes": [
        "Zombie_01",
        "Zombie_02",
        "Zombie_03",
        "Zombie_04",
        "Zombie_05",
        "Zombie_06",
        "Zombie_07",
        "Zombie_08",
        "Zombie_09",
        "Zombie_10"
      ]
    },
    {
      "level": 54,
      "experience": 0,
      "display_names": [
        "Zombie"
      ],
      "costumes": [
        "Zombie_01",
        "Zombie_02",
        "Zombie_03",
        "Zombie_04",
        "Zombie_05",
        "Zombie_06",
        "Zombie_07",
        "Zombie_08",
        "Zombie_09",
        "Zombie_10"
      ]
    }
  ]
}