{
  "name": "Event_PraetorianInvasion_Bobcat",
  "gender": "GENDER_FEMALE",
  "description": "Created during the tail end of the Hamidon Wars, genetic hybrids were made by a variety of military and privately owned laboratories in an attempt to create super powered soldiers to fight the Devouring Earth. Bobcat is one such experiment that merged human and feline DNA. Left abandoned and forgotten after the war she eventually escaped from the lab and roamed the streets of Praetoria City until Neuron found her.<br><br>Initially feral and incredibly bad tempered, she quickly grew accustomed to civilized life. She has taken up a near permanent residence in Studio 55, using her influence as a Praetor's girlfriend to remodel the club as she sees fit.",
  "group_description": "Praetorians",
  "display_class_name": null,
  "character_class_name": "boss_monster",
  "ai_config": "Signatures_Ranged",
  "commandable_pet": false,
  "power_tags": [
    "HumanSkeleton",
    "Human",
    "Raid"
  ],
  "additional_rewards": [

  ],
  "skill_hp_rewards": [

  ],
  "skill_status_rewards": [

  ],
  "ally": null,
  "gang": null,
  "reward_scale": 1.0,
  "game_exclusion": "None",
  "inactive_state_weapon": null,
  "ignores_combat_mods": true,
  "copy_creator_mods": false,
  "spawn_limit": 0,
  "spawn_limit_mission": 0,
  "ignore_av_to_eb_scaling": false,
  "can_zone": false,
  "custom_badge_stat": null,
  "badge_stat_flags": "DefaultBadgeStat",
  "rank": "VR_ARCHVILLAIN",
  "power_full_names": [
    "Praetorians.Bobcat.Resistance",
    "Praetorians.Bobcat.Super_Leap",
    "Praetorians.Bobcat.Swipe",
    "Praetorians.Bobcat.Strike",
    "Praetorians.Bobcat.Slash",
    "Praetorians.Bobcat.Spin",
    "Praetorians.Bobcat.Eviscerate",
    "Praetorians.Bobcat.Focus",
    "Praetorians.Bobcat.Follow_Up",
    "Praetorians.Bobcat.Shockwave",
    "Praetorians.Bobcat.Focused_Fighting",
    "Praetorians.Bobcat.Unstoppable",
    "GenericVillains.Debt_Protection_NoFX.Debt_Protection_NoFX"
  ],
  "power_display_names": [
    "Resistance",
    "Super Leap",
    "Swipe",
    "Strike",
    "Slash",
    "Spin",
    "Eviscerate",
    "Focus",
    "Follow Up",
    "Shockwave",
    "Focused Fighting",
    "Unstoppable",
    "Debt Protection"
  ],
  "power_levels": [
    0,
    0,
    0,
    0,
    0,
    0,
    0,
    0,
    0,
    0,
    0,
    0,
    0
  ],
  "powers": [
    {
      "power_category": "Praetorians",
      "power_set": "Bobcat",
      "power": "*",
      "level": 0
    },
    {
      "power_category": "GenericVillains",
      "power_set": "Debt_Protection_NoFX",
      "power": "Debt_Protection_NoFX",
      "level": 0
    }
  ],
  "levels": [
    {
      "level": 20,
      "experience": 0,
      "display_names": [
        "Bobcat"
      ],
      "costumes": [
        "Model_Bobcat_GR_NoRing"
      ]
    },
    {
      "level": 21,
      "experience": 0,
      "display_names": [
        "Bobcat"
      ],
      "costumes": [
        "Model_Bobcat_GR_NoRing"
      ]
    },
    {
      "level": 22,
      "experience": 0,
      "display_names": [
        "Bobcat"
      ],
      "costumes": [
        "Model_Bobcat_GR_NoRing"
      ]
    },
    {
      "level": 23,
      "experience": 0,
      "display_names": [
        "Bobcat"
      ],
      "costumes": [
        "Model_Bobcat_GR_NoRing"
      ]
    },
    {
      "level": 24,
      "experience": 0,
      "display_names": [
        "Bobcat"
      ],
      "costumes": [
        "Model_Bobcat_GR_NoRing"
      ]
    },
    {
      "level": 25,
      "experience": 0,
      "display_names": [
        "Bobcat"
      ],
      "costumes": [
        "Model_Bobcat_GR_NoRing"
      ]
    },
    {
      "level": 26,
      "experience": 0,
      "display_names": [
        "Bobcat"
      ],
      "costumes": [
        "Model_Bobcat_GR_NoRing"
      ]
    },
    {
      "level": 27,
      "experience": 0,
      "display_names": [
        "Bobcat"
      ],
      "costumes": [
        "Model_Bobcat_GR_NoRing"
      ]
    },
    {
      "level": 28,
      "experience": 0,
      "display_names": [
        "Bobcat"
      ],
      "costumes": [
        "Model_Bobcat_GR_NoRing"
      ]
    },
    {
      "level": 29,
      "experience": 0,
      "display_names": [
        "Bobcat"
      ],
      "costumes": [
        "Model_Bobcat_GR_NoRing"
      ]
    },
    {
      "level": 30,
      "experience": 0,
      "display_names": [
        "Bobcat"
      ],
      "costumes": [
        "Model_Bobcat_GR_NoRing"
      ]
    },
    {
      "level": 31,
      "experience": 0,
      "display_names": [
        "Bobcat"
      ],
      "costumes": [
        "Model_Bobcat_GR_NoRing"
      ]
    },
    {
      "level": 32,
      "experience": 0,
      "display_names": [
        "Bobcat"
      ],
      "costumes": [
        "Model_Bobcat_GR_NoRing"
      ]
    },
    {
      "level": 33,
      "experience": 0,
      "display_names": [
        "Bobcat"
      ],
      "costumes": [
        "Model_Bobcat_GR_NoRing"
      ]
    },
    {
      "level": 34,
      "experience": 0,
      "display_names": [
        "Bobcat"
      ],
      "costumes": [
        "Model_Bobcat_GR_NoRing"
      ]
    },
    {
      "level": 35,
      "experience": 0,
      "display_names": [
        "Bobcat"
      ],
      "costumes": [
        "Model_Bobcat_GR_NoRing"
      ]
    },
    {
      "level": 36,
      "experience": 0,
      "display_names": [
        "Bobcat"
      ],
      "costumes": [
        "Model_Bobcat_GR_NoRing"
      ]
    },
    {
      "level": 37,
      "experience": 0,
      "display_names": [
        "Bobcat"
      ],
      "costumes": [
        "Model_Bobcat_GR_NoRing"
      ]
    },
    {
      "level": 38,
      "experience": 0,
      "display_names": [
        "Bobcat"
      ],
      "costumes": [
        "Model_Bobcat_GR_NoRing"
      ]
    },
    {
      "level": 39,
      "experience": 0,
      "display_names": [
        "Bobcat"
      ],
      "costumes": [
        "Model_Bobcat_GR_NoRing"
      ]
    },
    {
      "level": 40,
      "experience": 0,
      "display_names": [
        "Bobcat"
      ],
      "costumes": [
        "Model_Bobcat_GR_NoRing"
      ]
    },
    {
      "level": 41,
      "experience": 0,
      "display_names": [
        "Bobcat"
      ],
      "costumes": [
        "Model_Bobcat_GR_NoRing"
      ]
    },
    {
      "level": 42,
      "experience": 0,
      "display_names": [
        "Bobcat"
      ],
      "costumes": [
        "Model_Bobcat_GR_NoRing"
      ]
    },
    {
      "level": 43,
      "experience": 0,
      "display_names": [
        "Bobcat"
      ],
      "costumes": [
        "Model_Bobcat_GR_NoRing"
      ]
    },
    {
      "level": 44,
      "experience": 0,
      "display_names": [
        "Bobcat"
      ],
      "costumes": [
        "Model_Bobcat_GR_NoRing"
      ]
    },
    {
      "level": 45,
      "experience": 0,
      "display_names": [
        "Bobcat"
      ],
      "costumes": [
        "Model_Bobcat_GR_NoRing"
      ]
    },
    {
      "level": 46,
      "experience": 0,
      "display_names": [
        "Bobcat"
      ],
      "costumes": [
        "Model_Bobcat_GR_NoRing"
      ]
    },
    {
      "level": 47,
      "experience": 0,
      "display_names": [
        "Bobcat"
      ],
      "costumes": [
        "Model_Bobcat_GR_NoRing"
      ]
    },
    {
      "level": 48,
      "experience": 0,
      "display_names": [
        "Bobcat"
      ],
      "costumes": [
        "Model_Bobcat_GR_NoRing"
      ]
    },
    {
      "level": 49,
      "experience": 0,
      "display_names": [
        "Bobcat"
      ],
      "costumes": [
        "Model_Bobcat_GR_NoRing"
      ]
    },
    {
      "level": 50,
      "experience": 0,
      "display_names": [
        "Bobcat"
      ],
      "costumes": [
        "Model_Bobcat_GR_NoRing"
      ]
    },
    {
      "level": 51,
      "experience": 0,
      "display_names": [
        "Bobcat"
      ],
      "costumes": [
        "Model_Bobcat_GR_NoRing"
      ]
    },
    {
      "level": 52,
      "experience": 0,
      "display_names": [
        "Bobcat"
      ],
      "costumes": [
        "Model_Bobcat_GR_NoRing"
      ]
    },
    {
      "level": 53,
      "experience": 0,
      "display_names": [
        "Bobcat"
      ],
      "costumes": [
        "Model_Bobcat_GR_NoRing"
      ]
    },
    {
      "level": 54,
      "experience": 0,
      "display_names": [
        "Bobcat"
      ],
      "costumes": [
        "Model_Bobcat_GR_NoRing"
      ]
    }
  ]
}