{
  "name": "Event_DAMonsterMayhem_ShivanMinion",
  "gender": "GENDER_MALE",
  "description": "Humanity's dark desire for mindless mayhem and destruction have been channeled by the Banner of Mayhem.   The results are these creatures that are fueled by the need to blindly destroy everything around them.",
  "group_description": "Abominations",
  "display_class_name": null,
  "character_class_name": "minion_grunt",
  "ai_config": "Event_Ranged",
  "commandable_pet": false,
  "power_tags": [
    "Undead"
  ],
  "additional_rewards": [

  ],
  "skill_hp_rewards": [

  ],
  "skill_status_rewards": [

  ],
  "ally": null,
  "gang": null,
  "reward_scale": 0.5,
  "game_exclusion": "None",
  "inactive_state_weapon": null,
  "ignores_combat_mods": true,
  "copy_creator_mods": false,
  "spawn_limit": 0,
  "spawn_limit_mission": 0,
  "ignore_av_to_eb_scaling": false,
  "can_zone": false,
  "custom_badge_stat": null,
  "badge_stat_flags": "DefaultBadgeStat",
  "rank": "VR_MINION",
  "power_full_names": [
    "V_Shivan.Shivan_Minion_Lt.Contaminated_Strike",
    "V_Shivan.Shivan_Minion_Lt.Neutrino_Bolt",
    "V_Shivan.Resistance.Resistance"
  ],
  "power_display_names": [
    "Contaminated Strike",
    "Neutrino Bolt",
    "Resistance"
  ],
  "power_levels": [
    0,
    0,
    0
  ],
  "powers": [
    {
      "power_category": "V_Shivan",
      "power_set": "Shivan_Minion_Lt",
      "power": "*",
      "level": 0
    },
    {
      "power_category": "V_Shivan",
      "power_set": "Resistance",
      "power": "*",
      "level": 0
    }
  ],
  "levels": [
    {
      "level": 30,
      "experience": 0,
      "display_names": [
        "Shambler"
      ],
      "costumes": [
        "V_Shivan"
      ]
    }
  ]
}