{
  "name": "Event_PraetorianInvasion_Dominatrix",
  "gender": "GENDER_FEMALE",
  "description": "Being the powered grand-daughter of Emperor Cole has its perks. Praetor Duncan trains new Powers Division recruits while at the same time stringing Anti-Matter along, as if he ever had a chance to be with a woman of her stature.",
  "group_description": "Praetorians",
  "display_class_name": null,
  "character_class_name": "boss_monster",
  "ai_config": "Signatures_Ranged",
  "commandable_pet": false,
  "power_tags": [
    "HumanSkeleton",
    "Human",
    "Raid"
  ],
  "additional_rewards": [

  ],
  "skill_hp_rewards": [

  ],
  "skill_status_rewards": [

  ],
  "ally": null,
  "gang": null,
  "reward_scale": 1.0,
  "game_exclusion": "None",
  "inactive_state_weapon": null,
  "ignores_combat_mods": true,
  "copy_creator_mods": false,
  "spawn_limit": 0,
  "spawn_limit_mission": 0,
  "ignore_av_to_eb_scaling": false,
  "can_zone": false,
  "custom_badge_stat": null,
  "badge_stat_flags": "DefaultBadgeStat",
  "rank": "VR_ARCHVILLAIN",
  "power_full_names": [
    "Praetorians.Dominatrix.Resistance",
    "Praetorians.Dominatrix.Crush",
    "Praetorians.Dominatrix.Gravity_Distortion",
    "Praetorians.Dominatrix.Propel",
    "Praetorians.Dominatrix.Crushing_Field",
    "Praetorians.Dominatrix.Gravity_Distortion_Field",
    "GenericVillains.Debt_Protection_NoFX.Debt_Protection_NoFX"
  ],
  "power_display_names": [
    "Resistance",
    "Crush",
    "Gravity Distortion",
    "Propel",
    "Crushing Field",
    "Gravity Distortion Field",
    "Debt Protection"
  ],
  "power_levels": [
    0,
    0,
    0,
    0,
    0,
    0,
    0
  ],
  "powers": [
    {
      "power_category": "Praetorians",
      "power_set": "Dominatrix",
      "power": "*",
      "level": 0
    },
    {
      "power_category": "GenericVillains",
      "power_set": "Debt_Protection_NoFX",
      "power": "Debt_Protection_NoFX",
      "level": 0
    }
  ],
  "levels": [
    {
      "level": 20,
      "experience": 0,
      "display_names": [
        "Dominatrix"
      ],
      "costumes": [
        "Praetor Duncan"
      ]
    },
    {
      "level": 21,
      "experience": 0,
      "display_names": [
        "Dominatrix"
      ],
      "costumes": [
        "Praetor Duncan"
      ]
    },
    {
      "level": 22,
      "experience": 0,
      "display_names": [
        "Dominatrix"
      ],
      "costumes": [
        "Praetor Duncan"
      ]
    },
    {
      "level": 23,
      "experience": 0,
      "display_names": [
        "Dominatrix"
      ],
      "costumes": [
        "Praetor Duncan"
      ]
    },
    {
      "level": 24,
      "experience": 0,
      "display_names": [
        "Dominatrix"
      ],
      "costumes": [
        "Praetor Duncan"
      ]
    },
    {
      "level": 25,
      "experience": 0,
      "display_names": [
        "Dominatrix"
      ],
      "costumes": [
        "Praetor Duncan"
      ]
    },
    {
      "level": 26,
      "experience": 0,
      "display_names": [
        "Dominatrix"
      ],
      "costumes": [
        "Praetor Duncan"
      ]
    },
    {
      "level": 27,
      "experience": 0,
      "display_names": [
        "Dominatrix"
      ],
      "costumes": [
        "Praetor Duncan"
      ]
    },
    {
      "level": 28,
      "experience": 0,
      "display_names": [
        "Dominatrix"
      ],
      "costumes": [
        "Praetor Duncan"
      ]
    },
    {
      "level": 29,
      "experience": 0,
      "display_names": [
        "Dominatrix"
      ],
      "costumes": [
        "Praetor Duncan"
      ]
    },
    {
      "level": 30,
      "experience": 0,
      "display_names": [
        "Dominatrix"
      ],
      "costumes": [
        "Praetor Duncan"
      ]
    },
    {
      "level": 31,
      "experience": 0,
      "display_names": [
        "Dominatrix"
      ],
      "costumes": [
        "Praetor Duncan"
      ]
    },
    {
      "level": 32,
      "experience": 0,
      "display_names": [
        "Dominatrix"
      ],
      "costumes": [
        "Praetor Duncan"
      ]
    },
    {
      "level": 33,
      "experience": 0,
      "display_names": [
        "Dominatrix"
      ],
      "costumes": [
        "Praetor Duncan"
      ]
    },
    {
      "level": 34,
      "experience": 0,
      "display_names": [
        "Dominatrix"
      ],
      "costumes": [
        "Praetor Duncan"
      ]
    },
    {
      "level": 35,
      "experience": 0,
      "display_names": [
        "Dominatrix"
      ],
      "costumes": [
        "Praetor Duncan"
      ]
    },
    {
      "level": 36,
      "experience": 0,
      "display_names": [
        "Dominatrix"
      ],
      "costumes": [
        "Praetor Duncan"
      ]
    },
    {
      "level": 37,
      "experience": 0,
      "display_names": [
        "Dominatrix"
      ],
      "costumes": [
        "Praetor Duncan"
      ]
    },
    {
      "level": 38,
      "experience": 0,
      "display_names": [
        "Dominatrix"
      ],
      "costumes": [
        "Praetor Duncan"
      ]
    },
    {
      "level": 39,
      "experience": 0,
      "display_names": [
        "Dominatrix"
      ],
      "costumes": [
        "Praetor Duncan"
      ]
    },
    {
      "level": 40,
      "experience": 0,
      "display_names": [
        "Dominatrix"
      ],
      "costumes": [
        "Praetor Duncan"
      ]
    },
    {
      "level": 41,
      "experience": 0,
      "display_names": [
        "Dominatrix"
      ],
      "costumes": [
        "Praetor Duncan"
      ]
    },
    {
      "level": 42,
      "experience": 0,
      "display_names": [
        "Dominatrix"
      ],
      "costumes": [
        "Praetor Duncan"
      ]
    },
    {
      "level": 43,
      "experience": 0,
      "display_names": [
        "Dominatrix"
      ],
      "costumes": [
        "Praetor Duncan"
      ]
    },
    {
      "level": 44,
      "experience": 0,
      "display_names": [
        "Dominatrix"
      ],
      "costumes": [
        "Praetor Duncan"
      ]
    },
    {
      "level": 45,
      "experience": 0,
      "display_names": [
        "Dominatrix"
      ],
      "costumes": [
        "Praetor Duncan"
      ]
    },
    {
      "level": 46,
      "experience": 0,
      "display_names": [
        "Dominatrix"
      ],
      "costumes": [
        "Praetor Duncan"
      ]
    },
    {
      "level": 47,
      "experience": 0,
      "display_names": [
        "Dominatrix"
      ],
      "costumes": [
        "Praetor Duncan"
      ]
    },
    {
      "level": 48,
      "experience": 0,
      "display_names": [
        "Dominatrix"
      ],
      "costumes": [
        "Praetor Duncan"
      ]
    },
    {
      "level": 49,
      "experience": 0,
      "display_names": [
        "Dominatrix"
      ],
      "costumes": [
        "Praetor Duncan"
      ]
    },
    {
      "level": 50,
      "experience": 0,
      "display_names": [
        "Dominatrix"
      ],
      "costumes": [
        "Praetor Duncan"
      ]
    },
    {
      "level": 51,
      "experience": 0,
      "display_names": [
        "Dominatrix"
      ],
      "costumes": [
        "Praetor Duncan"
      ]
    },
    {
      "level": 52,
      "experience": 0,
      "display_names": [
        "Dominatrix"
      ],
      "costumes": [
        "Praetor Duncan"
      ]
    },
    {
      "level": 53,
      "experience": 0,
      "display_names": [
        "Dominatrix"
      ],
      "costumes": [
        "Praetor Duncan"
      ]
    },
    {
      "level": 54,
      "experience": 0,
      "display_names": [
        "Dominatrix"
      ],
      "costumes": [
        "Praetor Duncan"
      ]
    }
  ]
}