{
  "name": "Event_Summoned_Jack_O_Lantern",
  "gender": "GENDER_MALE",
  "description": "The Tuatha De Danann and the Fir Bolg were tribes who fought for control of legendary Ireland, the Fir Bolg were the original inhabitants and refused to share the land with the Tuatha De Danann.",
  "group_description": "Fir Bolg",
  "display_class_name": null,
  "character_class_name": "minion_grunt",
  "ai_config": "Default_Ranged",
  "commandable_pet": false,
  "power_tags": [

  ],
  "additional_rewards": [

  ],
  "skill_hp_rewards": [

  ],
  "skill_status_rewards": [

  ],
  "ally": null,
  "gang": null,
  "reward_scale": 1.0,
  "game_exclusion": "None",
  "inactive_state_weapon": null,
  "ignores_combat_mods": false,
  "copy_creator_mods": false,
  "spawn_limit": 0,
  "spawn_limit_mission": 0,
  "ignore_av_to_eb_scaling": false,
  "can_zone": false,
  "custom_badge_stat": null,
  "badge_stat_flags": "DefaultBadgeStat",
  "rank": "VR_MINION",
  "power_full_names": [
    "Event.Jack_O_Lantern.Pumpkin",
    "Event.Jack_O_Lantern.Slash",
    "Event.Summon_FX.SummonFX"
  ],
  "power_display_names": [
    "Pumpkin",
    "Slash",
    "SummonFX"
  ],
  "power_levels": [
    0,
    0,
    0
  ],
  "powers": [
    {
      "power_category": "Event",
      "power_set": "Jack_O_Lantern",
      "power": "*",
      "level": 0
    },
    {
      "power_category": "Event",
      "power_set": "Summon_FX",
      "power": "*",
      "level": 0
    }
  ],
  "levels": [
    {
      "level": 1,
      "experience": 0,
      "display_names": [
        "Streng"
      ],
      "costumes": [
        "Pumpkin_Minion"
      ]
    },
    {
      "level": 2,
      "experience": 0,
      "display_names": [
        "Streng"
      ],
      "costumes": [
        "Pumpkin_Minion"
      ]
    },
    {
      "level": 3,
      "experience": 0,
      "display_names": [
        "Streng"
      ],
      "costumes": [
        "Pumpkin_Minion"
      ]
    },
    {
      "level": 4,
      "experience": 0,
      "display_names": [
        "Streng"
      ],
      "costumes": [
        "Pumpkin_Minion"
      ]
    },
    {
      "level": 5,
      "experience": 0,
      "display_names": [
        "Streng"
      ],
      "costumes": [
        "Pumpkin_Minion"
      ]
    },
    {
      "level": 6,
      "experience": 0,
      "display_names": [
        "Streng"
      ],
      "costumes": [
        "Pumpkin_Minion"
      ]
    },
    {
      "level": 7,
      "experience": 0,
      "display_names": [
        "Streng"
      ],
      "costumes": [
        "Pumpkin_Minion"
      ]
    },
    {
      "level": 8,
      "experience": 0,
      "display_names": [
        "Streng"
      ],
      "costumes": [
        "Pumpkin_Minion"
      ]
    },
    {
      "level": 9,
      "experience": 0,
      "display_names": [
        "Streng"
      ],
      "costumes": [
        "Pumpkin_Minion"
      ]
    },
    {
      "level": 10,
      "experience": 0,
      "display_names": [
        "Streng"
      ],
      "costumes": [
        "Pumpkin_Minion"
      ]
    },
    {
      "level": 11,
      "experience": 0,
      "display_names": [
        "Streng"
      ],
      "costumes": [
        "Pumpkin_Minion"
      ]
    },
    {
      "level": 12,
      "experience": 0,
      "display_names": [
        "Streng"
      ],
      "costumes": [
        "Pumpkin_Minion"
      ]
    },
    {
      "level": 13,
      "experience": 0,
      "display_names": [
        "Streng"
      ],
      "costumes": [
        "Pumpkin_Minion"
      ]
    },
    {
      "level": 14,
      "experience": 0,
      "display_names": [
        "Streng"
      ],
      "costumes": [
        "Pumpkin_Minion"
      ]
    },
    {
      "level": 15,
      "experience": 0,
      "display_names": [
        "Streng"
      ],
      "costumes": [
        "Pumpkin_Minion"
      ]
    },
    {
      "level": 16,
      "experience": 0,
      "display_names": [
        "Streng"
      ],
      "costumes": [
        "Pumpkin_Minion"
      ]
    },
    {
      "level": 17,
      "experience": 0,
      "display_names": [
        "Streng"
      ],
      "costumes": [
        "Pumpkin_Minion"
      ]
    },
    {
      "level": 18,
      "experience": 0,
      "display_names": [
        "Streng"
      ],
      "costumes": [
        "Pumpkin_Minion"
      ]
    },
    {
      "level": 19,
      "experience": 0,
      "display_names": [
        "Streng"
      ],
      "costumes": [
        "Pumpkin_Minion"
      ]
    },
    {
      "level": 20,
      "experience": 0,
      "display_names": [
        "Streng"
      ],
      "costumes": [
        "Pumpkin_Minion"
      ]
    },
    {
      "level": 21,
      "experience": 0,
      "display_names": [
        "Streng"
      ],
      "costumes": [
        "Pumpkin_Minion"
      ]
    },
    {
      "level": 22,
      "experience": 0,
      "display_names": [
        "Streng"
      ],
      "costumes": [
        "Pumpkin_Minion"
      ]
    },
    {
      "level": 23,
      "experience": 0,
      "display_names": [
        "Streng"
      ],
      "costumes": [
        "Pumpkin_Minion"
      ]
    },
    {
      "level": 24,
      "experience": 0,
      "display_names": [
        "Streng"
      ],
      "costumes": [
        "Pumpkin_Minion"
      ]
    },
    {
      "level": 25,
      "experience": 0,
      "display_names": [
        "Streng"
      ],
      "costumes": [
        "Pumpkin_Minion"
      ]
    },
    {
      "level": 26,
      "experience": 0,
      "display_names": [
        "Streng"
      ],
      "costumes": [
        "Pumpkin_Minion"
      ]
    },
    {
      "level": 27,
      "experience": 0,
      "display_names": [
        "Streng"
      ],
      "costumes": [
        "Pumpkin_Minion"
      ]
    },
    {
      "level": 28,
      "experience": 0,
      "display_names": [
        "Streng"
      ],
      "costumes": [
        "Pumpkin_Minion"
      ]
    },
    {
      "level": 29,
      "experience": 0,
      "display_names": [
        "Streng"
      ],
      "costumes": [
        "Pumpkin_Minion"
      ]
    },
    {
      "level": 30,
      "experience": 0,
      "display_names": [
        "Streng"
      ],
      "costumes": [
        "Pumpkin_Minion"
      ]
    },
    {
      "level": 31,
      "experience": 0,
      "display_names": [
        "Streng"
      ],
      "costumes": [
        "Pumpkin_Minion"
      ]
    },
    {
      "level": 32,
      "experience": 0,
      "display_names": [
        "Streng"
      ],
      "costumes": [
        "Pumpkin_Minion"
      ]
    },
    {
      "level": 33,
      "experience": 0,
      "display_names": [
        "Streng"
      ],
      "costumes": [
        "Pumpkin_Minion"
      ]
    },
    {
      "level": 34,
      "experience": 0,
      "display_names": [
        "Streng"
      ],
      "costumes": [
        "Pumpkin_Minion"
      ]
    },
    {
      "level": 35,
      "experience": 0,
      "display_names": [
        "Streng"
      ],
      "costumes": [
        "Pumpkin_Minion"
      ]
    },
    {
      "level": 36,
      "experience": 0,
      "display_names": [
        "Streng"
      ],
      "costumes": [
        "Pumpkin_Minion"
      ]
    },
    {
      "level": 37,
      "experience": 0,
      "display_names": [
        "Streng"
      ],
      "costumes": [
        "Pumpkin_Minion"
      ]
    },
    {
      "level": 38,
      "experience": 0,
      "display_names": [
        "Streng"
      ],
      "costumes": [
        "Pumpkin_Minion"
      ]
    },
    {
      "level": 39,
      "experience": 0,
      "display_names": [
        "Streng"
      ],
      "costumes": [
        "Pumpkin_Minion"
      ]
    },
    {
      "level": 40,
      "experience": 0,
      "display_names": [
        "Streng"
      ],
      "costumes": [
        "Pumpkin_Minion"
      ]
    },
    {
      "level": 41,
      "experience": 0,
      "display_names": [
        "Streng"
      ],
      "costumes": [
        "Pumpkin_Minion"
      ]
    },
    {
      "level": 42,
      "experience": 0,
      "display_names": [
        "Streng"
      ],
      "costumes": [
        "Pumpkin_Minion"
      ]
    },
    {
      "level": 43,
      "experience": 0,
      "display_names": [
        "Streng"
      ],
      "costumes": [
        "Pumpkin_Minion"
      ]
    },
    {
      "level": 44,
      "experience": 0,
      "display_names": [
        "Streng"
      ],
      "costumes": [
        "Pumpkin_Minion"
      ]
    },
    {
      "level": 45,
      "experience": 0,
      "display_names": [
        "Streng"
      ],
      "costumes": [
        "Pumpkin_Minion"
      ]
    },
    {
      "level": 46,
      "experience": 0,
      "display_names": [
        "Streng"
      ],
      "costumes": [
        "Pumpkin_Minion"
      ]
    },
    {
      "level": 47,
      "experience": 0,
      "display_names": [
        "Streng"
      ],
      "costumes": [
        "Pumpkin_Minion"
      ]
    },
    {
      "level": 48,
      "experience": 0,
      "display_names": [
        "Streng"
      ],
      "costumes": [
        "Pumpkin_Minion"
      ]
    },
    {
      "level": 49,
      "experience": 0,
      "display_names": [
        "Streng"
      ],
      "costumes": [
        "Pumpkin_Minion"
      ]
    },
    {
      "level": 50,
      "experience": 0,
      "display_names": [
        "Streng"
      ],
      "costumes": [
        "Pumpkin_Minion"
      ]
    },
    {
      "level": 51,
      "experience": 0,
      "display_names": [
        "Streng"
      ],
      "costumes": [
        "Pumpkin_Minion"
      ]
    },
    {
      "level": 52,
      "experience": 0,
      "display_names": [
        "Streng"
      ],
      "costumes": [
        "Pumpkin_Minion"
      ]
    },
    {
      "level": 53,
      "experience": 0,
      "display_names": [
        "Streng"
      ],
      "costumes": [
        "Pumpkin_Minion"
      ]
    },
    {
      "level": 54,
      "experience": 0,
      "display_names": [
        "Streng"
      ],
      "costumes": [
        "Pumpkin_Minion"
      ]
    }
  ]
}