{
  "name": "Event_DADarkFiend_WerewolfMinion",
  "gender": "GENDER_MALE",
  "description": "The depraved ugliness festering in the underbelly of humanity is called forth at The Banner of Fiends.  These Dark Fiends are a physical manifestation of pure malice, seeking calculated cruelty and malevolence, just because they can.",
  "group_description": "Dark Fiends",
  "display_class_name": null,
  "character_class_name": "minion_grunt",
  "ai_config": "Event_Melee",
  "commandable_pet": false,
  "power_tags": [

  ],
  "additional_rewards": [

  ],
  "skill_hp_rewards": [

  ],
  "skill_status_rewards": [

  ],
  "ally": null,
  "gang": null,
  "reward_scale": 0.5,
  "game_exclusion": "None",
  "inactive_state_weapon": null,
  "ignores_combat_mods": true,
  "copy_creator_mods": false,
  "spawn_limit": 0,
  "spawn_limit_mission": 0,
  "ignore_av_to_eb_scaling": false,
  "can_zone": false,
  "custom_badge_stat": null,
  "badge_stat_flags": "DefaultBadgeStat",
  "rank": "VR_MINION",
  "power_full_names": [
    "Portal.Werewolves.Claw_Swipe",
    "Portal.Werewolves.Hurl",
    "Portal.Werewolves.Wolf_Jumping",
    "Portal.Werewolves.Resistance"
  ],
  "power_display_names": [
    "Claw Swipe",
    "Hurl",
    "Wolf Jumping",
    "Resistance"
  ],
  "power_levels": [
    0,
    0,
    0,
    0
  ],
  "powers": [
    {
      "power_category": "Portal",
      "power_set": "Werewolves",
      "power": "*",
      "level": 0
    }
  ],
  "levels": [
    {
      "level": 30,
      "experience": 0,
      "display_names": [
        "Lesser Fiend"
      ],
      "costumes": [
        "Council_Nightwolf_01"
      ]
    }
  ]
}