{
  "name": "Event_DADarkFiend_WailerLieutenant",
  "gender": "GENDER_MALE",
  "description": "The depraved ugliness festering in the underbelly of humanity is called forth at The Banner of Fiends.  These Dark Fiends are a physical manifestation of pure malice, seeking calculated cruelty and malevolence, just because they can.",
  "group_description": "Dark Fiends",
  "display_class_name": null,
  "character_class_name": "lt_grunt",
  "ai_config": "Event_Ranged",
  "commandable_pet": false,
  "power_tags": [
    "Demon"
  ],
  "additional_rewards": [

  ],
  "skill_hp_rewards": [

  ],
  "skill_status_rewards": [

  ],
  "ally": null,
  "gang": null,
  "reward_scale": 0.5,
  "game_exclusion": "None",
  "inactive_state_weapon": null,
  "ignores_combat_mods": true,
  "copy_creator_mods": false,
  "spawn_limit": 0,
  "spawn_limit_mission": 0,
  "ignore_av_to_eb_scaling": false,
  "can_zone": false,
  "custom_badge_stat": null,
  "badge_stat_flags": "DefaultBadgeStat",
  "rank": "VR_LIEUTENANT",
  "power_full_names": [
    "V_Wailers.Minion.Shriek",
    "V_Wailers.Minion.Slash",
    "V_Wailers.Lt.Scream",
    "V_Wailers.Lt.Sirens_Song",
    "V_Wailers.Lt.Song_of_the_Nightingale"
  ],
  "power_display_names": [
    "Shriek",
    "Slash",
    "Scream",
    "Sirens Song",
    "Song of the Nightingale"
  ],
  "power_levels": [
    0,
    0,
    0,
    0,
    0
  ],
  "powers": [
    {
      "power_category": "V_Wailers",
      "power_set": "Minion",
      "power": "*",
      "level": 0
    },
    {
      "power_category": "V_Wailers",
      "power_set": "LT",
      "power": "*",
      "level": 0
    }
  ],
  "levels": [
    {
      "level": 30,
      "experience": 0,
      "display_names": [
        "Dark Fiend"
      ],
      "costumes": [
        "Wailer_Lieutenant_01",
        "Wailer_Lieutenant_02",
        "Wailer_Lieutenant_03"
      ]
    }
  ]
}