{
  "name": "Freaklok_Eidolon_Male",
  "gender": "GENDER_MALE",
  "description": "In a rather mundane turn for the Freaklok, the Freaklok Eidolons are not a macabre techno-horror, but the first step towards realizing the true potential of CMRj for humanity, and an inch closer to Doctor Vahzilok's original goal to defeat death. They are self-repairing and wield the power of all their Eidolon predecessors.",
  "group_description": null,
  "display_class_name": null,
  "character_class_name": "boss_grunt",
  "ai_config": "Default",
  "commandable_pet": false,
  "power_tags": [
    "HumanSkeleton"
  ],
  "additional_rewards": [

  ],
  "skill_hp_rewards": [

  ],
  "skill_status_rewards": [

  ],
  "ally": null,
  "gang": null,
  "reward_scale": 1.0,
  "game_exclusion": "None",
  "inactive_state_weapon": null,
  "ignores_combat_mods": false,
  "copy_creator_mods": false,
  "spawn_limit": 1,
  "spawn_limit_mission": 1,
  "ignore_av_to_eb_scaling": false,
  "can_zone": false,
  "custom_badge_stat": null,
  "badge_stat_flags": "DefaultBadgeStat",
  "rank": "VR_BOSS",
  "power_full_names": [
    "Vahzilok.Vahzilok_Decay_Murk_Eidolon_Powers.Shadow_Punch",
    "Vahzilok.Vahzilok_Decay_Murk_Eidolon_Powers.Dark_Embrace",
    "Vahzilok.Vahzilok_Decay_Murk_Eidolon_Powers.Dark_Blast",
    "Vahzilok.Vahzilok_Decay_Murk_Eidolon_Powers.Midnight_Grasp",
    "Vahzilok.Vahzilok_Decay_Murk_Eidolon_Powers.Oppressive_Gloom",
    "Vahzilok.Vahzilok_Decay_Murk_Eidolon_Powers.Tar_Patch",
    "Vahzilok.Vahzilok_Decay_Mire_Eidolon_Powers.Dark_Blast",
    "Vahzilok.Vahzilok_Decay_Mire_Eidolon_Powers.Night_Fall",
    "Vahzilok.Vahzilok_Decay_Mire_Eidolon_Powers.Dark_Regeneration",
    "Vahzilok.Vahzilok_Decay_Mire_Eidolon_Powers.Tenebrous_Tentacles",
    "Vahzilok.Vahzilok_Decay_Mire_Eidolon_Powers.Heart_of_Darkness",
    "Vahzilok.Vahzilok_Decay_Luminous_Eidolon_Powers.Neutrino_Bolt",
    "Vahzilok.Vahzilok_Decay_Luminous_Eidolon_Powers.Focus",
    "Vahzilok.Vahzilok_Decay_Luminous_Eidolon_Powers.Neutron_Bomb",
    "Vahzilok.Vahzilok_Decay_Luminous_Eidolon_Powers.Irradiate",
    "Vahzilok.Vahzilok_Decay_Luminous_Eidolon_Powers.Fusion",
    "Vahzilok.Vahzilok_Decay_Luminous_Eidolon_Powers.Radiation_Siphon",
    "Vahzilok.Vahzilok_Decay_Luminous_Eidolon_Powers.X-Ray_Beam",
    "Freaklok.Eidolon_Male.Gloom",
    "Freaklok.Eidolon_Male.Smite",
    "Freaklok.Eidolon_Male.Irradiate",
    "Freaklok.Eidolon_Male.Tenebrous_Tentacles",
    "Freaklok.Regeneration.Instant_Healing",
    "Freaklok.Inherent.immolation_male"
  ],
  "power_display_names": [
    "Shadow Punch",
    "Dark Embrace",
    "Dark Blast",
    "Midnight Grasp",
    "Oppressive Gloom",
    "Tar Patch",
    "Dark Blast",
    "Night Fall",
    "Dark Regeneration",
    "Tenebrous Tentacles",
    "Heart of Darkness",
    "Neutrino Bolt",
    "Focus",
    "Neutron Bomb",
    "Irradiate",
    "Fusion",
    "Radiation Siphon",
    "X-Ray Beam",
    "Gloom",
    "Smite",
    "Irradiate",
    "Tenebrous Tentacles",
    "Instant Healing",
    "Freaklok Immolated Upload"
  ],
  "power_levels": [
    0,
    0,
    0,
    0,
    0,
    0,
    0,
    0,
    0,
    0,
    0,
    0,
    0,
    0,
    0,
    0,
    0,
    0,
    0,
    0,
    0,
    0,
    0,
    0
  ],
  "powers": [
    {
      "power_category": "Vahzilok",
      "power_set": "Vahzilok_Decay_Murk_Eidolon_Powers",
      "power": "*",
      "level": 0
    },
    {
      "power_category": "Vahzilok",
      "power_set": "Vahzilok_Decay_Mire_Eidolon_Powers",
      "power": "*",
      "level": 0
    },
    {
      "power_category": "Vahzilok",
      "power_set": "Vahzilok_Decay_Luminous_Eidolon_Powers",
      "power": "*",
      "level": 0
    },
    {
      "power_category": "Freaklok",
      "power_set": "Eidolon_Male",
      "power": "*",
      "level": 0
    },
    {
      "power_category": "Freaklok",
      "power_set": "Regeneration",
      "power": "Instant_Healing",
      "level": 0
    },
    {
      "power_category": "Freaklok",
      "power_set": "Inherent",
      "power": "immolation_male",
      "level": 0
    }
  ],
  "levels": [
    {
      "level": 29,
      "experience": 0,
      "display_names": [
        "Freaklok Eidolon"
      ],
      "costumes": [
        "FRKLK_Eidola_Male"
      ]
    },
    {
      "level": 30,
      "experience": 0,
      "display_names": [
        "Freaklok Eidolon"
      ],
      "costumes": [
        "FRKLK_Eidola_Male"
      ]
    },
    {
      "level": 31,
      "experience": 0,
      "display_names": [
        "Freaklok Eidolon"
      ],
      "costumes": [
        "FRKLK_Eidola_Male"
      ]
    },
    {
      "level": 32,
      "experience": 0,
      "display_names": [
        "Freaklok Eidolon"
      ],
      "costumes": [
        "FRKLK_Eidola_Male"
      ]
    },
    {
      "level": 33,
      "experience": 0,
      "display_names": [
        "Freaklok Eidolon"
      ],
      "costumes": [
        "FRKLK_Eidola_Male"
      ]
    },
    {
      "level": 34,
      "experience": 0,
      "display_names": [
        "Freaklok Eidolon"
      ],
      "costumes": [
        "FRKLK_Eidola_Male"
      ]
    },
    {
      "level": 35,
      "experience": 0,
      "display_names": [
        "Freaklok Eidolon"
      ],
      "costumes": [
        "FRKLK_Eidola_Male"
      ]
    },
    {
      "level": 36,
      "experience": 0,
      "display_names": [
        "Freaklok Eidolon"
      ],
      "costumes": [
        "FRKLK_Eidola_Male"
      ]
    },
    {
      "level": 37,
      "experience": 0,
      "display_names": [
        "Freaklok Eidolon"
      ],
      "costumes": [
        "FRKLK_Eidola_Male"
      ]
    },
    {
      "level": 38,
      "experience": 0,
      "display_names": [
        "Freaklok Eidolon"
      ],
      "costumes": [
        "FRKLK_Eidola_Male"
      ]
    },
    {
      "level": 39,
      "experience": 0,
      "display_names": [
        "Freaklok Eidolon"
      ],
      "costumes": [
        "FRKLK_Eidola_Male"
      ]
    },
    {
      "level": 40,
      "experience": 0,
      "display_names": [
        "Freaklok Eidolon"
      ],
      "costumes": [
        "FRKLK_Eidola_Male"
      ]
    },
    {
      "level": 41,
      "experience": 0,
      "display_names": [
        "Freaklok Eidolon"
      ],
      "costumes": [
        "FRKLK_Eidola_Male"
      ]
    },
    {
      "level": 42,
      "experience": 0,
      "display_names": [
        "Freaklok Eidolon"
      ],
      "costumes": [
        "FRKLK_Eidola_Male"
      ]
    },
    {
      "level": 43,
      "experience": 0,
      "display_names": [
        "Freaklok Eidolon"
      ],
      "costumes": [
        "FRKLK_Eidola_Male"
      ]
    },
    {
      "level": 44,
      "experience": 0,
      "display_names": [
        "Freaklok Eidolon"
      ],
      "costumes": [
        "FRKLK_Eidola_Male"
      ]
    },
    {
      "level": 45,
      "experience": 0,
      "display_names": [
        "Freaklok Eidolon"
      ],
      "costumes": [
        "FRKLK_Eidola_Male"
      ]
    },
    {
      "level": 46,
      "experience": 0,
      "display_names": [
        "Freaklok Eidolon"
      ],
      "costumes": [
        "FRKLK_Eidola_Male"
      ]
    },
    {
      "level": 47,
      "experience": 0,
      "display_names": [
        "Freaklok Eidolon"
      ],
      "costumes": [
        "FRKLK_Eidola_Male"
      ]
    },
    {
      "level": 48,
      "experience": 0,
      "display_names": [
        "Freaklok Eidolon"
      ],
      "costumes": [
        "FRKLK_Eidola_Male"
      ]
    },
    {
      "level": 49,
      "experience": 0,
      "display_names": [
        "Freaklok Eidolon"
      ],
      "costumes": [
        "FRKLK_Eidola_Male"
      ]
    },
    {
      "level": 50,
      "experience": 0,
      "display_names": [
        "Freaklok Eidolon"
      ],
      "costumes": [
        "FRKLK_Eidola_Male"
      ]
    },
    {
      "level": 51,
      "experience": 0,
      "display_names": [
        "Freaklok Eidolon"
      ],
      "costumes": [
        "FRKLK_Eidola_Male"
      ]
    },
    {
      "level": 52,
      "experience": 0,
      "display_names": [
        "Freaklok Eidolon"
      ],
      "costumes": [
        "FRKLK_Eidola_Male"
      ]
    },
    {
      "level": 53,
      "experience": 0,
      "display_names": [
        "Freaklok Eidolon"
      ],
      "costumes": [
        "FRKLK_Eidola_Male"
      ]
    },
    {
      "level": 54,
      "experience": 0,
      "display_names": [
        "Freaklok Eidolon"
      ],
      "costumes": [
        "FRKLK_Eidola_Male"
      ]
    }
  ]
}