{
  "name": "Freakshow_Portal_Tank_Freak_Boss_Swiper",
  "gender": "GENDER_MALE",
  "description": "The fully armored, incredibly tough Tank Freaks are a rare breed indeed. As their name suggests, they're almost unstoppable in combat. The one ray of hope when confronting a Tank Freak is that their electronics are not always top of the line, leaving them vulnerable to energy attacks.",
  "group_description": null,
  "display_class_name": null,
  "character_class_name": "boss_grunt",
  "ai_config": "Freakshow_Tank_Freak_Boss_Swiper",
  "commandable_pet": false,
  "power_tags": [
    "HumanSkeleton",
    "Human",
    "Electronic"
  ],
  "additional_rewards": [

  ],
  "skill_hp_rewards": [

  ],
  "skill_status_rewards": [

  ],
  "ally": null,
  "gang": null,
  "reward_scale": 1.0,
  "game_exclusion": "None",
  "inactive_state_weapon": null,
  "ignores_combat_mods": false,
  "copy_creator_mods": false,
  "spawn_limit": -1,
  "spawn_limit_mission": -1,
  "ignore_av_to_eb_scaling": false,
  "can_zone": false,
  "custom_badge_stat": "kills.Freakshow_Tank_Freak_Boss_Swiper",
  "badge_stat_flags": "DefaultBadgeStat",
  "rank": "VR_BOSS",
  "power_full_names": [
    "Freakshow.Freakshow_Metal_Tank_2HSwiper_Melee.Cybernetic_Blades",
    "Freakshow.Freakshow_Metal_Tank_2HSwiper_Ranged.Sawblade",
    "Freakshow.Freakshow_Tank_Freak_Ranged.Tank_Grenade",
    "Freakshow.Freakshow_Inherent_Defense.Dull_Pain",
    "Freakshow.Freakshow_Inherent_Defense.Revive",
    "Freakshow.Freakshow_Inherent_Defense.Resistance",
    "Freakshow.Freakshow_Tank_Freak_Defense.Resistance"
  ],
  "power_display_names": [
    "Cybernetic Blades",
    "Sawblade",
    "Tank Grenade",
    "Dull Pain",
    "Revive",
    "Resistance",
    "Resistance"
  ],
  "power_levels": [
    0,
    0,
    0,
    0,
    0,
    0,
    0
  ],
  "powers": [
    {
      "power_category": "Freakshow",
      "power_set": "Freakshow_Metal_Tank_2HSwiper_Melee",
      "power": "*",
      "level": 0
    },
    {
      "power_category": "Freakshow",
      "power_set": "Freakshow_Metal_Tank_2HSwiper_Ranged",
      "power": "*",
      "level": 0
    },
    {
      "power_category": "Freakshow",
      "power_set": "Freakshow_Tank_Freak_Ranged",
      "power": "*",
      "level": 0
    },
    {
      "power_category": "Freakshow",
      "power_set": "Freakshow_Inherent_Defense",
      "power": "*",
      "level": 0
    },
    {
      "power_category": "Freakshow",
      "power_set": "Freakshow_Tank_Freak_Defense",
      "power": "*",
      "level": 0
    }
  ],
  "levels": [
    {
      "level": 40,
      "experience": 0,
      "display_names": [
        "Tank Swiper"
      ],
      "costumes": [
        "Frk_41",
        "Frk_42",
        "Frk_44",
        "Frk_45",
        "Frk_46"
      ]
    },
    {
      "level": 41,
      "experience": 0,
      "display_names": [
        "Tank Swiper"
      ],
      "costumes": [
        "Frk_41",
        "Frk_42",
        "Frk_44",
        "Frk_45",
        "Frk_46"
      ]
    },
    {
      "level": 42,
      "experience": 0,
      "display_names": [
        "Tank Swiper"
      ],
      "costumes": [
        "Frk_41",
        "Frk_42",
        "Frk_44",
        "Frk_45",
        "Frk_46"
      ]
    },
    {
      "level": 43,
      "experience": 0,
      "display_names": [
        "Tank Swiper"
      ],
      "costumes": [
        "Frk_41",
        "Frk_42",
        "Frk_44",
        "Frk_45",
        "Frk_46"
      ]
    },
    {
      "level": 44,
      "experience": 0,
      "display_names": [
        "Tank Swiper"
      ],
      "costumes": [
        "Frk_41",
        "Frk_42",
        "Frk_44",
        "Frk_45",
        "Frk_46"
      ]
    },
    {
      "level": 45,
      "experience": 0,
      "display_names": [
        "Tank Swiper"
      ],
      "costumes": [
        "Frk_41",
        "Frk_42",
        "Frk_44",
        "Frk_45",
        "Frk_46"
      ]
    },
    {
      "level": 46,
      "experience": 0,
      "display_names": [
        "Tank Swiper"
      ],
      "costumes": [
        "Frk_41",
        "Frk_42",
        "Frk_44",
        "Frk_45",
        "Frk_46"
      ]
    },
    {
      "level": 47,
      "experience": 0,
      "display_names": [
        "Tank Swiper"
      ],
      "costumes": [
        "Frk_41",
        "Frk_42",
        "Frk_44",
        "Frk_45",
        "Frk_46"
      ]
    },
    {
      "level": 48,
      "experience": 0,
      "display_names": [
        "Tank Swiper"
      ],
      "costumes": [
        "Frk_41",
        "Frk_42",
        "Frk_44",
        "Frk_45",
        "Frk_46"
      ]
    },
    {
      "level": 49,
      "experience": 0,
      "display_names": [
        "Tank Swiper"
      ],
      "costumes": [
        "Frk_41",
        "Frk_42",
        "Frk_44",
        "Frk_45",
        "Frk_46"
      ]
    },
    {
      "level": 50,
      "experience": 0,
      "display_names": [
        "Tank Swiper"
      ],
      "costumes": [
        "Frk_41",
        "Frk_42",
        "Frk_44",
        "Frk_45",
        "Frk_46"
      ]
    },
    {
      "level": 51,
      "experience": 0,
      "display_names": [
        "Tank Swiper"
      ],
      "costumes": [
        "Frk_41",
        "Frk_42",
        "Frk_44",
        "Frk_45",
        "Frk_46"
      ]
    },
    {
      "level": 52,
      "experience": 0,
      "display_names": [
        "Tank Swiper"
      ],
      "costumes": [
        "Frk_41",
        "Frk_42",
        "Frk_44",
        "Frk_45",
        "Frk_46"
      ]
    },
    {
      "level": 53,
      "experience": 0,
      "display_names": [
        "Tank Swiper"
      ],
      "costumes": [
        "Frk_41",
        "Frk_42",
        "Frk_44",
        "Frk_45",
        "Frk_46"
      ]
    },
    {
      "level": 54,
      "experience": 0,
      "display_names": [
        "Tank Swiper"
      ],
      "costumes": [
        "Frk_41",
        "Frk_42",
        "Frk_44",
        "Frk_45",
        "Frk_46"
      ]
    }
  ]
}