{
  "name": "Freaklok_Cadaver_01_NoRez",
  "gender": "GENDER_MALE",
  "description": "This trial run of Dr. Pierce's interpretations of CMRj, applied to existing Vahzilok cadaver methodology, has resulted in a promising first batch of electrified grunts with internal and external tesla coils.",
  "group_description": null,
  "display_class_name": null,
  "character_class_name": "minion_grunt",
  "ai_config": "Default_Melee",
  "commandable_pet": false,
  "power_tags": [
    "HumanSkeleton"
  ],
  "additional_rewards": [

  ],
  "skill_hp_rewards": [

  ],
  "skill_status_rewards": [

  ],
  "ally": null,
  "gang": null,
  "reward_scale": 1.1,
  "game_exclusion": "None",
  "inactive_state_weapon": null,
  "ignores_combat_mods": false,
  "copy_creator_mods": false,
  "spawn_limit": -1,
  "spawn_limit_mission": -1,
  "ignore_av_to_eb_scaling": false,
  "can_zone": false,
  "custom_badge_stat": null,
  "badge_stat_flags": "DefaultBadgeStat",
  "rank": "VR_MINION",
  "power_full_names": [
    "Vahzilok.Vahzilok_Cadaver_Slab_Minion_Powers_Defense.Resistance",
    "Vahzilok.Vahzilok_Cadaver_Slab_Minion_Powers_Ranged.Projectile_Vomit",
    "Freaklok.Cadaver_Attacks.Charged_Brawl",
    "Freaklok.Cadaver_Attacks.Jacobs_Ladder",
    "Freaklok.Necrotic_Detonations.LokReboot_Male",
    "Freaklok.Inherent.immolation_male",
    "Freaklok.Movement.Swift"
  ],
  "power_display_names": [
    "Resistance",
    "Projectile Vomit",
    "Charged Brawl",
    "Jacobs Ladder",
    "Lok Reboot",
    "Freaklok Immolated Upload",
    "Swift"
  ],
  "power_levels": [
    0,
    0,
    0,
    0,
    0,
    0,
    0
  ],
  "powers": [
    {
      "power_category": "Vahzilok",
      "power_set": "Vahzilok_Cadaver_Slab_Minion_Powers_Defense",
      "power": "*",
      "level": 0
    },
    {
      "power_category": "Vahzilok",
      "power_set": "Vahzilok_Cadaver_Slab_Minion_Powers_Ranged",
      "power": "*",
      "level": 0
    },
    {
      "power_category": "Freaklok",
      "power_set": "Cadaver_Attacks",
      "power": "Charged_Brawl",
      "level": 0
    },
    {
      "power_category": "Freaklok",
      "power_set": "Cadaver_Attacks",
      "power": "Jacobs_Ladder",
      "level": 0
    },
    {
      "power_category": "Freaklok",
      "power_set": "Necrotic_Detonations",
      "power": "LokReboot_Male",
      "level": 0
    },
    {
      "power_category": "Freaklok",
      "power_set": "Inherent",
      "power": "immolation_male",
      "level": 0
    },
    {
      "power_category": "Freaklok",
      "power_set": "Movement",
      "power": "Swift",
      "level": 0
    }
  ],
  "levels": [
    {
      "level": 29,
      "experience": 0,
      "display_names": [
        "Freaklok Juiced Cadaver"
      ],
      "costumes": [
        "Frklk_Cadaver01a",
        "Frklk_Cadaver01b",
        "Frklk_Cadaver01c",
        "Frklk_Cadaver01d"
      ]
    },
    {
      "level": 30,
      "experience": 0,
      "display_names": [
        "Freaklok Juiced Cadaver"
      ],
      "costumes": [
        "Frklk_Cadaver01a",
        "Frklk_Cadaver01b",
        "Frklk_Cadaver01c",
        "Frklk_Cadaver01d"
      ]
    },
    {
      "level": 31,
      "experience": 0,
      "display_names": [
        "Freaklok Juiced Cadaver"
      ],
      "costumes": [
        "Frklk_Cadaver01a",
        "Frklk_Cadaver01b",
        "Frklk_Cadaver01c",
        "Frklk_Cadaver01d"
      ]
    },
    {
      "level": 32,
      "experience": 0,
      "display_names": [
        "Freaklok Juiced Cadaver"
      ],
      "costumes": [
        "Frklk_Cadaver01a",
        "Frklk_Cadaver01b",
        "Frklk_Cadaver01c",
        "Frklk_Cadaver01d"
      ]
    },
    {
      "level": 33,
      "experience": 0,
      "display_names": [
        "Freaklok Juiced Cadaver"
      ],
      "costumes": [
        "Frklk_Cadaver01a",
        "Frklk_Cadaver01b",
        "Frklk_Cadaver01c",
        "Frklk_Cadaver01d"
      ]
    },
    {
      "level": 34,
      "experience": 0,
      "display_names": [
        "Freaklok Juiced Cadaver"
      ],
      "costumes": [
        "Frklk_Cadaver01a",
        "Frklk_Cadaver01b",
        "Frklk_Cadaver01c",
        "Frklk_Cadaver01d"
      ]
    },
    {
      "level": 35,
      "experience": 0,
      "display_names": [
        "Freaklok Juiced Cadaver"
      ],
      "costumes": [
        "Frklk_Cadaver01a",
        "Frklk_Cadaver01b",
        "Frklk_Cadaver01c",
        "Frklk_Cadaver01d"
      ]
    },
    {
      "level": 36,
      "experience": 0,
      "display_names": [
        "Freaklok Juiced Cadaver"
      ],
      "costumes": [
        "Frklk_Cadaver01a",
        "Frklk_Cadaver01b",
        "Frklk_Cadaver01c",
        "Frklk_Cadaver01d"
      ]
    },
    {
      "level": 37,
      "experience": 0,
      "display_names": [
        "Freaklok Juiced Cadaver"
      ],
      "costumes": [
        "Frklk_Cadaver01a",
        "Frklk_Cadaver01b",
        "Frklk_Cadaver01c",
        "Frklk_Cadaver01d"
      ]
    },
    {
      "level": 38,
      "experience": 0,
      "display_names": [
        "Freaklok Juiced Cadaver"
      ],
      "costumes": [
        "Frklk_Cadaver01a",
        "Frklk_Cadaver01b",
        "Frklk_Cadaver01c",
        "Frklk_Cadaver01d"
      ]
    },
    {
      "level": 39,
      "experience": 0,
      "display_names": [
        "Freaklok Juiced Cadaver"
      ],
      "costumes": [
        "Frklk_Cadaver01a",
        "Frklk_Cadaver01b",
        "Frklk_Cadaver01c",
        "Frklk_Cadaver01d"
      ]
    },
    {
      "level": 40,
      "experience": 0,
      "display_names": [
        "Freaklok Juiced Cadaver"
      ],
      "costumes": [
        "Frklk_Cadaver01a",
        "Frklk_Cadaver01b",
        "Frklk_Cadaver01c",
        "Frklk_Cadaver01d"
      ]
    },
    {
      "level": 41,
      "experience": 0,
      "display_names": [
        "Freaklok Juiced Cadaver"
      ],
      "costumes": [
        "Frklk_Cadaver01a",
        "Frklk_Cadaver01b",
        "Frklk_Cadaver01c",
        "Frklk_Cadaver01d"
      ]
    },
    {
      "level": 42,
      "experience": 0,
      "display_names": [
        "Freaklok Juiced Cadaver"
      ],
      "costumes": [
        "Frklk_Cadaver01a",
        "Frklk_Cadaver01b",
        "Frklk_Cadaver01c",
        "Frklk_Cadaver01d"
      ]
    },
    {
      "level": 43,
      "experience": 0,
      "display_names": [
        "Freaklok Juiced Cadaver"
      ],
      "costumes": [
        "Frklk_Cadaver01a",
        "Frklk_Cadaver01b",
        "Frklk_Cadaver01c",
        "Frklk_Cadaver01d"
      ]
    },
    {
      "level": 44,
      "experience": 0,
      "display_names": [
        "Freaklok Juiced Cadaver"
      ],
      "costumes": [
        "Frklk_Cadaver01a",
        "Frklk_Cadaver01b",
        "Frklk_Cadaver01c",
        "Frklk_Cadaver01d"
      ]
    },
    {
      "level": 45,
      "experience": 0,
      "display_names": [
        "Freaklok Juiced Cadaver"
      ],
      "costumes": [
        "Frklk_Cadaver01a",
        "Frklk_Cadaver01b",
        "Frklk_Cadaver01c",
        "Frklk_Cadaver01d"
      ]
    },
    {
      "level": 46,
      "experience": 0,
      "display_names": [
        "Freaklok Juiced Cadaver"
      ],
      "costumes": [
        "Frklk_Cadaver01a",
        "Frklk_Cadaver01b",
        "Frklk_Cadaver01c",
        "Frklk_Cadaver01d"
      ]
    },
    {
      "level": 47,
      "experience": 0,
      "display_names": [
        "Freaklok Juiced Cadaver"
      ],
      "costumes": [
        "Frklk_Cadaver01a",
        "Frklk_Cadaver01b",
        "Frklk_Cadaver01c",
        "Frklk_Cadaver01d"
      ]
    },
    {
      "level": 48,
      "experience": 0,
      "display_names": [
        "Freaklok Juiced Cadaver"
      ],
      "costumes": [
        "Frklk_Cadaver01a",
        "Frklk_Cadaver01b",
        "Frklk_Cadaver01c",
        "Frklk_Cadaver01d"
      ]
    },
    {
      "level": 49,
      "experience": 0,
      "display_names": [
        "Freaklok Juiced Cadaver"
      ],
      "costumes": [
        "Frklk_Cadaver01a",
        "Frklk_Cadaver01b",
        "Frklk_Cadaver01c",
        "Frklk_Cadaver01d"
      ]
    },
    {
      "level": 50,
      "experience": 0,
      "display_names": [
        "Freaklok Juiced Cadaver"
      ],
      "costumes": [
        "Frklk_Cadaver01a",
        "Frklk_Cadaver01b",
        "Frklk_Cadaver01c",
        "Frklk_Cadaver01d"
      ]
    },
    {
      "level": 51,
      "experience": 0,
      "display_names": [
        "Freaklok Juiced Cadaver"
      ],
      "costumes": [
        "Frklk_Cadaver01a",
        "Frklk_Cadaver01b",
        "Frklk_Cadaver01c",
        "Frklk_Cadaver01d"
      ]
    },
    {
      "level": 52,
      "experience": 0,
      "display_names": [
        "Freaklok Juiced Cadaver"
      ],
      "costumes": [
        "Frklk_Cadaver01a",
        "Frklk_Cadaver01b",
        "Frklk_Cadaver01c",
        "Frklk_Cadaver01d"
      ]
    },
    {
      "level": 53,
      "experience": 0,
      "display_names": [
        "Freaklok Juiced Cadaver"
      ],
      "costumes": [
        "Frklk_Cadaver01a",
        "Frklk_Cadaver01b",
        "Frklk_Cadaver01c",
        "Frklk_Cadaver01d"
      ]
    },
    {
      "level": 54,
      "experience": 0,
      "display_names": [
        "Freaklok Juiced Cadaver"
      ],
      "costumes": [
        "Frklk_Cadaver01a",
        "Frklk_Cadaver01b",
        "Frklk_Cadaver01c",
        "Frklk_Cadaver01d"
      ]
    }
  ]
}