{
  "name": "Freakshow_Super_Freak",
  "gender": "GENDER_MALE",
  "description": "The Superfreak was created by Doc Buzzsaw by implanting magically-imbued prosthetics into a Tank Freak. Now the Superfreak possesses necromantic abilities in addition to his formidable fighting powers.",
  "group_description": null,
  "display_class_name": null,
  "character_class_name": "boss_elite",
  "ai_config": "Freakshow_Tank_Freak_Boss_Smasher",
  "commandable_pet": false,
  "power_tags": [
    "HumanSkeleton",
    "Human",
    "Electronic"
  ],
  "additional_rewards": [

  ],
  "skill_hp_rewards": [

  ],
  "skill_status_rewards": [

  ],
  "ally": null,
  "gang": null,
  "reward_scale": 1.0,
  "game_exclusion": "None",
  "inactive_state_weapon": null,
  "ignores_combat_mods": false,
  "copy_creator_mods": false,
  "spawn_limit": 0,
  "spawn_limit_mission": 0,
  "ignore_av_to_eb_scaling": false,
  "can_zone": false,
  "custom_badge_stat": null,
  "badge_stat_flags": "DefaultBadgeStat",
  "rank": "VR_ELITE",
  "power_full_names": [
    "Freakshow.Super_Freak.Shadow_Punch",
    "Freakshow.Super_Freak.Smite",
    "Freakshow.Super_Freak.Siphon_Life",
    "Freakshow.Super_Freak.Gloom",
    "Freakshow.Super_Freak.Life_Drain",
    "Freakshow.Super_Freak.Tenebrous_Tentacles",
    "Freakshow.Freakshow_Inherent_Defense.Dull_Pain",
    "Freakshow.Freakshow_Inherent_Defense.Revive",
    "Freakshow.Freakshow_Inherent_Defense.Resistance",
    "Freakshow.Freakshow_Tank_Freak_Defense.Resistance",
    "Freakshow.Super_Freak.Shadow_Punch",
    "Freakshow.Super_Freak.Smite",
    "Freakshow.Super_Freak.Siphon_Life",
    "Freakshow.Super_Freak.Gloom",
    "Freakshow.Super_Freak.Life_Drain",
    "Freakshow.Super_Freak.Tenebrous_Tentacles"
  ],
  "power_display_names": [
    "Shadow Punch",
    "Smite",
    "Siphon Life",
    "Gloom",
    "Life Drain",
    "Tenebrous Tentacles",
    "Dull Pain",
    "Revive",
    "Resistance",
    "Resistance",
    "Shadow Punch",
    "Smite",
    "Siphon Life",
    "Gloom",
    "Life Drain",
    "Tenebrous Tentacles"
  ],
  "power_levels": [
    0,
    0,
    0,
    0,
    0,
    0,
    0,
    0,
    0,
    0,
    0,
    0,
    0,
    0,
    0,
    0
  ],
  "powers": [
    {
      "power_category": "Freakshow",
      "power_set": "Super_Freak",
      "power": "*",
      "level": 0
    },
    {
      "power_category": "Freakshow",
      "power_set": "Freakshow_Inherent_Defense",
      "power": "*",
      "level": 0
    },
    {
      "power_category": "Freakshow",
      "power_set": "Freakshow_Tank_Freak_Defense",
      "power": "*",
      "level": 0
    },
    {
      "power_category": "Freakshow",
      "power_set": "Super_Freak",
      "power": "*",
      "level": 0
    }
  ],
  "levels": [
    {
      "level": 25,
      "experience": 0,
      "display_names": [
        "Super Freak"
      ],
      "costumes": [
        "Model_Superfreak"
      ]
    },
    {
      "level": 26,
      "experience": 0,
      "display_names": [
        "Super Freak"
      ],
      "costumes": [
        "Model_Superfreak"
      ]
    },
    {
      "level": 27,
      "experience": 0,
      "display_names": [
        "Super Freak"
      ],
      "costumes": [
        "Model_Superfreak"
      ]
    },
    {
      "level": 28,
      "experience": 0,
      "display_names": [
        "Super Freak"
      ],
      "costumes": [
        "Model_Superfreak"
      ]
    },
    {
      "level": 29,
      "experience": 0,
      "display_names": [
        "Super Freak"
      ],
      "costumes": [
        "Model_Superfreak"
      ]
    },
    {
      "level": 30,
      "experience": 0,
      "display_names": [
        "Super Freak"
      ],
      "costumes": [
        "Model_Superfreak"
      ]
    },
    {
      "level": 31,
      "experience": 0,
      "display_names": [
        "Super Freak"
      ],
      "costumes": [
        "Model_Superfreak"
      ]
    }
  ]
}