{
  "name": "Freaklok_Mire_Male",
  "gender": "GENDER_MALE",
  "description": "The Freaklok are not a homogenous group, and these Eidolons have passed the minimum requirements for CMRj repair and improvement. As a result, these Eidolons can weaponize their physiologies to periodically emit pheromones that stun unsuspecting supers.",
  "group_description": null,
  "display_class_name": null,
  "character_class_name": "minion_grunt",
  "ai_config": "Default_Melee",
  "commandable_pet": false,
  "power_tags": [
    "HumanSkeleton"
  ],
  "additional_rewards": [

  ],
  "skill_hp_rewards": [

  ],
  "skill_status_rewards": [

  ],
  "ally": null,
  "gang": null,
  "reward_scale": 1.0,
  "game_exclusion": "None",
  "inactive_state_weapon": null,
  "ignores_combat_mods": false,
  "copy_creator_mods": false,
  "spawn_limit": -1,
  "spawn_limit_mission": -1,
  "ignore_av_to_eb_scaling": false,
  "can_zone": false,
  "custom_badge_stat": null,
  "badge_stat_flags": "DefaultBadgeStat",
  "rank": "VR_MINION",
  "power_full_names": [
    "Vahzilok.Vahzilok_Decay_Mire_Eidolon_Powers.Dark_Blast",
    "Vahzilok.Vahzilok_Decay_Mire_Eidolon_Powers.Night_Fall",
    "Vahzilok.Vahzilok_Decay_Mire_Eidolon_Powers.Dark_Regeneration",
    "Vahzilok.Vahzilok_Decay_Mire_Eidolon_Powers.Tenebrous_Tentacles",
    "Vahzilok.Vahzilok_Decay_Mire_Eidolon_Powers.Heart_of_Darkness",
    "Freaklok.Necrotic_Detonations.CorpseGas_Male",
    "Freaklok.Inherent.immolation_male"
  ],
  "power_display_names": [
    "Dark Blast",
    "Night Fall",
    "Dark Regeneration",
    "Tenebrous Tentacles",
    "Heart of Darkness",
    "Corpse Gas",
    "Freaklok Immolated Upload"
  ],
  "power_levels": [
    0,
    0,
    0,
    0,
    0,
    0,
    0
  ],
  "powers": [
    {
      "power_category": "Vahzilok",
      "power_set": "Vahzilok_Decay_Mire_Eidolon_Powers",
      "power": "*",
      "level": 0
    },
    {
      "power_category": "Freaklok",
      "power_set": "Necrotic_Detonations",
      "power": "CorpseGas_Male",
      "level": 0
    },
    {
      "power_category": "Freaklok",
      "power_set": "Inherent",
      "power": "immolation_male",
      "level": 0
    }
  ],
  "levels": [
    {
      "level": 29,
      "experience": 0,
      "display_names": [
        "Shambling Mire Eidolon"
      ],
      "costumes": [
        "FRKLK_Shambling_MireM"
      ]
    },
    {
      "level": 30,
      "experience": 0,
      "display_names": [
        "Shambling Mire Eidolon"
      ],
      "costumes": [
        "FRKLK_Shambling_MireM"
      ]
    },
    {
      "level": 31,
      "experience": 0,
      "display_names": [
        "Shambling Mire Eidolon"
      ],
      "costumes": [
        "FRKLK_Shambling_MireM"
      ]
    },
    {
      "level": 32,
      "experience": 0,
      "display_names": [
        "Shambling Mire Eidolon"
      ],
      "costumes": [
        "FRKLK_Shambling_MireM"
      ]
    },
    {
      "level": 33,
      "experience": 0,
      "display_names": [
        "Shambling Mire Eidolon"
      ],
      "costumes": [
        "FRKLK_Shambling_MireM"
      ]
    },
    {
      "level": 34,
      "experience": 0,
      "display_names": [
        "Shambling Mire Eidolon"
      ],
      "costumes": [
        "FRKLK_Shambling_MireM"
      ]
    },
    {
      "level": 35,
      "experience": 0,
      "display_names": [
        "Shambling Mire Eidolon"
      ],
      "costumes": [
        "FRKLK_Shambling_MireM"
      ]
    },
    {
      "level": 36,
      "experience": 0,
      "display_names": [
        "Shambling Mire Eidolon"
      ],
      "costumes": [
        "FRKLK_Shambling_MireM"
      ]
    },
    {
      "level": 37,
      "experience": 0,
      "display_names": [
        "Shambling Mire Eidolon"
      ],
      "costumes": [
        "FRKLK_Shambling_MireM"
      ]
    },
    {
      "level": 38,
      "experience": 0,
      "display_names": [
        "Shambling Mire Eidolon"
      ],
      "costumes": [
        "FRKLK_Shambling_MireM"
      ]
    },
    {
      "level": 39,
      "experience": 0,
      "display_names": [
        "Shambling Mire Eidolon"
      ],
      "costumes": [
        "FRKLK_Shambling_MireM"
      ]
    },
    {
      "level": 40,
      "experience": 0,
      "display_names": [
        "Shambling Mire Eidolon"
      ],
      "costumes": [
        "FRKLK_Shambling_MireM"
      ]
    },
    {
      "level": 41,
      "experience": 0,
      "display_names": [
        "Shambling Mire Eidolon"
      ],
      "costumes": [
        "FRKLK_Shambling_MireM"
      ]
    },
    {
      "level": 42,
      "experience": 0,
      "display_names": [
        "Shambling Mire Eidolon"
      ],
      "costumes": [
        "FRKLK_Shambling_MireM"
      ]
    },
    {
      "level": 43,
      "experience": 0,
      "display_names": [
        "Shambling Mire Eidolon"
      ],
      "costumes": [
        "FRKLK_Shambling_MireM"
      ]
    },
    {
      "level": 44,
      "experience": 0,
      "display_names": [
        "Shambling Mire Eidolon"
      ],
      "costumes": [
        "FRKLK_Shambling_MireM"
      ]
    },
    {
      "level": 45,
      "experience": 0,
      "display_names": [
        "Shambling Mire Eidolon"
      ],
      "costumes": [
        "FRKLK_Shambling_MireM"
      ]
    },
    {
      "level": 46,
      "experience": 0,
      "display_names": [
        "Shambling Mire Eidolon"
      ],
      "costumes": [
        "FRKLK_Shambling_MireM"
      ]
    },
    {
      "level": 47,
      "experience": 0,
      "display_names": [
        "Shambling Mire Eidolon"
      ],
      "costumes": [
        "FRKLK_Shambling_MireM"
      ]
    },
    {
      "level": 48,
      "experience": 0,
      "display_names": [
        "Shambling Mire Eidolon"
      ],
      "costumes": [
        "FRKLK_Shambling_MireM"
      ]
    },
    {
      "level": 49,
      "experience": 0,
      "display_names": [
        "Shambling Mire Eidolon"
      ],
      "costumes": [
        "FRKLK_Shambling_MireM"
      ]
    },
    {
      "level": 50,
      "experience": 0,
      "display_names": [
        "Shambling Mire Eidolon"
      ],
      "costumes": [
        "FRKLK_Shambling_MireM"
      ]
    },
    {
      "level": 51,
      "experience": 0,
      "display_names": [
        "Shambling Mire Eidolon"
      ],
      "costumes": [
        "FRKLK_Shambling_MireM"
      ]
    },
    {
      "level": 52,
      "experience": 0,
      "display_names": [
        "Shambling Mire Eidolon"
      ],
      "costumes": [
        "FRKLK_Shambling_MireM"
      ]
    },
    {
      "level": 53,
      "experience": 0,
      "display_names": [
        "Shambling Mire Eidolon"
      ],
      "costumes": [
        "FRKLK_Shambling_MireM"
      ]
    },
    {
      "level": 54,
      "experience": 0,
      "display_names": [
        "Shambling Mire Eidolon"
      ],
      "costumes": [
        "FRKLK_Shambling_MireM"
      ]
    }
  ]
}