{
  "name": "Freakshow_Sneaky_Swiper_Minion_NoSpawn",
  "gender": "GENDER_MALE",
  "description": "Sneaky Freaks have been outfitted with a cloaking device to make them nearly undetectable. Combined with their deadly cybernetic weapons, these Sneaky Freaks are enemies to be reckoned with!",
  "group_description": null,
  "display_class_name": null,
  "character_class_name": "minion_grunt",
  "ai_config": "Default_Melee",
  "commandable_pet": false,
  "power_tags": [
    "HumanSkeleton",
    "Human",
    "Electronic"
  ],
  "additional_rewards": [

  ],
  "skill_hp_rewards": [

  ],
  "skill_status_rewards": [

  ],
  "ally": null,
  "gang": null,
  "reward_scale": 0.95,
  "game_exclusion": "None",
  "inactive_state_weapon": null,
  "ignores_combat_mods": false,
  "copy_creator_mods": false,
  "spawn_limit": 0,
  "spawn_limit_mission": 0,
  "ignore_av_to_eb_scaling": false,
  "can_zone": false,
  "custom_badge_stat": null,
  "badge_stat_flags": "DefaultBadgeStat",
  "rank": "VR_MINION",
  "power_full_names": [
    "Freakshow.Freakshow_Enforcers_Metal_Tank_1HSwiper_Melee.Cybernetic_Blade",
    "Freakshow.Freakshow_Metal_Tank_2HSwiper_Melee.Cybernetic_Blades",
    "Freakshow.Freakshow_Metal_Tank_2HSwiper_Ranged.Sawblade",
    "Freakshow.Freakshow_Inherent_Defense.Dull_Pain",
    "Freakshow.Freakshow_Inherent_Defense.Revive",
    "Freakshow.Freakshow_Inherent_Defense.Resistance",
    "Freakshow.Sneaky_Freaks.Cloaking_Device",
    "SkyRaiders.Sky_Raider_Porters_Movement.Teleport"
  ],
  "power_display_names": [
    "Cybernetic Blade",
    "Cybernetic Blades",
    "Sawblade",
    "Dull Pain",
    "Revive",
    "Resistance",
    "Cloaking Device",
    "Teleport"
  ],
  "power_levels": [
    0,
    0,
    0,
    0,
    0,
    0,
    0,
    0
  ],
  "powers": [
    {
      "power_category": "Freakshow",
      "power_set": "Freakshow_Enforcers_Metal_Tank_1HSwiper_Melee",
      "power": "*",
      "level": 0
    },
    {
      "power_category": "Freakshow",
      "power_set": "Freakshow_Metal_Tank_2HSwiper_Melee",
      "power": "*",
      "level": 0
    },
    {
      "power_category": "Freakshow",
      "power_set": "Freakshow_Metal_Tank_2HSwiper_Ranged",
      "power": "*",
      "level": 0
    },
    {
      "power_category": "Freakshow",
      "power_set": "Freakshow_Inherent_Defense",
      "power": "*",
      "level": 0
    },
    {
      "power_category": "Freakshow",
      "power_set": "Sneaky_Freaks",
      "power": "*",
      "level": 0
    },
    {
      "power_category": "SkyRaiders",
      "power_set": "Sky_Raider_Porters_Movement",
      "power": "Teleport",
      "level": 0
    }
  ],
  "levels": [
    {
      "level": 29,
      "experience": 0,
      "display_names": [
        "Sneaky Swiper"
      ],
      "costumes": [
        "Sneaky_Freaks_01",
        "Sneaky_Freaks_02",
        "Sneaky_Freaks_03",
        "Sneaky_Freaks_04",
        "Sneaky_Freaks_05",
        "Sneaky_Freaks_06",
        "Sneaky_Freaks_07",
        "Sneaky_Freaks_08"
      ]
    },
    {
      "level": 30,
      "experience": 0,
      "display_names": [
        "Sneaky Swiper"
      ],
      "costumes": [
        "Sneaky_Freaks_01",
        "Sneaky_Freaks_02",
        "Sneaky_Freaks_03",
        "Sneaky_Freaks_04",
        "Sneaky_Freaks_05",
        "Sneaky_Freaks_06",
        "Sneaky_Freaks_07",
        "Sneaky_Freaks_08"
      ]
    },
    {
      "level": 31,
      "experience": 0,
      "display_names": [
        "Sneaky Swiper"
      ],
      "costumes": [
        "Sneaky_Freaks_01",
        "Sneaky_Freaks_02",
        "Sneaky_Freaks_03",
        "Sneaky_Freaks_04",
        "Sneaky_Freaks_05",
        "Sneaky_Freaks_06",
        "Sneaky_Freaks_07",
        "Sneaky_Freaks_08"
      ]
    },
    {
      "level": 32,
      "experience": 0,
      "display_names": [
        "Sneaky Swiper"
      ],
      "costumes": [
        "Sneaky_Freaks_01",
        "Sneaky_Freaks_02",
        "Sneaky_Freaks_03",
        "Sneaky_Freaks_04",
        "Sneaky_Freaks_05",
        "Sneaky_Freaks_06",
        "Sneaky_Freaks_07",
        "Sneaky_Freaks_08"
      ]
    },
    {
      "level": 33,
      "experience": 0,
      "display_names": [
        "Sneaky Swiper"
      ],
      "costumes": [
        "Sneaky_Freaks_01",
        "Sneaky_Freaks_02",
        "Sneaky_Freaks_03",
        "Sneaky_Freaks_04",
        "Sneaky_Freaks_05",
        "Sneaky_Freaks_06",
        "Sneaky_Freaks_07",
        "Sneaky_Freaks_08"
      ]
    },
    {
      "level": 34,
      "experience": 0,
      "display_names": [
        "Sneaky Swiper"
      ],
      "costumes": [
        "Sneaky_Freaks_01",
        "Sneaky_Freaks_02",
        "Sneaky_Freaks_03",
        "Sneaky_Freaks_04",
        "Sneaky_Freaks_05",
        "Sneaky_Freaks_06",
        "Sneaky_Freaks_07",
        "Sneaky_Freaks_08"
      ]
    },
    {
      "level": 35,
      "experience": 0,
      "display_names": [
        "Sneaky Swiper"
      ],
      "costumes": [
        "Sneaky_Freaks_01",
        "Sneaky_Freaks_02",
        "Sneaky_Freaks_03",
        "Sneaky_Freaks_04",
        "Sneaky_Freaks_05",
        "Sneaky_Freaks_06",
        "Sneaky_Freaks_07",
        "Sneaky_Freaks_08"
      ]
    },
    {
      "level": 36,
      "experience": 0,
      "display_names": [
        "Sneaky Swiper"
      ],
      "costumes": [
        "Sneaky_Freaks_01",
        "Sneaky_Freaks_02",
        "Sneaky_Freaks_03",
        "Sneaky_Freaks_04",
        "Sneaky_Freaks_05",
        "Sneaky_Freaks_06",
        "Sneaky_Freaks_07",
        "Sneaky_Freaks_08"
      ]
    },
    {
      "level": 37,
      "experience": 0,
      "display_names": [
        "Sneaky Swiper"
      ],
      "costumes": [
        "Sneaky_Freaks_01",
        "Sneaky_Freaks_02",
        "Sneaky_Freaks_03",
        "Sneaky_Freaks_04",
        "Sneaky_Freaks_05",
        "Sneaky_Freaks_06",
        "Sneaky_Freaks_07",
        "Sneaky_Freaks_08"
      ]
    },
    {
      "level": 38,
      "experience": 0,
      "display_names": [
        "Sneaky Swiper"
      ],
      "costumes": [
        "Sneaky_Freaks_01",
        "Sneaky_Freaks_02",
        "Sneaky_Freaks_03",
        "Sneaky_Freaks_04",
        "Sneaky_Freaks_05",
        "Sneaky_Freaks_06",
        "Sneaky_Freaks_07",
        "Sneaky_Freaks_08"
      ]
    },
    {
      "level": 39,
      "experience": 0,
      "display_names": [
        "Sneaky Swiper"
      ],
      "costumes": [
        "Sneaky_Freaks_01",
        "Sneaky_Freaks_02",
        "Sneaky_Freaks_03",
        "Sneaky_Freaks_04",
        "Sneaky_Freaks_05",
        "Sneaky_Freaks_06",
        "Sneaky_Freaks_07",
        "Sneaky_Freaks_08"
      ]
    },
    {
      "level": 40,
      "experience": 0,
      "display_names": [
        "Sneaky Swiper"
      ],
      "costumes": [
        "Sneaky_Freaks_01",
        "Sneaky_Freaks_02",
        "Sneaky_Freaks_03",
        "Sneaky_Freaks_04",
        "Sneaky_Freaks_05",
        "Sneaky_Freaks_06",
        "Sneaky_Freaks_07",
        "Sneaky_Freaks_08"
      ]
    },
    {
      "level": 41,
      "experience": 0,
      "display_names": [
        "Sneaky Swiper"
      ],
      "costumes": [
        "Sneaky_Freaks_01",
        "Sneaky_Freaks_02",
        "Sneaky_Freaks_03",
        "Sneaky_Freaks_04",
        "Sneaky_Freaks_05",
        "Sneaky_Freaks_06",
        "Sneaky_Freaks_07",
        "Sneaky_Freaks_08"
      ]
    },
    {
      "level": 42,
      "experience": 0,
      "display_names": [
        "Sneaky Swiper"
      ],
      "costumes": [
        "Sneaky_Freaks_01",
        "Sneaky_Freaks_02",
        "Sneaky_Freaks_03",
        "Sneaky_Freaks_04",
        "Sneaky_Freaks_05",
        "Sneaky_Freaks_06",
        "Sneaky_Freaks_07",
        "Sneaky_Freaks_08"
      ]
    },
    {
      "level": 43,
      "experience": 0,
      "display_names": [
        "Sneaky Swiper"
      ],
      "costumes": [
        "Sneaky_Freaks_01",
        "Sneaky_Freaks_02",
        "Sneaky_Freaks_03",
        "Sneaky_Freaks_04",
        "Sneaky_Freaks_05",
        "Sneaky_Freaks_06",
        "Sneaky_Freaks_07",
        "Sneaky_Freaks_08"
      ]
    },
    {
      "level": 44,
      "experience": 0,
      "display_names": [
        "Sneaky Swiper"
      ],
      "costumes": [
        "Sneaky_Freaks_01",
        "Sneaky_Freaks_02",
        "Sneaky_Freaks_03",
        "Sneaky_Freaks_04",
        "Sneaky_Freaks_05",
        "Sneaky_Freaks_06",
        "Sneaky_Freaks_07",
        "Sneaky_Freaks_08"
      ]
    },
    {
      "level": 45,
      "experience": 0,
      "display_names": [
        "Sneaky Swiper"
      ],
      "costumes": [
        "Sneaky_Freaks_01",
        "Sneaky_Freaks_02",
        "Sneaky_Freaks_03",
        "Sneaky_Freaks_04",
        "Sneaky_Freaks_05",
        "Sneaky_Freaks_06",
        "Sneaky_Freaks_07",
        "Sneaky_Freaks_08"
      ]
    },
    {
      "level": 46,
      "experience": 0,
      "display_names": [
        "Sneaky Swiper"
      ],
      "costumes": [
        "Sneaky_Freaks_01",
        "Sneaky_Freaks_02",
        "Sneaky_Freaks_03",
        "Sneaky_Freaks_04",
        "Sneaky_Freaks_05",
        "Sneaky_Freaks_06",
        "Sneaky_Freaks_07",
        "Sneaky_Freaks_08"
      ]
    },
    {
      "level": 47,
      "experience": 0,
      "display_names": [
        "Sneaky Swiper"
      ],
      "costumes": [
        "Sneaky_Freaks_01",
        "Sneaky_Freaks_02",
        "Sneaky_Freaks_03",
        "Sneaky_Freaks_04",
        "Sneaky_Freaks_05",
        "Sneaky_Freaks_06",
        "Sneaky_Freaks_07",
        "Sneaky_Freaks_08"
      ]
    },
    {
      "level": 48,
      "experience": 0,
      "display_names": [
        "Sneaky Swiper"
      ],
      "costumes": [
        "Sneaky_Freaks_01",
        "Sneaky_Freaks_02",
        "Sneaky_Freaks_03",
        "Sneaky_Freaks_04",
        "Sneaky_Freaks_05",
        "Sneaky_Freaks_06",
        "Sneaky_Freaks_07",
        "Sneaky_Freaks_08"
      ]
    },
    {
      "level": 49,
      "experience": 0,
      "display_names": [
        "Sneaky Swiper"
      ],
      "costumes": [
        "Sneaky_Freaks_01",
        "Sneaky_Freaks_02",
        "Sneaky_Freaks_03",
        "Sneaky_Freaks_04",
        "Sneaky_Freaks_05",
        "Sneaky_Freaks_06",
        "Sneaky_Freaks_07",
        "Sneaky_Freaks_08"
      ]
    },
    {
      "level": 50,
      "experience": 0,
      "display_names": [
        "Sneaky Swiper"
      ],
      "costumes": [
        "Sneaky_Freaks_01",
        "Sneaky_Freaks_02",
        "Sneaky_Freaks_03",
        "Sneaky_Freaks_04",
        "Sneaky_Freaks_05",
        "Sneaky_Freaks_06",
        "Sneaky_Freaks_07",
        "Sneaky_Freaks_08"
      ]
    },
    {
      "level": 51,
      "experience": 0,
      "display_names": [
        "Sneaky Swiper"
      ],
      "costumes": [
        "Sneaky_Freaks_01",
        "Sneaky_Freaks_02",
        "Sneaky_Freaks_03",
        "Sneaky_Freaks_04",
        "Sneaky_Freaks_05",
        "Sneaky_Freaks_06",
        "Sneaky_Freaks_07",
        "Sneaky_Freaks_08"
      ]
    },
    {
      "level": 52,
      "experience": 0,
      "display_names": [
        "Sneaky Swiper"
      ],
      "costumes": [
        "Sneaky_Freaks_01",
        "Sneaky_Freaks_02",
        "Sneaky_Freaks_03",
        "Sneaky_Freaks_04",
        "Sneaky_Freaks_05",
        "Sneaky_Freaks_06",
        "Sneaky_Freaks_07",
        "Sneaky_Freaks_08"
      ]
    },
    {
      "level": 53,
      "experience": 0,
      "display_names": [
        "Sneaky Swiper"
      ],
      "costumes": [
        "Sneaky_Freaks_01",
        "Sneaky_Freaks_02",
        "Sneaky_Freaks_03",
        "Sneaky_Freaks_04",
        "Sneaky_Freaks_05",
        "Sneaky_Freaks_06",
        "Sneaky_Freaks_07",
        "Sneaky_Freaks_08"
      ]
    },
    {
      "level": 54,
      "experience": 0,
      "display_names": [
        "Sneaky Swiper"
      ],
      "costumes": [
        "Sneaky_Freaks_01",
        "Sneaky_Freaks_02",
        "Sneaky_Freaks_03",
        "Sneaky_Freaks_04",
        "Sneaky_Freaks_05",
        "Sneaky_Freaks_06",
        "Sneaky_Freaks_07",
        "Sneaky_Freaks_08"
      ]
    }
  ]
}