{
  "name": "Freakshow_Juicer_Lt",
  "gender": "GENDER_MALE",
  "description": "It takes some skill to control death dealing levels of electricity as they course through your nervous system, and Juicer leaders have that control. They can use their implants to generate massive balls of lightning. They're no fun in close combat either, as their punch packs a heck of an electrical wallop.",
  "group_description": null,
  "display_class_name": null,
  "character_class_name": "lt_grunt",
  "ai_config": "Default_Ranged",
  "commandable_pet": false,
  "power_tags": [
    "HumanSkeleton",
    "Human",
    "Electronic"
  ],
  "additional_rewards": [

  ],
  "skill_hp_rewards": [

  ],
  "skill_status_rewards": [

  ],
  "ally": null,
  "gang": null,
  "reward_scale": 0.95,
  "game_exclusion": "None",
  "inactive_state_weapon": null,
  "ignores_combat_mods": false,
  "copy_creator_mods": false,
  "spawn_limit": -1,
  "spawn_limit_mission": -1,
  "ignore_av_to_eb_scaling": false,
  "can_zone": false,
  "custom_badge_stat": null,
  "badge_stat_flags": "DefaultBadgeStat",
  "rank": "VR_LIEUTENANT",
  "power_full_names": [
    "Freakshow.Freakshow_Juicer_Melee.Shock_Punch",
    "Freakshow.Freakshow_Juicer_Ranged.Lightning_Bolt",
    "Freakshow.Freakshow_Juicer_Ranged.Ball_Lightning",
    "Freakshow.Freakshow_Juicer_Movement.Fly",
    "Freakshow.Freakshow_Juicer_Movement.Fly_fx",
    "Freakshow.Freakshow_Inherent_Defense.Dull_Pain",
    "Freakshow.Freakshow_Inherent_Defense.Revive",
    "Freakshow.Freakshow_Inherent_Defense.Resistance"
  ],
  "power_display_names": [
    "Shock Punch",
    "Lightning Bolt",
    "Ball Lightning",
    "Fly",
    "Fly fx",
    "Dull Pain",
    "Revive",
    "Resistance"
  ],
  "power_levels": [
    0,
    0,
    0,
    0,
    0,
    0,
    0,
    0
  ],
  "powers": [
    {
      "power_category": "Freakshow",
      "power_set": "Freakshow_Juicer_Melee",
      "power": "*",
      "level": 0
    },
    {
      "power_category": "Freakshow",
      "power_set": "Freakshow_Juicer_Ranged",
      "power": "*",
      "level": 0
    },
    {
      "power_category": "Freakshow",
      "power_set": "Freakshow_Juicer_Movement",
      "power": "*",
      "level": 0
    },
    {
      "power_category": "Freakshow",
      "power_set": "Freakshow_Inherent_Defense",
      "power": "*",
      "level": 0
    }
  ],
  "levels": [
    {
      "level": 20,
      "experience": 0,
      "display_names": [
        "Juicer Chief"
      ],
      "costumes": [
        "Frk_50",
        "Frk_51",
        "Frk_52",
        "Frk_53",
        "Frk_54"
      ]
    },
    {
      "level": 21,
      "experience": 0,
      "display_names": [
        "Juicer Chief"
      ],
      "costumes": [
        "Frk_50",
        "Frk_51",
        "Frk_52",
        "Frk_53",
        "Frk_54"
      ]
    },
    {
      "level": 22,
      "experience": 0,
      "display_names": [
        "Juicer Chief"
      ],
      "costumes": [
        "Frk_50",
        "Frk_51",
        "Frk_52",
        "Frk_53",
        "Frk_54"
      ]
    },
    {
      "level": 23,
      "experience": 0,
      "display_names": [
        "Juicer Chief"
      ],
      "costumes": [
        "Frk_50",
        "Frk_51",
        "Frk_52",
        "Frk_53",
        "Frk_54"
      ]
    },
    {
      "level": 24,
      "experience": 0,
      "display_names": [
        "Juicer Chief"
      ],
      "costumes": [
        "Frk_50",
        "Frk_51",
        "Frk_52",
        "Frk_53",
        "Frk_54"
      ]
    },
    {
      "level": 25,
      "experience": 0,
      "display_names": [
        "Juicer Chief"
      ],
      "costumes": [
        "Frk_50",
        "Frk_51",
        "Frk_52",
        "Frk_53",
        "Frk_54"
      ]
    },
    {
      "level": 26,
      "experience": 0,
      "display_names": [
        "Juicer Chief"
      ],
      "costumes": [
        "Frk_50",
        "Frk_51",
        "Frk_52",
        "Frk_53",
        "Frk_54"
      ]
    },
    {
      "level": 27,
      "experience": 0,
      "display_names": [
        "Juicer Chief"
      ],
      "costumes": [
        "Frk_50",
        "Frk_51",
        "Frk_52",
        "Frk_53",
        "Frk_54"
      ]
    },
    {
      "level": 28,
      "experience": 0,
      "display_names": [
        "Juicer Chief"
      ],
      "costumes": [
        "Frk_50",
        "Frk_51",
        "Frk_52",
        "Frk_53",
        "Frk_54"
      ]
    },
    {
      "level": 29,
      "experience": 0,
      "display_names": [
        "Juicer Chief"
      ],
      "costumes": [
        "Frk_50",
        "Frk_51",
        "Frk_52",
        "Frk_53",
        "Frk_54"
      ]
    },
    {
      "level": 30,
      "experience": 0,
      "display_names": [
        "Juicer Chief"
      ],
      "costumes": [
        "Frk_50",
        "Frk_51",
        "Frk_52",
        "Frk_53",
        "Frk_54"
      ]
    },
    {
      "level": 31,
      "experience": 0,
      "display_names": [
        "Juicer Chief"
      ],
      "costumes": [
        "Frk_50",
        "Frk_51",
        "Frk_52",
        "Frk_53",
        "Frk_54"
      ]
    },
    {
      "level": 32,
      "experience": 0,
      "display_names": [
        "Juicer Chief"
      ],
      "costumes": [
        "Frk_50",
        "Frk_51",
        "Frk_52",
        "Frk_53",
        "Frk_54"
      ]
    },
    {
      "level": 33,
      "experience": 0,
      "display_names": [
        "Juicer Chief"
      ],
      "costumes": [
        "Frk_50",
        "Frk_51",
        "Frk_52",
        "Frk_53",
        "Frk_54"
      ]
    },
    {
      "level": 34,
      "experience": 0,
      "display_names": [
        "Juicer Chief"
      ],
      "costumes": [
        "Frk_50",
        "Frk_51",
        "Frk_52",
        "Frk_53",
        "Frk_54"
      ]
    },
    {
      "level": 35,
      "experience": 0,
      "display_names": [
        "Juicer Chief"
      ],
      "costumes": [
        "Frk_50",
        "Frk_51",
        "Frk_52",
        "Frk_53",
        "Frk_54"
      ]
    },
    {
      "level": 36,
      "experience": 0,
      "display_names": [
        "Juicer Chief"
      ],
      "costumes": [
        "Frk_50",
        "Frk_51",
        "Frk_52",
        "Frk_53",
        "Frk_54"
      ]
    },
    {
      "level": 37,
      "experience": 0,
      "display_names": [
        "Juicer Chief"
      ],
      "costumes": [
        "Frk_50",
        "Frk_51",
        "Frk_52",
        "Frk_53",
        "Frk_54"
      ]
    },
    {
      "level": 38,
      "experience": 0,
      "display_names": [
        "Juicer Chief"
      ],
      "costumes": [
        "Frk_50",
        "Frk_51",
        "Frk_52",
        "Frk_53",
        "Frk_54"
      ]
    },
    {
      "level": 39,
      "experience": 0,
      "display_names": [
        "Juicer Chief"
      ],
      "costumes": [
        "Frk_50",
        "Frk_51",
        "Frk_52",
        "Frk_53",
        "Frk_54"
      ]
    },
    {
      "level": 40,
      "experience": 0,
      "display_names": [
        "Juicer Chief"
      ],
      "costumes": [
        "Frk_50",
        "Frk_51",
        "Frk_52",
        "Frk_53",
        "Frk_54"
      ]
    },
    {
      "level": 41,
      "experience": 0,
      "display_names": [
        "Juicer Chief"
      ],
      "costumes": [
        "Frk_50",
        "Frk_51",
        "Frk_52",
        "Frk_53",
        "Frk_54"
      ]
    },
    {
      "level": 42,
      "experience": 0,
      "display_names": [
        "Juicer Chief"
      ],
      "costumes": [
        "Frk_50",
        "Frk_51",
        "Frk_52",
        "Frk_53",
        "Frk_54"
      ]
    },
    {
      "level": 43,
      "experience": 0,
      "display_names": [
        "Juicer Chief"
      ],
      "costumes": [
        "Frk_50",
        "Frk_51",
        "Frk_52",
        "Frk_53",
        "Frk_54"
      ]
    },
    {
      "level": 44,
      "experience": 0,
      "display_names": [
        "Juicer Chief"
      ],
      "costumes": [
        "Frk_50",
        "Frk_51",
        "Frk_52",
        "Frk_53",
        "Frk_54"
      ]
    },
    {
      "level": 45,
      "experience": 0,
      "display_names": [
        "Juicer Chief"
      ],
      "costumes": [
        "Frk_50",
        "Frk_51",
        "Frk_52",
        "Frk_53",
        "Frk_54"
      ]
    }
  ]
}