{
  "name": "Freakshow_Supr_St|_|n3r",
  "gender": "GENDER_MALE",
  "description": "Super Stunners undergo a very specific and unusual cybernetic enhancement, one that sets them apart from all other Freaks and does strange things to their brains. Even Juicers and Stunners are amazed at the amount of hardware stuffed into a Super Stunner. A network of electrical wiring and emitters allows the Super Stunners to shoot forth great gouts of electrical energy that allows them to dominate their foes.",
  "group_description": null,
  "display_class_name": null,
  "character_class_name": "boss_grunt",
  "ai_config": "Default_Ranged",
  "commandable_pet": false,
  "power_tags": [
    "HumanSkeleton",
    "Human",
    "Electronic"
  ],
  "additional_rewards": [

  ],
  "skill_hp_rewards": [

  ],
  "skill_status_rewards": [

  ],
  "ally": null,
  "gang": null,
  "reward_scale": 1.0,
  "game_exclusion": "None",
  "inactive_state_weapon": null,
  "ignores_combat_mods": false,
  "copy_creator_mods": false,
  "spawn_limit": 1,
  "spawn_limit_mission": 1,
  "ignore_av_to_eb_scaling": false,
  "can_zone": false,
  "custom_badge_stat": "kills.Freakshow_Super_Stunners",
  "badge_stat_flags": "DefaultBadgeStat",
  "rank": "VR_BOSS",
  "power_full_names": [
    "Freakshow.Super_Stunner.Electric_Fence",
    "Freakshow.Super_Stunner.Tesla_Cage",
    "Freakshow.Super_Stunner.Chain_Fences",
    "Freakshow.Super_Stunner.Static_Field",
    "Freakshow.Super_Stunner.Paralyzing_Blast",
    "Freakshow.Super_Stunner.Reserve_Power",
    "Freakshow.Freakshow_Juicer_Ranged.Lightning_Bolt",
    "Freakshow.Freakshow_Juicer_Ranged.Ball_Lightning",
    "Freakshow.Freakshow_Juicer_Movement.Fly",
    "Freakshow.Freakshow_Juicer_Movement.Fly_fx"
  ],
  "power_display_names": [
    "Electric Fence",
    "Tesla Cage",
    "Chain Fences",
    "Static Field",
    "Paralyzing Blast",
    "Reserve Power",
    "Lightning Bolt",
    "Ball Lightning",
    "Fly",
    "Fly fx"
  ],
  "power_levels": [
    0,
    0,
    0,
    0,
    0,
    0,
    0,
    0,
    0,
    0
  ],
  "powers": [
    {
      "power_category": "Freakshow",
      "power_set": "Super_Stunner",
      "power": "*",
      "level": 0
    },
    {
      "power_category": "Freakshow",
      "power_set": "Freakshow_Juicer_Ranged",
      "power": "*",
      "level": 0
    },
    {
      "power_category": "Freakshow",
      "power_set": "Freakshow_Juicer_Movement",
      "power": "*",
      "level": 0
    }
  ],
  "levels": [
    {
      "level": 20,
      "experience": 0,
      "display_names": [
        "Super Stunner"
      ],
      "costumes": [
        "Frk_SuperStunner"
      ]
    },
    {
      "level": 21,
      "experience": 0,
      "display_names": [
        "Super Stunner"
      ],
      "costumes": [
        "Frk_SuperStunner"
      ]
    },
    {
      "level": 22,
      "experience": 0,
      "display_names": [
        "Super Stunner"
      ],
      "costumes": [
        "Frk_SuperStunner"
      ]
    },
    {
      "level": 23,
      "experience": 0,
      "display_names": [
        "Super Stunner"
      ],
      "costumes": [
        "Frk_SuperStunner"
      ]
    },
    {
      "level": 24,
      "experience": 0,
      "display_names": [
        "Super Stunner"
      ],
      "costumes": [
        "Frk_SuperStunner"
      ]
    },
    {
      "level": 25,
      "experience": 0,
      "display_names": [
        "Super Stunner"
      ],
      "costumes": [
        "Frk_SuperStunner"
      ]
    },
    {
      "level": 26,
      "experience": 0,
      "display_names": [
        "Super Stunner"
      ],
      "costumes": [
        "Frk_SuperStunner"
      ]
    },
    {
      "level": 27,
      "experience": 0,
      "display_names": [
        "Super Stunner"
      ],
      "costumes": [
        "Frk_SuperStunner"
      ]
    },
    {
      "level": 28,
      "experience": 0,
      "display_names": [
        "Super Stunner"
      ],
      "costumes": [
        "Frk_SuperStunner"
      ]
    },
    {
      "level": 29,
      "experience": 0,
      "display_names": [
        "Super Stunner"
      ],
      "costumes": [
        "Frk_SuperStunner"
      ]
    },
    {
      "level": 30,
      "experience": 0,
      "display_names": [
        "Super Stunner"
      ],
      "costumes": [
        "Frk_SuperStunner"
      ]
    },
    {
      "level": 31,
      "experience": 0,
      "display_names": [
        "Super Stunner"
      ],
      "costumes": [
        "Frk_SuperStunner"
      ]
    },
    {
      "level": 32,
      "experience": 0,
      "display_names": [
        "Super Stunner"
      ],
      "costumes": [
        "Frk_SuperStunner"
      ]
    },
    {
      "level": 33,
      "experience": 0,
      "display_names": [
        "Super Stunner"
      ],
      "costumes": [
        "Frk_SuperStunner"
      ]
    },
    {
      "level": 34,
      "experience": 0,
      "display_names": [
        "Super Stunner"
      ],
      "costumes": [
        "Frk_SuperStunner"
      ]
    },
    {
      "level": 35,
      "experience": 0,
      "display_names": [
        "Super Stunner"
      ],
      "costumes": [
        "Frk_SuperStunner"
      ]
    },
    {
      "level": 36,
      "experience": 0,
      "display_names": [
        "Super Stunner"
      ],
      "costumes": [
        "Frk_SuperStunner"
      ]
    },
    {
      "level": 37,
      "experience": 0,
      "display_names": [
        "Super Stunner"
      ],
      "costumes": [
        "Frk_SuperStunner"
      ]
    },
    {
      "level": 38,
      "experience": 0,
      "display_names": [
        "Super Stunner"
      ],
      "costumes": [
        "Frk_SuperStunner"
      ]
    },
    {
      "level": 39,
      "experience": 0,
      "display_names": [
        "Super Stunner"
      ],
      "costumes": [
        "Frk_SuperStunner"
      ]
    },
    {
      "level": 40,
      "experience": 0,
      "display_names": [
        "Super Stunner"
      ],
      "costumes": [
        "Frk_SuperStunner"
      ]
    },
    {
      "level": 41,
      "experience": 0,
      "display_names": [
        "Super Stunner"
      ],
      "costumes": [
        "Frk_SuperStunner"
      ]
    },
    {
      "level": 42,
      "experience": 0,
      "display_names": [
        "Super Stunner"
      ],
      "costumes": [
        "Frk_SuperStunner"
      ]
    },
    {
      "level": 43,
      "experience": 0,
      "display_names": [
        "Super Stunner"
      ],
      "costumes": [
        "Frk_SuperStunner"
      ]
    },
    {
      "level": 44,
      "experience": 0,
      "display_names": [
        "Super Stunner"
      ],
      "costumes": [
        "Frk_SuperStunner"
      ]
    },
    {
      "level": 45,
      "experience": 0,
      "display_names": [
        "Super Stunner"
      ],
      "costumes": [
        "Frk_SuperStunner"
      ]
    },
    {
      "level": 46,
      "experience": 0,
      "display_names": [
        "Super Stunner"
      ],
      "costumes": [
        "Frk_SuperStunner"
      ]
    },
    {
      "level": 47,
      "experience": 0,
      "display_names": [
        "Super Stunner"
      ],
      "costumes": [
        "Frk_SuperStunner"
      ]
    },
    {
      "level": 48,
      "experience": 0,
      "display_names": [
        "Super Stunner"
      ],
      "costumes": [
        "Frk_SuperStunner"
      ]
    },
    {
      "level": 49,
      "experience": 0,
      "display_names": [
        "Super Stunner"
      ],
      "costumes": [
        "Frk_SuperStunner"
      ]
    },
    {
      "level": 50,
      "experience": 0,
      "display_names": [
        "Super Stunner"
      ],
      "costumes": [
        "Frk_SuperStunner"
      ]
    },
    {
      "level": 51,
      "experience": 0,
      "display_names": [
        "Super Stunner"
      ],
      "costumes": [
        "Frk_SuperStunner"
      ]
    },
    {
      "level": 52,
      "experience": 0,
      "display_names": [
        "Super Stunner"
      ],
      "costumes": [
        "Frk_SuperStunner"
      ]
    },
    {
      "level": 53,
      "experience": 0,
      "display_names": [
        "Super Stunner"
      ],
      "costumes": [
        "Frk_SuperStunner"
      ]
    },
    {
      "level": 54,
      "experience": 0,
      "display_names": [
        "Super Stunner"
      ],
      "costumes": [
        "Frk_SuperStunner"
      ]
    }
  ]
}