{
  "name": "FreedomPhalanx_Citadel",
  "gender": "GENDER_MALE",
  "description": "Citadel was the very first android hero. In the initial Rikti onslaught, he took heavy damage, and was almost completely destroyed. With Positrons help, scientists at DATA created a second version of Citadel using the old model's original memory core and the remnants of a power suit, once worn by the hero Horatio. Citadel does not fully understand human ways, but he is a valiant defender of Paragon City. He has recently undergone a major upgrade to his systems.",
  "group_description": null,
  "display_class_name": "Hero",
  "character_class_name": "boss_archvillain",
  "ai_config": "Signatures_Melee",
  "commandable_pet": false,
  "power_tags": [
    "HumanSkeleton",
    "Electronic",
    "Raid"
  ],
  "additional_rewards": [

  ],
  "skill_hp_rewards": [

  ],
  "skill_status_rewards": [

  ],
  "ally": "Hero",
  "gang": null,
  "reward_scale": 1.0,
  "game_exclusion": "None",
  "inactive_state_weapon": null,
  "ignores_combat_mods": false,
  "copy_creator_mods": false,
  "spawn_limit": 0,
  "spawn_limit_mission": 0,
  "ignore_av_to_eb_scaling": false,
  "can_zone": false,
  "custom_badge_stat": null,
  "badge_stat_flags": "DefaultBadgeStat",
  "rank": "VR_ARCHVILLAIN",
  "power_full_names": [
    "V_Vindicators.Vindicator_Resistances.Resistance",
    "V_FreedomPhalanx.Citadel.Barrage",
    "V_FreedomPhalanx.Citadel.Energy_Punch",
    "V_FreedomPhalanx.Citadel.Bone_Smasher",
    "V_FreedomPhalanx.Citadel.Whirling_Hands",
    "V_FreedomPhalanx.Citadel.Energy_Transfer",
    "V_FreedomPhalanx.Citadel.Power_Burst",
    "V_FreedomPhalanx.Citadel.Explosive_Blast",
    "V_FreedomPhalanx.Citadel.Energy_Torrent",
    "V_FreedomPhalanx.Citadel.Overload",
    "V_FreedomPhalanx.Citadel.Nova",
    "V_FreedomPhalanx.Citadel.Entropy_Shield",
    "V_FreedomPhalanx.Citadel.Fly",
    "V_FreedomPhalanx.Citadel.Fly_fx"
  ],
  "power_display_names": [
    "Resistance",
    "Barrage",
    "Energy Punch",
    "Bone Smasher",
    "Whirling Hands",
    "Energy Transfer",
    "Power Burst",
    "Explosive Blast",
    "Energy Torrent",
    "Overload",
    "Nova",
    "Entropy Shield",
    "Fly",
    "Fly fx"
  ],
  "power_levels": [
    0,
    0,
    0,
    0,
    0,
    0,
    0,
    0,
    0,
    0,
    0,
    0,
    0,
    0
  ],
  "powers": [
    {
      "power_category": "V_Vindicators",
      "power_set": "Vindicator_Resistances",
      "power": "*",
      "level": 0
    },
    {
      "power_category": "V_FreedomPhalanx",
      "power_set": "Citadel",
      "power": "*",
      "level": 0
    }
  ],
  "levels": [
    {
      "level": 40,
      "experience": 0,
      "display_names": [
        "Citadel"
      ],
      "costumes": [
        "Model_Bastion_NoRing"
      ]
    },
    {
      "level": 41,
      "experience": 0,
      "display_names": [
        "Citadel"
      ],
      "costumes": [
        "Model_Bastion_NoRing"
      ]
    },
    {
      "level": 42,
      "experience": 0,
      "display_names": [
        "Citadel"
      ],
      "costumes": [
        "Model_Bastion_NoRing"
      ]
    },
    {
      "level": 43,
      "experience": 0,
      "display_names": [
        "Citadel"
      ],
      "costumes": [
        "Model_Bastion_NoRing"
      ]
    },
    {
      "level": 44,
      "experience": 0,
      "display_names": [
        "Citadel"
      ],
      "costumes": [
        "Model_Bastion_NoRing"
      ]
    },
    {
      "level": 45,
      "experience": 0,
      "display_names": [
        "Citadel"
      ],
      "costumes": [
        "Model_Bastion_NoRing"
      ]
    },
    {
      "level": 46,
      "experience": 0,
      "display_names": [
        "Citadel"
      ],
      "costumes": [
        "Model_Bastion_NoRing"
      ]
    },
    {
      "level": 47,
      "experience": 0,
      "display_names": [
        "Citadel"
      ],
      "costumes": [
        "Model_Bastion_NoRing"
      ]
    },
    {
      "level": 48,
      "experience": 0,
      "display_names": [
        "Citadel"
      ],
      "costumes": [
        "Model_Bastion_NoRing"
      ]
    },
    {
      "level": 49,
      "experience": 0,
      "display_names": [
        "Citadel"
      ],
      "costumes": [
        "Model_Bastion_NoRing"
      ]
    },
    {
      "level": 50,
      "experience": 0,
      "display_names": [
        "Citadel"
      ],
      "costumes": [
        "Model_Bastion_NoRing"
      ]
    },
    {
      "level": 51,
      "experience": 0,
      "display_names": [
        "Citadel"
      ],
      "costumes": [
        "Model_Bastion_NoRing"
      ]
    },
    {
      "level": 52,
      "experience": 0,
      "display_names": [
        "Citadel"
      ],
      "costumes": [
        "Model_Bastion_NoRing"
      ]
    },
    {
      "level": 53,
      "experience": 0,
      "display_names": [
        "Citadel"
      ],
      "costumes": [
        "Model_Bastion_NoRing"
      ]
    },
    {
      "level": 54,
      "experience": 0,
      "display_names": [
        "Citadel"
      ],
      "costumes": [
        "Model_Bastion_NoRing"
      ]
    }
  ]
}