{
  "name": "FreedomCorps_Flamethrower_high_noexp",
  "gender": "GENDER_MALE",
  "description": "Harkening back to the days of flaming arrows are Longbow's flamethrowers. They typically try not to use these when the press is around--burning enemies alive plays poorly on the evening news for a 'heroic' organization. This version of their weapon features incendiary grenades as well for additional destruction.",
  "group_description": "Longbow",
  "display_class_name": null,
  "character_class_name": "minion_grunt",
  "ai_config": "Default_Ranged",
  "commandable_pet": false,
  "power_tags": [
    "HumanSkeleton",
    "Human"
  ],
  "additional_rewards": [

  ],
  "skill_hp_rewards": [

  ],
  "skill_status_rewards": [

  ],
  "ally": "Hero",
  "gang": null,
  "reward_scale": 1.1,
  "game_exclusion": "None",
  "inactive_state_weapon": null,
  "ignores_combat_mods": false,
  "copy_creator_mods": false,
  "spawn_limit": 0,
  "spawn_limit_mission": 0,
  "ignore_av_to_eb_scaling": false,
  "can_zone": false,
  "custom_badge_stat": null,
  "badge_stat_flags": "DefaultBadgeStat",
  "rank": "VR_PET",
  "power_full_names": [
    "V_FreedomCorps.Minion_Flamethrower.Incendiary_Grenade",
    "V_FreedomCorps.Minion_Flamethrower.Flamethrower_Ignite",
    "V_FreedomCorps.Minion_Flamethrower.Flamethrower",
    "V_FreedomCorps.Minion_Flamethrower.Rifle_Butt",
    "V_FreedomCorps.Resistance.Tech_Armor"
  ],
  "power_display_names": [
    "Incendiary Grenade",
    "Flamethrower Ignite",
    "Flamethrower",
    "Rifle Butt",
    "Tech Armor"
  ],
  "power_levels": [
    0,
    0,
    0,
    0,
    0
  ],
  "powers": [
    {
      "power_category": "V_FreedomCorps",
      "power_set": "Minion_Flamethrower",
      "power": "Incendiary_Grenade",
      "level": 0
    },
    {
      "power_category": "V_FreedomCorps",
      "power_set": "Minion_Flamethrower",
      "power": "Flamethrower_Ignite",
      "level": 0
    },
    {
      "power_category": "V_FreedomCorps",
      "power_set": "Minion_Flamethrower",
      "power": "Flamethrower",
      "level": 0
    },
    {
      "power_category": "V_FreedomCorps",
      "power_set": "Minion_Flamethrower",
      "power": "Rifle_Butt",
      "level": 0
    },
    {
      "power_category": "V_FreedomCorps",
      "power_set": "Resistance",
      "power": "*",
      "level": 0
    }
  ],
  "levels": [
    {
      "level": 40,
      "experience": 0,
      "display_names": [
        "Longbow Flamethrower"
      ],
      "costumes": [
        "Longbow_Male_Group_01_Minion_01",
        "Longbow_Male_Group_01_Minion_02",
        "Longbow_Male_Group_01_Minion_03",
        "Longbow_Male_Group_01_Minion_04",
        "Longbow_Male_Group_01_Minion_05"
      ]
    },
    {
      "level": 41,
      "experience": 0,
      "display_names": [
        "Longbow Flamethrower"
      ],
      "costumes": [
        "Longbow_Male_Group_01_Minion_01",
        "Longbow_Male_Group_01_Minion_02",
        "Longbow_Male_Group_01_Minion_03",
        "Longbow_Male_Group_01_Minion_04",
        "Longbow_Male_Group_01_Minion_05"
      ]
    },
    {
      "level": 42,
      "experience": 0,
      "display_names": [
        "Longbow Flamethrower"
      ],
      "costumes": [
        "Longbow_Male_Group_01_Minion_01",
        "Longbow_Male_Group_01_Minion_02",
        "Longbow_Male_Group_01_Minion_03",
        "Longbow_Male_Group_01_Minion_04",
        "Longbow_Male_Group_01_Minion_05"
      ]
    },
    {
      "level": 43,
      "experience": 0,
      "display_names": [
        "Longbow Flamethrower"
      ],
      "costumes": [
        "Longbow_Male_Group_01_Minion_01",
        "Longbow_Male_Group_01_Minion_02",
        "Longbow_Male_Group_01_Minion_03",
        "Longbow_Male_Group_01_Minion_04",
        "Longbow_Male_Group_01_Minion_05"
      ]
    },
    {
      "level": 44,
      "experience": 0,
      "display_names": [
        "Longbow Flamethrower"
      ],
      "costumes": [
        "Longbow_Male_Group_01_Minion_01",
        "Longbow_Male_Group_01_Minion_02",
        "Longbow_Male_Group_01_Minion_03",
        "Longbow_Male_Group_01_Minion_04",
        "Longbow_Male_Group_01_Minion_05"
      ]
    },
    {
      "level": 45,
      "experience": 0,
      "display_names": [
        "Longbow Flamethrower"
      ],
      "costumes": [
        "Longbow_Male_Group_01_Minion_01",
        "Longbow_Male_Group_01_Minion_02",
        "Longbow_Male_Group_01_Minion_03",
        "Longbow_Male_Group_01_Minion_04",
        "Longbow_Male_Group_01_Minion_05"
      ]
    },
    {
      "level": 46,
      "experience": 0,
      "display_names": [
        "Longbow Flamethrower"
      ],
      "costumes": [
        "Longbow_Male_Group_01_Minion_01",
        "Longbow_Male_Group_01_Minion_02",
        "Longbow_Male_Group_01_Minion_03",
        "Longbow_Male_Group_01_Minion_04",
        "Longbow_Male_Group_01_Minion_05"
      ]
    },
    {
      "level": 47,
      "experience": 0,
      "display_names": [
        "Longbow Flamethrower"
      ],
      "costumes": [
        "Longbow_Male_Group_01_Minion_01",
        "Longbow_Male_Group_01_Minion_02",
        "Longbow_Male_Group_01_Minion_03",
        "Longbow_Male_Group_01_Minion_04",
        "Longbow_Male_Group_01_Minion_05"
      ]
    },
    {
      "level": 48,
      "experience": 0,
      "display_names": [
        "Longbow Flamethrower"
      ],
      "costumes": [
        "Longbow_Male_Group_01_Minion_01",
        "Longbow_Male_Group_01_Minion_02",
        "Longbow_Male_Group_01_Minion_03",
        "Longbow_Male_Group_01_Minion_04",
        "Longbow_Male_Group_01_Minion_05"
      ]
    },
    {
      "level": 49,
      "experience": 0,
      "display_names": [
        "Longbow Flamethrower"
      ],
      "costumes": [
        "Longbow_Male_Group_01_Minion_01",
        "Longbow_Male_Group_01_Minion_02",
        "Longbow_Male_Group_01_Minion_03",
        "Longbow_Male_Group_01_Minion_04",
        "Longbow_Male_Group_01_Minion_05"
      ]
    },
    {
      "level": 50,
      "experience": 0,
      "display_names": [
        "Longbow Flamethrower"
      ],
      "costumes": [
        "Longbow_Male_Group_01_Minion_01",
        "Longbow_Male_Group_01_Minion_02",
        "Longbow_Male_Group_01_Minion_03",
        "Longbow_Male_Group_01_Minion_04",
        "Longbow_Male_Group_01_Minion_05"
      ]
    },
    {
      "level": 51,
      "experience": 0,
      "display_names": [
        "Longbow Flamethrower"
      ],
      "costumes": [
        "Longbow_Male_Group_01_Minion_01",
        "Longbow_Male_Group_01_Minion_02",
        "Longbow_Male_Group_01_Minion_03",
        "Longbow_Male_Group_01_Minion_04",
        "Longbow_Male_Group_01_Minion_05"
      ]
    },
    {
      "level": 52,
      "experience": 0,
      "display_names": [
        "Longbow Flamethrower"
      ],
      "costumes": [
        "Longbow_Male_Group_01_Minion_01",
        "Longbow_Male_Group_01_Minion_02",
        "Longbow_Male_Group_01_Minion_03",
        "Longbow_Male_Group_01_Minion_04",
        "Longbow_Male_Group_01_Minion_05"
      ]
    },
    {
      "level": 53,
      "experience": 0,
      "display_names": [
        "Longbow Flamethrower"
      ],
      "costumes": [
        "Longbow_Male_Group_01_Minion_01",
        "Longbow_Male_Group_01_Minion_02",
        "Longbow_Male_Group_01_Minion_03",
        "Longbow_Male_Group_01_Minion_04",
        "Longbow_Male_Group_01_Minion_05"
      ]
    },
    {
      "level": 54,
      "experience": 0,
      "display_names": [
        "Longbow Flamethrower"
      ],
      "costumes": [
        "Longbow_Male_Group_01_Minion_01",
        "Longbow_Male_Group_01_Minion_02",
        "Longbow_Male_Group_01_Minion_03",
        "Longbow_Male_Group_01_Minion_04",
        "Longbow_Male_Group_01_Minion_05"
      ]
    }
  ]
}