{
  "name": "FreedomPhalanx_Synapse_Pandora",
  "gender": "GENDER_MALE",
  "description": "Steven Berry was just an average man, until Crey Industries got hold of him. The Crey scientists were testing a number of radical procedures for inducing super powers. Steven was blasted with high doses of electricity for days. It amplified the electrical energy in his body, giving him the ability to harness it into super speed and electrical blasts. Synapse escaped Crey's clutches by shorting out the lab where he was kept prisoner. To this day, Crey executives deny any knowledge of the project in which Synapse was an unwilling participant.",
  "group_description": null,
  "display_class_name": "Hero",
  "character_class_name": "boss_grunt",
  "ai_config": "Synapse_Melee",
  "commandable_pet": false,
  "power_tags": [
    "HumanSkeleton",
    "Human",
    "Raid"
  ],
  "additional_rewards": [

  ],
  "skill_hp_rewards": [

  ],
  "skill_status_rewards": [

  ],
  "ally": "Hero",
  "gang": null,
  "reward_scale": 1.0,
  "game_exclusion": "None",
  "inactive_state_weapon": null,
  "ignores_combat_mods": false,
  "copy_creator_mods": false,
  "spawn_limit": 0,
  "spawn_limit_mission": 0,
  "ignore_av_to_eb_scaling": true,
  "can_zone": false,
  "custom_badge_stat": null,
  "badge_stat_flags": "DefaultBadgeStat",
  "rank": "VR_BOSS",
  "power_full_names": [
    "V_Vindicators.Vindicator_Resistances.Resistance",
    "V_FreedomPhalanx.Synapse.Charged_Bolts",
    "V_FreedomPhalanx.Synapse.Lightning_Bolt",
    "V_FreedomPhalanx.Synapse.Ball_Lightning",
    "V_FreedomPhalanx.Synapse.Thunderous_Blast",
    "V_FreedomPhalanx.Synapse.Havoc_Punch",
    "V_FreedomPhalanx.Synapse.Lightning_Clap",
    "V_FreedomPhalanx.Synapse.Thunder_Strike",
    "V_FreedomPhalanx.Synapse.Synaptic_Strike",
    "V_FreedomPhalanx.Synapse.Whirlwind",
    "V_FreedomPhalanx.Synapse.Resistance"
  ],
  "power_display_names": [
    "Resistance",
    "Charged Bolts",
    "Lightning Bolt",
    "Ball Lightning",
    "Thunderous Blast",
    "Havoc Punch",
    "Lightning Clap",
    "Thunder Strike",
    "Synaptic Strike",
    "Whirlwind",
    "Resistance"
  ],
  "power_levels": [
    0,
    0,
    0,
    0,
    0,
    0,
    0,
    0,
    0,
    0,
    0
  ],
  "powers": [
    {
      "power_category": "V_Vindicators",
      "power_set": "Vindicator_Resistances",
      "power": "*",
      "level": 0
    },
    {
      "power_category": "V_FreedomPhalanx",
      "power_set": "Synapse",
      "power": "*",
      "level": 0
    }
  ],
  "levels": [
    {
      "level": 30,
      "experience": 0,
      "display_names": [
        "Synapse"
      ],
      "costumes": [
        "Model_Synapse_NoRing"
      ]
    },
    {
      "level": 31,
      "experience": 0,
      "display_names": [
        "Synapse"
      ],
      "costumes": [
        "Model_Synapse_NoRing"
      ]
    },
    {
      "level": 32,
      "experience": 0,
      "display_names": [
        "Synapse"
      ],
      "costumes": [
        "Model_Synapse_NoRing"
      ]
    },
    {
      "level": 33,
      "experience": 0,
      "display_names": [
        "Synapse"
      ],
      "costumes": [
        "Model_Synapse_NoRing"
      ]
    },
    {
      "level": 34,
      "experience": 0,
      "display_names": [
        "Synapse"
      ],
      "costumes": [
        "Model_Synapse_NoRing"
      ]
    },
    {
      "level": 35,
      "experience": 0,
      "display_names": [
        "Synapse"
      ],
      "costumes": [
        "Model_Synapse_NoRing"
      ]
    },
    {
      "level": 36,
      "experience": 0,
      "display_names": [
        "Synapse"
      ],
      "costumes": [
        "Model_Synapse_NoRing"
      ]
    },
    {
      "level": 37,
      "experience": 0,
      "display_names": [
        "Synapse"
      ],
      "costumes": [
        "Model_Synapse_NoRing"
      ]
    },
    {
      "level": 38,
      "experience": 0,
      "display_names": [
        "Synapse"
      ],
      "costumes": [
        "Model_Synapse_NoRing"
      ]
    },
    {
      "level": 39,
      "experience": 0,
      "display_names": [
        "Synapse"
      ],
      "costumes": [
        "Model_Synapse_NoRing"
      ]
    },
    {
      "level": 40,
      "experience": 0,
      "display_names": [
        "Synapse"
      ],
      "costumes": [
        "Model_Synapse_NoRing"
      ]
    },
    {
      "level": 41,
      "experience": 0,
      "display_names": [
        "Synapse"
      ],
      "costumes": [
        "Model_Synapse_NoRing"
      ]
    },
    {
      "level": 42,
      "experience": 0,
      "display_names": [
        "Synapse"
      ],
      "costumes": [
        "Model_Synapse_NoRing"
      ]
    },
    {
      "level": 43,
      "experience": 0,
      "display_names": [
        "Synapse"
      ],
      "costumes": [
        "Model_Synapse_NoRing"
      ]
    },
    {
      "level": 44,
      "experience": 0,
      "display_names": [
        "Synapse"
      ],
      "costumes": [
        "Model_Synapse_NoRing"
      ]
    },
    {
      "level": 45,
      "experience": 0,
      "display_names": [
        "Synapse"
      ],
      "costumes": [
        "Model_Synapse_NoRing"
      ]
    },
    {
      "level": 46,
      "experience": 0,
      "display_names": [
        "Synapse"
      ],
      "costumes": [
        "Model_Synapse_NoRing"
      ]
    },
    {
      "level": 47,
      "experience": 0,
      "display_names": [
        "Synapse"
      ],
      "costumes": [
        "Model_Synapse_NoRing"
      ]
    },
    {
      "level": 48,
      "experience": 0,
      "display_names": [
        "Synapse"
      ],
      "costumes": [
        "Model_Synapse_NoRing"
      ]
    },
    {
      "level": 49,
      "experience": 0,
      "display_names": [
        "Synapse"
      ],
      "costumes": [
        "Model_Synapse_NoRing"
      ]
    },
    {
      "level": 50,
      "experience": 0,
      "display_names": [
        "Synapse"
      ],
      "costumes": [
        "Model_Synapse_NoRing"
      ]
    },
    {
      "level": 51,
      "experience": 0,
      "display_names": [
        "Synapse"
      ],
      "costumes": [
        "Model_Synapse_NoRing"
      ]
    },
    {
      "level": 52,
      "experience": 0,
      "display_names": [
        "Synapse"
      ],
      "costumes": [
        "Model_Synapse_NoRing"
      ]
    },
    {
      "level": 53,
      "experience": 0,
      "display_names": [
        "Synapse"
      ],
      "costumes": [
        "Model_Synapse_NoRing"
      ]
    },
    {
      "level": 54,
      "experience": 0,
      "display_names": [
        "Synapse"
      ],
      "costumes": [
        "Model_Synapse_NoRing"
      ]
    }
  ]
}