{
  "name": "FreedomCorps_Warden_Ice_Blaster_16-20_Female",
  "gender": "GENDER_FEMALE",
  "description": "Longbow's ice blasters are designed to slow and then defeat their foes. There is little more humiliating than being frozen in place while Longbow's agents stand around laughing at you.",
  "group_description": "Longbow",
  "display_class_name": null,
  "character_class_name": "boss_grunt",
  "ai_config": "Default_Ranged",
  "commandable_pet": false,
  "power_tags": [
    "Humanoid",
    "HumanSkeleton"
  ],
  "additional_rewards": [

  ],
  "skill_hp_rewards": [

  ],
  "skill_status_rewards": [

  ],
  "ally": "Hero",
  "gang": null,
  "reward_scale": 1.25,
  "game_exclusion": "None",
  "inactive_state_weapon": null,
  "ignores_combat_mods": false,
  "copy_creator_mods": false,
  "spawn_limit": -1,
  "spawn_limit_mission": -1,
  "ignore_av_to_eb_scaling": false,
  "can_zone": false,
  "custom_badge_stat": null,
  "badge_stat_flags": "DefaultBadgeStat",
  "rank": "VR_BOSS",
  "power_full_names": [
    "V_GenericHeroes.Ice_Blaster_Low.Ice_Bolt",
    "V_GenericHeroes.Ice_Blaster_Low.Ice_Blast",
    "V_GenericHeroes.Ice_Blaster_Low.Fire_Sword",
    "V_GenericHeroes.Ice_Blaster_Low.Frost_Breath",
    "V_GenericHeroes.Ice_Blaster_Mid.Combustion",
    "V_GenericHeroes.Ice_Blaster_Mid.Ice_Storm",
    "V_GenericHeroes.Ice_Blaster_High.Bitter_Ice_Blast",
    "V_GenericHeroes.Hero_Flight.Fly",
    "V_GenericHeroes.Hero_Flight.Fly_fx"
  ],
  "power_display_names": [
    "Ice Bolt",
    "Ice Blast",
    "Fire Sword",
    "Frost Breath",
    "Combustion",
    "Ice Storm",
    "Bitter Ice Blast",
    "Fly",
    "Fly fx"
  ],
  "power_levels": [
    0,
    0,
    0,
    0,
    0,
    0,
    0,
    0,
    0
  ],
  "powers": [
    {
      "power_category": "V_GenericHeroes",
      "power_set": "Ice_Blaster_Low",
      "power": "*",
      "level": 0
    },
    {
      "power_category": "V_GenericHeroes",
      "power_set": "Ice_Blaster_Mid",
      "power": "*",
      "level": 0
    },
    {
      "power_category": "V_GenericHeroes",
      "power_set": "Ice_Blaster_High",
      "power": "*",
      "level": 0
    },
    {
      "power_category": "V_GenericHeroes",
      "power_set": "Hero_Flight",
      "power": "*",
      "level": 0
    }
  ],
  "levels": [
    {
      "level": 16,
      "experience": 0,
      "display_names": [
        "Longbow Warden"
      ],
      "costumes": [
        "Longbow_Female_Boss_03",
        "Longbow_Female_Boss_05"
      ]
    },
    {
      "level": 17,
      "experience": 0,
      "display_names": [
        "Longbow Warden"
      ],
      "costumes": [
        "Longbow_Female_Boss_03",
        "Longbow_Female_Boss_05"
      ]
    },
    {
      "level": 18,
      "experience": 0,
      "display_names": [
        "Longbow Warden"
      ],
      "costumes": [
        "Longbow_Female_Boss_03",
        "Longbow_Female_Boss_05"
      ]
    },
    {
      "level": 19,
      "experience": 0,
      "display_names": [
        "Longbow Warden"
      ],
      "costumes": [
        "Longbow_Female_Boss_03",
        "Longbow_Female_Boss_05"
      ]
    },
    {
      "level": 20,
      "experience": 0,
      "display_names": [
        "Longbow Warden"
      ],
      "costumes": [
        "Longbow_Female_Boss_03",
        "Longbow_Female_Boss_05"
      ]
    }
  ]
}