{
  "name": "FreedomCorps_Flamethrower_med_female",
  "gender": "GENDER_FEMALE",
  "description": "Harkening back to the days of flaming arrows are Longbow's flamethrowers. They typically try not to use these when the press is around--burning enemies alive plays poorly on the evening news for a 'heroic' organization.",
  "group_description": "Longbow",
  "display_class_name": null,
  "character_class_name": "minion_grunt",
  "ai_config": "Default_Ranged",
  "commandable_pet": false,
  "power_tags": [
    "HumanSkeleton",
    "Human"
  ],
  "additional_rewards": [

  ],
  "skill_hp_rewards": [

  ],
  "skill_status_rewards": [

  ],
  "ally": "Hero",
  "gang": null,
  "reward_scale": 1.1,
  "game_exclusion": "None",
  "inactive_state_weapon": null,
  "ignores_combat_mods": false,
  "copy_creator_mods": false,
  "spawn_limit": -1,
  "spawn_limit_mission": -1,
  "ignore_av_to_eb_scaling": false,
  "can_zone": false,
  "custom_badge_stat": null,
  "badge_stat_flags": "DefaultBadgeStat",
  "rank": "VR_MINION",
  "power_full_names": [
    "V_FreedomCorps.Minion_Flamethrower.Flamethrower_Ignite",
    "V_FreedomCorps.Minion_Flamethrower.Flamethrower",
    "V_FreedomCorps.Minion_Flamethrower.Rifle_Butt",
    "V_FreedomCorps.Resistance.Tech_Armor"
  ],
  "power_display_names": [
    "Flamethrower Ignite",
    "Flamethrower",
    "Rifle Butt",
    "Tech Armor"
  ],
  "power_levels": [
    0,
    0,
    0,
    0
  ],
  "powers": [
    {
      "power_category": "V_FreedomCorps",
      "power_set": "Minion_Flamethrower",
      "power": "Flamethrower_Ignite",
      "level": 0
    },
    {
      "power_category": "V_FreedomCorps",
      "power_set": "Minion_Flamethrower",
      "power": "Flamethrower",
      "level": 0
    },
    {
      "power_category": "V_FreedomCorps",
      "power_set": "Minion_Flamethrower",
      "power": "Rifle_Butt",
      "level": 0
    },
    {
      "power_category": "V_FreedomCorps",
      "power_set": "Resistance",
      "power": "*",
      "level": 0
    }
  ],
  "levels": [
    {
      "level": 30,
      "experience": 0,
      "display_names": [
        "Longbow Flamethrower"
      ],
      "costumes": [
        "Longbow_Female_Group_01_Minion_01",
        "Longbow_Female_Group_01_Minion_02",
        "Longbow_Female_Group_01_Minion_03",
        "Longbow_Female_Group_01_Minion_04",
        "Longbow_Female_Group_01_Minion_05"
      ]
    },
    {
      "level": 31,
      "experience": 0,
      "display_names": [
        "Longbow Flamethrower"
      ],
      "costumes": [
        "Longbow_Female_Group_01_Minion_01",
        "Longbow_Female_Group_01_Minion_02",
        "Longbow_Female_Group_01_Minion_03",
        "Longbow_Female_Group_01_Minion_04",
        "Longbow_Female_Group_01_Minion_05"
      ]
    },
    {
      "level": 32,
      "experience": 0,
      "display_names": [
        "Longbow Flamethrower"
      ],
      "costumes": [
        "Longbow_Female_Group_01_Minion_01",
        "Longbow_Female_Group_01_Minion_02",
        "Longbow_Female_Group_01_Minion_03",
        "Longbow_Female_Group_01_Minion_04",
        "Longbow_Female_Group_01_Minion_05"
      ]
    },
    {
      "level": 33,
      "experience": 0,
      "display_names": [
        "Longbow Flamethrower"
      ],
      "costumes": [
        "Longbow_Female_Group_01_Minion_01",
        "Longbow_Female_Group_01_Minion_02",
        "Longbow_Female_Group_01_Minion_03",
        "Longbow_Female_Group_01_Minion_04",
        "Longbow_Female_Group_01_Minion_05"
      ]
    },
    {
      "level": 34,
      "experience": 0,
      "display_names": [
        "Longbow Flamethrower"
      ],
      "costumes": [
        "Longbow_Female_Group_01_Minion_01",
        "Longbow_Female_Group_01_Minion_02",
        "Longbow_Female_Group_01_Minion_03",
        "Longbow_Female_Group_01_Minion_04",
        "Longbow_Female_Group_01_Minion_05"
      ]
    },
    {
      "level": 35,
      "experience": 0,
      "display_names": [
        "Longbow Flamethrower"
      ],
      "costumes": [
        "Longbow_Female_Group_01_Minion_01",
        "Longbow_Female_Group_01_Minion_02",
        "Longbow_Female_Group_01_Minion_03",
        "Longbow_Female_Group_01_Minion_04",
        "Longbow_Female_Group_01_Minion_05"
      ]
    },
    {
      "level": 36,
      "experience": 0,
      "display_names": [
        "Longbow Flamethrower"
      ],
      "costumes": [
        "Longbow_Female_Group_01_Minion_01",
        "Longbow_Female_Group_01_Minion_02",
        "Longbow_Female_Group_01_Minion_03",
        "Longbow_Female_Group_01_Minion_04",
        "Longbow_Female_Group_01_Minion_05"
      ]
    },
    {
      "level": 37,
      "experience": 0,
      "display_names": [
        "Longbow Flamethrower"
      ],
      "costumes": [
        "Longbow_Female_Group_01_Minion_01",
        "Longbow_Female_Group_01_Minion_02",
        "Longbow_Female_Group_01_Minion_03",
        "Longbow_Female_Group_01_Minion_04",
        "Longbow_Female_Group_01_Minion_05"
      ]
    },
    {
      "level": 38,
      "experience": 0,
      "display_names": [
        "Longbow Flamethrower"
      ],
      "costumes": [
        "Longbow_Female_Group_01_Minion_01",
        "Longbow_Female_Group_01_Minion_02",
        "Longbow_Female_Group_01_Minion_03",
        "Longbow_Female_Group_01_Minion_04",
        "Longbow_Female_Group_01_Minion_05"
      ]
    },
    {
      "level": 39,
      "experience": 0,
      "display_names": [
        "Longbow Flamethrower"
      ],
      "costumes": [
        "Longbow_Female_Group_01_Minion_01",
        "Longbow_Female_Group_01_Minion_02",
        "Longbow_Female_Group_01_Minion_03",
        "Longbow_Female_Group_01_Minion_04",
        "Longbow_Female_Group_01_Minion_05"
      ]
    }
  ]
}