{
  "name": "FreedomPhalanx_Back_Alley_Brawler_Pandora",
  "gender": "GENDER_MALE",
  "description": "One of the most veteran heroes in Paragon City, the Brawler is in semi-retirement, training the next generation of heroes. Though he rarely goes into the field these days, his power and fighting skills are still as potent as ever.",
  "group_description": "Independent",
  "display_class_name": "Hero",
  "character_class_name": "boss_grunt",
  "ai_config": "Signatures_Melee",
  "commandable_pet": false,
  "power_tags": [
    "HumanSkeleton",
    "Human",
    "Raid"
  ],
  "additional_rewards": [

  ],
  "skill_hp_rewards": [

  ],
  "skill_status_rewards": [

  ],
  "ally": "Hero",
  "gang": null,
  "reward_scale": 1.0,
  "game_exclusion": "None",
  "inactive_state_weapon": null,
  "ignores_combat_mods": false,
  "copy_creator_mods": false,
  "spawn_limit": 0,
  "spawn_limit_mission": 0,
  "ignore_av_to_eb_scaling": true,
  "can_zone": false,
  "custom_badge_stat": null,
  "badge_stat_flags": "DefaultBadgeStat",
  "rank": "VR_BOSS",
  "power_full_names": [
    "V_Vindicators.Vindicator_Resistances.Resistance",
    "V_FreedomPhalanx.Back_Alley_Brawler.Back_Alley_Power_Punch",
    "V_FreedomPhalanx.Back_Alley_Brawler.Jab",
    "V_FreedomPhalanx.Back_Alley_Brawler.Punch",
    "V_FreedomPhalanx.Back_Alley_Brawler.Hand_Clap",
    "V_FreedomPhalanx.Back_Alley_Brawler.Knockout_Blow",
    "V_FreedomPhalanx.Back_Alley_Brawler.Hurl",
    "V_FreedomPhalanx.Back_Alley_Brawler.Foot_Stomp",
    "V_FreedomPhalanx.Back_Alley_Brawler.Bone_Smasher",
    "V_FreedomPhalanx.Back_Alley_Brawler.Total_Focus",
    "V_FreedomPhalanx.Back_Alley_Brawler.Dull_Pain",
    "V_FreedomPhalanx.Back_Alley_Brawler.Unyielding",
    "V_FreedomPhalanx.Back_Alley_Brawler.Assault",
    "V_FreedomPhalanx.Back_Alley_Brawler.Unstoppable",
    "V_FreedomPhalanx.Back_Alley_Brawler.Super_Leap",
    "V_FreedomPhalanx.Back_Alley_Brawler.Resistance"
  ],
  "power_display_names": [
    "Resistance",
    "Back Alley Power Punch",
    "Jab",
    "Punch",
    "Hand Clap",
    "Knockout Blow",
    "Hurl",
    "Foot Stomp",
    "Bone Smasher",
    "Total Focus",
    "Dull Pain",
    "Unyielding",
    "Assault",
    "Unstoppable",
    "Super Leap",
    "Resistance"
  ],
  "power_levels": [
    0,
    0,
    0,
    0,
    0,
    0,
    0,
    0,
    0,
    0,
    0,
    0,
    0,
    0,
    0,
    0
  ],
  "powers": [
    {
      "power_category": "V_Vindicators",
      "power_set": "Vindicator_Resistances",
      "power": "*",
      "level": 0
    },
    {
      "power_category": "V_FreedomPhalanx",
      "power_set": "Back_Alley_Brawler",
      "power": "*",
      "level": 0
    }
  ],
  "levels": [
    {
      "level": 30,
      "experience": 0,
      "display_names": [
        "Back Alley Brawler"
      ],
      "costumes": [
        "Model_Back_Alley_Brawler"
      ]
    },
    {
      "level": 31,
      "experience": 0,
      "display_names": [
        "Back Alley Brawler"
      ],
      "costumes": [
        "Model_Back_Alley_Brawler"
      ]
    },
    {
      "level": 32,
      "experience": 0,
      "display_names": [
        "Back Alley Brawler"
      ],
      "costumes": [
        "Model_Back_Alley_Brawler"
      ]
    },
    {
      "level": 33,
      "experience": 0,
      "display_names": [
        "Back Alley Brawler"
      ],
      "costumes": [
        "Model_Back_Alley_Brawler"
      ]
    },
    {
      "level": 34,
      "experience": 0,
      "display_names": [
        "Back Alley Brawler"
      ],
      "costumes": [
        "Model_Back_Alley_Brawler"
      ]
    },
    {
      "level": 35,
      "experience": 0,
      "display_names": [
        "Back Alley Brawler"
      ],
      "costumes": [
        "Model_Back_Alley_Brawler"
      ]
    },
    {
      "level": 36,
      "experience": 0,
      "display_names": [
        "Back Alley Brawler"
      ],
      "costumes": [
        "Model_Back_Alley_Brawler"
      ]
    },
    {
      "level": 37,
      "experience": 0,
      "display_names": [
        "Back Alley Brawler"
      ],
      "costumes": [
        "Model_Back_Alley_Brawler"
      ]
    },
    {
      "level": 38,
      "experience": 0,
      "display_names": [
        "Back Alley Brawler"
      ],
      "costumes": [
        "Model_Back_Alley_Brawler"
      ]
    },
    {
      "level": 39,
      "experience": 0,
      "display_names": [
        "Back Alley Brawler"
      ],
      "costumes": [
        "Model_Back_Alley_Brawler"
      ]
    },
    {
      "level": 40,
      "experience": 0,
      "display_names": [
        "Back Alley Brawler"
      ],
      "costumes": [
        "Model_Back_Alley_Brawler"
      ]
    },
    {
      "level": 41,
      "experience": 0,
      "display_names": [
        "Back Alley Brawler"
      ],
      "costumes": [
        "Model_Back_Alley_Brawler"
      ]
    },
    {
      "level": 42,
      "experience": 0,
      "display_names": [
        "Back Alley Brawler"
      ],
      "costumes": [
        "Model_Back_Alley_Brawler"
      ]
    },
    {
      "level": 43,
      "experience": 0,
      "display_names": [
        "Back Alley Brawler"
      ],
      "costumes": [
        "Model_Back_Alley_Brawler"
      ]
    },
    {
      "level": 44,
      "experience": 0,
      "display_names": [
        "Back Alley Brawler"
      ],
      "costumes": [
        "Model_Back_Alley_Brawler"
      ]
    },
    {
      "level": 45,
      "experience": 0,
      "display_names": [
        "Back Alley Brawler"
      ],
      "costumes": [
        "Model_Back_Alley_Brawler"
      ]
    },
    {
      "level": 46,
      "experience": 0,
      "display_names": [
        "Back Alley Brawler"
      ],
      "costumes": [
        "Model_Back_Alley_Brawler"
      ]
    },
    {
      "level": 47,
      "experience": 0,
      "display_names": [
        "Back Alley Brawler"
      ],
      "costumes": [
        "Model_Back_Alley_Brawler"
      ]
    },
    {
      "level": 48,
      "experience": 0,
      "display_names": [
        "Back Alley Brawler"
      ],
      "costumes": [
        "Model_Back_Alley_Brawler"
      ]
    },
    {
      "level": 49,
      "experience": 0,
      "display_names": [
        "Back Alley Brawler"
      ],
      "costumes": [
        "Model_Back_Alley_Brawler"
      ]
    },
    {
      "level": 50,
      "experience": 0,
      "display_names": [
        "Back Alley Brawler"
      ],
      "costumes": [
        "Model_Back_Alley_Brawler"
      ]
    },
    {
      "level": 51,
      "experience": 0,
      "display_names": [
        "Back Alley Brawler"
      ],
      "costumes": [
        "Model_Back_Alley_Brawler"
      ]
    },
    {
      "level": 52,
      "experience": 0,
      "display_names": [
        "Back Alley Brawler"
      ],
      "costumes": [
        "Model_Back_Alley_Brawler"
      ]
    },
    {
      "level": 53,
      "experience": 0,
      "display_names": [
        "Back Alley Brawler"
      ],
      "costumes": [
        "Model_Back_Alley_Brawler"
      ]
    },
    {
      "level": 54,
      "experience": 0,
      "display_names": [
        "Back Alley Brawler"
      ],
      "costumes": [
        "Model_Back_Alley_Brawler"
      ]
    }
  ]
}