{
  "name": "FreedomCorps_Nullifier_high",
  "gender": "GENDER_MALE",
  "description": "Nullifiers are notorious for temporarily taking away a villain's greatest asset--his powers.",
  "group_description": "Longbow",
  "display_class_name": null,
  "character_class_name": "lt_grunt",
  "ai_config": "Default_Ranged",
  "commandable_pet": false,
  "power_tags": [
    "HumanSkeleton",
    "Human"
  ],
  "additional_rewards": [

  ],
  "skill_hp_rewards": [

  ],
  "skill_status_rewards": [

  ],
  "ally": "Hero",
  "gang": null,
  "reward_scale": 1.1,
  "game_exclusion": "None",
  "inactive_state_weapon": null,
  "ignores_combat_mods": false,
  "copy_creator_mods": false,
  "spawn_limit": -1,
  "spawn_limit_mission": -1,
  "ignore_av_to_eb_scaling": false,
  "can_zone": false,
  "custom_badge_stat": null,
  "badge_stat_flags": "DefaultBadgeStat",
  "rank": "VR_LIEUTENANT",
  "power_full_names": [
    "V_FreedomCorps.Nullifier.Sonic_Grenade",
    "V_FreedomCorps.Nullifier.Beanbag",
    "V_FreedomCorps.Nullifier.M30_Grenade",
    "V_FreedomCorps.Nullifier.Slug",
    "V_FreedomCorps.Nullifier.Burst",
    "V_FreedomCorps.Resistance.Tech_Armor",
    "V_FreedomCorps.Minion_Rifleman.Brawl",
    "V_FreedomCorps.Nullifier.Rifle_Butt"
  ],
  "power_display_names": [
    "Sonic Grenade",
    "Beanbag",
    "M30 Grenade",
    "Slug",
    "Burst",
    "Tech Armor",
    "Brawl",
    "Rifle Butt"
  ],
  "power_levels": [
    0,
    0,
    0,
    0,
    0,
    0,
    0,
    0
  ],
  "powers": [
    {
      "power_category": "V_FreedomCorps",
      "power_set": "Nullifier",
      "power": "Sonic_Grenade",
      "level": 0
    },
    {
      "power_category": "V_FreedomCorps",
      "power_set": "Nullifier",
      "power": "Beanbag",
      "level": 0
    },
    {
      "power_category": "V_FreedomCorps",
      "power_set": "Nullifier",
      "power": "M30_Grenade",
      "level": 0
    },
    {
      "power_category": "V_FreedomCorps",
      "power_set": "Nullifier",
      "power": "Slug",
      "level": 0
    },
    {
      "power_category": "V_FreedomCorps",
      "power_set": "Nullifier",
      "power": "Burst",
      "level": 0
    },
    {
      "power_category": "V_FreedomCorps",
      "power_set": "Resistance",
      "power": "*",
      "level": 0
    },
    {
      "power_category": "V_FreedomCorps",
      "power_set": "Minion_Rifleman",
      "power": "Brawl",
      "level": 0
    },
    {
      "power_category": "V_FreedomCorps",
      "power_set": "Nullifier",
      "power": "Rifle_Butt",
      "level": 0
    }
  ],
  "levels": [
    {
      "level": 40,
      "experience": 0,
      "display_names": [
        "Longbow Nullifier"
      ],
      "costumes": [
        "Longbow_Male_Lieutenant_01",
        "Longbow_Male_Lieutenant_02"
      ]
    },
    {
      "level": 41,
      "experience": 0,
      "display_names": [
        "Longbow Nullifier"
      ],
      "costumes": [
        "Longbow_Male_Lieutenant_01",
        "Longbow_Male_Lieutenant_02"
      ]
    },
    {
      "level": 42,
      "experience": 0,
      "display_names": [
        "Longbow Nullifier"
      ],
      "costumes": [
        "Longbow_Male_Lieutenant_01",
        "Longbow_Male_Lieutenant_02"
      ]
    },
    {
      "level": 43,
      "experience": 0,
      "display_names": [
        "Longbow Nullifier"
      ],
      "costumes": [
        "Longbow_Male_Lieutenant_01",
        "Longbow_Male_Lieutenant_02"
      ]
    },
    {
      "level": 44,
      "experience": 0,
      "display_names": [
        "Longbow Nullifier"
      ],
      "costumes": [
        "Longbow_Male_Lieutenant_01",
        "Longbow_Male_Lieutenant_02"
      ]
    },
    {
      "level": 45,
      "experience": 0,
      "display_names": [
        "Longbow Nullifier"
      ],
      "costumes": [
        "Longbow_Male_Lieutenant_01",
        "Longbow_Male_Lieutenant_02"
      ]
    },
    {
      "level": 46,
      "experience": 0,
      "display_names": [
        "Longbow Nullifier"
      ],
      "costumes": [
        "Longbow_Male_Lieutenant_01",
        "Longbow_Male_Lieutenant_02"
      ]
    },
    {
      "level": 47,
      "experience": 0,
      "display_names": [
        "Longbow Nullifier"
      ],
      "costumes": [
        "Longbow_Male_Lieutenant_01",
        "Longbow_Male_Lieutenant_02"
      ]
    },
    {
      "level": 48,
      "experience": 0,
      "display_names": [
        "Longbow Nullifier"
      ],
      "costumes": [
        "Longbow_Male_Lieutenant_01",
        "Longbow_Male_Lieutenant_02"
      ]
    },
    {
      "level": 49,
      "experience": 0,
      "display_names": [
        "Longbow Nullifier"
      ],
      "costumes": [
        "Longbow_Male_Lieutenant_01",
        "Longbow_Male_Lieutenant_02"
      ]
    },
    {
      "level": 50,
      "experience": 0,
      "display_names": [
        "Longbow Nullifier"
      ],
      "costumes": [
        "Longbow_Male_Lieutenant_01",
        "Longbow_Male_Lieutenant_02"
      ]
    },
    {
      "level": 51,
      "experience": 0,
      "display_names": [
        "Longbow Nullifier"
      ],
      "costumes": [
        "Longbow_Male_Lieutenant_01",
        "Longbow_Male_Lieutenant_02"
      ]
    },
    {
      "level": 52,
      "experience": 0,
      "display_names": [
        "Longbow Nullifier"
      ],
      "costumes": [
        "Longbow_Male_Lieutenant_01",
        "Longbow_Male_Lieutenant_02"
      ]
    },
    {
      "level": 53,
      "experience": 0,
      "display_names": [
        "Longbow Nullifier"
      ],
      "costumes": [
        "Longbow_Male_Lieutenant_01",
        "Longbow_Male_Lieutenant_02"
      ]
    },
    {
      "level": 54,
      "experience": 0,
      "display_names": [
        "Longbow Nullifier"
      ],
      "costumes": [
        "Longbow_Male_Lieutenant_01",
        "Longbow_Male_Lieutenant_02"
      ]
    }
  ]
}