{
  "name": "FreedomCorps_Warden_Electric_Defender_31-40_Female",
  "gender": "GENDER_FEMALE",
  "description": "Longbow's juicers are some of their most annoying agents. Not only do they heal their friends by stimulating their cells on a molecular level, their attacks drain your energy and keep you from smashing their faces.",
  "group_description": "Longbow",
  "display_class_name": null,
  "character_class_name": "boss_grunt",
  "ai_config": "Default_Ranged",
  "commandable_pet": false,
  "power_tags": [
    "Humanoid",
    "HumanSkeleton"
  ],
  "additional_rewards": [

  ],
  "skill_hp_rewards": [

  ],
  "skill_status_rewards": [

  ],
  "ally": "Hero",
  "gang": null,
  "reward_scale": 1.25,
  "game_exclusion": "None",
  "inactive_state_weapon": null,
  "ignores_combat_mods": false,
  "copy_creator_mods": false,
  "spawn_limit": -1,
  "spawn_limit_mission": -1,
  "ignore_av_to_eb_scaling": false,
  "can_zone": false,
  "custom_badge_stat": null,
  "badge_stat_flags": "DefaultBadgeStat",
  "rank": "VR_BOSS",
  "power_full_names": [
    "V_GenericHeroes.Electric_Defender_Low.Gale",
    "V_GenericHeroes.Electric_Defender_Low.Snow_Storm",
    "V_GenericHeroes.Electric_Defender_Low.Charged_Bolts",
    "V_GenericHeroes.Electric_Defender_Low.Lightning_Bolt",
    "V_GenericHeroes.Electric_Defender_Low.Ball_Lightning",
    "V_GenericHeroes.Electric_Defender_Low.Lightning_Storm",
    "V_GenericHeroes.Electric_Defender_Mid.Tesla_Cage",
    "V_GenericHeroes.Electric_Defender_Mid.Thunder_Clap",
    "V_GenericHeroes.Hero_Flight.Fly",
    "V_GenericHeroes.Hero_Flight.Fly_fx"
  ],
  "power_display_names": [
    "Gale",
    "Snow Storm",
    "Charged Bolts",
    "Lightning Bolt",
    "Ball Lightning",
    "Lightning Storm",
    "Tesla Cage",
    "Thunder Clap",
    "Fly",
    "Fly fx"
  ],
  "power_levels": [
    0,
    0,
    0,
    0,
    0,
    0,
    0,
    0,
    0,
    0
  ],
  "powers": [
    {
      "power_category": "V_GenericHeroes",
      "power_set": "Electric_Defender_Low",
      "power": "*",
      "level": 0
    },
    {
      "power_category": "V_GenericHeroes",
      "power_set": "Electric_Defender_Mid",
      "power": "*",
      "level": 0
    },
    {
      "power_category": "V_GenericHeroes",
      "power_set": "Hero_Flight",
      "power": "*",
      "level": 0
    }
  ],
  "levels": [
    {
      "level": 31,
      "experience": 0,
      "display_names": [
        "Longbow Warden"
      ],
      "costumes": [
        "Longbow_Female_Boss_03",
        "Longbow_Female_Boss_05"
      ]
    },
    {
      "level": 32,
      "experience": 0,
      "display_names": [
        "Longbow Warden"
      ],
      "costumes": [
        "Longbow_Female_Boss_03",
        "Longbow_Female_Boss_05"
      ]
    },
    {
      "level": 33,
      "experience": 0,
      "display_names": [
        "Longbow Warden"
      ],
      "costumes": [
        "Longbow_Female_Boss_03",
        "Longbow_Female_Boss_05"
      ]
    },
    {
      "level": 34,
      "experience": 0,
      "display_names": [
        "Longbow Warden"
      ],
      "costumes": [
        "Longbow_Female_Boss_03",
        "Longbow_Female_Boss_05"
      ]
    },
    {
      "level": 35,
      "experience": 0,
      "display_names": [
        "Longbow Warden"
      ],
      "costumes": [
        "Longbow_Female_Boss_03",
        "Longbow_Female_Boss_05"
      ]
    },
    {
      "level": 36,
      "experience": 0,
      "display_names": [
        "Longbow Warden"
      ],
      "costumes": [
        "Longbow_Female_Boss_03",
        "Longbow_Female_Boss_05"
      ]
    },
    {
      "level": 37,
      "experience": 0,
      "display_names": [
        "Longbow Warden"
      ],
      "costumes": [
        "Longbow_Female_Boss_03",
        "Longbow_Female_Boss_05"
      ]
    },
    {
      "level": 38,
      "experience": 0,
      "display_names": [
        "Longbow Warden"
      ],
      "costumes": [
        "Longbow_Female_Boss_03",
        "Longbow_Female_Boss_05"
      ]
    },
    {
      "level": 39,
      "experience": 0,
      "display_names": [
        "Longbow Warden"
      ],
      "costumes": [
        "Longbow_Female_Boss_03",
        "Longbow_Female_Boss_05"
      ]
    },
    {
      "level": 40,
      "experience": 0,
      "display_names": [
        "Longbow Warden"
      ],
      "costumes": [
        "Longbow_Female_Boss_03",
        "Longbow_Female_Boss_05"
      ]
    }
  ]
}