{
  "name": "FreedomCorps_SpecOps_med",
  "gender": "GENDER_MALE",
  "description": "Longbow's special operators strike from the shadows with a variety of weapons designed to impede, immobolize, and disorient villains.",
  "group_description": "Longbow",
  "display_class_name": null,
  "character_class_name": "minion_grunt",
  "ai_config": "Default_Ranged",
  "commandable_pet": false,
  "power_tags": [
    "HumanSkeleton",
    "Human"
  ],
  "additional_rewards": [

  ],
  "skill_hp_rewards": [

  ],
  "skill_status_rewards": [

  ],
  "ally": "Hero",
  "gang": null,
  "reward_scale": 1.1,
  "game_exclusion": "None",
  "inactive_state_weapon": null,
  "ignores_combat_mods": false,
  "copy_creator_mods": false,
  "spawn_limit": 1,
  "spawn_limit_mission": 1,
  "ignore_av_to_eb_scaling": false,
  "can_zone": false,
  "custom_badge_stat": null,
  "badge_stat_flags": "DefaultBadgeStat",
  "rank": "VR_MINION",
  "power_full_names": [
    "V_FreedomCorps.Minion_SpecOps.Cloaking_Device",
    "V_FreedomCorps.Minion_SpecOps.Web_Grenade",
    "V_FreedomCorps.Minion_SpecOps.M30_Grenade",
    "V_FreedomCorps.Minion_Rifleman.Adv_Assault_Rifle_Slug",
    "V_FreedomCorps.Minion_Rifleman.Adv_Assault_Rifle_Burst",
    "V_FreedomCorps.Minion_Rifleman.Brawl",
    "V_FreedomCorps.Resistance.Tech_Armor"
  ],
  "power_display_names": [
    "Cloaking Device",
    "Web Grenade",
    "M30 Grenade",
    "Adv Assault Rifle Slug",
    "Adv Assault Rifle Burst",
    "Brawl",
    "Tech Armor"
  ],
  "power_levels": [
    0,
    0,
    0,
    0,
    0,
    0,
    0
  ],
  "powers": [
    {
      "power_category": "V_FreedomCorps",
      "power_set": "Minion_SpecOps",
      "power": "Cloaking_Device",
      "level": 0
    },
    {
      "power_category": "V_FreedomCorps",
      "power_set": "Minion_SpecOps",
      "power": "Web_Grenade",
      "level": 0
    },
    {
      "power_category": "V_FreedomCorps",
      "power_set": "Minion_SpecOps",
      "power": "M30_Grenade",
      "level": 0
    },
    {
      "power_category": "V_FreedomCorps",
      "power_set": "Minion_Rifleman",
      "power": "Adv_Assault_Rifle_Slug",
      "level": 0
    },
    {
      "power_category": "V_FreedomCorps",
      "power_set": "Minion_Rifleman",
      "power": "Adv_Assault_Rifle_Burst",
      "level": 0
    },
    {
      "power_category": "V_FreedomCorps",
      "power_set": "Minion_Rifleman",
      "power": "Brawl",
      "level": 0
    },
    {
      "power_category": "V_FreedomCorps",
      "power_set": "Resistance",
      "power": "*",
      "level": 0
    }
  ],
  "levels": [
    {
      "level": 30,
      "experience": 0,
      "display_names": [
        "Longbow Spec-Ops"
      ],
      "costumes": [
        "Longbow_Male_Group_02_Minion_03",
        "Longbow_Male_Group_02_Minion_04"
      ]
    },
    {
      "level": 31,
      "experience": 0,
      "display_names": [
        "Longbow Spec-Ops"
      ],
      "costumes": [
        "Longbow_Male_Group_02_Minion_03",
        "Longbow_Male_Group_02_Minion_04"
      ]
    },
    {
      "level": 32,
      "experience": 0,
      "display_names": [
        "Longbow Spec-Ops"
      ],
      "costumes": [
        "Longbow_Male_Group_02_Minion_03",
        "Longbow_Male_Group_02_Minion_04"
      ]
    },
    {
      "level": 33,
      "experience": 0,
      "display_names": [
        "Longbow Spec-Ops"
      ],
      "costumes": [
        "Longbow_Male_Group_02_Minion_03",
        "Longbow_Male_Group_02_Minion_04"
      ]
    },
    {
      "level": 34,
      "experience": 0,
      "display_names": [
        "Longbow Spec-Ops"
      ],
      "costumes": [
        "Longbow_Male_Group_02_Minion_03",
        "Longbow_Male_Group_02_Minion_04"
      ]
    },
    {
      "level": 35,
      "experience": 0,
      "display_names": [
        "Longbow Spec-Ops"
      ],
      "costumes": [
        "Longbow_Male_Group_02_Minion_03",
        "Longbow_Male_Group_02_Minion_04"
      ]
    },
    {
      "level": 36,
      "experience": 0,
      "display_names": [
        "Longbow Spec-Ops"
      ],
      "costumes": [
        "Longbow_Male_Group_02_Minion_03",
        "Longbow_Male_Group_02_Minion_04"
      ]
    },
    {
      "level": 37,
      "experience": 0,
      "display_names": [
        "Longbow Spec-Ops"
      ],
      "costumes": [
        "Longbow_Male_Group_02_Minion_03",
        "Longbow_Male_Group_02_Minion_04"
      ]
    },
    {
      "level": 38,
      "experience": 0,
      "display_names": [
        "Longbow Spec-Ops"
      ],
      "costumes": [
        "Longbow_Male_Group_02_Minion_03",
        "Longbow_Male_Group_02_Minion_04"
      ]
    },
    {
      "level": 39,
      "experience": 0,
      "display_names": [
        "Longbow Spec-Ops"
      ],
      "costumes": [
        "Longbow_Male_Group_02_Minion_03",
        "Longbow_Male_Group_02_Minion_04"
      ]
    }
  ]
}