{
  "name": "FreedomPhalanx_PenelopeYin_Pandora",
  "gender": "GENDER_FEMALE",
  "description": "Penelope Yin is one of the most powerful psychics in the world. Heroes first met her when she was eighteen in Faultline and still adjusting to her powers. Now, several years later, Penelope Yin has entered the scene as a true super-powered hero. Her psychic abilities are impressive, though it isn't known who exactly helped her to train and focus her powers in such a manner.",
  "group_description": null,
  "display_class_name": "Hero",
  "character_class_name": "boss_grunt",
  "ai_config": "Signatures_Ranged",
  "commandable_pet": false,
  "power_tags": [
    "Human",
    "HumanSkeleton",
    "Raid"
  ],
  "additional_rewards": [

  ],
  "skill_hp_rewards": [

  ],
  "skill_status_rewards": [

  ],
  "ally": "Hero",
  "gang": null,
  "reward_scale": 1.0,
  "game_exclusion": "None",
  "inactive_state_weapon": null,
  "ignores_combat_mods": false,
  "copy_creator_mods": false,
  "spawn_limit": 0,
  "spawn_limit_mission": 0,
  "ignore_av_to_eb_scaling": true,
  "can_zone": false,
  "custom_badge_stat": null,
  "badge_stat_flags": "DefaultBadgeStat",
  "rank": "VR_BOSS",
  "power_full_names": [
    "GenericVillains.AV_Resistance.AV_Resistance",
    "V_FreedomPhalanx.PenelopeYin.Psionic_Blast",
    "V_FreedomPhalanx.PenelopeYin.Psionic_Crush",
    "V_FreedomPhalanx.PenelopeYin.Psionic_Torment",
    "V_FreedomPhalanx.PenelopeYin.Psionic_Drift",
    "V_FreedomPhalanx.PenelopeYin.Psionic_Pulse",
    "V_FreedomPhalanx.PenelopeYin.Psionic_Blade",
    "V_FreedomPhalanx.PenelopeYin.Psionic_Thrust",
    "V_FreedomPhalanx.PenelopeYin.Psionic_Nexus",
    "V_FreedomPhalanx.PenelopeYin.Impenetrable_Mind"
  ],
  "power_display_names": [
    "Archvillain's Might",
    "Psionic Blast",
    "Psionic Crush",
    "Psionic Torment",
    "Psionic Drift",
    "Psionic Pulse",
    "Psionic Blade",
    "Psionic Thrust",
    "Psionic Nexus",
    "Impenetrable Mind"
  ],
  "power_levels": [
    0,
    0,
    0,
    0,
    0,
    0,
    0,
    0,
    0,
    0
  ],
  "powers": [
    {
      "power_category": "GenericVillains",
      "power_set": "AV_Resistance",
      "power": "*",
      "level": 0
    },
    {
      "power_category": "V_FreedomPhalanx",
      "power_set": "PenelopeYin",
      "power": "*",
      "level": 0
    }
  ],
  "levels": [
    {
      "level": 30,
      "experience": 0,
      "display_names": [
        "Penelope Yin"
      ],
      "costumes": [
        "Model_Penelope_Yin_New"
      ]
    },
    {
      "level": 31,
      "experience": 0,
      "display_names": [
        "Penelope Yin"
      ],
      "costumes": [
        "Model_Penelope_Yin_New"
      ]
    },
    {
      "level": 32,
      "experience": 0,
      "display_names": [
        "Penelope Yin"
      ],
      "costumes": [
        "Model_Penelope_Yin_New"
      ]
    },
    {
      "level": 33,
      "experience": 0,
      "display_names": [
        "Penelope Yin"
      ],
      "costumes": [
        "Model_Penelope_Yin_New"
      ]
    },
    {
      "level": 34,
      "experience": 0,
      "display_names": [
        "Penelope Yin"
      ],
      "costumes": [
        "Model_Penelope_Yin_New"
      ]
    },
    {
      "level": 35,
      "experience": 0,
      "display_names": [
        "Penelope Yin"
      ],
      "costumes": [
        "Model_Penelope_Yin_New"
      ]
    },
    {
      "level": 36,
      "experience": 0,
      "display_names": [
        "Penelope Yin"
      ],
      "costumes": [
        "Model_Penelope_Yin_New"
      ]
    },
    {
      "level": 37,
      "experience": 0,
      "display_names": [
        "Penelope Yin"
      ],
      "costumes": [
        "Model_Penelope_Yin_New"
      ]
    },
    {
      "level": 38,
      "experience": 0,
      "display_names": [
        "Penelope Yin"
      ],
      "costumes": [
        "Model_Penelope_Yin_New"
      ]
    },
    {
      "level": 39,
      "experience": 0,
      "display_names": [
        "Penelope Yin"
      ],
      "costumes": [
        "Model_Penelope_Yin_New"
      ]
    },
    {
      "level": 40,
      "experience": 0,
      "display_names": [
        "Penelope Yin"
      ],
      "costumes": [
        "Model_Penelope_Yin_New"
      ]
    },
    {
      "level": 41,
      "experience": 0,
      "display_names": [
        "Penelope Yin"
      ],
      "costumes": [
        "Model_Penelope_Yin_New"
      ]
    },
    {
      "level": 42,
      "experience": 0,
      "display_names": [
        "Penelope Yin"
      ],
      "costumes": [
        "Model_Penelope_Yin_New"
      ]
    },
    {
      "level": 43,
      "experience": 0,
      "display_names": [
        "Penelope Yin"
      ],
      "costumes": [
        "Model_Penelope_Yin_New"
      ]
    },
    {
      "level": 44,
      "experience": 0,
      "display_names": [
        "Penelope Yin"
      ],
      "costumes": [
        "Model_Penelope_Yin_New"
      ]
    },
    {
      "level": 45,
      "experience": 0,
      "display_names": [
        "Penelope Yin"
      ],
      "costumes": [
        "Model_Penelope_Yin_New"
      ]
    },
    {
      "level": 46,
      "experience": 0,
      "display_names": [
        "Penelope Yin"
      ],
      "costumes": [
        "Model_Penelope_Yin_New"
      ]
    },
    {
      "level": 47,
      "experience": 0,
      "display_names": [
        "Penelope Yin"
      ],
      "costumes": [
        "Model_Penelope_Yin_New"
      ]
    },
    {
      "level": 48,
      "experience": 0,
      "display_names": [
        "Penelope Yin"
      ],
      "costumes": [
        "Model_Penelope_Yin_New"
      ]
    },
    {
      "level": 49,
      "experience": 0,
      "display_names": [
        "Penelope Yin"
      ],
      "costumes": [
        "Model_Penelope_Yin_New"
      ]
    },
    {
      "level": 50,
      "experience": 0,
      "display_names": [
        "Penelope Yin"
      ],
      "costumes": [
        "Model_Penelope_Yin_New"
      ]
    },
    {
      "level": 51,
      "experience": 0,
      "display_names": [
        "Penelope Yin"
      ],
      "costumes": [
        "Model_Penelope_Yin_New"
      ]
    },
    {
      "level": 52,
      "experience": 0,
      "display_names": [
        "Penelope Yin"
      ],
      "costumes": [
        "Model_Penelope_Yin_New"
      ]
    },
    {
      "level": 53,
      "experience": 0,
      "display_names": [
        "Penelope Yin"
      ],
      "costumes": [
        "Model_Penelope_Yin_New"
      ]
    },
    {
      "level": 54,
      "experience": 0,
      "display_names": [
        "Penelope Yin"
      ],
      "costumes": [
        "Model_Penelope_Yin_New"
      ]
    }
  ]
}