{
  "name": "GenericHeroes_Spines_Scrapper_11-20_Female",
  "gender": "GENDER_FEMALE",
  "description": "This is a generic Spines/Regeneration Scrapper.",
  "group_description": "Freedom Corps",
  "display_class_name": null,
  "character_class_name": "boss_grunt",
  "ai_config": "Default_Melee",
  "commandable_pet": false,
  "power_tags": [
    "Humanoid",
    "HumanSkeleton"
  ],
  "additional_rewards": [

  ],
  "skill_hp_rewards": [

  ],
  "skill_status_rewards": [

  ],
  "ally": "Hero",
  "gang": null,
  "reward_scale": 1.0,
  "game_exclusion": "None",
  "inactive_state_weapon": null,
  "ignores_combat_mods": false,
  "copy_creator_mods": false,
  "spawn_limit": -1,
  "spawn_limit_mission": -1,
  "ignore_av_to_eb_scaling": false,
  "can_zone": false,
  "custom_badge_stat": null,
  "badge_stat_flags": "DefaultBadgeStat",
  "rank": "VR_BOSS",
  "power_full_names": [
    "V_GenericHeroes.Spines_Scrapper.Barb_Swipe",
    "V_GenericHeroes.Spines_Scrapper.Lunge",
    "V_GenericHeroes.Spines_Scrapper.Spine_Burst",
    "V_GenericHeroes.Spines_Scrapper.Regeneration",
    "V_GenericHeroes.Spines_Scrapper_Low.Impale"
  ],
  "power_display_names": [
    "Barb Swipe",
    "Lunge",
    "Spine Burst",
    "Regeneration",
    "Impale"
  ],
  "power_levels": [
    0,
    0,
    0,
    0,
    0
  ],
  "powers": [
    {
      "power_category": "V_GenericHeroes",
      "power_set": "Spines_Scrapper",
      "power": "*",
      "level": 0
    },
    {
      "power_category": "V_GenericHeroes",
      "power_set": "Spines_Scrapper_Low",
      "power": "*",
      "level": 0
    }
  ],
  "levels": [
    {
      "level": 11,
      "experience": 0,
      "display_names": [
        "Longbow Scrapper"
      ],
      "costumes": [
        "Longbow_Female_Boss_01",
        "Longbow_Female_Boss_02",
        "Longbow_Female_Boss_03",
        "Longbow_Female_Boss_04",
        "Longbow_Female_Boss_05"
      ]
    },
    {
      "level": 12,
      "experience": 0,
      "display_names": [
        "Longbow Scrapper"
      ],
      "costumes": [
        "Longbow_Female_Boss_01",
        "Longbow_Female_Boss_02",
        "Longbow_Female_Boss_03",
        "Longbow_Female_Boss_04",
        "Longbow_Female_Boss_05"
      ]
    },
    {
      "level": 13,
      "experience": 0,
      "display_names": [
        "Longbow Scrapper"
      ],
      "costumes": [
        "Longbow_Female_Boss_01",
        "Longbow_Female_Boss_02",
        "Longbow_Female_Boss_03",
        "Longbow_Female_Boss_04",
        "Longbow_Female_Boss_05"
      ]
    },
    {
      "level": 14,
      "experience": 0,
      "display_names": [
        "Longbow Scrapper"
      ],
      "costumes": [
        "Longbow_Female_Boss_01",
        "Longbow_Female_Boss_02",
        "Longbow_Female_Boss_03",
        "Longbow_Female_Boss_04",
        "Longbow_Female_Boss_05"
      ]
    },
    {
      "level": 15,
      "experience": 0,
      "display_names": [
        "Longbow Scrapper"
      ],
      "costumes": [
        "Longbow_Female_Boss_01",
        "Longbow_Female_Boss_02",
        "Longbow_Female_Boss_03",
        "Longbow_Female_Boss_04",
        "Longbow_Female_Boss_05"
      ]
    },
    {
      "level": 16,
      "experience": 0,
      "display_names": [
        "Longbow Scrapper"
      ],
      "costumes": [
        "Longbow_Female_Boss_01",
        "Longbow_Female_Boss_02",
        "Longbow_Female_Boss_03",
        "Longbow_Female_Boss_04",
        "Longbow_Female_Boss_05"
      ]
    },
    {
      "level": 17,
      "experience": 0,
      "display_names": [
        "Longbow Scrapper"
      ],
      "costumes": [
        "Longbow_Female_Boss_01",
        "Longbow_Female_Boss_02",
        "Longbow_Female_Boss_03",
        "Longbow_Female_Boss_04",
        "Longbow_Female_Boss_05"
      ]
    },
    {
      "level": 18,
      "experience": 0,
      "display_names": [
        "Longbow Scrapper"
      ],
      "costumes": [
        "Longbow_Female_Boss_01",
        "Longbow_Female_Boss_02",
        "Longbow_Female_Boss_03",
        "Longbow_Female_Boss_04",
        "Longbow_Female_Boss_05"
      ]
    },
    {
      "level": 19,
      "experience": 0,
      "display_names": [
        "Longbow Scrapper"
      ],
      "costumes": [
        "Longbow_Female_Boss_01",
        "Longbow_Female_Boss_02",
        "Longbow_Female_Boss_03",
        "Longbow_Female_Boss_04",
        "Longbow_Female_Boss_05"
      ]
    },
    {
      "level": 20,
      "experience": 0,
      "display_names": [
        "Longbow Scrapper"
      ],
      "costumes": [
        "Longbow_Female_Boss_01",
        "Longbow_Female_Boss_02",
        "Longbow_Female_Boss_03",
        "Longbow_Female_Boss_04",
        "Longbow_Female_Boss_05"
      ]
    }
  ]
}