{
  "name": "GenericVillains_Porter_Gun_Sky_Raider",
  "gender": "GENDER_MALE",
  "description": "The basic Sky Raider infantrymen, Assault Raiders are usually found inside buildings where flight packs wouldn't be an asset. They are typically armed with submachine guns, flamethrowers, or other weapons suitable for fighting in confined spaces.",
  "group_description": null,
  "display_class_name": null,
  "character_class_name": "minion_grunt",
  "ai_config": "Default_Ranged",
  "commandable_pet": false,
  "power_tags": [
    "HumanSkeleton",
    "Human"
  ],
  "additional_rewards": [

  ],
  "skill_hp_rewards": [

  ],
  "skill_status_rewards": [

  ],
  "ally": null,
  "gang": null,
  "reward_scale": 1.0,
  "game_exclusion": "None",
  "inactive_state_weapon": null,
  "ignores_combat_mods": false,
  "copy_creator_mods": false,
  "spawn_limit": -1,
  "spawn_limit_mission": -1,
  "ignore_av_to_eb_scaling": false,
  "can_zone": false,
  "custom_badge_stat": null,
  "badge_stat_flags": "DefaultBadgeStat",
  "rank": "VR_MINION",
  "power_full_names": [
    "SkyRaiders.Sky_Raider_Minion_Melee.Brawl",
    "SkyRaiders.Sky_Raider_Minion_Melee.Machete",
    "SkyRaiders.Sky_Raider_SubmachineGun.Adv_Sub_Machine_Gun",
    "Incarnate_I20.Porter.Porter_Pack"
  ],
  "power_display_names": [
    "Brawl",
    "Machete",
    "Adv Sub Machine Gun",
    "Porter Pack"
  ],
  "power_levels": [
    0,
    0,
    0,
    0
  ],
  "powers": [
    {
      "power_category": "SkyRaiders",
      "power_set": "Sky_Raider_Minion_Melee",
      "power": "*",
      "level": 0
    },
    {
      "power_category": "SkyRaiders",
      "power_set": "Sky_Raider_SubmachineGun",
      "power": "*",
      "level": 0
    },
    {
      "power_category": "Incarnate_I20",
      "power_set": "Porter",
      "power": "*",
      "level": 0
    }
  ],
  "levels": [
    {
      "level": 20,
      "experience": 0,
      "display_names": [
        "Assault Raider"
      ],
      "costumes": [
        "Sky_Raiders_01"
      ]
    },
    {
      "level": 21,
      "experience": 0,
      "display_names": [
        "Assault Raider"
      ],
      "costumes": [
        "Sky_Raiders_01"
      ]
    },
    {
      "level": 22,
      "experience": 0,
      "display_names": [
        "Assault Raider"
      ],
      "costumes": [
        "Sky_Raiders_01"
      ]
    },
    {
      "level": 23,
      "experience": 0,
      "display_names": [
        "Assault Raider"
      ],
      "costumes": [
        "Sky_Raiders_01"
      ]
    },
    {
      "level": 24,
      "experience": 0,
      "display_names": [
        "Assault Raider"
      ],
      "costumes": [
        "Sky_Raiders_01"
      ]
    },
    {
      "level": 25,
      "experience": 0,
      "display_names": [
        "Assault Raider"
      ],
      "costumes": [
        "Sky_Raiders_01"
      ]
    }
  ]
}