{
  "name": "GenericHeroes_Civic_Gravidian",
  "gender": "GENDER_MALE",
  "description": "Discovering you're the son of an alien is a difficult thing in the years following the Rikti war. For young Tensor Fields, it was the first thing in his life that made sense. He trained his native gravity-altering abilities under his father's tutelage, and took up the traditional heroic garb of his homeworld as his own. Now he upholds the high ideals of an advanced civilization as Gravidian!",
  "group_description": "Civic Squad",
  "display_class_name": null,
  "character_class_name": "boss_grunt",
  "ai_config": "Default_Ranged",
  "commandable_pet": false,
  "power_tags": [
    "Humanoid",
    "HumanSkeleton"
  ],
  "additional_rewards": [

  ],
  "skill_hp_rewards": [

  ],
  "skill_status_rewards": [

  ],
  "ally": "Hero",
  "gang": null,
  "reward_scale": 1.0,
  "game_exclusion": "None",
  "inactive_state_weapon": null,
  "ignores_combat_mods": false,
  "copy_creator_mods": false,
  "spawn_limit": -1,
  "spawn_limit_mission": -1,
  "ignore_av_to_eb_scaling": false,
  "can_zone": false,
  "custom_badge_stat": null,
  "badge_stat_flags": "DefaultBadgeStat",
  "rank": "VR_BOSS",
  "power_full_names": [
    "V_GenericHeroes.Gravity_Controller.Crush",
    "V_GenericHeroes.Gravity_Controller.Lift",
    "V_GenericHeroes.Gravity_Controller.Propel",
    "V_GenericHeroes.Gravity_Controller.Transfusion",
    "V_GenericHeroes.Gravity_Controller.Siphon_Speed",
    "V_GenericHeroes.Gravity_Controller.Crushing_Field",
    "V_GenericHeroes.Gravity_Controller.Siphon_Power",
    "V_GenericHeroes.Gravity_Controller.Singularity",
    "V_GenericHeroes.Gravity_Controller_High.Gravity_Distortion"
  ],
  "power_display_names": [
    "Crush",
    "Lift",
    "Propel",
    "Transfusion",
    "Siphon Speed",
    "Crushing Field",
    "Siphon Power",
    "Singularity",
    "Gravity Distortion"
  ],
  "power_levels": [
    0,
    0,
    0,
    0,
    0,
    0,
    0,
    0,
    0
  ],
  "powers": [
    {
      "power_category": "V_GenericHeroes",
      "power_set": "Gravity_Controller",
      "power": "*",
      "level": 0
    },
    {
      "power_category": "V_GenericHeroes",
      "power_set": "Gravity_Controller_High",
      "power": "*",
      "level": 0
    }
  ],
  "levels": [
    {
      "level": 40,
      "experience": 0,
      "display_names": [
        "Gravidian"
      ],
      "costumes": [
        "Model_Gravidian"
      ]
    },
    {
      "level": 41,
      "experience": 0,
      "display_names": [
        "Gravidian"
      ],
      "costumes": [
        "Model_Gravidian"
      ]
    },
    {
      "level": 42,
      "experience": 0,
      "display_names": [
        "Gravidian"
      ],
      "costumes": [
        "Model_Gravidian"
      ]
    },
    {
      "level": 43,
      "experience": 0,
      "display_names": [
        "Gravidian"
      ],
      "costumes": [
        "Model_Gravidian"
      ]
    },
    {
      "level": 44,
      "experience": 0,
      "display_names": [
        "Gravidian"
      ],
      "costumes": [
        "Model_Gravidian"
      ]
    },
    {
      "level": 45,
      "experience": 0,
      "display_names": [
        "Gravidian"
      ],
      "costumes": [
        "Model_Gravidian"
      ]
    },
    {
      "level": 46,
      "experience": 0,
      "display_names": [
        "Gravidian"
      ],
      "costumes": [
        "Model_Gravidian"
      ]
    },
    {
      "level": 47,
      "experience": 0,
      "display_names": [
        "Gravidian"
      ],
      "costumes": [
        "Model_Gravidian"
      ]
    },
    {
      "level": 48,
      "experience": 0,
      "display_names": [
        "Gravidian"
      ],
      "costumes": [
        "Model_Gravidian"
      ]
    },
    {
      "level": 49,
      "experience": 0,
      "display_names": [
        "Gravidian"
      ],
      "costumes": [
        "Model_Gravidian"
      ]
    },
    {
      "level": 50,
      "experience": 0,
      "display_names": [
        "Gravidian"
      ],
      "costumes": [
        "Model_Gravidian"
      ]
    },
    {
      "level": 51,
      "experience": 0,
      "display_names": [
        "Gravidian"
      ],
      "costumes": [
        "Model_Gravidian"
      ]
    },
    {
      "level": 52,
      "experience": 0,
      "display_names": [
        "Gravidian"
      ],
      "costumes": [
        "Model_Gravidian"
      ]
    },
    {
      "level": 53,
      "experience": 0,
      "display_names": [
        "Gravidian"
      ],
      "costumes": [
        "Model_Gravidian"
      ]
    },
    {
      "level": 54,
      "experience": 0,
      "display_names": [
        "Gravidian"
      ],
      "costumes": [
        "Model_Gravidian"
      ]
    }
  ]
}