{
  "name": "GenericHeroes_Sonic_Defender_31-40",
  "gender": "GENDER_MALE",
  "description": "This is a generic Sonic/Sonic Defender.",
  "group_description": "Freedom Corps",
  "display_class_name": null,
  "character_class_name": "boss_grunt",
  "ai_config": "Default_Ranged",
  "commandable_pet": false,
  "power_tags": [
    "Humanoid",
    "HumanSkeleton"
  ],
  "additional_rewards": [

  ],
  "skill_hp_rewards": [

  ],
  "skill_status_rewards": [

  ],
  "ally": "Hero",
  "gang": null,
  "reward_scale": 1.0,
  "game_exclusion": "None",
  "inactive_state_weapon": null,
  "ignores_combat_mods": false,
  "copy_creator_mods": false,
  "spawn_limit": -1,
  "spawn_limit_mission": -1,
  "ignore_av_to_eb_scaling": false,
  "can_zone": false,
  "custom_badge_stat": null,
  "badge_stat_flags": "DefaultBadgeStat",
  "rank": "VR_BOSS",
  "power_full_names": [
    "V_GenericHeroes.Sonic_Defender_Low.Shriek",
    "V_GenericHeroes.Sonic_Defender_Low.Scream",
    "V_GenericHeroes.Sonic_Defender_Low.Shockwave",
    "V_GenericHeroes.Sonic_Defender_Low.Howl",
    "V_GenericHeroes.Sonic_Defender_Low.Sonic_Siphon",
    "V_GenericHeroes.Sonic_Defender_Low.Sonic_Barrier",
    "V_GenericHeroes.Sonic_Defender_Mid.Screech",
    "V_GenericHeroes.Sonic_Defender_Mid.Liquefy"
  ],
  "power_display_names": [
    "Shriek",
    "Scream",
    "Shockwave",
    "Howl",
    "Sonic Siphon",
    "Sonic Barrier",
    "Screech",
    "Liquefy"
  ],
  "power_levels": [
    0,
    0,
    0,
    0,
    0,
    0,
    0,
    0
  ],
  "powers": [
    {
      "power_category": "V_GenericHeroes",
      "power_set": "Sonic_Defender_Low",
      "power": "*",
      "level": 0
    },
    {
      "power_category": "V_GenericHeroes",
      "power_set": "Sonic_Defender_Mid",
      "power": "*",
      "level": 0
    }
  ],
  "levels": [
    {
      "level": 31,
      "experience": 0,
      "display_names": [
        "Longbow Defender"
      ],
      "costumes": [
        "Longbow_Male_Boss_01",
        "Longbow_Male_Boss_02",
        "Longbow_Male_Boss_03",
        "Longbow_Male_Boss_04",
        "Longbow_Male_Boss_05"
      ]
    },
    {
      "level": 32,
      "experience": 0,
      "display_names": [
        "Longbow Defender"
      ],
      "costumes": [
        "Longbow_Male_Boss_01",
        "Longbow_Male_Boss_02",
        "Longbow_Male_Boss_03",
        "Longbow_Male_Boss_04",
        "Longbow_Male_Boss_05"
      ]
    },
    {
      "level": 33,
      "experience": 0,
      "display_names": [
        "Longbow Defender"
      ],
      "costumes": [
        "Longbow_Male_Boss_01",
        "Longbow_Male_Boss_02",
        "Longbow_Male_Boss_03",
        "Longbow_Male_Boss_04",
        "Longbow_Male_Boss_05"
      ]
    },
    {
      "level": 34,
      "experience": 0,
      "display_names": [
        "Longbow Defender"
      ],
      "costumes": [
        "Longbow_Male_Boss_01",
        "Longbow_Male_Boss_02",
        "Longbow_Male_Boss_03",
        "Longbow_Male_Boss_04",
        "Longbow_Male_Boss_05"
      ]
    },
    {
      "level": 35,
      "experience": 0,
      "display_names": [
        "Longbow Defender"
      ],
      "costumes": [
        "Longbow_Male_Boss_01",
        "Longbow_Male_Boss_02",
        "Longbow_Male_Boss_03",
        "Longbow_Male_Boss_04",
        "Longbow_Male_Boss_05"
      ]
    },
    {
      "level": 36,
      "experience": 0,
      "display_names": [
        "Longbow Defender"
      ],
      "costumes": [
        "Longbow_Male_Boss_01",
        "Longbow_Male_Boss_02",
        "Longbow_Male_Boss_03",
        "Longbow_Male_Boss_04",
        "Longbow_Male_Boss_05"
      ]
    },
    {
      "level": 37,
      "experience": 0,
      "display_names": [
        "Longbow Defender"
      ],
      "costumes": [
        "Longbow_Male_Boss_01",
        "Longbow_Male_Boss_02",
        "Longbow_Male_Boss_03",
        "Longbow_Male_Boss_04",
        "Longbow_Male_Boss_05"
      ]
    },
    {
      "level": 38,
      "experience": 0,
      "display_names": [
        "Longbow Defender"
      ],
      "costumes": [
        "Longbow_Male_Boss_01",
        "Longbow_Male_Boss_02",
        "Longbow_Male_Boss_03",
        "Longbow_Male_Boss_04",
        "Longbow_Male_Boss_05"
      ]
    },
    {
      "level": 39,
      "experience": 0,
      "display_names": [
        "Longbow Defender"
      ],
      "costumes": [
        "Longbow_Male_Boss_01",
        "Longbow_Male_Boss_02",
        "Longbow_Male_Boss_03",
        "Longbow_Male_Boss_04",
        "Longbow_Male_Boss_05"
      ]
    },
    {
      "level": 40,
      "experience": 0,
      "display_names": [
        "Longbow Defender"
      ],
      "costumes": [
        "Longbow_Male_Boss_01",
        "Longbow_Male_Boss_02",
        "Longbow_Male_Boss_03",
        "Longbow_Male_Boss_04",
        "Longbow_Male_Boss_05"
      ]
    }
  ]
}