{
  "name": "GenericHeroes_TheInvincibleAxios",
  "gender": "GENDER_MALE",
  "description": "Seeking to make his mark as one of the great heroes of Paragon City, Axios dons his costume in an effort to generate as much press as possible.",
  "group_description": null,
  "display_class_name": null,
  "character_class_name": "boss_grunt",
  "ai_config": "Default_Ranged",
  "commandable_pet": false,
  "power_tags": [
    "HumanSkeleton"
  ],
  "additional_rewards": [

  ],
  "skill_hp_rewards": [

  ],
  "skill_status_rewards": [

  ],
  "ally": "Hero",
  "gang": null,
  "reward_scale": 1.0,
  "game_exclusion": "None",
  "inactive_state_weapon": null,
  "ignores_combat_mods": false,
  "copy_creator_mods": false,
  "spawn_limit": -1,
  "spawn_limit_mission": -1,
  "ignore_av_to_eb_scaling": false,
  "can_zone": false,
  "custom_badge_stat": null,
  "badge_stat_flags": "DefaultBadgeStat",
  "rank": "VR_BOSS",
  "power_full_names": [
    "V_LegacyChain.Boss_Light_Low.Fist_of_Light",
    "V_LegacyChain.Boss_Light_Low.Light_Blast",
    "V_LegacyChain.Boss_Light_Low.Light_Explosion",
    "V_LegacyChain.Boss_Light_Low.Resistance",
    "V_GenericHeroes.Hero_Flight.Fly",
    "V_GenericHeroes.Hero_Flight.Fly_fx"
  ],
  "power_display_names": [
    "Fist of Light",
    "Light Blast",
    "Light Explosion",
    "Resistance",
    "Fly",
    "Fly fx"
  ],
  "power_levels": [
    0,
    0,
    0,
    0,
    0,
    0
  ],
  "powers": [
    {
      "power_category": "V_LegacyChain",
      "power_set": "Boss_Light_Low",
      "power": "*",
      "level": 0
    },
    {
      "power_category": "V_GenericHeroes",
      "power_set": "Hero_Flight",
      "power": "*",
      "level": 0
    }
  ],
  "levels": [
    {
      "level": 5,
      "experience": 0,
      "display_names": [
        "The Invincible Axios"
      ],
      "costumes": [
        "Model_The_Invincible_Axios"
      ]
    },
    {
      "level": 6,
      "experience": 0,
      "display_names": [
        "The Invincible Axios"
      ],
      "costumes": [
        "Model_The_Invincible_Axios"
      ]
    },
    {
      "level": 7,
      "experience": 0,
      "display_names": [
        "The Invincible Axios"
      ],
      "costumes": [
        "Model_The_Invincible_Axios"
      ]
    },
    {
      "level": 8,
      "experience": 0,
      "display_names": [
        "The Invincible Axios"
      ],
      "costumes": [
        "Model_The_Invincible_Axios"
      ]
    },
    {
      "level": 9,
      "experience": 0,
      "display_names": [
        "The Invincible Axios"
      ],
      "costumes": [
        "Model_The_Invincible_Axios"
      ]
    },
    {
      "level": 10,
      "experience": 0,
      "display_names": [
        "The Invincible Axios"
      ],
      "costumes": [
        "Model_The_Invincible_Axios"
      ]
    }
  ]
}