{
  "name": "GenericVillains_Brute_Dark_31-40_Female",
  "gender": "GENDER_FEMALE",
  "description": "This is a generic Dark/Dark Brute.",
  "group_description": "Group Description",
  "display_class_name": null,
  "character_class_name": "boss_grunt",
  "ai_config": "Default_Melee",
  "commandable_pet": false,
  "power_tags": [
    "Humanoid",
    "HumanSkeleton"
  ],
  "additional_rewards": [

  ],
  "skill_hp_rewards": [

  ],
  "skill_status_rewards": [

  ],
  "ally": null,
  "gang": null,
  "reward_scale": 1.0,
  "game_exclusion": "None",
  "inactive_state_weapon": null,
  "ignores_combat_mods": false,
  "copy_creator_mods": false,
  "spawn_limit": -1,
  "spawn_limit_mission": -1,
  "ignore_av_to_eb_scaling": false,
  "can_zone": false,
  "custom_badge_stat": null,
  "badge_stat_flags": "DefaultBadgeStat",
  "rank": "VR_BOSS",
  "power_full_names": [
    "V_GenericVillains.Brute_Resistance.Resistance",
    "V_GenericVillains.Dark_Brute.Shadow_Punch",
    "V_GenericVillains.Dark_Brute.Smite",
    "V_GenericVillains.Dark_Brute.Shadow_Maul",
    "V_GenericVillains.Dark_Brute.Gloom",
    "V_GenericVillains.Dark_Brute_Low.Siphon_Life",
    "V_GenericVillains.Dark_Brute_Low.Dark_Consumption",
    "V_GenericVillains.Dark_Brute_Low.Touch_of_Fear",
    "V_GenericVillains.Dark_Brute_Low.Obsidian_Shield",
    "V_GenericVillains.Dark_Brute_Mid.Soul_Drain",
    "V_GenericVillains.Dark_Brute_Mid.Midnight_Grasp"
  ],
  "power_display_names": [
    "Resistance",
    "Shadow Punch",
    "Smite",
    "Shadow Maul",
    "Gloom",
    "Siphon Life",
    "Dark Consumption",
    "Touch of Fear",
    "Obsidian Shield",
    "Soul Drain",
    "Midnight Grasp"
  ],
  "power_levels": [
    0,
    0,
    0,
    0,
    0,
    0,
    0,
    0,
    0,
    0,
    0
  ],
  "powers": [
    {
      "power_category": "V_GenericVillains",
      "power_set": "Brute_Resistance",
      "power": "*",
      "level": 0
    },
    {
      "power_category": "V_GenericVillains",
      "power_set": "Dark_Brute",
      "power": "Shadow_Punch",
      "level": 0
    },
    {
      "power_category": "V_GenericVillains",
      "power_set": "Dark_Brute",
      "power": "Smite",
      "level": 0
    },
    {
      "power_category": "V_GenericVillains",
      "power_set": "Dark_Brute",
      "power": "Shadow_Maul",
      "level": 0
    },
    {
      "power_category": "V_GenericVillains",
      "power_set": "Dark_Brute",
      "power": "Gloom",
      "level": 0
    },
    {
      "power_category": "V_GenericVillains",
      "power_set": "Dark_Brute_Low",
      "power": "*",
      "level": 0
    },
    {
      "power_category": "V_GenericVillains",
      "power_set": "Dark_Brute_Mid",
      "power": "*",
      "level": 0
    }
  ],
  "levels": [
    {
      "level": 31,
      "experience": 0,
      "display_names": [
        "Brute"
      ],
      "costumes": [
        "Longbow_Female_Boss_01"
      ]
    },
    {
      "level": 32,
      "experience": 0,
      "display_names": [
        "Brute"
      ],
      "costumes": [
        "Longbow_Female_Boss_01"
      ]
    },
    {
      "level": 33,
      "experience": 0,
      "display_names": [
        "Brute"
      ],
      "costumes": [
        "Longbow_Female_Boss_01"
      ]
    },
    {
      "level": 34,
      "experience": 0,
      "display_names": [
        "Brute"
      ],
      "costumes": [
        "Longbow_Female_Boss_01"
      ]
    },
    {
      "level": 35,
      "experience": 0,
      "display_names": [
        "Brute"
      ],
      "costumes": [
        "Longbow_Female_Boss_01"
      ]
    },
    {
      "level": 36,
      "experience": 0,
      "display_names": [
        "Brute"
      ],
      "costumes": [
        "Longbow_Female_Boss_01"
      ]
    },
    {
      "level": 37,
      "experience": 0,
      "display_names": [
        "Brute"
      ],
      "costumes": [
        "Longbow_Female_Boss_01"
      ]
    },
    {
      "level": 38,
      "experience": 0,
      "display_names": [
        "Brute"
      ],
      "costumes": [
        "Longbow_Female_Boss_01"
      ]
    },
    {
      "level": 39,
      "experience": 0,
      "display_names": [
        "Brute"
      ],
      "costumes": [
        "Longbow_Female_Boss_01"
      ]
    },
    {
      "level": 40,
      "experience": 0,
      "display_names": [
        "Brute"
      ],
      "costumes": [
        "Longbow_Female_Boss_01"
      ]
    }
  ]
}