{
  "name": "GenericVillains_Pet_Skeletal_Warrior",
  "gender": "GENDER_MALE",
  "description": "Only the most battle hardened warriors filled with a lust for revenge will return as a Grave Knight.  This undead warrior may be sentient, but it has no understanding of a living world now alien to him.  It can only see its own bloodlust and thirst for vengeance. Only the most powerful Masterminds can control them.",
  "group_description": "Necromancy",
  "display_class_name": null,
  "character_class_name": "lt_henchman",
  "ai_config": "Pets_Melee",
  "commandable_pet": false,
  "power_tags": [
    "HumanSkeleton",
    "Undead"
  ],
  "additional_rewards": [

  ],
  "skill_hp_rewards": [

  ],
  "skill_status_rewards": [

  ],
  "ally": null,
  "gang": null,
  "reward_scale": 1.0,
  "game_exclusion": "None",
  "inactive_state_weapon": null,
  "ignores_combat_mods": false,
  "copy_creator_mods": false,
  "spawn_limit": -1,
  "spawn_limit_mission": -1,
  "ignore_av_to_eb_scaling": false,
  "can_zone": false,
  "custom_badge_stat": null,
  "badge_stat_flags": "DefaultBadgeStat",
  "rank": "VR_PET",
  "power_full_names": [
    "Mastermind_Pets.Skeleton.Resistance",
    "Mastermind_Pets.Skeleton.Hack",
    "Mastermind_Pets.Skeleton.Slash",
    "Mastermind_Pets.Skeleton.Dark_Blast",
    "Mastermind_Pets.Skeleton.Super_Leap",
    "Mastermind_Pets.Skeleton_2.Disembowel",
    "Mastermind_Pets.Skeleton_2.Hack",
    "Mastermind_Pets.Skeleton_2.Slash",
    "Mastermind_Pets.Skeleton_2.Gloom",
    "Mastermind_Pets.Skeleton_2.Costume1",
    "Mastermind_Pets.Skeleton_2.Enchant",
    "Mastermind_Pets.Skeleton_3.Head_Splitter",
    "Mastermind_Pets.Skeleton_3.Disembowel",
    "Mastermind_Pets.Skeleton_3.Hack",
    "Mastermind_Pets.Skeleton_3.Slash",
    "Mastermind_Pets.Skeleton_3.Siphon_Life",
    "Mastermind_Pets.Skeleton_3.Costume2",
    "Mastermind_Pets.Skeleton_3.Mode2",
    "Mastermind_Pets.Skeleton_3.Empower"
  ],
  "power_display_names": [
    "Resistance",
    "Hack",
    "Slash",
    "Dark Blast",
    "Super Leap",
    "Disembowel",
    "Hack",
    "Slash",
    "Gloom",
    "Costume1",
    "Enchant",
    "Head Splitter",
    "Disembowel",
    "Hack",
    "Slash",
    "Siphon Life",
    "Costume2",
    "Mode2",
    "Empower"
  ],
  "power_levels": [
    0,
    0,
    0,
    0,
    0,
    0,
    0,
    0,
    0,
    0,
    0,
    0,
    0,
    0,
    0,
    0,
    0,
    0,
    0
  ],
  "powers": [
    {
      "power_category": "Mastermind_Pets",
      "power_set": "Skeleton",
      "power": "*",
      "level": 0
    },
    {
      "power_category": "Mastermind_Pets",
      "power_set": "Skeleton_2",
      "power": "*",
      "level": 0
    },
    {
      "power_category": "Mastermind_Pets",
      "power_set": "Skeleton_3",
      "power": "*",
      "level": 0
    }
  ],
  "levels": [
    {
      "level": 1,
      "experience": 0,
      "display_names": [
        "Grave Knight"
      ],
      "costumes": [
        "Necromancy_Warrior_01_Base",
        "Necromancy_Warrior_02_Base",
        "Necromancy_Warrior_03_Base"
      ]
    },
    {
      "level": 2,
      "experience": 0,
      "display_names": [
        "Grave Knight"
      ],
      "costumes": [
        "Necromancy_Warrior_01_Base",
        "Necromancy_Warrior_02_Base",
        "Necromancy_Warrior_03_Base"
      ]
    },
    {
      "level": 3,
      "experience": 0,
      "display_names": [
        "Grave Knight"
      ],
      "costumes": [
        "Necromancy_Warrior_01_Base",
        "Necromancy_Warrior_02_Base",
        "Necromancy_Warrior_03_Base"
      ]
    },
    {
      "level": 4,
      "experience": 0,
      "display_names": [
        "Grave Knight"
      ],
      "costumes": [
        "Necromancy_Warrior_01_Base",
        "Necromancy_Warrior_02_Base",
        "Necromancy_Warrior_03_Base"
      ]
    },
    {
      "level": 5,
      "experience": 0,
      "display_names": [
        "Grave Knight"
      ],
      "costumes": [
        "Necromancy_Warrior_01_Base",
        "Necromancy_Warrior_02_Base",
        "Necromancy_Warrior_03_Base"
      ]
    },
    {
      "level": 6,
      "experience": 0,
      "display_names": [
        "Grave Knight"
      ],
      "costumes": [
        "Necromancy_Warrior_01_Base",
        "Necromancy_Warrior_02_Base",
        "Necromancy_Warrior_03_Base"
      ]
    },
    {
      "level": 7,
      "experience": 0,
      "display_names": [
        "Grave Knight"
      ],
      "costumes": [
        "Necromancy_Warrior_01_Base",
        "Necromancy_Warrior_02_Base",
        "Necromancy_Warrior_03_Base"
      ]
    },
    {
      "level": 8,
      "experience": 0,
      "display_names": [
        "Grave Knight"
      ],
      "costumes": [
        "Necromancy_Warrior_01_Base",
        "Necromancy_Warrior_02_Base",
        "Necromancy_Warrior_03_Base"
      ]
    },
    {
      "level": 9,
      "experience": 0,
      "display_names": [
        "Grave Knight"
      ],
      "costumes": [
        "Necromancy_Warrior_01_Base",
        "Necromancy_Warrior_02_Base",
        "Necromancy_Warrior_03_Base"
      ]
    },
    {
      "level": 10,
      "experience": 0,
      "display_names": [
        "Grave Knight"
      ],
      "costumes": [
        "Necromancy_Warrior_01_Base",
        "Necromancy_Warrior_02_Base",
        "Necromancy_Warrior_03_Base"
      ]
    },
    {
      "level": 11,
      "experience": 0,
      "display_names": [
        "Grave Knight"
      ],
      "costumes": [
        "Necromancy_Warrior_01_Base",
        "Necromancy_Warrior_02_Base",
        "Necromancy_Warrior_03_Base"
      ]
    },
    {
      "level": 12,
      "experience": 0,
      "display_names": [
        "Grave Knight"
      ],
      "costumes": [
        "Necromancy_Warrior_01_Base",
        "Necromancy_Warrior_02_Base",
        "Necromancy_Warrior_03_Base"
      ]
    },
    {
      "level": 13,
      "experience": 0,
      "display_names": [
        "Grave Knight"
      ],
      "costumes": [
        "Necromancy_Warrior_01_Base",
        "Necromancy_Warrior_02_Base",
        "Necromancy_Warrior_03_Base"
      ]
    },
    {
      "level": 14,
      "experience": 0,
      "display_names": [
        "Grave Knight"
      ],
      "costumes": [
        "Necromancy_Warrior_01_Base",
        "Necromancy_Warrior_02_Base",
        "Necromancy_Warrior_03_Base"
      ]
    },
    {
      "level": 15,
      "experience": 0,
      "display_names": [
        "Grave Knight"
      ],
      "costumes": [
        "Necromancy_Warrior_01_Base",
        "Necromancy_Warrior_02_Base",
        "Necromancy_Warrior_03_Base"
      ]
    },
    {
      "level": 16,
      "experience": 0,
      "display_names": [
        "Grave Knight"
      ],
      "costumes": [
        "Necromancy_Warrior_01_Base",
        "Necromancy_Warrior_02_Base",
        "Necromancy_Warrior_03_Base"
      ]
    },
    {
      "level": 17,
      "experience": 0,
      "display_names": [
        "Grave Knight"
      ],
      "costumes": [
        "Necromancy_Warrior_01_Base",
        "Necromancy_Warrior_02_Base",
        "Necromancy_Warrior_03_Base"
      ]
    },
    {
      "level": 18,
      "experience": 0,
      "display_names": [
        "Grave Knight"
      ],
      "costumes": [
        "Necromancy_Warrior_01_Base",
        "Necromancy_Warrior_02_Base",
        "Necromancy_Warrior_03_Base"
      ]
    },
    {
      "level": 19,
      "experience": 0,
      "display_names": [
        "Grave Knight"
      ],
      "costumes": [
        "Necromancy_Warrior_01_Base",
        "Necromancy_Warrior_02_Base",
        "Necromancy_Warrior_03_Base"
      ]
    },
    {
      "level": 20,
      "experience": 0,
      "display_names": [
        "Grave Knight"
      ],
      "costumes": [
        "Necromancy_Warrior_01_Base",
        "Necromancy_Warrior_02_Base",
        "Necromancy_Warrior_03_Base"
      ]
    },
    {
      "level": 21,
      "experience": 0,
      "display_names": [
        "Grave Knight"
      ],
      "costumes": [
        "Necromancy_Warrior_01_Base",
        "Necromancy_Warrior_02_Base",
        "Necromancy_Warrior_03_Base"
      ]
    },
    {
      "level": 22,
      "experience": 0,
      "display_names": [
        "Grave Knight"
      ],
      "costumes": [
        "Necromancy_Warrior_01_Base",
        "Necromancy_Warrior_02_Base",
        "Necromancy_Warrior_03_Base"
      ]
    },
    {
      "level": 23,
      "experience": 0,
      "display_names": [
        "Grave Knight"
      ],
      "costumes": [
        "Necromancy_Warrior_01_Base",
        "Necromancy_Warrior_02_Base",
        "Necromancy_Warrior_03_Base"
      ]
    },
    {
      "level": 24,
      "experience": 0,
      "display_names": [
        "Grave Knight"
      ],
      "costumes": [
        "Necromancy_Warrior_01_Base",
        "Necromancy_Warrior_02_Base",
        "Necromancy_Warrior_03_Base"
      ]
    },
    {
      "level": 25,
      "experience": 0,
      "display_names": [
        "Grave Knight"
      ],
      "costumes": [
        "Necromancy_Warrior_01_Base",
        "Necromancy_Warrior_02_Base",
        "Necromancy_Warrior_03_Base"
      ]
    },
    {
      "level": 26,
      "experience": 0,
      "display_names": [
        "Grave Knight"
      ],
      "costumes": [
        "Necromancy_Warrior_01_Base",
        "Necromancy_Warrior_02_Base",
        "Necromancy_Warrior_03_Base"
      ]
    },
    {
      "level": 27,
      "experience": 0,
      "display_names": [
        "Grave Knight"
      ],
      "costumes": [
        "Necromancy_Warrior_01_Base",
        "Necromancy_Warrior_02_Base",
        "Necromancy_Warrior_03_Base"
      ]
    },
    {
      "level": 28,
      "experience": 0,
      "display_names": [
        "Grave Knight"
      ],
      "costumes": [
        "Necromancy_Warrior_01_Base",
        "Necromancy_Warrior_02_Base",
        "Necromancy_Warrior_03_Base"
      ]
    },
    {
      "level": 29,
      "experience": 0,
      "display_names": [
        "Grave Knight"
      ],
      "costumes": [
        "Necromancy_Warrior_01_Base",
        "Necromancy_Warrior_02_Base",
        "Necromancy_Warrior_03_Base"
      ]
    },
    {
      "level": 30,
      "experience": 0,
      "display_names": [
        "Grave Knight"
      ],
      "costumes": [
        "Necromancy_Warrior_01_Base",
        "Necromancy_Warrior_02_Base",
        "Necromancy_Warrior_03_Base"
      ]
    },
    {
      "level": 31,
      "experience": 0,
      "display_names": [
        "Grave Knight"
      ],
      "costumes": [
        "Necromancy_Warrior_01_Base",
        "Necromancy_Warrior_02_Base",
        "Necromancy_Warrior_03_Base"
      ]
    },
    {
      "level": 32,
      "experience": 0,
      "display_names": [
        "Grave Knight"
      ],
      "costumes": [
        "Necromancy_Warrior_01_Base",
        "Necromancy_Warrior_02_Base",
        "Necromancy_Warrior_03_Base"
      ]
    },
    {
      "level": 33,
      "experience": 0,
      "display_names": [
        "Grave Knight"
      ],
      "costumes": [
        "Necromancy_Warrior_01_Base",
        "Necromancy_Warrior_02_Base",
        "Necromancy_Warrior_03_Base"
      ]
    },
    {
      "level": 34,
      "experience": 0,
      "display_names": [
        "Grave Knight"
      ],
      "costumes": [
        "Necromancy_Warrior_01_Base",
        "Necromancy_Warrior_02_Base",
        "Necromancy_Warrior_03_Base"
      ]
    },
    {
      "level": 35,
      "experience": 0,
      "display_names": [
        "Grave Knight"
      ],
      "costumes": [
        "Necromancy_Warrior_01_Base",
        "Necromancy_Warrior_02_Base",
        "Necromancy_Warrior_03_Base"
      ]
    },
    {
      "level": 36,
      "experience": 0,
      "display_names": [
        "Grave Knight"
      ],
      "costumes": [
        "Necromancy_Warrior_01_Base",
        "Necromancy_Warrior_02_Base",
        "Necromancy_Warrior_03_Base"
      ]
    },
    {
      "level": 37,
      "experience": 0,
      "display_names": [
        "Grave Knight"
      ],
      "costumes": [
        "Necromancy_Warrior_01_Base",
        "Necromancy_Warrior_02_Base",
        "Necromancy_Warrior_03_Base"
      ]
    },
    {
      "level": 38,
      "experience": 0,
      "display_names": [
        "Grave Knight"
      ],
      "costumes": [
        "Necromancy_Warrior_01_Base",
        "Necromancy_Warrior_02_Base",
        "Necromancy_Warrior_03_Base"
      ]
    },
    {
      "level": 39,
      "experience": 0,
      "display_names": [
        "Grave Knight"
      ],
      "costumes": [
        "Necromancy_Warrior_01_Base",
        "Necromancy_Warrior_02_Base",
        "Necromancy_Warrior_03_Base"
      ]
    },
    {
      "level": 40,
      "experience": 0,
      "display_names": [
        "Grave Knight"
      ],
      "costumes": [
        "Necromancy_Warrior_01_Base",
        "Necromancy_Warrior_02_Base",
        "Necromancy_Warrior_03_Base"
      ]
    },
    {
      "level": 41,
      "experience": 0,
      "display_names": [
        "Grave Knight"
      ],
      "costumes": [
        "Necromancy_Warrior_01_Base",
        "Necromancy_Warrior_02_Base",
        "Necromancy_Warrior_03_Base"
      ]
    },
    {
      "level": 42,
      "experience": 0,
      "display_names": [
        "Grave Knight"
      ],
      "costumes": [
        "Necromancy_Warrior_01_Base",
        "Necromancy_Warrior_02_Base",
        "Necromancy_Warrior_03_Base"
      ]
    },
    {
      "level": 43,
      "experience": 0,
      "display_names": [
        "Grave Knight"
      ],
      "costumes": [
        "Necromancy_Warrior_01_Base",
        "Necromancy_Warrior_02_Base",
        "Necromancy_Warrior_03_Base"
      ]
    },
    {
      "level": 44,
      "experience": 0,
      "display_names": [
        "Grave Knight"
      ],
      "costumes": [
        "Necromancy_Warrior_01_Base",
        "Necromancy_Warrior_02_Base",
        "Necromancy_Warrior_03_Base"
      ]
    },
    {
      "level": 45,
      "experience": 0,
      "display_names": [
        "Grave Knight"
      ],
      "costumes": [
        "Necromancy_Warrior_01_Base",
        "Necromancy_Warrior_02_Base",
        "Necromancy_Warrior_03_Base"
      ]
    },
    {
      "level": 46,
      "experience": 0,
      "display_names": [
        "Grave Knight"
      ],
      "costumes": [
        "Necromancy_Warrior_01_Base",
        "Necromancy_Warrior_02_Base",
        "Necromancy_Warrior_03_Base"
      ]
    },
    {
      "level": 47,
      "experience": 0,
      "display_names": [
        "Grave Knight"
      ],
      "costumes": [
        "Necromancy_Warrior_01_Base",
        "Necromancy_Warrior_02_Base",
        "Necromancy_Warrior_03_Base"
      ]
    },
    {
      "level": 48,
      "experience": 0,
      "display_names": [
        "Grave Knight"
      ],
      "costumes": [
        "Necromancy_Warrior_01_Base",
        "Necromancy_Warrior_02_Base",
        "Necromancy_Warrior_03_Base"
      ]
    },
    {
      "level": 49,
      "experience": 0,
      "display_names": [
        "Grave Knight"
      ],
      "costumes": [
        "Necromancy_Warrior_01_Base",
        "Necromancy_Warrior_02_Base",
        "Necromancy_Warrior_03_Base"
      ]
    },
    {
      "level": 50,
      "experience": 0,
      "display_names": [
        "Grave Knight"
      ],
      "costumes": [
        "Necromancy_Warrior_01_Base",
        "Necromancy_Warrior_02_Base",
        "Necromancy_Warrior_03_Base"
      ]
    },
    {
      "level": 51,
      "experience": 0,
      "display_names": [
        "Grave Knight"
      ],
      "costumes": [
        "Necromancy_Warrior_01_Base",
        "Necromancy_Warrior_02_Base",
        "Necromancy_Warrior_03_Base"
      ]
    },
    {
      "level": 52,
      "experience": 0,
      "display_names": [
        "Grave Knight"
      ],
      "costumes": [
        "Necromancy_Warrior_01_Base",
        "Necromancy_Warrior_02_Base",
        "Necromancy_Warrior_03_Base"
      ]
    },
    {
      "level": 53,
      "experience": 0,
      "display_names": [
        "Grave Knight"
      ],
      "costumes": [
        "Necromancy_Warrior_01_Base",
        "Necromancy_Warrior_02_Base",
        "Necromancy_Warrior_03_Base"
      ]
    },
    {
      "level": 54,
      "experience": 0,
      "display_names": [
        "Grave Knight"
      ],
      "costumes": [
        "Necromancy_Warrior_01_Base",
        "Necromancy_Warrior_02_Base",
        "Necromancy_Warrior_03_Base"
      ]
    }
  ]
}