{
  "name": "GenericHeroes_Fire_Tanker_41-54",
  "gender": "GENDER_MALE",
  "description": "This is a generic Fire Tanker.",
  "group_description": "Freedom Corps",
  "display_class_name": null,
  "character_class_name": "boss_grunt",
  "ai_config": "Default_Melee",
  "commandable_pet": false,
  "power_tags": [
    "Humanoid",
    "HumanSkeleton"
  ],
  "additional_rewards": [

  ],
  "skill_hp_rewards": [

  ],
  "skill_status_rewards": [

  ],
  "ally": "Hero",
  "gang": null,
  "reward_scale": 1.0,
  "game_exclusion": "None",
  "inactive_state_weapon": null,
  "ignores_combat_mods": false,
  "copy_creator_mods": false,
  "spawn_limit": -1,
  "spawn_limit_mission": -1,
  "ignore_av_to_eb_scaling": false,
  "can_zone": false,
  "custom_badge_stat": null,
  "badge_stat_flags": "DefaultBadgeStat",
  "rank": "VR_BOSS",
  "power_full_names": [
    "V_GenericHeroes.Fire_Tanker.Fire_Smash",
    "V_GenericHeroes.Fire_Tanker.Scorch",
    "V_GenericHeroes.Fire_Tanker.Fire_Sword",
    "V_GenericHeroes.Fire_Tanker.Fire_Breath",
    "V_GenericHeroes.Fire_Tanker.Fire_Shield",
    "V_GenericHeroes.Fire_Tanker.Resistance",
    "V_GenericHeroes.Fire_Tanker_Low.Combustion",
    "V_GenericHeroes.Fire_Tanker_Low.Incinerate",
    "V_GenericHeroes.Fire_Tanker_Low.Fire_Sword_Slice",
    "V_GenericHeroes.Fire_Tanker_Mid.Fire_Sword_Circle",
    "V_GenericHeroes.Fire_Tanker_Mid.Healing_Flames",
    "V_GenericHeroes.Fire_Tanker_High.Greater_Fire_Sword"
  ],
  "power_display_names": [
    "Fire Smash",
    "Scorch",
    "Fire Sword",
    "Fire Breath",
    "Fire Shield",
    "Resistance",
    "Combustion",
    "Incinerate",
    "Fire Sword Slice",
    "Fire Sword Circle",
    "Healing Flames",
    "Greater Fire Sword"
  ],
  "power_levels": [
    0,
    0,
    0,
    0,
    0,
    0,
    0,
    0,
    0,
    0,
    0,
    0
  ],
  "powers": [
    {
      "power_category": "V_GenericHeroes",
      "power_set": "Fire_Tanker",
      "power": "*",
      "level": 0
    },
    {
      "power_category": "V_GenericHeroes",
      "power_set": "Fire_Tanker_Low",
      "power": "*",
      "level": 0
    },
    {
      "power_category": "V_GenericHeroes",
      "power_set": "Fire_Tanker_Mid",
      "power": "*",
      "level": 0
    },
    {
      "power_category": "V_GenericHeroes",
      "power_set": "Fire_Tanker_High",
      "power": "*",
      "level": 0
    }
  ],
  "levels": [
    {
      "level": 41,
      "experience": 0,
      "display_names": [
        "Longbow Tanker"
      ],
      "costumes": [
        "Longbow_Male_Boss_01",
        "Longbow_Male_Boss_02",
        "Longbow_Male_Boss_03",
        "Longbow_Male_Boss_04",
        "Longbow_Male_Boss_05"
      ]
    },
    {
      "level": 42,
      "experience": 0,
      "display_names": [
        "Longbow Tanker"
      ],
      "costumes": [
        "Longbow_Male_Boss_01",
        "Longbow_Male_Boss_02",
        "Longbow_Male_Boss_03",
        "Longbow_Male_Boss_04",
        "Longbow_Male_Boss_05"
      ]
    },
    {
      "level": 43,
      "experience": 0,
      "display_names": [
        "Longbow Tanker"
      ],
      "costumes": [
        "Longbow_Male_Boss_01",
        "Longbow_Male_Boss_02",
        "Longbow_Male_Boss_03",
        "Longbow_Male_Boss_04",
        "Longbow_Male_Boss_05"
      ]
    },
    {
      "level": 44,
      "experience": 0,
      "display_names": [
        "Longbow Tanker"
      ],
      "costumes": [
        "Longbow_Male_Boss_01",
        "Longbow_Male_Boss_02",
        "Longbow_Male_Boss_03",
        "Longbow_Male_Boss_04",
        "Longbow_Male_Boss_05"
      ]
    },
    {
      "level": 45,
      "experience": 0,
      "display_names": [
        "Longbow Tanker"
      ],
      "costumes": [
        "Longbow_Male_Boss_01",
        "Longbow_Male_Boss_02",
        "Longbow_Male_Boss_03",
        "Longbow_Male_Boss_04",
        "Longbow_Male_Boss_05"
      ]
    },
    {
      "level": 46,
      "experience": 0,
      "display_names": [
        "Longbow Tanker"
      ],
      "costumes": [
        "Longbow_Male_Boss_01",
        "Longbow_Male_Boss_02",
        "Longbow_Male_Boss_03",
        "Longbow_Male_Boss_04",
        "Longbow_Male_Boss_05"
      ]
    },
    {
      "level": 47,
      "experience": 0,
      "display_names": [
        "Longbow Tanker"
      ],
      "costumes": [
        "Longbow_Male_Boss_01",
        "Longbow_Male_Boss_02",
        "Longbow_Male_Boss_03",
        "Longbow_Male_Boss_04",
        "Longbow_Male_Boss_05"
      ]
    },
    {
      "level": 48,
      "experience": 0,
      "display_names": [
        "Longbow Tanker"
      ],
      "costumes": [
        "Longbow_Male_Boss_01",
        "Longbow_Male_Boss_02",
        "Longbow_Male_Boss_03",
        "Longbow_Male_Boss_04",
        "Longbow_Male_Boss_05"
      ]
    },
    {
      "level": 49,
      "experience": 0,
      "display_names": [
        "Longbow Tanker"
      ],
      "costumes": [
        "Longbow_Male_Boss_01",
        "Longbow_Male_Boss_02",
        "Longbow_Male_Boss_03",
        "Longbow_Male_Boss_04",
        "Longbow_Male_Boss_05"
      ]
    },
    {
      "level": 50,
      "experience": 0,
      "display_names": [
        "Longbow Tanker"
      ],
      "costumes": [
        "Longbow_Male_Boss_01",
        "Longbow_Male_Boss_02",
        "Longbow_Male_Boss_03",
        "Longbow_Male_Boss_04",
        "Longbow_Male_Boss_05"
      ]
    },
    {
      "level": 51,
      "experience": 0,
      "display_names": [
        "Longbow Tanker"
      ],
      "costumes": [
        "Longbow_Male_Boss_01",
        "Longbow_Male_Boss_02",
        "Longbow_Male_Boss_03",
        "Longbow_Male_Boss_04",
        "Longbow_Male_Boss_05"
      ]
    },
    {
      "level": 52,
      "experience": 0,
      "display_names": [
        "Longbow Tanker"
      ],
      "costumes": [
        "Longbow_Male_Boss_01",
        "Longbow_Male_Boss_02",
        "Longbow_Male_Boss_03",
        "Longbow_Male_Boss_04",
        "Longbow_Male_Boss_05"
      ]
    },
    {
      "level": 53,
      "experience": 0,
      "display_names": [
        "Longbow Tanker"
      ],
      "costumes": [
        "Longbow_Male_Boss_01",
        "Longbow_Male_Boss_02",
        "Longbow_Male_Boss_03",
        "Longbow_Male_Boss_04",
        "Longbow_Male_Boss_05"
      ]
    },
    {
      "level": 54,
      "experience": 0,
      "display_names": [
        "Longbow Tanker"
      ],
      "costumes": [
        "Longbow_Male_Boss_01",
        "Longbow_Male_Boss_02",
        "Longbow_Male_Boss_03",
        "Longbow_Male_Boss_04",
        "Longbow_Male_Boss_05"
      ]
    }
  ]
}