{
  "name": "GenericHeroes_Civic_Electrixie",
  "gender": "GENDER_FEMALE",
  "description": "Trixie Watts had gone sailing around the world to try and forget all those she'd lost in the Rikti war. But when she was caught in a radioactive thunderstorm following an illegal Nemesis Army underwater atomic test, she found her life transformed. Trixie had gained the power to control electricity itself, and more importantly, the courage to make a difference.",
  "group_description": "Civic Squad",
  "display_class_name": null,
  "character_class_name": "boss_grunt",
  "ai_config": "Default_Ranged",
  "commandable_pet": false,
  "power_tags": [
    "Humanoid",
    "HumanSkeleton"
  ],
  "additional_rewards": [

  ],
  "skill_hp_rewards": [

  ],
  "skill_status_rewards": [

  ],
  "ally": "Hero",
  "gang": null,
  "reward_scale": 1.0,
  "game_exclusion": "None",
  "inactive_state_weapon": null,
  "ignores_combat_mods": false,
  "copy_creator_mods": false,
  "spawn_limit": -1,
  "spawn_limit_mission": -1,
  "ignore_av_to_eb_scaling": false,
  "can_zone": false,
  "custom_badge_stat": null,
  "badge_stat_flags": "DefaultBadgeStat",
  "rank": "VR_BOSS",
  "power_full_names": [
    "V_GenericHeroes.Electric_Defender_Low.Gale",
    "V_GenericHeroes.Electric_Defender_Low.Snow_Storm",
    "V_GenericHeroes.Electric_Defender_Low.Charged_Bolts",
    "V_GenericHeroes.Electric_Defender_Low.Lightning_Bolt",
    "V_GenericHeroes.Electric_Defender_Low.Ball_Lightning",
    "V_GenericHeroes.Electric_Defender_Low.Lightning_Storm",
    "V_GenericHeroes.Electric_Defender_Mid.Tesla_Cage",
    "V_GenericHeroes.Electric_Defender_Mid.Thunder_Clap",
    "V_GenericHeroes.Electric_Defender_High.Thunderous_Blast"
  ],
  "power_display_names": [
    "Gale",
    "Snow Storm",
    "Charged Bolts",
    "Lightning Bolt",
    "Ball Lightning",
    "Lightning Storm",
    "Tesla Cage",
    "Thunder Clap",
    "Thunderous Blast"
  ],
  "power_levels": [
    0,
    0,
    0,
    0,
    0,
    0,
    0,
    0,
    0
  ],
  "powers": [
    {
      "power_category": "V_GenericHeroes",
      "power_set": "Electric_Defender_Low",
      "power": "*",
      "level": 0
    },
    {
      "power_category": "V_GenericHeroes",
      "power_set": "Electric_Defender_Mid",
      "power": "*",
      "level": 0
    },
    {
      "power_category": "V_GenericHeroes",
      "power_set": "Electric_Defender_High",
      "power": "*",
      "level": 0
    }
  ],
  "levels": [
    {
      "level": 25,
      "experience": 0,
      "display_names": [
        "Electrixie"
      ],
      "costumes": [
        "Model_Electrixie"
      ]
    },
    {
      "level": 26,
      "experience": 0,
      "display_names": [
        "Electrixie"
      ],
      "costumes": [
        "Model_Electrixie"
      ]
    },
    {
      "level": 27,
      "experience": 0,
      "display_names": [
        "Electrixie"
      ],
      "costumes": [
        "Model_Electrixie"
      ]
    },
    {
      "level": 28,
      "experience": 0,
      "display_names": [
        "Electrixie"
      ],
      "costumes": [
        "Model_Electrixie"
      ]
    },
    {
      "level": 29,
      "experience": 0,
      "display_names": [
        "Electrixie"
      ],
      "costumes": [
        "Model_Electrixie"
      ]
    },
    {
      "level": 30,
      "experience": 0,
      "display_names": [
        "Electrixie"
      ],
      "costumes": [
        "Model_Electrixie"
      ]
    },
    {
      "level": 31,
      "experience": 0,
      "display_names": [
        "Electrixie"
      ],
      "costumes": [
        "Model_Electrixie"
      ]
    },
    {
      "level": 32,
      "experience": 0,
      "display_names": [
        "Electrixie"
      ],
      "costumes": [
        "Model_Electrixie"
      ]
    },
    {
      "level": 33,
      "experience": 0,
      "display_names": [
        "Electrixie"
      ],
      "costumes": [
        "Model_Electrixie"
      ]
    },
    {
      "level": 34,
      "experience": 0,
      "display_names": [
        "Electrixie"
      ],
      "costumes": [
        "Model_Electrixie"
      ]
    },
    {
      "level": 35,
      "experience": 0,
      "display_names": [
        "Electrixie"
      ],
      "costumes": [
        "Model_Electrixie"
      ]
    },
    {
      "level": 36,
      "experience": 0,
      "display_names": [
        "Electrixie"
      ],
      "costumes": [
        "Model_Electrixie"
      ]
    },
    {
      "level": 37,
      "experience": 0,
      "display_names": [
        "Electrixie"
      ],
      "costumes": [
        "Model_Electrixie"
      ]
    },
    {
      "level": 38,
      "experience": 0,
      "display_names": [
        "Electrixie"
      ],
      "costumes": [
        "Model_Electrixie"
      ]
    },
    {
      "level": 39,
      "experience": 0,
      "display_names": [
        "Electrixie"
      ],
      "costumes": [
        "Model_Electrixie"
      ]
    },
    {
      "level": 40,
      "experience": 0,
      "display_names": [
        "Electrixie"
      ],
      "costumes": [
        "Model_Electrixie"
      ]
    },
    {
      "level": 41,
      "experience": 0,
      "display_names": [
        "Electrixie"
      ],
      "costumes": [
        "Model_Electrixie"
      ]
    },
    {
      "level": 42,
      "experience": 0,
      "display_names": [
        "Electrixie"
      ],
      "costumes": [
        "Model_Electrixie"
      ]
    },
    {
      "level": 43,
      "experience": 0,
      "display_names": [
        "Electrixie"
      ],
      "costumes": [
        "Model_Electrixie"
      ]
    },
    {
      "level": 44,
      "experience": 0,
      "display_names": [
        "Electrixie"
      ],
      "costumes": [
        "Model_Electrixie"
      ]
    },
    {
      "level": 45,
      "experience": 0,
      "display_names": [
        "Electrixie"
      ],
      "costumes": [
        "Model_Electrixie"
      ]
    },
    {
      "level": 46,
      "experience": 0,
      "display_names": [
        "Electrixie"
      ],
      "costumes": [
        "Model_Electrixie"
      ]
    },
    {
      "level": 47,
      "experience": 0,
      "display_names": [
        "Electrixie"
      ],
      "costumes": [
        "Model_Electrixie"
      ]
    },
    {
      "level": 48,
      "experience": 0,
      "display_names": [
        "Electrixie"
      ],
      "costumes": [
        "Model_Electrixie"
      ]
    },
    {
      "level": 49,
      "experience": 0,
      "display_names": [
        "Electrixie"
      ],
      "costumes": [
        "Model_Electrixie"
      ]
    },
    {
      "level": 50,
      "experience": 0,
      "display_names": [
        "Electrixie"
      ],
      "costumes": [
        "Model_Electrixie"
      ]
    },
    {
      "level": 51,
      "experience": 0,
      "display_names": [
        "Electrixie"
      ],
      "costumes": [
        "Model_Electrixie"
      ]
    },
    {
      "level": 52,
      "experience": 0,
      "display_names": [
        "Electrixie"
      ],
      "costumes": [
        "Model_Electrixie"
      ]
    },
    {
      "level": 53,
      "experience": 0,
      "display_names": [
        "Electrixie"
      ],
      "costumes": [
        "Model_Electrixie"
      ]
    },
    {
      "level": 54,
      "experience": 0,
      "display_names": [
        "Electrixie"
      ],
      "costumes": [
        "Model_Electrixie"
      ]
    }
  ]
}