{
  "name": "GenericVillains_Bladestorm",
  "gender": "GENDER_MALE",
  "description": "Bladestorm is a psychic blade-wielding hitman for the syndicate.",
  "group_description": "Syndicate",
  "display_class_name": null,
  "character_class_name": "boss_archvillain",
  "ai_config": "Default_Melee",
  "commandable_pet": false,
  "power_tags": [
    "Humanoid",
    "HumanSkeleton",
    "Raid"
  ],
  "additional_rewards": [

  ],
  "skill_hp_rewards": [

  ],
  "skill_status_rewards": [

  ],
  "ally": null,
  "gang": null,
  "reward_scale": 1.0,
  "game_exclusion": "None",
  "inactive_state_weapon": null,
  "ignores_combat_mods": false,
  "copy_creator_mods": false,
  "spawn_limit": -1,
  "spawn_limit_mission": -1,
  "ignore_av_to_eb_scaling": false,
  "can_zone": false,
  "custom_badge_stat": null,
  "badge_stat_flags": "DefaultBadgeStat",
  "rank": "VR_ARCHVILLAIN",
  "power_full_names": [
    "V_GenericVillains.Sword_Stalker.Hack",
    "V_GenericVillains.Sword_Stalker.Slash",
    "V_GenericVillains.Sword_Stalker.Slice",
    "V_GenericVillains.Sword_Stalker.Caltrops",
    "V_GenericHeroes.Mind_Controller.Levitate",
    "V_GenericHeroes.Mind_Controller.Dominate",
    "V_GenericVillains.Sword_Stalker.Shurikens"
  ],
  "power_display_names": [
    "Sting of the Wasp",
    "Gambler's Cut",
    "Flashing Steel",
    "Caltrops",
    "Levitate",
    "Dominate",
    "Shurikens"
  ],
  "power_levels": [
    0,
    0,
    0,
    0,
    0,
    0,
    0
  ],
  "powers": [
    {
      "power_category": "V_GenericVillains",
      "power_set": "Sword_Stalker",
      "power": "Hack",
      "level": 0
    },
    {
      "power_category": "V_GenericVillains",
      "power_set": "Sword_Stalker",
      "power": "Slash",
      "level": 0
    },
    {
      "power_category": "V_GenericVillains",
      "power_set": "Sword_Stalker",
      "power": "Slice",
      "level": 0
    },
    {
      "power_category": "V_GenericVillains",
      "power_set": "Sword_Stalker",
      "power": "Caltrops",
      "level": 0
    },
    {
      "power_category": "V_GenericHeroes",
      "power_set": "Mind_Controller",
      "power": "Levitate",
      "level": 0
    },
    {
      "power_category": "V_GenericHeroes",
      "power_set": "Mind_Controller",
      "power": "Dominate",
      "level": 0
    },
    {
      "power_category": "V_GenericVillains",
      "power_set": "Sword_Stalker",
      "power": "Shurikens",
      "level": 0
    }
  ],
  "levels": [
    {
      "level": 10,
      "experience": 0,
      "display_names": [
        "Tub Ci"
      ],
      "costumes": [
        "Model_Tsoo_Tub_Ci"
      ]
    },
    {
      "level": 11,
      "experience": 0,
      "display_names": [
        "Tub Ci"
      ],
      "costumes": [
        "Model_Tsoo_Tub_Ci"
      ]
    },
    {
      "level": 12,
      "experience": 0,
      "display_names": [
        "Tub Ci"
      ],
      "costumes": [
        "Model_Tsoo_Tub_Ci"
      ]
    },
    {
      "level": 13,
      "experience": 0,
      "display_names": [
        "Tub Ci"
      ],
      "costumes": [
        "Model_Tsoo_Tub_Ci"
      ]
    },
    {
      "level": 14,
      "experience": 0,
      "display_names": [
        "Tub Ci"
      ],
      "costumes": [
        "Model_Tsoo_Tub_Ci"
      ]
    },
    {
      "level": 15,
      "experience": 0,
      "display_names": [
        "Tub Ci"
      ],
      "costumes": [
        "Model_Tsoo_Tub_Ci"
      ]
    }
  ]
}