{
  "name": "GenericHeroes_Civic_Mechannie",
  "gender": "GENDER_FEMALE",
  "description": "The robotic 'daughter' of crimefighting inventor and gunslinger Sergio 'Sixtygun' Seiger, Mechannie Seiger carries on her father's crusade to bring justice to any outlaw who crosses her path. Her robotic body makes her nearly indestructible, but it's her fun-loving attitude and a heart the size of Texas that makes her truly unstoppable. When she's not fighting crime, Mechannie can often be seen at DJ Zero's Paragon Dance Party, dancing the night away.",
  "group_description": "Civic Squad",
  "display_class_name": null,
  "character_class_name": "boss_grunt",
  "ai_config": "Default_Melee",
  "commandable_pet": false,
  "power_tags": [
    "Humanoid",
    "HumanSkeleton"
  ],
  "additional_rewards": [

  ],
  "skill_hp_rewards": [

  ],
  "skill_status_rewards": [

  ],
  "ally": "Hero",
  "gang": null,
  "reward_scale": 1.0,
  "game_exclusion": "None",
  "inactive_state_weapon": null,
  "ignores_combat_mods": false,
  "copy_creator_mods": false,
  "spawn_limit": -1,
  "spawn_limit_mission": -1,
  "ignore_av_to_eb_scaling": false,
  "can_zone": false,
  "custom_badge_stat": null,
  "badge_stat_flags": "DefaultBadgeStat",
  "rank": "VR_BOSS",
  "power_full_names": [
    "V_GenericHeroes.SS_Tanker.Jab",
    "V_GenericHeroes.SS_Tanker.Punch",
    "V_GenericHeroes.SS_Tanker.Hurl",
    "V_GenericHeroes.SS_Tanker.Temp_Invulnerability",
    "V_GenericHeroes.SS_Tanker.Resistance",
    "V_GenericHeroes.SS_Tanker_Low.Haymaker",
    "V_GenericHeroes.SS_Tanker_Low.Hand_Clap",
    "V_GenericHeroes.SS_Tanker_Low.Unyielding",
    "V_GenericHeroes.SS_Tanker_Mid.Knockout_Blow",
    "V_GenericHeroes.SS_Tanker_Mid.Foot_Stomp",
    "V_GenericHeroes.SS_Tanker_High.Unstoppable"
  ],
  "power_display_names": [
    "Jab",
    "Punch",
    "Hurl",
    "Temp Invulnerability",
    "Resistance",
    "Haymaker",
    "Hand Clap",
    "Unyielding",
    "Knockout Blow",
    "Foot Stomp",
    "Unstoppable"
  ],
  "power_levels": [
    0,
    0,
    0,
    0,
    0,
    0,
    0,
    0,
    0,
    0,
    0
  ],
  "powers": [
    {
      "power_category": "V_GenericHeroes",
      "power_set": "SS_Tanker",
      "power": "*",
      "level": 0
    },
    {
      "power_category": "V_GenericHeroes",
      "power_set": "SS_Tanker_Low",
      "power": "*",
      "level": 0
    },
    {
      "power_category": "V_GenericHeroes",
      "power_set": "SS_Tanker_Mid",
      "power": "*",
      "level": 0
    },
    {
      "power_category": "V_GenericHeroes",
      "power_set": "SS_Tanker_High",
      "power": "*",
      "level": 0
    }
  ],
  "levels": [
    {
      "level": 40,
      "experience": 0,
      "display_names": [
        "Mechannie"
      ],
      "costumes": [
        "Model_Mechannie"
      ]
    },
    {
      "level": 41,
      "experience": 0,
      "display_names": [
        "Mechannie"
      ],
      "costumes": [
        "Model_Mechannie"
      ]
    },
    {
      "level": 42,
      "experience": 0,
      "display_names": [
        "Mechannie"
      ],
      "costumes": [
        "Model_Mechannie"
      ]
    },
    {
      "level": 43,
      "experience": 0,
      "display_names": [
        "Mechannie"
      ],
      "costumes": [
        "Model_Mechannie"
      ]
    },
    {
      "level": 44,
      "experience": 0,
      "display_names": [
        "Mechannie"
      ],
      "costumes": [
        "Model_Mechannie"
      ]
    },
    {
      "level": 45,
      "experience": 0,
      "display_names": [
        "Mechannie"
      ],
      "costumes": [
        "Model_Mechannie"
      ]
    },
    {
      "level": 46,
      "experience": 0,
      "display_names": [
        "Mechannie"
      ],
      "costumes": [
        "Model_Mechannie"
      ]
    },
    {
      "level": 47,
      "experience": 0,
      "display_names": [
        "Mechannie"
      ],
      "costumes": [
        "Model_Mechannie"
      ]
    },
    {
      "level": 48,
      "experience": 0,
      "display_names": [
        "Mechannie"
      ],
      "costumes": [
        "Model_Mechannie"
      ]
    },
    {
      "level": 49,
      "experience": 0,
      "display_names": [
        "Mechannie"
      ],
      "costumes": [
        "Model_Mechannie"
      ]
    },
    {
      "level": 50,
      "experience": 0,
      "display_names": [
        "Mechannie"
      ],
      "costumes": [
        "Model_Mechannie"
      ]
    },
    {
      "level": 51,
      "experience": 0,
      "display_names": [
        "Mechannie"
      ],
      "costumes": [
        "Model_Mechannie"
      ]
    },
    {
      "level": 52,
      "experience": 0,
      "display_names": [
        "Mechannie"
      ],
      "costumes": [
        "Model_Mechannie"
      ]
    },
    {
      "level": 53,
      "experience": 0,
      "display_names": [
        "Mechannie"
      ],
      "costumes": [
        "Model_Mechannie"
      ]
    },
    {
      "level": 54,
      "experience": 0,
      "display_names": [
        "Mechannie"
      ],
      "costumes": [
        "Model_Mechannie"
      ]
    }
  ]
}