{
  "name": "GenericVillains_Stalker_MA_26-30_Female",
  "gender": "GENDER_FEMALE",
  "description": "This is a generic Martial Arts/Super Reflexes Stalker.",
  "group_description": "Group Description",
  "display_class_name": null,
  "character_class_name": "boss_grunt",
  "ai_config": "Default_Melee",
  "commandable_pet": false,
  "power_tags": [
    "Humanoid",
    "HumanSkeleton"
  ],
  "additional_rewards": [

  ],
  "skill_hp_rewards": [

  ],
  "skill_status_rewards": [

  ],
  "ally": null,
  "gang": null,
  "reward_scale": 1.0,
  "game_exclusion": "None",
  "inactive_state_weapon": null,
  "ignores_combat_mods": false,
  "copy_creator_mods": false,
  "spawn_limit": -1,
  "spawn_limit_mission": -1,
  "ignore_av_to_eb_scaling": false,
  "can_zone": false,
  "custom_badge_stat": null,
  "badge_stat_flags": "DefaultBadgeStat",
  "rank": "VR_BOSS",
  "power_full_names": [
    "V_GenericVillains.MA_Stalker.Thunder_Kick",
    "V_GenericVillains.MA_Stalker.Storm_Kick",
    "V_GenericVillains.MA_Stalker.Shurikens",
    "V_GenericVillains.MA_Stalker.Cobra_Strike",
    "V_GenericVillains.MA_Stalker.Crane_Kick",
    "V_GenericVillains.MA_Stalker.Exploding_Shuriken",
    "V_GenericVillains.MA_Stalker.Inner_Focus"
  ],
  "power_display_names": [
    "Thunder Kick",
    "Storm Kick",
    "Shurikens",
    "Cobra Strike",
    "Crane Kick",
    "Exploding Shuriken",
    "Inner Focus"
  ],
  "power_levels": [
    0,
    0,
    0,
    0,
    0,
    0,
    0
  ],
  "powers": [
    {
      "power_category": "V_GenericVillains",
      "power_set": "MA_Stalker",
      "power": "Thunder_Kick",
      "level": 0
    },
    {
      "power_category": "V_GenericVillains",
      "power_set": "MA_Stalker",
      "power": "Storm_Kick",
      "level": 0
    },
    {
      "power_category": "V_GenericVillains",
      "power_set": "MA_Stalker",
      "power": "Shurikens",
      "level": 0
    },
    {
      "power_category": "V_GenericVillains",
      "power_set": "MA_Stalker",
      "power": "Cobra_Strike",
      "level": 0
    },
    {
      "power_category": "V_GenericVillains",
      "power_set": "MA_Stalker",
      "power": "Crane_Kick",
      "level": 0
    },
    {
      "power_category": "V_GenericVillains",
      "power_set": "MA_Stalker",
      "power": "Exploding_Shuriken",
      "level": 0
    },
    {
      "power_category": "V_GenericVillains",
      "power_set": "MA_Stalker",
      "power": "Inner_Focus",
      "level": 0
    }
  ],
  "levels": [
    {
      "level": 26,
      "experience": 0,
      "display_names": [
        "Stalker"
      ],
      "costumes": [
        "Longbow_Female_Boss_01"
      ]
    },
    {
      "level": 27,
      "experience": 0,
      "display_names": [
        "Stalker"
      ],
      "costumes": [
        "Longbow_Female_Boss_01"
      ]
    },
    {
      "level": 28,
      "experience": 0,
      "display_names": [
        "Stalker"
      ],
      "costumes": [
        "Longbow_Female_Boss_01"
      ]
    },
    {
      "level": 29,
      "experience": 0,
      "display_names": [
        "Stalker"
      ],
      "costumes": [
        "Longbow_Female_Boss_01"
      ]
    },
    {
      "level": 30,
      "experience": 0,
      "display_names": [
        "Stalker"
      ],
      "costumes": [
        "Longbow_Female_Boss_01"
      ]
    }
  ]
}