{
  "name": "GenericVillains_Stalker_Sword_11-15_Female",
  "gender": "GENDER_FEMALE",
  "description": "This is a generic Ninja Sword/Ninjitsu Stalker.",
  "group_description": "Group Description",
  "display_class_name": null,
  "character_class_name": "boss_grunt",
  "ai_config": "Default_Melee",
  "commandable_pet": false,
  "power_tags": [
    "Humanoid",
    "HumanSkeleton"
  ],
  "additional_rewards": [

  ],
  "skill_hp_rewards": [

  ],
  "skill_status_rewards": [

  ],
  "ally": null,
  "gang": null,
  "reward_scale": 1.0,
  "game_exclusion": "None",
  "inactive_state_weapon": null,
  "ignores_combat_mods": false,
  "copy_creator_mods": false,
  "spawn_limit": -1,
  "spawn_limit_mission": -1,
  "ignore_av_to_eb_scaling": false,
  "can_zone": false,
  "custom_badge_stat": null,
  "badge_stat_flags": "DefaultBadgeStat",
  "rank": "VR_BOSS",
  "power_full_names": [
    "V_GenericVillains.Sword_Stalker.Hack",
    "V_GenericVillains.Sword_Stalker.Slash",
    "V_GenericVillains.Sword_Stalker.Shurikens",
    "V_GenericVillains.Sword_Stalker.Slice"
  ],
  "power_display_names": [
    "Sting of the Wasp",
    "Gambler's Cut",
    "Shurikens",
    "Flashing Steel"
  ],
  "power_levels": [
    0,
    0,
    0,
    0
  ],
  "powers": [
    {
      "power_category": "V_GenericVillains",
      "power_set": "Sword_Stalker",
      "power": "Hack",
      "level": 0
    },
    {
      "power_category": "V_GenericVillains",
      "power_set": "Sword_Stalker",
      "power": "Slash",
      "level": 0
    },
    {
      "power_category": "V_GenericVillains",
      "power_set": "Sword_Stalker",
      "power": "Shurikens",
      "level": 0
    },
    {
      "power_category": "V_GenericVillains",
      "power_set": "Sword_Stalker",
      "power": "Slice",
      "level": 0
    }
  ],
  "levels": [
    {
      "level": 11,
      "experience": 0,
      "display_names": [
        "Stalker"
      ],
      "costumes": [
        "Longbow_Female_Boss_01"
      ]
    },
    {
      "level": 12,
      "experience": 0,
      "display_names": [
        "Stalker"
      ],
      "costumes": [
        "Longbow_Female_Boss_01"
      ]
    },
    {
      "level": 13,
      "experience": 0,
      "display_names": [
        "Stalker"
      ],
      "costumes": [
        "Longbow_Female_Boss_01"
      ]
    },
    {
      "level": 14,
      "experience": 0,
      "display_names": [
        "Stalker"
      ],
      "costumes": [
        "Longbow_Female_Boss_01"
      ]
    },
    {
      "level": 15,
      "experience": 0,
      "display_names": [
        "Stalker"
      ],
      "costumes": [
        "Longbow_Female_Boss_01"
      ]
    }
  ]
}