{
  "name": "GenericHeroes_Mindspider",
  "gender": "GENDER_FEMALE",
  "description": "Mindspider was a government agent working for the DATA division of the FBSA. After a few too many 'disciplinary actions' she retired from the FBSA and went freelance. She can be found working for various hero groups, including Longbow, if the price is right.",
  "group_description": "Longbow",
  "display_class_name": null,
  "character_class_name": "boss_grunt",
  "ai_config": "Default_Ranged",
  "commandable_pet": false,
  "power_tags": [
    "Humanoid",
    "HumanSkeleton"
  ],
  "additional_rewards": [

  ],
  "skill_hp_rewards": [

  ],
  "skill_status_rewards": [

  ],
  "ally": "Hero",
  "gang": null,
  "reward_scale": 1.0,
  "game_exclusion": "None",
  "inactive_state_weapon": null,
  "ignores_combat_mods": false,
  "copy_creator_mods": false,
  "spawn_limit": -1,
  "spawn_limit_mission": -1,
  "ignore_av_to_eb_scaling": false,
  "can_zone": false,
  "custom_badge_stat": null,
  "badge_stat_flags": "DefaultBadgeStat",
  "rank": "VR_BOSS",
  "power_full_names": [
    "V_GenericHeroes.Psychic_Defender_Low.Heal_Other",
    "V_GenericHeroes.Psychic_Defender_Low.Healing_Aura",
    "V_GenericHeroes.Psychic_Defender_Low.Subdue",
    "V_GenericHeroes.Psychic_Defender_Low.Telekinetic_Blast",
    "V_GenericHeroes.Psychic_Defender_Low.Mental_Blast",
    "V_GenericHeroes.Psychic_Defender_Low.Regeneration_Aura",
    "V_GenericHeroes.Psychic_Defender_Mid.Psionic_Tornado",
    "V_GenericHeroes.Psychic_Defender_Mid.Scramble_Thoughts",
    "V_GenericHeroes.Psychic_Defender_High.Psychic_Wail"
  ],
  "power_display_names": [
    "Heal Other",
    "Healing Aura",
    "Subdue",
    "Telekinetic Blast",
    "Mental Blast",
    "Regeneration Aura",
    "Psionic Tornado",
    "Scramble Thoughts",
    "Psychic Wail"
  ],
  "power_levels": [
    0,
    0,
    0,
    0,
    0,
    0,
    0,
    0,
    0
  ],
  "powers": [
    {
      "power_category": "V_GenericHeroes",
      "power_set": "Psychic_Defender_Low",
      "power": "*",
      "level": 0
    },
    {
      "power_category": "V_GenericHeroes",
      "power_set": "Psychic_Defender_Mid",
      "power": "*",
      "level": 0
    },
    {
      "power_category": "V_GenericHeroes",
      "power_set": "Psychic_Defender_High",
      "power": "*",
      "level": 0
    }
  ],
  "levels": [
    {
      "level": 41,
      "experience": 0,
      "display_names": [
        "Mindspider"
      ],
      "costumes": [
        "Model_Mindspider"
      ]
    },
    {
      "level": 42,
      "experience": 0,
      "display_names": [
        "Mindspider"
      ],
      "costumes": [
        "Model_Mindspider"
      ]
    },
    {
      "level": 43,
      "experience": 0,
      "display_names": [
        "Mindspider"
      ],
      "costumes": [
        "Model_Mindspider"
      ]
    },
    {
      "level": 44,
      "experience": 0,
      "display_names": [
        "Mindspider"
      ],
      "costumes": [
        "Model_Mindspider"
      ]
    },
    {
      "level": 45,
      "experience": 0,
      "display_names": [
        "Mindspider"
      ],
      "costumes": [
        "Model_Mindspider"
      ]
    },
    {
      "level": 46,
      "experience": 0,
      "display_names": [
        "Mindspider"
      ],
      "costumes": [
        "Model_Mindspider"
      ]
    },
    {
      "level": 47,
      "experience": 0,
      "display_names": [
        "Mindspider"
      ],
      "costumes": [
        "Model_Mindspider"
      ]
    },
    {
      "level": 48,
      "experience": 0,
      "display_names": [
        "Mindspider"
      ],
      "costumes": [
        "Model_Mindspider"
      ]
    },
    {
      "level": 49,
      "experience": 0,
      "display_names": [
        "Mindspider"
      ],
      "costumes": [
        "Model_Mindspider"
      ]
    },
    {
      "level": 50,
      "experience": 0,
      "display_names": [
        "Mindspider"
      ],
      "costumes": [
        "Model_Mindspider"
      ]
    },
    {
      "level": 51,
      "experience": 0,
      "display_names": [
        "Mindspider"
      ],
      "costumes": [
        "Model_Mindspider"
      ]
    },
    {
      "level": 52,
      "experience": 0,
      "display_names": [
        "Mindspider"
      ],
      "costumes": [
        "Model_Mindspider"
      ]
    },
    {
      "level": 53,
      "experience": 0,
      "display_names": [
        "Mindspider"
      ],
      "costumes": [
        "Model_Mindspider"
      ]
    },
    {
      "level": 54,
      "experience": 0,
      "display_names": [
        "Mindspider"
      ],
      "costumes": [
        "Model_Mindspider"
      ]
    }
  ]
}