{
  "name": "GenericHeroes_Infinity_Cutscene",
  "gender": "GENDER_MALE",
  "description": "Infinity commands the robots, all creations of his own hands. He seems to have a vendetta against the valley, one that you are caught in the middle of.",
  "group_description": "The Robots",
  "display_class_name": null,
  "character_class_name": "boss_grunt",
  "ai_config": "Default_Ranged",
  "commandable_pet": false,
  "power_tags": [
    "Humanoid",
    "HumanSkeleton"
  ],
  "additional_rewards": [

  ],
  "skill_hp_rewards": [

  ],
  "skill_status_rewards": [

  ],
  "ally": null,
  "gang": null,
  "reward_scale": 1.0,
  "game_exclusion": "None",
  "inactive_state_weapon": null,
  "ignores_combat_mods": false,
  "copy_creator_mods": false,
  "spawn_limit": -1,
  "spawn_limit_mission": -1,
  "ignore_av_to_eb_scaling": false,
  "can_zone": false,
  "custom_badge_stat": null,
  "badge_stat_flags": "DefaultBadgeStat",
  "rank": "VR_BOSS",
  "power_full_names": [
    "NPC_Pets.Infinity.Lancer_Shot"
  ],
  "power_display_names": [
    "Lancer Shot"
  ],
  "power_levels": [
    0
  ],
  "powers": [
    {
      "power_category": "NPC_Pets",
      "power_set": "Infinity",
      "power": "Lancer_Shot",
      "level": 0
    }
  ],
  "levels": [
    {
      "level": 29,
      "experience": 0,
      "display_names": [
        "Infinity"
      ],
      "costumes": [
        "Model_Trilogy_Infinity"
      ]
    },
    {
      "level": 30,
      "experience": 0,
      "display_names": [
        "Infinity"
      ],
      "costumes": [
        "Model_Trilogy_Infinity"
      ]
    },
    {
      "level": 31,
      "experience": 0,
      "display_names": [
        "Infinity"
      ],
      "costumes": [
        "Model_Trilogy_Infinity"
      ]
    },
    {
      "level": 32,
      "experience": 0,
      "display_names": [
        "Infinity"
      ],
      "costumes": [
        "Model_Trilogy_Infinity"
      ]
    },
    {
      "level": 33,
      "experience": 0,
      "display_names": [
        "Infinity"
      ],
      "costumes": [
        "Model_Trilogy_Infinity"
      ]
    },
    {
      "level": 34,
      "experience": 0,
      "display_names": [
        "Infinity"
      ],
      "costumes": [
        "Model_Trilogy_Infinity"
      ]
    },
    {
      "level": 35,
      "experience": 0,
      "display_names": [
        "Infinity"
      ],
      "costumes": [
        "Model_Trilogy_Infinity"
      ]
    },
    {
      "level": 36,
      "experience": 0,
      "display_names": [
        "Infinity"
      ],
      "costumes": [
        "Model_Trilogy_Infinity"
      ]
    },
    {
      "level": 37,
      "experience": 0,
      "display_names": [
        "Infinity"
      ],
      "costumes": [
        "Model_Trilogy_Infinity"
      ]
    },
    {
      "level": 38,
      "experience": 0,
      "display_names": [
        "Infinity"
      ],
      "costumes": [
        "Model_Trilogy_Infinity"
      ]
    },
    {
      "level": 39,
      "experience": 0,
      "display_names": [
        "Infinity"
      ],
      "costumes": [
        "Model_Trilogy_Infinity"
      ]
    },
    {
      "level": 40,
      "experience": 0,
      "display_names": [
        "Infinity"
      ],
      "costumes": [
        "Model_Trilogy_Infinity"
      ]
    },
    {
      "level": 41,
      "experience": 0,
      "display_names": [
        "Infinity"
      ],
      "costumes": [
        "Model_Trilogy_Infinity"
      ]
    },
    {
      "level": 42,
      "experience": 0,
      "display_names": [
        "Infinity"
      ],
      "costumes": [
        "Model_Trilogy_Infinity"
      ]
    },
    {
      "level": 43,
      "experience": 0,
      "display_names": [
        "Infinity"
      ],
      "costumes": [
        "Model_Trilogy_Infinity"
      ]
    },
    {
      "level": 44,
      "experience": 0,
      "display_names": [
        "Infinity"
      ],
      "costumes": [
        "Model_Trilogy_Infinity"
      ]
    },
    {
      "level": 45,
      "experience": 0,
      "display_names": [
        "Infinity"
      ],
      "costumes": [
        "Model_Trilogy_Infinity"
      ]
    },
    {
      "level": 46,
      "experience": 0,
      "display_names": [
        "Infinity"
      ],
      "costumes": [
        "Model_Trilogy_Infinity"
      ]
    },
    {
      "level": 47,
      "experience": 0,
      "display_names": [
        "Infinity"
      ],
      "costumes": [
        "Model_Trilogy_Infinity"
      ]
    },
    {
      "level": 48,
      "experience": 0,
      "display_names": [
        "Infinity"
      ],
      "costumes": [
        "Model_Trilogy_Infinity"
      ]
    },
    {
      "level": 49,
      "experience": 0,
      "display_names": [
        "Infinity"
      ],
      "costumes": [
        "Model_Trilogy_Infinity"
      ]
    },
    {
      "level": 50,
      "experience": 0,
      "display_names": [
        "Infinity"
      ],
      "costumes": [
        "Model_Trilogy_Infinity"
      ]
    },
    {
      "level": 51,
      "experience": 0,
      "display_names": [
        "Infinity"
      ],
      "costumes": [
        "Model_Trilogy_Infinity"
      ]
    },
    {
      "level": 52,
      "experience": 0,
      "display_names": [
        "Infinity"
      ],
      "costumes": [
        "Model_Trilogy_Infinity"
      ]
    },
    {
      "level": 53,
      "experience": 0,
      "display_names": [
        "Infinity"
      ],
      "costumes": [
        "Model_Trilogy_Infinity"
      ]
    },
    {
      "level": 54,
      "experience": 0,
      "display_names": [
        "Infinity"
      ],
      "costumes": [
        "Model_Trilogy_Infinity"
      ]
    }
  ]
}