{
  "name": "GenericHeroes_Devoured_Super_Pyriss",
  "gender": "GENDER_MALE",
  "description": "Pyriss was once an impressionable young would-be heroine, until Peter Themari and a truly depraved villain tricked her into turning against her allies and becoming a villain herself. It seems that her villainous life left her at the mercy of the devouring Earth, who consumed her and transformed her into what she is now. The scientist Vernon von Grun has experimented on Pyriss, trying to discover the secret behind the Devouring Earth. As a result, von Grun has triggered parts of Pyriss's old personality to resurface, while also empowering her beyond her normal proportions.",
  "group_description": "Arachnos",
  "display_class_name": "Devoured",
  "character_class_name": "boss_praetoriangrunt",
  "ai_config": "DevouringEarth_Boss",
  "commandable_pet": false,
  "power_tags": [

  ],
  "additional_rewards": [

  ],
  "skill_hp_rewards": [

  ],
  "skill_status_rewards": [

  ],
  "ally": null,
  "gang": null,
  "reward_scale": 2.0,
  "game_exclusion": "None",
  "inactive_state_weapon": null,
  "ignores_combat_mods": false,
  "copy_creator_mods": false,
  "spawn_limit": 0,
  "spawn_limit_mission": 0,
  "ignore_av_to_eb_scaling": true,
  "can_zone": false,
  "custom_badge_stat": null,
  "badge_stat_flags": "DefaultBadgeStat",
  "rank": "VR_BOSS",
  "power_full_names": [
    "DevouringEarth.Devouring_Earth_Devoured_Melee.Pummel",
    "DevouringEarth.Devouring_Earth_Devoured_Ranged.Spit",
    "DevouringEarth.Devouring_Earth_Greater_Devoured_Ranged.Hurl_Boulder",
    "DevouringEarth.Devouring_Earth_Greater_Devoured_Ranged.Foot_Stomp",
    "DevouringEarth.Devouring_Earth_Greater_Devoured_Defense.Resistance",
    "DevouringEarth.Devouring_Earth_Summon_Swarm.Call_Swarm",
    "V_Miscellaneous.Pyriss.Combustion",
    "V_Miscellaneous.Pyriss.Fire_Breath",
    "V_Miscellaneous.Pyriss.Fire_Ball",
    "V_Miscellaneous.Pyriss.Incinerate"
  ],
  "power_display_names": [
    "Pummel",
    "Spit",
    "Hurl Boulder",
    "Foot Stomp",
    "Resistance",
    "Call Swarm",
    "Combustion",
    "Fire Breath",
    "Fire Ball",
    "Incinerate"
  ],
  "power_levels": [
    0,
    0,
    0,
    0,
    0,
    0,
    0,
    0,
    0,
    0
  ],
  "powers": [
    {
      "power_category": "DevouringEarth",
      "power_set": "Devouring_Earth_Devoured_Melee",
      "power": "*",
      "level": 0
    },
    {
      "power_category": "DevouringEarth",
      "power_set": "Devouring_Earth_Devoured_Ranged",
      "power": "*",
      "level": 0
    },
    {
      "power_category": "DevouringEarth",
      "power_set": "Devouring_Earth_Greater_Devoured_Ranged",
      "power": "*",
      "level": 0
    },
    {
      "power_category": "DevouringEarth",
      "power_set": "Devouring_Earth_Greater_Devoured_Defense",
      "power": "*",
      "level": 0
    },
    {
      "power_category": "DevouringEarth",
      "power_set": "Devouring_Earth_Summon_Swarm",
      "power": "*",
      "level": 0
    },
    {
      "power_category": "V_Miscellaneous",
      "power_set": "Pyriss",
      "power": "Combustion",
      "level": 0
    },
    {
      "power_category": "V_Miscellaneous",
      "power_set": "Pyriss",
      "power": "Fire_Breath",
      "level": 0
    },
    {
      "power_category": "V_Miscellaneous",
      "power_set": "Pyriss",
      "power": "Fire_Ball",
      "level": 0
    },
    {
      "power_category": "V_Miscellaneous",
      "power_set": "Pyriss",
      "power": "Incinerate",
      "level": 0
    }
  ],
  "levels": [
    {
      "level": 50,
      "experience": 0,
      "display_names": [
        "Super Devoured Pyriss"
      ],
      "costumes": [
        "Devoured_Pyriss"
      ]
    },
    {
      "level": 51,
      "experience": 0,
      "display_names": [
        "Super Devoured Pyriss"
      ],
      "costumes": [
        "Devoured_Pyriss"
      ]
    },
    {
      "level": 52,
      "experience": 0,
      "display_names": [
        "Super Devoured Pyriss"
      ],
      "costumes": [
        "Devoured_Pyriss"
      ]
    },
    {
      "level": 53,
      "experience": 0,
      "display_names": [
        "Super Devoured Pyriss"
      ],
      "costumes": [
        "Devoured_Pyriss"
      ]
    },
    {
      "level": 54,
      "experience": 0,
      "display_names": [
        "Super Devoured Pyriss"
      ],
      "costumes": [
        "Devoured_Pyriss"
      ]
    }
  ]
}