{
  "name": "GenericVillains_Corruptor_Ice_31-40",
  "gender": "GENDER_MALE",
  "description": "This is a generic Ice/Ice Corruptor.",
  "group_description": "Group Description",
  "display_class_name": null,
  "character_class_name": "boss_grunt",
  "ai_config": "Default_Ranged",
  "commandable_pet": false,
  "power_tags": [
    "Humanoid",
    "HumanSkeleton"
  ],
  "additional_rewards": [

  ],
  "skill_hp_rewards": [

  ],
  "skill_status_rewards": [

  ],
  "ally": null,
  "gang": null,
  "reward_scale": 1.0,
  "game_exclusion": "None",
  "inactive_state_weapon": null,
  "ignores_combat_mods": false,
  "copy_creator_mods": false,
  "spawn_limit": -1,
  "spawn_limit_mission": -1,
  "ignore_av_to_eb_scaling": false,
  "can_zone": false,
  "custom_badge_stat": null,
  "badge_stat_flags": "DefaultBadgeStat",
  "rank": "VR_BOSS",
  "power_full_names": [
    "V_GenericVillains.Ice_Corruptor.Ice_Bolt",
    "V_GenericVillains.Ice_Corruptor.Ice_Blast",
    "V_GenericVillains.Ice_Corruptor.Frost_Breath",
    "V_GenericVillains.Ice_Corruptor.Freeze_Ray",
    "V_GenericVillains.Ice_Corruptor.Ice_Storm",
    "V_GenericVillains.Ice_Corruptor.Bitter_Ice_Blast",
    "V_GenericVillains.Ice_Corruptor.Frostwork",
    "V_GenericVillains.Ice_Corruptor.Bitter_Freeze_Ray",
    "V_GenericVillains.Ice_Corruptor.Heat_Loss"
  ],
  "power_display_names": [
    "Ice Bolt",
    "Ice Blast",
    "Frost Breath",
    "Freeze Ray",
    "Ice Storm",
    "Bitter Ice Blast",
    "Frostwork",
    "Bitter Freeze Ray",
    "Heat Loss"
  ],
  "power_levels": [
    0,
    0,
    0,
    0,
    0,
    0,
    0,
    0,
    0
  ],
  "powers": [
    {
      "power_category": "V_GenericVillains",
      "power_set": "Ice_Corruptor",
      "power": "Ice_Bolt",
      "level": 0
    },
    {
      "power_category": "V_GenericVillains",
      "power_set": "Ice_Corruptor",
      "power": "Ice_Blast",
      "level": 0
    },
    {
      "power_category": "V_GenericVillains",
      "power_set": "Ice_Corruptor",
      "power": "Frost_Breath",
      "level": 0
    },
    {
      "power_category": "V_GenericVillains",
      "power_set": "Ice_Corruptor",
      "power": "Freeze_Ray",
      "level": 0
    },
    {
      "power_category": "V_GenericVillains",
      "power_set": "Ice_Corruptor",
      "power": "Ice_Storm",
      "level": 0
    },
    {
      "power_category": "V_GenericVillains",
      "power_set": "Ice_Corruptor",
      "power": "Bitter_Ice_Blast",
      "level": 0
    },
    {
      "power_category": "V_GenericVillains",
      "power_set": "Ice_Corruptor",
      "power": "Frostwork",
      "level": 0
    },
    {
      "power_category": "V_GenericVillains",
      "power_set": "Ice_Corruptor",
      "power": "Bitter_Freeze_Ray",
      "level": 0
    },
    {
      "power_category": "V_GenericVillains",
      "power_set": "Ice_Corruptor",
      "power": "Heat_Loss",
      "level": 0
    }
  ],
  "levels": [
    {
      "level": 31,
      "experience": 0,
      "display_names": [
        "Corruptor"
      ],
      "costumes": [
        "Longbow_Male_Boss_01"
      ]
    },
    {
      "level": 32,
      "experience": 0,
      "display_names": [
        "Corruptor"
      ],
      "costumes": [
        "Longbow_Male_Boss_01"
      ]
    },
    {
      "level": 33,
      "experience": 0,
      "display_names": [
        "Corruptor"
      ],
      "costumes": [
        "Longbow_Male_Boss_01"
      ]
    },
    {
      "level": 34,
      "experience": 0,
      "display_names": [
        "Corruptor"
      ],
      "costumes": [
        "Longbow_Male_Boss_01"
      ]
    },
    {
      "level": 35,
      "experience": 0,
      "display_names": [
        "Corruptor"
      ],
      "costumes": [
        "Longbow_Male_Boss_01"
      ]
    },
    {
      "level": 36,
      "experience": 0,
      "display_names": [
        "Corruptor"
      ],
      "costumes": [
        "Longbow_Male_Boss_01"
      ]
    },
    {
      "level": 37,
      "experience": 0,
      "display_names": [
        "Corruptor"
      ],
      "costumes": [
        "Longbow_Male_Boss_01"
      ]
    },
    {
      "level": 38,
      "experience": 0,
      "display_names": [
        "Corruptor"
      ],
      "costumes": [
        "Longbow_Male_Boss_01"
      ]
    },
    {
      "level": 39,
      "experience": 0,
      "display_names": [
        "Corruptor"
      ],
      "costumes": [
        "Longbow_Male_Boss_01"
      ]
    },
    {
      "level": 40,
      "experience": 0,
      "display_names": [
        "Corruptor"
      ],
      "costumes": [
        "Longbow_Male_Boss_01"
      ]
    }
  ]
}