{
  "name": "GenericHeroes_Sidewinder",
  "gender": "GENDER_FEMALE",
  "description": "Sidewinder is one of Operative Rutger's assets. She's been undercover in Longbow for some time, but her cover's been blown. You'll have to extract her.",
  "group_description": "Arachnos",
  "display_class_name": null,
  "character_class_name": "boss_grunt",
  "ai_config": "Default_Ranged",
  "commandable_pet": false,
  "power_tags": [
    "Humanoid",
    "HumanSkeleton"
  ],
  "additional_rewards": [

  ],
  "skill_hp_rewards": [

  ],
  "skill_status_rewards": [

  ],
  "ally": "Hero",
  "gang": null,
  "reward_scale": 1.0,
  "game_exclusion": "None",
  "inactive_state_weapon": null,
  "ignores_combat_mods": false,
  "copy_creator_mods": false,
  "spawn_limit": -1,
  "spawn_limit_mission": -1,
  "ignore_av_to_eb_scaling": false,
  "can_zone": false,
  "custom_badge_stat": null,
  "badge_stat_flags": "DefaultBadgeStat",
  "rank": "VR_BOSS",
  "power_full_names": [
    "V_GenericHeroes.Radiation_Defender_Low.Neutrino_Bolt",
    "V_GenericHeroes.Radiation_Defender_Low.X-Ray_Beam",
    "V_GenericHeroes.Radiation_Defender_Low.Enervating__Field",
    "V_GenericHeroes.Radiation_Defender_Low.Electron_Haze",
    "V_GenericHeroes.Radiation_Defender_Low.Lingering_Radiation",
    "V_GenericHeroes.Radiation_Defender_Low.Cosmic_Burst",
    "V_GenericHeroes.Radiation_Defender_Mid.Choking_Cloud",
    "V_GenericHeroes.Radiation_Defender_Mid.Neutron_Bomb"
  ],
  "power_display_names": [
    "Neutrino Bolt",
    "X-Ray Beam",
    "Enervating Field",
    "Electron Haze",
    "Lingering Radiation",
    "Cosmic Burst",
    "Choking Cloud",
    "Neutron Bomb"
  ],
  "power_levels": [
    0,
    0,
    0,
    0,
    0,
    0,
    0,
    0
  ],
  "powers": [
    {
      "power_category": "V_GenericHeroes",
      "power_set": "Radiation_Defender_Low",
      "power": "*",
      "level": 0
    },
    {
      "power_category": "V_GenericHeroes",
      "power_set": "Radiation_Defender_Mid",
      "power": "*",
      "level": 0
    }
  ],
  "levels": [
    {
      "level": 30,
      "experience": 0,
      "display_names": [
        "Sidewinder"
      ],
      "costumes": [
        "Model_Sidewinder"
      ]
    },
    {
      "level": 31,
      "experience": 0,
      "display_names": [
        "Sidewinder"
      ],
      "costumes": [
        "Model_Sidewinder"
      ]
    },
    {
      "level": 32,
      "experience": 0,
      "display_names": [
        "Sidewinder"
      ],
      "costumes": [
        "Model_Sidewinder"
      ]
    },
    {
      "level": 33,
      "experience": 0,
      "display_names": [
        "Sidewinder"
      ],
      "costumes": [
        "Model_Sidewinder"
      ]
    },
    {
      "level": 34,
      "experience": 0,
      "display_names": [
        "Sidewinder"
      ],
      "costumes": [
        "Model_Sidewinder"
      ]
    },
    {
      "level": 35,
      "experience": 0,
      "display_names": [
        "Sidewinder"
      ],
      "costumes": [
        "Model_Sidewinder"
      ]
    },
    {
      "level": 36,
      "experience": 0,
      "display_names": [
        "Sidewinder"
      ],
      "costumes": [
        "Model_Sidewinder"
      ]
    },
    {
      "level": 37,
      "experience": 0,
      "display_names": [
        "Sidewinder"
      ],
      "costumes": [
        "Model_Sidewinder"
      ]
    },
    {
      "level": 38,
      "experience": 0,
      "display_names": [
        "Sidewinder"
      ],
      "costumes": [
        "Model_Sidewinder"
      ]
    },
    {
      "level": 39,
      "experience": 0,
      "display_names": [
        "Sidewinder"
      ],
      "costumes": [
        "Model_Sidewinder"
      ]
    }
  ]
}