{
  "name": "GenericVillains_Brute_Fire_21-30_Female",
  "gender": "GENDER_FEMALE",
  "description": "This is a generic Fire/Fire Brute.",
  "group_description": "Group Description",
  "display_class_name": null,
  "character_class_name": "boss_grunt",
  "ai_config": "Default_Melee",
  "commandable_pet": false,
  "power_tags": [
    "Humanoid",
    "HumanSkeleton"
  ],
  "additional_rewards": [

  ],
  "skill_hp_rewards": [

  ],
  "skill_status_rewards": [

  ],
  "ally": null,
  "gang": null,
  "reward_scale": 1.0,
  "game_exclusion": "None",
  "inactive_state_weapon": null,
  "ignores_combat_mods": false,
  "copy_creator_mods": false,
  "spawn_limit": -1,
  "spawn_limit_mission": -1,
  "ignore_av_to_eb_scaling": false,
  "can_zone": false,
  "custom_badge_stat": null,
  "badge_stat_flags": "DefaultBadgeStat",
  "rank": "VR_BOSS",
  "power_full_names": [
    "V_GenericVillains.Brute_Resistance.Resistance",
    "V_GenericVillains.Fire_Brute.Scorch",
    "V_GenericVillains.Fire_Brute.Cremate",
    "V_GenericVillains.Fire_Brute.Fire_Sword",
    "V_GenericVillains.Fire_Brute.Fire_Breath",
    "V_GenericVillains.Fire_Brute_Low.Consume",
    "V_GenericVillains.Fire_Brute_Low.Incinerate",
    "V_GenericVillains.Fire_Brute_Low.Plasma_Shield"
  ],
  "power_display_names": [
    "Resistance",
    "Scorch",
    "Cremate",
    "Fire Sword",
    "Fire Breath",
    "Consume",
    "Incinerate",
    "Plasma Shield"
  ],
  "power_levels": [
    0,
    0,
    0,
    0,
    0,
    0,
    0,
    0
  ],
  "powers": [
    {
      "power_category": "V_GenericVillains",
      "power_set": "Brute_Resistance",
      "power": "*",
      "level": 0
    },
    {
      "power_category": "V_GenericVillains",
      "power_set": "Fire_Brute",
      "power": "Scorch",
      "level": 0
    },
    {
      "power_category": "V_GenericVillains",
      "power_set": "Fire_Brute",
      "power": "Cremate",
      "level": 0
    },
    {
      "power_category": "V_GenericVillains",
      "power_set": "Fire_Brute",
      "power": "Fire_Sword",
      "level": 0
    },
    {
      "power_category": "V_GenericVillains",
      "power_set": "Fire_Brute",
      "power": "Fire_Breath",
      "level": 0
    },
    {
      "power_category": "V_GenericVillains",
      "power_set": "Fire_Brute_Low",
      "power": "*",
      "level": 0
    }
  ],
  "levels": [
    {
      "level": 21,
      "experience": 0,
      "display_names": [
        "Brute"
      ],
      "costumes": [
        "Longbow_Female_Boss_01"
      ]
    },
    {
      "level": 22,
      "experience": 0,
      "display_names": [
        "Brute"
      ],
      "costumes": [
        "Longbow_Female_Boss_01"
      ]
    },
    {
      "level": 23,
      "experience": 0,
      "display_names": [
        "Brute"
      ],
      "costumes": [
        "Longbow_Female_Boss_01"
      ]
    },
    {
      "level": 24,
      "experience": 0,
      "display_names": [
        "Brute"
      ],
      "costumes": [
        "Longbow_Female_Boss_01"
      ]
    },
    {
      "level": 25,
      "experience": 0,
      "display_names": [
        "Brute"
      ],
      "costumes": [
        "Longbow_Female_Boss_01"
      ]
    },
    {
      "level": 26,
      "experience": 0,
      "display_names": [
        "Brute"
      ],
      "costumes": [
        "Longbow_Female_Boss_01"
      ]
    },
    {
      "level": 27,
      "experience": 0,
      "display_names": [
        "Brute"
      ],
      "costumes": [
        "Longbow_Female_Boss_01"
      ]
    },
    {
      "level": 28,
      "experience": 0,
      "display_names": [
        "Brute"
      ],
      "costumes": [
        "Longbow_Female_Boss_01"
      ]
    },
    {
      "level": 29,
      "experience": 0,
      "display_names": [
        "Brute"
      ],
      "costumes": [
        "Longbow_Female_Boss_01"
      ]
    },
    {
      "level": 30,
      "experience": 0,
      "display_names": [
        "Brute"
      ],
      "costumes": [
        "Longbow_Female_Boss_01"
      ]
    }
  ]
}