{
  "name": "GhoulsClean_Minion_Type_22_Improved",
  "gender": "GENDER_MALE",
  "description": "These genetically altered humans are given the cold numeric moniker Type 22, suggesting that they were part of an earlier batch of experiments. Genetic meddling has given them immense strength and speed, at the cost of extremely rapid cellular decay.",
  "group_description": null,
  "display_class_name": null,
  "character_class_name": "minion_grunt",
  "ai_config": "Default_Melee",
  "commandable_pet": false,
  "power_tags": [
    "HumanSkeleton"
  ],
  "additional_rewards": [

  ],
  "skill_hp_rewards": [

  ],
  "skill_status_rewards": [

  ],
  "ally": null,
  "gang": null,
  "reward_scale": 1.3,
  "game_exclusion": "None",
  "inactive_state_weapon": null,
  "ignores_combat_mods": false,
  "copy_creator_mods": false,
  "spawn_limit": 0,
  "spawn_limit_mission": 0,
  "ignore_av_to_eb_scaling": false,
  "can_zone": false,
  "custom_badge_stat": null,
  "badge_stat_flags": "DefaultBadgeStat",
  "rank": "VR_MINION",
  "power_full_names": [
    "P_Ghouls.Dirty_Ghoul_Minion.Throw",
    "P_Ghouls.Dirty_Ghoul_Minion.Jab",
    "P_Ghouls.Ghoul_Minion_Resistance.Resistance",
    "P_Ghouls.Ghoul_Minion_Resistance.Death_and_Glory",
    "P_Ghouls.Improved.Fast_Healing",
    "P_Ghouls.Improved.Dull_Pain",
    "P_Ghouls.Improved.Integration"
  ],
  "power_display_names": [
    "Throw",
    "Jab",
    "Resistance",
    "Death and Glory",
    "Fast Healing",
    "Dull Pain",
    "Integration"
  ],
  "power_levels": [
    0,
    0,
    0,
    0,
    0,
    0,
    0
  ],
  "powers": [
    {
      "power_category": "P_Ghouls",
      "power_set": "Dirty_Ghoul_Minion",
      "power": "*",
      "level": 0
    },
    {
      "power_category": "P_Ghouls",
      "power_set": "Ghoul_Minion_Resistance",
      "power": "*",
      "level": 0
    },
    {
      "power_category": "P_Ghouls",
      "power_set": "Improved",
      "power": "*",
      "level": 0
    }
  ],
  "levels": [
    {
      "level": 1,
      "experience": 0,
      "display_names": [
        "Improved Type 22"
      ],
      "costumes": [
        "Ghoul_Clean_Minion_01",
        "Ghoul_Clean_Minion_02",
        "Ghoul_Clean_Minion_03"
      ]
    },
    {
      "level": 2,
      "experience": 0,
      "display_names": [
        "Improved Type 22"
      ],
      "costumes": [
        "Ghoul_Clean_Minion_01",
        "Ghoul_Clean_Minion_02",
        "Ghoul_Clean_Minion_03"
      ]
    },
    {
      "level": 3,
      "experience": 0,
      "display_names": [
        "Improved Type 22"
      ],
      "costumes": [
        "Ghoul_Clean_Minion_01",
        "Ghoul_Clean_Minion_02",
        "Ghoul_Clean_Minion_03"
      ]
    },
    {
      "level": 4,
      "experience": 0,
      "display_names": [
        "Improved Type 22"
      ],
      "costumes": [
        "Ghoul_Clean_Minion_01",
        "Ghoul_Clean_Minion_02",
        "Ghoul_Clean_Minion_03"
      ]
    },
    {
      "level": 5,
      "experience": 0,
      "display_names": [
        "Improved Type 22"
      ],
      "costumes": [
        "Ghoul_Clean_Minion_01",
        "Ghoul_Clean_Minion_02",
        "Ghoul_Clean_Minion_03"
      ]
    },
    {
      "level": 6,
      "experience": 0,
      "display_names": [
        "Improved Type 22"
      ],
      "costumes": [
        "Ghoul_Clean_Minion_01",
        "Ghoul_Clean_Minion_02",
        "Ghoul_Clean_Minion_03"
      ]
    },
    {
      "level": 7,
      "experience": 0,
      "display_names": [
        "Improved Type 22"
      ],
      "costumes": [
        "Ghoul_Clean_Minion_01",
        "Ghoul_Clean_Minion_02",
        "Ghoul_Clean_Minion_03"
      ]
    },
    {
      "level": 8,
      "experience": 0,
      "display_names": [
        "Improved Type 22"
      ],
      "costumes": [
        "Ghoul_Clean_Minion_01",
        "Ghoul_Clean_Minion_02",
        "Ghoul_Clean_Minion_03"
      ]
    },
    {
      "level": 9,
      "experience": 0,
      "display_names": [
        "Improved Type 22"
      ],
      "costumes": [
        "Ghoul_Clean_Minion_01",
        "Ghoul_Clean_Minion_02",
        "Ghoul_Clean_Minion_03"
      ]
    },
    {
      "level": 10,
      "experience": 0,
      "display_names": [
        "Improved Type 22"
      ],
      "costumes": [
        "Ghoul_Clean_Minion_01",
        "Ghoul_Clean_Minion_02",
        "Ghoul_Clean_Minion_03"
      ]
    },
    {
      "level": 11,
      "experience": 0,
      "display_names": [
        "Improved Type 22"
      ],
      "costumes": [
        "Ghoul_Clean_Minion_01",
        "Ghoul_Clean_Minion_02",
        "Ghoul_Clean_Minion_03"
      ]
    },
    {
      "level": 12,
      "experience": 0,
      "display_names": [
        "Improved Type 22"
      ],
      "costumes": [
        "Ghoul_Clean_Minion_01",
        "Ghoul_Clean_Minion_02",
        "Ghoul_Clean_Minion_03"
      ]
    },
    {
      "level": 13,
      "experience": 0,
      "display_names": [
        "Improved Type 22"
      ],
      "costumes": [
        "Ghoul_Clean_Minion_01",
        "Ghoul_Clean_Minion_02",
        "Ghoul_Clean_Minion_03"
      ]
    },
    {
      "level": 14,
      "experience": 0,
      "display_names": [
        "Improved Type 22"
      ],
      "costumes": [
        "Ghoul_Clean_Minion_01",
        "Ghoul_Clean_Minion_02",
        "Ghoul_Clean_Minion_03"
      ]
    },
    {
      "level": 15,
      "experience": 0,
      "display_names": [
        "Improved Type 22"
      ],
      "costumes": [
        "Ghoul_Clean_Minion_01",
        "Ghoul_Clean_Minion_02",
        "Ghoul_Clean_Minion_03"
      ]
    },
    {
      "level": 16,
      "experience": 0,
      "display_names": [
        "Improved Type 22"
      ],
      "costumes": [
        "Ghoul_Clean_Minion_01",
        "Ghoul_Clean_Minion_02",
        "Ghoul_Clean_Minion_03"
      ]
    },
    {
      "level": 17,
      "experience": 0,
      "display_names": [
        "Improved Type 22"
      ],
      "costumes": [
        "Ghoul_Clean_Minion_01",
        "Ghoul_Clean_Minion_02",
        "Ghoul_Clean_Minion_03"
      ]
    },
    {
      "level": 18,
      "experience": 0,
      "display_names": [
        "Improved Type 22"
      ],
      "costumes": [
        "Ghoul_Clean_Minion_01",
        "Ghoul_Clean_Minion_02",
        "Ghoul_Clean_Minion_03"
      ]
    },
    {
      "level": 19,
      "experience": 0,
      "display_names": [
        "Improved Type 22"
      ],
      "costumes": [
        "Ghoul_Clean_Minion_01",
        "Ghoul_Clean_Minion_02",
        "Ghoul_Clean_Minion_03"
      ]
    },
    {
      "level": 20,
      "experience": 0,
      "display_names": [
        "Improved Type 22"
      ],
      "costumes": [
        "Ghoul_Clean_Minion_01",
        "Ghoul_Clean_Minion_02",
        "Ghoul_Clean_Minion_03"
      ]
    },
    {
      "level": 21,
      "experience": 0,
      "display_names": [
        "Improved Type 22"
      ],
      "costumes": [
        "Ghoul_Clean_Minion_01",
        "Ghoul_Clean_Minion_02",
        "Ghoul_Clean_Minion_03"
      ]
    },
    {
      "level": 22,
      "experience": 0,
      "display_names": [
        "Improved Type 22"
      ],
      "costumes": [
        "Ghoul_Clean_Minion_01",
        "Ghoul_Clean_Minion_02",
        "Ghoul_Clean_Minion_03"
      ]
    },
    {
      "level": 23,
      "experience": 0,
      "display_names": [
        "Improved Type 22"
      ],
      "costumes": [
        "Ghoul_Clean_Minion_01",
        "Ghoul_Clean_Minion_02",
        "Ghoul_Clean_Minion_03"
      ]
    },
    {
      "level": 24,
      "experience": 0,
      "display_names": [
        "Improved Type 22"
      ],
      "costumes": [
        "Ghoul_Clean_Minion_01",
        "Ghoul_Clean_Minion_02",
        "Ghoul_Clean_Minion_03"
      ]
    }
  ]
}