{
  "name": "GhoulsDirty_Minion_Hunter",
  "gender": "GENDER_MALE",
  "description": "Genetically altered to have a hyper developed medulla oblongata, Ghouls produce adrenaline at a prodigious rate, enhancing their strength, speed, and aggressiveness. Packs of hunters prowl the tunnels beneath Praetoria, eating anything and everything they can get their hands on, sometimes even each other.",
  "group_description": null,
  "display_class_name": null,
  "character_class_name": "minion_grunt",
  "ai_config": "Default_Melee",
  "commandable_pet": false,
  "power_tags": [
    "HumanSkeleton"
  ],
  "additional_rewards": [

  ],
  "skill_hp_rewards": [

  ],
  "skill_status_rewards": [

  ],
  "ally": null,
  "gang": null,
  "reward_scale": 1.0,
  "game_exclusion": "None",
  "inactive_state_weapon": null,
  "ignores_combat_mods": false,
  "copy_creator_mods": false,
  "spawn_limit": -1,
  "spawn_limit_mission": -1,
  "ignore_av_to_eb_scaling": false,
  "can_zone": false,
  "custom_badge_stat": null,
  "badge_stat_flags": "DefaultBadgeStat",
  "rank": "VR_MINION",
  "power_full_names": [
    "P_Ghouls.Dirty_Ghoul_Minion.Throw",
    "P_Ghouls.Dirty_Ghoul_Minion.Jab",
    "P_Ghouls.Ghoul_Minion_Resistance.Resistance",
    "P_Ghouls.Ghoul_Minion_Resistance.Death_and_Glory"
  ],
  "power_display_names": [
    "Throw",
    "Jab",
    "Resistance",
    "Death and Glory"
  ],
  "power_levels": [
    0,
    0,
    0,
    0
  ],
  "powers": [
    {
      "power_category": "P_Ghouls",
      "power_set": "Dirty_Ghoul_Minion",
      "power": "*",
      "level": 0
    },
    {
      "power_category": "P_Ghouls",
      "power_set": "Ghoul_Minion_Resistance",
      "power": "*",
      "level": 0
    }
  ],
  "levels": [
    {
      "level": 1,
      "experience": 0,
      "display_names": [
        "Hunter"
      ],
      "costumes": [
        "Ghoul_Dirty_Minion_01",
        "Ghoul_Dirty_Minion_02",
        "Ghoul_Dirty_Minion_03"
      ]
    },
    {
      "level": 2,
      "experience": 0,
      "display_names": [
        "Hunter"
      ],
      "costumes": [
        "Ghoul_Dirty_Minion_01",
        "Ghoul_Dirty_Minion_02",
        "Ghoul_Dirty_Minion_03"
      ]
    },
    {
      "level": 3,
      "experience": 0,
      "display_names": [
        "Hunter"
      ],
      "costumes": [
        "Ghoul_Dirty_Minion_01",
        "Ghoul_Dirty_Minion_02",
        "Ghoul_Dirty_Minion_03"
      ]
    },
    {
      "level": 4,
      "experience": 0,
      "display_names": [
        "Hunter"
      ],
      "costumes": [
        "Ghoul_Dirty_Minion_01",
        "Ghoul_Dirty_Minion_02",
        "Ghoul_Dirty_Minion_03"
      ]
    },
    {
      "level": 5,
      "experience": 0,
      "display_names": [
        "Hunter"
      ],
      "costumes": [
        "Ghoul_Dirty_Minion_01",
        "Ghoul_Dirty_Minion_02",
        "Ghoul_Dirty_Minion_03"
      ]
    },
    {
      "level": 6,
      "experience": 0,
      "display_names": [
        "Hunter"
      ],
      "costumes": [
        "Ghoul_Dirty_Minion_01",
        "Ghoul_Dirty_Minion_02",
        "Ghoul_Dirty_Minion_03"
      ]
    },
    {
      "level": 7,
      "experience": 0,
      "display_names": [
        "Hunter"
      ],
      "costumes": [
        "Ghoul_Dirty_Minion_01",
        "Ghoul_Dirty_Minion_02",
        "Ghoul_Dirty_Minion_03"
      ]
    },
    {
      "level": 8,
      "experience": 0,
      "display_names": [
        "Hunter"
      ],
      "costumes": [
        "Ghoul_Dirty_Minion_01",
        "Ghoul_Dirty_Minion_02",
        "Ghoul_Dirty_Minion_03"
      ]
    },
    {
      "level": 9,
      "experience": 0,
      "display_names": [
        "Hunter"
      ],
      "costumes": [
        "Ghoul_Dirty_Minion_01",
        "Ghoul_Dirty_Minion_02",
        "Ghoul_Dirty_Minion_03"
      ]
    },
    {
      "level": 10,
      "experience": 0,
      "display_names": [
        "Hunter"
      ],
      "costumes": [
        "Ghoul_Dirty_Minion_01",
        "Ghoul_Dirty_Minion_02",
        "Ghoul_Dirty_Minion_03"
      ]
    },
    {
      "level": 11,
      "experience": 0,
      "display_names": [
        "Hunter"
      ],
      "costumes": [
        "Ghoul_Dirty_Minion_01",
        "Ghoul_Dirty_Minion_02",
        "Ghoul_Dirty_Minion_03"
      ]
    },
    {
      "level": 12,
      "experience": 0,
      "display_names": [
        "Hunter"
      ],
      "costumes": [
        "Ghoul_Dirty_Minion_01",
        "Ghoul_Dirty_Minion_02",
        "Ghoul_Dirty_Minion_03"
      ]
    },
    {
      "level": 13,
      "experience": 0,
      "display_names": [
        "Hunter"
      ],
      "costumes": [
        "Ghoul_Dirty_Minion_01",
        "Ghoul_Dirty_Minion_02",
        "Ghoul_Dirty_Minion_03"
      ]
    },
    {
      "level": 14,
      "experience": 0,
      "display_names": [
        "Hunter"
      ],
      "costumes": [
        "Ghoul_Dirty_Minion_01",
        "Ghoul_Dirty_Minion_02",
        "Ghoul_Dirty_Minion_03"
      ]
    },
    {
      "level": 15,
      "experience": 0,
      "display_names": [
        "Hunter"
      ],
      "costumes": [
        "Ghoul_Dirty_Minion_01",
        "Ghoul_Dirty_Minion_02",
        "Ghoul_Dirty_Minion_03"
      ]
    },
    {
      "level": 16,
      "experience": 0,
      "display_names": [
        "Hunter"
      ],
      "costumes": [
        "Ghoul_Dirty_Minion_01",
        "Ghoul_Dirty_Minion_02",
        "Ghoul_Dirty_Minion_03"
      ]
    },
    {
      "level": 17,
      "experience": 0,
      "display_names": [
        "Hunter"
      ],
      "costumes": [
        "Ghoul_Dirty_Minion_01",
        "Ghoul_Dirty_Minion_02",
        "Ghoul_Dirty_Minion_03"
      ]
    },
    {
      "level": 18,
      "experience": 0,
      "display_names": [
        "Hunter"
      ],
      "costumes": [
        "Ghoul_Dirty_Minion_01",
        "Ghoul_Dirty_Minion_02",
        "Ghoul_Dirty_Minion_03"
      ]
    },
    {
      "level": 19,
      "experience": 0,
      "display_names": [
        "Hunter"
      ],
      "costumes": [
        "Ghoul_Dirty_Minion_01",
        "Ghoul_Dirty_Minion_02",
        "Ghoul_Dirty_Minion_03"
      ]
    },
    {
      "level": 20,
      "experience": 0,
      "display_names": [
        "Hunter"
      ],
      "costumes": [
        "Ghoul_Dirty_Minion_01",
        "Ghoul_Dirty_Minion_02",
        "Ghoul_Dirty_Minion_03"
      ]
    },
    {
      "level": 21,
      "experience": 0,
      "display_names": [
        "Hunter"
      ],
      "costumes": [
        "Ghoul_Dirty_Minion_01",
        "Ghoul_Dirty_Minion_02",
        "Ghoul_Dirty_Minion_03"
      ]
    },
    {
      "level": 22,
      "experience": 0,
      "display_names": [
        "Hunter"
      ],
      "costumes": [
        "Ghoul_Dirty_Minion_01",
        "Ghoul_Dirty_Minion_02",
        "Ghoul_Dirty_Minion_03"
      ]
    },
    {
      "level": 23,
      "experience": 0,
      "display_names": [
        "Hunter"
      ],
      "costumes": [
        "Ghoul_Dirty_Minion_01",
        "Ghoul_Dirty_Minion_02",
        "Ghoul_Dirty_Minion_03"
      ]
    },
    {
      "level": 24,
      "experience": 0,
      "display_names": [
        "Hunter"
      ],
      "costumes": [
        "Ghoul_Dirty_Minion_01",
        "Ghoul_Dirty_Minion_02",
        "Ghoul_Dirty_Minion_03"
      ]
    },
    {
      "level": 25,
      "experience": 0,
      "display_names": [
        "Hunter"
      ],
      "costumes": [
        "Ghoul_Dirty_Minion_01",
        "Ghoul_Dirty_Minion_02",
        "Ghoul_Dirty_Minion_03"
      ]
    },
    {
      "level": 26,
      "experience": 0,
      "display_names": [
        "Hunter"
      ],
      "costumes": [
        "Ghoul_Dirty_Minion_01",
        "Ghoul_Dirty_Minion_02",
        "Ghoul_Dirty_Minion_03"
      ]
    },
    {
      "level": 27,
      "experience": 0,
      "display_names": [
        "Hunter"
      ],
      "costumes": [
        "Ghoul_Dirty_Minion_01",
        "Ghoul_Dirty_Minion_02",
        "Ghoul_Dirty_Minion_03"
      ]
    },
    {
      "level": 28,
      "experience": 0,
      "display_names": [
        "Hunter"
      ],
      "costumes": [
        "Ghoul_Dirty_Minion_01",
        "Ghoul_Dirty_Minion_02",
        "Ghoul_Dirty_Minion_03"
      ]
    },
    {
      "level": 29,
      "experience": 0,
      "display_names": [
        "Hunter"
      ],
      "costumes": [
        "Ghoul_Dirty_Minion_01",
        "Ghoul_Dirty_Minion_02",
        "Ghoul_Dirty_Minion_03"
      ]
    },
    {
      "level": 30,
      "experience": 0,
      "display_names": [
        "Hunter"
      ],
      "costumes": [
        "Ghoul_Dirty_Minion_01",
        "Ghoul_Dirty_Minion_02",
        "Ghoul_Dirty_Minion_03"
      ]
    },
    {
      "level": 31,
      "experience": 0,
      "display_names": [
        "Hunter"
      ],
      "costumes": [
        "Ghoul_Dirty_Minion_01",
        "Ghoul_Dirty_Minion_02",
        "Ghoul_Dirty_Minion_03"
      ]
    },
    {
      "level": 32,
      "experience": 0,
      "display_names": [
        "Hunter"
      ],
      "costumes": [
        "Ghoul_Dirty_Minion_01",
        "Ghoul_Dirty_Minion_02",
        "Ghoul_Dirty_Minion_03"
      ]
    },
    {
      "level": 33,
      "experience": 0,
      "display_names": [
        "Hunter"
      ],
      "costumes": [
        "Ghoul_Dirty_Minion_01",
        "Ghoul_Dirty_Minion_02",
        "Ghoul_Dirty_Minion_03"
      ]
    },
    {
      "level": 34,
      "experience": 0,
      "display_names": [
        "Hunter"
      ],
      "costumes": [
        "Ghoul_Dirty_Minion_01",
        "Ghoul_Dirty_Minion_02",
        "Ghoul_Dirty_Minion_03"
      ]
    }
  ]
}