{
  "name": "GoldBrickers_Lt_Goldbricker_Boomer_Low",
  "gender": "GENDER_MALE",
  "description": "The Goldbrickers are high-tech thieves who operate in and around Cap au Diable. They're led by a notorious crime lord known only as King Midas.",
  "group_description": null,
  "display_class_name": null,
  "character_class_name": "lt_grunt",
  "ai_config": "Default_Ranged",
  "commandable_pet": false,
  "power_tags": [
    "Humanoid",
    "HumanSkeleton"
  ],
  "additional_rewards": [

  ],
  "skill_hp_rewards": [

  ],
  "skill_status_rewards": [

  ],
  "ally": null,
  "gang": null,
  "reward_scale": 1.0,
  "game_exclusion": "None",
  "inactive_state_weapon": null,
  "ignores_combat_mods": false,
  "copy_creator_mods": false,
  "spawn_limit": -1,
  "spawn_limit_mission": -1,
  "ignore_av_to_eb_scaling": false,
  "can_zone": false,
  "custom_badge_stat": null,
  "badge_stat_flags": "DefaultBadgeStat",
  "rank": "VR_LIEUTENANT",
  "power_full_names": [
    "V_GoldBrickers.Flight.Fly",
    "V_GoldBrickers.Lt_Goldbricker_Boomer.Heavy_Sonic_Bolt_Gun",
    "V_GoldBrickers.Lt_Goldbricker_Boomer.Heavy_Sonic_Blast_Gun",
    "V_GoldBrickers.Lt_Goldbricker_Boomer.Sonic_Grenade",
    "V_GoldBrickers.Lt_Goldbricker_Boomer.Sonic_Punch",
    "V_GoldBrickers.Goldbricker_Melee_Low.Brawl"
  ],
  "power_display_names": [
    "Fly",
    "Heavy Sonic Bolt Gun",
    "Heavy Sonic Blast Gun",
    "Sonic Grenade",
    "Sonic Punch",
    "Brawl"
  ],
  "power_levels": [
    0,
    0,
    0,
    0,
    0,
    0
  ],
  "powers": [
    {
      "power_category": "V_GoldBrickers",
      "power_set": "Flight",
      "power": "*",
      "level": 0
    },
    {
      "power_category": "V_GoldBrickers",
      "power_set": "Lt_Goldbricker_Boomer",
      "power": "*",
      "level": 0
    },
    {
      "power_category": "V_GoldBrickers",
      "power_set": "Goldbricker_Melee_Low",
      "power": "*",
      "level": 0
    }
  ],
  "levels": [
    {
      "level": 8,
      "experience": 0,
      "display_names": [
        "Bombardier"
      ],
      "costumes": [
        "Goldbrickers_Lt"
      ]
    },
    {
      "level": 9,
      "experience": 0,
      "display_names": [
        "Bombardier"
      ],
      "costumes": [
        "Goldbrickers_Lt"
      ]
    },
    {
      "level": 10,
      "experience": 0,
      "display_names": [
        "Bombardier"
      ],
      "costumes": [
        "Goldbrickers_Lt"
      ]
    },
    {
      "level": 11,
      "experience": 0,
      "display_names": [
        "Bombardier"
      ],
      "costumes": [
        "Goldbrickers_Lt"
      ]
    },
    {
      "level": 12,
      "experience": 0,
      "display_names": [
        "Bombardier"
      ],
      "costumes": [
        "Goldbrickers_Lt"
      ]
    },
    {
      "level": 13,
      "experience": 0,
      "display_names": [
        "Bombardier"
      ],
      "costumes": [
        "Goldbrickers_Lt"
      ]
    },
    {
      "level": 14,
      "experience": 0,
      "display_names": [
        "Bombardier"
      ],
      "costumes": [
        "Goldbrickers_Lt"
      ]
    }
  ]
}