{
  "name": "Hydra_SewerTrial_Geiser_Knockup",
  "gender": "GENDER_MALE",
  "description": "This entity attacks the players with Geiser Knockup",
  "group_description": null,
  "display_class_name": null,
  "character_class_name": "minion_grunt",
  "ai_config": "Awake_Stationary_Untargetable",
  "commandable_pet": false,
  "power_tags": [

  ],
  "additional_rewards": [

  ],
  "skill_hp_rewards": [

  ],
  "skill_status_rewards": [

  ],
  "ally": null,
  "gang": null,
  "reward_scale": 1.0,
  "game_exclusion": "None",
  "inactive_state_weapon": null,
  "ignores_combat_mods": true,
  "copy_creator_mods": false,
  "spawn_limit": 0,
  "spawn_limit_mission": 0,
  "ignore_av_to_eb_scaling": false,
  "can_zone": false,
  "custom_badge_stat": null,
  "badge_stat_flags": "DefaultBadgeStat",
  "rank": "VR_DESTRUCTIBLE",
  "power_full_names": [
    "Objects.Inherent.Resistance",
    "HydraSewerTrial.Hydra_Geiser.Geiser"
  ],
  "power_display_names": [
    "Resistance",
    "Geiser"
  ],
  "power_levels": [
    0,
    0
  ],
  "powers": [
    {
      "power_category": "Objects",
      "power_set": "Inherent",
      "power": "*",
      "level": 0
    },
    {
      "power_category": "HydraSewerTrial",
      "power_set": "Hydra_Geiser",
      "power": "Geiser",
      "level": 0
    }
  ],
  "levels": [
    {
      "level": 6,
      "experience": 0,
      "display_names": [
        "Geiser Graphic Entity"
      ],
      "costumes": [
        "Puddle"
      ]
    }
  ]
}