{
  "name": "IncarnatePets_Lore_Banished_LT_Buff",
  "gender": "GENDER_NEUTER",
  "description": "This Banished Pantheon essence has been conjured out of the mists of the Well of the Furies, a study of an enemy made substance and brought to heel.",
  "group_description": "Banished Pantheon Essence",
  "display_class_name": null,
  "character_class_name": "lt_praetoriangrunt_pet",
  "ai_config": "Pets_Ranged",
  "commandable_pet": true,
  "power_tags": [

  ],
  "additional_rewards": [

  ],
  "skill_hp_rewards": [

  ],
  "skill_status_rewards": [

  ],
  "ally": null,
  "gang": null,
  "reward_scale": 1.0,
  "game_exclusion": "None",
  "inactive_state_weapon": null,
  "ignores_combat_mods": false,
  "copy_creator_mods": false,
  "spawn_limit": -1,
  "spawn_limit_mission": -1,
  "ignore_av_to_eb_scaling": false,
  "can_zone": true,
  "custom_badge_stat": null,
  "badge_stat_flags": "DefaultBadgeStat",
  "rank": "VR_PET",
  "power_full_names": [
    "Incarnate.Lore_Pet_Banished_LT.Frigid_Slash",
    "Incarnate.Lore_Pet_Banished_LT.Frigid_Slice",
    "Incarnate.Lore_Pet_Banished_LT.Frigid_Burst",
    "Rularuu.Reflections.Resistance",
    "Incarnate.Lore_Pet_Generic.Lore_Evasion",
    "Incarnate.Lore_Pet_Generic.Lore_Power",
    "Incarnate.Lore_Pet_Generic.Super_Leap"
  ],
  "power_display_names": [
    "Frigid Slash",
    "Frigid Slice",
    "Frigid Burst",
    "Resistance",
    "Lore Evasion",
    "Lore Power",
    "Super Leap"
  ],
  "power_levels": [
    0,
    0,
    0,
    0,
    0,
    0,
    0
  ],
  "powers": [
    {
      "power_category": "Incarnate",
      "power_set": "Lore_Pet_Banished_LT",
      "power": "*",
      "level": 0
    },
    {
      "power_category": "Rularuu",
      "power_set": "Reflections",
      "power": "*",
      "level": 0
    },
    {
      "power_category": "Incarnate",
      "power_set": "Lore_Pet_Generic",
      "power": "Lore_Evasion",
      "level": 0
    },
    {
      "power_category": "Incarnate",
      "power_set": "Lore_Pet_Generic",
      "power": "Lore_Power",
      "level": 0
    },
    {
      "power_category": "Incarnate",
      "power_set": "Lore_Pet_Generic",
      "power": "Super_Leap",
      "level": 0
    }
  ],
  "levels": [
    {
      "level": 1,
      "experience": 0,
      "display_names": [
        "Banespawn Essence"
      ],
      "costumes": [
        "BanishedPantheon_Banespawn_01",
        "BanishedPantheon_Banespawn_02",
        "BanishedPantheon_Banespawn_03",
        "BanishedPantheon_Banespawn_04"
      ]
    },
    {
      "level": 2,
      "experience": 0,
      "display_names": [
        "Banespawn Essence"
      ],
      "costumes": [
        "BanishedPantheon_Banespawn_01",
        "BanishedPantheon_Banespawn_02",
        "BanishedPantheon_Banespawn_03",
        "BanishedPantheon_Banespawn_04"
      ]
    },
    {
      "level": 3,
      "experience": 0,
      "display_names": [
        "Banespawn Essence"
      ],
      "costumes": [
        "BanishedPantheon_Banespawn_01",
        "BanishedPantheon_Banespawn_02",
        "BanishedPantheon_Banespawn_03",
        "BanishedPantheon_Banespawn_04"
      ]
    },
    {
      "level": 4,
      "experience": 0,
      "display_names": [
        "Banespawn Essence"
      ],
      "costumes": [
        "BanishedPantheon_Banespawn_01",
        "BanishedPantheon_Banespawn_02",
        "BanishedPantheon_Banespawn_03",
        "BanishedPantheon_Banespawn_04"
      ]
    },
    {
      "level": 5,
      "experience": 0,
      "display_names": [
        "Banespawn Essence"
      ],
      "costumes": [
        "BanishedPantheon_Banespawn_01",
        "BanishedPantheon_Banespawn_02",
        "BanishedPantheon_Banespawn_03",
        "BanishedPantheon_Banespawn_04"
      ]
    },
    {
      "level": 6,
      "experience": 0,
      "display_names": [
        "Banespawn Essence"
      ],
      "costumes": [
        "BanishedPantheon_Banespawn_01",
        "BanishedPantheon_Banespawn_02",
        "BanishedPantheon_Banespawn_03",
        "BanishedPantheon_Banespawn_04"
      ]
    },
    {
      "level": 7,
      "experience": 0,
      "display_names": [
        "Banespawn Essence"
      ],
      "costumes": [
        "BanishedPantheon_Banespawn_01",
        "BanishedPantheon_Banespawn_02",
        "BanishedPantheon_Banespawn_03",
        "BanishedPantheon_Banespawn_04"
      ]
    },
    {
      "level": 8,
      "experience": 0,
      "display_names": [
        "Banespawn Essence"
      ],
      "costumes": [
        "BanishedPantheon_Banespawn_01",
        "BanishedPantheon_Banespawn_02",
        "BanishedPantheon_Banespawn_03",
        "BanishedPantheon_Banespawn_04"
      ]
    },
    {
      "level": 9,
      "experience": 0,
      "display_names": [
        "Banespawn Essence"
      ],
      "costumes": [
        "BanishedPantheon_Banespawn_01",
        "BanishedPantheon_Banespawn_02",
        "BanishedPantheon_Banespawn_03",
        "BanishedPantheon_Banespawn_04"
      ]
    },
    {
      "level": 10,
      "experience": 0,
      "display_names": [
        "Banespawn Essence"
      ],
      "costumes": [
        "BanishedPantheon_Banespawn_01",
        "BanishedPantheon_Banespawn_02",
        "BanishedPantheon_Banespawn_03",
        "BanishedPantheon_Banespawn_04"
      ]
    },
    {
      "level": 11,
      "experience": 0,
      "display_names": [
        "Banespawn Essence"
      ],
      "costumes": [
        "BanishedPantheon_Banespawn_01",
        "BanishedPantheon_Banespawn_02",
        "BanishedPantheon_Banespawn_03",
        "BanishedPantheon_Banespawn_04"
      ]
    },
    {
      "level": 12,
      "experience": 0,
      "display_names": [
        "Banespawn Essence"
      ],
      "costumes": [
        "BanishedPantheon_Banespawn_01",
        "BanishedPantheon_Banespawn_02",
        "BanishedPantheon_Banespawn_03",
        "BanishedPantheon_Banespawn_04"
      ]
    },
    {
      "level": 13,
      "experience": 0,
      "display_names": [
        "Banespawn Essence"
      ],
      "costumes": [
        "BanishedPantheon_Banespawn_01",
        "BanishedPantheon_Banespawn_02",
        "BanishedPantheon_Banespawn_03",
        "BanishedPantheon_Banespawn_04"
      ]
    },
    {
      "level": 14,
      "experience": 0,
      "display_names": [
        "Banespawn Essence"
      ],
      "costumes": [
        "BanishedPantheon_Banespawn_01",
        "BanishedPantheon_Banespawn_02",
        "BanishedPantheon_Banespawn_03",
        "BanishedPantheon_Banespawn_04"
      ]
    },
    {
      "level": 15,
      "experience": 0,
      "display_names": [
        "Banespawn Essence"
      ],
      "costumes": [
        "BanishedPantheon_Banespawn_01",
        "BanishedPantheon_Banespawn_02",
        "BanishedPantheon_Banespawn_03",
        "BanishedPantheon_Banespawn_04"
      ]
    },
    {
      "level": 16,
      "experience": 0,
      "display_names": [
        "Banespawn Essence"
      ],
      "costumes": [
        "BanishedPantheon_Banespawn_01",
        "BanishedPantheon_Banespawn_02",
        "BanishedPantheon_Banespawn_03",
        "BanishedPantheon_Banespawn_04"
      ]
    },
    {
      "level": 17,
      "experience": 0,
      "display_names": [
        "Banespawn Essence"
      ],
      "costumes": [
        "BanishedPantheon_Banespawn_01",
        "BanishedPantheon_Banespawn_02",
        "BanishedPantheon_Banespawn_03",
        "BanishedPantheon_Banespawn_04"
      ]
    },
    {
      "level": 18,
      "experience": 0,
      "display_names": [
        "Banespawn Essence"
      ],
      "costumes": [
        "BanishedPantheon_Banespawn_01",
        "BanishedPantheon_Banespawn_02",
        "BanishedPantheon_Banespawn_03",
        "BanishedPantheon_Banespawn_04"
      ]
    },
    {
      "level": 19,
      "experience": 0,
      "display_names": [
        "Banespawn Essence"
      ],
      "costumes": [
        "BanishedPantheon_Banespawn_01",
        "BanishedPantheon_Banespawn_02",
        "BanishedPantheon_Banespawn_03",
        "BanishedPantheon_Banespawn_04"
      ]
    },
    {
      "level": 20,
      "experience": 0,
      "display_names": [
        "Banespawn Essence"
      ],
      "costumes": [
        "BanishedPantheon_Banespawn_01",
        "BanishedPantheon_Banespawn_02",
        "BanishedPantheon_Banespawn_03",
        "BanishedPantheon_Banespawn_04"
      ]
    },
    {
      "level": 21,
      "experience": 0,
      "display_names": [
        "Banespawn Essence"
      ],
      "costumes": [
        "BanishedPantheon_Banespawn_01",
        "BanishedPantheon_Banespawn_02",
        "BanishedPantheon_Banespawn_03",
        "BanishedPantheon_Banespawn_04"
      ]
    },
    {
      "level": 22,
      "experience": 0,
      "display_names": [
        "Banespawn Essence"
      ],
      "costumes": [
        "BanishedPantheon_Banespawn_01",
        "BanishedPantheon_Banespawn_02",
        "BanishedPantheon_Banespawn_03",
        "BanishedPantheon_Banespawn_04"
      ]
    },
    {
      "level": 23,
      "experience": 0,
      "display_names": [
        "Banespawn Essence"
      ],
      "costumes": [
        "BanishedPantheon_Banespawn_01",
        "BanishedPantheon_Banespawn_02",
        "BanishedPantheon_Banespawn_03",
        "BanishedPantheon_Banespawn_04"
      ]
    },
    {
      "level": 24,
      "experience": 0,
      "display_names": [
        "Banespawn Essence"
      ],
      "costumes": [
        "BanishedPantheon_Banespawn_01",
        "BanishedPantheon_Banespawn_02",
        "BanishedPantheon_Banespawn_03",
        "BanishedPantheon_Banespawn_04"
      ]
    },
    {
      "level": 25,
      "experience": 0,
      "display_names": [
        "Banespawn Essence"
      ],
      "costumes": [
        "BanishedPantheon_Banespawn_01",
        "BanishedPantheon_Banespawn_02",
        "BanishedPantheon_Banespawn_03",
        "BanishedPantheon_Banespawn_04"
      ]
    },
    {
      "level": 26,
      "experience": 0,
      "display_names": [
        "Banespawn Essence"
      ],
      "costumes": [
        "BanishedPantheon_Banespawn_01",
        "BanishedPantheon_Banespawn_02",
        "BanishedPantheon_Banespawn_03",
        "BanishedPantheon_Banespawn_04"
      ]
    },
    {
      "level": 27,
      "experience": 0,
      "display_names": [
        "Banespawn Essence"
      ],
      "costumes": [
        "BanishedPantheon_Banespawn_01",
        "BanishedPantheon_Banespawn_02",
        "BanishedPantheon_Banespawn_03",
        "BanishedPantheon_Banespawn_04"
      ]
    },
    {
      "level": 28,
      "experience": 0,
      "display_names": [
        "Banespawn Essence"
      ],
      "costumes": [
        "BanishedPantheon_Banespawn_01",
        "BanishedPantheon_Banespawn_02",
        "BanishedPantheon_Banespawn_03",
        "BanishedPantheon_Banespawn_04"
      ]
    },
    {
      "level": 29,
      "experience": 0,
      "display_names": [
        "Banespawn Essence"
      ],
      "costumes": [
        "BanishedPantheon_Banespawn_01",
        "BanishedPantheon_Banespawn_02",
        "BanishedPantheon_Banespawn_03",
        "BanishedPantheon_Banespawn_04"
      ]
    },
    {
      "level": 30,
      "experience": 0,
      "display_names": [
        "Banespawn Essence"
      ],
      "costumes": [
        "BanishedPantheon_Banespawn_01",
        "BanishedPantheon_Banespawn_02",
        "BanishedPantheon_Banespawn_03",
        "BanishedPantheon_Banespawn_04"
      ]
    },
    {
      "level": 31,
      "experience": 0,
      "display_names": [
        "Banespawn Essence"
      ],
      "costumes": [
        "BanishedPantheon_Banespawn_01",
        "BanishedPantheon_Banespawn_02",
        "BanishedPantheon_Banespawn_03",
        "BanishedPantheon_Banespawn_04"
      ]
    },
    {
      "level": 32,
      "experience": 0,
      "display_names": [
        "Banespawn Essence"
      ],
      "costumes": [
        "BanishedPantheon_Banespawn_01",
        "BanishedPantheon_Banespawn_02",
        "BanishedPantheon_Banespawn_03",
        "BanishedPantheon_Banespawn_04"
      ]
    },
    {
      "level": 33,
      "experience": 0,
      "display_names": [
        "Banespawn Essence"
      ],
      "costumes": [
        "BanishedPantheon_Banespawn_01",
        "BanishedPantheon_Banespawn_02",
        "BanishedPantheon_Banespawn_03",
        "BanishedPantheon_Banespawn_04"
      ]
    },
    {
      "level": 34,
      "experience": 0,
      "display_names": [
        "Banespawn Essence"
      ],
      "costumes": [
        "BanishedPantheon_Banespawn_01",
        "BanishedPantheon_Banespawn_02",
        "BanishedPantheon_Banespawn_03",
        "BanishedPantheon_Banespawn_04"
      ]
    },
    {
      "level": 35,
      "experience": 0,
      "display_names": [
        "Banespawn Essence"
      ],
      "costumes": [
        "BanishedPantheon_Banespawn_01",
        "BanishedPantheon_Banespawn_02",
        "BanishedPantheon_Banespawn_03",
        "BanishedPantheon_Banespawn_04"
      ]
    },
    {
      "level": 36,
      "experience": 0,
      "display_names": [
        "Banespawn Essence"
      ],
      "costumes": [
        "BanishedPantheon_Banespawn_01",
        "BanishedPantheon_Banespawn_02",
        "BanishedPantheon_Banespawn_03",
        "BanishedPantheon_Banespawn_04"
      ]
    },
    {
      "level": 37,
      "experience": 0,
      "display_names": [
        "Banespawn Essence"
      ],
      "costumes": [
        "BanishedPantheon_Banespawn_01",
        "BanishedPantheon_Banespawn_02",
        "BanishedPantheon_Banespawn_03",
        "BanishedPantheon_Banespawn_04"
      ]
    },
    {
      "level": 38,
      "experience": 0,
      "display_names": [
        "Banespawn Essence"
      ],
      "costumes": [
        "BanishedPantheon_Banespawn_01",
        "BanishedPantheon_Banespawn_02",
        "BanishedPantheon_Banespawn_03",
        "BanishedPantheon_Banespawn_04"
      ]
    },
    {
      "level": 39,
      "experience": 0,
      "display_names": [
        "Banespawn Essence"
      ],
      "costumes": [
        "BanishedPantheon_Banespawn_01",
        "BanishedPantheon_Banespawn_02",
        "BanishedPantheon_Banespawn_03",
        "BanishedPantheon_Banespawn_04"
      ]
    },
    {
      "level": 40,
      "experience": 0,
      "display_names": [
        "Banespawn Essence"
      ],
      "costumes": [
        "BanishedPantheon_Banespawn_01",
        "BanishedPantheon_Banespawn_02",
        "BanishedPantheon_Banespawn_03",
        "BanishedPantheon_Banespawn_04"
      ]
    },
    {
      "level": 41,
      "experience": 0,
      "display_names": [
        "Banespawn Essence"
      ],
      "costumes": [
        "BanishedPantheon_Banespawn_01",
        "BanishedPantheon_Banespawn_02",
        "BanishedPantheon_Banespawn_03",
        "BanishedPantheon_Banespawn_04"
      ]
    },
    {
      "level": 42,
      "experience": 0,
      "display_names": [
        "Banespawn Essence"
      ],
      "costumes": [
        "BanishedPantheon_Banespawn_01",
        "BanishedPantheon_Banespawn_02",
        "BanishedPantheon_Banespawn_03",
        "BanishedPantheon_Banespawn_04"
      ]
    },
    {
      "level": 43,
      "experience": 0,
      "display_names": [
        "Banespawn Essence"
      ],
      "costumes": [
        "BanishedPantheon_Banespawn_01",
        "BanishedPantheon_Banespawn_02",
        "BanishedPantheon_Banespawn_03",
        "BanishedPantheon_Banespawn_04"
      ]
    },
    {
      "level": 44,
      "experience": 0,
      "display_names": [
        "Banespawn Essence"
      ],
      "costumes": [
        "BanishedPantheon_Banespawn_01",
        "BanishedPantheon_Banespawn_02",
        "BanishedPantheon_Banespawn_03",
        "BanishedPantheon_Banespawn_04"
      ]
    },
    {
      "level": 45,
      "experience": 0,
      "display_names": [
        "Banespawn Essence"
      ],
      "costumes": [
        "BanishedPantheon_Banespawn_01",
        "BanishedPantheon_Banespawn_02",
        "BanishedPantheon_Banespawn_03",
        "BanishedPantheon_Banespawn_04"
      ]
    },
    {
      "level": 46,
      "experience": 0,
      "display_names": [
        "Banespawn Essence"
      ],
      "costumes": [
        "BanishedPantheon_Banespawn_01",
        "BanishedPantheon_Banespawn_02",
        "BanishedPantheon_Banespawn_03",
        "BanishedPantheon_Banespawn_04"
      ]
    },
    {
      "level": 47,
      "experience": 0,
      "display_names": [
        "Banespawn Essence"
      ],
      "costumes": [
        "BanishedPantheon_Banespawn_01",
        "BanishedPantheon_Banespawn_02",
        "BanishedPantheon_Banespawn_03",
        "BanishedPantheon_Banespawn_04"
      ]
    },
    {
      "level": 48,
      "experience": 0,
      "display_names": [
        "Banespawn Essence"
      ],
      "costumes": [
        "BanishedPantheon_Banespawn_01",
        "BanishedPantheon_Banespawn_02",
        "BanishedPantheon_Banespawn_03",
        "BanishedPantheon_Banespawn_04"
      ]
    },
    {
      "level": 49,
      "experience": 0,
      "display_names": [
        "Banespawn Essence"
      ],
      "costumes": [
        "BanishedPantheon_Banespawn_01",
        "BanishedPantheon_Banespawn_02",
        "BanishedPantheon_Banespawn_03",
        "BanishedPantheon_Banespawn_04"
      ]
    },
    {
      "level": 50,
      "experience": 0,
      "display_names": [
        "Banespawn Essence"
      ],
      "costumes": [
        "BanishedPantheon_Banespawn_01",
        "BanishedPantheon_Banespawn_02",
        "BanishedPantheon_Banespawn_03",
        "BanishedPantheon_Banespawn_04"
      ]
    },
    {
      "level": 51,
      "experience": 0,
      "display_names": [
        "Banespawn Essence"
      ],
      "costumes": [
        "BanishedPantheon_Banespawn_01",
        "BanishedPantheon_Banespawn_02",
        "BanishedPantheon_Banespawn_03",
        "BanishedPantheon_Banespawn_04"
      ]
    },
    {
      "level": 52,
      "experience": 0,
      "display_names": [
        "Banespawn Essence"
      ],
      "costumes": [
        "BanishedPantheon_Banespawn_01",
        "BanishedPantheon_Banespawn_02",
        "BanishedPantheon_Banespawn_03",
        "BanishedPantheon_Banespawn_04"
      ]
    },
    {
      "level": 53,
      "experience": 0,
      "display_names": [
        "Banespawn Essence"
      ],
      "costumes": [
        "BanishedPantheon_Banespawn_01",
        "BanishedPantheon_Banespawn_02",
        "BanishedPantheon_Banespawn_03",
        "BanishedPantheon_Banespawn_04"
      ]
    },
    {
      "level": 54,
      "experience": 0,
      "display_names": [
        "Banespawn Essence"
      ],
      "costumes": [
        "BanishedPantheon_Banespawn_01",
        "BanishedPantheon_Banespawn_02",
        "BanishedPantheon_Banespawn_03",
        "BanishedPantheon_Banespawn_04"
      ]
    }
  ]
}