{
  "name": "LegacyChain_Earth_Boss_High",
  "gender": "GENDER_MALE",
  "description": "The Legacy Chain works to ensure the mystic arts are used only for good. The Legacy of Earth commands the forces of nature.",
  "group_description": null,
  "display_class_name": null,
  "character_class_name": "boss_grunt",
  "ai_config": "Default_Ranged",
  "commandable_pet": false,
  "power_tags": [
    "HumanSkeleton"
  ],
  "additional_rewards": [

  ],
  "skill_hp_rewards": [

  ],
  "skill_status_rewards": [

  ],
  "ally": "Hero",
  "gang": null,
  "reward_scale": 1.0,
  "game_exclusion": "None",
  "inactive_state_weapon": null,
  "ignores_combat_mods": false,
  "copy_creator_mods": false,
  "spawn_limit": -1,
  "spawn_limit_mission": -1,
  "ignore_av_to_eb_scaling": false,
  "can_zone": false,
  "custom_badge_stat": null,
  "badge_stat_flags": "DefaultBadgeStat",
  "rank": "VR_BOSS",
  "power_full_names": [
    "V_LegacyChain.Boss_Earth.Stone_Mallet",
    "V_LegacyChain.Boss_Earth.Animate_Stone",
    "V_LegacyChain.Boss_Earth.Propel_Boulder",
    "V_LegacyChain.Boss_Earth.Strangler",
    "V_LegacyChain.Boss_Earth.Stone_Armor",
    "V_LegacyChain.Boss_Earth.Resistance",
    "V_LegacyChain.Boss_Earth_Low.Entangle",
    "V_LegacyChain.Boss_Earth_High.Heavy_Mallet",
    "V_LegacyChain.Boss_Earth_High.Roots"
  ],
  "power_display_names": [
    "Stone Mallet",
    "Animate Stone",
    "Propel Boulder",
    "Strangler",
    "Stone Armor",
    "Resistance",
    "Entangle",
    "Heavy Mallet",
    "Roots"
  ],
  "power_levels": [
    0,
    0,
    0,
    0,
    0,
    0,
    0,
    0,
    0
  ],
  "powers": [
    {
      "power_category": "V_LegacyChain",
      "power_set": "Boss_Earth",
      "power": "*",
      "level": 0
    },
    {
      "power_category": "V_LegacyChain",
      "power_set": "Boss_Earth_Low",
      "power": "*",
      "level": 0
    },
    {
      "power_category": "V_LegacyChain",
      "power_set": "Boss_Earth_High",
      "power": "*",
      "level": 0
    }
  ],
  "levels": [
    {
      "level": 21,
      "experience": 0,
      "display_names": [
        "Tellus of Earth"
      ],
      "costumes": [
        "Legacy_of_Earth_Boss_01",
        "Legacy_of_Earth_Boss_02"
      ]
    },
    {
      "level": 22,
      "experience": 0,
      "display_names": [
        "Tellus of Earth"
      ],
      "costumes": [
        "Legacy_of_Earth_Boss_01",
        "Legacy_of_Earth_Boss_02"
      ]
    },
    {
      "level": 23,
      "experience": 0,
      "display_names": [
        "Tellus of Earth"
      ],
      "costumes": [
        "Legacy_of_Earth_Boss_01",
        "Legacy_of_Earth_Boss_02"
      ]
    },
    {
      "level": 24,
      "experience": 0,
      "display_names": [
        "Tellus of Earth"
      ],
      "costumes": [
        "Legacy_of_Earth_Boss_01",
        "Legacy_of_Earth_Boss_02"
      ]
    },
    {
      "level": 25,
      "experience": 0,
      "display_names": [
        "Tellus of Earth"
      ],
      "costumes": [
        "Legacy_of_Earth_Boss_01",
        "Legacy_of_Earth_Boss_02"
      ]
    },
    {
      "level": 26,
      "experience": 0,
      "display_names": [
        "Tellus of Earth"
      ],
      "costumes": [
        "Legacy_of_Earth_Boss_01",
        "Legacy_of_Earth_Boss_02"
      ]
    },
    {
      "level": 27,
      "experience": 0,
      "display_names": [
        "Tellus of Earth"
      ],
      "costumes": [
        "Legacy_of_Earth_Boss_01",
        "Legacy_of_Earth_Boss_02"
      ]
    },
    {
      "level": 28,
      "experience": 0,
      "display_names": [
        "Tellus of Earth"
      ],
      "costumes": [
        "Legacy_of_Earth_Boss_01",
        "Legacy_of_Earth_Boss_02"
      ]
    },
    {
      "level": 29,
      "experience": 0,
      "display_names": [
        "Tellus of Earth"
      ],
      "costumes": [
        "Legacy_of_Earth_Boss_01",
        "Legacy_of_Earth_Boss_02"
      ]
    },
    {
      "level": 30,
      "experience": 0,
      "display_names": [
        "Tellus of Earth"
      ],
      "costumes": [
        "Legacy_of_Earth_Boss_01",
        "Legacy_of_Earth_Boss_02"
      ]
    },
    {
      "level": 31,
      "experience": 0,
      "display_names": [
        "Tellus of Earth"
      ],
      "costumes": [
        "Legacy_of_Earth_Boss_01",
        "Legacy_of_Earth_Boss_02"
      ]
    },
    {
      "level": 32,
      "experience": 0,
      "display_names": [
        "Tellus of Earth"
      ],
      "costumes": [
        "Legacy_of_Earth_Boss_01",
        "Legacy_of_Earth_Boss_02"
      ]
    },
    {
      "level": 33,
      "experience": 0,
      "display_names": [
        "Tellus of Earth"
      ],
      "costumes": [
        "Legacy_of_Earth_Boss_01",
        "Legacy_of_Earth_Boss_02"
      ]
    },
    {
      "level": 34,
      "experience": 0,
      "display_names": [
        "Tellus of Earth"
      ],
      "costumes": [
        "Legacy_of_Earth_Boss_01",
        "Legacy_of_Earth_Boss_02"
      ]
    }
  ]
}