{
  "name": "LegacyChain_Flame_Boss_NoXP",
  "gender": "GENDER_MALE",
  "description": "The Legacy Chain works to ensure the mystic arts are used only for good. The Legacy of Flame has learned to harness their magic into fiery blasts.",
  "group_description": null,
  "display_class_name": null,
  "character_class_name": "boss_grunt",
  "ai_config": "Default_Melee",
  "commandable_pet": false,
  "power_tags": [
    "HumanSkeleton"
  ],
  "additional_rewards": [

  ],
  "skill_hp_rewards": [

  ],
  "skill_status_rewards": [

  ],
  "ally": "Monster",
  "gang": null,
  "reward_scale": 0.0,
  "game_exclusion": "None",
  "inactive_state_weapon": null,
  "ignores_combat_mods": false,
  "copy_creator_mods": false,
  "spawn_limit": 0,
  "spawn_limit_mission": 0,
  "ignore_av_to_eb_scaling": false,
  "can_zone": false,
  "custom_badge_stat": null,
  "badge_stat_flags": "DefaultBadgeStat",
  "rank": "VR_BOSS",
  "power_full_names": [
    "V_LegacyChain.Lt_Fire_Low.Fire_Sword",
    "V_LegacyChain.Lt_Fire_Low.Fire_Blast",
    "V_LegacyChain.Lt_Fire_Low.Resistance",
    "V_LegacyChain.Boss_Fire.Fire_Sword_Slice",
    "V_LegacyChain.Boss_Fire.Fire_Ball",
    "V_LegacyChain.Boss_Fire.Fire_Breath",
    "V_LegacyChain.Boss_Fire_Imps_High.Fire_Imps"
  ],
  "power_display_names": [
    "Fire Sword",
    "Fire Blast",
    "Resistance",
    "Fire Sword Slice",
    "Fire Ball",
    "Fire Breath",
    "Fire Imps"
  ],
  "power_levels": [
    0,
    0,
    0,
    0,
    0,
    0,
    0
  ],
  "powers": [
    {
      "power_category": "V_LegacyChain",
      "power_set": "Lt_Fire_Low",
      "power": "*",
      "level": 0
    },
    {
      "power_category": "V_LegacyChain",
      "power_set": "Boss_Fire",
      "power": "*",
      "level": 0
    },
    {
      "power_category": "V_LegacyChain",
      "power_set": "Boss_Fire_Imps_High",
      "power": "*",
      "level": 0
    }
  ],
  "levels": [
    {
      "level": 16,
      "experience": 0,
      "display_names": [
        "Inferno of Flame"
      ],
      "costumes": [
        "Legacy_of_Flame_Boss_01",
        "Legacy_of_Flame_Boss_02"
      ]
    },
    {
      "level": 17,
      "experience": 0,
      "display_names": [
        "Inferno of Flame"
      ],
      "costumes": [
        "Legacy_of_Flame_Boss_01",
        "Legacy_of_Flame_Boss_02"
      ]
    },
    {
      "level": 18,
      "experience": 0,
      "display_names": [
        "Inferno of Flame"
      ],
      "costumes": [
        "Legacy_of_Flame_Boss_01",
        "Legacy_of_Flame_Boss_02"
      ]
    },
    {
      "level": 19,
      "experience": 0,
      "display_names": [
        "Inferno of Flame"
      ],
      "costumes": [
        "Legacy_of_Flame_Boss_01",
        "Legacy_of_Flame_Boss_02"
      ]
    },
    {
      "level": 20,
      "experience": 0,
      "display_names": [
        "Inferno of Flame"
      ],
      "costumes": [
        "Legacy_of_Flame_Boss_01",
        "Legacy_of_Flame_Boss_02"
      ]
    }
  ]
}