{
  "name": "Loyalists_Loyalist_Grunt",
  "gender": "GENDER_MALE",
  "description": "These are the normal men and women loyal to President Marchand. They are simply people who want to help him not get killed by Lord Recluse.",
  "group_description": null,
  "display_class_name": null,
  "character_class_name": "minion_grunt",
  "ai_config": "Default_Melee",
  "commandable_pet": false,
  "power_tags": [
    "HumanSkeleton"
  ],
  "additional_rewards": [

  ],
  "skill_hp_rewards": [

  ],
  "skill_status_rewards": [

  ],
  "ally": null,
  "gang": null,
  "reward_scale": 0.5,
  "game_exclusion": "None",
  "inactive_state_weapon": null,
  "ignores_combat_mods": false,
  "copy_creator_mods": false,
  "spawn_limit": -1,
  "spawn_limit_mission": -1,
  "ignore_av_to_eb_scaling": false,
  "can_zone": false,
  "custom_badge_stat": null,
  "badge_stat_flags": "DefaultBadgeStat",
  "rank": "VR_SMALL",
  "power_full_names": [
    "Hellions.Hellions_Brawl.Brawl",
    "Hellions.Hellions_Minion_Revolver.Revolver"
  ],
  "power_display_names": [
    "Brawl",
    "Revolver"
  ],
  "power_levels": [
    0,
    0
  ],
  "powers": [
    {
      "power_category": "Hellions",
      "power_set": "Hellions_Brawl",
      "power": "*",
      "level": 0
    },
    {
      "power_category": "Hellions",
      "power_set": "Hellions_Minion_Revolver",
      "power": "*",
      "level": 0
    }
  ],
  "levels": [
    {
      "level": 25,
      "experience": 0,
      "display_names": [
        "Loyal Citizen"
      ],
      "costumes": [
        "Loyalist_Minion_Male_01",
        "Loyalist_Minion_Male_02",
        "Loyalist_Minion_Male_03"
      ]
    },
    {
      "level": 26,
      "experience": 0,
      "display_names": [
        "Loyal Citizen"
      ],
      "costumes": [
        "Loyalist_Minion_Male_01",
        "Loyalist_Minion_Male_02",
        "Loyalist_Minion_Male_03"
      ]
    },
    {
      "level": 27,
      "experience": 0,
      "display_names": [
        "Loyal Citizen"
      ],
      "costumes": [
        "Loyalist_Minion_Male_01",
        "Loyalist_Minion_Male_02",
        "Loyalist_Minion_Male_03"
      ]
    },
    {
      "level": 28,
      "experience": 0,
      "display_names": [
        "Loyal Citizen"
      ],
      "costumes": [
        "Loyalist_Minion_Male_01",
        "Loyalist_Minion_Male_02",
        "Loyalist_Minion_Male_03"
      ]
    },
    {
      "level": 29,
      "experience": 0,
      "display_names": [
        "Loyal Citizen"
      ],
      "costumes": [
        "Loyalist_Minion_Male_01",
        "Loyalist_Minion_Male_02",
        "Loyalist_Minion_Male_03"
      ]
    },
    {
      "level": 30,
      "experience": 0,
      "display_names": [
        "Loyal Citizen"
      ],
      "costumes": [
        "Loyalist_Minion_Male_01",
        "Loyalist_Minion_Male_02",
        "Loyalist_Minion_Male_03"
      ]
    },
    {
      "level": 31,
      "experience": 0,
      "display_names": [
        "Loyal Citizen"
      ],
      "costumes": [
        "Loyalist_Minion_Male_01",
        "Loyalist_Minion_Male_02",
        "Loyalist_Minion_Male_03"
      ]
    },
    {
      "level": 32,
      "experience": 0,
      "display_names": [
        "Loyal Citizen"
      ],
      "costumes": [
        "Loyalist_Minion_Male_01",
        "Loyalist_Minion_Male_02",
        "Loyalist_Minion_Male_03"
      ]
    },
    {
      "level": 33,
      "experience": 0,
      "display_names": [
        "Loyal Citizen"
      ],
      "costumes": [
        "Loyalist_Minion_Male_01",
        "Loyalist_Minion_Male_02",
        "Loyalist_Minion_Male_03"
      ]
    },
    {
      "level": 34,
      "experience": 0,
      "display_names": [
        "Loyal Citizen"
      ],
      "costumes": [
        "Loyalist_Minion_Male_01",
        "Loyalist_Minion_Male_02",
        "Loyalist_Minion_Male_03"
      ]
    },
    {
      "level": 35,
      "experience": 0,
      "display_names": [
        "Loyal Citizen"
      ],
      "costumes": [
        "Loyalist_Minion_Male_01",
        "Loyalist_Minion_Male_02",
        "Loyalist_Minion_Male_03"
      ]
    },
    {
      "level": 36,
      "experience": 0,
      "display_names": [
        "Loyal Citizen"
      ],
      "costumes": [
        "Loyalist_Minion_Male_01",
        "Loyalist_Minion_Male_02",
        "Loyalist_Minion_Male_03"
      ]
    },
    {
      "level": 37,
      "experience": 0,
      "display_names": [
        "Loyal Citizen"
      ],
      "costumes": [
        "Loyalist_Minion_Male_01",
        "Loyalist_Minion_Male_02",
        "Loyalist_Minion_Male_03"
      ]
    }
  ]
}