{
  "name": "Malaise_Nightmare_Weakened_Paladin",
  "gender": "GENDER_MALE",
  "description": "Malaise has created a Nightmare, drawing from the experiences of those whom he battles. This Nightmare has the appearance of Paladin.",
  "group_description": "Nightmare",
  "display_class_name": null,
  "character_class_name": "boss_praetoriangrunt",
  "ai_config": "Signatures_Ranged",
  "commandable_pet": false,
  "power_tags": [
    "Electronic",
    "Raid"
  ],
  "additional_rewards": [

  ],
  "skill_hp_rewards": [

  ],
  "skill_status_rewards": [

  ],
  "ally": null,
  "gang": null,
  "reward_scale": 1.0,
  "game_exclusion": "None",
  "inactive_state_weapon": null,
  "ignores_combat_mods": false,
  "copy_creator_mods": false,
  "spawn_limit": 0,
  "spawn_limit_mission": 0,
  "ignore_av_to_eb_scaling": false,
  "can_zone": false,
  "custom_badge_stat": null,
  "badge_stat_flags": "DefaultBadgeStat",
  "rank": "VR_BOSS",
  "power_full_names": [
    "MindsOfMayhem.Paladin.Lightning_Bolt",
    "MindsOfMayhem.Paladin.Shock",
    "MindsOfMayhem.Paladin.Lightning_Field",
    "MindsOfMayhem.Paladin.Ball_Lightning",
    "MindsOfMayhem.Paladin.Mace",
    "MindsOfMayhem.Nightmare_General.Damage_Reduction",
    "MindsOfMayhem.Tilman_Suppression.Create_Suppressor",
    "GenericVillains.Translucent_Aura.Aura"
  ],
  "power_display_names": [
    "Lightning Bolt",
    "Shock",
    "Lightning Field",
    "Ball Lightning",
    "Mace",
    "Residual Memory",
    "Create Suppressor",
    "Aura"
  ],
  "power_levels": [
    0,
    0,
    0,
    0,
    0,
    0,
    0,
    0
  ],
  "powers": [
    {
      "power_category": "MindsOfMayhem",
      "power_set": "Paladin",
      "power": "*",
      "level": 0
    },
    {
      "power_category": "MindsOfMayhem",
      "power_set": "Nightmare_General",
      "power": "*",
      "level": 0
    },
    {
      "power_category": "MindsOfMayhem",
      "power_set": "Tilman_Suppression",
      "power": "Create_Suppressor",
      "level": 0
    },
    {
      "power_category": "GenericVillains",
      "power_set": "Translucent_Aura",
      "power": "*",
      "level": 0
    }
  ],
  "levels": [
    {
      "level": 54,
      "experience": 0,
      "display_names": [
        "Paladin"
      ],
      "costumes": [
        "MindsOfMayhem_Paladin"
      ]
    }
  ]
}