{
  "name": "Malaise_Nightmare_LordWinter_Blizzard",
  "gender": "GENDER_MALE",
  "description": null,
  "group_description": null,
  "display_class_name": null,
  "character_class_name": "boss_monster",
  "ai_config": "Pets_Base",
  "commandable_pet": false,
  "power_tags": [

  ],
  "additional_rewards": [

  ],
  "skill_hp_rewards": [

  ],
  "skill_status_rewards": [

  ],
  "ally": null,
  "gang": null,
  "reward_scale": 0.0,
  "game_exclusion": "None",
  "inactive_state_weapon": null,
  "ignores_combat_mods": true,
  "copy_creator_mods": false,
  "spawn_limit": -1,
  "spawn_limit_mission": -1,
  "ignore_av_to_eb_scaling": false,
  "can_zone": false,
  "custom_badge_stat": null,
  "badge_stat_flags": "DefaultBadgeStat",
  "rank": "VR_BIGMONSTER",
  "power_full_names": [
    "Pets.ResistAll.ResistAll",
    "MindsOfMayhem.LordWinterPet.Blizzard",
    "MindsOfMayhem.LordWinterPet.Snow"
  ],
  "power_display_names": [
    "ResistAll",
    "Blizzard",
    "Snow"
  ],
  "power_levels": [
    0,
    0,
    0
  ],
  "powers": [
    {
      "power_category": "Pets",
      "power_set": "ResistAll",
      "power": "*",
      "level": 0
    },
    {
      "power_category": "MindsOfMayhem",
      "power_set": "LordWinterPet",
      "power": "*",
      "level": 0
    }
  ],
  "levels": [
    {
      "level": 54,
      "experience": 0,
      "display_names": [
        "Blizzard"
      ],
      "costumes": [
        "Puddle"
      ]
    }
  ]
}