{
  "name": "MaltaEndgame_Turret",
  "gender": "GENDER_MALE",
  "description": "The Engineers of the Tac Ops team has constructed this Turret.  Its defenses are surely formidable.",
  "group_description": null,
  "display_class_name": null,
  "character_class_name": "minion_praetoriansmall",
  "ai_config": "Pets_Base",
  "commandable_pet": false,
  "power_tags": [
    "Electronic"
  ],
  "additional_rewards": [

  ],
  "skill_hp_rewards": [

  ],
  "skill_status_rewards": [

  ],
  "ally": null,
  "gang": null,
  "reward_scale": 1.0,
  "game_exclusion": "None",
  "inactive_state_weapon": null,
  "ignores_combat_mods": false,
  "copy_creator_mods": false,
  "spawn_limit": 0,
  "spawn_limit_mission": 0,
  "ignore_av_to_eb_scaling": false,
  "can_zone": false,
  "custom_badge_stat": null,
  "badge_stat_flags": "DefaultBadgeStat",
  "rank": "VR_PET",
  "power_full_names": [
    "Pets.Turret.Gattling_Gun",
    "Pets.Turret.Auto_Turret",
    "Pets.Turret.Explode",
    "Pets.Turret.Taunt"
  ],
  "power_display_names": [
    "Gatling Gun",
    "Auto Turret",
    "Explode",
    "Taunt"
  ],
  "power_levels": [
    0,
    0,
    0,
    0
  ],
  "powers": [
    {
      "power_category": "Pets",
      "power_set": "Turret",
      "power": "*",
      "level": 0
    }
  ],
  "levels": [
    {
      "level": 50,
      "experience": 0,
      "display_names": [
        "Auto Turret"
      ],
      "costumes": [
        "Pet_Turret"
      ]
    },
    {
      "level": 51,
      "experience": 0,
      "display_names": [
        "Auto Turret"
      ],
      "costumes": [
        "Pet_Turret"
      ]
    },
    {
      "level": 52,
      "experience": 0,
      "display_names": [
        "Auto Turret"
      ],
      "costumes": [
        "Pet_Turret"
      ]
    },
    {
      "level": 53,
      "experience": 0,
      "display_names": [
        "Auto Turret"
      ],
      "costumes": [
        "Pet_Turret"
      ]
    },
    {
      "level": 54,
      "experience": 0,
      "display_names": [
        "Auto Turret"
      ],
      "costumes": [
        "Pet_Turret"
      ]
    }
  ]
}