{
  "name": "Malta_Gunslinger_Boss",
  "gender": "GENDER_MALE",
  "description": "Any Gunslinger might be able to take down a super powered being, especially the experienced ones. Their mastery of the deadly weaponry and technology given to them by the Malta Group is complete. They complete the tasks assigned to them, taking pleasure in violence, especially when they get the chance to take down some heroes in the process.",
  "group_description": null,
  "display_class_name": null,
  "character_class_name": "boss_grunt",
  "ai_config": "SkyRaiders_Porter",
  "commandable_pet": false,
  "power_tags": [
    "HumanSkeleton",
    "Human"
  ],
  "additional_rewards": [

  ],
  "skill_hp_rewards": [

  ],
  "skill_status_rewards": [

  ],
  "ally": null,
  "gang": null,
  "reward_scale": 1.0,
  "game_exclusion": "None",
  "inactive_state_weapon": null,
  "ignores_combat_mods": false,
  "copy_creator_mods": false,
  "spawn_limit": -1,
  "spawn_limit_mission": -1,
  "ignore_av_to_eb_scaling": false,
  "can_zone": false,
  "custom_badge_stat": null,
  "badge_stat_flags": "DefaultBadgeStat",
  "rank": "VR_BOSS",
  "power_full_names": [
    "Malta.Malta_Gunslinger.Vest",
    "Malta.Malta_Gunslinger.Hollow_Round",
    "Malta.Malta_Gunslinger.Incendiary_Round",
    "Malta.Malta_Gunslinger.Liquid_Nitrogen_Round",
    "Malta.Malta_Gunslinger.Explosive_Tip",
    "Malta.Malta_Gunslinger.Rapid_Fire",
    "Malta.Malta_Gunslinger_Boss.Narcotic_Dart",
    "Malta.Malta_Gunslinger_Boss.Teleport"
  ],
  "power_display_names": [
    "Vest",
    "Hollow Round",
    "Incendiary Round",
    "Liquid Nitrogen Round",
    "Explosive Tip",
    "Rapid Fire",
    "Narcotic Dart",
    "Teleport"
  ],
  "power_levels": [
    0,
    0,
    0,
    0,
    0,
    0,
    0,
    0
  ],
  "powers": [
    {
      "power_category": "Malta",
      "power_set": "Malta_Gunslinger",
      "power": "*",
      "level": 0
    },
    {
      "power_category": "Malta",
      "power_set": "Malta_Gunslinger_Boss",
      "power": "*",
      "level": 0
    }
  ],
  "levels": [
    {
      "level": 41,
      "experience": 0,
      "display_names": [
        "Gunslinger"
      ],
      "costumes": [
        "Malta_Tac_Team_Gunslinger_05",
        "Malta_Tac_Team_Gunslinger_06"
      ]
    },
    {
      "level": 42,
      "experience": 0,
      "display_names": [
        "Gunslinger"
      ],
      "costumes": [
        "Malta_Tac_Team_Gunslinger_05",
        "Malta_Tac_Team_Gunslinger_06"
      ]
    },
    {
      "level": 43,
      "experience": 0,
      "display_names": [
        "Gunslinger"
      ],
      "costumes": [
        "Malta_Tac_Team_Gunslinger_05",
        "Malta_Tac_Team_Gunslinger_06"
      ]
    },
    {
      "level": 44,
      "experience": 0,
      "display_names": [
        "Gunslinger"
      ],
      "costumes": [
        "Malta_Tac_Team_Gunslinger_05",
        "Malta_Tac_Team_Gunslinger_06"
      ]
    },
    {
      "level": 45,
      "experience": 0,
      "display_names": [
        "Gunslinger"
      ],
      "costumes": [
        "Malta_Tac_Team_Gunslinger_05",
        "Malta_Tac_Team_Gunslinger_06"
      ]
    },
    {
      "level": 46,
      "experience": 0,
      "display_names": [
        "Gunslinger"
      ],
      "costumes": [
        "Malta_Tac_Team_Gunslinger_05",
        "Malta_Tac_Team_Gunslinger_06"
      ]
    },
    {
      "level": 47,
      "experience": 0,
      "display_names": [
        "Gunslinger"
      ],
      "costumes": [
        "Malta_Tac_Team_Gunslinger_05",
        "Malta_Tac_Team_Gunslinger_06"
      ]
    },
    {
      "level": 48,
      "experience": 0,
      "display_names": [
        "Gunslinger"
      ],
      "costumes": [
        "Malta_Tac_Team_Gunslinger_05",
        "Malta_Tac_Team_Gunslinger_06"
      ]
    },
    {
      "level": 49,
      "experience": 0,
      "display_names": [
        "Gunslinger"
      ],
      "costumes": [
        "Malta_Tac_Team_Gunslinger_05",
        "Malta_Tac_Team_Gunslinger_06"
      ]
    },
    {
      "level": 50,
      "experience": 0,
      "display_names": [
        "Gunslinger"
      ],
      "costumes": [
        "Malta_Tac_Team_Gunslinger_05",
        "Malta_Tac_Team_Gunslinger_06"
      ]
    },
    {
      "level": 51,
      "experience": 0,
      "display_names": [
        "Gunslinger"
      ],
      "costumes": [
        "Malta_Tac_Team_Gunslinger_05",
        "Malta_Tac_Team_Gunslinger_06"
      ]
    },
    {
      "level": 52,
      "experience": 0,
      "display_names": [
        "Gunslinger"
      ],
      "costumes": [
        "Malta_Tac_Team_Gunslinger_05",
        "Malta_Tac_Team_Gunslinger_06"
      ]
    },
    {
      "level": 53,
      "experience": 0,
      "display_names": [
        "Gunslinger"
      ],
      "costumes": [
        "Malta_Tac_Team_Gunslinger_05",
        "Malta_Tac_Team_Gunslinger_06"
      ]
    },
    {
      "level": 54,
      "experience": 0,
      "display_names": [
        "Gunslinger"
      ],
      "costumes": [
        "Malta_Tac_Team_Gunslinger_05",
        "Malta_Tac_Team_Gunslinger_06"
      ]
    }
  ]
}