{
  "name": "MaltaFake_Hercules_Titan_NoMerge",
  "gender": "GENDER_MALE",
  "description": "The Hercules class is the smallest Titan unit employed by Malta. It is believed that the technology used to create them came to this covert villain group sometime during or after the fall of the Soviet Union. It has not yet been determined if the Titans are simply robots, or something more. Their offensive capabilities are many and varied.",
  "group_description": "Malta",
  "display_class_name": null,
  "character_class_name": "lt_grunt",
  "ai_config": "Default_Ranged",
  "commandable_pet": false,
  "power_tags": [
    "Electronic"
  ],
  "additional_rewards": [

  ],
  "skill_hp_rewards": [

  ],
  "skill_status_rewards": [

  ],
  "ally": null,
  "gang": null,
  "reward_scale": 1.0,
  "game_exclusion": "None",
  "inactive_state_weapon": null,
  "ignores_combat_mods": false,
  "copy_creator_mods": false,
  "spawn_limit": 0,
  "spawn_limit_mission": 0,
  "ignore_av_to_eb_scaling": false,
  "can_zone": false,
  "custom_badge_stat": null,
  "badge_stat_flags": "DefaultBadgeStat",
  "rank": "VR_LIEUTENANT",
  "power_full_names": [
    "Malta.Malta_Hercules_NoMerge.Resistance",
    "Malta.Malta_Hercules_NoMerge.Pummel",
    "Malta.Malta_Hercules_NoMerge.Plasma_Blast",
    "Malta.Malta_Hercules_NoMerge.Swarm_Missile",
    "Malta.Malta_Hercules_NoMerge.Incendiary_Swarm_Missiles",
    "Malta.Malta_Hercules_NoMerge.Gas_Swarm_Missiles"
  ],
  "power_display_names": [
    "Resistance",
    "Pummel",
    "Plasma Blast",
    "Swarm Missile",
    "Incendiary Swarm Missiles",
    "Gas Swarm Missiles"
  ],
  "power_levels": [
    0,
    0,
    0,
    0,
    0,
    0
  ],
  "powers": [
    {
      "power_category": "Malta",
      "power_set": "Malta_Hercules_NoMerge",
      "power": "*",
      "level": 0
    }
  ],
  "levels": [
    {
      "level": 35,
      "experience": 0,
      "display_names": [
        "Hercules Class Titan"
      ],
      "costumes": [
        "Malta_Hercules_Titan_01"
      ]
    },
    {
      "level": 36,
      "experience": 0,
      "display_names": [
        "Hercules Class Titan"
      ],
      "costumes": [
        "Malta_Hercules_Titan_01"
      ]
    },
    {
      "level": 37,
      "experience": 0,
      "display_names": [
        "Hercules Class Titan"
      ],
      "costumes": [
        "Malta_Hercules_Titan_01"
      ]
    },
    {
      "level": 38,
      "experience": 0,
      "display_names": [
        "Hercules Class Titan"
      ],
      "costumes": [
        "Malta_Hercules_Titan_01"
      ]
    },
    {
      "level": 39,
      "experience": 0,
      "display_names": [
        "Hercules Class Titan"
      ],
      "costumes": [
        "Malta_Hercules_Titan_01"
      ]
    },
    {
      "level": 40,
      "experience": 0,
      "display_names": [
        "Hercules Class Titan"
      ],
      "costumes": [
        "Malta_Hercules_Titan_01"
      ]
    },
    {
      "level": 41,
      "experience": 0,
      "display_names": [
        "Hercules Class Titan"
      ],
      "costumes": [
        "Malta_Hercules_Titan_01"
      ]
    },
    {
      "level": 42,
      "experience": 0,
      "display_names": [
        "Hercules Class Titan"
      ],
      "costumes": [
        "Malta_Hercules_Titan_01"
      ]
    },
    {
      "level": 43,
      "experience": 0,
      "display_names": [
        "Hercules Class Titan"
      ],
      "costumes": [
        "Malta_Hercules_Titan_01"
      ]
    },
    {
      "level": 44,
      "experience": 0,
      "display_names": [
        "Hercules Class Titan"
      ],
      "costumes": [
        "Malta_Hercules_Titan_01"
      ]
    },
    {
      "level": 45,
      "experience": 0,
      "display_names": [
        "Hercules Class Titan"
      ],
      "costumes": [
        "Malta_Hercules_Titan_01"
      ]
    },
    {
      "level": 46,
      "experience": 0,
      "display_names": [
        "Hercules Class Titan"
      ],
      "costumes": [
        "Malta_Hercules_Titan_01"
      ]
    },
    {
      "level": 47,
      "experience": 0,
      "display_names": [
        "Hercules Class Titan"
      ],
      "costumes": [
        "Malta_Hercules_Titan_01"
      ]
    },
    {
      "level": 48,
      "experience": 0,
      "display_names": [
        "Hercules Class Titan"
      ],
      "costumes": [
        "Malta_Hercules_Titan_01"
      ]
    },
    {
      "level": 49,
      "experience": 0,
      "display_names": [
        "Hercules Class Titan"
      ],
      "costumes": [
        "Malta_Hercules_Titan_01"
      ]
    },
    {
      "level": 50,
      "experience": 0,
      "display_names": [
        "Hercules Class Titan"
      ],
      "costumes": [
        "Malta_Hercules_Titan_01"
      ]
    },
    {
      "level": 51,
      "experience": 0,
      "display_names": [
        "Hercules Class Titan"
      ],
      "costumes": [
        "Malta_Hercules_Titan_01"
      ]
    },
    {
      "level": 52,
      "experience": 0,
      "display_names": [
        "Hercules Class Titan"
      ],
      "costumes": [
        "Malta_Hercules_Titan_01"
      ]
    },
    {
      "level": 53,
      "experience": 0,
      "display_names": [
        "Hercules Class Titan"
      ],
      "costumes": [
        "Malta_Hercules_Titan_01"
      ]
    },
    {
      "level": 54,
      "experience": 0,
      "display_names": [
        "Hercules Class Titan"
      ],
      "costumes": [
        "Malta_Hercules_Titan_01"
      ]
    }
  ]
}