{
  "name": "Marauder_Minion",
  "gender": "GENDER_MALE",
  "description": "Marauder recruits only the most hungry and violent men into his ranks. He trains them hard enough to either turn them into rock or kill them. Those that graduate from this regimen are disciplined and deadly.",
  "group_description": "Praetorians",
  "display_class_name": null,
  "character_class_name": "minion_grunt",
  "ai_config": "Default_Melee",
  "commandable_pet": false,
  "power_tags": [
    "HumanSkeleton",
    "Human"
  ],
  "additional_rewards": [

  ],
  "skill_hp_rewards": [

  ],
  "skill_status_rewards": [

  ],
  "ally": null,
  "gang": null,
  "reward_scale": 1.0,
  "game_exclusion": "None",
  "inactive_state_weapon": null,
  "ignores_combat_mods": false,
  "copy_creator_mods": false,
  "spawn_limit": -1,
  "spawn_limit_mission": -1,
  "ignore_av_to_eb_scaling": false,
  "can_zone": false,
  "custom_badge_stat": null,
  "badge_stat_flags": "DefaultBadgeStat",
  "rank": "VR_MINION",
  "power_full_names": [
    "Praetorians.Marauder_Punks.Thunder_Kick",
    "Praetorians.Marauder_Punks.Crane_Kick",
    "Praetorians.Marauder_Punks.Crippling_Axe_Kick",
    "Praetorians.Marauder_Punks.Eagles_Claw",
    "Praetorians.Marauder_Punks.Assault_Rifle"
  ],
  "power_display_names": [
    "Thunder Kick",
    "Crane Kick",
    "Crippling Axe Kick",
    "Eagles Claw",
    "Assault Rifle"
  ],
  "power_levels": [
    0,
    0,
    0,
    0,
    0
  ],
  "powers": [
    {
      "power_category": "Praetorians",
      "power_set": "Marauder_Punks",
      "power": "*",
      "level": 0
    }
  ],
  "levels": [
    {
      "level": 45,
      "experience": 0,
      "display_names": [
        "Rampager"
      ],
      "costumes": [
        "Thug_01",
        "Thug_02",
        "Thug_03",
        "Thug_04",
        "Thug_05",
        "Thug_06",
        "Thug_07",
        "Thug_08"
      ]
    },
    {
      "level": 46,
      "experience": 0,
      "display_names": [
        "Rampager"
      ],
      "costumes": [
        "Thug_01",
        "Thug_02",
        "Thug_03",
        "Thug_04",
        "Thug_05",
        "Thug_06",
        "Thug_07",
        "Thug_08"
      ]
    },
    {
      "level": 47,
      "experience": 0,
      "display_names": [
        "Rampager"
      ],
      "costumes": [
        "Thug_01",
        "Thug_02",
        "Thug_03",
        "Thug_04",
        "Thug_05",
        "Thug_06",
        "Thug_07",
        "Thug_08"
      ]
    },
    {
      "level": 48,
      "experience": 0,
      "display_names": [
        "Rampager"
      ],
      "costumes": [
        "Thug_01",
        "Thug_02",
        "Thug_03",
        "Thug_04",
        "Thug_05",
        "Thug_06",
        "Thug_07",
        "Thug_08"
      ]
    },
    {
      "level": 49,
      "experience": 0,
      "display_names": [
        "Rampager"
      ],
      "costumes": [
        "Thug_01",
        "Thug_02",
        "Thug_03",
        "Thug_04",
        "Thug_05",
        "Thug_06",
        "Thug_07",
        "Thug_08"
      ]
    },
    {
      "level": 50,
      "experience": 0,
      "display_names": [
        "Rampager"
      ],
      "costumes": [
        "Thug_01",
        "Thug_02",
        "Thug_03",
        "Thug_04",
        "Thug_05",
        "Thug_06",
        "Thug_07",
        "Thug_08"
      ]
    },
    {
      "level": 51,
      "experience": 0,
      "display_names": [
        "Rampager"
      ],
      "costumes": [
        "Thug_01",
        "Thug_02",
        "Thug_03",
        "Thug_04",
        "Thug_05",
        "Thug_06",
        "Thug_07",
        "Thug_08"
      ]
    },
    {
      "level": 52,
      "experience": 0,
      "display_names": [
        "Rampager"
      ],
      "costumes": [
        "Thug_01",
        "Thug_02",
        "Thug_03",
        "Thug_04",
        "Thug_05",
        "Thug_06",
        "Thug_07",
        "Thug_08"
      ]
    },
    {
      "level": 53,
      "experience": 0,
      "display_names": [
        "Rampager"
      ],
      "costumes": [
        "Thug_01",
        "Thug_02",
        "Thug_03",
        "Thug_04",
        "Thug_05",
        "Thug_06",
        "Thug_07",
        "Thug_08"
      ]
    },
    {
      "level": 54,
      "experience": 0,
      "display_names": [
        "Rampager"
      ],
      "costumes": [
        "Thug_01",
        "Thug_02",
        "Thug_03",
        "Thug_04",
        "Thug_05",
        "Thug_06",
        "Thug_07",
        "Thug_08"
      ]
    }
  ]
}