{
  "name": "MidnightMasters_Master_Midnight",
  "gender": "GENDER_MALE",
  "description": "The Midnight Master himself, Master Midnight wrestled control over the Midnight Squad and their Midnight Mansion many moons ago. Those who he has defeated have become slaves to his power, serving him even beyond death as the undead Midnight Masters. Though despite all his power, Master Midnight lacks true knowledge of magic, a gap he is working feverishly to close in the hopes of obtaining the affections of Diabolique.",
  "group_description": null,
  "display_class_name": null,
  "character_class_name": "boss_grunt",
  "ai_config": "Default_Melee",
  "commandable_pet": false,
  "power_tags": [
    "HumanSkeleton",
    "Undead"
  ],
  "additional_rewards": [

  ],
  "skill_hp_rewards": [

  ],
  "skill_status_rewards": [

  ],
  "ally": null,
  "gang": null,
  "reward_scale": 1.0,
  "game_exclusion": "None",
  "inactive_state_weapon": null,
  "ignores_combat_mods": false,
  "copy_creator_mods": false,
  "spawn_limit": 0,
  "spawn_limit_mission": 0,
  "ignore_av_to_eb_scaling": true,
  "can_zone": false,
  "custom_badge_stat": null,
  "badge_stat_flags": "DefaultBadgeStat",
  "rank": "VR_BOSS",
  "power_full_names": [
    "MidnightMasters.Resistances.Damage_BS",
    "MidnightMasters.Shambling_Archmage.Energy_Punch",
    "MidnightMasters.Shambling_Archmage.Bone_Smasher",
    "MidnightMasters.Shambling_Archmage.Whirling_Hands",
    "MidnightMasters.Shambling_Archmage.Twilight_Grasp",
    "MidnightMasters.Shambling_Archmage.Power_Push"
  ],
  "power_display_names": [
    "Damage Resistance",
    "Energy Punch",
    "Bone Smasher",
    "Whirling Hands",
    "Twilight Grasp",
    "Power Push"
  ],
  "power_levels": [
    0,
    0,
    0,
    0,
    0,
    0
  ],
  "powers": [
    {
      "power_category": "MidnightMasters",
      "power_set": "Resistances",
      "power": "Damage_BS",
      "level": 0
    },
    {
      "power_category": "MidnightMasters",
      "power_set": "Shambling_Archmage",
      "power": "*",
      "level": 0
    }
  ],
  "levels": [
    {
      "level": 20,
      "experience": 0,
      "display_names": [
        "Master Midnight"
      ],
      "costumes": [
        "Model_Master_Midnight_NoRing"
      ]
    },
    {
      "level": 21,
      "experience": 0,
      "display_names": [
        "Master Midnight"
      ],
      "costumes": [
        "Model_Master_Midnight_NoRing"
      ]
    },
    {
      "level": 22,
      "experience": 0,
      "display_names": [
        "Master Midnight"
      ],
      "costumes": [
        "Model_Master_Midnight_NoRing"
      ]
    },
    {
      "level": 23,
      "experience": 0,
      "display_names": [
        "Master Midnight"
      ],
      "costumes": [
        "Model_Master_Midnight_NoRing"
      ]
    },
    {
      "level": 24,
      "experience": 0,
      "display_names": [
        "Master Midnight"
      ],
      "costumes": [
        "Model_Master_Midnight_NoRing"
      ]
    },
    {
      "level": 25,
      "experience": 0,
      "display_names": [
        "Master Midnight"
      ],
      "costumes": [
        "Model_Master_Midnight_NoRing"
      ]
    },
    {
      "level": 26,
      "experience": 0,
      "display_names": [
        "Master Midnight"
      ],
      "costumes": [
        "Model_Master_Midnight_NoRing"
      ]
    },
    {
      "level": 27,
      "experience": 0,
      "display_names": [
        "Master Midnight"
      ],
      "costumes": [
        "Model_Master_Midnight_NoRing"
      ]
    },
    {
      "level": 28,
      "experience": 0,
      "display_names": [
        "Master Midnight"
      ],
      "costumes": [
        "Model_Master_Midnight_NoRing"
      ]
    },
    {
      "level": 29,
      "experience": 0,
      "display_names": [
        "Master Midnight"
      ],
      "costumes": [
        "Model_Master_Midnight_NoRing"
      ]
    },
    {
      "level": 30,
      "experience": 0,
      "display_names": [
        "Master Midnight"
      ],
      "costumes": [
        "Model_Master_Midnight_NoRing"
      ]
    },
    {
      "level": 31,
      "experience": 0,
      "display_names": [
        "Master Midnight"
      ],
      "costumes": [
        "Model_Master_Midnight_NoRing"
      ]
    },
    {
      "level": 32,
      "experience": 0,
      "display_names": [
        "Master Midnight"
      ],
      "costumes": [
        "Model_Master_Midnight_NoRing"
      ]
    },
    {
      "level": 33,
      "experience": 0,
      "display_names": [
        "Master Midnight"
      ],
      "costumes": [
        "Model_Master_Midnight_NoRing"
      ]
    },
    {
      "level": 34,
      "experience": 0,
      "display_names": [
        "Master Midnight"
      ],
      "costumes": [
        "Model_Master_Midnight_NoRing"
      ]
    },
    {
      "level": 35,
      "experience": 0,
      "display_names": [
        "Master Midnight"
      ],
      "costumes": [
        "Model_Master_Midnight_NoRing"
      ]
    },
    {
      "level": 36,
      "experience": 0,
      "display_names": [
        "Master Midnight"
      ],
      "costumes": [
        "Model_Master_Midnight_NoRing"
      ]
    },
    {
      "level": 37,
      "experience": 0,
      "display_names": [
        "Master Midnight"
      ],
      "costumes": [
        "Model_Master_Midnight_NoRing"
      ]
    },
    {
      "level": 38,
      "experience": 0,
      "display_names": [
        "Master Midnight"
      ],
      "costumes": [
        "Model_Master_Midnight_NoRing"
      ]
    },
    {
      "level": 39,
      "experience": 0,
      "display_names": [
        "Master Midnight"
      ],
      "costumes": [
        "Model_Master_Midnight_NoRing"
      ]
    },
    {
      "level": 40,
      "experience": 0,
      "display_names": [
        "Master Midnight"
      ],
      "costumes": [
        "Model_Master_Midnight_NoRing"
      ]
    },
    {
      "level": 41,
      "experience": 0,
      "display_names": [
        "Master Midnight"
      ],
      "costumes": [
        "Model_Master_Midnight_NoRing"
      ]
    },
    {
      "level": 42,
      "experience": 0,
      "display_names": [
        "Master Midnight"
      ],
      "costumes": [
        "Model_Master_Midnight_NoRing"
      ]
    },
    {
      "level": 43,
      "experience": 0,
      "display_names": [
        "Master Midnight"
      ],
      "costumes": [
        "Model_Master_Midnight_NoRing"
      ]
    },
    {
      "level": 44,
      "experience": 0,
      "display_names": [
        "Master Midnight"
      ],
      "costumes": [
        "Model_Master_Midnight_NoRing"
      ]
    }
  ]
}