{
  "name": "MidnightMasters_Ghoulish_Mystic",
  "gender": "GENDER_MALE",
  "description": "More powerful than most of Master Midnight's horde, this aberration retains a number of magical abilities from its life.",
  "group_description": null,
  "display_class_name": null,
  "character_class_name": "lt_grunt",
  "ai_config": "Default_Ranged",
  "commandable_pet": false,
  "power_tags": [
    "HumanSkeleton",
    "Undead"
  ],
  "additional_rewards": [

  ],
  "skill_hp_rewards": [

  ],
  "skill_status_rewards": [

  ],
  "ally": null,
  "gang": null,
  "reward_scale": 1.0,
  "game_exclusion": "None",
  "inactive_state_weapon": null,
  "ignores_combat_mods": false,
  "copy_creator_mods": false,
  "spawn_limit": -1,
  "spawn_limit_mission": -1,
  "ignore_av_to_eb_scaling": false,
  "can_zone": false,
  "custom_badge_stat": null,
  "badge_stat_flags": "DefaultBadgeStat",
  "rank": "VR_LIEUTENANT",
  "power_full_names": [
    "MidnightMasters.Resistances.Damage_LT",
    "MidnightMasters.Ghoulish_Mystic.Rune_Blast",
    "MidnightMasters.Ghoulish_Mystic.Lift",
    "MidnightMasters.Ghoulish_Mystic.Sands_of_Mu",
    "MidnightMasters.Ghoulish_Mystic.Animate_Acolytes"
  ],
  "power_display_names": [
    "Damage Resistance",
    "Rune Blast",
    "Lift",
    "Sands of Mu",
    "Animate Acolytes"
  ],
  "power_levels": [
    0,
    0,
    0,
    0,
    0
  ],
  "powers": [
    {
      "power_category": "MidnightMasters",
      "power_set": "Resistances",
      "power": "Damage_LT",
      "level": 0
    },
    {
      "power_category": "MidnightMasters",
      "power_set": "Ghoulish_Mystic",
      "power": "*",
      "level": 0
    }
  ],
  "levels": [
    {
      "level": 20,
      "experience": 0,
      "display_names": [
        "Ghoulish Mystic"
      ],
      "costumes": [
        "MidnightMastersLt1"
      ]
    },
    {
      "level": 21,
      "experience": 0,
      "display_names": [
        "Ghoulish Mystic"
      ],
      "costumes": [
        "MidnightMastersLt1"
      ]
    },
    {
      "level": 22,
      "experience": 0,
      "display_names": [
        "Ghoulish Mystic"
      ],
      "costumes": [
        "MidnightMastersLt1"
      ]
    },
    {
      "level": 23,
      "experience": 0,
      "display_names": [
        "Ghoulish Mystic"
      ],
      "costumes": [
        "MidnightMastersLt1"
      ]
    },
    {
      "level": 24,
      "experience": 0,
      "display_names": [
        "Ghoulish Mystic"
      ],
      "costumes": [
        "MidnightMastersLt1"
      ]
    },
    {
      "level": 25,
      "experience": 0,
      "display_names": [
        "Ghoulish Mystic"
      ],
      "costumes": [
        "MidnightMastersLt1"
      ]
    },
    {
      "level": 26,
      "experience": 0,
      "display_names": [
        "Ghoulish Mystic"
      ],
      "costumes": [
        "MidnightMastersLt1"
      ]
    },
    {
      "level": 27,
      "experience": 0,
      "display_names": [
        "Ghoulish Mystic"
      ],
      "costumes": [
        "MidnightMastersLt1"
      ]
    },
    {
      "level": 28,
      "experience": 0,
      "display_names": [
        "Ghoulish Mystic"
      ],
      "costumes": [
        "MidnightMastersLt1"
      ]
    },
    {
      "level": 29,
      "experience": 0,
      "display_names": [
        "Ghoulish Mystic"
      ],
      "costumes": [
        "MidnightMastersLt1"
      ]
    },
    {
      "level": 30,
      "experience": 0,
      "display_names": [
        "Ghoulish Mystic"
      ],
      "costumes": [
        "MidnightMastersLt1"
      ]
    },
    {
      "level": 31,
      "experience": 0,
      "display_names": [
        "Ghoulish Mystic"
      ],
      "costumes": [
        "MidnightMastersLt1"
      ]
    },
    {
      "level": 32,
      "experience": 0,
      "display_names": [
        "Ghoulish Mystic"
      ],
      "costumes": [
        "MidnightMastersLt1"
      ]
    },
    {
      "level": 33,
      "experience": 0,
      "display_names": [
        "Ghoulish Mystic"
      ],
      "costumes": [
        "MidnightMastersLt1"
      ]
    },
    {
      "level": 34,
      "experience": 0,
      "display_names": [
        "Ghoulish Mystic"
      ],
      "costumes": [
        "MidnightMastersLt1"
      ]
    },
    {
      "level": 35,
      "experience": 0,
      "display_names": [
        "Ghoulish Mystic"
      ],
      "costumes": [
        "MidnightMastersLt1"
      ]
    },
    {
      "level": 36,
      "experience": 0,
      "display_names": [
        "Ghoulish Mystic"
      ],
      "costumes": [
        "MidnightMastersLt1"
      ]
    },
    {
      "level": 37,
      "experience": 0,
      "display_names": [
        "Ghoulish Mystic"
      ],
      "costumes": [
        "MidnightMastersLt1"
      ]
    },
    {
      "level": 38,
      "experience": 0,
      "display_names": [
        "Ghoulish Mystic"
      ],
      "costumes": [
        "MidnightMastersLt1"
      ]
    },
    {
      "level": 39,
      "experience": 0,
      "display_names": [
        "Ghoulish Mystic"
      ],
      "costumes": [
        "MidnightMastersLt1"
      ]
    },
    {
      "level": 40,
      "experience": 0,
      "display_names": [
        "Ghoulish Mystic"
      ],
      "costumes": [
        "MidnightMastersLt1"
      ]
    },
    {
      "level": 41,
      "experience": 0,
      "display_names": [
        "Ghoulish Mystic"
      ],
      "costumes": [
        "MidnightMastersLt1"
      ]
    },
    {
      "level": 42,
      "experience": 0,
      "display_names": [
        "Ghoulish Mystic"
      ],
      "costumes": [
        "MidnightMastersLt1"
      ]
    },
    {
      "level": 43,
      "experience": 0,
      "display_names": [
        "Ghoulish Mystic"
      ],
      "costumes": [
        "MidnightMastersLt1"
      ]
    },
    {
      "level": 44,
      "experience": 0,
      "display_names": [
        "Ghoulish Mystic"
      ],
      "costumes": [
        "MidnightMastersLt1"
      ]
    }
  ]
}