{
  "name": "Midnight_Squad_Living_Armor_High",
  "gender": "GENDER_MALE",
  "description": "The Midnight Squad protects their treasures well.",
  "group_description": null,
  "display_class_name": null,
  "character_class_name": "boss_grunt",
  "ai_config": "Living_Armor",
  "commandable_pet": false,
  "power_tags": [
    "Humanoid",
    "HumanSkeleton"
  ],
  "additional_rewards": [

  ],
  "skill_hp_rewards": [

  ],
  "skill_status_rewards": [

  ],
  "ally": null,
  "gang": null,
  "reward_scale": 1.0,
  "game_exclusion": "None",
  "inactive_state_weapon": null,
  "ignores_combat_mods": false,
  "copy_creator_mods": false,
  "spawn_limit": -1,
  "spawn_limit_mission": -1,
  "ignore_av_to_eb_scaling": false,
  "can_zone": false,
  "custom_badge_stat": null,
  "badge_stat_flags": "DefaultBadgeStat",
  "rank": "VR_BOSS",
  "power_full_names": [
    "Midnight_Squad.Living_Armor.Energized_Shield",
    "Midnight_Squad.Living_Armor.Push_Back",
    "Midnight_Squad.Living_Armor.Slash",
    "Midnight_Squad.Living_Armor.Slice",
    "Midnight_Squad.Living_Armor.Whirling_Sword",
    "Midnight_Squad.Living_Armor.Hack",
    "Midnight_Squad.Living_Armor.Spear",
    "Midnight_Squad.Living_Armor.Resistance"
  ],
  "power_display_names": [
    "Energized Shield",
    "Push Back",
    "Slash",
    "Slice",
    "Whirling Sword",
    "Hack",
    "Spear",
    "Resistance"
  ],
  "power_levels": [
    0,
    0,
    0,
    0,
    0,
    0,
    0,
    0
  ],
  "powers": [
    {
      "power_category": "Midnight_Squad",
      "power_set": "Living_Armor",
      "power": "*",
      "level": 0
    }
  ],
  "levels": [
    {
      "level": 34,
      "experience": 0,
      "display_names": [
        "Living Armor"
      ],
      "costumes": [
        "Midnight_Living_Armor_01",
        "Midnight_Living_Armor_02",
        "Midnight_Living_Armor_03",
        "Midnight_Living_Armor_04",
        "Midnight_Living_Armor_05",
        "Midnight_Living_Armor_06"
      ]
    },
    {
      "level": 35,
      "experience": 0,
      "display_names": [
        "Living Armor"
      ],
      "costumes": [
        "Midnight_Living_Armor_01",
        "Midnight_Living_Armor_02",
        "Midnight_Living_Armor_03",
        "Midnight_Living_Armor_04",
        "Midnight_Living_Armor_05",
        "Midnight_Living_Armor_06"
      ]
    },
    {
      "level": 36,
      "experience": 0,
      "display_names": [
        "Living Armor"
      ],
      "costumes": [
        "Midnight_Living_Armor_01",
        "Midnight_Living_Armor_02",
        "Midnight_Living_Armor_03",
        "Midnight_Living_Armor_04",
        "Midnight_Living_Armor_05",
        "Midnight_Living_Armor_06"
      ]
    },
    {
      "level": 37,
      "experience": 0,
      "display_names": [
        "Living Armor"
      ],
      "costumes": [
        "Midnight_Living_Armor_01",
        "Midnight_Living_Armor_02",
        "Midnight_Living_Armor_03",
        "Midnight_Living_Armor_04",
        "Midnight_Living_Armor_05",
        "Midnight_Living_Armor_06"
      ]
    },
    {
      "level": 38,
      "experience": 0,
      "display_names": [
        "Living Armor"
      ],
      "costumes": [
        "Midnight_Living_Armor_01",
        "Midnight_Living_Armor_02",
        "Midnight_Living_Armor_03",
        "Midnight_Living_Armor_04",
        "Midnight_Living_Armor_05",
        "Midnight_Living_Armor_06"
      ]
    },
    {
      "level": 39,
      "experience": 0,
      "display_names": [
        "Living Armor"
      ],
      "costumes": [
        "Midnight_Living_Armor_01",
        "Midnight_Living_Armor_02",
        "Midnight_Living_Armor_03",
        "Midnight_Living_Armor_04",
        "Midnight_Living_Armor_05",
        "Midnight_Living_Armor_06"
      ]
    },
    {
      "level": 40,
      "experience": 0,
      "display_names": [
        "Living Armor"
      ],
      "costumes": [
        "Midnight_Living_Armor_01",
        "Midnight_Living_Armor_02",
        "Midnight_Living_Armor_03",
        "Midnight_Living_Armor_04",
        "Midnight_Living_Armor_05",
        "Midnight_Living_Armor_06"
      ]
    },
    {
      "level": 41,
      "experience": 0,
      "display_names": [
        "Living Armor"
      ],
      "costumes": [
        "Midnight_Living_Armor_01",
        "Midnight_Living_Armor_02",
        "Midnight_Living_Armor_03",
        "Midnight_Living_Armor_04",
        "Midnight_Living_Armor_05",
        "Midnight_Living_Armor_06"
      ]
    },
    {
      "level": 42,
      "experience": 0,
      "display_names": [
        "Living Armor"
      ],
      "costumes": [
        "Midnight_Living_Armor_01",
        "Midnight_Living_Armor_02",
        "Midnight_Living_Armor_03",
        "Midnight_Living_Armor_04",
        "Midnight_Living_Armor_05",
        "Midnight_Living_Armor_06"
      ]
    },
    {
      "level": 43,
      "experience": 0,
      "display_names": [
        "Living Armor"
      ],
      "costumes": [
        "Midnight_Living_Armor_01",
        "Midnight_Living_Armor_02",
        "Midnight_Living_Armor_03",
        "Midnight_Living_Armor_04",
        "Midnight_Living_Armor_05",
        "Midnight_Living_Armor_06"
      ]
    },
    {
      "level": 44,
      "experience": 0,
      "display_names": [
        "Living Armor"
      ],
      "costumes": [
        "Midnight_Living_Armor_01",
        "Midnight_Living_Armor_02",
        "Midnight_Living_Armor_03",
        "Midnight_Living_Armor_04",
        "Midnight_Living_Armor_05",
        "Midnight_Living_Armor_06"
      ]
    }
  ]
}