{
  "name": "Miscellaneous_Blunt_Trauma_Pet",
  "gender": "GENDER_MALE",
  "description": "Blunt Trauma is a mutant who has worked as heavy muscle for various villains in the past. He ended up in the Zig by Longbow for ripping apart a bank vault, but not before he took out an entire assault team.",
  "group_description": "Prisoner",
  "display_class_name": null,
  "character_class_name": "minion_pets",
  "ai_config": "Default_Melee",
  "commandable_pet": false,
  "power_tags": [
    "HumanSkeleton",
    "Human"
  ],
  "additional_rewards": [

  ],
  "skill_hp_rewards": [

  ],
  "skill_status_rewards": [

  ],
  "ally": null,
  "gang": null,
  "reward_scale": 1.0,
  "game_exclusion": "None",
  "inactive_state_weapon": null,
  "ignores_combat_mods": false,
  "copy_creator_mods": false,
  "spawn_limit": 0,
  "spawn_limit_mission": 0,
  "ignore_av_to_eb_scaling": false,
  "can_zone": false,
  "custom_badge_stat": null,
  "badge_stat_flags": "DefaultBadgeStat",
  "rank": "VR_LIEUTENANT",
  "power_full_names": [
    "V_Miscellaneous.Blunt_Trauma.Jab",
    "V_Miscellaneous.Blunt_Trauma.Punch",
    "V_Miscellaneous.Blunt_Trauma.Haymaker",
    "V_Miscellaneous.Blunt_Trauma.Hurl",
    "V_Miscellaneous.Blunt_Trauma.Super_Leap"
  ],
  "power_display_names": [
    "Jab",
    "Punch",
    "Haymaker",
    "Hurl",
    "Super Leap"
  ],
  "power_levels": [
    0,
    0,
    0,
    0,
    0
  ],
  "powers": [
    {
      "power_category": "V_Miscellaneous",
      "power_set": "Blunt_Trauma",
      "power": "*",
      "level": 0
    }
  ],
  "levels": [
    {
      "level": 15,
      "experience": 0,
      "display_names": [
        "Blunt_Trauma"
      ],
      "costumes": [
        "Model_Blunt_Trauma"
      ]
    },
    {
      "level": 16,
      "experience": 0,
      "display_names": [
        "Blunt_Trauma"
      ],
      "costumes": [
        "Model_Blunt_Trauma"
      ]
    },
    {
      "level": 17,
      "experience": 0,
      "display_names": [
        "Blunt_Trauma"
      ],
      "costumes": [
        "Model_Blunt_Trauma"
      ]
    },
    {
      "level": 18,
      "experience": 0,
      "display_names": [
        "Blunt_Trauma"
      ],
      "costumes": [
        "Model_Blunt_Trauma"
      ]
    },
    {
      "level": 19,
      "experience": 0,
      "display_names": [
        "Blunt_Trauma"
      ],
      "costumes": [
        "Model_Blunt_Trauma"
      ]
    },
    {
      "level": 20,
      "experience": 0,
      "display_names": [
        "Blunt_Trauma"
      ],
      "costumes": [
        "Model_Blunt_Trauma"
      ]
    },
    {
      "level": 21,
      "experience": 0,
      "display_names": [
        "Blunt_Trauma"
      ],
      "costumes": [
        "Model_Blunt_Trauma"
      ]
    }
  ]
}