{
  "name": "Mooks_Blackjack",
  "gender": "GENDER_MALE",
  "description": "When former Governor Manuel Marcone was nabbed by Interpol, Guido 'the Mooch' Verandi decided to take over from his son, Emil. It seems Lord Recluse is content to see who wins this gang war, as he's issued no official proclamations as to who should succeed Manuel.",
  "group_description": null,
  "display_class_name": null,
  "character_class_name": "minion_grunt",
  "ai_config": "Default_Melee",
  "commandable_pet": false,
  "power_tags": [
    "HumanSkeleton",
    "Human"
  ],
  "additional_rewards": [

  ],
  "skill_hp_rewards": [

  ],
  "skill_status_rewards": [

  ],
  "ally": null,
  "gang": null,
  "reward_scale": 1.0,
  "game_exclusion": "None",
  "inactive_state_weapon": null,
  "ignores_combat_mods": false,
  "copy_creator_mods": false,
  "spawn_limit": 2,
  "spawn_limit_mission": 2,
  "ignore_av_to_eb_scaling": false,
  "can_zone": false,
  "custom_badge_stat": null,
  "badge_stat_flags": "DefaultBadgeStat",
  "rank": "VR_MINION",
  "power_full_names": [
    "V_Mooks.Minion_Blackjack.Brawl",
    "V_Mooks.Minion_Blackjack.Revolver",
    "V_Mooks.Minion_Blackjack.Blackjack"
  ],
  "power_display_names": [
    "Brawl",
    "Revolver",
    "Blackjack"
  ],
  "power_levels": [
    0,
    0,
    0
  ],
  "powers": [
    {
      "power_category": "V_Mooks",
      "power_set": "Minion_Blackjack",
      "power": "*",
      "level": 0
    }
  ],
  "levels": [
    {
      "level": 5,
      "experience": 0,
      "display_names": [
        "Mook Blackjack"
      ],
      "costumes": [
        "Mook_01",
        "Mook_02",
        "Mook_03"
      ]
    },
    {
      "level": 6,
      "experience": 0,
      "display_names": [
        "Mook Blackjack"
      ],
      "costumes": [
        "Mook_01",
        "Mook_02",
        "Mook_03"
      ]
    },
    {
      "level": 7,
      "experience": 0,
      "display_names": [
        "Mook Blackjack"
      ],
      "costumes": [
        "Mook_01",
        "Mook_02",
        "Mook_03"
      ]
    },
    {
      "level": 8,
      "experience": 0,
      "display_names": [
        "Mook Blackjack"
      ],
      "costumes": [
        "Mook_01",
        "Mook_02",
        "Mook_03"
      ]
    },
    {
      "level": 9,
      "experience": 0,
      "display_names": [
        "Mook Blackjack"
      ],
      "costumes": [
        "Mook_01",
        "Mook_02",
        "Mook_03"
      ]
    },
    {
      "level": 10,
      "experience": 0,
      "display_names": [
        "Mook Blackjack"
      ],
      "costumes": [
        "Mook_01",
        "Mook_02",
        "Mook_03"
      ]
    }
  ]
}