{
  "name": "Nemesis_Fake_Nemesis",
  "gender": "GENDER_MALE",
  "description": "No one alive has ever seen Nemesis' true face. He hides within his finely wrought armor, safe behind personal force fields and a variety of armaments. He has many such suits of armor, each of which is a robot in its own right, capable of acting - and killing - independently.",
  "group_description": null,
  "display_class_name": null,
  "character_class_name": "boss_grunt",
  "ai_config": "Default_Ranged",
  "commandable_pet": false,
  "power_tags": [

  ],
  "additional_rewards": [

  ],
  "skill_hp_rewards": [

  ],
  "skill_status_rewards": [

  ],
  "ally": null,
  "gang": null,
  "reward_scale": 1.7,
  "game_exclusion": "None",
  "inactive_state_weapon": null,
  "ignores_combat_mods": false,
  "copy_creator_mods": false,
  "spawn_limit": 1,
  "spawn_limit_mission": 1,
  "ignore_av_to_eb_scaling": false,
  "can_zone": false,
  "custom_badge_stat": null,
  "badge_stat_flags": "DefaultBadgeStat",
  "rank": "VR_BOSS",
  "power_full_names": [
    "Nemesis.Nemesis_Fake_Nemesis_Melee.Nemesis_Staff",
    "Nemesis.Nemesis_Fake_Nemesis_Range.Staff_Bolt",
    "Nemesis.Nemesis_Fake_Nemesis_Buff.Personal_Force_Field",
    "Nemesis.Nemesis_Fake_Nemesis_Buff.Dispersion_Bubble",
    "Nemesis.Nemesis_Fake_Nemesis_Buff.Protection_Shield",
    "Nemesis.Nemesis_Soldier_Defense.Resistance"
  ],
  "power_display_names": [
    "Nemesis Staff",
    "Staff Bolt",
    "Personal Force Field",
    "Dispersion Bubble",
    "Protection Shield",
    "Resistance"
  ],
  "power_levels": [
    0,
    0,
    0,
    0,
    0,
    0
  ],
  "powers": [
    {
      "power_category": "Nemesis",
      "power_set": "Nemesis_Fake_Nemesis_Melee",
      "power": "*",
      "level": 0
    },
    {
      "power_category": "Nemesis",
      "power_set": "Nemesis_Fake_Nemesis_Range",
      "power": "*",
      "level": 0
    },
    {
      "power_category": "Nemesis",
      "power_set": "Nemesis_Fake_Nemesis_Buff",
      "power": "*",
      "level": 0
    },
    {
      "power_category": "Nemesis",
      "power_set": "Nemesis_Soldier_Defense",
      "power": "*",
      "level": 0
    }
  ],
  "levels": [
    {
      "level": 40,
      "experience": 0,
      "display_names": [
        "Fake Nemesis"
      ],
      "costumes": [
        "Nemesis"
      ]
    },
    {
      "level": 41,
      "experience": 0,
      "display_names": [
        "Fake Nemesis"
      ],
      "costumes": [
        "Nemesis"
      ]
    },
    {
      "level": 42,
      "experience": 0,
      "display_names": [
        "Fake Nemesis"
      ],
      "costumes": [
        "Nemesis"
      ]
    },
    {
      "level": 43,
      "experience": 0,
      "display_names": [
        "Fake Nemesis"
      ],
      "costumes": [
        "Nemesis"
      ]
    },
    {
      "level": 44,
      "experience": 0,
      "display_names": [
        "Fake Nemesis"
      ],
      "costumes": [
        "Nemesis"
      ]
    },
    {
      "level": 45,
      "experience": 0,
      "display_names": [
        "Fake Nemesis"
      ],
      "costumes": [
        "Nemesis"
      ]
    },
    {
      "level": 46,
      "experience": 0,
      "display_names": [
        "Fake Nemesis"
      ],
      "costumes": [
        "Nemesis"
      ]
    },
    {
      "level": 47,
      "experience": 0,
      "display_names": [
        "Fake Nemesis"
      ],
      "costumes": [
        "Nemesis"
      ]
    },
    {
      "level": 48,
      "experience": 0,
      "display_names": [
        "Fake Nemesis"
      ],
      "costumes": [
        "Nemesis"
      ]
    },
    {
      "level": 49,
      "experience": 0,
      "display_names": [
        "Fake Nemesis"
      ],
      "costumes": [
        "Nemesis"
      ]
    },
    {
      "level": 50,
      "experience": 0,
      "display_names": [
        "Fake Nemesis"
      ],
      "costumes": [
        "Nemesis"
      ]
    },
    {
      "level": 51,
      "experience": 0,
      "display_names": [
        "Fake Nemesis"
      ],
      "costumes": [
        "Nemesis"
      ]
    },
    {
      "level": 52,
      "experience": 0,
      "display_names": [
        "Fake Nemesis"
      ],
      "costumes": [
        "Nemesis"
      ]
    },
    {
      "level": 53,
      "experience": 0,
      "display_names": [
        "Fake Nemesis"
      ],
      "costumes": [
        "Nemesis"
      ]
    },
    {
      "level": 54,
      "experience": 0,
      "display_names": [
        "Fake Nemesis"
      ],
      "costumes": [
        "Nemesis"
      ]
    }
  ]
}