{
  "name": "Nemesis_Nemesis_Lieutenant_noexp",
  "gender": "GENDER_MALE",
  "description": "Nemesis' officers are some of the best trained soldiers in the world, and they show amazing discipline and devotion to their master. They're armed with the Nemesis lance, a long rifle that can also operate effectively as a spear. Their skill with this weapon makes them deadly at any distance.",
  "group_description": null,
  "display_class_name": null,
  "character_class_name": "lt_grunt",
  "ai_config": "Default_Ranged",
  "commandable_pet": false,
  "power_tags": [
    "HumanSkeleton",
    "Human"
  ],
  "additional_rewards": [

  ],
  "skill_hp_rewards": [

  ],
  "skill_status_rewards": [

  ],
  "ally": null,
  "gang": null,
  "reward_scale": 1.0,
  "game_exclusion": "None",
  "inactive_state_weapon": null,
  "ignores_combat_mods": false,
  "copy_creator_mods": false,
  "spawn_limit": 0,
  "spawn_limit_mission": 0,
  "ignore_av_to_eb_scaling": false,
  "can_zone": false,
  "custom_badge_stat": null,
  "badge_stat_flags": "DefaultBadgeStat",
  "rank": "VR_PET",
  "power_full_names": [
    "Nemesis.Nemesis_Lancer_Officer_Melee.Lance",
    "Nemesis.Nemesis_Lancer_Officer_Ranged.Lance_Rifle",
    "Nemesis.Nemesis_Lancer_Officer_Ranged.Vengeance",
    "Nemesis.Nemesis_Soldier_Defense.Resistance"
  ],
  "power_display_names": [
    "Lance",
    "Lance Rifle",
    "Vengeance",
    "Resistance"
  ],
  "power_levels": [
    0,
    0,
    0,
    0
  ],
  "powers": [
    {
      "power_category": "Nemesis",
      "power_set": "Nemesis_Lancer_Officer_Melee",
      "power": "*",
      "level": 0
    },
    {
      "power_category": "Nemesis",
      "power_set": "Nemesis_Lancer_Officer_Ranged",
      "power": "*",
      "level": 0
    },
    {
      "power_category": "Nemesis",
      "power_set": "Nemesis_Soldier_Defense",
      "power": "*",
      "level": 0
    }
  ],
  "levels": [
    {
      "level": 28,
      "experience": 0,
      "display_names": [
        "Lance Corporal"
      ],
      "costumes": [
        "Nemesis_Soldier_04"
      ]
    },
    {
      "level": 29,
      "experience": 0,
      "display_names": [
        "Lance Corporal"
      ],
      "costumes": [
        "Nemesis_Soldier_04"
      ]
    },
    {
      "level": 30,
      "experience": 0,
      "display_names": [
        "Lance Corporal"
      ],
      "costumes": [
        "Nemesis_Soldier_04"
      ]
    },
    {
      "level": 31,
      "experience": 0,
      "display_names": [
        "Lance Corporal"
      ],
      "costumes": [
        "Nemesis_Soldier_04"
      ]
    },
    {
      "level": 32,
      "experience": 0,
      "display_names": [
        "Lance Corporal"
      ],
      "costumes": [
        "Nemesis_Soldier_04"
      ]
    },
    {
      "level": 33,
      "experience": 0,
      "display_names": [
        "Subaltern"
      ],
      "costumes": [
        "Nemesis_Soldier_05"
      ]
    },
    {
      "level": 34,
      "experience": 0,
      "display_names": [
        "Subaltern"
      ],
      "costumes": [
        "Nemesis_Soldier_05"
      ]
    },
    {
      "level": 35,
      "experience": 0,
      "display_names": [
        "Subaltern"
      ],
      "costumes": [
        "Nemesis_Soldier_05"
      ]
    },
    {
      "level": 36,
      "experience": 0,
      "display_names": [
        "Lance Sergeant"
      ],
      "costumes": [
        "Nemesis_Soldier_06"
      ]
    },
    {
      "level": 37,
      "experience": 0,
      "display_names": [
        "Lance Sergeant"
      ],
      "costumes": [
        "Nemesis_Soldier_06"
      ]
    },
    {
      "level": 38,
      "experience": 0,
      "display_names": [
        "Lance Sergeant"
      ],
      "costumes": [
        "Nemesis_Soldier_06"
      ]
    },
    {
      "level": 39,
      "experience": 0,
      "display_names": [
        "Sgt. Major"
      ],
      "costumes": [
        "Nemesis_Soldier_04"
      ]
    },
    {
      "level": 40,
      "experience": 0,
      "display_names": [
        "Sgt. Major"
      ],
      "costumes": [
        "Nemesis_Soldier_04"
      ]
    },
    {
      "level": 41,
      "experience": 0,
      "display_names": [
        "Sgt. Major"
      ],
      "costumes": [
        "Nemesis_Soldier_04"
      ]
    },
    {
      "level": 42,
      "experience": 0,
      "display_names": [
        "Lieutenant"
      ],
      "costumes": [
        "Nemesis_Soldier_05"
      ]
    },
    {
      "level": 43,
      "experience": 0,
      "display_names": [
        "Lieutenant"
      ],
      "costumes": [
        "Nemesis_Soldier_05"
      ]
    },
    {
      "level": 44,
      "experience": 0,
      "display_names": [
        "Lieutenant"
      ],
      "costumes": [
        "Nemesis_Soldier_05"
      ]
    },
    {
      "level": 45,
      "experience": 0,
      "display_names": [
        "Captain"
      ],
      "costumes": [
        "Nemesis_Soldier_06"
      ]
    },
    {
      "level": 46,
      "experience": 0,
      "display_names": [
        "Captain"
      ],
      "costumes": [
        "Nemesis_Soldier_06"
      ]
    },
    {
      "level": 47,
      "experience": 0,
      "display_names": [
        "Captain"
      ],
      "costumes": [
        "Nemesis_Soldier_06"
      ]
    },
    {
      "level": 48,
      "experience": 0,
      "display_names": [
        "Colonel"
      ],
      "costumes": [
        "Nemesis_Soldier_04"
      ]
    },
    {
      "level": 49,
      "experience": 0,
      "display_names": [
        "Colonel"
      ],
      "costumes": [
        "Nemesis_Soldier_04"
      ]
    },
    {
      "level": 50,
      "experience": 0,
      "display_names": [
        "Colonel"
      ],
      "costumes": [
        "Nemesis_Soldier_04"
      ]
    },
    {
      "level": 51,
      "experience": 0,
      "display_names": [
        "Colonel"
      ],
      "costumes": [
        "Nemesis_Soldier_04"
      ]
    },
    {
      "level": 52,
      "experience": 0,
      "display_names": [
        "Colonel"
      ],
      "costumes": [
        "Nemesis_Soldier_04"
      ]
    },
    {
      "level": 53,
      "experience": 0,
      "display_names": [
        "Colonel"
      ],
      "costumes": [
        "Nemesis_Soldier_04"
      ]
    },
    {
      "level": 54,
      "experience": 0,
      "display_names": [
        "Colonel"
      ],
      "costumes": [
        "Nemesis_Soldier_04"
      ]
    }
  ]
}