{
  "name": "NemesisAutomatons_Nemesis_Support_Female",
  "gender": "GENDER_FEMALE",
  "description": "Perhaps it's the careful precision of every movement, or the way they perform the same tasks over and over, but something about this seemingly normal citizen doesn't look quite right. In fact, they seem almost mechanical.",
  "group_description": null,
  "display_class_name": null,
  "character_class_name": "minion_grunt",
  "ai_config": "Default_Ranged",
  "commandable_pet": false,
  "power_tags": [
    "HumanSkeleton"
  ],
  "additional_rewards": [

  ],
  "skill_hp_rewards": [

  ],
  "skill_status_rewards": [

  ],
  "ally": null,
  "gang": null,
  "reward_scale": 1.0,
  "game_exclusion": "None",
  "inactive_state_weapon": null,
  "ignores_combat_mods": false,
  "copy_creator_mods": false,
  "spawn_limit": -1,
  "spawn_limit_mission": -1,
  "ignore_av_to_eb_scaling": false,
  "can_zone": false,
  "custom_badge_stat": null,
  "badge_stat_flags": "DefaultBadgeStat",
  "rank": "VR_MINION",
  "power_full_names": [
    "Nemesis.Nemesis_Support_Melee.Bayonet",
    "Nemesis.Nemesis_Support_Ranged.Storm_Rifle",
    "Nemesis.Nemesis_Soldier_Defense.Resistance"
  ],
  "power_display_names": [
    "Bayonet",
    "Storm Rifle",
    "Resistance"
  ],
  "power_levels": [
    0,
    0,
    0
  ],
  "powers": [
    {
      "power_category": "Nemesis",
      "power_set": "Nemesis_Support_Melee",
      "power": "*",
      "level": 0
    },
    {
      "power_category": "Nemesis",
      "power_set": "Nemesis_Support_Ranged",
      "power": "*",
      "level": 0
    },
    {
      "power_category": "Nemesis",
      "power_set": "Nemesis_Soldier_Defense",
      "power": "*",
      "level": 0
    }
  ],
  "levels": [
    {
      "level": 30,
      "experience": 0,
      "display_names": [
        "Support Automaton"
      ],
      "costumes": [
        "FeMaleAutomaton_01",
        "FeMaleAutomaton_04",
        "FeMaleAutomaton_05",
        "FeMaleAutomaton_07",
        "FeMaleAutomaton_08",
        "FeMaleAutomaton_09",
        "FeMaleAutomaton_10",
        "FeMaleAutomaton_15",
        "FeMaleAutomaton_16",
        "FeMaleAutomaton_20",
        "FeMaleAutomaton_21",
        "FeMaleAutomaton_22",
        "FeMaleAutomaton_23",
        "FeMaleAutomaton_30"
      ]
    },
    {
      "level": 31,
      "experience": 0,
      "display_names": [
        "Support Automaton"
      ],
      "costumes": [
        "FeMaleAutomaton_01",
        "FeMaleAutomaton_04",
        "FeMaleAutomaton_05",
        "FeMaleAutomaton_07",
        "FeMaleAutomaton_08",
        "FeMaleAutomaton_09",
        "FeMaleAutomaton_10",
        "FeMaleAutomaton_15",
        "FeMaleAutomaton_16",
        "FeMaleAutomaton_20",
        "FeMaleAutomaton_21",
        "FeMaleAutomaton_22",
        "FeMaleAutomaton_23",
        "FeMaleAutomaton_30"
      ]
    },
    {
      "level": 32,
      "experience": 0,
      "display_names": [
        "Support Automaton"
      ],
      "costumes": [
        "FeMaleAutomaton_01",
        "FeMaleAutomaton_04",
        "FeMaleAutomaton_05",
        "FeMaleAutomaton_07",
        "FeMaleAutomaton_08",
        "FeMaleAutomaton_09",
        "FeMaleAutomaton_10",
        "FeMaleAutomaton_15",
        "FeMaleAutomaton_16",
        "FeMaleAutomaton_20",
        "FeMaleAutomaton_21",
        "FeMaleAutomaton_22",
        "FeMaleAutomaton_23",
        "FeMaleAutomaton_30"
      ]
    },
    {
      "level": 33,
      "experience": 0,
      "display_names": [
        "Support Automaton"
      ],
      "costumes": [
        "FeMaleAutomaton_01",
        "FeMaleAutomaton_04",
        "FeMaleAutomaton_05",
        "FeMaleAutomaton_07",
        "FeMaleAutomaton_08",
        "FeMaleAutomaton_09",
        "FeMaleAutomaton_10",
        "FeMaleAutomaton_15",
        "FeMaleAutomaton_16",
        "FeMaleAutomaton_20",
        "FeMaleAutomaton_21",
        "FeMaleAutomaton_22",
        "FeMaleAutomaton_23",
        "FeMaleAutomaton_30"
      ]
    },
    {
      "level": 34,
      "experience": 0,
      "display_names": [
        "Support Automaton"
      ],
      "costumes": [
        "FeMaleAutomaton_01",
        "FeMaleAutomaton_04",
        "FeMaleAutomaton_05",
        "FeMaleAutomaton_07",
        "FeMaleAutomaton_08",
        "FeMaleAutomaton_09",
        "FeMaleAutomaton_10",
        "FeMaleAutomaton_15",
        "FeMaleAutomaton_16",
        "FeMaleAutomaton_20",
        "FeMaleAutomaton_21",
        "FeMaleAutomaton_22",
        "FeMaleAutomaton_23",
        "FeMaleAutomaton_30"
      ]
    },
    {
      "level": 35,
      "experience": 0,
      "display_names": [
        "Support Automaton"
      ],
      "costumes": [
        "FeMaleAutomaton_01",
        "FeMaleAutomaton_04",
        "FeMaleAutomaton_05",
        "FeMaleAutomaton_07",
        "FeMaleAutomaton_08",
        "FeMaleAutomaton_09",
        "FeMaleAutomaton_10",
        "FeMaleAutomaton_15",
        "FeMaleAutomaton_16",
        "FeMaleAutomaton_20",
        "FeMaleAutomaton_21",
        "FeMaleAutomaton_22",
        "FeMaleAutomaton_23",
        "FeMaleAutomaton_30"
      ]
    },
    {
      "level": 36,
      "experience": 0,
      "display_names": [
        "Support Automaton"
      ],
      "costumes": [
        "FeMaleAutomaton_01",
        "FeMaleAutomaton_04",
        "FeMaleAutomaton_05",
        "FeMaleAutomaton_07",
        "FeMaleAutomaton_08",
        "FeMaleAutomaton_09",
        "FeMaleAutomaton_10",
        "FeMaleAutomaton_15",
        "FeMaleAutomaton_16",
        "FeMaleAutomaton_20",
        "FeMaleAutomaton_21",
        "FeMaleAutomaton_22",
        "FeMaleAutomaton_23",
        "FeMaleAutomaton_30"
      ]
    },
    {
      "level": 37,
      "experience": 0,
      "display_names": [
        "Support Automaton"
      ],
      "costumes": [
        "FeMaleAutomaton_01",
        "FeMaleAutomaton_04",
        "FeMaleAutomaton_05",
        "FeMaleAutomaton_07",
        "FeMaleAutomaton_08",
        "FeMaleAutomaton_09",
        "FeMaleAutomaton_10",
        "FeMaleAutomaton_15",
        "FeMaleAutomaton_16",
        "FeMaleAutomaton_20",
        "FeMaleAutomaton_21",
        "FeMaleAutomaton_22",
        "FeMaleAutomaton_23",
        "FeMaleAutomaton_30"
      ]
    },
    {
      "level": 38,
      "experience": 0,
      "display_names": [
        "Support Automaton"
      ],
      "costumes": [
        "FeMaleAutomaton_01",
        "FeMaleAutomaton_04",
        "FeMaleAutomaton_05",
        "FeMaleAutomaton_07",
        "FeMaleAutomaton_08",
        "FeMaleAutomaton_09",
        "FeMaleAutomaton_10",
        "FeMaleAutomaton_15",
        "FeMaleAutomaton_16",
        "FeMaleAutomaton_20",
        "FeMaleAutomaton_21",
        "FeMaleAutomaton_22",
        "FeMaleAutomaton_23",
        "FeMaleAutomaton_30"
      ]
    },
    {
      "level": 39,
      "experience": 0,
      "display_names": [
        "Support Automaton"
      ],
      "costumes": [
        "FeMaleAutomaton_01",
        "FeMaleAutomaton_04",
        "FeMaleAutomaton_05",
        "FeMaleAutomaton_07",
        "FeMaleAutomaton_08",
        "FeMaleAutomaton_09",
        "FeMaleAutomaton_10",
        "FeMaleAutomaton_15",
        "FeMaleAutomaton_16",
        "FeMaleAutomaton_20",
        "FeMaleAutomaton_21",
        "FeMaleAutomaton_22",
        "FeMaleAutomaton_23",
        "FeMaleAutomaton_30"
      ]
    },
    {
      "level": 40,
      "experience": 0,
      "display_names": [
        "Support Automaton"
      ],
      "costumes": [
        "FeMaleAutomaton_01",
        "FeMaleAutomaton_04",
        "FeMaleAutomaton_05",
        "FeMaleAutomaton_07",
        "FeMaleAutomaton_08",
        "FeMaleAutomaton_09",
        "FeMaleAutomaton_10",
        "FeMaleAutomaton_15",
        "FeMaleAutomaton_16",
        "FeMaleAutomaton_20",
        "FeMaleAutomaton_21",
        "FeMaleAutomaton_22",
        "FeMaleAutomaton_23",
        "FeMaleAutomaton_30"
      ]
    },
    {
      "level": 41,
      "experience": 0,
      "display_names": [
        "Support Automaton"
      ],
      "costumes": [
        "FeMaleAutomaton_01",
        "FeMaleAutomaton_04",
        "FeMaleAutomaton_05",
        "FeMaleAutomaton_07",
        "FeMaleAutomaton_08",
        "FeMaleAutomaton_09",
        "FeMaleAutomaton_10",
        "FeMaleAutomaton_15",
        "FeMaleAutomaton_16",
        "FeMaleAutomaton_20",
        "FeMaleAutomaton_21",
        "FeMaleAutomaton_22",
        "FeMaleAutomaton_23",
        "FeMaleAutomaton_30"
      ]
    },
    {
      "level": 42,
      "experience": 0,
      "display_names": [
        "Support Automaton"
      ],
      "costumes": [
        "FeMaleAutomaton_01",
        "FeMaleAutomaton_04",
        "FeMaleAutomaton_05",
        "FeMaleAutomaton_07",
        "FeMaleAutomaton_08",
        "FeMaleAutomaton_09",
        "FeMaleAutomaton_10",
        "FeMaleAutomaton_15",
        "FeMaleAutomaton_16",
        "FeMaleAutomaton_20",
        "FeMaleAutomaton_21",
        "FeMaleAutomaton_22",
        "FeMaleAutomaton_23",
        "FeMaleAutomaton_30"
      ]
    },
    {
      "level": 43,
      "experience": 0,
      "display_names": [
        "Support Automaton"
      ],
      "costumes": [
        "FeMaleAutomaton_01",
        "FeMaleAutomaton_04",
        "FeMaleAutomaton_05",
        "FeMaleAutomaton_07",
        "FeMaleAutomaton_08",
        "FeMaleAutomaton_09",
        "FeMaleAutomaton_10",
        "FeMaleAutomaton_15",
        "FeMaleAutomaton_16",
        "FeMaleAutomaton_20",
        "FeMaleAutomaton_21",
        "FeMaleAutomaton_22",
        "FeMaleAutomaton_23",
        "FeMaleAutomaton_30"
      ]
    },
    {
      "level": 44,
      "experience": 0,
      "display_names": [
        "Support Automaton"
      ],
      "costumes": [
        "FeMaleAutomaton_01",
        "FeMaleAutomaton_04",
        "FeMaleAutomaton_05",
        "FeMaleAutomaton_07",
        "FeMaleAutomaton_08",
        "FeMaleAutomaton_09",
        "FeMaleAutomaton_10",
        "FeMaleAutomaton_15",
        "FeMaleAutomaton_16",
        "FeMaleAutomaton_20",
        "FeMaleAutomaton_21",
        "FeMaleAutomaton_22",
        "FeMaleAutomaton_23",
        "FeMaleAutomaton_30"
      ]
    },
    {
      "level": 45,
      "experience": 0,
      "display_names": [
        "Support Automaton"
      ],
      "costumes": [
        "FeMaleAutomaton_01",
        "FeMaleAutomaton_04",
        "FeMaleAutomaton_05",
        "FeMaleAutomaton_07",
        "FeMaleAutomaton_08",
        "FeMaleAutomaton_09",
        "FeMaleAutomaton_10",
        "FeMaleAutomaton_15",
        "FeMaleAutomaton_16",
        "FeMaleAutomaton_20",
        "FeMaleAutomaton_21",
        "FeMaleAutomaton_22",
        "FeMaleAutomaton_23",
        "FeMaleAutomaton_30"
      ]
    },
    {
      "level": 46,
      "experience": 0,
      "display_names": [
        "Support Automaton"
      ],
      "costumes": [
        "FeMaleAutomaton_01",
        "FeMaleAutomaton_04",
        "FeMaleAutomaton_05",
        "FeMaleAutomaton_07",
        "FeMaleAutomaton_08",
        "FeMaleAutomaton_09",
        "FeMaleAutomaton_10",
        "FeMaleAutomaton_15",
        "FeMaleAutomaton_16",
        "FeMaleAutomaton_20",
        "FeMaleAutomaton_21",
        "FeMaleAutomaton_22",
        "FeMaleAutomaton_23",
        "FeMaleAutomaton_30"
      ]
    },
    {
      "level": 47,
      "experience": 0,
      "display_names": [
        "Support Automaton"
      ],
      "costumes": [
        "FeMaleAutomaton_01",
        "FeMaleAutomaton_04",
        "FeMaleAutomaton_05",
        "FeMaleAutomaton_07",
        "FeMaleAutomaton_08",
        "FeMaleAutomaton_09",
        "FeMaleAutomaton_10",
        "FeMaleAutomaton_15",
        "FeMaleAutomaton_16",
        "FeMaleAutomaton_20",
        "FeMaleAutomaton_21",
        "FeMaleAutomaton_22",
        "FeMaleAutomaton_23",
        "FeMaleAutomaton_30"
      ]
    },
    {
      "level": 48,
      "experience": 0,
      "display_names": [
        "Support Automaton"
      ],
      "costumes": [
        "FeMaleAutomaton_01",
        "FeMaleAutomaton_04",
        "FeMaleAutomaton_05",
        "FeMaleAutomaton_07",
        "FeMaleAutomaton_08",
        "FeMaleAutomaton_09",
        "FeMaleAutomaton_10",
        "FeMaleAutomaton_15",
        "FeMaleAutomaton_16",
        "FeMaleAutomaton_20",
        "FeMaleAutomaton_21",
        "FeMaleAutomaton_22",
        "FeMaleAutomaton_23",
        "FeMaleAutomaton_30"
      ]
    },
    {
      "level": 49,
      "experience": 0,
      "display_names": [
        "Support Automaton"
      ],
      "costumes": [
        "FeMaleAutomaton_01",
        "FeMaleAutomaton_04",
        "FeMaleAutomaton_05",
        "FeMaleAutomaton_07",
        "FeMaleAutomaton_08",
        "FeMaleAutomaton_09",
        "FeMaleAutomaton_10",
        "FeMaleAutomaton_15",
        "FeMaleAutomaton_16",
        "FeMaleAutomaton_20",
        "FeMaleAutomaton_21",
        "FeMaleAutomaton_22",
        "FeMaleAutomaton_23",
        "FeMaleAutomaton_30"
      ]
    },
    {
      "level": 50,
      "experience": 0,
      "display_names": [
        "Support Automaton"
      ],
      "costumes": [
        "FeMaleAutomaton_01",
        "FeMaleAutomaton_04",
        "FeMaleAutomaton_05",
        "FeMaleAutomaton_07",
        "FeMaleAutomaton_08",
        "FeMaleAutomaton_09",
        "FeMaleAutomaton_10",
        "FeMaleAutomaton_15",
        "FeMaleAutomaton_16",
        "FeMaleAutomaton_20",
        "FeMaleAutomaton_21",
        "FeMaleAutomaton_22",
        "FeMaleAutomaton_23",
        "FeMaleAutomaton_30"
      ]
    },
    {
      "level": 51,
      "experience": 0,
      "display_names": [
        "Support Automaton"
      ],
      "costumes": [
        "FeMaleAutomaton_01",
        "FeMaleAutomaton_04",
        "FeMaleAutomaton_05",
        "FeMaleAutomaton_07",
        "FeMaleAutomaton_08",
        "FeMaleAutomaton_09",
        "FeMaleAutomaton_10",
        "FeMaleAutomaton_15",
        "FeMaleAutomaton_16",
        "FeMaleAutomaton_20",
        "FeMaleAutomaton_21",
        "FeMaleAutomaton_22",
        "FeMaleAutomaton_23",
        "FeMaleAutomaton_30"
      ]
    },
    {
      "level": 52,
      "experience": 0,
      "display_names": [
        "Support Automaton"
      ],
      "costumes": [
        "FeMaleAutomaton_01",
        "FeMaleAutomaton_04",
        "FeMaleAutomaton_05",
        "FeMaleAutomaton_07",
        "FeMaleAutomaton_08",
        "FeMaleAutomaton_09",
        "FeMaleAutomaton_10",
        "FeMaleAutomaton_15",
        "FeMaleAutomaton_16",
        "FeMaleAutomaton_20",
        "FeMaleAutomaton_21",
        "FeMaleAutomaton_22",
        "FeMaleAutomaton_23",
        "FeMaleAutomaton_30"
      ]
    },
    {
      "level": 53,
      "experience": 0,
      "display_names": [
        "Support Automaton"
      ],
      "costumes": [
        "FeMaleAutomaton_01",
        "FeMaleAutomaton_04",
        "FeMaleAutomaton_05",
        "FeMaleAutomaton_07",
        "FeMaleAutomaton_08",
        "FeMaleAutomaton_09",
        "FeMaleAutomaton_10",
        "FeMaleAutomaton_15",
        "FeMaleAutomaton_16",
        "FeMaleAutomaton_20",
        "FeMaleAutomaton_21",
        "FeMaleAutomaton_22",
        "FeMaleAutomaton_23",
        "FeMaleAutomaton_30"
      ]
    },
    {
      "level": 54,
      "experience": 0,
      "display_names": [
        "Support Automaton"
      ],
      "costumes": [
        "FeMaleAutomaton_01",
        "FeMaleAutomaton_04",
        "FeMaleAutomaton_05",
        "FeMaleAutomaton_07",
        "FeMaleAutomaton_08",
        "FeMaleAutomaton_09",
        "FeMaleAutomaton_10",
        "FeMaleAutomaton_15",
        "FeMaleAutomaton_16",
        "FeMaleAutomaton_20",
        "FeMaleAutomaton_21",
        "FeMaleAutomaton_22",
        "FeMaleAutomaton_23",
        "FeMaleAutomaton_30"
      ]
    }
  ]
}