{
  "name": "NewPraetorians_Grant_Creston_Ally",
  "gender": "GENDER_MALE",
  "description": "Grant Creston was once a commander within the Imperial Defense Force, until he defected to help the citizens of First Ward. Creston had discovered that instead of helping the citizens, the IDF were using the area as a training ground. With the destruction of Praetoria, Grant Creston has met with his former mentor, Provost Marchand, who explained that his own rule over the armies was overriden by Emperor Cole. Now, Grant Creston is out to show the people of Primal Earth that there were, and still are, honorable soldiers within the Imperial Defense Force, and that they can be a force for good in their world.",
  "group_description": null,
  "display_class_name": null,
  "character_class_name": "boss_grunt",
  "ai_config": "Signatures_Melee",
  "commandable_pet": false,
  "power_tags": [
    "HumanSkeleton",
    "Human"
  ],
  "additional_rewards": [

  ],
  "skill_hp_rewards": [

  ],
  "skill_status_rewards": [

  ],
  "ally": null,
  "gang": null,
  "reward_scale": 1.0,
  "game_exclusion": "None",
  "inactive_state_weapon": null,
  "ignores_combat_mods": false,
  "copy_creator_mods": false,
  "spawn_limit": 0,
  "spawn_limit_mission": 0,
  "ignore_av_to_eb_scaling": false,
  "can_zone": false,
  "custom_badge_stat": null,
  "badge_stat_flags": "DefaultBadgeStat",
  "rank": "VR_BOSS",
  "power_full_names": [
    "NewPraetorians.Grant_Creston.Plasma_Punch",
    "NewPraetorians.Grant_Creston.Plasma_Vortex",
    "NewPraetorians.Grant_Creston.Plasma_Smasher",
    "NewPraetorians.Grant_Creston.Plasma_Blast",
    "NewPraetorians.Grant_Creston.Plasma_Spray",
    "NewPraetorians.Grant_Creston.Plasma_Burst",
    "NewPraetorians.Grant_Creston.Plasma_Grenade",
    "NewPraetorians.Grant_Creston.Summon_Battle_Orb",
    "NewPraetorians.Grant_Creston.IDF_Armor",
    "NPC_Pets.Ally_Debuff.Ally_Debuff"
  ],
  "power_display_names": [
    "Plasma Punch",
    "Plasma Vortex",
    "Plasma Smasher",
    "Plasma Blast",
    "Plasma Spray",
    "Plasma Burst",
    "Plasma Grenade",
    "Summon Battle Orb",
    "IDF Armor",
    "Ally Debuff"
  ],
  "power_levels": [
    0,
    0,
    0,
    0,
    0,
    0,
    0,
    0,
    0,
    0
  ],
  "powers": [
    {
      "power_category": "NewPraetorians",
      "power_set": "Grant_Creston",
      "power": "*",
      "level": 0
    },
    {
      "power_category": "NPC_Pets",
      "power_set": "Ally_Debuff",
      "power": "*",
      "level": 0
    }
  ],
  "levels": [
    {
      "level": 30,
      "experience": 0,
      "display_names": [
        "Grant Creston"
      ],
      "costumes": [
        "Model_Grant_Creston_Ally"
      ]
    },
    {
      "level": 31,
      "experience": 0,
      "display_names": [
        "Grant Creston"
      ],
      "costumes": [
        "Model_Grant_Creston_Ally"
      ]
    },
    {
      "level": 32,
      "experience": 0,
      "display_names": [
        "Grant Creston"
      ],
      "costumes": [
        "Model_Grant_Creston_Ally"
      ]
    },
    {
      "level": 33,
      "experience": 0,
      "display_names": [
        "Grant Creston"
      ],
      "costumes": [
        "Model_Grant_Creston_Ally"
      ]
    },
    {
      "level": 34,
      "experience": 0,
      "display_names": [
        "Grant Creston"
      ],
      "costumes": [
        "Model_Grant_Creston_Ally"
      ]
    },
    {
      "level": 35,
      "experience": 0,
      "display_names": [
        "Grant Creston"
      ],
      "costumes": [
        "Model_Grant_Creston_Ally"
      ]
    },
    {
      "level": 36,
      "experience": 0,
      "display_names": [
        "Grant Creston"
      ],
      "costumes": [
        "Model_Grant_Creston_Ally"
      ]
    },
    {
      "level": 37,
      "experience": 0,
      "display_names": [
        "Grant Creston"
      ],
      "costumes": [
        "Model_Grant_Creston_Ally"
      ]
    },
    {
      "level": 38,
      "experience": 0,
      "display_names": [
        "Grant Creston"
      ],
      "costumes": [
        "Model_Grant_Creston_Ally"
      ]
    },
    {
      "level": 39,
      "experience": 0,
      "display_names": [
        "Grant Creston"
      ],
      "costumes": [
        "Model_Grant_Creston_Ally"
      ]
    },
    {
      "level": 40,
      "experience": 0,
      "display_names": [
        "Grant Creston"
      ],
      "costumes": [
        "Model_Grant_Creston_Ally"
      ]
    },
    {
      "level": 41,
      "experience": 0,
      "display_names": [
        "Grant Creston"
      ],
      "costumes": [
        "Model_Grant_Creston_Ally"
      ]
    },
    {
      "level": 42,
      "experience": 0,
      "display_names": [
        "Grant Creston"
      ],
      "costumes": [
        "Model_Grant_Creston_Ally"
      ]
    },
    {
      "level": 43,
      "experience": 0,
      "display_names": [
        "Grant Creston"
      ],
      "costumes": [
        "Model_Grant_Creston_Ally"
      ]
    },
    {
      "level": 44,
      "experience": 0,
      "display_names": [
        "Grant Creston"
      ],
      "costumes": [
        "Model_Grant_Creston_Ally"
      ]
    },
    {
      "level": 45,
      "experience": 0,
      "display_names": [
        "Grant Creston"
      ],
      "costumes": [
        "Model_Grant_Creston_Ally"
      ]
    },
    {
      "level": 46,
      "experience": 0,
      "display_names": [
        "Grant Creston"
      ],
      "costumes": [
        "Model_Grant_Creston_Ally"
      ]
    },
    {
      "level": 47,
      "experience": 0,
      "display_names": [
        "Grant Creston"
      ],
      "costumes": [
        "Model_Grant_Creston_Ally"
      ]
    },
    {
      "level": 48,
      "experience": 0,
      "display_names": [
        "Grant Creston"
      ],
      "costumes": [
        "Model_Grant_Creston_Ally"
      ]
    },
    {
      "level": 49,
      "experience": 0,
      "display_names": [
        "Grant Creston"
      ],
      "costumes": [
        "Model_Grant_Creston_Ally"
      ]
    },
    {
      "level": 50,
      "experience": 0,
      "display_names": [
        "Grant Creston"
      ],
      "costumes": [
        "Model_Grant_Creston_Ally"
      ]
    },
    {
      "level": 51,
      "experience": 0,
      "display_names": [
        "Grant Creston"
      ],
      "costumes": [
        "Model_Grant_Creston_Ally"
      ]
    },
    {
      "level": 52,
      "experience": 0,
      "display_names": [
        "Grant Creston"
      ],
      "costumes": [
        "Model_Grant_Creston_Ally"
      ]
    },
    {
      "level": 53,
      "experience": 0,
      "display_names": [
        "Grant Creston"
      ],
      "costumes": [
        "Model_Grant_Creston_Ally"
      ]
    },
    {
      "level": 54,
      "experience": 0,
      "display_names": [
        "Grant Creston"
      ],
      "costumes": [
        "Model_Grant_Creston_Ally"
      ]
    }
  ]
}