{
  "name": "NewPraetorians_Alec_Parson",
  "gender": "GENDER_MALE",
  "description": "Alec Parson was once a senior forensic scientist working for MICIR, the Ministry of Information Criminal Investigation and Research, in Praetoria. He has a passion for robotics and all things Clockwork related. He helped Longbow mass produce their own version of Praetoria's Clockwork. In addition, Alec Parson has his own, personally built, Clockwork and rifle that he uses to defend himself and others. After seeing all the atrocities that were spread by the Clockwork in the Praetorian War, Parson believes that it's time to show the people the good that technology and Clockwork can do for the world.",
  "group_description": null,
  "display_class_name": null,
  "character_class_name": "boss_archvillain",
  "ai_config": "Signatures_Ranged",
  "commandable_pet": false,
  "power_tags": [
    "HumanSkeleton",
    "Human"
  ],
  "additional_rewards": [

  ],
  "skill_hp_rewards": [

  ],
  "skill_status_rewards": [

  ],
  "ally": null,
  "gang": null,
  "reward_scale": 1.0,
  "game_exclusion": "None",
  "inactive_state_weapon": null,
  "ignores_combat_mods": false,
  "copy_creator_mods": false,
  "spawn_limit": 0,
  "spawn_limit_mission": 0,
  "ignore_av_to_eb_scaling": false,
  "can_zone": false,
  "custom_badge_stat": null,
  "badge_stat_flags": "DefaultBadgeStat",
  "rank": "VR_ARCHVILLAIN",
  "power_full_names": [
    "NewPraetorians.Alec_Parson.Clockwork_Army",
    "NewPraetorians.Alec_Parson.Repair",
    "NewPraetorians.Alec_Parson.Single_Shot",
    "NewPraetorians.Alec_Parson.Charged_Shot",
    "NewPraetorians.Alec_Parson.Cutting_Beam",
    "NewPraetorians.Alec_Parson.Piercing_Beam",
    "NewPraetorians.Alec_Parson.Overcharged_Beam",
    "GenericVillains.AV_Resistance.AV_Resistance"
  ],
  "power_display_names": [
    "Clockwork Army",
    "Repair",
    "Single Shot",
    "Charged Shot",
    "Cutting Beam",
    "Piercing Beam",
    "Overcharged Beam",
    "Archvillain's Might"
  ],
  "power_levels": [
    0,
    0,
    0,
    0,
    0,
    0,
    0,
    0
  ],
  "powers": [
    {
      "power_category": "NewPraetorians",
      "power_set": "Alec_Parson",
      "power": "*",
      "level": 0
    },
    {
      "power_category": "GenericVillains",
      "power_set": "AV_Resistance",
      "power": "*",
      "level": 0
    }
  ],
  "levels": [
    {
      "level": 30,
      "experience": 0,
      "display_names": [
        "Alec Parson"
      ],
      "costumes": [
        "Model_Alec_Parson_NoRing"
      ]
    },
    {
      "level": 31,
      "experience": 0,
      "display_names": [
        "Alec Parson"
      ],
      "costumes": [
        "Model_Alec_Parson_NoRing"
      ]
    },
    {
      "level": 32,
      "experience": 0,
      "display_names": [
        "Alec Parson"
      ],
      "costumes": [
        "Model_Alec_Parson_NoRing"
      ]
    },
    {
      "level": 33,
      "experience": 0,
      "display_names": [
        "Alec Parson"
      ],
      "costumes": [
        "Model_Alec_Parson_NoRing"
      ]
    },
    {
      "level": 34,
      "experience": 0,
      "display_names": [
        "Alec Parson"
      ],
      "costumes": [
        "Model_Alec_Parson_NoRing"
      ]
    },
    {
      "level": 35,
      "experience": 0,
      "display_names": [
        "Alec Parson"
      ],
      "costumes": [
        "Model_Alec_Parson_NoRing"
      ]
    },
    {
      "level": 36,
      "experience": 0,
      "display_names": [
        "Alec Parson"
      ],
      "costumes": [
        "Model_Alec_Parson_NoRing"
      ]
    },
    {
      "level": 37,
      "experience": 0,
      "display_names": [
        "Alec Parson"
      ],
      "costumes": [
        "Model_Alec_Parson_NoRing"
      ]
    },
    {
      "level": 38,
      "experience": 0,
      "display_names": [
        "Alec Parson"
      ],
      "costumes": [
        "Model_Alec_Parson_NoRing"
      ]
    },
    {
      "level": 39,
      "experience": 0,
      "display_names": [
        "Alec Parson"
      ],
      "costumes": [
        "Model_Alec_Parson_NoRing"
      ]
    },
    {
      "level": 40,
      "experience": 0,
      "display_names": [
        "Alec Parson"
      ],
      "costumes": [
        "Model_Alec_Parson_NoRing"
      ]
    },
    {
      "level": 41,
      "experience": 0,
      "display_names": [
        "Alec Parson"
      ],
      "costumes": [
        "Model_Alec_Parson_NoRing"
      ]
    },
    {
      "level": 42,
      "experience": 0,
      "display_names": [
        "Alec Parson"
      ],
      "costumes": [
        "Model_Alec_Parson_NoRing"
      ]
    },
    {
      "level": 43,
      "experience": 0,
      "display_names": [
        "Alec Parson"
      ],
      "costumes": [
        "Model_Alec_Parson_NoRing"
      ]
    },
    {
      "level": 44,
      "experience": 0,
      "display_names": [
        "Alec Parson"
      ],
      "costumes": [
        "Model_Alec_Parson_NoRing"
      ]
    },
    {
      "level": 45,
      "experience": 0,
      "display_names": [
        "Alec Parson"
      ],
      "costumes": [
        "Model_Alec_Parson_NoRing"
      ]
    },
    {
      "level": 46,
      "experience": 0,
      "display_names": [
        "Alec Parson"
      ],
      "costumes": [
        "Model_Alec_Parson_NoRing"
      ]
    },
    {
      "level": 47,
      "experience": 0,
      "display_names": [
        "Alec Parson"
      ],
      "costumes": [
        "Model_Alec_Parson_NoRing"
      ]
    },
    {
      "level": 48,
      "experience": 0,
      "display_names": [
        "Alec Parson"
      ],
      "costumes": [
        "Model_Alec_Parson_NoRing"
      ]
    },
    {
      "level": 49,
      "experience": 0,
      "display_names": [
        "Alec Parson"
      ],
      "costumes": [
        "Model_Alec_Parson_NoRing"
      ]
    },
    {
      "level": 50,
      "experience": 0,
      "display_names": [
        "Alec Parson"
      ],
      "costumes": [
        "Model_Alec_Parson_NoRing"
      ]
    },
    {
      "level": 51,
      "experience": 0,
      "display_names": [
        "Alec Parson"
      ],
      "costumes": [
        "Model_Alec_Parson_NoRing"
      ]
    },
    {
      "level": 52,
      "experience": 0,
      "display_names": [
        "Alec Parson"
      ],
      "costumes": [
        "Model_Alec_Parson_NoRing"
      ]
    },
    {
      "level": 53,
      "experience": 0,
      "display_names": [
        "Alec Parson"
      ],
      "costumes": [
        "Model_Alec_Parson_NoRing"
      ]
    },
    {
      "level": 54,
      "experience": 0,
      "display_names": [
        "Alec Parson"
      ],
      "costumes": [
        "Model_Alec_Parson_NoRing"
      ]
    }
  ]
}