{
  "name": "NewPraetorians_Pendragon_Boss",
  "gender": "GENDER_MALE",
  "description": "Pendragon was once a proud knight within the Black Knights. He went through a series of trials in which he claimed the Praetorian Excalibur. Unfortunately, the sword was cursed by Black Swan and nearly consumed him. Desdemona and the Carnival of Light, only through the aid of a super powered individual, released Pendragon from the cursed sword. Pendragon's sin was cast away from him, allowing him to ascend to true knighthood. He accompanied the Carnival of Light to Primal Earth and now seeks to use his abilities to save the people of Primal Earth and erase his sordid past with the Black Knights.",
  "group_description": null,
  "display_class_name": null,
  "character_class_name": "boss_grunt",
  "ai_config": "Signatures_Melee",
  "commandable_pet": false,
  "power_tags": [
    "HumanSkeleton",
    "Human"
  ],
  "additional_rewards": [

  ],
  "skill_hp_rewards": [

  ],
  "skill_status_rewards": [

  ],
  "ally": null,
  "gang": null,
  "reward_scale": 1.0,
  "game_exclusion": "None",
  "inactive_state_weapon": null,
  "ignores_combat_mods": false,
  "copy_creator_mods": false,
  "spawn_limit": 0,
  "spawn_limit_mission": 0,
  "ignore_av_to_eb_scaling": true,
  "can_zone": false,
  "custom_badge_stat": null,
  "badge_stat_flags": "DefaultBadgeStat",
  "rank": "VR_BOSS",
  "power_full_names": [
    "NewPraetorians.Pendragon.Tectonic_Assault",
    "NewPraetorians.Pendragon.Defensive_Sweep",
    "NewPraetorians.Pendragon.Crushing_Blow",
    "NewPraetorians.Pendragon.Shockwave_Strike",
    "NewPraetorians.Pendragon.Follow_Through",
    "NewPraetorians.Pendragon.Shatter_Armor",
    "NewPraetorians.Pendragon.Arc_of_Devastation",
    "NewPraetorians.Pendragon.Taunt"
  ],
  "power_display_names": [
    "Tectonic Assault",
    "Defensive Sweep",
    "Crushing Blow",
    "Shockwave Strike",
    "Follow Through",
    "Shatter Armor",
    "Arc of Devastation",
    "Taunt"
  ],
  "power_levels": [
    0,
    0,
    0,
    0,
    0,
    0,
    0,
    0
  ],
  "powers": [
    {
      "power_category": "NewPraetorians",
      "power_set": "Pendragon",
      "power": "*",
      "level": 0
    }
  ],
  "levels": [
    {
      "level": 30,
      "experience": 0,
      "display_names": [
        "Pendragon"
      ],
      "costumes": [
        "BK_Pendragon_White"
      ]
    },
    {
      "level": 31,
      "experience": 0,
      "display_names": [
        "Pendragon"
      ],
      "costumes": [
        "BK_Pendragon_White"
      ]
    },
    {
      "level": 32,
      "experience": 0,
      "display_names": [
        "Pendragon"
      ],
      "costumes": [
        "BK_Pendragon_White"
      ]
    },
    {
      "level": 33,
      "experience": 0,
      "display_names": [
        "Pendragon"
      ],
      "costumes": [
        "BK_Pendragon_White"
      ]
    },
    {
      "level": 34,
      "experience": 0,
      "display_names": [
        "Pendragon"
      ],
      "costumes": [
        "BK_Pendragon_White"
      ]
    },
    {
      "level": 35,
      "experience": 0,
      "display_names": [
        "Pendragon"
      ],
      "costumes": [
        "BK_Pendragon_White"
      ]
    },
    {
      "level": 36,
      "experience": 0,
      "display_names": [
        "Pendragon"
      ],
      "costumes": [
        "BK_Pendragon_White"
      ]
    },
    {
      "level": 37,
      "experience": 0,
      "display_names": [
        "Pendragon"
      ],
      "costumes": [
        "BK_Pendragon_White"
      ]
    },
    {
      "level": 38,
      "experience": 0,
      "display_names": [
        "Pendragon"
      ],
      "costumes": [
        "BK_Pendragon_White"
      ]
    },
    {
      "level": 39,
      "experience": 0,
      "display_names": [
        "Pendragon"
      ],
      "costumes": [
        "BK_Pendragon_White"
      ]
    },
    {
      "level": 40,
      "experience": 0,
      "display_names": [
        "Pendragon"
      ],
      "costumes": [
        "BK_Pendragon_White"
      ]
    },
    {
      "level": 41,
      "experience": 0,
      "display_names": [
        "Pendragon"
      ],
      "costumes": [
        "BK_Pendragon_White"
      ]
    },
    {
      "level": 42,
      "experience": 0,
      "display_names": [
        "Pendragon"
      ],
      "costumes": [
        "BK_Pendragon_White"
      ]
    },
    {
      "level": 43,
      "experience": 0,
      "display_names": [
        "Pendragon"
      ],
      "costumes": [
        "BK_Pendragon_White"
      ]
    },
    {
      "level": 44,
      "experience": 0,
      "display_names": [
        "Pendragon"
      ],
      "costumes": [
        "BK_Pendragon_White"
      ]
    },
    {
      "level": 45,
      "experience": 0,
      "display_names": [
        "Pendragon"
      ],
      "costumes": [
        "BK_Pendragon_White"
      ]
    },
    {
      "level": 46,
      "experience": 0,
      "display_names": [
        "Pendragon"
      ],
      "costumes": [
        "BK_Pendragon_White"
      ]
    },
    {
      "level": 47,
      "experience": 0,
      "display_names": [
        "Pendragon"
      ],
      "costumes": [
        "BK_Pendragon_White"
      ]
    },
    {
      "level": 48,
      "experience": 0,
      "display_names": [
        "Pendragon"
      ],
      "costumes": [
        "BK_Pendragon_White"
      ]
    },
    {
      "level": 49,
      "experience": 0,
      "display_names": [
        "Pendragon"
      ],
      "costumes": [
        "BK_Pendragon_White"
      ]
    },
    {
      "level": 50,
      "experience": 0,
      "display_names": [
        "Pendragon"
      ],
      "costumes": [
        "BK_Pendragon_White"
      ]
    },
    {
      "level": 51,
      "experience": 0,
      "display_names": [
        "Pendragon"
      ],
      "costumes": [
        "BK_Pendragon_White"
      ]
    },
    {
      "level": 52,
      "experience": 0,
      "display_names": [
        "Pendragon"
      ],
      "costumes": [
        "BK_Pendragon_White"
      ]
    },
    {
      "level": 53,
      "experience": 0,
      "display_names": [
        "Pendragon"
      ],
      "costumes": [
        "BK_Pendragon_White"
      ]
    },
    {
      "level": 54,
      "experience": 0,
      "display_names": [
        "Pendragon"
      ],
      "costumes": [
        "BK_Pendragon_White"
      ]
    }
  ]
}