{
  "name": "NPC_Civilians_Ms_MaeMae_van_Whooters",
  "gender": "GENDER_FEMALE",
  "description": "Though initially cast for her physical assets in a number of 1960's 'rebellious teenager' movies, Maemae van Whooters soon cultivated a respectable career by alternating serious roles with B-movie fare to avoid typecasting. Her star fell in the late 1970s when changing standards of beauty in Hollywood made it harder for her to get major roles. Instead of giving up, she began to concentrate on serious parts in foreign films, earning high praise in Europe with several costume dramas through the 1980s. She quit acting in the mid 1990s to become a writer, though she will still appear on camera to promote children's charities and environmental organizations.",
  "group_description": "Actress",
  "display_class_name": "as Ms Chesterfield",
  "character_class_name": "boss_grunt",
  "ai_config": "Default_PassiveFollower",
  "commandable_pet": false,
  "power_tags": [
    "HumanSkeleton",
    "Human"
  ],
  "additional_rewards": [

  ],
  "skill_hp_rewards": [

  ],
  "skill_status_rewards": [

  ],
  "ally": null,
  "gang": null,
  "reward_scale": 1.0,
  "game_exclusion": "None",
  "inactive_state_weapon": null,
  "ignores_combat_mods": false,
  "copy_creator_mods": false,
  "spawn_limit": -1,
  "spawn_limit_mission": -1,
  "ignore_av_to_eb_scaling": false,
  "can_zone": false,
  "custom_badge_stat": null,
  "badge_stat_flags": "DefaultBadgeStat",
  "rank": "VR_MINION",
  "power_full_names": [
    "Generic.Brawl.Brawl"
  ],
  "power_display_names": [
    "Brawl"
  ],
  "power_levels": [
    0
  ],
  "powers": [
    {
      "power_category": "Generic",
      "power_set": "Brawl",
      "power": "*",
      "level": 0
    }
  ],
  "levels": [
    {
      "level": 1,
      "experience": 0,
      "display_names": [
        "Maemae van Whooters"
      ],
      "costumes": [
        "Model_van_Whooters"
      ]
    },
    {
      "level": 2,
      "experience": 0,
      "display_names": [
        "Maemae van Whooters"
      ],
      "costumes": [
        "Model_van_Whooters"
      ]
    },
    {
      "level": 3,
      "experience": 0,
      "display_names": [
        "Maemae van Whooters"
      ],
      "costumes": [
        "Model_van_Whooters"
      ]
    },
    {
      "level": 4,
      "experience": 0,
      "display_names": [
        "Maemae van Whooters"
      ],
      "costumes": [
        "Model_van_Whooters"
      ]
    },
    {
      "level": 5,
      "experience": 0,
      "display_names": [
        "Maemae van Whooters"
      ],
      "costumes": [
        "Model_van_Whooters"
      ]
    },
    {
      "level": 6,
      "experience": 0,
      "display_names": [
        "Maemae van Whooters"
      ],
      "costumes": [
        "Model_van_Whooters"
      ]
    },
    {
      "level": 7,
      "experience": 0,
      "display_names": [
        "Maemae van Whooters"
      ],
      "costumes": [
        "Model_van_Whooters"
      ]
    },
    {
      "level": 8,
      "experience": 0,
      "display_names": [
        "Maemae van Whooters"
      ],
      "costumes": [
        "Model_van_Whooters"
      ]
    },
    {
      "level": 9,
      "experience": 0,
      "display_names": [
        "Maemae van Whooters"
      ],
      "costumes": [
        "Model_van_Whooters"
      ]
    },
    {
      "level": 10,
      "experience": 0,
      "display_names": [
        "Maemae van Whooters"
      ],
      "costumes": [
        "Model_van_Whooters"
      ]
    },
    {
      "level": 11,
      "experience": 0,
      "display_names": [
        "Maemae van Whooters"
      ],
      "costumes": [
        "Model_van_Whooters"
      ]
    },
    {
      "level": 12,
      "experience": 0,
      "display_names": [
        "Maemae van Whooters"
      ],
      "costumes": [
        "Model_van_Whooters"
      ]
    },
    {
      "level": 13,
      "experience": 0,
      "display_names": [
        "Maemae van Whooters"
      ],
      "costumes": [
        "Model_van_Whooters"
      ]
    },
    {
      "level": 14,
      "experience": 0,
      "display_names": [
        "Maemae van Whooters"
      ],
      "costumes": [
        "Model_van_Whooters"
      ]
    },
    {
      "level": 15,
      "experience": 0,
      "display_names": [
        "Maemae van Whooters"
      ],
      "costumes": [
        "Model_van_Whooters"
      ]
    },
    {
      "level": 16,
      "experience": 0,
      "display_names": [
        "Maemae van Whooters"
      ],
      "costumes": [
        "Model_van_Whooters"
      ]
    },
    {
      "level": 17,
      "experience": 0,
      "display_names": [
        "Maemae van Whooters"
      ],
      "costumes": [
        "Model_van_Whooters"
      ]
    },
    {
      "level": 18,
      "experience": 0,
      "display_names": [
        "Maemae van Whooters"
      ],
      "costumes": [
        "Model_van_Whooters"
      ]
    },
    {
      "level": 19,
      "experience": 0,
      "display_names": [
        "Maemae van Whooters"
      ],
      "costumes": [
        "Model_van_Whooters"
      ]
    },
    {
      "level": 20,
      "experience": 0,
      "display_names": [
        "Maemae van Whooters"
      ],
      "costumes": [
        "Model_van_Whooters"
      ]
    },
    {
      "level": 21,
      "experience": 0,
      "display_names": [
        "Maemae van Whooters"
      ],
      "costumes": [
        "Model_van_Whooters"
      ]
    },
    {
      "level": 22,
      "experience": 0,
      "display_names": [
        "Maemae van Whooters"
      ],
      "costumes": [
        "Model_van_Whooters"
      ]
    },
    {
      "level": 23,
      "experience": 0,
      "display_names": [
        "Maemae van Whooters"
      ],
      "costumes": [
        "Model_van_Whooters"
      ]
    },
    {
      "level": 24,
      "experience": 0,
      "display_names": [
        "Maemae van Whooters"
      ],
      "costumes": [
        "Model_van_Whooters"
      ]
    },
    {
      "level": 25,
      "experience": 0,
      "display_names": [
        "Maemae van Whooters"
      ],
      "costumes": [
        "Model_van_Whooters"
      ]
    },
    {
      "level": 26,
      "experience": 0,
      "display_names": [
        "Maemae van Whooters"
      ],
      "costumes": [
        "Model_van_Whooters"
      ]
    },
    {
      "level": 27,
      "experience": 0,
      "display_names": [
        "Maemae van Whooters"
      ],
      "costumes": [
        "Model_van_Whooters"
      ]
    },
    {
      "level": 28,
      "experience": 0,
      "display_names": [
        "Maemae van Whooters"
      ],
      "costumes": [
        "Model_van_Whooters"
      ]
    },
    {
      "level": 29,
      "experience": 0,
      "display_names": [
        "Maemae van Whooters"
      ],
      "costumes": [
        "Model_van_Whooters"
      ]
    },
    {
      "level": 30,
      "experience": 0,
      "display_names": [
        "Maemae van Whooters"
      ],
      "costumes": [
        "Model_van_Whooters"
      ]
    },
    {
      "level": 31,
      "experience": 0,
      "display_names": [
        "Maemae van Whooters"
      ],
      "costumes": [
        "Model_van_Whooters"
      ]
    },
    {
      "level": 32,
      "experience": 0,
      "display_names": [
        "Maemae van Whooters"
      ],
      "costumes": [
        "Model_van_Whooters"
      ]
    },
    {
      "level": 33,
      "experience": 0,
      "display_names": [
        "Maemae van Whooters"
      ],
      "costumes": [
        "Model_van_Whooters"
      ]
    },
    {
      "level": 34,
      "experience": 0,
      "display_names": [
        "Maemae van Whooters"
      ],
      "costumes": [
        "Model_van_Whooters"
      ]
    },
    {
      "level": 35,
      "experience": 0,
      "display_names": [
        "Maemae van Whooters"
      ],
      "costumes": [
        "Model_van_Whooters"
      ]
    },
    {
      "level": 36,
      "experience": 0,
      "display_names": [
        "Maemae van Whooters"
      ],
      "costumes": [
        "Model_van_Whooters"
      ]
    },
    {
      "level": 37,
      "experience": 0,
      "display_names": [
        "Maemae van Whooters"
      ],
      "costumes": [
        "Model_van_Whooters"
      ]
    },
    {
      "level": 38,
      "experience": 0,
      "display_names": [
        "Maemae van Whooters"
      ],
      "costumes": [
        "Model_van_Whooters"
      ]
    },
    {
      "level": 39,
      "experience": 0,
      "display_names": [
        "Maemae van Whooters"
      ],
      "costumes": [
        "Model_van_Whooters"
      ]
    },
    {
      "level": 40,
      "experience": 0,
      "display_names": [
        "Maemae van Whooters"
      ],
      "costumes": [
        "Model_van_Whooters"
      ]
    },
    {
      "level": 41,
      "experience": 0,
      "display_names": [
        "Maemae van Whooters"
      ],
      "costumes": [
        "Model_van_Whooters"
      ]
    },
    {
      "level": 42,
      "experience": 0,
      "display_names": [
        "Maemae van Whooters"
      ],
      "costumes": [
        "Model_van_Whooters"
      ]
    },
    {
      "level": 43,
      "experience": 0,
      "display_names": [
        "Maemae van Whooters"
      ],
      "costumes": [
        "Model_van_Whooters"
      ]
    },
    {
      "level": 44,
      "experience": 0,
      "display_names": [
        "Maemae van Whooters"
      ],
      "costumes": [
        "Model_van_Whooters"
      ]
    },
    {
      "level": 45,
      "experience": 0,
      "display_names": [
        "Maemae van Whooters"
      ],
      "costumes": [
        "Model_van_Whooters"
      ]
    },
    {
      "level": 46,
      "experience": 0,
      "display_names": [
        "Maemae van Whooters"
      ],
      "costumes": [
        "Model_van_Whooters"
      ]
    },
    {
      "level": 47,
      "experience": 0,
      "display_names": [
        "Maemae van Whooters"
      ],
      "costumes": [
        "Model_van_Whooters"
      ]
    },
    {
      "level": 48,
      "experience": 0,
      "display_names": [
        "Maemae van Whooters"
      ],
      "costumes": [
        "Model_van_Whooters"
      ]
    },
    {
      "level": 49,
      "experience": 0,
      "display_names": [
        "Maemae van Whooters"
      ],
      "costumes": [
        "Model_van_Whooters"
      ]
    },
    {
      "level": 50,
      "experience": 0,
      "display_names": [
        "Maemae van Whooters"
      ],
      "costumes": [
        "Model_van_Whooters"
      ]
    },
    {
      "level": 51,
      "experience": 0,
      "display_names": [
        "Maemae van Whooters"
      ],
      "costumes": [
        "Model_van_Whooters"
      ]
    },
    {
      "level": 52,
      "experience": 0,
      "display_names": [
        "Maemae van Whooters"
      ],
      "costumes": [
        "Model_van_Whooters"
      ]
    },
    {
      "level": 53,
      "experience": 0,
      "display_names": [
        "Maemae van Whooters"
      ],
      "costumes": [
        "Model_van_Whooters"
      ]
    },
    {
      "level": 54,
      "experience": 0,
      "display_names": [
        "Maemae van Whooters"
      ],
      "costumes": [
        "Model_van_Whooters"
      ]
    }
  ]
}