{
  "name": "NPC_Pets_MA_Howler_Wolf",
  "gender": "GENDER_NEUTER",
  "description": "Howler Wolves are fierce predators of the wild and have been called to aid you.  They primarily attack with biting jaws in an attempt to cripple their victims.",
  "group_description": "Beast Mastery",
  "display_class_name": null,
  "character_class_name": "minion_henchman",
  "ai_config": "Pets_BeastMastery",
  "commandable_pet": false,
  "power_tags": [
    "Beast"
  ],
  "additional_rewards": [

  ],
  "skill_hp_rewards": [

  ],
  "skill_status_rewards": [

  ],
  "ally": null,
  "gang": null,
  "reward_scale": 1.0,
  "game_exclusion": "None",
  "inactive_state_weapon": null,
  "ignores_combat_mods": false,
  "copy_creator_mods": false,
  "spawn_limit": -1,
  "spawn_limit_mission": -1,
  "ignore_av_to_eb_scaling": false,
  "can_zone": true,
  "custom_badge_stat": null,
  "badge_stat_flags": "DefaultBadgeStat",
  "rank": "VR_PET",
  "power_full_names": [
    "Mission_Maker_Pets.Howler_Wolf.Resistance",
    "Mission_Maker_Pets.Howler_Wolf.Vicious_Bite",
    "Mission_Maker_Pets.Howler_Wolf.Super_Leap",
    "Mission_Maker_Pets.Howler_Wolf.Wild_Charge",
    "Mission_Maker_Pets.Howler_Wolf.Maiming_Bite",
    "Mission_Maker_Pets.Howler_Wolf.Train_Beasts",
    "Mission_Maker_Pets.Howler_Wolf.Howl",
    "Mission_Maker_Pets.Howler_Wolf.Throat_Bite",
    "Mission_Maker_Pets.Howler_Wolf.Tame_Beasts"
  ],
  "power_display_names": [
    "Resistance",
    "Vicious Bite",
    "Super Leap",
    "Wild Charge",
    "Maiming Bite",
    "Train Beasts",
    "Howl",
    "Feral Charge",
    "Tame Beasts"
  ],
  "power_levels": [
    0,
    0,
    0,
    0,
    0,
    0,
    0,
    0,
    0
  ],
  "powers": [
    {
      "power_category": "Mission_Maker_Pets",
      "power_set": "Howler_Wolf",
      "power": "*",
      "level": 0
    }
  ],
  "levels": [
    {
      "level": 1,
      "experience": 0,
      "display_names": [
        "Howler Wolf"
      ],
      "costumes": [
        "Wolf"
      ]
    },
    {
      "level": 2,
      "experience": 0,
      "display_names": [
        "Howler Wolf"
      ],
      "costumes": [
        "Wolf"
      ]
    },
    {
      "level": 3,
      "experience": 0,
      "display_names": [
        "Howler Wolf"
      ],
      "costumes": [
        "Wolf"
      ]
    },
    {
      "level": 4,
      "experience": 0,
      "display_names": [
        "Howler Wolf"
      ],
      "costumes": [
        "Wolf"
      ]
    },
    {
      "level": 5,
      "experience": 0,
      "display_names": [
        "Howler Wolf"
      ],
      "costumes": [
        "Wolf"
      ]
    },
    {
      "level": 6,
      "experience": 0,
      "display_names": [
        "Howler Wolf"
      ],
      "costumes": [
        "Wolf"
      ]
    },
    {
      "level": 7,
      "experience": 0,
      "display_names": [
        "Howler Wolf"
      ],
      "costumes": [
        "Wolf"
      ]
    },
    {
      "level": 8,
      "experience": 0,
      "display_names": [
        "Howler Wolf"
      ],
      "costumes": [
        "Wolf"
      ]
    },
    {
      "level": 9,
      "experience": 0,
      "display_names": [
        "Howler Wolf"
      ],
      "costumes": [
        "Wolf"
      ]
    },
    {
      "level": 10,
      "experience": 0,
      "display_names": [
        "Howler Wolf"
      ],
      "costumes": [
        "Wolf"
      ]
    },
    {
      "level": 11,
      "experience": 0,
      "display_names": [
        "Howler Wolf"
      ],
      "costumes": [
        "Wolf"
      ]
    },
    {
      "level": 12,
      "experience": 0,
      "display_names": [
        "Howler Wolf"
      ],
      "costumes": [
        "Wolf"
      ]
    },
    {
      "level": 13,
      "experience": 0,
      "display_names": [
        "Howler Wolf"
      ],
      "costumes": [
        "Wolf"
      ]
    },
    {
      "level": 14,
      "experience": 0,
      "display_names": [
        "Howler Wolf"
      ],
      "costumes": [
        "Wolf"
      ]
    },
    {
      "level": 15,
      "experience": 0,
      "display_names": [
        "Howler Wolf"
      ],
      "costumes": [
        "Wolf"
      ]
    },
    {
      "level": 16,
      "experience": 0,
      "display_names": [
        "Howler Wolf"
      ],
      "costumes": [
        "Wolf"
      ]
    },
    {
      "level": 17,
      "experience": 0,
      "display_names": [
        "Howler Wolf"
      ],
      "costumes": [
        "Wolf"
      ]
    },
    {
      "level": 18,
      "experience": 0,
      "display_names": [
        "Howler Wolf"
      ],
      "costumes": [
        "Wolf"
      ]
    },
    {
      "level": 19,
      "experience": 0,
      "display_names": [
        "Howler Wolf"
      ],
      "costumes": [
        "Wolf"
      ]
    },
    {
      "level": 20,
      "experience": 0,
      "display_names": [
        "Howler Wolf"
      ],
      "costumes": [
        "Wolf"
      ]
    },
    {
      "level": 21,
      "experience": 0,
      "display_names": [
        "Howler Wolf"
      ],
      "costumes": [
        "Wolf"
      ]
    },
    {
      "level": 22,
      "experience": 0,
      "display_names": [
        "Howler Wolf"
      ],
      "costumes": [
        "Wolf"
      ]
    },
    {
      "level": 23,
      "experience": 0,
      "display_names": [
        "Howler Wolf"
      ],
      "costumes": [
        "Wolf"
      ]
    },
    {
      "level": 24,
      "experience": 0,
      "display_names": [
        "Howler Wolf"
      ],
      "costumes": [
        "Wolf"
      ]
    },
    {
      "level": 25,
      "experience": 0,
      "display_names": [
        "Howler Wolf"
      ],
      "costumes": [
        "Wolf"
      ]
    },
    {
      "level": 26,
      "experience": 0,
      "display_names": [
        "Howler Wolf"
      ],
      "costumes": [
        "Wolf"
      ]
    },
    {
      "level": 27,
      "experience": 0,
      "display_names": [
        "Howler Wolf"
      ],
      "costumes": [
        "Wolf"
      ]
    },
    {
      "level": 28,
      "experience": 0,
      "display_names": [
        "Howler Wolf"
      ],
      "costumes": [
        "Wolf"
      ]
    },
    {
      "level": 29,
      "experience": 0,
      "display_names": [
        "Howler Wolf"
      ],
      "costumes": [
        "Wolf"
      ]
    },
    {
      "level": 30,
      "experience": 0,
      "display_names": [
        "Howler Wolf"
      ],
      "costumes": [
        "Wolf"
      ]
    },
    {
      "level": 31,
      "experience": 0,
      "display_names": [
        "Howler Wolf"
      ],
      "costumes": [
        "Wolf"
      ]
    },
    {
      "level": 32,
      "experience": 0,
      "display_names": [
        "Howler Wolf"
      ],
      "costumes": [
        "Wolf"
      ]
    },
    {
      "level": 33,
      "experience": 0,
      "display_names": [
        "Howler Wolf"
      ],
      "costumes": [
        "Wolf"
      ]
    },
    {
      "level": 34,
      "experience": 0,
      "display_names": [
        "Howler Wolf"
      ],
      "costumes": [
        "Wolf"
      ]
    },
    {
      "level": 35,
      "experience": 0,
      "display_names": [
        "Howler Wolf"
      ],
      "costumes": [
        "Wolf"
      ]
    },
    {
      "level": 36,
      "experience": 0,
      "display_names": [
        "Howler Wolf"
      ],
      "costumes": [
        "Wolf"
      ]
    },
    {
      "level": 37,
      "experience": 0,
      "display_names": [
        "Howler Wolf"
      ],
      "costumes": [
        "Wolf"
      ]
    },
    {
      "level": 38,
      "experience": 0,
      "display_names": [
        "Howler Wolf"
      ],
      "costumes": [
        "Wolf"
      ]
    },
    {
      "level": 39,
      "experience": 0,
      "display_names": [
        "Howler Wolf"
      ],
      "costumes": [
        "Wolf"
      ]
    },
    {
      "level": 40,
      "experience": 0,
      "display_names": [
        "Howler Wolf"
      ],
      "costumes": [
        "Wolf"
      ]
    },
    {
      "level": 41,
      "experience": 0,
      "display_names": [
        "Howler Wolf"
      ],
      "costumes": [
        "Wolf"
      ]
    },
    {
      "level": 42,
      "experience": 0,
      "display_names": [
        "Howler Wolf"
      ],
      "costumes": [
        "Wolf"
      ]
    },
    {
      "level": 43,
      "experience": 0,
      "display_names": [
        "Howler Wolf"
      ],
      "costumes": [
        "Wolf"
      ]
    },
    {
      "level": 44,
      "experience": 0,
      "display_names": [
        "Howler Wolf"
      ],
      "costumes": [
        "Wolf"
      ]
    },
    {
      "level": 45,
      "experience": 0,
      "display_names": [
        "Howler Wolf"
      ],
      "costumes": [
        "Wolf"
      ]
    },
    {
      "level": 46,
      "experience": 0,
      "display_names": [
        "Howler Wolf"
      ],
      "costumes": [
        "Wolf"
      ]
    },
    {
      "level": 47,
      "experience": 0,
      "display_names": [
        "Howler Wolf"
      ],
      "costumes": [
        "Wolf"
      ]
    },
    {
      "level": 48,
      "experience": 0,
      "display_names": [
        "Howler Wolf"
      ],
      "costumes": [
        "Wolf"
      ]
    },
    {
      "level": 49,
      "experience": 0,
      "display_names": [
        "Howler Wolf"
      ],
      "costumes": [
        "Wolf"
      ]
    },
    {
      "level": 50,
      "experience": 0,
      "display_names": [
        "Howler Wolf"
      ],
      "costumes": [
        "Wolf"
      ]
    },
    {
      "level": 51,
      "experience": 0,
      "display_names": [
        "Howler Wolf"
      ],
      "costumes": [
        "Wolf"
      ]
    },
    {
      "level": 52,
      "experience": 0,
      "display_names": [
        "Howler Wolf"
      ],
      "costumes": [
        "Wolf"
      ]
    },
    {
      "level": 53,
      "experience": 0,
      "display_names": [
        "Howler Wolf"
      ],
      "costumes": [
        "Wolf"
      ]
    },
    {
      "level": 54,
      "experience": 0,
      "display_names": [
        "Howler Wolf"
      ],
      "costumes": [
        "Wolf"
      ]
    }
  ]
}