{
  "name": "NPC_Pets_MA_Droid",
  "gender": "GENDER_NEUTER",
  "description": "Only a the most insidious Mastermind could construct such an army.  Cold and relentless, these Drones obey only one voice, and will execute any order without hesitation.",
  "group_description": "Robotics",
  "display_class_name": null,
  "character_class_name": "minion_henchman",
  "ai_config": "Pets_Ranged",
  "commandable_pet": false,
  "power_tags": [
    "Electronic"
  ],
  "additional_rewards": [

  ],
  "skill_hp_rewards": [

  ],
  "skill_status_rewards": [

  ],
  "ally": null,
  "gang": null,
  "reward_scale": 1.0,
  "game_exclusion": "None",
  "inactive_state_weapon": null,
  "ignores_combat_mods": false,
  "copy_creator_mods": false,
  "spawn_limit": -1,
  "spawn_limit_mission": -1,
  "ignore_av_to_eb_scaling": false,
  "can_zone": false,
  "custom_badge_stat": null,
  "badge_stat_flags": "DefaultBadgeStat",
  "rank": "VR_PET",
  "power_full_names": [
    "Mission_Maker_Pets.Droid.Resistance",
    "Mission_Maker_Pets.Droid.Super_Leap",
    "Mission_Maker_Pets.Droid.Laser_Burst",
    "Mission_Maker_Pets.Droid.Smash",
    "Mission_Maker_Pets.Droid.Heavy_Laser_Burst",
    "Mission_Maker_Pets.Droid.Equip",
    "Mission_Maker_Pets.Droid.Full_Auto_Laser",
    "Mission_Maker_Pets.Droid.Upgrade"
  ],
  "power_display_names": [
    "Resistance",
    "Super Leap",
    "Laser Burst",
    "Smash",
    "Heavy Laser Burst",
    "Equip",
    "Full Auto Laser",
    "Upgrade"
  ],
  "power_levels": [
    0,
    0,
    0,
    0,
    0,
    0,
    0,
    0
  ],
  "powers": [
    {
      "power_category": "Mission_Maker_Pets",
      "power_set": "Droid",
      "power": "*",
      "level": 0
    }
  ],
  "levels": [
    {
      "level": 1,
      "experience": 0,
      "display_names": [
        "Battle Drone"
      ],
      "costumes": [
        "Mastermind_Soldier_Bot"
      ]
    },
    {
      "level": 2,
      "experience": 0,
      "display_names": [
        "Battle Drone"
      ],
      "costumes": [
        "Mastermind_Soldier_Bot"
      ]
    },
    {
      "level": 3,
      "experience": 0,
      "display_names": [
        "Battle Drone"
      ],
      "costumes": [
        "Mastermind_Soldier_Bot"
      ]
    },
    {
      "level": 4,
      "experience": 0,
      "display_names": [
        "Battle Drone"
      ],
      "costumes": [
        "Mastermind_Soldier_Bot"
      ]
    },
    {
      "level": 5,
      "experience": 0,
      "display_names": [
        "Battle Drone"
      ],
      "costumes": [
        "Mastermind_Soldier_Bot"
      ]
    },
    {
      "level": 6,
      "experience": 0,
      "display_names": [
        "Battle Drone"
      ],
      "costumes": [
        "Mastermind_Soldier_Bot"
      ]
    },
    {
      "level": 7,
      "experience": 0,
      "display_names": [
        "Battle Drone"
      ],
      "costumes": [
        "Mastermind_Soldier_Bot"
      ]
    },
    {
      "level": 8,
      "experience": 0,
      "display_names": [
        "Battle Drone"
      ],
      "costumes": [
        "Mastermind_Soldier_Bot"
      ]
    },
    {
      "level": 9,
      "experience": 0,
      "display_names": [
        "Battle Drone"
      ],
      "costumes": [
        "Mastermind_Soldier_Bot"
      ]
    },
    {
      "level": 10,
      "experience": 0,
      "display_names": [
        "Battle Drone"
      ],
      "costumes": [
        "Mastermind_Soldier_Bot"
      ]
    },
    {
      "level": 11,
      "experience": 0,
      "display_names": [
        "Battle Drone"
      ],
      "costumes": [
        "Mastermind_Soldier_Bot"
      ]
    },
    {
      "level": 12,
      "experience": 0,
      "display_names": [
        "Battle Drone"
      ],
      "costumes": [
        "Mastermind_Soldier_Bot"
      ]
    },
    {
      "level": 13,
      "experience": 0,
      "display_names": [
        "Battle Drone"
      ],
      "costumes": [
        "Mastermind_Soldier_Bot"
      ]
    },
    {
      "level": 14,
      "experience": 0,
      "display_names": [
        "Battle Drone"
      ],
      "costumes": [
        "Mastermind_Soldier_Bot"
      ]
    },
    {
      "level": 15,
      "experience": 0,
      "display_names": [
        "Battle Drone"
      ],
      "costumes": [
        "Mastermind_Soldier_Bot"
      ]
    },
    {
      "level": 16,
      "experience": 0,
      "display_names": [
        "Battle Drone"
      ],
      "costumes": [
        "Mastermind_Soldier_Bot"
      ]
    },
    {
      "level": 17,
      "experience": 0,
      "display_names": [
        "Battle Drone"
      ],
      "costumes": [
        "Mastermind_Soldier_Bot"
      ]
    },
    {
      "level": 18,
      "experience": 0,
      "display_names": [
        "Battle Drone"
      ],
      "costumes": [
        "Mastermind_Soldier_Bot"
      ]
    },
    {
      "level": 19,
      "experience": 0,
      "display_names": [
        "Battle Drone"
      ],
      "costumes": [
        "Mastermind_Soldier_Bot"
      ]
    },
    {
      "level": 20,
      "experience": 0,
      "display_names": [
        "Battle Drone"
      ],
      "costumes": [
        "Mastermind_Soldier_Bot"
      ]
    },
    {
      "level": 21,
      "experience": 0,
      "display_names": [
        "Battle Drone"
      ],
      "costumes": [
        "Mastermind_Soldier_Bot"
      ]
    },
    {
      "level": 22,
      "experience": 0,
      "display_names": [
        "Battle Drone"
      ],
      "costumes": [
        "Mastermind_Soldier_Bot"
      ]
    },
    {
      "level": 23,
      "experience": 0,
      "display_names": [
        "Battle Drone"
      ],
      "costumes": [
        "Mastermind_Soldier_Bot"
      ]
    },
    {
      "level": 24,
      "experience": 0,
      "display_names": [
        "Battle Drone"
      ],
      "costumes": [
        "Mastermind_Soldier_Bot"
      ]
    },
    {
      "level": 25,
      "experience": 0,
      "display_names": [
        "Battle Drone"
      ],
      "costumes": [
        "Mastermind_Soldier_Bot"
      ]
    },
    {
      "level": 26,
      "experience": 0,
      "display_names": [
        "Battle Drone"
      ],
      "costumes": [
        "Mastermind_Soldier_Bot"
      ]
    },
    {
      "level": 27,
      "experience": 0,
      "display_names": [
        "Battle Drone"
      ],
      "costumes": [
        "Mastermind_Soldier_Bot"
      ]
    },
    {
      "level": 28,
      "experience": 0,
      "display_names": [
        "Battle Drone"
      ],
      "costumes": [
        "Mastermind_Soldier_Bot"
      ]
    },
    {
      "level": 29,
      "experience": 0,
      "display_names": [
        "Battle Drone"
      ],
      "costumes": [
        "Mastermind_Soldier_Bot"
      ]
    },
    {
      "level": 30,
      "experience": 0,
      "display_names": [
        "Battle Drone"
      ],
      "costumes": [
        "Mastermind_Soldier_Bot"
      ]
    },
    {
      "level": 31,
      "experience": 0,
      "display_names": [
        "Battle Drone"
      ],
      "costumes": [
        "Mastermind_Soldier_Bot"
      ]
    },
    {
      "level": 32,
      "experience": 0,
      "display_names": [
        "Battle Drone"
      ],
      "costumes": [
        "Mastermind_Soldier_Bot"
      ]
    },
    {
      "level": 33,
      "experience": 0,
      "display_names": [
        "Battle Drone"
      ],
      "costumes": [
        "Mastermind_Soldier_Bot"
      ]
    },
    {
      "level": 34,
      "experience": 0,
      "display_names": [
        "Battle Drone"
      ],
      "costumes": [
        "Mastermind_Soldier_Bot"
      ]
    },
    {
      "level": 35,
      "experience": 0,
      "display_names": [
        "Battle Drone"
      ],
      "costumes": [
        "Mastermind_Soldier_Bot"
      ]
    },
    {
      "level": 36,
      "experience": 0,
      "display_names": [
        "Battle Drone"
      ],
      "costumes": [
        "Mastermind_Soldier_Bot"
      ]
    },
    {
      "level": 37,
      "experience": 0,
      "display_names": [
        "Battle Drone"
      ],
      "costumes": [
        "Mastermind_Soldier_Bot"
      ]
    },
    {
      "level": 38,
      "experience": 0,
      "display_names": [
        "Battle Drone"
      ],
      "costumes": [
        "Mastermind_Soldier_Bot"
      ]
    },
    {
      "level": 39,
      "experience": 0,
      "display_names": [
        "Battle Drone"
      ],
      "costumes": [
        "Mastermind_Soldier_Bot"
      ]
    },
    {
      "level": 40,
      "experience": 0,
      "display_names": [
        "Battle Drone"
      ],
      "costumes": [
        "Mastermind_Soldier_Bot"
      ]
    },
    {
      "level": 41,
      "experience": 0,
      "display_names": [
        "Battle Drone"
      ],
      "costumes": [
        "Mastermind_Soldier_Bot"
      ]
    },
    {
      "level": 42,
      "experience": 0,
      "display_names": [
        "Battle Drone"
      ],
      "costumes": [
        "Mastermind_Soldier_Bot"
      ]
    },
    {
      "level": 43,
      "experience": 0,
      "display_names": [
        "Battle Drone"
      ],
      "costumes": [
        "Mastermind_Soldier_Bot"
      ]
    },
    {
      "level": 44,
      "experience": 0,
      "display_names": [
        "Battle Drone"
      ],
      "costumes": [
        "Mastermind_Soldier_Bot"
      ]
    },
    {
      "level": 45,
      "experience": 0,
      "display_names": [
        "Battle Drone"
      ],
      "costumes": [
        "Mastermind_Soldier_Bot"
      ]
    },
    {
      "level": 46,
      "experience": 0,
      "display_names": [
        "Battle Drone"
      ],
      "costumes": [
        "Mastermind_Soldier_Bot"
      ]
    },
    {
      "level": 47,
      "experience": 0,
      "display_names": [
        "Battle Drone"
      ],
      "costumes": [
        "Mastermind_Soldier_Bot"
      ]
    },
    {
      "level": 48,
      "experience": 0,
      "display_names": [
        "Battle Drone"
      ],
      "costumes": [
        "Mastermind_Soldier_Bot"
      ]
    },
    {
      "level": 49,
      "experience": 0,
      "display_names": [
        "Battle Drone"
      ],
      "costumes": [
        "Mastermind_Soldier_Bot"
      ]
    },
    {
      "level": 50,
      "experience": 0,
      "display_names": [
        "Battle Drone"
      ],
      "costumes": [
        "Mastermind_Soldier_Bot"
      ]
    },
    {
      "level": 51,
      "experience": 0,
      "display_names": [
        "Battle Drone"
      ],
      "costumes": [
        "Mastermind_Soldier_Bot"
      ]
    },
    {
      "level": 52,
      "experience": 0,
      "display_names": [
        "Battle Drone"
      ],
      "costumes": [
        "Mastermind_Soldier_Bot"
      ]
    },
    {
      "level": 53,
      "experience": 0,
      "display_names": [
        "Battle Drone"
      ],
      "costumes": [
        "Mastermind_Soldier_Bot"
      ]
    },
    {
      "level": 54,
      "experience": 0,
      "display_names": [
        "Battle Drone"
      ],
      "costumes": [
        "Mastermind_Soldier_Bot"
      ]
    }
  ]
}