{
  "name": "NPC_Pets_MA_Soldier",
  "gender": "GENDER_MALE",
  "description": "Although a mercenary, the Soldier's training makes him extremely loyal and will follow his orders to his death. The Soldier is a grunt, and has no qualms about getting his hands dirty.",
  "group_description": "Mercenaries",
  "display_class_name": null,
  "character_class_name": "minion_henchman",
  "ai_config": "Pets_Ranged",
  "commandable_pet": false,
  "power_tags": [
    "HumanSkeleton",
    "Human"
  ],
  "additional_rewards": [

  ],
  "skill_hp_rewards": [

  ],
  "skill_status_rewards": [

  ],
  "ally": null,
  "gang": null,
  "reward_scale": 1.0,
  "game_exclusion": "None",
  "inactive_state_weapon": null,
  "ignores_combat_mods": false,
  "copy_creator_mods": false,
  "spawn_limit": -1,
  "spawn_limit_mission": -1,
  "ignore_av_to_eb_scaling": false,
  "can_zone": false,
  "custom_badge_stat": null,
  "badge_stat_flags": "DefaultBadgeStat",
  "rank": "VR_PET",
  "power_full_names": [
    "Mission_Maker_Pets.Soldier.Resistance",
    "Mission_Maker_Pets.Soldier.Brawl",
    "Mission_Maker_Pets.Soldier.Super_Leap",
    "Mission_Maker_Pets.Soldier.Equip",
    "Mission_Maker_Pets.Soldier.Assault_Rifle_Auto_Fire",
    "Mission_Maker_Pets.Soldier.Assault_Rifle_Burst",
    "Mission_Maker_Pets.Soldier.Assault_Rifle_Heavy_Burst",
    "Mission_Maker_Pets.Soldier.Tactical_Upgrade"
  ],
  "power_display_names": [
    "Resistance",
    "Brawl",
    "Super Leap",
    "Equip",
    "Assault Rifle Auto Fire",
    "Assault Rifle Burst",
    "Assault Rifle Heavy Burst",
    "Tactical Upgrade"
  ],
  "power_levels": [
    0,
    0,
    0,
    0,
    0,
    0,
    0,
    0
  ],
  "powers": [
    {
      "power_category": "Mission_Maker_Pets",
      "power_set": "Soldier",
      "power": "*",
      "level": 0
    }
  ],
  "levels": [
    {
      "level": 1,
      "experience": 0,
      "display_names": [
        "Soldier"
      ],
      "costumes": [
        "Mastermind_Military_Private_01",
        "Mastermind_Military_Private_02",
        "Mastermind_Military_Private_03",
        "Mastermind_Military_Private_04",
        "Mastermind_Military_Private_05"
      ]
    },
    {
      "level": 2,
      "experience": 0,
      "display_names": [
        "Soldier"
      ],
      "costumes": [
        "Mastermind_Military_Private_01",
        "Mastermind_Military_Private_02",
        "Mastermind_Military_Private_03",
        "Mastermind_Military_Private_04",
        "Mastermind_Military_Private_05"
      ]
    },
    {
      "level": 3,
      "experience": 0,
      "display_names": [
        "Soldier"
      ],
      "costumes": [
        "Mastermind_Military_Private_01",
        "Mastermind_Military_Private_02",
        "Mastermind_Military_Private_03",
        "Mastermind_Military_Private_04",
        "Mastermind_Military_Private_05"
      ]
    },
    {
      "level": 4,
      "experience": 0,
      "display_names": [
        "Soldier"
      ],
      "costumes": [
        "Mastermind_Military_Private_01",
        "Mastermind_Military_Private_02",
        "Mastermind_Military_Private_03",
        "Mastermind_Military_Private_04",
        "Mastermind_Military_Private_05"
      ]
    },
    {
      "level": 5,
      "experience": 0,
      "display_names": [
        "Soldier"
      ],
      "costumes": [
        "Mastermind_Military_Private_01",
        "Mastermind_Military_Private_02",
        "Mastermind_Military_Private_03",
        "Mastermind_Military_Private_04",
        "Mastermind_Military_Private_05"
      ]
    },
    {
      "level": 6,
      "experience": 0,
      "display_names": [
        "Soldier"
      ],
      "costumes": [
        "Mastermind_Military_Private_01",
        "Mastermind_Military_Private_02",
        "Mastermind_Military_Private_03",
        "Mastermind_Military_Private_04",
        "Mastermind_Military_Private_05"
      ]
    },
    {
      "level": 7,
      "experience": 0,
      "display_names": [
        "Soldier"
      ],
      "costumes": [
        "Mastermind_Military_Private_01",
        "Mastermind_Military_Private_02",
        "Mastermind_Military_Private_03",
        "Mastermind_Military_Private_04",
        "Mastermind_Military_Private_05"
      ]
    },
    {
      "level": 8,
      "experience": 0,
      "display_names": [
        "Soldier"
      ],
      "costumes": [
        "Mastermind_Military_Private_01",
        "Mastermind_Military_Private_02",
        "Mastermind_Military_Private_03",
        "Mastermind_Military_Private_04",
        "Mastermind_Military_Private_05"
      ]
    },
    {
      "level": 9,
      "experience": 0,
      "display_names": [
        "Soldier"
      ],
      "costumes": [
        "Mastermind_Military_Private_01",
        "Mastermind_Military_Private_02",
        "Mastermind_Military_Private_03",
        "Mastermind_Military_Private_04",
        "Mastermind_Military_Private_05"
      ]
    },
    {
      "level": 10,
      "experience": 0,
      "display_names": [
        "Soldier"
      ],
      "costumes": [
        "Mastermind_Military_Private_01",
        "Mastermind_Military_Private_02",
        "Mastermind_Military_Private_03",
        "Mastermind_Military_Private_04",
        "Mastermind_Military_Private_05"
      ]
    },
    {
      "level": 11,
      "experience": 0,
      "display_names": [
        "Soldier"
      ],
      "costumes": [
        "Mastermind_Military_Private_01",
        "Mastermind_Military_Private_02",
        "Mastermind_Military_Private_03",
        "Mastermind_Military_Private_04",
        "Mastermind_Military_Private_05"
      ]
    },
    {
      "level": 12,
      "experience": 0,
      "display_names": [
        "Soldier"
      ],
      "costumes": [
        "Mastermind_Military_Private_01",
        "Mastermind_Military_Private_02",
        "Mastermind_Military_Private_03",
        "Mastermind_Military_Private_04",
        "Mastermind_Military_Private_05"
      ]
    },
    {
      "level": 13,
      "experience": 0,
      "display_names": [
        "Soldier"
      ],
      "costumes": [
        "Mastermind_Military_Private_01",
        "Mastermind_Military_Private_02",
        "Mastermind_Military_Private_03",
        "Mastermind_Military_Private_04",
        "Mastermind_Military_Private_05"
      ]
    },
    {
      "level": 14,
      "experience": 0,
      "display_names": [
        "Soldier"
      ],
      "costumes": [
        "Mastermind_Military_Private_01",
        "Mastermind_Military_Private_02",
        "Mastermind_Military_Private_03",
        "Mastermind_Military_Private_04",
        "Mastermind_Military_Private_05"
      ]
    },
    {
      "level": 15,
      "experience": 0,
      "display_names": [
        "Soldier"
      ],
      "costumes": [
        "Mastermind_Military_Private_01",
        "Mastermind_Military_Private_02",
        "Mastermind_Military_Private_03",
        "Mastermind_Military_Private_04",
        "Mastermind_Military_Private_05"
      ]
    },
    {
      "level": 16,
      "experience": 0,
      "display_names": [
        "Soldier"
      ],
      "costumes": [
        "Mastermind_Military_Private_01",
        "Mastermind_Military_Private_02",
        "Mastermind_Military_Private_03",
        "Mastermind_Military_Private_04",
        "Mastermind_Military_Private_05"
      ]
    },
    {
      "level": 17,
      "experience": 0,
      "display_names": [
        "Soldier"
      ],
      "costumes": [
        "Mastermind_Military_Private_01",
        "Mastermind_Military_Private_02",
        "Mastermind_Military_Private_03",
        "Mastermind_Military_Private_04",
        "Mastermind_Military_Private_05"
      ]
    },
    {
      "level": 18,
      "experience": 0,
      "display_names": [
        "Soldier"
      ],
      "costumes": [
        "Mastermind_Military_Private_01",
        "Mastermind_Military_Private_02",
        "Mastermind_Military_Private_03",
        "Mastermind_Military_Private_04",
        "Mastermind_Military_Private_05"
      ]
    },
    {
      "level": 19,
      "experience": 0,
      "display_names": [
        "Soldier"
      ],
      "costumes": [
        "Mastermind_Military_Private_01",
        "Mastermind_Military_Private_02",
        "Mastermind_Military_Private_03",
        "Mastermind_Military_Private_04",
        "Mastermind_Military_Private_05"
      ]
    },
    {
      "level": 20,
      "experience": 0,
      "display_names": [
        "Soldier"
      ],
      "costumes": [
        "Mastermind_Military_Private_01",
        "Mastermind_Military_Private_02",
        "Mastermind_Military_Private_03",
        "Mastermind_Military_Private_04",
        "Mastermind_Military_Private_05"
      ]
    },
    {
      "level": 21,
      "experience": 0,
      "display_names": [
        "Soldier"
      ],
      "costumes": [
        "Mastermind_Military_Private_01",
        "Mastermind_Military_Private_02",
        "Mastermind_Military_Private_03",
        "Mastermind_Military_Private_04",
        "Mastermind_Military_Private_05"
      ]
    },
    {
      "level": 22,
      "experience": 0,
      "display_names": [
        "Soldier"
      ],
      "costumes": [
        "Mastermind_Military_Private_01",
        "Mastermind_Military_Private_02",
        "Mastermind_Military_Private_03",
        "Mastermind_Military_Private_04",
        "Mastermind_Military_Private_05"
      ]
    },
    {
      "level": 23,
      "experience": 0,
      "display_names": [
        "Soldier"
      ],
      "costumes": [
        "Mastermind_Military_Private_01",
        "Mastermind_Military_Private_02",
        "Mastermind_Military_Private_03",
        "Mastermind_Military_Private_04",
        "Mastermind_Military_Private_05"
      ]
    },
    {
      "level": 24,
      "experience": 0,
      "display_names": [
        "Soldier"
      ],
      "costumes": [
        "Mastermind_Military_Private_01",
        "Mastermind_Military_Private_02",
        "Mastermind_Military_Private_03",
        "Mastermind_Military_Private_04",
        "Mastermind_Military_Private_05"
      ]
    },
    {
      "level": 25,
      "experience": 0,
      "display_names": [
        "Soldier"
      ],
      "costumes": [
        "Mastermind_Military_Private_01",
        "Mastermind_Military_Private_02",
        "Mastermind_Military_Private_03",
        "Mastermind_Military_Private_04",
        "Mastermind_Military_Private_05"
      ]
    },
    {
      "level": 26,
      "experience": 0,
      "display_names": [
        "Soldier"
      ],
      "costumes": [
        "Mastermind_Military_Private_01",
        "Mastermind_Military_Private_02",
        "Mastermind_Military_Private_03",
        "Mastermind_Military_Private_04",
        "Mastermind_Military_Private_05"
      ]
    },
    {
      "level": 27,
      "experience": 0,
      "display_names": [
        "Soldier"
      ],
      "costumes": [
        "Mastermind_Military_Private_01",
        "Mastermind_Military_Private_02",
        "Mastermind_Military_Private_03",
        "Mastermind_Military_Private_04",
        "Mastermind_Military_Private_05"
      ]
    },
    {
      "level": 28,
      "experience": 0,
      "display_names": [
        "Soldier"
      ],
      "costumes": [
        "Mastermind_Military_Private_01",
        "Mastermind_Military_Private_02",
        "Mastermind_Military_Private_03",
        "Mastermind_Military_Private_04",
        "Mastermind_Military_Private_05"
      ]
    },
    {
      "level": 29,
      "experience": 0,
      "display_names": [
        "Soldier"
      ],
      "costumes": [
        "Mastermind_Military_Private_01",
        "Mastermind_Military_Private_02",
        "Mastermind_Military_Private_03",
        "Mastermind_Military_Private_04",
        "Mastermind_Military_Private_05"
      ]
    },
    {
      "level": 30,
      "experience": 0,
      "display_names": [
        "Soldier"
      ],
      "costumes": [
        "Mastermind_Military_Private_01",
        "Mastermind_Military_Private_02",
        "Mastermind_Military_Private_03",
        "Mastermind_Military_Private_04",
        "Mastermind_Military_Private_05"
      ]
    },
    {
      "level": 31,
      "experience": 0,
      "display_names": [
        "Soldier"
      ],
      "costumes": [
        "Mastermind_Military_Private_01",
        "Mastermind_Military_Private_02",
        "Mastermind_Military_Private_03",
        "Mastermind_Military_Private_04",
        "Mastermind_Military_Private_05"
      ]
    },
    {
      "level": 32,
      "experience": 0,
      "display_names": [
        "Soldier"
      ],
      "costumes": [
        "Mastermind_Military_Private_01",
        "Mastermind_Military_Private_02",
        "Mastermind_Military_Private_03",
        "Mastermind_Military_Private_04",
        "Mastermind_Military_Private_05"
      ]
    },
    {
      "level": 33,
      "experience": 0,
      "display_names": [
        "Soldier"
      ],
      "costumes": [
        "Mastermind_Military_Private_01",
        "Mastermind_Military_Private_02",
        "Mastermind_Military_Private_03",
        "Mastermind_Military_Private_04",
        "Mastermind_Military_Private_05"
      ]
    },
    {
      "level": 34,
      "experience": 0,
      "display_names": [
        "Soldier"
      ],
      "costumes": [
        "Mastermind_Military_Private_01",
        "Mastermind_Military_Private_02",
        "Mastermind_Military_Private_03",
        "Mastermind_Military_Private_04",
        "Mastermind_Military_Private_05"
      ]
    },
    {
      "level": 35,
      "experience": 0,
      "display_names": [
        "Soldier"
      ],
      "costumes": [
        "Mastermind_Military_Private_01",
        "Mastermind_Military_Private_02",
        "Mastermind_Military_Private_03",
        "Mastermind_Military_Private_04",
        "Mastermind_Military_Private_05"
      ]
    },
    {
      "level": 36,
      "experience": 0,
      "display_names": [
        "Soldier"
      ],
      "costumes": [
        "Mastermind_Military_Private_01",
        "Mastermind_Military_Private_02",
        "Mastermind_Military_Private_03",
        "Mastermind_Military_Private_04",
        "Mastermind_Military_Private_05"
      ]
    },
    {
      "level": 37,
      "experience": 0,
      "display_names": [
        "Soldier"
      ],
      "costumes": [
        "Mastermind_Military_Private_01",
        "Mastermind_Military_Private_02",
        "Mastermind_Military_Private_03",
        "Mastermind_Military_Private_04",
        "Mastermind_Military_Private_05"
      ]
    },
    {
      "level": 38,
      "experience": 0,
      "display_names": [
        "Soldier"
      ],
      "costumes": [
        "Mastermind_Military_Private_01",
        "Mastermind_Military_Private_02",
        "Mastermind_Military_Private_03",
        "Mastermind_Military_Private_04",
        "Mastermind_Military_Private_05"
      ]
    },
    {
      "level": 39,
      "experience": 0,
      "display_names": [
        "Soldier"
      ],
      "costumes": [
        "Mastermind_Military_Private_01",
        "Mastermind_Military_Private_02",
        "Mastermind_Military_Private_03",
        "Mastermind_Military_Private_04",
        "Mastermind_Military_Private_05"
      ]
    },
    {
      "level": 40,
      "experience": 0,
      "display_names": [
        "Soldier"
      ],
      "costumes": [
        "Mastermind_Military_Private_01",
        "Mastermind_Military_Private_02",
        "Mastermind_Military_Private_03",
        "Mastermind_Military_Private_04",
        "Mastermind_Military_Private_05"
      ]
    },
    {
      "level": 41,
      "experience": 0,
      "display_names": [
        "Soldier"
      ],
      "costumes": [
        "Mastermind_Military_Private_01",
        "Mastermind_Military_Private_02",
        "Mastermind_Military_Private_03",
        "Mastermind_Military_Private_04",
        "Mastermind_Military_Private_05"
      ]
    },
    {
      "level": 42,
      "experience": 0,
      "display_names": [
        "Soldier"
      ],
      "costumes": [
        "Mastermind_Military_Private_01",
        "Mastermind_Military_Private_02",
        "Mastermind_Military_Private_03",
        "Mastermind_Military_Private_04",
        "Mastermind_Military_Private_05"
      ]
    },
    {
      "level": 43,
      "experience": 0,
      "display_names": [
        "Soldier"
      ],
      "costumes": [
        "Mastermind_Military_Private_01",
        "Mastermind_Military_Private_02",
        "Mastermind_Military_Private_03",
        "Mastermind_Military_Private_04",
        "Mastermind_Military_Private_05"
      ]
    },
    {
      "level": 44,
      "experience": 0,
      "display_names": [
        "Soldier"
      ],
      "costumes": [
        "Mastermind_Military_Private_01",
        "Mastermind_Military_Private_02",
        "Mastermind_Military_Private_03",
        "Mastermind_Military_Private_04",
        "Mastermind_Military_Private_05"
      ]
    },
    {
      "level": 45,
      "experience": 0,
      "display_names": [
        "Soldier"
      ],
      "costumes": [
        "Mastermind_Military_Private_01",
        "Mastermind_Military_Private_02",
        "Mastermind_Military_Private_03",
        "Mastermind_Military_Private_04",
        "Mastermind_Military_Private_05"
      ]
    },
    {
      "level": 46,
      "experience": 0,
      "display_names": [
        "Soldier"
      ],
      "costumes": [
        "Mastermind_Military_Private_01",
        "Mastermind_Military_Private_02",
        "Mastermind_Military_Private_03",
        "Mastermind_Military_Private_04",
        "Mastermind_Military_Private_05"
      ]
    },
    {
      "level": 47,
      "experience": 0,
      "display_names": [
        "Soldier"
      ],
      "costumes": [
        "Mastermind_Military_Private_01",
        "Mastermind_Military_Private_02",
        "Mastermind_Military_Private_03",
        "Mastermind_Military_Private_04",
        "Mastermind_Military_Private_05"
      ]
    },
    {
      "level": 48,
      "experience": 0,
      "display_names": [
        "Soldier"
      ],
      "costumes": [
        "Mastermind_Military_Private_01",
        "Mastermind_Military_Private_02",
        "Mastermind_Military_Private_03",
        "Mastermind_Military_Private_04",
        "Mastermind_Military_Private_05"
      ]
    },
    {
      "level": 49,
      "experience": 0,
      "display_names": [
        "Soldier"
      ],
      "costumes": [
        "Mastermind_Military_Private_01",
        "Mastermind_Military_Private_02",
        "Mastermind_Military_Private_03",
        "Mastermind_Military_Private_04",
        "Mastermind_Military_Private_05"
      ]
    },
    {
      "level": 50,
      "experience": 0,
      "display_names": [
        "Soldier"
      ],
      "costumes": [
        "Mastermind_Military_Private_01",
        "Mastermind_Military_Private_02",
        "Mastermind_Military_Private_03",
        "Mastermind_Military_Private_04",
        "Mastermind_Military_Private_05"
      ]
    },
    {
      "level": 51,
      "experience": 0,
      "display_names": [
        "Soldier"
      ],
      "costumes": [
        "Mastermind_Military_Private_01",
        "Mastermind_Military_Private_02",
        "Mastermind_Military_Private_03",
        "Mastermind_Military_Private_04",
        "Mastermind_Military_Private_05"
      ]
    },
    {
      "level": 52,
      "experience": 0,
      "display_names": [
        "Soldier"
      ],
      "costumes": [
        "Mastermind_Military_Private_01",
        "Mastermind_Military_Private_02",
        "Mastermind_Military_Private_03",
        "Mastermind_Military_Private_04",
        "Mastermind_Military_Private_05"
      ]
    },
    {
      "level": 53,
      "experience": 0,
      "display_names": [
        "Soldier"
      ],
      "costumes": [
        "Mastermind_Military_Private_01",
        "Mastermind_Military_Private_02",
        "Mastermind_Military_Private_03",
        "Mastermind_Military_Private_04",
        "Mastermind_Military_Private_05"
      ]
    },
    {
      "level": 54,
      "experience": 0,
      "display_names": [
        "Soldier"
      ],
      "costumes": [
        "Mastermind_Military_Private_01",
        "Mastermind_Military_Private_02",
        "Mastermind_Military_Private_03",
        "Mastermind_Military_Private_04",
        "Mastermind_Military_Private_05"
      ]
    }
  ]
}