{
  "name": "NPC_Civilians_Chance_McKnight",
  "gender": "GENDER_MALE",
  "description": "Chance McKnight is one of the most dedicated officers in the Ministry of Intelligence. He's taken on the responsibility of going undercover into the Syndicate, doing questionable acts that go against everything he believes in in order to get a chance to accomplishing something greater; the arrest of the Syndicate's shadowy leaders. For the past six months McKnight has worked his way up the ladder of leadership and is very close to accomplishing his goal.",
  "group_description": "Praetorian Police",
  "display_class_name": "Agent",
  "character_class_name": "boss_grunt",
  "ai_config": "Default_PassiveFollower",
  "commandable_pet": false,
  "power_tags": [
    "HumanSkeleton",
    "Human"
  ],
  "additional_rewards": [

  ],
  "skill_hp_rewards": [

  ],
  "skill_status_rewards": [

  ],
  "ally": null,
  "gang": null,
  "reward_scale": 1.0,
  "game_exclusion": "None",
  "inactive_state_weapon": null,
  "ignores_combat_mods": false,
  "copy_creator_mods": false,
  "spawn_limit": -1,
  "spawn_limit_mission": -1,
  "ignore_av_to_eb_scaling": false,
  "can_zone": false,
  "custom_badge_stat": null,
  "badge_stat_flags": "DefaultBadgeStat",
  "rank": "VR_MINION",
  "power_full_names": [
    "Generic.Brawl.Brawl"
  ],
  "power_display_names": [
    "Brawl"
  ],
  "power_levels": [
    0
  ],
  "powers": [
    {
      "power_category": "Generic",
      "power_set": "Brawl",
      "power": "*",
      "level": 0
    }
  ],
  "levels": [
    {
      "level": 1,
      "experience": 0,
      "display_names": [
        "Chance McKnight"
      ],
      "costumes": [
        "Model_ChanceMcKnight_NoRing"
      ]
    },
    {
      "level": 2,
      "experience": 0,
      "display_names": [
        "Chance McKnight"
      ],
      "costumes": [
        "Model_ChanceMcKnight_NoRing"
      ]
    },
    {
      "level": 3,
      "experience": 0,
      "display_names": [
        "Chance McKnight"
      ],
      "costumes": [
        "Model_ChanceMcKnight_NoRing"
      ]
    },
    {
      "level": 4,
      "experience": 0,
      "display_names": [
        "Chance McKnight"
      ],
      "costumes": [
        "Model_ChanceMcKnight_NoRing"
      ]
    },
    {
      "level": 5,
      "experience": 0,
      "display_names": [
        "Chance McKnight"
      ],
      "costumes": [
        "Model_ChanceMcKnight_NoRing"
      ]
    },
    {
      "level": 6,
      "experience": 0,
      "display_names": [
        "Chance McKnight"
      ],
      "costumes": [
        "Model_ChanceMcKnight_NoRing"
      ]
    },
    {
      "level": 7,
      "experience": 0,
      "display_names": [
        "Chance McKnight"
      ],
      "costumes": [
        "Model_ChanceMcKnight_NoRing"
      ]
    },
    {
      "level": 8,
      "experience": 0,
      "display_names": [
        "Chance McKnight"
      ],
      "costumes": [
        "Model_ChanceMcKnight_NoRing"
      ]
    },
    {
      "level": 9,
      "experience": 0,
      "display_names": [
        "Chance McKnight"
      ],
      "costumes": [
        "Model_ChanceMcKnight_NoRing"
      ]
    },
    {
      "level": 10,
      "experience": 0,
      "display_names": [
        "Chance McKnight"
      ],
      "costumes": [
        "Model_ChanceMcKnight_NoRing"
      ]
    },
    {
      "level": 11,
      "experience": 0,
      "display_names": [
        "Chance McKnight"
      ],
      "costumes": [
        "Model_ChanceMcKnight_NoRing"
      ]
    },
    {
      "level": 12,
      "experience": 0,
      "display_names": [
        "Chance McKnight"
      ],
      "costumes": [
        "Model_ChanceMcKnight_NoRing"
      ]
    },
    {
      "level": 13,
      "experience": 0,
      "display_names": [
        "Chance McKnight"
      ],
      "costumes": [
        "Model_ChanceMcKnight_NoRing"
      ]
    },
    {
      "level": 14,
      "experience": 0,
      "display_names": [
        "Chance McKnight"
      ],
      "costumes": [
        "Model_ChanceMcKnight_NoRing"
      ]
    },
    {
      "level": 15,
      "experience": 0,
      "display_names": [
        "Chance McKnight"
      ],
      "costumes": [
        "Model_ChanceMcKnight_NoRing"
      ]
    },
    {
      "level": 16,
      "experience": 0,
      "display_names": [
        "Chance McKnight"
      ],
      "costumes": [
        "Model_ChanceMcKnight_NoRing"
      ]
    },
    {
      "level": 17,
      "experience": 0,
      "display_names": [
        "Chance McKnight"
      ],
      "costumes": [
        "Model_ChanceMcKnight_NoRing"
      ]
    },
    {
      "level": 18,
      "experience": 0,
      "display_names": [
        "Chance McKnight"
      ],
      "costumes": [
        "Model_ChanceMcKnight_NoRing"
      ]
    },
    {
      "level": 19,
      "experience": 0,
      "display_names": [
        "Chance McKnight"
      ],
      "costumes": [
        "Model_ChanceMcKnight_NoRing"
      ]
    },
    {
      "level": 20,
      "experience": 0,
      "display_names": [
        "Chance McKnight"
      ],
      "costumes": [
        "Model_ChanceMcKnight_NoRing"
      ]
    },
    {
      "level": 21,
      "experience": 0,
      "display_names": [
        "Chance McKnight"
      ],
      "costumes": [
        "Model_ChanceMcKnight_NoRing"
      ]
    },
    {
      "level": 22,
      "experience": 0,
      "display_names": [
        "Chance McKnight"
      ],
      "costumes": [
        "Model_ChanceMcKnight_NoRing"
      ]
    },
    {
      "level": 23,
      "experience": 0,
      "display_names": [
        "Chance McKnight"
      ],
      "costumes": [
        "Model_ChanceMcKnight_NoRing"
      ]
    },
    {
      "level": 24,
      "experience": 0,
      "display_names": [
        "Chance McKnight"
      ],
      "costumes": [
        "Model_ChanceMcKnight_NoRing"
      ]
    },
    {
      "level": 25,
      "experience": 0,
      "display_names": [
        "Chance McKnight"
      ],
      "costumes": [
        "Model_ChanceMcKnight_NoRing"
      ]
    },
    {
      "level": 26,
      "experience": 0,
      "display_names": [
        "Chance McKnight"
      ],
      "costumes": [
        "Model_ChanceMcKnight_NoRing"
      ]
    },
    {
      "level": 27,
      "experience": 0,
      "display_names": [
        "Chance McKnight"
      ],
      "costumes": [
        "Model_ChanceMcKnight_NoRing"
      ]
    },
    {
      "level": 28,
      "experience": 0,
      "display_names": [
        "Chance McKnight"
      ],
      "costumes": [
        "Model_ChanceMcKnight_NoRing"
      ]
    },
    {
      "level": 29,
      "experience": 0,
      "display_names": [
        "Chance McKnight"
      ],
      "costumes": [
        "Model_ChanceMcKnight_NoRing"
      ]
    },
    {
      "level": 30,
      "experience": 0,
      "display_names": [
        "Chance McKnight"
      ],
      "costumes": [
        "Model_ChanceMcKnight_NoRing"
      ]
    },
    {
      "level": 31,
      "experience": 0,
      "display_names": [
        "Chance McKnight"
      ],
      "costumes": [
        "Model_ChanceMcKnight_NoRing"
      ]
    },
    {
      "level": 32,
      "experience": 0,
      "display_names": [
        "Chance McKnight"
      ],
      "costumes": [
        "Model_ChanceMcKnight_NoRing"
      ]
    },
    {
      "level": 33,
      "experience": 0,
      "display_names": [
        "Chance McKnight"
      ],
      "costumes": [
        "Model_ChanceMcKnight_NoRing"
      ]
    },
    {
      "level": 34,
      "experience": 0,
      "display_names": [
        "Chance McKnight"
      ],
      "costumes": [
        "Model_ChanceMcKnight_NoRing"
      ]
    },
    {
      "level": 35,
      "experience": 0,
      "display_names": [
        "Chance McKnight"
      ],
      "costumes": [
        "Model_ChanceMcKnight_NoRing"
      ]
    },
    {
      "level": 36,
      "experience": 0,
      "display_names": [
        "Chance McKnight"
      ],
      "costumes": [
        "Model_ChanceMcKnight_NoRing"
      ]
    },
    {
      "level": 37,
      "experience": 0,
      "display_names": [
        "Chance McKnight"
      ],
      "costumes": [
        "Model_ChanceMcKnight_NoRing"
      ]
    },
    {
      "level": 38,
      "experience": 0,
      "display_names": [
        "Chance McKnight"
      ],
      "costumes": [
        "Model_ChanceMcKnight_NoRing"
      ]
    },
    {
      "level": 39,
      "experience": 0,
      "display_names": [
        "Chance McKnight"
      ],
      "costumes": [
        "Model_ChanceMcKnight_NoRing"
      ]
    },
    {
      "level": 40,
      "experience": 0,
      "display_names": [
        "Chance McKnight"
      ],
      "costumes": [
        "Model_ChanceMcKnight_NoRing"
      ]
    },
    {
      "level": 41,
      "experience": 0,
      "display_names": [
        "Chance McKnight"
      ],
      "costumes": [
        "Model_ChanceMcKnight_NoRing"
      ]
    },
    {
      "level": 42,
      "experience": 0,
      "display_names": [
        "Chance McKnight"
      ],
      "costumes": [
        "Model_ChanceMcKnight_NoRing"
      ]
    },
    {
      "level": 43,
      "experience": 0,
      "display_names": [
        "Chance McKnight"
      ],
      "costumes": [
        "Model_ChanceMcKnight_NoRing"
      ]
    },
    {
      "level": 44,
      "experience": 0,
      "display_names": [
        "Chance McKnight"
      ],
      "costumes": [
        "Model_ChanceMcKnight_NoRing"
      ]
    },
    {
      "level": 45,
      "experience": 0,
      "display_names": [
        "Chance McKnight"
      ],
      "costumes": [
        "Model_ChanceMcKnight_NoRing"
      ]
    },
    {
      "level": 46,
      "experience": 0,
      "display_names": [
        "Chance McKnight"
      ],
      "costumes": [
        "Model_ChanceMcKnight_NoRing"
      ]
    },
    {
      "level": 47,
      "experience": 0,
      "display_names": [
        "Chance McKnight"
      ],
      "costumes": [
        "Model_ChanceMcKnight_NoRing"
      ]
    },
    {
      "level": 48,
      "experience": 0,
      "display_names": [
        "Chance McKnight"
      ],
      "costumes": [
        "Model_ChanceMcKnight_NoRing"
      ]
    },
    {
      "level": 49,
      "experience": 0,
      "display_names": [
        "Chance McKnight"
      ],
      "costumes": [
        "Model_ChanceMcKnight_NoRing"
      ]
    },
    {
      "level": 50,
      "experience": 0,
      "display_names": [
        "Chance McKnight"
      ],
      "costumes": [
        "Model_ChanceMcKnight_NoRing"
      ]
    },
    {
      "level": 51,
      "experience": 0,
      "display_names": [
        "Chance McKnight"
      ],
      "costumes": [
        "Model_ChanceMcKnight_NoRing"
      ]
    },
    {
      "level": 52,
      "experience": 0,
      "display_names": [
        "Chance McKnight"
      ],
      "costumes": [
        "Model_ChanceMcKnight_NoRing"
      ]
    },
    {
      "level": 53,
      "experience": 0,
      "display_names": [
        "Chance McKnight"
      ],
      "costumes": [
        "Model_ChanceMcKnight_NoRing"
      ]
    },
    {
      "level": 54,
      "experience": 0,
      "display_names": [
        "Chance McKnight"
      ],
      "costumes": [
        "Model_ChanceMcKnight_NoRing"
      ]
    }
  ]
}