{
  "name": "Objects_Keyes_Island_Watcher",
  "gender": "GENDER_MALE",
  "description": "This entity destroys itself as soon as it is spawned.  A Script tracks how many are defeated.",
  "group_description": null,
  "display_class_name": null,
  "character_class_name": "minion_grunt",
  "ai_config": "Targetable_Marker",
  "commandable_pet": false,
  "power_tags": [

  ],
  "additional_rewards": [

  ],
  "skill_hp_rewards": [

  ],
  "skill_status_rewards": [

  ],
  "ally": null,
  "gang": null,
  "reward_scale": 1.0,
  "game_exclusion": "None",
  "inactive_state_weapon": null,
  "ignores_combat_mods": true,
  "copy_creator_mods": false,
  "spawn_limit": 0,
  "spawn_limit_mission": 0,
  "ignore_av_to_eb_scaling": false,
  "can_zone": false,
  "custom_badge_stat": null,
  "badge_stat_flags": "DefaultBadgeStat",
  "rank": "VR_DESTRUCTIBLE",
  "power_full_names": [
    "Objects.Inherent.Resistance",
    "Objects.Keyes_Island_Watch.Antimatter_Present",
    "Objects.Keyes_Island_Watch.Drawdown_Hold"
  ],
  "power_display_names": [
    "Resistance",
    "Antimatter Present",
    "Drawdown Hold"
  ],
  "power_levels": [
    0,
    0,
    0
  ],
  "powers": [
    {
      "power_category": "Objects",
      "power_set": "Inherent",
      "power": "*",
      "level": 0
    },
    {
      "power_category": "Objects",
      "power_set": "Keyes_Island_Watch",
      "power": "*",
      "level": 0
    }
  ],
  "levels": [
    {
      "level": 1,
      "experience": 0,
      "display_names": [
        "Keyes Island Watcher"
      ],
      "costumes": [
        "Puddle"
      ]
    },
    {
      "level": 2,
      "experience": 0,
      "display_names": [
        "Keyes Island Watcher"
      ],
      "costumes": [
        "Puddle"
      ]
    },
    {
      "level": 3,
      "experience": 0,
      "display_names": [
        "Keyes Island Watcher"
      ],
      "costumes": [
        "Puddle"
      ]
    },
    {
      "level": 4,
      "experience": 0,
      "display_names": [
        "Keyes Island Watcher"
      ],
      "costumes": [
        "Puddle"
      ]
    },
    {
      "level": 5,
      "experience": 0,
      "display_names": [
        "Keyes Island Watcher"
      ],
      "costumes": [
        "Puddle"
      ]
    },
    {
      "level": 6,
      "experience": 0,
      "display_names": [
        "Keyes Island Watcher"
      ],
      "costumes": [
        "Puddle"
      ]
    },
    {
      "level": 7,
      "experience": 0,
      "display_names": [
        "Keyes Island Watcher"
      ],
      "costumes": [
        "Puddle"
      ]
    },
    {
      "level": 8,
      "experience": 0,
      "display_names": [
        "Keyes Island Watcher"
      ],
      "costumes": [
        "Puddle"
      ]
    },
    {
      "level": 9,
      "experience": 0,
      "display_names": [
        "Keyes Island Watcher"
      ],
      "costumes": [
        "Puddle"
      ]
    },
    {
      "level": 10,
      "experience": 0,
      "display_names": [
        "Keyes Island Watcher"
      ],
      "costumes": [
        "Puddle"
      ]
    },
    {
      "level": 11,
      "experience": 0,
      "display_names": [
        "Keyes Island Watcher"
      ],
      "costumes": [
        "Puddle"
      ]
    },
    {
      "level": 12,
      "experience": 0,
      "display_names": [
        "Keyes Island Watcher"
      ],
      "costumes": [
        "Puddle"
      ]
    },
    {
      "level": 13,
      "experience": 0,
      "display_names": [
        "Keyes Island Watcher"
      ],
      "costumes": [
        "Puddle"
      ]
    },
    {
      "level": 14,
      "experience": 0,
      "display_names": [
        "Keyes Island Watcher"
      ],
      "costumes": [
        "Puddle"
      ]
    },
    {
      "level": 15,
      "experience": 0,
      "display_names": [
        "Keyes Island Watcher"
      ],
      "costumes": [
        "Puddle"
      ]
    },
    {
      "level": 16,
      "experience": 0,
      "display_names": [
        "Keyes Island Watcher"
      ],
      "costumes": [
        "Puddle"
      ]
    },
    {
      "level": 17,
      "experience": 0,
      "display_names": [
        "Keyes Island Watcher"
      ],
      "costumes": [
        "Puddle"
      ]
    },
    {
      "level": 18,
      "experience": 0,
      "display_names": [
        "Keyes Island Watcher"
      ],
      "costumes": [
        "Puddle"
      ]
    },
    {
      "level": 19,
      "experience": 0,
      "display_names": [
        "Keyes Island Watcher"
      ],
      "costumes": [
        "Puddle"
      ]
    },
    {
      "level": 20,
      "experience": 0,
      "display_names": [
        "Keyes Island Watcher"
      ],
      "costumes": [
        "Puddle"
      ]
    },
    {
      "level": 21,
      "experience": 0,
      "display_names": [
        "Keyes Island Watcher"
      ],
      "costumes": [
        "Puddle"
      ]
    },
    {
      "level": 22,
      "experience": 0,
      "display_names": [
        "Keyes Island Watcher"
      ],
      "costumes": [
        "Puddle"
      ]
    },
    {
      "level": 23,
      "experience": 0,
      "display_names": [
        "Keyes Island Watcher"
      ],
      "costumes": [
        "Puddle"
      ]
    },
    {
      "level": 24,
      "experience": 0,
      "display_names": [
        "Keyes Island Watcher"
      ],
      "costumes": [
        "Puddle"
      ]
    },
    {
      "level": 25,
      "experience": 0,
      "display_names": [
        "Keyes Island Watcher"
      ],
      "costumes": [
        "Puddle"
      ]
    },
    {
      "level": 26,
      "experience": 0,
      "display_names": [
        "Keyes Island Watcher"
      ],
      "costumes": [
        "Puddle"
      ]
    },
    {
      "level": 27,
      "experience": 0,
      "display_names": [
        "Keyes Island Watcher"
      ],
      "costumes": [
        "Puddle"
      ]
    },
    {
      "level": 28,
      "experience": 0,
      "display_names": [
        "Keyes Island Watcher"
      ],
      "costumes": [
        "Puddle"
      ]
    },
    {
      "level": 29,
      "experience": 0,
      "display_names": [
        "Keyes Island Watcher"
      ],
      "costumes": [
        "Puddle"
      ]
    },
    {
      "level": 30,
      "experience": 0,
      "display_names": [
        "Keyes Island Watcher"
      ],
      "costumes": [
        "Puddle"
      ]
    },
    {
      "level": 31,
      "experience": 0,
      "display_names": [
        "Keyes Island Watcher"
      ],
      "costumes": [
        "Puddle"
      ]
    },
    {
      "level": 32,
      "experience": 0,
      "display_names": [
        "Keyes Island Watcher"
      ],
      "costumes": [
        "Puddle"
      ]
    },
    {
      "level": 33,
      "experience": 0,
      "display_names": [
        "Keyes Island Watcher"
      ],
      "costumes": [
        "Puddle"
      ]
    },
    {
      "level": 34,
      "experience": 0,
      "display_names": [
        "Keyes Island Watcher"
      ],
      "costumes": [
        "Puddle"
      ]
    },
    {
      "level": 35,
      "experience": 0,
      "display_names": [
        "Keyes Island Watcher"
      ],
      "costumes": [
        "Puddle"
      ]
    },
    {
      "level": 36,
      "experience": 0,
      "display_names": [
        "Keyes Island Watcher"
      ],
      "costumes": [
        "Puddle"
      ]
    },
    {
      "level": 37,
      "experience": 0,
      "display_names": [
        "Keyes Island Watcher"
      ],
      "costumes": [
        "Puddle"
      ]
    },
    {
      "level": 38,
      "experience": 0,
      "display_names": [
        "Keyes Island Watcher"
      ],
      "costumes": [
        "Puddle"
      ]
    },
    {
      "level": 39,
      "experience": 0,
      "display_names": [
        "Keyes Island Watcher"
      ],
      "costumes": [
        "Puddle"
      ]
    },
    {
      "level": 40,
      "experience": 0,
      "display_names": [
        "Keyes Island Watcher"
      ],
      "costumes": [
        "Puddle"
      ]
    },
    {
      "level": 41,
      "experience": 0,
      "display_names": [
        "Keyes Island Watcher"
      ],
      "costumes": [
        "Puddle"
      ]
    },
    {
      "level": 42,
      "experience": 0,
      "display_names": [
        "Keyes Island Watcher"
      ],
      "costumes": [
        "Puddle"
      ]
    },
    {
      "level": 43,
      "experience": 0,
      "display_names": [
        "Keyes Island Watcher"
      ],
      "costumes": [
        "Puddle"
      ]
    },
    {
      "level": 44,
      "experience": 0,
      "display_names": [
        "Keyes Island Watcher"
      ],
      "costumes": [
        "Puddle"
      ]
    },
    {
      "level": 45,
      "experience": 0,
      "display_names": [
        "Keyes Island Watcher"
      ],
      "costumes": [
        "Puddle"
      ]
    },
    {
      "level": 46,
      "experience": 0,
      "display_names": [
        "Keyes Island Watcher"
      ],
      "costumes": [
        "Puddle"
      ]
    },
    {
      "level": 47,
      "experience": 0,
      "display_names": [
        "Keyes Island Watcher"
      ],
      "costumes": [
        "Puddle"
      ]
    },
    {
      "level": 48,
      "experience": 0,
      "display_names": [
        "Keyes Island Watcher"
      ],
      "costumes": [
        "Puddle"
      ]
    },
    {
      "level": 49,
      "experience": 0,
      "display_names": [
        "Keyes Island Watcher"
      ],
      "costumes": [
        "Puddle"
      ]
    },
    {
      "level": 50,
      "experience": 0,
      "display_names": [
        "Keyes Island Watcher"
      ],
      "costumes": [
        "Puddle"
      ]
    },
    {
      "level": 51,
      "experience": 0,
      "display_names": [
        "Keyes Island Watcher"
      ],
      "costumes": [
        "Puddle"
      ]
    },
    {
      "level": 52,
      "experience": 0,
      "display_names": [
        "Keyes Island Watcher"
      ],
      "costumes": [
        "Puddle"
      ]
    },
    {
      "level": 53,
      "experience": 0,
      "display_names": [
        "Keyes Island Watcher"
      ],
      "costumes": [
        "Puddle"
      ]
    },
    {
      "level": 54,
      "experience": 0,
      "display_names": [
        "Keyes Island Watcher"
      ],
      "costumes": [
        "Puddle"
      ]
    }
  ]
}