{
  "name": "Objects_DD_Repulsion_Field",
  "gender": "GENDER_NEUTER",
  "description": "This is the emanation of the repulsion field that surrounds Mot.",
  "group_description": null,
  "display_class_name": null,
  "character_class_name": "minion_unkillablenpc",
  "ai_config": "Awake_Stationary_Untargetable",
  "commandable_pet": false,
  "power_tags": [

  ],
  "additional_rewards": [

  ],
  "skill_hp_rewards": [

  ],
  "skill_status_rewards": [

  ],
  "ally": null,
  "gang": null,
  "reward_scale": 0.0,
  "game_exclusion": "None",
  "inactive_state_weapon": null,
  "ignores_combat_mods": true,
  "copy_creator_mods": false,
  "spawn_limit": 0,
  "spawn_limit_mission": 0,
  "ignore_av_to_eb_scaling": false,
  "can_zone": false,
  "custom_badge_stat": null,
  "badge_stat_flags": "DefaultBadgeStat",
  "rank": "VR_DESTRUCTIBLE",
  "power_full_names": [
    "Objects.Inherent.Resistance",
    "DilemmaDiabolique.Protective_Aura.Protective_Barrier"
  ],
  "power_display_names": [
    "Resistance",
    "Protective Barrier"
  ],
  "power_levels": [
    0,
    0
  ],
  "powers": [
    {
      "power_category": "Objects",
      "power_set": "Inherent",
      "power": "*",
      "level": 0
    },
    {
      "power_category": "DilemmaDiabolique",
      "power_set": "Protective_Aura",
      "power": "*",
      "level": 0
    }
  ],
  "levels": [
    {
      "level": 50,
      "experience": 0,
      "display_names": [
        "Repulsion Field"
      ],
      "costumes": [
        "PuddleLongViewDistance"
      ]
    },
    {
      "level": 51,
      "experience": 0,
      "display_names": [
        "Repulsion Field"
      ],
      "costumes": [
        "PuddleLongViewDistance"
      ]
    },
    {
      "level": 52,
      "experience": 0,
      "display_names": [
        "Repulsion Field"
      ],
      "costumes": [
        "PuddleLongViewDistance"
      ]
    },
    {
      "level": 53,
      "experience": 0,
      "display_names": [
        "Repulsion Field"
      ],
      "costumes": [
        "PuddleLongViewDistance"
      ]
    },
    {
      "level": 54,
      "experience": 0,
      "display_names": [
        "Repulsion Field"
      ],
      "costumes": [
        "PuddleLongViewDistance"
      ]
    }
  ]
}