{
  "name": "Objects_MM_Car",
  "gender": "GENDER_MALE",
  "description": "This car looks like it's of sturdy construction.",
  "group_description": "Object",
  "display_class_name": "Object",
  "character_class_name": "lt_grunt",
  "ai_config": "InanimateObject",
  "commandable_pet": false,
  "power_tags": [

  ],
  "additional_rewards": [

  ],
  "skill_hp_rewards": [

  ],
  "skill_status_rewards": [

  ],
  "ally": null,
  "gang": null,
  "reward_scale": 0.0,
  "game_exclusion": "None",
  "inactive_state_weapon": null,
  "ignores_combat_mods": false,
  "copy_creator_mods": false,
  "spawn_limit": -1,
  "spawn_limit_mission": -1,
  "ignore_av_to_eb_scaling": false,
  "can_zone": false,
  "custom_badge_stat": null,
  "badge_stat_flags": "DefaultBadgeStat",
  "rank": "VR_DESTRUCTIBLE",
  "power_full_names": [
    "Objects.Inherent.Resistance",
    "Objects.Medium_Explosion_OnDeath_NoFX.Medium_Explosion",
    "Objects.Mayhem_Mission_Defense.Defense"
  ],
  "power_display_names": [
    "Resistance",
    "Medium Explosion",
    "Defense"
  ],
  "power_levels": [
    0,
    0,
    0
  ],
  "powers": [
    {
      "power_category": "Objects",
      "power_set": "Inherent",
      "power": "*",
      "level": 0
    },
    {
      "power_category": "Objects",
      "power_set": "Medium_Explosion_OnDeath_NoFX",
      "power": "*",
      "level": 0
    },
    {
      "power_category": "Objects",
      "power_set": "Mayhem_Mission_Defense",
      "power": "*",
      "level": 0
    }
  ],
  "levels": [
    {
      "level": 10,
      "experience": 0,
      "display_names": [
        "Car"
      ],
      "costumes": [
        "V_Mayhem_Vehicle_Car01",
        "V_Mayhem_Vehicle_Car01b",
        "V_Mayhem_Vehicle_Car02",
        "V_Mayhem_Vehicle_Car02b",
        "V_Mayhem_Vehicle_Car03",
        "V_Mayhem_Vehicle_Car03b",
        "V_Mayhem_Vehicle_Car04",
        "V_Mayhem_Vehicle_Car04b"
      ]
    }
  ]
}