{
  "name": "Objects_World_Event_Debt_Prot_Villain",
  "gender": "GENDER_MALE",
  "description": "Protecting your debt since 2007!",
  "group_description": null,
  "display_class_name": null,
  "character_class_name": "minion_unkillablenpc",
  "ai_config": "Awake_Stationary_Untargetable",
  "commandable_pet": false,
  "power_tags": [

  ],
  "additional_rewards": [

  ],
  "skill_hp_rewards": [

  ],
  "skill_status_rewards": [

  ],
  "ally": "Villain",
  "gang": null,
  "reward_scale": 0.0,
  "game_exclusion": "None",
  "inactive_state_weapon": null,
  "ignores_combat_mods": true,
  "copy_creator_mods": false,
  "spawn_limit": -1,
  "spawn_limit_mission": -1,
  "ignore_av_to_eb_scaling": false,
  "can_zone": false,
  "custom_badge_stat": null,
  "badge_stat_flags": "DefaultBadgeStat",
  "rank": "VR_DESTRUCTIBLE",
  "power_full_names": [
    "Objects.Inherent.Resistance",
    "Objects.Debt_Prot_100.Debt_Prot_100"
  ],
  "power_display_names": [
    "Resistance",
    "Debt Prot 100"
  ],
  "power_levels": [
    0,
    0
  ],
  "powers": [
    {
      "power_category": "Objects",
      "power_set": "Inherent",
      "power": "*",
      "level": 0
    },
    {
      "power_category": "Objects",
      "power_set": "Debt_Prot_100",
      "power": "*",
      "level": 0
    }
  ],
  "levels": [
    {
      "level": 54,
      "experience": 0,
      "display_names": [
        "Debt Protector"
      ],
      "costumes": [
        "Puddle"
      ]
    }
  ]
}