{
  "name": "Objects_Safe_Zone_Hero",
  "gender": "GENDER_MALE",
  "description": "No PvP combat may occur while in the Safe Zone.",
  "group_description": "Safe Zone",
  "display_class_name": null,
  "character_class_name": "minion_pets",
  "ai_config": "Awake_Stationary_Untargetable",
  "commandable_pet": false,
  "power_tags": [

  ],
  "additional_rewards": [

  ],
  "skill_hp_rewards": [

  ],
  "skill_status_rewards": [

  ],
  "ally": "Hero",
  "gang": null,
  "reward_scale": 1.0,
  "game_exclusion": "None",
  "inactive_state_weapon": null,
  "ignores_combat_mods": true,
  "copy_creator_mods": false,
  "spawn_limit": 0,
  "spawn_limit_mission": 0,
  "ignore_av_to_eb_scaling": false,
  "can_zone": false,
  "custom_badge_stat": null,
  "badge_stat_flags": "DefaultBadgeStat",
  "rank": "VR_DESTRUCTIBLE",
  "power_full_names": [
    "Pets.ResistAll.ResistAll",
    "Objects.ResConfuse.ResConfuse"
  ],
  "power_display_names": [
    "ResistAll",
    "ResConfuse"
  ],
  "power_levels": [
    0,
    0
  ],
  "powers": [
    {
      "power_category": "Pets",
      "power_set": "ResistAll",
      "power": "*",
      "level": 0
    },
    {
      "power_category": "Objects",
      "power_set": "ResConfuse",
      "power": "*",
      "level": 0
    }
  ],
  "levels": [
    {
      "level": 54,
      "experience": 0,
      "display_names": [
        "Safe Zone"
      ],
      "costumes": [
        "Puddle"
      ]
    }
  ]
}