{
  "name": "Objects_Power_Generator_Sig3",
  "gender": "GENDER_MALE",
  "description": "Marshal Blitz has stolen designs for early prototypes of Lord Recluse's Power Transfer Towers.  While they are not able to empower him as they did Recluse, he has jury-rigged them to provide his custom Bane Spider armor with a force field, allowing it to repel all attacks.",
  "group_description": "Generator",
  "display_class_name": "Object",
  "character_class_name": "boss_grunt",
  "ai_config": "Generator",
  "commandable_pet": false,
  "power_tags": [
    "Generator"
  ],
  "additional_rewards": [

  ],
  "skill_hp_rewards": [

  ],
  "skill_status_rewards": [

  ],
  "ally": null,
  "gang": null,
  "reward_scale": 1.0,
  "game_exclusion": "None",
  "inactive_state_weapon": null,
  "ignores_combat_mods": false,
  "copy_creator_mods": false,
  "spawn_limit": -1,
  "spawn_limit_mission": -1,
  "ignore_av_to_eb_scaling": true,
  "can_zone": false,
  "custom_badge_stat": null,
  "badge_stat_flags": "DefaultBadgeStat",
  "rank": "VR_PET",
  "power_full_names": [
    "Objects.Inherent.Resistance",
    "OneWillDie_Issue3Powers.Generators.Untouchable"
  ],
  "power_display_names": [
    "Resistance",
    "Untouchable"
  ],
  "power_levels": [
    0,
    0
  ],
  "powers": [
    {
      "power_category": "Objects",
      "power_set": "Inherent",
      "power": "*",
      "level": 0
    },
    {
      "power_category": "OneWillDie_Issue3Powers",
      "power_set": "Generators",
      "power": "*",
      "level": 0
    }
  ],
  "levels": [
    {
      "level": 30,
      "experience": 0,
      "display_names": [
        "Power Transfer Tower"
      ],
      "costumes": [
        "ArachnosPTT_Power"
      ]
    },
    {
      "level": 31,
      "experience": 0,
      "display_names": [
        "Power Transfer Tower"
      ],
      "costumes": [
        "ArachnosPTT_Power"
      ]
    },
    {
      "level": 32,
      "experience": 0,
      "display_names": [
        "Power Transfer Tower"
      ],
      "costumes": [
        "ArachnosPTT_Power"
      ]
    },
    {
      "level": 33,
      "experience": 0,
      "display_names": [
        "Power Transfer Tower"
      ],
      "costumes": [
        "ArachnosPTT_Power"
      ]
    },
    {
      "level": 34,
      "experience": 0,
      "display_names": [
        "Power Transfer Tower"
      ],
      "costumes": [
        "ArachnosPTT_Power"
      ]
    },
    {
      "level": 35,
      "experience": 0,
      "display_names": [
        "Power Transfer Tower"
      ],
      "costumes": [
        "ArachnosPTT_Power"
      ]
    },
    {
      "level": 36,
      "experience": 0,
      "display_names": [
        "Power Transfer Tower"
      ],
      "costumes": [
        "ArachnosPTT_Power"
      ]
    },
    {
      "level": 37,
      "experience": 0,
      "display_names": [
        "Power Transfer Tower"
      ],
      "costumes": [
        "ArachnosPTT_Power"
      ]
    },
    {
      "level": 38,
      "experience": 0,
      "display_names": [
        "Power Transfer Tower"
      ],
      "costumes": [
        "ArachnosPTT_Power"
      ]
    },
    {
      "level": 39,
      "experience": 0,
      "display_names": [
        "Power Transfer Tower"
      ],
      "costumes": [
        "ArachnosPTT_Power"
      ]
    },
    {
      "level": 40,
      "experience": 0,
      "display_names": [
        "Power Transfer Tower"
      ],
      "costumes": [
        "ArachnosPTT_Power"
      ]
    },
    {
      "level": 41,
      "experience": 0,
      "display_names": [
        "Power Transfer Tower"
      ],
      "costumes": [
        "ArachnosPTT_Power"
      ]
    },
    {
      "level": 42,
      "experience": 0,
      "display_names": [
        "Power Transfer Tower"
      ],
      "costumes": [
        "ArachnosPTT_Power"
      ]
    },
    {
      "level": 43,
      "experience": 0,
      "display_names": [
        "Power Transfer Tower"
      ],
      "costumes": [
        "ArachnosPTT_Power"
      ]
    },
    {
      "level": 44,
      "experience": 0,
      "display_names": [
        "Power Transfer Tower"
      ],
      "costumes": [
        "ArachnosPTT_Power"
      ]
    },
    {
      "level": 45,
      "experience": 0,
      "display_names": [
        "Power Transfer Tower"
      ],
      "costumes": [
        "ArachnosPTT_Power"
      ]
    },
    {
      "level": 46,
      "experience": 0,
      "display_names": [
        "Power Transfer Tower"
      ],
      "costumes": [
        "ArachnosPTT_Power"
      ]
    },
    {
      "level": 47,
      "experience": 0,
      "display_names": [
        "Power Transfer Tower"
      ],
      "costumes": [
        "ArachnosPTT_Power"
      ]
    },
    {
      "level": 48,
      "experience": 0,
      "display_names": [
        "Power Transfer Tower"
      ],
      "costumes": [
        "ArachnosPTT_Power"
      ]
    },
    {
      "level": 49,
      "experience": 0,
      "display_names": [
        "Power Transfer Tower"
      ],
      "costumes": [
        "ArachnosPTT_Power"
      ]
    },
    {
      "level": 50,
      "experience": 0,
      "display_names": [
        "Power Transfer Tower"
      ],
      "costumes": [
        "ArachnosPTT_Power"
      ]
    },
    {
      "level": 51,
      "experience": 0,
      "display_names": [
        "Power Transfer Tower"
      ],
      "costumes": [
        "ArachnosPTT_Power"
      ]
    },
    {
      "level": 52,
      "experience": 0,
      "display_names": [
        "Power Transfer Tower"
      ],
      "costumes": [
        "ArachnosPTT_Power"
      ]
    },
    {
      "level": 53,
      "experience": 0,
      "display_names": [
        "Power Transfer Tower"
      ],
      "costumes": [
        "ArachnosPTT_Power"
      ]
    },
    {
      "level": 54,
      "experience": 0,
      "display_names": [
        "Power Transfer Tower"
      ],
      "costumes": [
        "ArachnosPTT_Power"
      ]
    }
  ]
}