{
  "name": "OnGoingTrainingCharacters_H_Dillo",
  "gender": "GENDER_MALE",
  "description": "One of the Maaxigada'arzildilo, aliens from a distant solar system , \"Dillo\" has traveled to Earth to warn the Humans of the impending threat of the Shivans.  Dillo's homeworld was destroyed centuries by a devastating assault by the Shivans leaving him and his people as space-faring nomads.  Upon finding radio waves  sent from Earth, Dillo's people have sent him as a scout to warn the Humans of dangers of Shivans or to return with sad news of another race of lifeforms annihilated by these unstoppable devastators.  Having arrived just as the invasion began, Dillo chose to stay and help the Earthlings fight off the menace instead of potentially luring them back to his own people.",
  "group_description": "Shining Stars",
  "display_class_name": null,
  "character_class_name": "boss_grunt",
  "ai_config": "Default_Melee",
  "commandable_pet": false,
  "power_tags": [
    "Humanoid",
    "HumanSkeleton"
  ],
  "additional_rewards": [

  ],
  "skill_hp_rewards": [

  ],
  "skill_status_rewards": [

  ],
  "ally": "Hero",
  "gang": null,
  "reward_scale": 1.0,
  "game_exclusion": "None",
  "inactive_state_weapon": null,
  "ignores_combat_mods": false,
  "copy_creator_mods": false,
  "spawn_limit": -1,
  "spawn_limit_mission": -1,
  "ignore_av_to_eb_scaling": false,
  "can_zone": false,
  "custom_badge_stat": null,
  "badge_stat_flags": "DefaultBadgeStat",
  "rank": "VR_BOSS",
  "power_full_names": [
    "OnGoingTrainingCharacters.Dillo_Powers.Jab",
    "OnGoingTrainingCharacters.Dillo_Powers.Punch",
    "OnGoingTrainingCharacters.Dillo_Powers.Haymaker",
    "OnGoingTrainingCharacters.Dillo_Powers.Hurl",
    "OnGoingTrainingCharacters.Dillo_Powers.Resist_Physical_Damage",
    "OnGoingTrainingCharacters.Dillo_Powers.Temp_Invulnerability"
  ],
  "power_display_names": [
    "Jab",
    "Punch",
    "Haymaker",
    "Hurl",
    "Resist Physical Damage",
    "Temp Invulnerability"
  ],
  "power_levels": [
    0,
    0,
    0,
    0,
    0,
    0
  ],
  "powers": [
    {
      "power_category": "OnGoingTrainingCharacters",
      "power_set": "Dillo_Powers",
      "power": "*",
      "level": 0
    }
  ],
  "levels": [
    {
      "level": 4,
      "experience": 0,
      "display_names": [
        "Dillo"
      ],
      "costumes": [
        "Model_Dillo_NoRing"
      ]
    },
    {
      "level": 5,
      "experience": 0,
      "display_names": [
        "Dillo"
      ],
      "costumes": [
        "Model_Dillo_NoRing"
      ]
    },
    {
      "level": 6,
      "experience": 0,
      "display_names": [
        "Dillo"
      ],
      "costumes": [
        "Model_Dillo_NoRing"
      ]
    },
    {
      "level": 7,
      "experience": 0,
      "display_names": [
        "Dillo"
      ],
      "costumes": [
        "Model_Dillo_NoRing"
      ]
    },
    {
      "level": 8,
      "experience": 0,
      "display_names": [
        "Dillo"
      ],
      "costumes": [
        "Model_Dillo_NoRing"
      ]
    },
    {
      "level": 9,
      "experience": 0,
      "display_names": [
        "Dillo"
      ],
      "costumes": [
        "Model_Dillo_NoRing"
      ]
    },
    {
      "level": 10,
      "experience": 0,
      "display_names": [
        "Dillo"
      ],
      "costumes": [
        "Model_Dillo_NoRing"
      ]
    },
    {
      "level": 11,
      "experience": 0,
      "display_names": [
        "Dillo"
      ],
      "costumes": [
        "Model_Dillo_NoRing"
      ]
    },
    {
      "level": 12,
      "experience": 0,
      "display_names": [
        "Dillo"
      ],
      "costumes": [
        "Model_Dillo_NoRing"
      ]
    },
    {
      "level": 13,
      "experience": 0,
      "display_names": [
        "Dillo"
      ],
      "costumes": [
        "Model_Dillo_NoRing"
      ]
    },
    {
      "level": 14,
      "experience": 0,
      "display_names": [
        "Dillo"
      ],
      "costumes": [
        "Model_Dillo_NoRing"
      ]
    },
    {
      "level": 15,
      "experience": 0,
      "display_names": [
        "Dillo"
      ],
      "costumes": [
        "Model_Dillo_NoRing"
      ]
    },
    {
      "level": 16,
      "experience": 0,
      "display_names": [
        "Dillo"
      ],
      "costumes": [
        "Model_Dillo_NoRing"
      ]
    },
    {
      "level": 17,
      "experience": 0,
      "display_names": [
        "Dillo"
      ],
      "costumes": [
        "Model_Dillo_NoRing"
      ]
    },
    {
      "level": 18,
      "experience": 0,
      "display_names": [
        "Dillo"
      ],
      "costumes": [
        "Model_Dillo_NoRing"
      ]
    },
    {
      "level": 19,
      "experience": 0,
      "display_names": [
        "Dillo"
      ],
      "costumes": [
        "Model_Dillo_NoRing"
      ]
    },
    {
      "level": 20,
      "experience": 0,
      "display_names": [
        "Dillo"
      ],
      "costumes": [
        "Model_Dillo_NoRing"
      ]
    }
  ]
}