{
  "name": "Outcasts_Nictus_Hunter_Air_Lieutenant",
  "gender": "GENDER_MALE",
  "description": "Outcast Initiates who show potential are valuable commodities amongst the Outcasts, and are quickly elevated up the ranks. Volts have shown promise in manipulating and controlling their Electrical powers.",
  "group_description": null,
  "display_class_name": null,
  "character_class_name": "lt_grunt",
  "ai_config": "Nictus_Hunter",
  "commandable_pet": false,
  "power_tags": [
    "HumanSkeleton",
    "Human"
  ],
  "additional_rewards": [

  ],
  "skill_hp_rewards": [

  ],
  "skill_status_rewards": [

  ],
  "ally": null,
  "gang": null,
  "reward_scale": 1.0,
  "game_exclusion": "None",
  "inactive_state_weapon": null,
  "ignores_combat_mods": false,
  "copy_creator_mods": false,
  "spawn_limit": 0,
  "spawn_limit_mission": 0,
  "ignore_av_to_eb_scaling": false,
  "can_zone": false,
  "custom_badge_stat": null,
  "badge_stat_flags": "DefaultBadgeStat",
  "rank": "VR_LIEUTENANT",
  "power_full_names": [
    "Nictus.Hunter.Quantum_Array_gun",
    "Outcasts.Outcast_Brawl.Brawl",
    "Outcasts.Outcast_Lt_Boss_Air.Resistance",
    "Outcasts.Outcast_Lt_Boss_Air.Fly",
    "Outcasts.Outcast_Lt_Boss_Air.Fly_fx"
  ],
  "power_display_names": [
    "Quantum Array gun",
    "Brawl",
    "Resistance",
    "Fly",
    "Fly fx"
  ],
  "power_levels": [
    0,
    0,
    0,
    0,
    0
  ],
  "powers": [
    {
      "power_category": "Nictus",
      "power_set": "Hunter",
      "power": "Quantum_Array_gun",
      "level": 0
    },
    {
      "power_category": "Outcasts",
      "power_set": "Outcast_Brawl",
      "power": "*",
      "level": 0
    },
    {
      "power_category": "Outcasts",
      "power_set": "Outcast_Lt_Boss_Air",
      "power": "Resistance",
      "level": 0
    },
    {
      "power_category": "Outcasts",
      "power_set": "Outcast_Lt_Boss_Air",
      "power": "Fly",
      "level": 0
    },
    {
      "power_category": "Outcasts",
      "power_set": "Outcast_Lt_Boss_Air",
      "power": "Fly_fx",
      "level": 0
    }
  ],
  "levels": [
    {
      "level": 5,
      "experience": 0,
      "display_names": [
        "Quantum Volt"
      ],
      "costumes": [
        "Thug_Outcast_Boss_01",
        "Thug_Outcast_Boss_02"
      ]
    },
    {
      "level": 6,
      "experience": 0,
      "display_names": [
        "Quantum Volt"
      ],
      "costumes": [
        "Thug_Outcast_Boss_01",
        "Thug_Outcast_Boss_02"
      ]
    },
    {
      "level": 7,
      "experience": 0,
      "display_names": [
        "Quantum Volt"
      ],
      "costumes": [
        "Thug_Outcast_Boss_01",
        "Thug_Outcast_Boss_02"
      ]
    },
    {
      "level": 8,
      "experience": 0,
      "display_names": [
        "Quantum Volt"
      ],
      "costumes": [
        "Thug_Outcast_Boss_01",
        "Thug_Outcast_Boss_02"
      ]
    },
    {
      "level": 9,
      "experience": 0,
      "display_names": [
        "Quantum Volt"
      ],
      "costumes": [
        "Thug_Outcast_Boss_01",
        "Thug_Outcast_Boss_02"
      ]
    },
    {
      "level": 10,
      "experience": 0,
      "display_names": [
        "Quantum Volt"
      ],
      "costumes": [
        "Thug_Outcast_Boss_01",
        "Thug_Outcast_Boss_02"
      ]
    },
    {
      "level": 11,
      "experience": 0,
      "display_names": [
        "Quantum Volt"
      ],
      "costumes": [
        "Thug_Outcast_Boss_01",
        "Thug_Outcast_Boss_02"
      ]
    },
    {
      "level": 12,
      "experience": 0,
      "display_names": [
        "Quantum Volt"
      ],
      "costumes": [
        "Thug_Outcast_Boss_01",
        "Thug_Outcast_Boss_02"
      ]
    },
    {
      "level": 13,
      "experience": 0,
      "display_names": [
        "Quantum Volt"
      ],
      "costumes": [
        "Thug_Outcast_Boss_01",
        "Thug_Outcast_Boss_02"
      ]
    },
    {
      "level": 14,
      "experience": 0,
      "display_names": [
        "Quantum Volt"
      ],
      "costumes": [
        "Thug_Outcast_Boss_01",
        "Thug_Outcast_Boss_02"
      ]
    },
    {
      "level": 15,
      "experience": 0,
      "display_names": [
        "Quantum Volt"
      ],
      "costumes": [
        "Thug_Outcast_Boss_01",
        "Thug_Outcast_Boss_02"
      ]
    },
    {
      "level": 16,
      "experience": 0,
      "display_names": [
        "Quantum Volt"
      ],
      "costumes": [
        "Thug_Outcast_Boss_01",
        "Thug_Outcast_Boss_02"
      ]
    },
    {
      "level": 17,
      "experience": 0,
      "display_names": [
        "Quantum Volt"
      ],
      "costumes": [
        "Thug_Outcast_Boss_01",
        "Thug_Outcast_Boss_02"
      ]
    },
    {
      "level": 18,
      "experience": 0,
      "display_names": [
        "Quantum Volt"
      ],
      "costumes": [
        "Thug_Outcast_Boss_01",
        "Thug_Outcast_Boss_02"
      ]
    },
    {
      "level": 19,
      "experience": 0,
      "display_names": [
        "Quantum Volt"
      ],
      "costumes": [
        "Thug_Outcast_Boss_01",
        "Thug_Outcast_Boss_02"
      ]
    },
    {
      "level": 20,
      "experience": 0,
      "display_names": [
        "Quantum Volt"
      ],
      "costumes": [
        "Thug_Outcast_Boss_01",
        "Thug_Outcast_Boss_02"
      ]
    }
  ]
}