{
  "name": "Outcasts_Fire_Lieutenant",
  "gender": "GENDER_MALE",
  "description": "Rivals to the title of the city's premiere arsonists, these Outcasts can conjure up a variety of flame-based attacks to scorch their enemies. Manipulating fire requires concentration and determination, two traits common in all Scorchers.",
  "group_description": null,
  "display_class_name": null,
  "character_class_name": "lt_grunt",
  "ai_config": "Default_Ranged",
  "commandable_pet": false,
  "power_tags": [
    "HumanSkeleton",
    "Human"
  ],
  "additional_rewards": [

  ],
  "skill_hp_rewards": [

  ],
  "skill_status_rewards": [

  ],
  "ally": null,
  "gang": null,
  "reward_scale": 1.2,
  "game_exclusion": "None",
  "inactive_state_weapon": null,
  "ignores_combat_mods": false,
  "copy_creator_mods": false,
  "spawn_limit": -1,
  "spawn_limit_mission": -1,
  "ignore_av_to_eb_scaling": false,
  "can_zone": false,
  "custom_badge_stat": null,
  "badge_stat_flags": "DefaultBadgeStat",
  "rank": "VR_LIEUTENANT",
  "power_full_names": [
    "Outcasts.Outcast_Lt_Boss_Fire.Resistance",
    "Outcasts.Outcast_Lt_Boss_Fire.Scorch",
    "Outcasts.Outcast_Lt_Boss_Fire.Fire_Blast"
  ],
  "power_display_names": [
    "Resistance",
    "Scorch",
    "Fire Blast"
  ],
  "power_levels": [
    0,
    0,
    0
  ],
  "powers": [
    {
      "power_category": "Outcasts",
      "power_set": "Outcast_Lt_Boss_Fire",
      "power": "*",
      "level": 0
    }
  ],
  "levels": [
    {
      "level": 15,
      "experience": 0,
      "display_names": [
        "Scorcher"
      ],
      "costumes": [
        "Thug_Outcast_Boss_05",
        "Thug_Outcast_Boss_06"
      ]
    },
    {
      "level": 16,
      "experience": 0,
      "display_names": [
        "Scorcher"
      ],
      "costumes": [
        "Thug_Outcast_Boss_05",
        "Thug_Outcast_Boss_06"
      ]
    },
    {
      "level": 17,
      "experience": 0,
      "display_names": [
        "Scorcher"
      ],
      "costumes": [
        "Thug_Outcast_Boss_05",
        "Thug_Outcast_Boss_06"
      ]
    },
    {
      "level": 18,
      "experience": 0,
      "display_names": [
        "Scorcher"
      ],
      "costumes": [
        "Thug_Outcast_Boss_05",
        "Thug_Outcast_Boss_06"
      ]
    },
    {
      "level": 19,
      "experience": 0,
      "display_names": [
        "Scorcher"
      ],
      "costumes": [
        "Thug_Outcast_Boss_05",
        "Thug_Outcast_Boss_06"
      ]
    },
    {
      "level": 20,
      "experience": 0,
      "display_names": [
        "Scorcher"
      ],
      "costumes": [
        "Thug_Outcast_Boss_05",
        "Thug_Outcast_Boss_06"
      ]
    }
  ]
}