{
  "name": "ParagonHeroes_Stalwart",
  "gender": "GENDER_MALE",
  "description": "Stalwart started off as a champion prize fighter. It took him only a short while to discover that his power and abilities never stopped growing by leaps and bounds. After a very brief but undefeated career Stalwart decided he was destined for greater things. Now he fights the evil of the world one left hook at a time.",
  "group_description": "Paragon Heroes",
  "display_class_name": null,
  "character_class_name": "boss_grunt",
  "ai_config": "Default_Melee",
  "commandable_pet": false,
  "power_tags": [
    "Humanoid",
    "HumanSkeleton"
  ],
  "additional_rewards": [

  ],
  "skill_hp_rewards": [

  ],
  "skill_status_rewards": [

  ],
  "ally": "Hero",
  "gang": null,
  "reward_scale": 1.0,
  "game_exclusion": "None",
  "inactive_state_weapon": null,
  "ignores_combat_mods": false,
  "copy_creator_mods": false,
  "spawn_limit": -1,
  "spawn_limit_mission": -1,
  "ignore_av_to_eb_scaling": false,
  "can_zone": false,
  "custom_badge_stat": null,
  "badge_stat_flags": "DefaultBadgeStat",
  "rank": "VR_BOSS",
  "power_full_names": [
    "V_GenericHeroes.SS_Tanker.Jab",
    "V_GenericHeroes.SS_Tanker.Punch",
    "V_GenericHeroes.SS_Tanker.Hurl",
    "V_GenericHeroes.SS_Tanker.Temp_Invulnerability",
    "V_GenericHeroes.SS_Tanker.Resistance",
    "V_GenericHeroes.SS_Tanker_Low.Haymaker",
    "V_GenericHeroes.SS_Tanker_Low.Hand_Clap",
    "V_GenericHeroes.SS_Tanker_Low.Unyielding"
  ],
  "power_display_names": [
    "Jab",
    "Punch",
    "Hurl",
    "Temp Invulnerability",
    "Resistance",
    "Haymaker",
    "Hand Clap",
    "Unyielding"
  ],
  "power_levels": [
    0,
    0,
    0,
    0,
    0,
    0,
    0,
    0
  ],
  "powers": [
    {
      "power_category": "V_GenericHeroes",
      "power_set": "SS_Tanker",
      "power": "*",
      "level": 0
    },
    {
      "power_category": "V_GenericHeroes",
      "power_set": "SS_Tanker_Low",
      "power": "*",
      "level": 0
    }
  ],
  "levels": [
    {
      "level": 21,
      "experience": 0,
      "display_names": [
        "Stalwart"
      ],
      "costumes": [
        "Model_Stalwart"
      ]
    },
    {
      "level": 22,
      "experience": 0,
      "display_names": [
        "Stalwart"
      ],
      "costumes": [
        "Model_Stalwart"
      ]
    },
    {
      "level": 23,
      "experience": 0,
      "display_names": [
        "Stalwart"
      ],
      "costumes": [
        "Model_Stalwart"
      ]
    },
    {
      "level": 24,
      "experience": 0,
      "display_names": [
        "Stalwart"
      ],
      "costumes": [
        "Model_Stalwart"
      ]
    },
    {
      "level": 25,
      "experience": 0,
      "display_names": [
        "Stalwart"
      ],
      "costumes": [
        "Model_Stalwart"
      ]
    },
    {
      "level": 26,
      "experience": 0,
      "display_names": [
        "Stalwart"
      ],
      "costumes": [
        "Model_Stalwart"
      ]
    },
    {
      "level": 27,
      "experience": 0,
      "display_names": [
        "Stalwart"
      ],
      "costumes": [
        "Model_Stalwart"
      ]
    },
    {
      "level": 28,
      "experience": 0,
      "display_names": [
        "Stalwart"
      ],
      "costumes": [
        "Model_Stalwart"
      ]
    },
    {
      "level": 29,
      "experience": 0,
      "display_names": [
        "Stalwart"
      ],
      "costumes": [
        "Model_Stalwart"
      ]
    },
    {
      "level": 30,
      "experience": 0,
      "display_names": [
        "Stalwart"
      ],
      "costumes": [
        "Model_Stalwart"
      ]
    }
  ]
}