{
  "name": "ParagonPolice_PPD_Shell_High",
  "gender": "GENDER_MALE",
  "description": "To keep up with the inhuman abilities of some villains, the PPD has engineered a powered armor unit. Trained PPD officers don servo-assisted combat armor which not only protects them, but increases their strength and reflexes. Heavy machineguns and energy weapons add impressive firepower to the mix. These awesome but costly suits are reserved for major conflicts against Paragon City's most fearsome foes.",
  "group_description": null,
  "display_class_name": null,
  "character_class_name": "minion_grunt",
  "ai_config": "Default_Ranged",
  "commandable_pet": false,
  "power_tags": [
    "Humanoid",
    "HumanSkeleton",
    "Electronic"
  ],
  "additional_rewards": [

  ],
  "skill_hp_rewards": [

  ],
  "skill_status_rewards": [

  ],
  "ally": "Hero",
  "gang": null,
  "reward_scale": 1.0,
  "game_exclusion": "None",
  "inactive_state_weapon": null,
  "ignores_combat_mods": false,
  "copy_creator_mods": false,
  "spawn_limit": -1,
  "spawn_limit_mission": -1,
  "ignore_av_to_eb_scaling": false,
  "can_zone": false,
  "custom_badge_stat": null,
  "badge_stat_flags": "DefaultBadgeStat",
  "rank": "VR_MINION",
  "power_full_names": [
    "V_ParagonPolice.PPD_Shell.Minigun_Burst",
    "V_ParagonPolice.PPD_Shell.Energy_Punch",
    "V_ParagonPolice.PPD_Shell.Resistances",
    "V_ParagonPolice.PPD_Shell_Heavy.Minigun_Heavy_Burst"
  ],
  "power_display_names": [
    "Minigun Burst",
    "Energy Punch",
    "Resistances",
    "Minigun Heavy Burst"
  ],
  "power_levels": [
    0,
    0,
    0,
    0
  ],
  "powers": [
    {
      "power_category": "V_ParagonPolice",
      "power_set": "PPD_Shell",
      "power": "*",
      "level": 0
    },
    {
      "power_category": "V_ParagonPolice",
      "power_set": "PPD_Shell_Heavy",
      "power": "*",
      "level": 0
    }
  ],
  "levels": [
    {
      "level": 36,
      "experience": 0,
      "display_names": [
        "PPD Shell"
      ],
      "costumes": [
        "PPD_Shell_01",
        "PPD_Shell_02",
        "PPD_Shell_03"
      ]
    },
    {
      "level": 37,
      "experience": 0,
      "display_names": [
        "PPD Shell"
      ],
      "costumes": [
        "PPD_Shell_01",
        "PPD_Shell_02",
        "PPD_Shell_03"
      ]
    },
    {
      "level": 38,
      "experience": 0,
      "display_names": [
        "PPD Shell"
      ],
      "costumes": [
        "PPD_Shell_01",
        "PPD_Shell_02",
        "PPD_Shell_03"
      ]
    },
    {
      "level": 39,
      "experience": 0,
      "display_names": [
        "PPD Shell"
      ],
      "costumes": [
        "PPD_Shell_01",
        "PPD_Shell_02",
        "PPD_Shell_03"
      ]
    },
    {
      "level": 40,
      "experience": 0,
      "display_names": [
        "PPD Shell"
      ],
      "costumes": [
        "PPD_Shell_01",
        "PPD_Shell_02",
        "PPD_Shell_03"
      ]
    }
  ]
}