{
  "name": "ParagonPolice_Undercover_Cop_High",
  "gender": "GENDER_MALE",
  "description": "Plain clothes officer meant to look like a normal civilian. Subdued Hawaiian shirt and slacks, no PPD insignia.",
  "group_description": null,
  "display_class_name": null,
  "character_class_name": "lt_grunt",
  "ai_config": "Default_Ranged",
  "commandable_pet": false,
  "power_tags": [
    "Humanoid",
    "HumanSkeleton"
  ],
  "additional_rewards": [

  ],
  "skill_hp_rewards": [

  ],
  "skill_status_rewards": [

  ],
  "ally": "Hero",
  "gang": null,
  "reward_scale": 1.0,
  "game_exclusion": "None",
  "inactive_state_weapon": null,
  "ignores_combat_mods": false,
  "copy_creator_mods": false,
  "spawn_limit": -1,
  "spawn_limit_mission": -1,
  "ignore_av_to_eb_scaling": false,
  "can_zone": false,
  "custom_badge_stat": null,
  "badge_stat_flags": "DefaultBadgeStat",
  "rank": "VR_LIEUTENANT",
  "power_full_names": [
    "V_ParagonPolice.Police_Dual_Pistols.Single_Shot",
    "V_ParagonPolice.Police_Dual_Pistols.Double_Shot",
    "V_ParagonPolice.Police_Dual_Pistols.Wild_Shot",
    "V_ParagonPolice.Police_Heavy_Brawl.Brawl",
    "V_ParagonPolice.Undercover_Cop_Resists.Bulletproof_Vest"
  ],
  "power_display_names": [
    "Single Shot",
    "Double Shot",
    "Wild Shot",
    "Brawl",
    "Bulletproof Vest"
  ],
  "power_levels": [
    0,
    0,
    0,
    0,
    0
  ],
  "powers": [
    {
      "power_category": "V_ParagonPolice",
      "power_set": "Police_Dual_Pistols",
      "power": "*",
      "level": 0
    },
    {
      "power_category": "V_ParagonPolice",
      "power_set": "Police_Heavy_Brawl",
      "power": "*",
      "level": 0
    },
    {
      "power_category": "V_ParagonPolice",
      "power_set": "Undercover_Cop_Resists",
      "power": "*",
      "level": 0
    }
  ],
  "levels": [
    {
      "level": 11,
      "experience": 0,
      "display_names": [
        "PPD Undercover Cop"
      ],
      "costumes": [
        "PPD_Undercover_Cop_01",
        "PPD_Undercover_Cop_02"
      ]
    },
    {
      "level": 12,
      "experience": 0,
      "display_names": [
        "PPD Undercover Cop"
      ],
      "costumes": [
        "PPD_Undercover_Cop_01",
        "PPD_Undercover_Cop_02"
      ]
    },
    {
      "level": 13,
      "experience": 0,
      "display_names": [
        "PPD Undercover Cop"
      ],
      "costumes": [
        "PPD_Undercover_Cop_01",
        "PPD_Undercover_Cop_02"
      ]
    },
    {
      "level": 14,
      "experience": 0,
      "display_names": [
        "PPD Undercover Cop"
      ],
      "costumes": [
        "PPD_Undercover_Cop_01",
        "PPD_Undercover_Cop_02"
      ]
    },
    {
      "level": 15,
      "experience": 0,
      "display_names": [
        "PPD Undercover Cop"
      ],
      "costumes": [
        "PPD_Undercover_Cop_01",
        "PPD_Undercover_Cop_02"
      ]
    }
  ]
}