{
  "name": "ParagonProtectors_Minion_Hero_Clone_Power",
  "gender": "GENDER_MALE",
  "description": "No one knows who these helmet clad heroes are, or where they come from. The only thing that's certain is their loyalty to Crey. The Power Paragon Protectors can generate powerful blasts of energy in both melee and ranged combat situations.",
  "group_description": null,
  "display_class_name": null,
  "character_class_name": "minion_grunt",
  "ai_config": "Default_Ranged",
  "commandable_pet": false,
  "power_tags": [
    "HumanSkeleton",
    "Human"
  ],
  "additional_rewards": [

  ],
  "skill_hp_rewards": [

  ],
  "skill_status_rewards": [

  ],
  "ally": null,
  "gang": null,
  "reward_scale": 1.4,
  "game_exclusion": "None",
  "inactive_state_weapon": null,
  "ignores_combat_mods": false,
  "copy_creator_mods": false,
  "spawn_limit": -1,
  "spawn_limit_mission": -1,
  "ignore_av_to_eb_scaling": false,
  "can_zone": false,
  "custom_badge_stat": null,
  "badge_stat_flags": "DefaultBadgeStat",
  "rank": "VR_MINION",
  "power_full_names": [
    "Crey.Crey_Boss_Hero_Clone_Power.Energy_Punch",
    "Crey.Crey_Boss_Hero_Clone_Power.Whirling_Hands",
    "Crey.Crey_Boss_Hero_Clone_Power.Bone_Smasher",
    "Crey.Crey_Boss_Hero_Clone_Power.Total_Focus",
    "Crey.Crey_Boss_Hero_Clone_Power.Power_Bolt",
    "Crey.Crey_Boss_Hero_Clone_Power.Power_Blast",
    "Crey.Crey_Boss_Hero_Clone_Power.Energy_Torrent",
    "Crey.Crey_Boss_Hero_Clone_Power.Explosive_Blast",
    "Crey.Crey_Boss_Hero_Clone_Power.Dull_Pain",
    "Crey.Crey_Boss_Hero_Clone_Power.Moment_of_Glory",
    "Crey.Crey_Boss_Hero_Clone_Movement.Fly",
    "Crey.Crey_Boss_Hero_Clone_Movement.Fly_fx"
  ],
  "power_display_names": [
    "Energy Punch",
    "Whirling Hands",
    "Bone Smasher",
    "Total Focus",
    "Power Bolt",
    "Power Blast",
    "Energy Torrent",
    "Explosive Blast",
    "Dull Pain",
    "Moment of Glory",
    "Fly",
    "Fly fx"
  ],
  "power_levels": [
    0,
    0,
    0,
    0,
    0,
    0,
    0,
    0,
    0,
    0,
    0,
    0
  ],
  "powers": [
    {
      "power_category": "Crey",
      "power_set": "Crey_Boss_Hero_Clone_Power",
      "power": "*",
      "level": 0
    },
    {
      "power_category": "Crey",
      "power_set": "Crey_Boss_Hero_Clone_Movement",
      "power": "*",
      "level": 0
    }
  ],
  "levels": [
    {
      "level": 29,
      "experience": 0,
      "display_names": [
        "7th Generation Paragon Protector"
      ],
      "costumes": [
        "CMR"
      ]
    },
    {
      "level": 30,
      "experience": 0,
      "display_names": [
        "7th Generation Paragon Protector"
      ],
      "costumes": [
        "CMR"
      ]
    },
    {
      "level": 31,
      "experience": 0,
      "display_names": [
        "7th Generation Paragon Protector"
      ],
      "costumes": [
        "CMR"
      ]
    },
    {
      "level": 32,
      "experience": 0,
      "display_names": [
        "7th Generation Paragon Protector"
      ],
      "costumes": [
        "CMR"
      ]
    },
    {
      "level": 33,
      "experience": 0,
      "display_names": [
        "7th Generation Paragon Protector"
      ],
      "costumes": [
        "CMR"
      ]
    },
    {
      "level": 34,
      "experience": 0,
      "display_names": [
        "7th Generation Paragon Protector"
      ],
      "costumes": [
        "CMR"
      ]
    },
    {
      "level": 35,
      "experience": 0,
      "display_names": [
        "7th Generation Paragon Protector"
      ],
      "costumes": [
        "CMR"
      ]
    },
    {
      "level": 36,
      "experience": 0,
      "display_names": [
        "7th Generation Paragon Protector"
      ],
      "costumes": [
        "CMR"
      ]
    },
    {
      "level": 37,
      "experience": 0,
      "display_names": [
        "7th Generation Paragon Protector"
      ],
      "costumes": [
        "CMR"
      ]
    },
    {
      "level": 38,
      "experience": 0,
      "display_names": [
        "7th Generation Paragon Protector"
      ],
      "costumes": [
        "CMR"
      ]
    },
    {
      "level": 39,
      "experience": 0,
      "display_names": [
        "7th Generation Paragon Protector"
      ],
      "costumes": [
        "CMR"
      ]
    },
    {
      "level": 40,
      "experience": 0,
      "display_names": [
        "7th Generation Paragon Protector"
      ],
      "costumes": [
        "CMR"
      ]
    },
    {
      "level": 41,
      "experience": 0,
      "display_names": [
        "7th Generation Paragon Protector"
      ],
      "costumes": [
        "CMR"
      ]
    },
    {
      "level": 42,
      "experience": 0,
      "display_names": [
        "7th Generation Paragon Protector"
      ],
      "costumes": [
        "CMR"
      ]
    },
    {
      "level": 43,
      "experience": 0,
      "display_names": [
        "7th Generation Paragon Protector"
      ],
      "costumes": [
        "CMR"
      ]
    },
    {
      "level": 44,
      "experience": 0,
      "display_names": [
        "7th Generation Paragon Protector"
      ],
      "costumes": [
        "CMR"
      ]
    },
    {
      "level": 45,
      "experience": 0,
      "display_names": [
        "7th Generation Paragon Protector"
      ],
      "costumes": [
        "CMR"
      ]
    },
    {
      "level": 46,
      "experience": 0,
      "display_names": [
        "7th Generation Paragon Protector"
      ],
      "costumes": [
        "CMR"
      ]
    },
    {
      "level": 47,
      "experience": 0,
      "display_names": [
        "7th Generation Paragon Protector"
      ],
      "costumes": [
        "CMR"
      ]
    },
    {
      "level": 48,
      "experience": 0,
      "display_names": [
        "7th Generation Paragon Protector"
      ],
      "costumes": [
        "CMR"
      ]
    },
    {
      "level": 49,
      "experience": 0,
      "display_names": [
        "7th Generation Paragon Protector"
      ],
      "costumes": [
        "CMR"
      ]
    },
    {
      "level": 50,
      "experience": 0,
      "display_names": [
        "7th Generation Paragon Protector"
      ],
      "costumes": [
        "CMR"
      ]
    },
    {
      "level": 51,
      "experience": 0,
      "display_names": [
        "7th Generation Paragon Protector"
      ],
      "costumes": [
        "CMR"
      ]
    },
    {
      "level": 52,
      "experience": 0,
      "display_names": [
        "7th Generation Paragon Protector"
      ],
      "costumes": [
        "CMR"
      ]
    },
    {
      "level": 53,
      "experience": 0,
      "display_names": [
        "7th Generation Paragon Protector"
      ],
      "costumes": [
        "CMR"
      ]
    },
    {
      "level": 54,
      "experience": 0,
      "display_names": [
        "7th Generation Paragon Protector"
      ],
      "costumes": [
        "CMR"
      ]
    }
  ]
}