{
  "name": "ParagonProtectors_Lt_Hero_Clone_Claw_Boss_Female",
  "gender": "GENDER_FEMALE",
  "description": "Crey denies the rumors that the Paragon Protectors are corporate pawns, but no one outside the company knows the truth for sure. The Claw Pattern hero is a master of melee combat, using both claws and enhanced physical attributes to make mincemeat of his or her opponents.",
  "group_description": null,
  "display_class_name": null,
  "character_class_name": "lt_grunt",
  "ai_config": "Default_Melee",
  "commandable_pet": false,
  "power_tags": [
    "HumanSkeleton",
    "Human"
  ],
  "additional_rewards": [

  ],
  "skill_hp_rewards": [

  ],
  "skill_status_rewards": [

  ],
  "ally": null,
  "gang": null,
  "reward_scale": 1.4,
  "game_exclusion": "None",
  "inactive_state_weapon": null,
  "ignores_combat_mods": false,
  "copy_creator_mods": false,
  "spawn_limit": -1,
  "spawn_limit_mission": -1,
  "ignore_av_to_eb_scaling": false,
  "can_zone": false,
  "custom_badge_stat": null,
  "badge_stat_flags": "DefaultBadgeStat",
  "rank": "VR_LIEUTENANT",
  "power_full_names": [
    "Crey.Crey_Boss_Hero_Clone_Claws.Swipe",
    "Crey.Crey_Boss_Hero_Clone_Claws.Strike",
    "Crey.Crey_Boss_Hero_Clone_Claws.Slash",
    "Crey.Crey_Boss_Hero_Clone_Claws.Spin",
    "Crey.Crey_Boss_Hero_Clone_Claws.Eviscerate",
    "Crey.Crey_Boss_Hero_Clone_Claws.Focus",
    "Crey.Crey_Boss_Hero_Clone_Claws.Focused_Fighting",
    "Crey.Crey_Boss_Hero_Clone_Claws.Unstoppable",
    "Crey.Crey_Boss_Hero_Clone_Movement.Fly",
    "Crey.Crey_Boss_Hero_Clone_Movement.Fly_fx"
  ],
  "power_display_names": [
    "Swipe",
    "Strike",
    "Slash",
    "Spin",
    "Eviscerate",
    "Focus",
    "Focused Fighting",
    "Unstoppable",
    "Fly",
    "Fly fx"
  ],
  "power_levels": [
    0,
    0,
    0,
    0,
    0,
    0,
    0,
    0,
    0,
    0
  ],
  "powers": [
    {
      "power_category": "Crey",
      "power_set": "Crey_Boss_Hero_Clone_Claws",
      "power": "*",
      "level": 0
    },
    {
      "power_category": "Crey",
      "power_set": "Crey_Boss_Hero_Clone_Movement",
      "power": "*",
      "level": 0
    }
  ],
  "levels": [
    {
      "level": 29,
      "experience": 0,
      "display_names": [
        "7th Generation Paragon Protector"
      ],
      "costumes": [
        "CFR"
      ]
    },
    {
      "level": 30,
      "experience": 0,
      "display_names": [
        "7th Generation Paragon Protector"
      ],
      "costumes": [
        "CFR"
      ]
    },
    {
      "level": 31,
      "experience": 0,
      "display_names": [
        "7th Generation Paragon Protector"
      ],
      "costumes": [
        "CFR"
      ]
    },
    {
      "level": 32,
      "experience": 0,
      "display_names": [
        "7th Generation Paragon Protector"
      ],
      "costumes": [
        "CFR"
      ]
    },
    {
      "level": 33,
      "experience": 0,
      "display_names": [
        "7th Generation Paragon Protector"
      ],
      "costumes": [
        "CFR"
      ]
    },
    {
      "level": 34,
      "experience": 0,
      "display_names": [
        "7th Generation Paragon Protector"
      ],
      "costumes": [
        "CFR"
      ]
    },
    {
      "level": 35,
      "experience": 0,
      "display_names": [
        "7th Generation Paragon Protector"
      ],
      "costumes": [
        "CFR"
      ]
    },
    {
      "level": 36,
      "experience": 0,
      "display_names": [
        "7th Generation Paragon Protector"
      ],
      "costumes": [
        "CFR"
      ]
    },
    {
      "level": 37,
      "experience": 0,
      "display_names": [
        "7th Generation Paragon Protector"
      ],
      "costumes": [
        "CFR"
      ]
    },
    {
      "level": 38,
      "experience": 0,
      "display_names": [
        "7th Generation Paragon Protector"
      ],
      "costumes": [
        "CFR"
      ]
    },
    {
      "level": 39,
      "experience": 0,
      "display_names": [
        "7th Generation Paragon Protector"
      ],
      "costumes": [
        "CFR"
      ]
    },
    {
      "level": 40,
      "experience": 0,
      "display_names": [
        "7th Generation Paragon Protector"
      ],
      "costumes": [
        "CFR"
      ]
    },
    {
      "level": 41,
      "experience": 0,
      "display_names": [
        "7th Generation Paragon Protector"
      ],
      "costumes": [
        "CFR"
      ]
    },
    {
      "level": 42,
      "experience": 0,
      "display_names": [
        "7th Generation Paragon Protector"
      ],
      "costumes": [
        "CFR"
      ]
    },
    {
      "level": 43,
      "experience": 0,
      "display_names": [
        "7th Generation Paragon Protector"
      ],
      "costumes": [
        "CFR"
      ]
    },
    {
      "level": 44,
      "experience": 0,
      "display_names": [
        "7th Generation Paragon Protector"
      ],
      "costumes": [
        "CFR"
      ]
    },
    {
      "level": 45,
      "experience": 0,
      "display_names": [
        "7th Generation Paragon Protector"
      ],
      "costumes": [
        "CFR"
      ]
    },
    {
      "level": 46,
      "experience": 0,
      "display_names": [
        "7th Generation Paragon Protector"
      ],
      "costumes": [
        "CFR"
      ]
    },
    {
      "level": 47,
      "experience": 0,
      "display_names": [
        "7th Generation Paragon Protector"
      ],
      "costumes": [
        "CFR"
      ]
    },
    {
      "level": 48,
      "experience": 0,
      "display_names": [
        "7th Generation Paragon Protector"
      ],
      "costumes": [
        "CFR"
      ]
    },
    {
      "level": 49,
      "experience": 0,
      "display_names": [
        "7th Generation Paragon Protector"
      ],
      "costumes": [
        "CFR"
      ]
    },
    {
      "level": 50,
      "experience": 0,
      "display_names": [
        "7th Generation Paragon Protector"
      ],
      "costumes": [
        "CFR"
      ]
    },
    {
      "level": 51,
      "experience": 0,
      "display_names": [
        "7th Generation Paragon Protector"
      ],
      "costumes": [
        "CFR"
      ]
    },
    {
      "level": 52,
      "experience": 0,
      "display_names": [
        "7th Generation Paragon Protector"
      ],
      "costumes": [
        "CFR"
      ]
    },
    {
      "level": 53,
      "experience": 0,
      "display_names": [
        "7th Generation Paragon Protector"
      ],
      "costumes": [
        "CFR"
      ]
    },
    {
      "level": 54,
      "experience": 0,
      "display_names": [
        "7th Generation Paragon Protector"
      ],
      "costumes": [
        "CFR"
      ]
    }
  ]
}