{
  "name": "ParagonPolice_PPD_Empath",
  "gender": "GENDER_MALE",
  "description": "It isn't always physical strength or force that triumphs in the end. By honing their minds in intensive training programs, these officers have unlocked their psionic potential, using their minds to affect the world around them. With manipulative mind control and potent telekinesis abilities they can halt even the most determined law breakers.",
  "group_description": null,
  "display_class_name": null,
  "character_class_name": "lt_grunt",
  "ai_config": "Default_Ranged",
  "commandable_pet": false,
  "power_tags": [
    "Humanoid",
    "HumanSkeleton"
  ],
  "additional_rewards": [

  ],
  "skill_hp_rewards": [

  ],
  "skill_status_rewards": [

  ],
  "ally": "Hero",
  "gang": null,
  "reward_scale": 1.0,
  "game_exclusion": "None",
  "inactive_state_weapon": null,
  "ignores_combat_mods": false,
  "copy_creator_mods": false,
  "spawn_limit": -1,
  "spawn_limit_mission": -1,
  "ignore_av_to_eb_scaling": false,
  "can_zone": false,
  "custom_badge_stat": null,
  "badge_stat_flags": "DefaultBadgeStat",
  "rank": "VR_LIEUTENANT",
  "power_full_names": [
    "V_ParagonPolice.PPD_Empath.Healing_Aura",
    "V_ParagonPolice.PPD_Empath.Heal_Other",
    "V_ParagonPolice.PPD_Empath.Mental_Blast",
    "V_ParagonPolice.PPD_Empath.Subdue",
    "V_ParagonPolice.PPD_Empath.Resistances"
  ],
  "power_display_names": [
    "Healing Aura",
    "Heal Other",
    "Mental Blast",
    "Subdue",
    "Resistances"
  ],
  "power_levels": [
    0,
    0,
    0,
    0,
    0
  ],
  "powers": [
    {
      "power_category": "V_ParagonPolice",
      "power_set": "PPD_Empath",
      "power": "*",
      "level": 0
    }
  ],
  "levels": [
    {
      "level": 36,
      "experience": 0,
      "display_names": [
        "PPD Psi-Lieutenant"
      ],
      "costumes": [
        "PPD_Empath_01",
        "PPD_Empath_02",
        "PPD_Empath_03"
      ]
    },
    {
      "level": 37,
      "experience": 0,
      "display_names": [
        "PPD Psi-Lieutenant"
      ],
      "costumes": [
        "PPD_Empath_01",
        "PPD_Empath_02",
        "PPD_Empath_03"
      ]
    },
    {
      "level": 38,
      "experience": 0,
      "display_names": [
        "PPD Psi-Lieutenant"
      ],
      "costumes": [
        "PPD_Empath_01",
        "PPD_Empath_02",
        "PPD_Empath_03"
      ]
    },
    {
      "level": 39,
      "experience": 0,
      "display_names": [
        "PPD Psi-Lieutenant"
      ],
      "costumes": [
        "PPD_Empath_01",
        "PPD_Empath_02",
        "PPD_Empath_03"
      ]
    },
    {
      "level": 40,
      "experience": 0,
      "display_names": [
        "PPD Psi-Lieutenant"
      ],
      "costumes": [
        "PPD_Empath_01",
        "PPD_Empath_02",
        "PPD_Empath_03"
      ]
    },
    {
      "level": 41,
      "experience": 0,
      "display_names": [
        "PPD Psi-Lieutenant"
      ],
      "costumes": [
        "PPD_Empath_01",
        "PPD_Empath_02",
        "PPD_Empath_03"
      ]
    },
    {
      "level": 42,
      "experience": 0,
      "display_names": [
        "PPD Psi-Lieutenant"
      ],
      "costumes": [
        "PPD_Empath_01",
        "PPD_Empath_02",
        "PPD_Empath_03"
      ]
    },
    {
      "level": 43,
      "experience": 0,
      "display_names": [
        "PPD Psi-Lieutenant"
      ],
      "costumes": [
        "PPD_Empath_01",
        "PPD_Empath_02",
        "PPD_Empath_03"
      ]
    },
    {
      "level": 44,
      "experience": 0,
      "display_names": [
        "PPD Psi-Lieutenant"
      ],
      "costumes": [
        "PPD_Empath_01",
        "PPD_Empath_02",
        "PPD_Empath_03"
      ]
    },
    {
      "level": 45,
      "experience": 0,
      "display_names": [
        "PPD Psi-Lieutenant"
      ],
      "costumes": [
        "PPD_Empath_01",
        "PPD_Empath_02",
        "PPD_Empath_03"
      ]
    }
  ]
}