{
  "name": "ParagonProtectors_Minion_Hero_Clone_Quills_Female",
  "gender": "GENDER_FEMALE",
  "description": "The Paragon Protectors keep their names and faces a secret. That way, their good deeds all get credited to Crey, while their less virtuous activities can be plausibly denied in court. The Quill Pattern heroes use a variety of deadly ranged and melee attacks to fill their enemies with holes.",
  "group_description": null,
  "display_class_name": null,
  "character_class_name": "minion_grunt",
  "ai_config": "Default_Melee",
  "commandable_pet": false,
  "power_tags": [
    "HumanSkeleton",
    "Human"
  ],
  "additional_rewards": [

  ],
  "skill_hp_rewards": [

  ],
  "skill_status_rewards": [

  ],
  "ally": null,
  "gang": null,
  "reward_scale": 1.4,
  "game_exclusion": "None",
  "inactive_state_weapon": null,
  "ignores_combat_mods": false,
  "copy_creator_mods": false,
  "spawn_limit": -1,
  "spawn_limit_mission": -1,
  "ignore_av_to_eb_scaling": false,
  "can_zone": false,
  "custom_badge_stat": null,
  "badge_stat_flags": "DefaultBadgeStat",
  "rank": "VR_MINION",
  "power_full_names": [
    "Crey.Crey_Boss_Hero_Clone_Quills.Barb_Swipe",
    "Crey.Crey_Boss_Hero_Clone_Quills.Lunge",
    "Crey.Crey_Boss_Hero_Clone_Quills.Impale",
    "Crey.Crey_Boss_Hero_Clone_Quills.Spine_Throwing",
    "Crey.Crey_Boss_Hero_Clone_Quills.Ripper",
    "Crey.Crey_Boss_Hero_Clone_Quills.Temp_Invulnerability",
    "Crey.Crey_Boss_Hero_Clone_Quills.Elude",
    "Crey.Crey_Boss_Hero_Clone_Movement.Fly",
    "Crey.Crey_Boss_Hero_Clone_Movement.Fly_fx"
  ],
  "power_display_names": [
    "Barb Swipe",
    "Lunge",
    "Impale",
    "Spine Throwing",
    "Ripper",
    "Temp Invulnerability",
    "Elude",
    "Fly",
    "Fly fx"
  ],
  "power_levels": [
    0,
    0,
    0,
    0,
    0,
    0,
    0,
    0,
    0
  ],
  "powers": [
    {
      "power_category": "Crey",
      "power_set": "Crey_Boss_Hero_Clone_Quills",
      "power": "*",
      "level": 0
    },
    {
      "power_category": "Crey",
      "power_set": "Crey_Boss_Hero_Clone_Movement",
      "power": "*",
      "level": 0
    }
  ],
  "levels": [
    {
      "level": 29,
      "experience": 0,
      "display_names": [
        "7th Generation Paragon Protector"
      ],
      "costumes": [
        "CFR"
      ]
    },
    {
      "level": 30,
      "experience": 0,
      "display_names": [
        "7th Generation Paragon Protector"
      ],
      "costumes": [
        "CFR"
      ]
    },
    {
      "level": 31,
      "experience": 0,
      "display_names": [
        "7th Generation Paragon Protector"
      ],
      "costumes": [
        "CFR"
      ]
    },
    {
      "level": 32,
      "experience": 0,
      "display_names": [
        "7th Generation Paragon Protector"
      ],
      "costumes": [
        "CFR"
      ]
    },
    {
      "level": 33,
      "experience": 0,
      "display_names": [
        "7th Generation Paragon Protector"
      ],
      "costumes": [
        "CFR"
      ]
    },
    {
      "level": 34,
      "experience": 0,
      "display_names": [
        "7th Generation Paragon Protector"
      ],
      "costumes": [
        "CFR"
      ]
    },
    {
      "level": 35,
      "experience": 0,
      "display_names": [
        "7th Generation Paragon Protector"
      ],
      "costumes": [
        "CFR"
      ]
    },
    {
      "level": 36,
      "experience": 0,
      "display_names": [
        "7th Generation Paragon Protector"
      ],
      "costumes": [
        "CFR"
      ]
    },
    {
      "level": 37,
      "experience": 0,
      "display_names": [
        "7th Generation Paragon Protector"
      ],
      "costumes": [
        "CFR"
      ]
    },
    {
      "level": 38,
      "experience": 0,
      "display_names": [
        "7th Generation Paragon Protector"
      ],
      "costumes": [
        "CFR"
      ]
    },
    {
      "level": 39,
      "experience": 0,
      "display_names": [
        "7th Generation Paragon Protector"
      ],
      "costumes": [
        "CFR"
      ]
    },
    {
      "level": 40,
      "experience": 0,
      "display_names": [
        "7th Generation Paragon Protector"
      ],
      "costumes": [
        "CFR"
      ]
    },
    {
      "level": 41,
      "experience": 0,
      "display_names": [
        "7th Generation Paragon Protector"
      ],
      "costumes": [
        "CFR"
      ]
    },
    {
      "level": 42,
      "experience": 0,
      "display_names": [
        "7th Generation Paragon Protector"
      ],
      "costumes": [
        "CFR"
      ]
    },
    {
      "level": 43,
      "experience": 0,
      "display_names": [
        "7th Generation Paragon Protector"
      ],
      "costumes": [
        "CFR"
      ]
    },
    {
      "level": 44,
      "experience": 0,
      "display_names": [
        "7th Generation Paragon Protector"
      ],
      "costumes": [
        "CFR"
      ]
    },
    {
      "level": 45,
      "experience": 0,
      "display_names": [
        "7th Generation Paragon Protector"
      ],
      "costumes": [
        "CFR"
      ]
    },
    {
      "level": 46,
      "experience": 0,
      "display_names": [
        "7th Generation Paragon Protector"
      ],
      "costumes": [
        "CFR"
      ]
    },
    {
      "level": 47,
      "experience": 0,
      "display_names": [
        "7th Generation Paragon Protector"
      ],
      "costumes": [
        "CFR"
      ]
    },
    {
      "level": 48,
      "experience": 0,
      "display_names": [
        "7th Generation Paragon Protector"
      ],
      "costumes": [
        "CFR"
      ]
    },
    {
      "level": 49,
      "experience": 0,
      "display_names": [
        "7th Generation Paragon Protector"
      ],
      "costumes": [
        "CFR"
      ]
    },
    {
      "level": 50,
      "experience": 0,
      "display_names": [
        "7th Generation Paragon Protector"
      ],
      "costumes": [
        "CFR"
      ]
    },
    {
      "level": 51,
      "experience": 0,
      "display_names": [
        "7th Generation Paragon Protector"
      ],
      "costumes": [
        "CFR"
      ]
    },
    {
      "level": 52,
      "experience": 0,
      "display_names": [
        "7th Generation Paragon Protector"
      ],
      "costumes": [
        "CFR"
      ]
    },
    {
      "level": 53,
      "experience": 0,
      "display_names": [
        "7th Generation Paragon Protector"
      ],
      "costumes": [
        "CFR"
      ]
    },
    {
      "level": 54,
      "experience": 0,
      "display_names": [
        "7th Generation Paragon Protector"
      ],
      "costumes": [
        "CFR"
      ]
    }
  ]
}