{
  "name": "Pets_Resistance_BackUp_Pet",
  "gender": "GENDER_FEMALE",
  "description": "Resistance Veterans are surviving soldiers from the last wars before Cole's world order took over. They are well trained, disciplined, elite fighters armed with some of the best modified weapons the resistance can slap together.",
  "group_description": null,
  "display_class_name": null,
  "character_class_name": "minion_pets",
  "ai_config": "Default_Ranged",
  "commandable_pet": false,
  "power_tags": [
    "Humanoid",
    "HumanSkeleton"
  ],
  "additional_rewards": [

  ],
  "skill_hp_rewards": [

  ],
  "skill_status_rewards": [

  ],
  "ally": null,
  "gang": null,
  "reward_scale": 1.0,
  "game_exclusion": "None",
  "inactive_state_weapon": null,
  "ignores_combat_mods": false,
  "copy_creator_mods": false,
  "spawn_limit": -1,
  "spawn_limit_mission": -1,
  "ignore_av_to_eb_scaling": false,
  "can_zone": false,
  "custom_badge_stat": null,
  "badge_stat_flags": "DefaultBadgeStat",
  "rank": "VR_PET",
  "power_full_names": [
    "Pets.Resistance_Rifle.Power_Punch",
    "Pets.Resistance_Rifle.Single_Shot",
    "Pets.Resistance_Rifle.Heavy_Burst",
    "Pets.Resistance_Rifle.Covering_Fire",
    "Pets.Resistance_Rifle.Resistances"
  ],
  "power_display_names": [
    "Power Punch",
    "Single Shot",
    "Heavy Burst",
    "Covering Fire",
    "Resistances"
  ],
  "power_levels": [
    0,
    0,
    0,
    0,
    0
  ],
  "powers": [
    {
      "power_category": "Pets",
      "power_set": "Resistance_Rifle",
      "power": "*",
      "level": 0
    }
  ],
  "levels": [
    {
      "level": 10,
      "experience": 0,
      "display_names": [
        "Resistance Reinforcement"
      ],
      "costumes": [
        "Resistance_Fem_Veteran_01",
        "Resistance_Fem_Veteran_02",
        "Resistance_Fem_Veteran_03"
      ]
    },
    {
      "level": 11,
      "experience": 0,
      "display_names": [
        "Resistance Reinforcement"
      ],
      "costumes": [
        "Resistance_Fem_Veteran_01",
        "Resistance_Fem_Veteran_02",
        "Resistance_Fem_Veteran_03"
      ]
    },
    {
      "level": 12,
      "experience": 0,
      "display_names": [
        "Resistance Reinforcement"
      ],
      "costumes": [
        "Resistance_Fem_Veteran_01",
        "Resistance_Fem_Veteran_02",
        "Resistance_Fem_Veteran_03"
      ]
    },
    {
      "level": 13,
      "experience": 0,
      "display_names": [
        "Resistance Reinforcement"
      ],
      "costumes": [
        "Resistance_Fem_Veteran_01",
        "Resistance_Fem_Veteran_02",
        "Resistance_Fem_Veteran_03"
      ]
    },
    {
      "level": 14,
      "experience": 0,
      "display_names": [
        "Resistance Reinforcement"
      ],
      "costumes": [
        "Resistance_Fem_Veteran_01",
        "Resistance_Fem_Veteran_02",
        "Resistance_Fem_Veteran_03"
      ]
    },
    {
      "level": 15,
      "experience": 0,
      "display_names": [
        "Resistance Reinforcement"
      ],
      "costumes": [
        "Resistance_Fem_Veteran_01",
        "Resistance_Fem_Veteran_02",
        "Resistance_Fem_Veteran_03"
      ]
    },
    {
      "level": 16,
      "experience": 0,
      "display_names": [
        "Resistance Reinforcement"
      ],
      "costumes": [
        "Resistance_Fem_Veteran_01",
        "Resistance_Fem_Veteran_02",
        "Resistance_Fem_Veteran_03"
      ]
    },
    {
      "level": 17,
      "experience": 0,
      "display_names": [
        "Resistance Reinforcement"
      ],
      "costumes": [
        "Resistance_Fem_Veteran_01",
        "Resistance_Fem_Veteran_02",
        "Resistance_Fem_Veteran_03"
      ]
    },
    {
      "level": 18,
      "experience": 0,
      "display_names": [
        "Resistance Reinforcement"
      ],
      "costumes": [
        "Resistance_Fem_Veteran_01",
        "Resistance_Fem_Veteran_02",
        "Resistance_Fem_Veteran_03"
      ]
    },
    {
      "level": 19,
      "experience": 0,
      "display_names": [
        "Resistance Reinforcement"
      ],
      "costumes": [
        "Resistance_Fem_Veteran_01",
        "Resistance_Fem_Veteran_02",
        "Resistance_Fem_Veteran_03"
      ]
    },
    {
      "level": 20,
      "experience": 0,
      "display_names": [
        "Resistance Reinforcement"
      ],
      "costumes": [
        "Resistance_Fem_Veteran_01",
        "Resistance_Fem_Veteran_02",
        "Resistance_Fem_Veteran_03"
      ]
    },
    {
      "level": 21,
      "experience": 0,
      "display_names": [
        "Resistance Reinforcement"
      ],
      "costumes": [
        "Resistance_Fem_Veteran_01",
        "Resistance_Fem_Veteran_02",
        "Resistance_Fem_Veteran_03"
      ]
    },
    {
      "level": 22,
      "experience": 0,
      "display_names": [
        "Resistance Reinforcement"
      ],
      "costumes": [
        "Resistance_Fem_Veteran_01",
        "Resistance_Fem_Veteran_02",
        "Resistance_Fem_Veteran_03"
      ]
    },
    {
      "level": 23,
      "experience": 0,
      "display_names": [
        "Resistance Reinforcement"
      ],
      "costumes": [
        "Resistance_Fem_Veteran_01",
        "Resistance_Fem_Veteran_02",
        "Resistance_Fem_Veteran_03"
      ]
    },
    {
      "level": 24,
      "experience": 0,
      "display_names": [
        "Resistance Reinforcement"
      ],
      "costumes": [
        "Resistance_Fem_Veteran_01",
        "Resistance_Fem_Veteran_02",
        "Resistance_Fem_Veteran_03"
      ]
    },
    {
      "level": 25,
      "experience": 0,
      "display_names": [
        "Resistance Reinforcement"
      ],
      "costumes": [
        "Resistance_Fem_Veteran_01",
        "Resistance_Fem_Veteran_02",
        "Resistance_Fem_Veteran_03"
      ]
    },
    {
      "level": 26,
      "experience": 0,
      "display_names": [
        "Resistance Reinforcement"
      ],
      "costumes": [
        "Resistance_Fem_Veteran_01",
        "Resistance_Fem_Veteran_02",
        "Resistance_Fem_Veteran_03"
      ]
    },
    {
      "level": 27,
      "experience": 0,
      "display_names": [
        "Resistance Reinforcement"
      ],
      "costumes": [
        "Resistance_Fem_Veteran_01",
        "Resistance_Fem_Veteran_02",
        "Resistance_Fem_Veteran_03"
      ]
    },
    {
      "level": 28,
      "experience": 0,
      "display_names": [
        "Resistance Reinforcement"
      ],
      "costumes": [
        "Resistance_Fem_Veteran_01",
        "Resistance_Fem_Veteran_02",
        "Resistance_Fem_Veteran_03"
      ]
    },
    {
      "level": 29,
      "experience": 0,
      "display_names": [
        "Resistance Reinforcement"
      ],
      "costumes": [
        "Resistance_Fem_Veteran_01",
        "Resistance_Fem_Veteran_02",
        "Resistance_Fem_Veteran_03"
      ]
    },
    {
      "level": 30,
      "experience": 0,
      "display_names": [
        "Resistance Reinforcement"
      ],
      "costumes": [
        "Resistance_Fem_Veteran_01",
        "Resistance_Fem_Veteran_02",
        "Resistance_Fem_Veteran_03"
      ]
    },
    {
      "level": 31,
      "experience": 0,
      "display_names": [
        "Resistance Reinforcement"
      ],
      "costumes": [
        "Resistance_Fem_Veteran_01",
        "Resistance_Fem_Veteran_02",
        "Resistance_Fem_Veteran_03"
      ]
    },
    {
      "level": 32,
      "experience": 0,
      "display_names": [
        "Resistance Reinforcement"
      ],
      "costumes": [
        "Resistance_Fem_Veteran_01",
        "Resistance_Fem_Veteran_02",
        "Resistance_Fem_Veteran_03"
      ]
    },
    {
      "level": 33,
      "experience": 0,
      "display_names": [
        "Resistance Reinforcement"
      ],
      "costumes": [
        "Resistance_Fem_Veteran_01",
        "Resistance_Fem_Veteran_02",
        "Resistance_Fem_Veteran_03"
      ]
    },
    {
      "level": 34,
      "experience": 0,
      "display_names": [
        "Resistance Reinforcement"
      ],
      "costumes": [
        "Resistance_Fem_Veteran_01",
        "Resistance_Fem_Veteran_02",
        "Resistance_Fem_Veteran_03"
      ]
    },
    {
      "level": 35,
      "experience": 0,
      "display_names": [
        "Resistance Reinforcement"
      ],
      "costumes": [
        "Resistance_Fem_Veteran_01",
        "Resistance_Fem_Veteran_02",
        "Resistance_Fem_Veteran_03"
      ]
    },
    {
      "level": 36,
      "experience": 0,
      "display_names": [
        "Resistance Reinforcement"
      ],
      "costumes": [
        "Resistance_Fem_Veteran_01",
        "Resistance_Fem_Veteran_02",
        "Resistance_Fem_Veteran_03"
      ]
    },
    {
      "level": 37,
      "experience": 0,
      "display_names": [
        "Resistance Reinforcement"
      ],
      "costumes": [
        "Resistance_Fem_Veteran_01",
        "Resistance_Fem_Veteran_02",
        "Resistance_Fem_Veteran_03"
      ]
    },
    {
      "level": 38,
      "experience": 0,
      "display_names": [
        "Resistance Reinforcement"
      ],
      "costumes": [
        "Resistance_Fem_Veteran_01",
        "Resistance_Fem_Veteran_02",
        "Resistance_Fem_Veteran_03"
      ]
    },
    {
      "level": 39,
      "experience": 0,
      "display_names": [
        "Resistance Reinforcement"
      ],
      "costumes": [
        "Resistance_Fem_Veteran_01",
        "Resistance_Fem_Veteran_02",
        "Resistance_Fem_Veteran_03"
      ]
    },
    {
      "level": 40,
      "experience": 0,
      "display_names": [
        "Resistance Reinforcement"
      ],
      "costumes": [
        "Resistance_Fem_Veteran_01",
        "Resistance_Fem_Veteran_02",
        "Resistance_Fem_Veteran_03"
      ]
    },
    {
      "level": 41,
      "experience": 0,
      "display_names": [
        "Resistance Reinforcement"
      ],
      "costumes": [
        "Resistance_Fem_Veteran_01",
        "Resistance_Fem_Veteran_02",
        "Resistance_Fem_Veteran_03"
      ]
    },
    {
      "level": 42,
      "experience": 0,
      "display_names": [
        "Resistance Reinforcement"
      ],
      "costumes": [
        "Resistance_Fem_Veteran_01",
        "Resistance_Fem_Veteran_02",
        "Resistance_Fem_Veteran_03"
      ]
    },
    {
      "level": 43,
      "experience": 0,
      "display_names": [
        "Resistance Reinforcement"
      ],
      "costumes": [
        "Resistance_Fem_Veteran_01",
        "Resistance_Fem_Veteran_02",
        "Resistance_Fem_Veteran_03"
      ]
    },
    {
      "level": 44,
      "experience": 0,
      "display_names": [
        "Resistance Reinforcement"
      ],
      "costumes": [
        "Resistance_Fem_Veteran_01",
        "Resistance_Fem_Veteran_02",
        "Resistance_Fem_Veteran_03"
      ]
    },
    {
      "level": 45,
      "experience": 0,
      "display_names": [
        "Resistance Reinforcement"
      ],
      "costumes": [
        "Resistance_Fem_Veteran_01",
        "Resistance_Fem_Veteran_02",
        "Resistance_Fem_Veteran_03"
      ]
    },
    {
      "level": 46,
      "experience": 0,
      "display_names": [
        "Resistance Reinforcement"
      ],
      "costumes": [
        "Resistance_Fem_Veteran_01",
        "Resistance_Fem_Veteran_02",
        "Resistance_Fem_Veteran_03"
      ]
    },
    {
      "level": 47,
      "experience": 0,
      "display_names": [
        "Resistance Reinforcement"
      ],
      "costumes": [
        "Resistance_Fem_Veteran_01",
        "Resistance_Fem_Veteran_02",
        "Resistance_Fem_Veteran_03"
      ]
    },
    {
      "level": 48,
      "experience": 0,
      "display_names": [
        "Resistance Reinforcement"
      ],
      "costumes": [
        "Resistance_Fem_Veteran_01",
        "Resistance_Fem_Veteran_02",
        "Resistance_Fem_Veteran_03"
      ]
    },
    {
      "level": 49,
      "experience": 0,
      "display_names": [
        "Resistance Reinforcement"
      ],
      "costumes": [
        "Resistance_Fem_Veteran_01",
        "Resistance_Fem_Veteran_02",
        "Resistance_Fem_Veteran_03"
      ]
    },
    {
      "level": 50,
      "experience": 0,
      "display_names": [
        "Resistance Reinforcement"
      ],
      "costumes": [
        "Resistance_Fem_Veteran_01",
        "Resistance_Fem_Veteran_02",
        "Resistance_Fem_Veteran_03"
      ]
    }
  ]
}