{
  "name": "Pets_Thug_Pose_07",
  "gender": "GENDER_MALE",
  "description": "These young hotheads are not the brightest bunch, but they are extremely loyal to the right leader. The Posse are not the toughest bunch, but there are a lot of them.",
  "group_description": "Thugs",
  "display_class_name": null,
  "character_class_name": "minion_henchman_small",
  "ai_config": "Pets_Base",
  "commandable_pet": false,
  "power_tags": [
    "HumanSkeleton",
    "Human"
  ],
  "additional_rewards": [

  ],
  "skill_hp_rewards": [

  ],
  "skill_status_rewards": [

  ],
  "ally": null,
  "gang": null,
  "reward_scale": 1.0,
  "game_exclusion": "None",
  "inactive_state_weapon": null,
  "ignores_combat_mods": false,
  "copy_creator_mods": false,
  "spawn_limit": -1,
  "spawn_limit_mission": -1,
  "ignore_av_to_eb_scaling": false,
  "can_zone": true,
  "custom_badge_stat": null,
  "badge_stat_flags": "DefaultBadgeStat",
  "rank": "VR_PET",
  "power_full_names": [
    "Mastermind_Pets.Thug_Pose.Resistance",
    "Mastermind_Pets.Thug_Pose.Self_Destruct",
    "Mastermind_Pets.Thug_Pose_Pipe.Pipe"
  ],
  "power_display_names": [
    "Resistance",
    "Self Destruct",
    "Pipe"
  ],
  "power_levels": [
    0,
    0,
    0
  ],
  "powers": [
    {
      "power_category": "Mastermind_Pets",
      "power_set": "Thug_Pose",
      "power": "*",
      "level": 0
    },
    {
      "power_category": "Mastermind_Pets",
      "power_set": "Thug_Pose_Pipe",
      "power": "*",
      "level": 0
    }
  ],
  "levels": [
    {
      "level": 1,
      "experience": 0,
      "display_names": [
        "Posse"
      ],
      "costumes": [
        "Mastermind_Thug_Minion_01_01",
        "Mastermind_Thug_Minion_02_01",
        "Mastermind_Thug_Minion_03_01",
        "Mastermind_Thug_Minion_04_01"
      ]
    },
    {
      "level": 2,
      "experience": 0,
      "display_names": [
        "Posse"
      ],
      "costumes": [
        "Mastermind_Thug_Minion_01_01",
        "Mastermind_Thug_Minion_02_01",
        "Mastermind_Thug_Minion_03_01",
        "Mastermind_Thug_Minion_04_01"
      ]
    },
    {
      "level": 3,
      "experience": 0,
      "display_names": [
        "Posse"
      ],
      "costumes": [
        "Mastermind_Thug_Minion_01_01",
        "Mastermind_Thug_Minion_02_01",
        "Mastermind_Thug_Minion_03_01",
        "Mastermind_Thug_Minion_04_01"
      ]
    },
    {
      "level": 4,
      "experience": 0,
      "display_names": [
        "Posse"
      ],
      "costumes": [
        "Mastermind_Thug_Minion_01_01",
        "Mastermind_Thug_Minion_02_01",
        "Mastermind_Thug_Minion_03_01",
        "Mastermind_Thug_Minion_04_01"
      ]
    },
    {
      "level": 5,
      "experience": 0,
      "display_names": [
        "Posse"
      ],
      "costumes": [
        "Mastermind_Thug_Minion_01_01",
        "Mastermind_Thug_Minion_02_01",
        "Mastermind_Thug_Minion_03_01",
        "Mastermind_Thug_Minion_04_01"
      ]
    },
    {
      "level": 6,
      "experience": 0,
      "display_names": [
        "Posse"
      ],
      "costumes": [
        "Mastermind_Thug_Minion_01_01",
        "Mastermind_Thug_Minion_02_01",
        "Mastermind_Thug_Minion_03_01",
        "Mastermind_Thug_Minion_04_01"
      ]
    },
    {
      "level": 7,
      "experience": 0,
      "display_names": [
        "Posse"
      ],
      "costumes": [
        "Mastermind_Thug_Minion_01_01",
        "Mastermind_Thug_Minion_02_01",
        "Mastermind_Thug_Minion_03_01",
        "Mastermind_Thug_Minion_04_01"
      ]
    },
    {
      "level": 8,
      "experience": 0,
      "display_names": [
        "Posse"
      ],
      "costumes": [
        "Mastermind_Thug_Minion_01_01",
        "Mastermind_Thug_Minion_02_01",
        "Mastermind_Thug_Minion_03_01",
        "Mastermind_Thug_Minion_04_01"
      ]
    },
    {
      "level": 9,
      "experience": 0,
      "display_names": [
        "Posse"
      ],
      "costumes": [
        "Mastermind_Thug_Minion_01_01",
        "Mastermind_Thug_Minion_02_01",
        "Mastermind_Thug_Minion_03_01",
        "Mastermind_Thug_Minion_04_01"
      ]
    },
    {
      "level": 10,
      "experience": 0,
      "display_names": [
        "Posse"
      ],
      "costumes": [
        "Mastermind_Thug_Minion_01_01",
        "Mastermind_Thug_Minion_02_01",
        "Mastermind_Thug_Minion_03_01",
        "Mastermind_Thug_Minion_04_01"
      ]
    },
    {
      "level": 11,
      "experience": 0,
      "display_names": [
        "Posse"
      ],
      "costumes": [
        "Mastermind_Thug_Minion_01_01",
        "Mastermind_Thug_Minion_02_01",
        "Mastermind_Thug_Minion_03_01",
        "Mastermind_Thug_Minion_04_01"
      ]
    },
    {
      "level": 12,
      "experience": 0,
      "display_names": [
        "Posse"
      ],
      "costumes": [
        "Mastermind_Thug_Minion_01_01",
        "Mastermind_Thug_Minion_02_01",
        "Mastermind_Thug_Minion_03_01",
        "Mastermind_Thug_Minion_04_01"
      ]
    },
    {
      "level": 13,
      "experience": 0,
      "display_names": [
        "Posse"
      ],
      "costumes": [
        "Mastermind_Thug_Minion_01_01",
        "Mastermind_Thug_Minion_02_01",
        "Mastermind_Thug_Minion_03_01",
        "Mastermind_Thug_Minion_04_01"
      ]
    },
    {
      "level": 14,
      "experience": 0,
      "display_names": [
        "Posse"
      ],
      "costumes": [
        "Mastermind_Thug_Minion_01_01",
        "Mastermind_Thug_Minion_02_01",
        "Mastermind_Thug_Minion_03_01",
        "Mastermind_Thug_Minion_04_01"
      ]
    },
    {
      "level": 15,
      "experience": 0,
      "display_names": [
        "Posse"
      ],
      "costumes": [
        "Mastermind_Thug_Minion_01_01",
        "Mastermind_Thug_Minion_02_01",
        "Mastermind_Thug_Minion_03_01",
        "Mastermind_Thug_Minion_04_01"
      ]
    },
    {
      "level": 16,
      "experience": 0,
      "display_names": [
        "Posse"
      ],
      "costumes": [
        "Mastermind_Thug_Minion_01_01",
        "Mastermind_Thug_Minion_02_01",
        "Mastermind_Thug_Minion_03_01",
        "Mastermind_Thug_Minion_04_01"
      ]
    },
    {
      "level": 17,
      "experience": 0,
      "display_names": [
        "Posse"
      ],
      "costumes": [
        "Mastermind_Thug_Minion_01_01",
        "Mastermind_Thug_Minion_02_01",
        "Mastermind_Thug_Minion_03_01",
        "Mastermind_Thug_Minion_04_01"
      ]
    },
    {
      "level": 18,
      "experience": 0,
      "display_names": [
        "Posse"
      ],
      "costumes": [
        "Mastermind_Thug_Minion_01_01",
        "Mastermind_Thug_Minion_02_01",
        "Mastermind_Thug_Minion_03_01",
        "Mastermind_Thug_Minion_04_01"
      ]
    },
    {
      "level": 19,
      "experience": 0,
      "display_names": [
        "Posse"
      ],
      "costumes": [
        "Mastermind_Thug_Minion_01_01",
        "Mastermind_Thug_Minion_02_01",
        "Mastermind_Thug_Minion_03_01",
        "Mastermind_Thug_Minion_04_01"
      ]
    },
    {
      "level": 20,
      "experience": 0,
      "display_names": [
        "Posse"
      ],
      "costumes": [
        "Mastermind_Thug_Minion_01_01",
        "Mastermind_Thug_Minion_02_01",
        "Mastermind_Thug_Minion_03_01",
        "Mastermind_Thug_Minion_04_01"
      ]
    },
    {
      "level": 21,
      "experience": 0,
      "display_names": [
        "Posse"
      ],
      "costumes": [
        "Mastermind_Thug_Minion_01_01",
        "Mastermind_Thug_Minion_02_01",
        "Mastermind_Thug_Minion_03_01",
        "Mastermind_Thug_Minion_04_01"
      ]
    },
    {
      "level": 22,
      "experience": 0,
      "display_names": [
        "Posse"
      ],
      "costumes": [
        "Mastermind_Thug_Minion_01_01",
        "Mastermind_Thug_Minion_02_01",
        "Mastermind_Thug_Minion_03_01",
        "Mastermind_Thug_Minion_04_01"
      ]
    },
    {
      "level": 23,
      "experience": 0,
      "display_names": [
        "Posse"
      ],
      "costumes": [
        "Mastermind_Thug_Minion_01_01",
        "Mastermind_Thug_Minion_02_01",
        "Mastermind_Thug_Minion_03_01",
        "Mastermind_Thug_Minion_04_01"
      ]
    },
    {
      "level": 24,
      "experience": 0,
      "display_names": [
        "Posse"
      ],
      "costumes": [
        "Mastermind_Thug_Minion_01_01",
        "Mastermind_Thug_Minion_02_01",
        "Mastermind_Thug_Minion_03_01",
        "Mastermind_Thug_Minion_04_01"
      ]
    },
    {
      "level": 25,
      "experience": 0,
      "display_names": [
        "Posse"
      ],
      "costumes": [
        "Mastermind_Thug_Minion_01_01",
        "Mastermind_Thug_Minion_02_01",
        "Mastermind_Thug_Minion_03_01",
        "Mastermind_Thug_Minion_04_01"
      ]
    },
    {
      "level": 26,
      "experience": 0,
      "display_names": [
        "Posse"
      ],
      "costumes": [
        "Mastermind_Thug_Minion_01_01",
        "Mastermind_Thug_Minion_02_01",
        "Mastermind_Thug_Minion_03_01",
        "Mastermind_Thug_Minion_04_01"
      ]
    },
    {
      "level": 27,
      "experience": 0,
      "display_names": [
        "Posse"
      ],
      "costumes": [
        "Mastermind_Thug_Minion_01_01",
        "Mastermind_Thug_Minion_02_01",
        "Mastermind_Thug_Minion_03_01",
        "Mastermind_Thug_Minion_04_01"
      ]
    },
    {
      "level": 28,
      "experience": 0,
      "display_names": [
        "Posse"
      ],
      "costumes": [
        "Mastermind_Thug_Minion_01_01",
        "Mastermind_Thug_Minion_02_01",
        "Mastermind_Thug_Minion_03_01",
        "Mastermind_Thug_Minion_04_01"
      ]
    },
    {
      "level": 29,
      "experience": 0,
      "display_names": [
        "Posse"
      ],
      "costumes": [
        "Mastermind_Thug_Minion_01_01",
        "Mastermind_Thug_Minion_02_01",
        "Mastermind_Thug_Minion_03_01",
        "Mastermind_Thug_Minion_04_01"
      ]
    },
    {
      "level": 30,
      "experience": 0,
      "display_names": [
        "Posse"
      ],
      "costumes": [
        "Mastermind_Thug_Minion_01_01",
        "Mastermind_Thug_Minion_02_01",
        "Mastermind_Thug_Minion_03_01",
        "Mastermind_Thug_Minion_04_01"
      ]
    },
    {
      "level": 31,
      "experience": 0,
      "display_names": [
        "Posse"
      ],
      "costumes": [
        "Mastermind_Thug_Minion_01_01",
        "Mastermind_Thug_Minion_02_01",
        "Mastermind_Thug_Minion_03_01",
        "Mastermind_Thug_Minion_04_01"
      ]
    },
    {
      "level": 32,
      "experience": 0,
      "display_names": [
        "Posse"
      ],
      "costumes": [
        "Mastermind_Thug_Minion_01_01",
        "Mastermind_Thug_Minion_02_01",
        "Mastermind_Thug_Minion_03_01",
        "Mastermind_Thug_Minion_04_01"
      ]
    },
    {
      "level": 33,
      "experience": 0,
      "display_names": [
        "Posse"
      ],
      "costumes": [
        "Mastermind_Thug_Minion_01_01",
        "Mastermind_Thug_Minion_02_01",
        "Mastermind_Thug_Minion_03_01",
        "Mastermind_Thug_Minion_04_01"
      ]
    },
    {
      "level": 34,
      "experience": 0,
      "display_names": [
        "Posse"
      ],
      "costumes": [
        "Mastermind_Thug_Minion_01_01",
        "Mastermind_Thug_Minion_02_01",
        "Mastermind_Thug_Minion_03_01",
        "Mastermind_Thug_Minion_04_01"
      ]
    },
    {
      "level": 35,
      "experience": 0,
      "display_names": [
        "Posse"
      ],
      "costumes": [
        "Mastermind_Thug_Minion_01_01",
        "Mastermind_Thug_Minion_02_01",
        "Mastermind_Thug_Minion_03_01",
        "Mastermind_Thug_Minion_04_01"
      ]
    },
    {
      "level": 36,
      "experience": 0,
      "display_names": [
        "Posse"
      ],
      "costumes": [
        "Mastermind_Thug_Minion_01_01",
        "Mastermind_Thug_Minion_02_01",
        "Mastermind_Thug_Minion_03_01",
        "Mastermind_Thug_Minion_04_01"
      ]
    },
    {
      "level": 37,
      "experience": 0,
      "display_names": [
        "Posse"
      ],
      "costumes": [
        "Mastermind_Thug_Minion_01_01",
        "Mastermind_Thug_Minion_02_01",
        "Mastermind_Thug_Minion_03_01",
        "Mastermind_Thug_Minion_04_01"
      ]
    },
    {
      "level": 38,
      "experience": 0,
      "display_names": [
        "Posse"
      ],
      "costumes": [
        "Mastermind_Thug_Minion_01_01",
        "Mastermind_Thug_Minion_02_01",
        "Mastermind_Thug_Minion_03_01",
        "Mastermind_Thug_Minion_04_01"
      ]
    },
    {
      "level": 39,
      "experience": 0,
      "display_names": [
        "Posse"
      ],
      "costumes": [
        "Mastermind_Thug_Minion_01_01",
        "Mastermind_Thug_Minion_02_01",
        "Mastermind_Thug_Minion_03_01",
        "Mastermind_Thug_Minion_04_01"
      ]
    },
    {
      "level": 40,
      "experience": 0,
      "display_names": [
        "Posse"
      ],
      "costumes": [
        "Mastermind_Thug_Minion_01_01",
        "Mastermind_Thug_Minion_02_01",
        "Mastermind_Thug_Minion_03_01",
        "Mastermind_Thug_Minion_04_01"
      ]
    },
    {
      "level": 41,
      "experience": 0,
      "display_names": [
        "Posse"
      ],
      "costumes": [
        "Mastermind_Thug_Minion_01_01",
        "Mastermind_Thug_Minion_02_01",
        "Mastermind_Thug_Minion_03_01",
        "Mastermind_Thug_Minion_04_01"
      ]
    },
    {
      "level": 42,
      "experience": 0,
      "display_names": [
        "Posse"
      ],
      "costumes": [
        "Mastermind_Thug_Minion_01_01",
        "Mastermind_Thug_Minion_02_01",
        "Mastermind_Thug_Minion_03_01",
        "Mastermind_Thug_Minion_04_01"
      ]
    },
    {
      "level": 43,
      "experience": 0,
      "display_names": [
        "Posse"
      ],
      "costumes": [
        "Mastermind_Thug_Minion_01_01",
        "Mastermind_Thug_Minion_02_01",
        "Mastermind_Thug_Minion_03_01",
        "Mastermind_Thug_Minion_04_01"
      ]
    },
    {
      "level": 44,
      "experience": 0,
      "display_names": [
        "Posse"
      ],
      "costumes": [
        "Mastermind_Thug_Minion_01_01",
        "Mastermind_Thug_Minion_02_01",
        "Mastermind_Thug_Minion_03_01",
        "Mastermind_Thug_Minion_04_01"
      ]
    },
    {
      "level": 45,
      "experience": 0,
      "display_names": [
        "Posse"
      ],
      "costumes": [
        "Mastermind_Thug_Minion_01_01",
        "Mastermind_Thug_Minion_02_01",
        "Mastermind_Thug_Minion_03_01",
        "Mastermind_Thug_Minion_04_01"
      ]
    },
    {
      "level": 46,
      "experience": 0,
      "display_names": [
        "Posse"
      ],
      "costumes": [
        "Mastermind_Thug_Minion_01_01",
        "Mastermind_Thug_Minion_02_01",
        "Mastermind_Thug_Minion_03_01",
        "Mastermind_Thug_Minion_04_01"
      ]
    },
    {
      "level": 47,
      "experience": 0,
      "display_names": [
        "Posse"
      ],
      "costumes": [
        "Mastermind_Thug_Minion_01_01",
        "Mastermind_Thug_Minion_02_01",
        "Mastermind_Thug_Minion_03_01",
        "Mastermind_Thug_Minion_04_01"
      ]
    },
    {
      "level": 48,
      "experience": 0,
      "display_names": [
        "Posse"
      ],
      "costumes": [
        "Mastermind_Thug_Minion_01_01",
        "Mastermind_Thug_Minion_02_01",
        "Mastermind_Thug_Minion_03_01",
        "Mastermind_Thug_Minion_04_01"
      ]
    },
    {
      "level": 49,
      "experience": 0,
      "display_names": [
        "Posse"
      ],
      "costumes": [
        "Mastermind_Thug_Minion_01_01",
        "Mastermind_Thug_Minion_02_01",
        "Mastermind_Thug_Minion_03_01",
        "Mastermind_Thug_Minion_04_01"
      ]
    },
    {
      "level": 50,
      "experience": 0,
      "display_names": [
        "Posse"
      ],
      "costumes": [
        "Mastermind_Thug_Minion_01_01",
        "Mastermind_Thug_Minion_02_01",
        "Mastermind_Thug_Minion_03_01",
        "Mastermind_Thug_Minion_04_01"
      ]
    },
    {
      "level": 51,
      "experience": 0,
      "display_names": [
        "Posse"
      ],
      "costumes": [
        "Mastermind_Thug_Minion_01_01",
        "Mastermind_Thug_Minion_02_01",
        "Mastermind_Thug_Minion_03_01",
        "Mastermind_Thug_Minion_04_01"
      ]
    },
    {
      "level": 52,
      "experience": 0,
      "display_names": [
        "Posse"
      ],
      "costumes": [
        "Mastermind_Thug_Minion_01_01",
        "Mastermind_Thug_Minion_02_01",
        "Mastermind_Thug_Minion_03_01",
        "Mastermind_Thug_Minion_04_01"
      ]
    },
    {
      "level": 53,
      "experience": 0,
      "display_names": [
        "Posse"
      ],
      "costumes": [
        "Mastermind_Thug_Minion_01_01",
        "Mastermind_Thug_Minion_02_01",
        "Mastermind_Thug_Minion_03_01",
        "Mastermind_Thug_Minion_04_01"
      ]
    },
    {
      "level": 54,
      "experience": 0,
      "display_names": [
        "Posse"
      ],
      "costumes": [
        "Mastermind_Thug_Minion_01_01",
        "Mastermind_Thug_Minion_02_01",
        "Mastermind_Thug_Minion_03_01",
        "Mastermind_Thug_Minion_04_01"
      ]
    }
  ]
}