{
  "name": "Pets_Patron_Powers_Fortunata_Seer",
  "gender": "GENDER_FEMALE",
  "description": "Fortunata Seers can glimpse moments into the future. They use this ability to increase the defenses of the more mundane troops they slavishly lead into combat.",
  "group_description": null,
  "display_class_name": null,
  "character_class_name": "minion_pets",
  "ai_config": "Pets_Base",
  "commandable_pet": false,
  "power_tags": [
    "Humanoid",
    "HumanSkeleton"
  ],
  "additional_rewards": [

  ],
  "skill_hp_rewards": [

  ],
  "skill_status_rewards": [

  ],
  "ally": null,
  "gang": null,
  "reward_scale": 1.0,
  "game_exclusion": "None",
  "inactive_state_weapon": null,
  "ignores_combat_mods": false,
  "copy_creator_mods": false,
  "spawn_limit": -1,
  "spawn_limit_mission": -1,
  "ignore_av_to_eb_scaling": false,
  "can_zone": true,
  "custom_badge_stat": null,
  "badge_stat_flags": "DefaultBadgeStat",
  "rank": "VR_PET",
  "power_full_names": [
    "Villain_Pets.Fortunata_Seer.Mental_Training",
    "Villain_Pets.Fortunata_Seer.Self_Destruct",
    "Villain_Pets.Fortunata_Seer.Mind_Link",
    "Villain_Pets.Fortunata_Seer.Mind_Probe",
    "Villain_Pets.Fortunata_Seer.Psionic_Dart",
    "Villain_Pets.Fortunata_Seer.Mental_Blast",
    "Villain_Pets.Fortunata_Seer.Psionic_Lance",
    "Villain_Pets.Fortunata_Seer.Subdue"
  ],
  "power_display_names": [
    "Mental Training",
    "Self Destruct",
    "Mind Link",
    "Mind Probe",
    "Psionic Dart",
    "Mental Blast",
    "Psionic Lance",
    "Subdue"
  ],
  "power_levels": [
    0,
    0,
    0,
    0,
    0,
    0,
    0,
    0
  ],
  "powers": [
    {
      "power_category": "Villain_Pets",
      "power_set": "Fortunata_Seer",
      "power": "*",
      "level": 0
    }
  ],
  "levels": [
    {
      "level": 1,
      "experience": 0,
      "display_names": [
        "Fortunata Seer"
      ],
      "costumes": [
        "Arachnos_Widow_03_Tintable"
      ]
    },
    {
      "level": 2,
      "experience": 0,
      "display_names": [
        "Fortunata Seer"
      ],
      "costumes": [
        "Arachnos_Widow_03_Tintable"
      ]
    },
    {
      "level": 3,
      "experience": 0,
      "display_names": [
        "Fortunata Seer"
      ],
      "costumes": [
        "Arachnos_Widow_03_Tintable"
      ]
    },
    {
      "level": 4,
      "experience": 0,
      "display_names": [
        "Fortunata Seer"
      ],
      "costumes": [
        "Arachnos_Widow_03_Tintable"
      ]
    },
    {
      "level": 5,
      "experience": 0,
      "display_names": [
        "Fortunata Seer"
      ],
      "costumes": [
        "Arachnos_Widow_03_Tintable"
      ]
    },
    {
      "level": 6,
      "experience": 0,
      "display_names": [
        "Fortunata Seer"
      ],
      "costumes": [
        "Arachnos_Widow_03_Tintable"
      ]
    },
    {
      "level": 7,
      "experience": 0,
      "display_names": [
        "Fortunata Seer"
      ],
      "costumes": [
        "Arachnos_Widow_03_Tintable"
      ]
    },
    {
      "level": 8,
      "experience": 0,
      "display_names": [
        "Fortunata Seer"
      ],
      "costumes": [
        "Arachnos_Widow_03_Tintable"
      ]
    },
    {
      "level": 9,
      "experience": 0,
      "display_names": [
        "Fortunata Seer"
      ],
      "costumes": [
        "Arachnos_Widow_03_Tintable"
      ]
    },
    {
      "level": 10,
      "experience": 0,
      "display_names": [
        "Fortunata Seer"
      ],
      "costumes": [
        "Arachnos_Widow_03_Tintable"
      ]
    },
    {
      "level": 11,
      "experience": 0,
      "display_names": [
        "Fortunata Seer"
      ],
      "costumes": [
        "Arachnos_Widow_03_Tintable"
      ]
    },
    {
      "level": 12,
      "experience": 0,
      "display_names": [
        "Fortunata Seer"
      ],
      "costumes": [
        "Arachnos_Widow_03_Tintable"
      ]
    },
    {
      "level": 13,
      "experience": 0,
      "display_names": [
        "Fortunata Seer"
      ],
      "costumes": [
        "Arachnos_Widow_03_Tintable"
      ]
    },
    {
      "level": 14,
      "experience": 0,
      "display_names": [
        "Fortunata Seer"
      ],
      "costumes": [
        "Arachnos_Widow_03_Tintable"
      ]
    },
    {
      "level": 15,
      "experience": 0,
      "display_names": [
        "Fortunata Seer"
      ],
      "costumes": [
        "Arachnos_Widow_03_Tintable"
      ]
    },
    {
      "level": 16,
      "experience": 0,
      "display_names": [
        "Fortunata Seer"
      ],
      "costumes": [
        "Arachnos_Widow_03_Tintable"
      ]
    },
    {
      "level": 17,
      "experience": 0,
      "display_names": [
        "Fortunata Seer"
      ],
      "costumes": [
        "Arachnos_Widow_03_Tintable"
      ]
    },
    {
      "level": 18,
      "experience": 0,
      "display_names": [
        "Fortunata Seer"
      ],
      "costumes": [
        "Arachnos_Widow_03_Tintable"
      ]
    },
    {
      "level": 19,
      "experience": 0,
      "display_names": [
        "Fortunata Seer"
      ],
      "costumes": [
        "Arachnos_Widow_03_Tintable"
      ]
    },
    {
      "level": 20,
      "experience": 0,
      "display_names": [
        "Fortunata Seer"
      ],
      "costumes": [
        "Arachnos_Widow_03_Tintable"
      ]
    },
    {
      "level": 21,
      "experience": 0,
      "display_names": [
        "Fortunata Seer"
      ],
      "costumes": [
        "Arachnos_Widow_03_Tintable"
      ]
    },
    {
      "level": 22,
      "experience": 0,
      "display_names": [
        "Fortunata Seer"
      ],
      "costumes": [
        "Arachnos_Widow_03_Tintable"
      ]
    },
    {
      "level": 23,
      "experience": 0,
      "display_names": [
        "Fortunata Seer"
      ],
      "costumes": [
        "Arachnos_Widow_03_Tintable"
      ]
    },
    {
      "level": 24,
      "experience": 0,
      "display_names": [
        "Fortunata Seer"
      ],
      "costumes": [
        "Arachnos_Widow_03_Tintable"
      ]
    },
    {
      "level": 25,
      "experience": 0,
      "display_names": [
        "Fortunata Seer"
      ],
      "costumes": [
        "Arachnos_Widow_03_Tintable"
      ]
    },
    {
      "level": 26,
      "experience": 0,
      "display_names": [
        "Fortunata Seer"
      ],
      "costumes": [
        "Arachnos_Widow_03_Tintable"
      ]
    },
    {
      "level": 27,
      "experience": 0,
      "display_names": [
        "Fortunata Seer"
      ],
      "costumes": [
        "Arachnos_Widow_03_Tintable"
      ]
    },
    {
      "level": 28,
      "experience": 0,
      "display_names": [
        "Fortunata Seer"
      ],
      "costumes": [
        "Arachnos_Widow_03_Tintable"
      ]
    },
    {
      "level": 29,
      "experience": 0,
      "display_names": [
        "Fortunata Seer"
      ],
      "costumes": [
        "Arachnos_Widow_03_Tintable"
      ]
    },
    {
      "level": 30,
      "experience": 0,
      "display_names": [
        "Fortunata Seer"
      ],
      "costumes": [
        "Arachnos_Widow_03_Tintable"
      ]
    },
    {
      "level": 31,
      "experience": 0,
      "display_names": [
        "Fortunata Seer"
      ],
      "costumes": [
        "Arachnos_Widow_03_Tintable"
      ]
    },
    {
      "level": 32,
      "experience": 0,
      "display_names": [
        "Fortunata Seer"
      ],
      "costumes": [
        "Arachnos_Widow_03_Tintable"
      ]
    },
    {
      "level": 33,
      "experience": 0,
      "display_names": [
        "Fortunata Seer"
      ],
      "costumes": [
        "Arachnos_Widow_03_Tintable"
      ]
    },
    {
      "level": 34,
      "experience": 0,
      "display_names": [
        "Fortunata Seer"
      ],
      "costumes": [
        "Arachnos_Widow_03_Tintable"
      ]
    },
    {
      "level": 35,
      "experience": 0,
      "display_names": [
        "Fortunata Seer"
      ],
      "costumes": [
        "Arachnos_Widow_03_Tintable"
      ]
    },
    {
      "level": 36,
      "experience": 0,
      "display_names": [
        "Fortunata Seer"
      ],
      "costumes": [
        "Arachnos_Widow_03_Tintable"
      ]
    },
    {
      "level": 37,
      "experience": 0,
      "display_names": [
        "Fortunata Seer"
      ],
      "costumes": [
        "Arachnos_Widow_03_Tintable"
      ]
    },
    {
      "level": 38,
      "experience": 0,
      "display_names": [
        "Fortunata Seer"
      ],
      "costumes": [
        "Arachnos_Widow_03_Tintable"
      ]
    },
    {
      "level": 39,
      "experience": 0,
      "display_names": [
        "Fortunata Seer"
      ],
      "costumes": [
        "Arachnos_Widow_03_Tintable"
      ]
    },
    {
      "level": 40,
      "experience": 0,
      "display_names": [
        "Fortunata Seer"
      ],
      "costumes": [
        "Arachnos_Widow_03_Tintable"
      ]
    },
    {
      "level": 41,
      "experience": 0,
      "display_names": [
        "Fortunata Seer"
      ],
      "costumes": [
        "Arachnos_Widow_03_Tintable"
      ]
    },
    {
      "level": 42,
      "experience": 0,
      "display_names": [
        "Fortunata Seer"
      ],
      "costumes": [
        "Arachnos_Widow_03_Tintable"
      ]
    },
    {
      "level": 43,
      "experience": 0,
      "display_names": [
        "Fortunata Seer"
      ],
      "costumes": [
        "Arachnos_Widow_03_Tintable"
      ]
    },
    {
      "level": 44,
      "experience": 0,
      "display_names": [
        "Fortunata Seer"
      ],
      "costumes": [
        "Arachnos_Widow_03_Tintable"
      ]
    },
    {
      "level": 45,
      "experience": 0,
      "display_names": [
        "Fortunata Seer"
      ],
      "costumes": [
        "Arachnos_Widow_03_Tintable"
      ]
    },
    {
      "level": 46,
      "experience": 0,
      "display_names": [
        "Fortunata Seer"
      ],
      "costumes": [
        "Arachnos_Widow_03_Tintable"
      ]
    },
    {
      "level": 47,
      "experience": 0,
      "display_names": [
        "Fortunata Seer"
      ],
      "costumes": [
        "Arachnos_Widow_03_Tintable"
      ]
    },
    {
      "level": 48,
      "experience": 0,
      "display_names": [
        "Fortunata Seer"
      ],
      "costumes": [
        "Arachnos_Widow_03_Tintable"
      ]
    },
    {
      "level": 49,
      "experience": 0,
      "display_names": [
        "Fortunata Seer"
      ],
      "costumes": [
        "Arachnos_Widow_03_Tintable"
      ]
    },
    {
      "level": 50,
      "experience": 0,
      "display_names": [
        "Fortunata Seer"
      ],
      "costumes": [
        "Arachnos_Widow_03_Tintable"
      ]
    },
    {
      "level": 51,
      "experience": 0,
      "display_names": [
        "Fortunata Seer"
      ],
      "costumes": [
        "Arachnos_Widow_03_Tintable"
      ]
    },
    {
      "level": 52,
      "experience": 0,
      "display_names": [
        "Fortunata Seer"
      ],
      "costumes": [
        "Arachnos_Widow_03_Tintable"
      ]
    },
    {
      "level": 53,
      "experience": 0,
      "display_names": [
        "Fortunata Seer"
      ],
      "costumes": [
        "Arachnos_Widow_03_Tintable"
      ]
    },
    {
      "level": 54,
      "experience": 0,
      "display_names": [
        "Fortunata Seer"
      ],
      "costumes": [
        "Arachnos_Widow_03_Tintable"
      ]
    }
  ]
}