{
  "name": "PracticeRobots_PracticeRobot_3",
  "gender": "GENDER_MALE",
  "description": "This is the most advanced of the Rikti Drones. Its weaponry and defenses make it a threat best taken on by several heroes at once.",
  "group_description": null,
  "display_class_name": null,
  "character_class_name": "minion_practice",
  "ai_config": null,
  "commandable_pet": false,
  "power_tags": [
    "Electronic"
  ],
  "additional_rewards": [

  ],
  "skill_hp_rewards": [

  ],
  "skill_status_rewards": [

  ],
  "ally": null,
  "gang": null,
  "reward_scale": 1.0,
  "game_exclusion": "None",
  "inactive_state_weapon": null,
  "ignores_combat_mods": false,
  "copy_creator_mods": false,
  "spawn_limit": -1,
  "spawn_limit_mission": -1,
  "ignore_av_to_eb_scaling": false,
  "can_zone": false,
  "custom_badge_stat": null,
  "badge_stat_flags": "DefaultBadgeStat",
  "rank": "VR_BOSS",
  "power_full_names": [
    "PracticeRobots.PracticeRobots.Resistance",
    "PracticeRobots.Boss_PracticeRobots.Resistance"
  ],
  "power_display_names": [
    "Resistance",
    "Resistance"
  ],
  "power_levels": [
    0,
    0
  ],
  "powers": [
    {
      "power_category": "PracticeRobots",
      "power_set": "PracticeRobots",
      "power": "*",
      "level": 0
    },
    {
      "power_category": "PracticeRobots",
      "power_set": "Boss_PracticeRobots",
      "power": "*",
      "level": 0
    }
  ],
  "levels": [
    {
      "level": 3,
      "experience": 0,
      "display_names": [
        "Deactivated Rikti Drone"
      ],
      "costumes": [
        "RiktiDrone_2"
      ]
    }
  ]
}