{
  "name": "PraetorianDUSTIDFEndgame_Warworks_Mobile_Defense_Turret",
  "gender": "GENDER_MALE",
  "description": "Armed with plasma weaponry capable of piercing through the toughest of armor, these turrets are an incredibly effective deterrent for keeping trespassers out of the Lambda sector and other vital Praetorian military outposts.",
  "group_description": null,
  "display_class_name": null,
  "character_class_name": "boss_praetoriangrunt",
  "ai_config": "Default_Ranged",
  "commandable_pet": false,
  "power_tags": [
    "Electronic"
  ],
  "additional_rewards": [

  ],
  "skill_hp_rewards": [

  ],
  "skill_status_rewards": [

  ],
  "ally": null,
  "gang": null,
  "reward_scale": 1.0,
  "game_exclusion": "None",
  "inactive_state_weapon": null,
  "ignores_combat_mods": false,
  "copy_creator_mods": false,
  "spawn_limit": 0,
  "spawn_limit_mission": 0,
  "ignore_av_to_eb_scaling": false,
  "can_zone": false,
  "custom_badge_stat": null,
  "badge_stat_flags": "DefaultBadgeStat",
  "rank": "VR_BOSS",
  "power_full_names": [
    "PraetorianIDF.Warworks_Turret.Plasma_Cannon_Blast",
    "PraetorianIDF.Warworks_Turret.Plasma_Cannon_Burst",
    "PraetorianIDF.Warworks_Turret.Plasma_Cannon_Spray",
    "PraetorianIDF.Warworks_Turret.Plasma_Cannon_Detonator",
    "PraetorianIDF.Warworks_Turret.Rapid_Repair",
    "PraetorianIDF.Warworks_Mobile_Turret.Plasma_Vent"
  ],
  "power_display_names": [
    "Plasma Cannon Blast",
    "Plasma Cannon Burst",
    "Plasma Cannon Spray",
    "Plasma Cannon Detonator",
    "Rapid Repair",
    "Plasma Vent"
  ],
  "power_levels": [
    0,
    0,
    0,
    0,
    0,
    0
  ],
  "powers": [
    {
      "power_category": "PraetorianIDF",
      "power_set": "Warworks_Turret",
      "power": "*",
      "level": 0
    },
    {
      "power_category": "PraetorianIDF",
      "power_set": "Warworks_Mobile_Turret",
      "power": "*",
      "level": 0
    }
  ],
  "levels": [
    {
      "level": 1,
      "experience": 0,
      "display_names": [
        "Mobile Defense Turret"
      ],
      "costumes": [
        "V_Antimatter_TurretB"
      ]
    },
    {
      "level": 2,
      "experience": 0,
      "display_names": [
        "Mobile Defense Turret"
      ],
      "costumes": [
        "V_Antimatter_TurretB"
      ]
    },
    {
      "level": 3,
      "experience": 0,
      "display_names": [
        "Mobile Defense Turret"
      ],
      "costumes": [
        "V_Antimatter_TurretB"
      ]
    },
    {
      "level": 4,
      "experience": 0,
      "display_names": [
        "Mobile Defense Turret"
      ],
      "costumes": [
        "V_Antimatter_TurretB"
      ]
    },
    {
      "level": 5,
      "experience": 0,
      "display_names": [
        "Mobile Defense Turret"
      ],
      "costumes": [
        "V_Antimatter_TurretB"
      ]
    },
    {
      "level": 6,
      "experience": 0,
      "display_names": [
        "Mobile Defense Turret"
      ],
      "costumes": [
        "V_Antimatter_TurretB"
      ]
    },
    {
      "level": 7,
      "experience": 0,
      "display_names": [
        "Mobile Defense Turret"
      ],
      "costumes": [
        "V_Antimatter_TurretB"
      ]
    },
    {
      "level": 8,
      "experience": 0,
      "display_names": [
        "Mobile Defense Turret"
      ],
      "costumes": [
        "V_Antimatter_TurretB"
      ]
    },
    {
      "level": 9,
      "experience": 0,
      "display_names": [
        "Mobile Defense Turret"
      ],
      "costumes": [
        "V_Antimatter_TurretB"
      ]
    },
    {
      "level": 10,
      "experience": 0,
      "display_names": [
        "Mobile Defense Turret"
      ],
      "costumes": [
        "V_Antimatter_TurretB"
      ]
    },
    {
      "level": 11,
      "experience": 0,
      "display_names": [
        "Mobile Defense Turret"
      ],
      "costumes": [
        "V_Antimatter_TurretB"
      ]
    },
    {
      "level": 12,
      "experience": 0,
      "display_names": [
        "Mobile Defense Turret"
      ],
      "costumes": [
        "V_Antimatter_TurretB"
      ]
    },
    {
      "level": 13,
      "experience": 0,
      "display_names": [
        "Mobile Defense Turret"
      ],
      "costumes": [
        "V_Antimatter_TurretB"
      ]
    },
    {
      "level": 14,
      "experience": 0,
      "display_names": [
        "Mobile Defense Turret"
      ],
      "costumes": [
        "V_Antimatter_TurretB"
      ]
    },
    {
      "level": 15,
      "experience": 0,
      "display_names": [
        "Mobile Defense Turret"
      ],
      "costumes": [
        "V_Antimatter_TurretB"
      ]
    },
    {
      "level": 16,
      "experience": 0,
      "display_names": [
        "Mobile Defense Turret"
      ],
      "costumes": [
        "V_Antimatter_TurretB"
      ]
    },
    {
      "level": 17,
      "experience": 0,
      "display_names": [
        "Mobile Defense Turret"
      ],
      "costumes": [
        "V_Antimatter_TurretB"
      ]
    },
    {
      "level": 18,
      "experience": 0,
      "display_names": [
        "Mobile Defense Turret"
      ],
      "costumes": [
        "V_Antimatter_TurretB"
      ]
    },
    {
      "level": 19,
      "experience": 0,
      "display_names": [
        "Mobile Defense Turret"
      ],
      "costumes": [
        "V_Antimatter_TurretB"
      ]
    },
    {
      "level": 20,
      "experience": 0,
      "display_names": [
        "Mobile Defense Turret"
      ],
      "costumes": [
        "V_Antimatter_TurretB"
      ]
    },
    {
      "level": 21,
      "experience": 0,
      "display_names": [
        "Mobile Defense Turret"
      ],
      "costumes": [
        "V_Antimatter_TurretB"
      ]
    },
    {
      "level": 22,
      "experience": 0,
      "display_names": [
        "Mobile Defense Turret"
      ],
      "costumes": [
        "V_Antimatter_TurretB"
      ]
    },
    {
      "level": 23,
      "experience": 0,
      "display_names": [
        "Mobile Defense Turret"
      ],
      "costumes": [
        "V_Antimatter_TurretB"
      ]
    },
    {
      "level": 24,
      "experience": 0,
      "display_names": [
        "Mobile Defense Turret"
      ],
      "costumes": [
        "V_Antimatter_TurretB"
      ]
    },
    {
      "level": 25,
      "experience": 0,
      "display_names": [
        "Mobile Defense Turret"
      ],
      "costumes": [
        "V_Antimatter_TurretB"
      ]
    },
    {
      "level": 26,
      "experience": 0,
      "display_names": [
        "Mobile Defense Turret"
      ],
      "costumes": [
        "V_Antimatter_TurretB"
      ]
    },
    {
      "level": 27,
      "experience": 0,
      "display_names": [
        "Mobile Defense Turret"
      ],
      "costumes": [
        "V_Antimatter_TurretB"
      ]
    },
    {
      "level": 28,
      "experience": 0,
      "display_names": [
        "Mobile Defense Turret"
      ],
      "costumes": [
        "V_Antimatter_TurretB"
      ]
    },
    {
      "level": 29,
      "experience": 0,
      "display_names": [
        "Mobile Defense Turret"
      ],
      "costumes": [
        "V_Antimatter_TurretB"
      ]
    },
    {
      "level": 30,
      "experience": 0,
      "display_names": [
        "Mobile Defense Turret"
      ],
      "costumes": [
        "V_Antimatter_TurretB"
      ]
    },
    {
      "level": 31,
      "experience": 0,
      "display_names": [
        "Mobile Defense Turret"
      ],
      "costumes": [
        "V_Antimatter_TurretB"
      ]
    },
    {
      "level": 32,
      "experience": 0,
      "display_names": [
        "Mobile Defense Turret"
      ],
      "costumes": [
        "V_Antimatter_TurretB"
      ]
    },
    {
      "level": 33,
      "experience": 0,
      "display_names": [
        "Mobile Defense Turret"
      ],
      "costumes": [
        "V_Antimatter_TurretB"
      ]
    },
    {
      "level": 34,
      "experience": 0,
      "display_names": [
        "Mobile Defense Turret"
      ],
      "costumes": [
        "V_Antimatter_TurretB"
      ]
    },
    {
      "level": 35,
      "experience": 0,
      "display_names": [
        "Mobile Defense Turret"
      ],
      "costumes": [
        "V_Antimatter_TurretB"
      ]
    },
    {
      "level": 36,
      "experience": 0,
      "display_names": [
        "Mobile Defense Turret"
      ],
      "costumes": [
        "V_Antimatter_TurretB"
      ]
    },
    {
      "level": 37,
      "experience": 0,
      "display_names": [
        "Mobile Defense Turret"
      ],
      "costumes": [
        "V_Antimatter_TurretB"
      ]
    },
    {
      "level": 38,
      "experience": 0,
      "display_names": [
        "Mobile Defense Turret"
      ],
      "costumes": [
        "V_Antimatter_TurretB"
      ]
    },
    {
      "level": 39,
      "experience": 0,
      "display_names": [
        "Mobile Defense Turret"
      ],
      "costumes": [
        "V_Antimatter_TurretB"
      ]
    },
    {
      "level": 40,
      "experience": 0,
      "display_names": [
        "Mobile Defense Turret"
      ],
      "costumes": [
        "V_Antimatter_TurretB"
      ]
    },
    {
      "level": 41,
      "experience": 0,
      "display_names": [
        "Mobile Defense Turret"
      ],
      "costumes": [
        "V_Antimatter_TurretB"
      ]
    },
    {
      "level": 42,
      "experience": 0,
      "display_names": [
        "Mobile Defense Turret"
      ],
      "costumes": [
        "V_Antimatter_TurretB"
      ]
    },
    {
      "level": 43,
      "experience": 0,
      "display_names": [
        "Mobile Defense Turret"
      ],
      "costumes": [
        "V_Antimatter_TurretB"
      ]
    },
    {
      "level": 44,
      "experience": 0,
      "display_names": [
        "Mobile Defense Turret"
      ],
      "costumes": [
        "V_Antimatter_TurretB"
      ]
    },
    {
      "level": 45,
      "experience": 0,
      "display_names": [
        "Mobile Defense Turret"
      ],
      "costumes": [
        "V_Antimatter_TurretB"
      ]
    },
    {
      "level": 46,
      "experience": 0,
      "display_names": [
        "Mobile Defense Turret"
      ],
      "costumes": [
        "V_Antimatter_TurretB"
      ]
    },
    {
      "level": 47,
      "experience": 0,
      "display_names": [
        "Mobile Defense Turret"
      ],
      "costumes": [
        "V_Antimatter_TurretB"
      ]
    },
    {
      "level": 48,
      "experience": 0,
      "display_names": [
        "Mobile Defense Turret"
      ],
      "costumes": [
        "V_Antimatter_TurretB"
      ]
    },
    {
      "level": 49,
      "experience": 0,
      "display_names": [
        "Mobile Defense Turret"
      ],
      "costumes": [
        "V_Antimatter_TurretB"
      ]
    },
    {
      "level": 50,
      "experience": 0,
      "display_names": [
        "Mobile Defense Turret"
      ],
      "costumes": [
        "V_Antimatter_TurretB"
      ]
    },
    {
      "level": 51,
      "experience": 0,
      "display_names": [
        "Mobile Defense Turret"
      ],
      "costumes": [
        "V_Antimatter_TurretB"
      ]
    },
    {
      "level": 52,
      "experience": 0,
      "display_names": [
        "Mobile Defense Turret"
      ],
      "costumes": [
        "V_Antimatter_TurretB"
      ]
    },
    {
      "level": 53,
      "experience": 0,
      "display_names": [
        "Mobile Defense Turret"
      ],
      "costumes": [
        "V_Antimatter_TurretB"
      ]
    },
    {
      "level": 54,
      "experience": 0,
      "display_names": [
        "Mobile Defense Turret"
      ],
      "costumes": [
        "V_Antimatter_TurretB"
      ]
    }
  ]
}