{
  "name": "PraetorianClockworkLoyalist_Android_Dismantler",
  "gender": "GENDER_MALE",
  "description": "Dismantlers are occasionally called in when their plasma torches can be put to use to tear apart crumbling or collapsed buildings. These behemoth Androids are the heavy lifters, movers and builders of the Android labor units.",
  "group_description": null,
  "display_class_name": null,
  "character_class_name": "boss_grunt",
  "ai_config": "Default_Ranged",
  "commandable_pet": false,
  "power_tags": [
    "Electronic"
  ],
  "additional_rewards": [

  ],
  "skill_hp_rewards": [

  ],
  "skill_status_rewards": [

  ],
  "ally": null,
  "gang": null,
  "reward_scale": 1.0,
  "game_exclusion": "None",
  "inactive_state_weapon": null,
  "ignores_combat_mods": false,
  "copy_creator_mods": false,
  "spawn_limit": -1,
  "spawn_limit_mission": -1,
  "ignore_av_to_eb_scaling": false,
  "can_zone": false,
  "custom_badge_stat": null,
  "badge_stat_flags": "DefaultBadgeStat",
  "rank": "VR_BOSS",
  "power_full_names": [
    "PraetorianClockwork.Android_Dismantler_Ranged.Particle_Blast",
    "PraetorianClockwork.Android_Dismantler_Ranged.Particle_Burst",
    "PraetorianClockwork.Android_Dismantler_Ranged.Particle_Spray",
    "PraetorianClockwork.Android_Dismantler_Ranged.Anti-Matter_Beam",
    "PraetorianClockwork.Android_Dismantler_Ranged.Anti-Matter_Ray",
    "PraetorianClockwork.Android_Boss_Regen.Rapid_Repair_Low_Boss",
    "PraetorianClockwork.Android_Boss_Regen.Rapid_Repair_Mid_Boss",
    "PraetorianClockwork.Android_Boss_Regen.Rapid_Repair_High_Boss"
  ],
  "power_display_names": [
    "Particle Blast",
    "Particle Burst",
    "Particle Spray",
    "Anti-Matter Beam",
    "Anti-Matter Ray",
    "Fast Repair",
    "Fast Repair",
    "Fast Repair"
  ],
  "power_levels": [
    0,
    0,
    0,
    0,
    0,
    0,
    0,
    0
  ],
  "powers": [
    {
      "power_category": "PraetorianClockwork",
      "power_set": "Android_Dismantler_Ranged",
      "power": "*",
      "level": 0
    },
    {
      "power_category": "PraetorianClockwork",
      "power_set": "Android_Boss_Regen",
      "power": "*",
      "level": 0
    }
  ],
  "levels": [
    {
      "level": 1,
      "experience": 0,
      "display_names": [
        "Dismantler"
      ],
      "costumes": [
        "Clockwork_Loyalist_Boss_01",
        "Clockwork_Loyalist_Boss_02"
      ]
    },
    {
      "level": 2,
      "experience": 0,
      "display_names": [
        "Dismantler"
      ],
      "costumes": [
        "Clockwork_Loyalist_Boss_01",
        "Clockwork_Loyalist_Boss_02"
      ]
    },
    {
      "level": 3,
      "experience": 0,
      "display_names": [
        "Dismantler"
      ],
      "costumes": [
        "Clockwork_Loyalist_Boss_01",
        "Clockwork_Loyalist_Boss_02"
      ]
    },
    {
      "level": 4,
      "experience": 0,
      "display_names": [
        "Dismantler"
      ],
      "costumes": [
        "Clockwork_Loyalist_Boss_01",
        "Clockwork_Loyalist_Boss_02"
      ]
    },
    {
      "level": 5,
      "experience": 0,
      "display_names": [
        "Dismantler"
      ],
      "costumes": [
        "Clockwork_Loyalist_Boss_01",
        "Clockwork_Loyalist_Boss_02"
      ]
    },
    {
      "level": 6,
      "experience": 0,
      "display_names": [
        "Dismantler"
      ],
      "costumes": [
        "Clockwork_Loyalist_Boss_01",
        "Clockwork_Loyalist_Boss_02"
      ]
    },
    {
      "level": 7,
      "experience": 0,
      "display_names": [
        "Dismantler"
      ],
      "costumes": [
        "Clockwork_Loyalist_Boss_01",
        "Clockwork_Loyalist_Boss_02"
      ]
    },
    {
      "level": 8,
      "experience": 0,
      "display_names": [
        "Dismantler"
      ],
      "costumes": [
        "Clockwork_Loyalist_Boss_01",
        "Clockwork_Loyalist_Boss_02"
      ]
    },
    {
      "level": 9,
      "experience": 0,
      "display_names": [
        "Dismantler"
      ],
      "costumes": [
        "Clockwork_Loyalist_Boss_01",
        "Clockwork_Loyalist_Boss_02"
      ]
    },
    {
      "level": 10,
      "experience": 0,
      "display_names": [
        "Dismantler"
      ],
      "costumes": [
        "Clockwork_Loyalist_Boss_01",
        "Clockwork_Loyalist_Boss_02"
      ]
    },
    {
      "level": 11,
      "experience": 0,
      "display_names": [
        "Dismantler"
      ],
      "costumes": [
        "Clockwork_Loyalist_Boss_01",
        "Clockwork_Loyalist_Boss_02"
      ]
    },
    {
      "level": 12,
      "experience": 0,
      "display_names": [
        "Dismantler"
      ],
      "costumes": [
        "Clockwork_Loyalist_Boss_01",
        "Clockwork_Loyalist_Boss_02"
      ]
    },
    {
      "level": 13,
      "experience": 0,
      "display_names": [
        "Dismantler"
      ],
      "costumes": [
        "Clockwork_Loyalist_Boss_01",
        "Clockwork_Loyalist_Boss_02"
      ]
    },
    {
      "level": 14,
      "experience": 0,
      "display_names": [
        "Dismantler"
      ],
      "costumes": [
        "Clockwork_Loyalist_Boss_01",
        "Clockwork_Loyalist_Boss_02"
      ]
    },
    {
      "level": 15,
      "experience": 0,
      "display_names": [
        "Dismantler"
      ],
      "costumes": [
        "Clockwork_Loyalist_Boss_01",
        "Clockwork_Loyalist_Boss_02"
      ]
    },
    {
      "level": 16,
      "experience": 0,
      "display_names": [
        "Dismantler"
      ],
      "costumes": [
        "Clockwork_Loyalist_Boss_01",
        "Clockwork_Loyalist_Boss_02"
      ]
    },
    {
      "level": 17,
      "experience": 0,
      "display_names": [
        "Dismantler"
      ],
      "costumes": [
        "Clockwork_Loyalist_Boss_01",
        "Clockwork_Loyalist_Boss_02"
      ]
    },
    {
      "level": 18,
      "experience": 0,
      "display_names": [
        "Dismantler"
      ],
      "costumes": [
        "Clockwork_Loyalist_Boss_01",
        "Clockwork_Loyalist_Boss_02"
      ]
    },
    {
      "level": 19,
      "experience": 0,
      "display_names": [
        "Dismantler"
      ],
      "costumes": [
        "Clockwork_Loyalist_Boss_01",
        "Clockwork_Loyalist_Boss_02"
      ]
    },
    {
      "level": 20,
      "experience": 0,
      "display_names": [
        "Dismantler"
      ],
      "costumes": [
        "Clockwork_Loyalist_Boss_01",
        "Clockwork_Loyalist_Boss_02"
      ]
    },
    {
      "level": 21,
      "experience": 0,
      "display_names": [
        "Dismantler"
      ],
      "costumes": [
        "Clockwork_Loyalist_Boss_01",
        "Clockwork_Loyalist_Boss_02"
      ]
    },
    {
      "level": 22,
      "experience": 0,
      "display_names": [
        "Dismantler"
      ],
      "costumes": [
        "Clockwork_Loyalist_Boss_01",
        "Clockwork_Loyalist_Boss_02"
      ]
    },
    {
      "level": 23,
      "experience": 0,
      "display_names": [
        "Dismantler"
      ],
      "costumes": [
        "Clockwork_Loyalist_Boss_01",
        "Clockwork_Loyalist_Boss_02"
      ]
    },
    {
      "level": 24,
      "experience": 0,
      "display_names": [
        "Dismantler"
      ],
      "costumes": [
        "Clockwork_Loyalist_Boss_01",
        "Clockwork_Loyalist_Boss_02"
      ]
    },
    {
      "level": 25,
      "experience": 0,
      "display_names": [
        "Dismantler"
      ],
      "costumes": [
        "Clockwork_Loyalist_Boss_01",
        "Clockwork_Loyalist_Boss_02"
      ]
    },
    {
      "level": 26,
      "experience": 0,
      "display_names": [
        "Dismantler"
      ],
      "costumes": [
        "Clockwork_Loyalist_Boss_01",
        "Clockwork_Loyalist_Boss_02"
      ]
    },
    {
      "level": 27,
      "experience": 0,
      "display_names": [
        "Dismantler"
      ],
      "costumes": [
        "Clockwork_Loyalist_Boss_01",
        "Clockwork_Loyalist_Boss_02"
      ]
    },
    {
      "level": 28,
      "experience": 0,
      "display_names": [
        "Dismantler"
      ],
      "costumes": [
        "Clockwork_Loyalist_Boss_01",
        "Clockwork_Loyalist_Boss_02"
      ]
    },
    {
      "level": 29,
      "experience": 0,
      "display_names": [
        "Dismantler"
      ],
      "costumes": [
        "Clockwork_Loyalist_Boss_01",
        "Clockwork_Loyalist_Boss_02"
      ]
    },
    {
      "level": 30,
      "experience": 0,
      "display_names": [
        "Dismantler"
      ],
      "costumes": [
        "Clockwork_Loyalist_Boss_01",
        "Clockwork_Loyalist_Boss_02"
      ]
    },
    {
      "level": 31,
      "experience": 0,
      "display_names": [
        "Dismantler"
      ],
      "costumes": [
        "Clockwork_Loyalist_Boss_01",
        "Clockwork_Loyalist_Boss_02"
      ]
    },
    {
      "level": 32,
      "experience": 0,
      "display_names": [
        "Dismantler"
      ],
      "costumes": [
        "Clockwork_Loyalist_Boss_01",
        "Clockwork_Loyalist_Boss_02"
      ]
    },
    {
      "level": 33,
      "experience": 0,
      "display_names": [
        "Dismantler"
      ],
      "costumes": [
        "Clockwork_Loyalist_Boss_01",
        "Clockwork_Loyalist_Boss_02"
      ]
    },
    {
      "level": 34,
      "experience": 0,
      "display_names": [
        "Dismantler"
      ],
      "costumes": [
        "Clockwork_Loyalist_Boss_01",
        "Clockwork_Loyalist_Boss_02"
      ]
    },
    {
      "level": 35,
      "experience": 0,
      "display_names": [
        "Dismantler"
      ],
      "costumes": [
        "Clockwork_Loyalist_Boss_01",
        "Clockwork_Loyalist_Boss_02"
      ]
    },
    {
      "level": 36,
      "experience": 0,
      "display_names": [
        "Dismantler"
      ],
      "costumes": [
        "Clockwork_Loyalist_Boss_01",
        "Clockwork_Loyalist_Boss_02"
      ]
    },
    {
      "level": 37,
      "experience": 0,
      "display_names": [
        "Dismantler"
      ],
      "costumes": [
        "Clockwork_Loyalist_Boss_01",
        "Clockwork_Loyalist_Boss_02"
      ]
    },
    {
      "level": 38,
      "experience": 0,
      "display_names": [
        "Dismantler"
      ],
      "costumes": [
        "Clockwork_Loyalist_Boss_01",
        "Clockwork_Loyalist_Boss_02"
      ]
    },
    {
      "level": 39,
      "experience": 0,
      "display_names": [
        "Dismantler"
      ],
      "costumes": [
        "Clockwork_Loyalist_Boss_01",
        "Clockwork_Loyalist_Boss_02"
      ]
    },
    {
      "level": 40,
      "experience": 0,
      "display_names": [
        "Dismantler"
      ],
      "costumes": [
        "Clockwork_Loyalist_Boss_01",
        "Clockwork_Loyalist_Boss_02"
      ]
    },
    {
      "level": 41,
      "experience": 0,
      "display_names": [
        "Dismantler"
      ],
      "costumes": [
        "Clockwork_Loyalist_Boss_01",
        "Clockwork_Loyalist_Boss_02"
      ]
    },
    {
      "level": 42,
      "experience": 0,
      "display_names": [
        "Dismantler"
      ],
      "costumes": [
        "Clockwork_Loyalist_Boss_01",
        "Clockwork_Loyalist_Boss_02"
      ]
    },
    {
      "level": 43,
      "experience": 0,
      "display_names": [
        "Dismantler"
      ],
      "costumes": [
        "Clockwork_Loyalist_Boss_01",
        "Clockwork_Loyalist_Boss_02"
      ]
    },
    {
      "level": 44,
      "experience": 0,
      "display_names": [
        "Dismantler"
      ],
      "costumes": [
        "Clockwork_Loyalist_Boss_01",
        "Clockwork_Loyalist_Boss_02"
      ]
    },
    {
      "level": 45,
      "experience": 0,
      "display_names": [
        "Dismantler"
      ],
      "costumes": [
        "Clockwork_Loyalist_Boss_01",
        "Clockwork_Loyalist_Boss_02"
      ]
    },
    {
      "level": 46,
      "experience": 0,
      "display_names": [
        "Dismantler"
      ],
      "costumes": [
        "Clockwork_Loyalist_Boss_01",
        "Clockwork_Loyalist_Boss_02"
      ]
    },
    {
      "level": 47,
      "experience": 0,
      "display_names": [
        "Dismantler"
      ],
      "costumes": [
        "Clockwork_Loyalist_Boss_01",
        "Clockwork_Loyalist_Boss_02"
      ]
    },
    {
      "level": 48,
      "experience": 0,
      "display_names": [
        "Dismantler"
      ],
      "costumes": [
        "Clockwork_Loyalist_Boss_01",
        "Clockwork_Loyalist_Boss_02"
      ]
    },
    {
      "level": 49,
      "experience": 0,
      "display_names": [
        "Dismantler"
      ],
      "costumes": [
        "Clockwork_Loyalist_Boss_01",
        "Clockwork_Loyalist_Boss_02"
      ]
    },
    {
      "level": 50,
      "experience": 0,
      "display_names": [
        "Dismantler"
      ],
      "costumes": [
        "Clockwork_Loyalist_Boss_01",
        "Clockwork_Loyalist_Boss_02"
      ]
    },
    {
      "level": 51,
      "experience": 0,
      "display_names": [
        "Dismantler"
      ],
      "costumes": [
        "Clockwork_Loyalist_Boss_01",
        "Clockwork_Loyalist_Boss_02"
      ]
    },
    {
      "level": 52,
      "experience": 0,
      "display_names": [
        "Dismantler"
      ],
      "costumes": [
        "Clockwork_Loyalist_Boss_01",
        "Clockwork_Loyalist_Boss_02"
      ]
    },
    {
      "level": 53,
      "experience": 0,
      "display_names": [
        "Dismantler"
      ],
      "costumes": [
        "Clockwork_Loyalist_Boss_01",
        "Clockwork_Loyalist_Boss_02"
      ]
    },
    {
      "level": 54,
      "experience": 0,
      "display_names": [
        "Dismantler"
      ],
      "costumes": [
        "Clockwork_Loyalist_Boss_01",
        "Clockwork_Loyalist_Boss_02"
      ]
    }
  ]
}