{
  "name": "PraetorianResistance_Tunnel_Rat",
  "gender": "GENDER_FEMALE",
  "description": "Tunnel Rat may look meek and skittish... Ok, yeah, she's pretty skittish, but this little mouse has the heart of a lion!",
  "group_description": null,
  "display_class_name": null,
  "character_class_name": "boss_grunt",
  "ai_config": "Default_Ranged",
  "commandable_pet": false,
  "power_tags": [
    "HumanSkeleton",
    "Human"
  ],
  "additional_rewards": [

  ],
  "skill_hp_rewards": [

  ],
  "skill_status_rewards": [

  ],
  "ally": null,
  "gang": null,
  "reward_scale": 1.0,
  "game_exclusion": "None",
  "inactive_state_weapon": null,
  "ignores_combat_mods": false,
  "copy_creator_mods": false,
  "spawn_limit": 0,
  "spawn_limit_mission": 0,
  "ignore_av_to_eb_scaling": false,
  "can_zone": false,
  "custom_badge_stat": null,
  "badge_stat_flags": "DefaultBadgeStat",
  "rank": "VR_BOSS",
  "power_full_names": [
    "PraetorianResistance.LT_Rifle.Power_Punch",
    "PraetorianResistance.LT_Rifle.Power_Punch2",
    "PraetorianResistance.LT_Rifle.Single_Shot",
    "PraetorianResistance.LT_Rifle.Heavy_Burst",
    "PraetorianResistance.LT_Rifle.Covering_Fire"
  ],
  "power_display_names": [
    "Power Punch",
    "Power Punch",
    "Single Shot",
    "Heavy Burst",
    "Covering Fire"
  ],
  "power_levels": [
    0,
    0,
    0,
    0,
    0
  ],
  "powers": [
    {
      "power_category": "PraetorianResistance",
      "power_set": "LT_Rifle",
      "power": "*",
      "level": 0
    }
  ],
  "levels": [
    {
      "level": 11,
      "experience": 0,
      "display_names": [
        "Tunnel Rat"
      ],
      "costumes": [
        "Model_Tunnel_Rat_NoRing"
      ]
    },
    {
      "level": 12,
      "experience": 0,
      "display_names": [
        "Tunnel Rat"
      ],
      "costumes": [
        "Model_Tunnel_Rat_NoRing"
      ]
    },
    {
      "level": 13,
      "experience": 0,
      "display_names": [
        "Tunnel Rat"
      ],
      "costumes": [
        "Model_Tunnel_Rat_NoRing"
      ]
    },
    {
      "level": 14,
      "experience": 0,
      "display_names": [
        "Tunnel Rat"
      ],
      "costumes": [
        "Model_Tunnel_Rat_NoRing"
      ]
    },
    {
      "level": 15,
      "experience": 0,
      "display_names": [
        "Tunnel Rat"
      ],
      "costumes": [
        "Model_Tunnel_Rat_NoRing"
      ]
    },
    {
      "level": 16,
      "experience": 0,
      "display_names": [
        "Tunnel Rat"
      ],
      "costumes": [
        "Model_Tunnel_Rat_NoRing"
      ]
    },
    {
      "level": 17,
      "experience": 0,
      "display_names": [
        "Tunnel Rat"
      ],
      "costumes": [
        "Model_Tunnel_Rat_NoRing"
      ]
    },
    {
      "level": 18,
      "experience": 0,
      "display_names": [
        "Tunnel Rat"
      ],
      "costumes": [
        "Model_Tunnel_Rat_NoRing"
      ]
    },
    {
      "level": 19,
      "experience": 0,
      "display_names": [
        "Tunnel Rat"
      ],
      "costumes": [
        "Model_Tunnel_Rat_NoRing"
      ]
    },
    {
      "level": 20,
      "experience": 0,
      "display_names": [
        "Tunnel Rat"
      ],
      "costumes": [
        "Model_Tunnel_Rat_NoRing"
      ]
    },
    {
      "level": 21,
      "experience": 0,
      "display_names": [
        "Tunnel Rat"
      ],
      "costumes": [
        "Model_Tunnel_Rat_NoRing"
      ]
    },
    {
      "level": 22,
      "experience": 0,
      "display_names": [
        "Tunnel Rat"
      ],
      "costumes": [
        "Model_Tunnel_Rat_NoRing"
      ]
    },
    {
      "level": 23,
      "experience": 0,
      "display_names": [
        "Tunnel Rat"
      ],
      "costumes": [
        "Model_Tunnel_Rat_NoRing"
      ]
    },
    {
      "level": 24,
      "experience": 0,
      "display_names": [
        "Tunnel Rat"
      ],
      "costumes": [
        "Model_Tunnel_Rat_NoRing"
      ]
    }
  ]
}