{
  "name": "PraetorianDUSTIDFEndgame_Warworks_Seeker_Turret",
  "gender": "GENDER_MALE",
  "description": "Armed with extensive multi-phasic sensor arrays and plasma weaponry capable of piercing through the toughest of armor, these turrets are used to assist in anti-Resistance operations and search-and-destroy missions.",
  "group_description": null,
  "display_class_name": null,
  "character_class_name": "boss_praetoriangrunt",
  "ai_config": "Default_Ranged",
  "commandable_pet": false,
  "power_tags": [
    "Electronic"
  ],
  "additional_rewards": [

  ],
  "skill_hp_rewards": [

  ],
  "skill_status_rewards": [

  ],
  "ally": null,
  "gang": null,
  "reward_scale": 1.0,
  "game_exclusion": "None",
  "inactive_state_weapon": null,
  "ignores_combat_mods": false,
  "copy_creator_mods": false,
  "spawn_limit": 0,
  "spawn_limit_mission": 0,
  "ignore_av_to_eb_scaling": false,
  "can_zone": false,
  "custom_badge_stat": null,
  "badge_stat_flags": "DefaultBadgeStat",
  "rank": "VR_BOSS",
  "power_full_names": [
    "PraetorianIDF.Warworks_Turret.Plasma_Cannon_Blast",
    "PraetorianIDF.Warworks_Turret.Plasma_Cannon_Burst",
    "PraetorianIDF.Warworks_Turret.Plasma_Cannon_Spray",
    "PraetorianIDF.Warworks_Turret.Plasma_Cannon_Detonator",
    "PraetorianIDF.Warworks_Mobile_Turret.Plasma_Vent",
    "PraetorianIDF.Warworks_Defense_Turret.Perception"
  ],
  "power_display_names": [
    "Plasma Cannon Blast",
    "Plasma Cannon Burst",
    "Plasma Cannon Spray",
    "Plasma Cannon Detonator",
    "Plasma Vent",
    "Perception"
  ],
  "power_levels": [
    0,
    0,
    0,
    0,
    0,
    0
  ],
  "powers": [
    {
      "power_category": "PraetorianIDF",
      "power_set": "Warworks_Turret",
      "power": "Plasma_Cannon_Blast",
      "level": 0
    },
    {
      "power_category": "PraetorianIDF",
      "power_set": "Warworks_Turret",
      "power": "Plasma_Cannon_Burst",
      "level": 0
    },
    {
      "power_category": "PraetorianIDF",
      "power_set": "Warworks_Turret",
      "power": "Plasma_Cannon_Spray",
      "level": 0
    },
    {
      "power_category": "PraetorianIDF",
      "power_set": "Warworks_Turret",
      "power": "Plasma_Cannon_Detonator",
      "level": 0
    },
    {
      "power_category": "PraetorianIDF",
      "power_set": "Warworks_Mobile_Turret",
      "power": "*",
      "level": 0
    },
    {
      "power_category": "PraetorianIDF",
      "power_set": "Warworks_Defense_Turret",
      "power": "*",
      "level": 0
    }
  ],
  "levels": [
    {
      "level": 40,
      "experience": 0,
      "display_names": [
        "Seeker Turret"
      ],
      "costumes": [
        "V_Antimatter_TurretB"
      ]
    },
    {
      "level": 41,
      "experience": 0,
      "display_names": [
        "Seeker Turret"
      ],
      "costumes": [
        "V_Antimatter_TurretB"
      ]
    },
    {
      "level": 42,
      "experience": 0,
      "display_names": [
        "Seeker Turret"
      ],
      "costumes": [
        "V_Antimatter_TurretB"
      ]
    },
    {
      "level": 43,
      "experience": 0,
      "display_names": [
        "Seeker Turret"
      ],
      "costumes": [
        "V_Antimatter_TurretB"
      ]
    },
    {
      "level": 44,
      "experience": 0,
      "display_names": [
        "Seeker Turret"
      ],
      "costumes": [
        "V_Antimatter_TurretB"
      ]
    },
    {
      "level": 45,
      "experience": 0,
      "display_names": [
        "Seeker Turret"
      ],
      "costumes": [
        "V_Antimatter_TurretB"
      ]
    },
    {
      "level": 46,
      "experience": 0,
      "display_names": [
        "Seeker Turret"
      ],
      "costumes": [
        "V_Antimatter_TurretB"
      ]
    },
    {
      "level": 47,
      "experience": 0,
      "display_names": [
        "Seeker Turret"
      ],
      "costumes": [
        "V_Antimatter_TurretB"
      ]
    },
    {
      "level": 48,
      "experience": 0,
      "display_names": [
        "Seeker Turret"
      ],
      "costumes": [
        "V_Antimatter_TurretB"
      ]
    },
    {
      "level": 49,
      "experience": 0,
      "display_names": [
        "Seeker Turret"
      ],
      "costumes": [
        "V_Antimatter_TurretB"
      ]
    },
    {
      "level": 50,
      "experience": 0,
      "display_names": [
        "Seeker Turret"
      ],
      "costumes": [
        "V_Antimatter_TurretB"
      ]
    },
    {
      "level": 51,
      "experience": 0,
      "display_names": [
        "Seeker Turret"
      ],
      "costumes": [
        "V_Antimatter_TurretB"
      ]
    },
    {
      "level": 52,
      "experience": 0,
      "display_names": [
        "Seeker Turret"
      ],
      "costumes": [
        "V_Antimatter_TurretB"
      ]
    },
    {
      "level": 53,
      "experience": 0,
      "display_names": [
        "Seeker Turret"
      ],
      "costumes": [
        "V_Antimatter_TurretB"
      ]
    },
    {
      "level": 54,
      "experience": 0,
      "display_names": [
        "Seeker Turret"
      ],
      "costumes": [
        "V_Antimatter_TurretB"
      ]
    }
  ]
}