{
  "name": "PraetorianResistance_Heavy_Barrel_PrimalMission",
  "gender": "GENDER_MALE",
  "description": "Resistance Heavy Barrels are walking mobile guns. Their exo-skeleton provides them with the strength to carry such high-powered weapons, and the addition of welded on steel plating enables them to withstand just about any return fire.",
  "group_description": null,
  "display_class_name": null,
  "character_class_name": "lt_grunt",
  "ai_config": "Default_Ranged",
  "commandable_pet": false,
  "power_tags": [
    "HumanSkeleton",
    "Human"
  ],
  "additional_rewards": [

  ],
  "skill_hp_rewards": [

  ],
  "skill_status_rewards": [

  ],
  "ally": null,
  "gang": null,
  "reward_scale": 0.75,
  "game_exclusion": "None",
  "inactive_state_weapon": null,
  "ignores_combat_mods": false,
  "copy_creator_mods": false,
  "spawn_limit": 2,
  "spawn_limit_mission": 2,
  "ignore_av_to_eb_scaling": false,
  "can_zone": false,
  "custom_badge_stat": null,
  "badge_stat_flags": "DefaultBadgeStat",
  "rank": "VR_LIEUTENANT",
  "power_full_names": [
    "PraetorianResistance.LT_Barrel.Snap_Shot",
    "PraetorianResistance.LT_Barrel.AP_Round",
    "PraetorianResistance.LT_Barrel.HE_Shot",
    "PraetorianResistance.LT_Heavy.Resist_Physical_Damage",
    "PraetorianResistance.Endgame_Gadgets.Targeting_Drone",
    "PraetorianResistance.Endgame_Training.Survivor"
  ],
  "power_display_names": [
    "Snap Shot",
    "AP Round",
    "HE Shot",
    "Resist Physical Damage",
    "Targeting Drone",
    "Survivor"
  ],
  "power_levels": [
    0,
    0,
    0,
    0,
    0,
    0
  ],
  "powers": [
    {
      "power_category": "PraetorianResistance",
      "power_set": "LT_Barrel",
      "power": "*",
      "level": 0
    },
    {
      "power_category": "PraetorianResistance",
      "power_set": "LT_Heavy",
      "power": "*",
      "level": 0
    },
    {
      "power_category": "PraetorianResistance",
      "power_set": "Endgame_Gadgets",
      "power": "Targeting_Drone",
      "level": 0
    },
    {
      "power_category": "PraetorianResistance",
      "power_set": "Endgame_Training",
      "power": "*",
      "level": 0
    }
  ],
  "levels": [
    {
      "level": 35,
      "experience": 0,
      "display_names": [
        "Resistance Heavy Barrel Elite"
      ],
      "costumes": [
        "Resistance_Heavy_Barrel_01",
        "Resistance_Heavy_Barrel_02",
        "Resistance_Heavy_Barrel_03"
      ]
    },
    {
      "level": 36,
      "experience": 0,
      "display_names": [
        "Resistance Heavy Barrel Elite"
      ],
      "costumes": [
        "Resistance_Heavy_Barrel_01",
        "Resistance_Heavy_Barrel_02",
        "Resistance_Heavy_Barrel_03"
      ]
    },
    {
      "level": 37,
      "experience": 0,
      "display_names": [
        "Resistance Heavy Barrel Elite"
      ],
      "costumes": [
        "Resistance_Heavy_Barrel_01",
        "Resistance_Heavy_Barrel_02",
        "Resistance_Heavy_Barrel_03"
      ]
    },
    {
      "level": 38,
      "experience": 0,
      "display_names": [
        "Resistance Heavy Barrel Elite"
      ],
      "costumes": [
        "Resistance_Heavy_Barrel_01",
        "Resistance_Heavy_Barrel_02",
        "Resistance_Heavy_Barrel_03"
      ]
    },
    {
      "level": 39,
      "experience": 0,
      "display_names": [
        "Resistance Heavy Barrel Elite"
      ],
      "costumes": [
        "Resistance_Heavy_Barrel_01",
        "Resistance_Heavy_Barrel_02",
        "Resistance_Heavy_Barrel_03"
      ]
    },
    {
      "level": 40,
      "experience": 0,
      "display_names": [
        "Resistance Heavy Barrel Elite"
      ],
      "costumes": [
        "Resistance_Heavy_Barrel_01",
        "Resistance_Heavy_Barrel_02",
        "Resistance_Heavy_Barrel_03"
      ]
    },
    {
      "level": 41,
      "experience": 0,
      "display_names": [
        "Resistance Heavy Barrel Elite"
      ],
      "costumes": [
        "Resistance_Heavy_Barrel_01",
        "Resistance_Heavy_Barrel_02",
        "Resistance_Heavy_Barrel_03"
      ]
    },
    {
      "level": 42,
      "experience": 0,
      "display_names": [
        "Resistance Heavy Barrel Elite"
      ],
      "costumes": [
        "Resistance_Heavy_Barrel_01",
        "Resistance_Heavy_Barrel_02",
        "Resistance_Heavy_Barrel_03"
      ]
    },
    {
      "level": 43,
      "experience": 0,
      "display_names": [
        "Resistance Heavy Barrel Elite"
      ],
      "costumes": [
        "Resistance_Heavy_Barrel_01",
        "Resistance_Heavy_Barrel_02",
        "Resistance_Heavy_Barrel_03"
      ]
    },
    {
      "level": 44,
      "experience": 0,
      "display_names": [
        "Resistance Heavy Barrel Elite"
      ],
      "costumes": [
        "Resistance_Heavy_Barrel_01",
        "Resistance_Heavy_Barrel_02",
        "Resistance_Heavy_Barrel_03"
      ]
    },
    {
      "level": 45,
      "experience": 0,
      "display_names": [
        "Resistance Heavy Barrel Elite"
      ],
      "costumes": [
        "Resistance_Heavy_Barrel_01",
        "Resistance_Heavy_Barrel_02",
        "Resistance_Heavy_Barrel_03"
      ]
    },
    {
      "level": 46,
      "experience": 0,
      "display_names": [
        "Resistance Heavy Barrel Elite"
      ],
      "costumes": [
        "Resistance_Heavy_Barrel_01",
        "Resistance_Heavy_Barrel_02",
        "Resistance_Heavy_Barrel_03"
      ]
    },
    {
      "level": 47,
      "experience": 0,
      "display_names": [
        "Resistance Heavy Barrel Elite"
      ],
      "costumes": [
        "Resistance_Heavy_Barrel_01",
        "Resistance_Heavy_Barrel_02",
        "Resistance_Heavy_Barrel_03"
      ]
    },
    {
      "level": 48,
      "experience": 0,
      "display_names": [
        "Resistance Heavy Barrel Elite"
      ],
      "costumes": [
        "Resistance_Heavy_Barrel_01",
        "Resistance_Heavy_Barrel_02",
        "Resistance_Heavy_Barrel_03"
      ]
    },
    {
      "level": 49,
      "experience": 0,
      "display_names": [
        "Resistance Heavy Barrel Elite"
      ],
      "costumes": [
        "Resistance_Heavy_Barrel_01",
        "Resistance_Heavy_Barrel_02",
        "Resistance_Heavy_Barrel_03"
      ]
    },
    {
      "level": 50,
      "experience": 0,
      "display_names": [
        "Resistance Heavy Barrel Elite"
      ],
      "costumes": [
        "Resistance_Heavy_Barrel_01",
        "Resistance_Heavy_Barrel_02",
        "Resistance_Heavy_Barrel_03"
      ]
    },
    {
      "level": 51,
      "experience": 0,
      "display_names": [
        "Resistance Heavy Barrel Elite"
      ],
      "costumes": [
        "Resistance_Heavy_Barrel_01",
        "Resistance_Heavy_Barrel_02",
        "Resistance_Heavy_Barrel_03"
      ]
    },
    {
      "level": 52,
      "experience": 0,
      "display_names": [
        "Resistance Heavy Barrel Elite"
      ],
      "costumes": [
        "Resistance_Heavy_Barrel_01",
        "Resistance_Heavy_Barrel_02",
        "Resistance_Heavy_Barrel_03"
      ]
    },
    {
      "level": 53,
      "experience": 0,
      "display_names": [
        "Resistance Heavy Barrel Elite"
      ],
      "costumes": [
        "Resistance_Heavy_Barrel_01",
        "Resistance_Heavy_Barrel_02",
        "Resistance_Heavy_Barrel_03"
      ]
    },
    {
      "level": 54,
      "experience": 0,
      "display_names": [
        "Resistance Heavy Barrel Elite"
      ],
      "costumes": [
        "Resistance_Heavy_Barrel_01",
        "Resistance_Heavy_Barrel_02",
        "Resistance_Heavy_Barrel_03"
      ]
    }
  ]
}