{
  "name": "PraetorianLoyalistCitizens_Citizen_Minion_Male",
  "gender": "GENDER_MALE",
  "description": "Praetorian Citizens are a sheltered lot. Most of them have never even raised their voice in anger, let alone had to fight for their own survival. When the going gets tough, these people buckle like a belt.",
  "group_description": null,
  "display_class_name": null,
  "character_class_name": "minion_grunt",
  "ai_config": null,
  "commandable_pet": false,
  "power_tags": [
    "HumanSkeleton",
    "Human"
  ],
  "additional_rewards": [

  ],
  "skill_hp_rewards": [

  ],
  "skill_status_rewards": [

  ],
  "ally": null,
  "gang": null,
  "reward_scale": 0.0,
  "game_exclusion": "None",
  "inactive_state_weapon": null,
  "ignores_combat_mods": false,
  "copy_creator_mods": false,
  "spawn_limit": -1,
  "spawn_limit_mission": -1,
  "ignore_av_to_eb_scaling": false,
  "can_zone": false,
  "custom_badge_stat": null,
  "badge_stat_flags": "DefaultBadgeStat",
  "rank": "VR_MINION",
  "power_full_names": [
    "P_Citizens.Citizen_Harmless.Brawl",
    "P_Citizens.Citizen_Harmless.Resistance"
  ],
  "power_display_names": [
    "Brawl",
    "Resistance"
  ],
  "power_levels": [
    0,
    0
  ],
  "powers": [
    {
      "power_category": "P_Citizens",
      "power_set": "Citizen_Harmless",
      "power": "*",
      "level": 0
    }
  ],
  "levels": [
    {
      "level": 1,
      "experience": 0,
      "display_names": [
        "Citizen"
      ],
      "costumes": [
        "Citizen_Biz_Male_01",
        "Citizen_Biz_Male_02",
        "Citizen_Biz_Male_03",
        "Citizen_Biz_Male_04",
        "Citizen_Biz_Male_05",
        "Citizen_Biz_Male_06",
        "Citizen_Biz_Male_07",
        "Citizen_Biz_Male_08",
        "Citizen_Biz_Male_09",
        "Citizen_Biz_Male_10",
        "Citizen_Biz_Male_11",
        "Citizen_Biz_Male_12",
        "Citizen_Biz_Male_13",
        "Citizen_Biz_Male_14",
        "Citizen_Biz_Male_15",
        "Citizen_Biz_Male_16",
        "Citizen_Biz_Male_17",
        "Citizen_Biz_Male_18",
        "Citizen_Biz_Male_19",
        "Citizen_Biz_Male_20",
        "Citizen_Biz_Male_21",
        "Citizen_Biz_Male_22",
        "Citizen_Biz_Male_23",
        "Citizen_Biz_Male_24",
        "Citizen_Biz_Male_25",
        "Citizen_Biz_Male_25",
        "Citizen_Biz_Male_27",
        "Citizen_Biz_Male_28",
        "Citizen_Biz_Male_29",
        "Citizen_Biz_Male_30",
        "Citizen_Biz_Male_31",
        "Citizen_Biz_Male_32",
        "Citizen_Biz_Male_33",
        "Citizen_Biz_Male_34",
        "Citizen_Biz_Male_35",
        "Citizen_Biz_Male_36",
        "Citizen_Biz_Male_37",
        "Citizen_Biz_Male_38",
        "Citizen_Biz_Male_39",
        "Citizen_Biz_Male_40",
        "Citizen_Biz_Male_41",
        "Citizen_Biz_Male_42",
        "Citizen_Biz_Male_43",
        "Citizen_Biz_Male_44",
        "Citizen_Biz_Male_45",
        "Citizen_Biz_Male_46",
        "Citizen_Biz_Male_47",
        "Citizen_Biz_Male_48",
        "Citizen_Biz_Male_49",
        "Citizen_Biz_Male_50"
      ]
    },
    {
      "level": 2,
      "experience": 0,
      "display_names": [
        "Citizen"
      ],
      "costumes": [
        "Citizen_Biz_Male_01",
        "Citizen_Biz_Male_02",
        "Citizen_Biz_Male_03",
        "Citizen_Biz_Male_04",
        "Citizen_Biz_Male_05",
        "Citizen_Biz_Male_06",
        "Citizen_Biz_Male_07",
        "Citizen_Biz_Male_08",
        "Citizen_Biz_Male_09",
        "Citizen_Biz_Male_10",
        "Citizen_Biz_Male_11",
        "Citizen_Biz_Male_12",
        "Citizen_Biz_Male_13",
        "Citizen_Biz_Male_14",
        "Citizen_Biz_Male_15",
        "Citizen_Biz_Male_16",
        "Citizen_Biz_Male_17",
        "Citizen_Biz_Male_18",
        "Citizen_Biz_Male_19",
        "Citizen_Biz_Male_20",
        "Citizen_Biz_Male_21",
        "Citizen_Biz_Male_22",
        "Citizen_Biz_Male_23",
        "Citizen_Biz_Male_24",
        "Citizen_Biz_Male_25",
        "Citizen_Biz_Male_25",
        "Citizen_Biz_Male_27",
        "Citizen_Biz_Male_28",
        "Citizen_Biz_Male_29",
        "Citizen_Biz_Male_30",
        "Citizen_Biz_Male_31",
        "Citizen_Biz_Male_32",
        "Citizen_Biz_Male_33",
        "Citizen_Biz_Male_34",
        "Citizen_Biz_Male_35",
        "Citizen_Biz_Male_36",
        "Citizen_Biz_Male_37",
        "Citizen_Biz_Male_38",
        "Citizen_Biz_Male_39",
        "Citizen_Biz_Male_40",
        "Citizen_Biz_Male_41",
        "Citizen_Biz_Male_42",
        "Citizen_Biz_Male_43",
        "Citizen_Biz_Male_44",
        "Citizen_Biz_Male_45",
        "Citizen_Biz_Male_46",
        "Citizen_Biz_Male_47",
        "Citizen_Biz_Male_48",
        "Citizen_Biz_Male_49",
        "Citizen_Biz_Male_50"
      ]
    },
    {
      "level": 3,
      "experience": 0,
      "display_names": [
        "Citizen"
      ],
      "costumes": [
        "Citizen_Biz_Male_01",
        "Citizen_Biz_Male_02",
        "Citizen_Biz_Male_03",
        "Citizen_Biz_Male_04",
        "Citizen_Biz_Male_05",
        "Citizen_Biz_Male_06",
        "Citizen_Biz_Male_07",
        "Citizen_Biz_Male_08",
        "Citizen_Biz_Male_09",
        "Citizen_Biz_Male_10",
        "Citizen_Biz_Male_11",
        "Citizen_Biz_Male_12",
        "Citizen_Biz_Male_13",
        "Citizen_Biz_Male_14",
        "Citizen_Biz_Male_15",
        "Citizen_Biz_Male_16",
        "Citizen_Biz_Male_17",
        "Citizen_Biz_Male_18",
        "Citizen_Biz_Male_19",
        "Citizen_Biz_Male_20",
        "Citizen_Biz_Male_21",
        "Citizen_Biz_Male_22",
        "Citizen_Biz_Male_23",
        "Citizen_Biz_Male_24",
        "Citizen_Biz_Male_25",
        "Citizen_Biz_Male_25",
        "Citizen_Biz_Male_27",
        "Citizen_Biz_Male_28",
        "Citizen_Biz_Male_29",
        "Citizen_Biz_Male_30",
        "Citizen_Biz_Male_31",
        "Citizen_Biz_Male_32",
        "Citizen_Biz_Male_33",
        "Citizen_Biz_Male_34",
        "Citizen_Biz_Male_35",
        "Citizen_Biz_Male_36",
        "Citizen_Biz_Male_37",
        "Citizen_Biz_Male_38",
        "Citizen_Biz_Male_39",
        "Citizen_Biz_Male_40",
        "Citizen_Biz_Male_41",
        "Citizen_Biz_Male_42",
        "Citizen_Biz_Male_43",
        "Citizen_Biz_Male_44",
        "Citizen_Biz_Male_45",
        "Citizen_Biz_Male_46",
        "Citizen_Biz_Male_47",
        "Citizen_Biz_Male_48",
        "Citizen_Biz_Male_49",
        "Citizen_Biz_Male_50"
      ]
    },
    {
      "level": 4,
      "experience": 0,
      "display_names": [
        "Citizen"
      ],
      "costumes": [
        "Citizen_Biz_Male_01",
        "Citizen_Biz_Male_02",
        "Citizen_Biz_Male_03",
        "Citizen_Biz_Male_04",
        "Citizen_Biz_Male_05",
        "Citizen_Biz_Male_06",
        "Citizen_Biz_Male_07",
        "Citizen_Biz_Male_08",
        "Citizen_Biz_Male_09",
        "Citizen_Biz_Male_10",
        "Citizen_Biz_Male_11",
        "Citizen_Biz_Male_12",
        "Citizen_Biz_Male_13",
        "Citizen_Biz_Male_14",
        "Citizen_Biz_Male_15",
        "Citizen_Biz_Male_16",
        "Citizen_Biz_Male_17",
        "Citizen_Biz_Male_18",
        "Citizen_Biz_Male_19",
        "Citizen_Biz_Male_20",
        "Citizen_Biz_Male_21",
        "Citizen_Biz_Male_22",
        "Citizen_Biz_Male_23",
        "Citizen_Biz_Male_24",
        "Citizen_Biz_Male_25",
        "Citizen_Biz_Male_25",
        "Citizen_Biz_Male_27",
        "Citizen_Biz_Male_28",
        "Citizen_Biz_Male_29",
        "Citizen_Biz_Male_30",
        "Citizen_Biz_Male_31",
        "Citizen_Biz_Male_32",
        "Citizen_Biz_Male_33",
        "Citizen_Biz_Male_34",
        "Citizen_Biz_Male_35",
        "Citizen_Biz_Male_36",
        "Citizen_Biz_Male_37",
        "Citizen_Biz_Male_38",
        "Citizen_Biz_Male_39",
        "Citizen_Biz_Male_40",
        "Citizen_Biz_Male_41",
        "Citizen_Biz_Male_42",
        "Citizen_Biz_Male_43",
        "Citizen_Biz_Male_44",
        "Citizen_Biz_Male_45",
        "Citizen_Biz_Male_46",
        "Citizen_Biz_Male_47",
        "Citizen_Biz_Male_48",
        "Citizen_Biz_Male_49",
        "Citizen_Biz_Male_50"
      ]
    },
    {
      "level": 5,
      "experience": 0,
      "display_names": [
        "Citizen"
      ],
      "costumes": [
        "Citizen_Biz_Male_01",
        "Citizen_Biz_Male_02",
        "Citizen_Biz_Male_03",
        "Citizen_Biz_Male_04",
        "Citizen_Biz_Male_05",
        "Citizen_Biz_Male_06",
        "Citizen_Biz_Male_07",
        "Citizen_Biz_Male_08",
        "Citizen_Biz_Male_09",
        "Citizen_Biz_Male_10",
        "Citizen_Biz_Male_11",
        "Citizen_Biz_Male_12",
        "Citizen_Biz_Male_13",
        "Citizen_Biz_Male_14",
        "Citizen_Biz_Male_15",
        "Citizen_Biz_Male_16",
        "Citizen_Biz_Male_17",
        "Citizen_Biz_Male_18",
        "Citizen_Biz_Male_19",
        "Citizen_Biz_Male_20",
        "Citizen_Biz_Male_21",
        "Citizen_Biz_Male_22",
        "Citizen_Biz_Male_23",
        "Citizen_Biz_Male_24",
        "Citizen_Biz_Male_25",
        "Citizen_Biz_Male_25",
        "Citizen_Biz_Male_27",
        "Citizen_Biz_Male_28",
        "Citizen_Biz_Male_29",
        "Citizen_Biz_Male_30",
        "Citizen_Biz_Male_31",
        "Citizen_Biz_Male_32",
        "Citizen_Biz_Male_33",
        "Citizen_Biz_Male_34",
        "Citizen_Biz_Male_35",
        "Citizen_Biz_Male_36",
        "Citizen_Biz_Male_37",
        "Citizen_Biz_Male_38",
        "Citizen_Biz_Male_39",
        "Citizen_Biz_Male_40",
        "Citizen_Biz_Male_41",
        "Citizen_Biz_Male_42",
        "Citizen_Biz_Male_43",
        "Citizen_Biz_Male_44",
        "Citizen_Biz_Male_45",
        "Citizen_Biz_Male_46",
        "Citizen_Biz_Male_47",
        "Citizen_Biz_Male_48",
        "Citizen_Biz_Male_49",
        "Citizen_Biz_Male_50"
      ]
    }
  ]
}