{
  "name": "PraetorianSeers_Seer_0001",
  "gender": "GENDER_FEMALE",
  "description": "Seer 0001 is the first Seer created to defend Praetoria city. She is also Katie Douglas' mother.",
  "group_description": null,
  "display_class_name": null,
  "character_class_name": "boss_elite",
  "ai_config": "Default_Ranged",
  "commandable_pet": false,
  "power_tags": [
    "Humanoid",
    "HumanSkeleton"
  ],
  "additional_rewards": [

  ],
  "skill_hp_rewards": [

  ],
  "skill_status_rewards": [

  ],
  "ally": null,
  "gang": null,
  "reward_scale": 1.0,
  "game_exclusion": "None",
  "inactive_state_weapon": null,
  "ignores_combat_mods": false,
  "copy_creator_mods": false,
  "spawn_limit": 0,
  "spawn_limit_mission": 0,
  "ignore_av_to_eb_scaling": false,
  "can_zone": false,
  "custom_badge_stat": null,
  "badge_stat_flags": "DefaultBadgeStat",
  "rank": "VR_ELITE",
  "power_full_names": [
    "P_Seers.Seer_Boss_Resistance.Resistance",
    "P_Seers.Visionary_Powers.Mental_Blast",
    "P_Seers.Visionary_Powers.Psychic_Scream",
    "P_Seers.Visionary_Powers.Summon_Reinforcements",
    "P_Seers.Visionary_Powers.Psionic_Tornado"
  ],
  "power_display_names": [
    "Resistance",
    "Mental Blast",
    "Psychic Scream",
    "Summon Reinforcements",
    "Psionic Tornado"
  ],
  "power_levels": [
    0,
    0,
    0,
    0,
    0
  ],
  "powers": [
    {
      "power_category": "P_Seers",
      "power_set": "Seer_Boss_Resistance",
      "power": "*",
      "level": 0
    },
    {
      "power_category": "P_Seers",
      "power_set": "Visionary_Powers",
      "power": "*",
      "level": 0
    }
  ],
  "levels": [
    {
      "level": 6,
      "experience": 0,
      "display_names": [
        "Seer 0001"
      ],
      "costumes": [
        "Seer_0001"
      ]
    },
    {
      "level": 7,
      "experience": 0,
      "display_names": [
        "Seer 0001"
      ],
      "costumes": [
        "Seer_0001"
      ]
    },
    {
      "level": 8,
      "experience": 0,
      "display_names": [
        "Seer 0001"
      ],
      "costumes": [
        "Seer_0001"
      ]
    },
    {
      "level": 9,
      "experience": 0,
      "display_names": [
        "Seer 0001"
      ],
      "costumes": [
        "Seer_0001"
      ]
    },
    {
      "level": 10,
      "experience": 0,
      "display_names": [
        "Seer 0001"
      ],
      "costumes": [
        "Seer_0001"
      ]
    },
    {
      "level": 11,
      "experience": 0,
      "display_names": [
        "Seer 0001"
      ],
      "costumes": [
        "Seer_0001"
      ]
    },
    {
      "level": 12,
      "experience": 0,
      "display_names": [
        "Seer 0001"
      ],
      "costumes": [
        "Seer_0001"
      ]
    },
    {
      "level": 13,
      "experience": 0,
      "display_names": [
        "Seer 0001"
      ],
      "costumes": [
        "Seer_0001"
      ]
    },
    {
      "level": 14,
      "experience": 0,
      "display_names": [
        "Seer 0001"
      ],
      "costumes": [
        "Seer_0001"
      ]
    },
    {
      "level": 15,
      "experience": 0,
      "display_names": [
        "Seer 0001"
      ],
      "costumes": [
        "Seer_0001"
      ]
    },
    {
      "level": 16,
      "experience": 0,
      "display_names": [
        "Seer 0001"
      ],
      "costumes": [
        "Seer_0001"
      ]
    },
    {
      "level": 17,
      "experience": 0,
      "display_names": [
        "Seer 0001"
      ],
      "costumes": [
        "Seer_0001"
      ]
    },
    {
      "level": 18,
      "experience": 0,
      "display_names": [
        "Seer 0001"
      ],
      "costumes": [
        "Seer_0001"
      ]
    },
    {
      "level": 19,
      "experience": 0,
      "display_names": [
        "Seer 0001"
      ],
      "costumes": [
        "Seer_0001"
      ]
    },
    {
      "level": 20,
      "experience": 0,
      "display_names": [
        "Seer 0001"
      ],
      "costumes": [
        "Seer_0001"
      ]
    },
    {
      "level": 21,
      "experience": 0,
      "display_names": [
        "Seer 0001"
      ],
      "costumes": [
        "Seer_0001"
      ]
    },
    {
      "level": 22,
      "experience": 0,
      "display_names": [
        "Seer 0001"
      ],
      "costumes": [
        "Seer_0001"
      ]
    },
    {
      "level": 23,
      "experience": 0,
      "display_names": [
        "Seer 0001"
      ],
      "costumes": [
        "Seer_0001"
      ]
    },
    {
      "level": 24,
      "experience": 0,
      "display_names": [
        "Seer 0001"
      ],
      "costumes": [
        "Seer_0001"
      ]
    }
  ]
}