{
  "name": "PraetorianClockworkMetronome_Android_Sweeper",
  "gender": "GENDER_MALE",
  "description": "Sweepers are often seen patrolling the street cleaning up litter and debris to make Praetoria a more beautiful place to live. They have an innocuous appearance, however if threatened they are more than capable of defending themselves. These Clockwork appear to be malfunctioning.",
  "group_description": null,
  "display_class_name": null,
  "character_class_name": "minion_grunt",
  "ai_config": "Default_Ranged",
  "commandable_pet": false,
  "power_tags": [
    "Electronic"
  ],
  "additional_rewards": [

  ],
  "skill_hp_rewards": [

  ],
  "skill_status_rewards": [

  ],
  "ally": null,
  "gang": null,
  "reward_scale": 1.0,
  "game_exclusion": "None",
  "inactive_state_weapon": null,
  "ignores_combat_mods": false,
  "copy_creator_mods": false,
  "spawn_limit": -1,
  "spawn_limit_mission": -1,
  "ignore_av_to_eb_scaling": false,
  "can_zone": false,
  "custom_badge_stat": null,
  "badge_stat_flags": "DefaultBadgeStat",
  "rank": "VR_MINION",
  "power_full_names": [
    "PraetorianClockwork.Android_Sweeper_Ranged.Plasma_Spray",
    "PraetorianClockwork.Android_Sweeper_Ranged.Plasma_Ray",
    "PraetorianClockwork.Android_Minion_Regen.Rapid_Repair_Low_Minion",
    "PraetorianClockwork.Android_Minion_Regen.Rapid_Repair_Mid_Minion",
    "PraetorianClockwork.Android_Minion_Regen.Rapid_Repair_High_Minion"
  ],
  "power_display_names": [
    "Plasma Spray",
    "Plasma Ray",
    "Fast Repair",
    "Fast Repair",
    "Fast Repair"
  ],
  "power_levels": [
    0,
    0,
    0,
    0,
    0
  ],
  "powers": [
    {
      "power_category": "PraetorianClockwork",
      "power_set": "Android_Sweeper_Ranged",
      "power": "*",
      "level": 0
    },
    {
      "power_category": "PraetorianClockwork",
      "power_set": "Android_Minion_Regen",
      "power": "*",
      "level": 0
    }
  ],
  "levels": [
    {
      "level": 1,
      "experience": 0,
      "display_names": [
        "Glitched Sweeper"
      ],
      "costumes": [
        "Clockwork_Loyalist_Minion_01",
        "Clockwork_Loyalist_Minion_02",
        "Clockwork_Loyalist_Minion_03",
        "Clockwork_Loyalist_Minion_04",
        "Clockwork_Loyalist_Minion_05",
        "Clockwork_Loyalist_Minion_06",
        "Clockwork_Loyalist_Minion_07",
        "Clockwork_Loyalist_Minion_08",
        "Clockwork_Loyalist_Minion_09",
        "Clockwork_Loyalist_Minion_10",
        "Clockwork_Loyalist_Minion_Dirt_01",
        "Clockwork_Loyalist_Minion_Dirt_02",
        "Clockwork_Loyalist_Minion_Dirt_03",
        "Clockwork_Loyalist_Minion_Dirt_04",
        "Clockwork_Loyalist_Minion_Dirt_05",
        "Clockwork_Loyalist_Minion_Dirt_06",
        "Clockwork_Loyalist_Minion_Dirt_07",
        "Clockwork_Loyalist_Minion_Dirt_08",
        "Clockwork_Loyalist_Minion_Dirt_09",
        "Clockwork_Loyalist_Minion_Dirt_10"
      ]
    },
    {
      "level": 2,
      "experience": 0,
      "display_names": [
        "Glitched Sweeper"
      ],
      "costumes": [
        "Clockwork_Loyalist_Minion_01",
        "Clockwork_Loyalist_Minion_02",
        "Clockwork_Loyalist_Minion_03",
        "Clockwork_Loyalist_Minion_04",
        "Clockwork_Loyalist_Minion_05",
        "Clockwork_Loyalist_Minion_06",
        "Clockwork_Loyalist_Minion_07",
        "Clockwork_Loyalist_Minion_08",
        "Clockwork_Loyalist_Minion_09",
        "Clockwork_Loyalist_Minion_10",
        "Clockwork_Loyalist_Minion_Dirt_01",
        "Clockwork_Loyalist_Minion_Dirt_02",
        "Clockwork_Loyalist_Minion_Dirt_03",
        "Clockwork_Loyalist_Minion_Dirt_04",
        "Clockwork_Loyalist_Minion_Dirt_05",
        "Clockwork_Loyalist_Minion_Dirt_06",
        "Clockwork_Loyalist_Minion_Dirt_07",
        "Clockwork_Loyalist_Minion_Dirt_08",
        "Clockwork_Loyalist_Minion_Dirt_09",
        "Clockwork_Loyalist_Minion_Dirt_10"
      ]
    },
    {
      "level": 3,
      "experience": 0,
      "display_names": [
        "Glitched Sweeper"
      ],
      "costumes": [
        "Clockwork_Loyalist_Minion_01",
        "Clockwork_Loyalist_Minion_02",
        "Clockwork_Loyalist_Minion_03",
        "Clockwork_Loyalist_Minion_04",
        "Clockwork_Loyalist_Minion_05",
        "Clockwork_Loyalist_Minion_06",
        "Clockwork_Loyalist_Minion_07",
        "Clockwork_Loyalist_Minion_08",
        "Clockwork_Loyalist_Minion_09",
        "Clockwork_Loyalist_Minion_10",
        "Clockwork_Loyalist_Minion_Dirt_01",
        "Clockwork_Loyalist_Minion_Dirt_02",
        "Clockwork_Loyalist_Minion_Dirt_03",
        "Clockwork_Loyalist_Minion_Dirt_04",
        "Clockwork_Loyalist_Minion_Dirt_05",
        "Clockwork_Loyalist_Minion_Dirt_06",
        "Clockwork_Loyalist_Minion_Dirt_07",
        "Clockwork_Loyalist_Minion_Dirt_08",
        "Clockwork_Loyalist_Minion_Dirt_09",
        "Clockwork_Loyalist_Minion_Dirt_10"
      ]
    },
    {
      "level": 4,
      "experience": 0,
      "display_names": [
        "Glitched Sweeper"
      ],
      "costumes": [
        "Clockwork_Loyalist_Minion_01",
        "Clockwork_Loyalist_Minion_02",
        "Clockwork_Loyalist_Minion_03",
        "Clockwork_Loyalist_Minion_04",
        "Clockwork_Loyalist_Minion_05",
        "Clockwork_Loyalist_Minion_06",
        "Clockwork_Loyalist_Minion_07",
        "Clockwork_Loyalist_Minion_08",
        "Clockwork_Loyalist_Minion_09",
        "Clockwork_Loyalist_Minion_10",
        "Clockwork_Loyalist_Minion_Dirt_01",
        "Clockwork_Loyalist_Minion_Dirt_02",
        "Clockwork_Loyalist_Minion_Dirt_03",
        "Clockwork_Loyalist_Minion_Dirt_04",
        "Clockwork_Loyalist_Minion_Dirt_05",
        "Clockwork_Loyalist_Minion_Dirt_06",
        "Clockwork_Loyalist_Minion_Dirt_07",
        "Clockwork_Loyalist_Minion_Dirt_08",
        "Clockwork_Loyalist_Minion_Dirt_09",
        "Clockwork_Loyalist_Minion_Dirt_10"
      ]
    },
    {
      "level": 5,
      "experience": 0,
      "display_names": [
        "Glitched Sweeper"
      ],
      "costumes": [
        "Clockwork_Loyalist_Minion_01",
        "Clockwork_Loyalist_Minion_02",
        "Clockwork_Loyalist_Minion_03",
        "Clockwork_Loyalist_Minion_04",
        "Clockwork_Loyalist_Minion_05",
        "Clockwork_Loyalist_Minion_06",
        "Clockwork_Loyalist_Minion_07",
        "Clockwork_Loyalist_Minion_08",
        "Clockwork_Loyalist_Minion_09",
        "Clockwork_Loyalist_Minion_10",
        "Clockwork_Loyalist_Minion_Dirt_01",
        "Clockwork_Loyalist_Minion_Dirt_02",
        "Clockwork_Loyalist_Minion_Dirt_03",
        "Clockwork_Loyalist_Minion_Dirt_04",
        "Clockwork_Loyalist_Minion_Dirt_05",
        "Clockwork_Loyalist_Minion_Dirt_06",
        "Clockwork_Loyalist_Minion_Dirt_07",
        "Clockwork_Loyalist_Minion_Dirt_08",
        "Clockwork_Loyalist_Minion_Dirt_09",
        "Clockwork_Loyalist_Minion_Dirt_10"
      ]
    },
    {
      "level": 6,
      "experience": 0,
      "display_names": [
        "Glitched Sweeper"
      ],
      "costumes": [
        "Clockwork_Loyalist_Minion_01",
        "Clockwork_Loyalist_Minion_02",
        "Clockwork_Loyalist_Minion_03",
        "Clockwork_Loyalist_Minion_04",
        "Clockwork_Loyalist_Minion_05",
        "Clockwork_Loyalist_Minion_06",
        "Clockwork_Loyalist_Minion_07",
        "Clockwork_Loyalist_Minion_08",
        "Clockwork_Loyalist_Minion_09",
        "Clockwork_Loyalist_Minion_10",
        "Clockwork_Loyalist_Minion_Dirt_01",
        "Clockwork_Loyalist_Minion_Dirt_02",
        "Clockwork_Loyalist_Minion_Dirt_03",
        "Clockwork_Loyalist_Minion_Dirt_04",
        "Clockwork_Loyalist_Minion_Dirt_05",
        "Clockwork_Loyalist_Minion_Dirt_06",
        "Clockwork_Loyalist_Minion_Dirt_07",
        "Clockwork_Loyalist_Minion_Dirt_08",
        "Clockwork_Loyalist_Minion_Dirt_09",
        "Clockwork_Loyalist_Minion_Dirt_10"
      ]
    },
    {
      "level": 7,
      "experience": 0,
      "display_names": [
        "Glitched Sweeper"
      ],
      "costumes": [
        "Clockwork_Loyalist_Minion_01",
        "Clockwork_Loyalist_Minion_02",
        "Clockwork_Loyalist_Minion_03",
        "Clockwork_Loyalist_Minion_04",
        "Clockwork_Loyalist_Minion_05",
        "Clockwork_Loyalist_Minion_06",
        "Clockwork_Loyalist_Minion_07",
        "Clockwork_Loyalist_Minion_08",
        "Clockwork_Loyalist_Minion_09",
        "Clockwork_Loyalist_Minion_10",
        "Clockwork_Loyalist_Minion_Dirt_01",
        "Clockwork_Loyalist_Minion_Dirt_02",
        "Clockwork_Loyalist_Minion_Dirt_03",
        "Clockwork_Loyalist_Minion_Dirt_04",
        "Clockwork_Loyalist_Minion_Dirt_05",
        "Clockwork_Loyalist_Minion_Dirt_06",
        "Clockwork_Loyalist_Minion_Dirt_07",
        "Clockwork_Loyalist_Minion_Dirt_08",
        "Clockwork_Loyalist_Minion_Dirt_09",
        "Clockwork_Loyalist_Minion_Dirt_10"
      ]
    },
    {
      "level": 8,
      "experience": 0,
      "display_names": [
        "Glitched Sweeper"
      ],
      "costumes": [
        "Clockwork_Loyalist_Minion_01",
        "Clockwork_Loyalist_Minion_02",
        "Clockwork_Loyalist_Minion_03",
        "Clockwork_Loyalist_Minion_04",
        "Clockwork_Loyalist_Minion_05",
        "Clockwork_Loyalist_Minion_06",
        "Clockwork_Loyalist_Minion_07",
        "Clockwork_Loyalist_Minion_08",
        "Clockwork_Loyalist_Minion_09",
        "Clockwork_Loyalist_Minion_10",
        "Clockwork_Loyalist_Minion_Dirt_01",
        "Clockwork_Loyalist_Minion_Dirt_02",
        "Clockwork_Loyalist_Minion_Dirt_03",
        "Clockwork_Loyalist_Minion_Dirt_04",
        "Clockwork_Loyalist_Minion_Dirt_05",
        "Clockwork_Loyalist_Minion_Dirt_06",
        "Clockwork_Loyalist_Minion_Dirt_07",
        "Clockwork_Loyalist_Minion_Dirt_08",
        "Clockwork_Loyalist_Minion_Dirt_09",
        "Clockwork_Loyalist_Minion_Dirt_10"
      ]
    },
    {
      "level": 9,
      "experience": 0,
      "display_names": [
        "Glitched Sweeper"
      ],
      "costumes": [
        "Clockwork_Loyalist_Minion_01",
        "Clockwork_Loyalist_Minion_02",
        "Clockwork_Loyalist_Minion_03",
        "Clockwork_Loyalist_Minion_04",
        "Clockwork_Loyalist_Minion_05",
        "Clockwork_Loyalist_Minion_06",
        "Clockwork_Loyalist_Minion_07",
        "Clockwork_Loyalist_Minion_08",
        "Clockwork_Loyalist_Minion_09",
        "Clockwork_Loyalist_Minion_10",
        "Clockwork_Loyalist_Minion_Dirt_01",
        "Clockwork_Loyalist_Minion_Dirt_02",
        "Clockwork_Loyalist_Minion_Dirt_03",
        "Clockwork_Loyalist_Minion_Dirt_04",
        "Clockwork_Loyalist_Minion_Dirt_05",
        "Clockwork_Loyalist_Minion_Dirt_06",
        "Clockwork_Loyalist_Minion_Dirt_07",
        "Clockwork_Loyalist_Minion_Dirt_08",
        "Clockwork_Loyalist_Minion_Dirt_09",
        "Clockwork_Loyalist_Minion_Dirt_10"
      ]
    },
    {
      "level": 10,
      "experience": 0,
      "display_names": [
        "Glitched Sweeper"
      ],
      "costumes": [
        "Clockwork_Loyalist_Minion_01",
        "Clockwork_Loyalist_Minion_02",
        "Clockwork_Loyalist_Minion_03",
        "Clockwork_Loyalist_Minion_04",
        "Clockwork_Loyalist_Minion_05",
        "Clockwork_Loyalist_Minion_06",
        "Clockwork_Loyalist_Minion_07",
        "Clockwork_Loyalist_Minion_08",
        "Clockwork_Loyalist_Minion_09",
        "Clockwork_Loyalist_Minion_10",
        "Clockwork_Loyalist_Minion_Dirt_01",
        "Clockwork_Loyalist_Minion_Dirt_02",
        "Clockwork_Loyalist_Minion_Dirt_03",
        "Clockwork_Loyalist_Minion_Dirt_04",
        "Clockwork_Loyalist_Minion_Dirt_05",
        "Clockwork_Loyalist_Minion_Dirt_06",
        "Clockwork_Loyalist_Minion_Dirt_07",
        "Clockwork_Loyalist_Minion_Dirt_08",
        "Clockwork_Loyalist_Minion_Dirt_09",
        "Clockwork_Loyalist_Minion_Dirt_10"
      ]
    },
    {
      "level": 11,
      "experience": 0,
      "display_names": [
        "Glitched Sweeper"
      ],
      "costumes": [
        "Clockwork_Loyalist_Minion_01",
        "Clockwork_Loyalist_Minion_02",
        "Clockwork_Loyalist_Minion_03",
        "Clockwork_Loyalist_Minion_04",
        "Clockwork_Loyalist_Minion_05",
        "Clockwork_Loyalist_Minion_06",
        "Clockwork_Loyalist_Minion_07",
        "Clockwork_Loyalist_Minion_08",
        "Clockwork_Loyalist_Minion_09",
        "Clockwork_Loyalist_Minion_10",
        "Clockwork_Loyalist_Minion_Dirt_01",
        "Clockwork_Loyalist_Minion_Dirt_02",
        "Clockwork_Loyalist_Minion_Dirt_03",
        "Clockwork_Loyalist_Minion_Dirt_04",
        "Clockwork_Loyalist_Minion_Dirt_05",
        "Clockwork_Loyalist_Minion_Dirt_06",
        "Clockwork_Loyalist_Minion_Dirt_07",
        "Clockwork_Loyalist_Minion_Dirt_08",
        "Clockwork_Loyalist_Minion_Dirt_09",
        "Clockwork_Loyalist_Minion_Dirt_10"
      ]
    },
    {
      "level": 12,
      "experience": 0,
      "display_names": [
        "Glitched Sweeper"
      ],
      "costumes": [
        "Clockwork_Loyalist_Minion_01",
        "Clockwork_Loyalist_Minion_02",
        "Clockwork_Loyalist_Minion_03",
        "Clockwork_Loyalist_Minion_04",
        "Clockwork_Loyalist_Minion_05",
        "Clockwork_Loyalist_Minion_06",
        "Clockwork_Loyalist_Minion_07",
        "Clockwork_Loyalist_Minion_08",
        "Clockwork_Loyalist_Minion_09",
        "Clockwork_Loyalist_Minion_10",
        "Clockwork_Loyalist_Minion_Dirt_01",
        "Clockwork_Loyalist_Minion_Dirt_02",
        "Clockwork_Loyalist_Minion_Dirt_03",
        "Clockwork_Loyalist_Minion_Dirt_04",
        "Clockwork_Loyalist_Minion_Dirt_05",
        "Clockwork_Loyalist_Minion_Dirt_06",
        "Clockwork_Loyalist_Minion_Dirt_07",
        "Clockwork_Loyalist_Minion_Dirt_08",
        "Clockwork_Loyalist_Minion_Dirt_09",
        "Clockwork_Loyalist_Minion_Dirt_10"
      ]
    },
    {
      "level": 13,
      "experience": 0,
      "display_names": [
        "Glitched Sweeper"
      ],
      "costumes": [
        "Clockwork_Loyalist_Minion_01",
        "Clockwork_Loyalist_Minion_02",
        "Clockwork_Loyalist_Minion_03",
        "Clockwork_Loyalist_Minion_04",
        "Clockwork_Loyalist_Minion_05",
        "Clockwork_Loyalist_Minion_06",
        "Clockwork_Loyalist_Minion_07",
        "Clockwork_Loyalist_Minion_08",
        "Clockwork_Loyalist_Minion_09",
        "Clockwork_Loyalist_Minion_10",
        "Clockwork_Loyalist_Minion_Dirt_01",
        "Clockwork_Loyalist_Minion_Dirt_02",
        "Clockwork_Loyalist_Minion_Dirt_03",
        "Clockwork_Loyalist_Minion_Dirt_04",
        "Clockwork_Loyalist_Minion_Dirt_05",
        "Clockwork_Loyalist_Minion_Dirt_06",
        "Clockwork_Loyalist_Minion_Dirt_07",
        "Clockwork_Loyalist_Minion_Dirt_08",
        "Clockwork_Loyalist_Minion_Dirt_09",
        "Clockwork_Loyalist_Minion_Dirt_10"
      ]
    },
    {
      "level": 14,
      "experience": 0,
      "display_names": [
        "Glitched Sweeper"
      ],
      "costumes": [
        "Clockwork_Loyalist_Minion_01",
        "Clockwork_Loyalist_Minion_02",
        "Clockwork_Loyalist_Minion_03",
        "Clockwork_Loyalist_Minion_04",
        "Clockwork_Loyalist_Minion_05",
        "Clockwork_Loyalist_Minion_06",
        "Clockwork_Loyalist_Minion_07",
        "Clockwork_Loyalist_Minion_08",
        "Clockwork_Loyalist_Minion_09",
        "Clockwork_Loyalist_Minion_10",
        "Clockwork_Loyalist_Minion_Dirt_01",
        "Clockwork_Loyalist_Minion_Dirt_02",
        "Clockwork_Loyalist_Minion_Dirt_03",
        "Clockwork_Loyalist_Minion_Dirt_04",
        "Clockwork_Loyalist_Minion_Dirt_05",
        "Clockwork_Loyalist_Minion_Dirt_06",
        "Clockwork_Loyalist_Minion_Dirt_07",
        "Clockwork_Loyalist_Minion_Dirt_08",
        "Clockwork_Loyalist_Minion_Dirt_09",
        "Clockwork_Loyalist_Minion_Dirt_10"
      ]
    },
    {
      "level": 15,
      "experience": 0,
      "display_names": [
        "Glitched Sweeper"
      ],
      "costumes": [
        "Clockwork_Loyalist_Minion_01",
        "Clockwork_Loyalist_Minion_02",
        "Clockwork_Loyalist_Minion_03",
        "Clockwork_Loyalist_Minion_04",
        "Clockwork_Loyalist_Minion_05",
        "Clockwork_Loyalist_Minion_06",
        "Clockwork_Loyalist_Minion_07",
        "Clockwork_Loyalist_Minion_08",
        "Clockwork_Loyalist_Minion_09",
        "Clockwork_Loyalist_Minion_10",
        "Clockwork_Loyalist_Minion_Dirt_01",
        "Clockwork_Loyalist_Minion_Dirt_02",
        "Clockwork_Loyalist_Minion_Dirt_03",
        "Clockwork_Loyalist_Minion_Dirt_04",
        "Clockwork_Loyalist_Minion_Dirt_05",
        "Clockwork_Loyalist_Minion_Dirt_06",
        "Clockwork_Loyalist_Minion_Dirt_07",
        "Clockwork_Loyalist_Minion_Dirt_08",
        "Clockwork_Loyalist_Minion_Dirt_09",
        "Clockwork_Loyalist_Minion_Dirt_10"
      ]
    },
    {
      "level": 16,
      "experience": 0,
      "display_names": [
        "Glitched Sweeper"
      ],
      "costumes": [
        "Clockwork_Loyalist_Minion_01",
        "Clockwork_Loyalist_Minion_02",
        "Clockwork_Loyalist_Minion_03",
        "Clockwork_Loyalist_Minion_04",
        "Clockwork_Loyalist_Minion_05",
        "Clockwork_Loyalist_Minion_06",
        "Clockwork_Loyalist_Minion_07",
        "Clockwork_Loyalist_Minion_08",
        "Clockwork_Loyalist_Minion_09",
        "Clockwork_Loyalist_Minion_10",
        "Clockwork_Loyalist_Minion_Dirt_01",
        "Clockwork_Loyalist_Minion_Dirt_02",
        "Clockwork_Loyalist_Minion_Dirt_03",
        "Clockwork_Loyalist_Minion_Dirt_04",
        "Clockwork_Loyalist_Minion_Dirt_05",
        "Clockwork_Loyalist_Minion_Dirt_06",
        "Clockwork_Loyalist_Minion_Dirt_07",
        "Clockwork_Loyalist_Minion_Dirt_08",
        "Clockwork_Loyalist_Minion_Dirt_09",
        "Clockwork_Loyalist_Minion_Dirt_10"
      ]
    },
    {
      "level": 17,
      "experience": 0,
      "display_names": [
        "Glitched Sweeper"
      ],
      "costumes": [
        "Clockwork_Loyalist_Minion_01",
        "Clockwork_Loyalist_Minion_02",
        "Clockwork_Loyalist_Minion_03",
        "Clockwork_Loyalist_Minion_04",
        "Clockwork_Loyalist_Minion_05",
        "Clockwork_Loyalist_Minion_06",
        "Clockwork_Loyalist_Minion_07",
        "Clockwork_Loyalist_Minion_08",
        "Clockwork_Loyalist_Minion_09",
        "Clockwork_Loyalist_Minion_10",
        "Clockwork_Loyalist_Minion_Dirt_01",
        "Clockwork_Loyalist_Minion_Dirt_02",
        "Clockwork_Loyalist_Minion_Dirt_03",
        "Clockwork_Loyalist_Minion_Dirt_04",
        "Clockwork_Loyalist_Minion_Dirt_05",
        "Clockwork_Loyalist_Minion_Dirt_06",
        "Clockwork_Loyalist_Minion_Dirt_07",
        "Clockwork_Loyalist_Minion_Dirt_08",
        "Clockwork_Loyalist_Minion_Dirt_09",
        "Clockwork_Loyalist_Minion_Dirt_10"
      ]
    },
    {
      "level": 18,
      "experience": 0,
      "display_names": [
        "Glitched Sweeper"
      ],
      "costumes": [
        "Clockwork_Loyalist_Minion_01",
        "Clockwork_Loyalist_Minion_02",
        "Clockwork_Loyalist_Minion_03",
        "Clockwork_Loyalist_Minion_04",
        "Clockwork_Loyalist_Minion_05",
        "Clockwork_Loyalist_Minion_06",
        "Clockwork_Loyalist_Minion_07",
        "Clockwork_Loyalist_Minion_08",
        "Clockwork_Loyalist_Minion_09",
        "Clockwork_Loyalist_Minion_10",
        "Clockwork_Loyalist_Minion_Dirt_01",
        "Clockwork_Loyalist_Minion_Dirt_02",
        "Clockwork_Loyalist_Minion_Dirt_03",
        "Clockwork_Loyalist_Minion_Dirt_04",
        "Clockwork_Loyalist_Minion_Dirt_05",
        "Clockwork_Loyalist_Minion_Dirt_06",
        "Clockwork_Loyalist_Minion_Dirt_07",
        "Clockwork_Loyalist_Minion_Dirt_08",
        "Clockwork_Loyalist_Minion_Dirt_09",
        "Clockwork_Loyalist_Minion_Dirt_10"
      ]
    },
    {
      "level": 19,
      "experience": 0,
      "display_names": [
        "Glitched Sweeper"
      ],
      "costumes": [
        "Clockwork_Loyalist_Minion_01",
        "Clockwork_Loyalist_Minion_02",
        "Clockwork_Loyalist_Minion_03",
        "Clockwork_Loyalist_Minion_04",
        "Clockwork_Loyalist_Minion_05",
        "Clockwork_Loyalist_Minion_06",
        "Clockwork_Loyalist_Minion_07",
        "Clockwork_Loyalist_Minion_08",
        "Clockwork_Loyalist_Minion_09",
        "Clockwork_Loyalist_Minion_10",
        "Clockwork_Loyalist_Minion_Dirt_01",
        "Clockwork_Loyalist_Minion_Dirt_02",
        "Clockwork_Loyalist_Minion_Dirt_03",
        "Clockwork_Loyalist_Minion_Dirt_04",
        "Clockwork_Loyalist_Minion_Dirt_05",
        "Clockwork_Loyalist_Minion_Dirt_06",
        "Clockwork_Loyalist_Minion_Dirt_07",
        "Clockwork_Loyalist_Minion_Dirt_08",
        "Clockwork_Loyalist_Minion_Dirt_09",
        "Clockwork_Loyalist_Minion_Dirt_10"
      ]
    },
    {
      "level": 20,
      "experience": 0,
      "display_names": [
        "Glitched Sweeper"
      ],
      "costumes": [
        "Clockwork_Loyalist_Minion_01",
        "Clockwork_Loyalist_Minion_02",
        "Clockwork_Loyalist_Minion_03",
        "Clockwork_Loyalist_Minion_04",
        "Clockwork_Loyalist_Minion_05",
        "Clockwork_Loyalist_Minion_06",
        "Clockwork_Loyalist_Minion_07",
        "Clockwork_Loyalist_Minion_08",
        "Clockwork_Loyalist_Minion_09",
        "Clockwork_Loyalist_Minion_10",
        "Clockwork_Loyalist_Minion_Dirt_01",
        "Clockwork_Loyalist_Minion_Dirt_02",
        "Clockwork_Loyalist_Minion_Dirt_03",
        "Clockwork_Loyalist_Minion_Dirt_04",
        "Clockwork_Loyalist_Minion_Dirt_05",
        "Clockwork_Loyalist_Minion_Dirt_06",
        "Clockwork_Loyalist_Minion_Dirt_07",
        "Clockwork_Loyalist_Minion_Dirt_08",
        "Clockwork_Loyalist_Minion_Dirt_09",
        "Clockwork_Loyalist_Minion_Dirt_10"
      ]
    },
    {
      "level": 21,
      "experience": 0,
      "display_names": [
        "Glitched Sweeper"
      ],
      "costumes": [
        "Clockwork_Loyalist_Minion_01",
        "Clockwork_Loyalist_Minion_02",
        "Clockwork_Loyalist_Minion_03",
        "Clockwork_Loyalist_Minion_04",
        "Clockwork_Loyalist_Minion_05",
        "Clockwork_Loyalist_Minion_06",
        "Clockwork_Loyalist_Minion_07",
        "Clockwork_Loyalist_Minion_08",
        "Clockwork_Loyalist_Minion_09",
        "Clockwork_Loyalist_Minion_10",
        "Clockwork_Loyalist_Minion_Dirt_01",
        "Clockwork_Loyalist_Minion_Dirt_02",
        "Clockwork_Loyalist_Minion_Dirt_03",
        "Clockwork_Loyalist_Minion_Dirt_04",
        "Clockwork_Loyalist_Minion_Dirt_05",
        "Clockwork_Loyalist_Minion_Dirt_06",
        "Clockwork_Loyalist_Minion_Dirt_07",
        "Clockwork_Loyalist_Minion_Dirt_08",
        "Clockwork_Loyalist_Minion_Dirt_09",
        "Clockwork_Loyalist_Minion_Dirt_10"
      ]
    },
    {
      "level": 22,
      "experience": 0,
      "display_names": [
        "Glitched Sweeper"
      ],
      "costumes": [
        "Clockwork_Loyalist_Minion_01",
        "Clockwork_Loyalist_Minion_02",
        "Clockwork_Loyalist_Minion_03",
        "Clockwork_Loyalist_Minion_04",
        "Clockwork_Loyalist_Minion_05",
        "Clockwork_Loyalist_Minion_06",
        "Clockwork_Loyalist_Minion_07",
        "Clockwork_Loyalist_Minion_08",
        "Clockwork_Loyalist_Minion_09",
        "Clockwork_Loyalist_Minion_10",
        "Clockwork_Loyalist_Minion_Dirt_01",
        "Clockwork_Loyalist_Minion_Dirt_02",
        "Clockwork_Loyalist_Minion_Dirt_03",
        "Clockwork_Loyalist_Minion_Dirt_04",
        "Clockwork_Loyalist_Minion_Dirt_05",
        "Clockwork_Loyalist_Minion_Dirt_06",
        "Clockwork_Loyalist_Minion_Dirt_07",
        "Clockwork_Loyalist_Minion_Dirt_08",
        "Clockwork_Loyalist_Minion_Dirt_09",
        "Clockwork_Loyalist_Minion_Dirt_10"
      ]
    },
    {
      "level": 23,
      "experience": 0,
      "display_names": [
        "Glitched Sweeper"
      ],
      "costumes": [
        "Clockwork_Loyalist_Minion_01",
        "Clockwork_Loyalist_Minion_02",
        "Clockwork_Loyalist_Minion_03",
        "Clockwork_Loyalist_Minion_04",
        "Clockwork_Loyalist_Minion_05",
        "Clockwork_Loyalist_Minion_06",
        "Clockwork_Loyalist_Minion_07",
        "Clockwork_Loyalist_Minion_08",
        "Clockwork_Loyalist_Minion_09",
        "Clockwork_Loyalist_Minion_10",
        "Clockwork_Loyalist_Minion_Dirt_01",
        "Clockwork_Loyalist_Minion_Dirt_02",
        "Clockwork_Loyalist_Minion_Dirt_03",
        "Clockwork_Loyalist_Minion_Dirt_04",
        "Clockwork_Loyalist_Minion_Dirt_05",
        "Clockwork_Loyalist_Minion_Dirt_06",
        "Clockwork_Loyalist_Minion_Dirt_07",
        "Clockwork_Loyalist_Minion_Dirt_08",
        "Clockwork_Loyalist_Minion_Dirt_09",
        "Clockwork_Loyalist_Minion_Dirt_10"
      ]
    },
    {
      "level": 24,
      "experience": 0,
      "display_names": [
        "Glitched Sweeper"
      ],
      "costumes": [
        "Clockwork_Loyalist_Minion_01",
        "Clockwork_Loyalist_Minion_02",
        "Clockwork_Loyalist_Minion_03",
        "Clockwork_Loyalist_Minion_04",
        "Clockwork_Loyalist_Minion_05",
        "Clockwork_Loyalist_Minion_06",
        "Clockwork_Loyalist_Minion_07",
        "Clockwork_Loyalist_Minion_08",
        "Clockwork_Loyalist_Minion_09",
        "Clockwork_Loyalist_Minion_10",
        "Clockwork_Loyalist_Minion_Dirt_01",
        "Clockwork_Loyalist_Minion_Dirt_02",
        "Clockwork_Loyalist_Minion_Dirt_03",
        "Clockwork_Loyalist_Minion_Dirt_04",
        "Clockwork_Loyalist_Minion_Dirt_05",
        "Clockwork_Loyalist_Minion_Dirt_06",
        "Clockwork_Loyalist_Minion_Dirt_07",
        "Clockwork_Loyalist_Minion_Dirt_08",
        "Clockwork_Loyalist_Minion_Dirt_09",
        "Clockwork_Loyalist_Minion_Dirt_10"
      ]
    },
    {
      "level": 25,
      "experience": 0,
      "display_names": [
        "Glitched Sweeper"
      ],
      "costumes": [
        "Clockwork_Loyalist_Minion_01",
        "Clockwork_Loyalist_Minion_02",
        "Clockwork_Loyalist_Minion_03",
        "Clockwork_Loyalist_Minion_04",
        "Clockwork_Loyalist_Minion_05",
        "Clockwork_Loyalist_Minion_06",
        "Clockwork_Loyalist_Minion_07",
        "Clockwork_Loyalist_Minion_08",
        "Clockwork_Loyalist_Minion_09",
        "Clockwork_Loyalist_Minion_10",
        "Clockwork_Loyalist_Minion_Dirt_01",
        "Clockwork_Loyalist_Minion_Dirt_02",
        "Clockwork_Loyalist_Minion_Dirt_03",
        "Clockwork_Loyalist_Minion_Dirt_04",
        "Clockwork_Loyalist_Minion_Dirt_05",
        "Clockwork_Loyalist_Minion_Dirt_06",
        "Clockwork_Loyalist_Minion_Dirt_07",
        "Clockwork_Loyalist_Minion_Dirt_08",
        "Clockwork_Loyalist_Minion_Dirt_09",
        "Clockwork_Loyalist_Minion_Dirt_10"
      ]
    },
    {
      "level": 26,
      "experience": 0,
      "display_names": [
        "Glitched Sweeper"
      ],
      "costumes": [
        "Clockwork_Loyalist_Minion_01",
        "Clockwork_Loyalist_Minion_02",
        "Clockwork_Loyalist_Minion_03",
        "Clockwork_Loyalist_Minion_04",
        "Clockwork_Loyalist_Minion_05",
        "Clockwork_Loyalist_Minion_06",
        "Clockwork_Loyalist_Minion_07",
        "Clockwork_Loyalist_Minion_08",
        "Clockwork_Loyalist_Minion_09",
        "Clockwork_Loyalist_Minion_10",
        "Clockwork_Loyalist_Minion_Dirt_01",
        "Clockwork_Loyalist_Minion_Dirt_02",
        "Clockwork_Loyalist_Minion_Dirt_03",
        "Clockwork_Loyalist_Minion_Dirt_04",
        "Clockwork_Loyalist_Minion_Dirt_05",
        "Clockwork_Loyalist_Minion_Dirt_06",
        "Clockwork_Loyalist_Minion_Dirt_07",
        "Clockwork_Loyalist_Minion_Dirt_08",
        "Clockwork_Loyalist_Minion_Dirt_09",
        "Clockwork_Loyalist_Minion_Dirt_10"
      ]
    },
    {
      "level": 27,
      "experience": 0,
      "display_names": [
        "Glitched Sweeper"
      ],
      "costumes": [
        "Clockwork_Loyalist_Minion_01",
        "Clockwork_Loyalist_Minion_02",
        "Clockwork_Loyalist_Minion_03",
        "Clockwork_Loyalist_Minion_04",
        "Clockwork_Loyalist_Minion_05",
        "Clockwork_Loyalist_Minion_06",
        "Clockwork_Loyalist_Minion_07",
        "Clockwork_Loyalist_Minion_08",
        "Clockwork_Loyalist_Minion_09",
        "Clockwork_Loyalist_Minion_10",
        "Clockwork_Loyalist_Minion_Dirt_01",
        "Clockwork_Loyalist_Minion_Dirt_02",
        "Clockwork_Loyalist_Minion_Dirt_03",
        "Clockwork_Loyalist_Minion_Dirt_04",
        "Clockwork_Loyalist_Minion_Dirt_05",
        "Clockwork_Loyalist_Minion_Dirt_06",
        "Clockwork_Loyalist_Minion_Dirt_07",
        "Clockwork_Loyalist_Minion_Dirt_08",
        "Clockwork_Loyalist_Minion_Dirt_09",
        "Clockwork_Loyalist_Minion_Dirt_10"
      ]
    },
    {
      "level": 28,
      "experience": 0,
      "display_names": [
        "Glitched Sweeper"
      ],
      "costumes": [
        "Clockwork_Loyalist_Minion_01",
        "Clockwork_Loyalist_Minion_02",
        "Clockwork_Loyalist_Minion_03",
        "Clockwork_Loyalist_Minion_04",
        "Clockwork_Loyalist_Minion_05",
        "Clockwork_Loyalist_Minion_06",
        "Clockwork_Loyalist_Minion_07",
        "Clockwork_Loyalist_Minion_08",
        "Clockwork_Loyalist_Minion_09",
        "Clockwork_Loyalist_Minion_10",
        "Clockwork_Loyalist_Minion_Dirt_01",
        "Clockwork_Loyalist_Minion_Dirt_02",
        "Clockwork_Loyalist_Minion_Dirt_03",
        "Clockwork_Loyalist_Minion_Dirt_04",
        "Clockwork_Loyalist_Minion_Dirt_05",
        "Clockwork_Loyalist_Minion_Dirt_06",
        "Clockwork_Loyalist_Minion_Dirt_07",
        "Clockwork_Loyalist_Minion_Dirt_08",
        "Clockwork_Loyalist_Minion_Dirt_09",
        "Clockwork_Loyalist_Minion_Dirt_10"
      ]
    },
    {
      "level": 29,
      "experience": 0,
      "display_names": [
        "Glitched Sweeper"
      ],
      "costumes": [
        "Clockwork_Loyalist_Minion_01",
        "Clockwork_Loyalist_Minion_02",
        "Clockwork_Loyalist_Minion_03",
        "Clockwork_Loyalist_Minion_04",
        "Clockwork_Loyalist_Minion_05",
        "Clockwork_Loyalist_Minion_06",
        "Clockwork_Loyalist_Minion_07",
        "Clockwork_Loyalist_Minion_08",
        "Clockwork_Loyalist_Minion_09",
        "Clockwork_Loyalist_Minion_10",
        "Clockwork_Loyalist_Minion_Dirt_01",
        "Clockwork_Loyalist_Minion_Dirt_02",
        "Clockwork_Loyalist_Minion_Dirt_03",
        "Clockwork_Loyalist_Minion_Dirt_04",
        "Clockwork_Loyalist_Minion_Dirt_05",
        "Clockwork_Loyalist_Minion_Dirt_06",
        "Clockwork_Loyalist_Minion_Dirt_07",
        "Clockwork_Loyalist_Minion_Dirt_08",
        "Clockwork_Loyalist_Minion_Dirt_09",
        "Clockwork_Loyalist_Minion_Dirt_10"
      ]
    },
    {
      "level": 30,
      "experience": 0,
      "display_names": [
        "Glitched Sweeper"
      ],
      "costumes": [
        "Clockwork_Loyalist_Minion_01",
        "Clockwork_Loyalist_Minion_02",
        "Clockwork_Loyalist_Minion_03",
        "Clockwork_Loyalist_Minion_04",
        "Clockwork_Loyalist_Minion_05",
        "Clockwork_Loyalist_Minion_06",
        "Clockwork_Loyalist_Minion_07",
        "Clockwork_Loyalist_Minion_08",
        "Clockwork_Loyalist_Minion_09",
        "Clockwork_Loyalist_Minion_10",
        "Clockwork_Loyalist_Minion_Dirt_01",
        "Clockwork_Loyalist_Minion_Dirt_02",
        "Clockwork_Loyalist_Minion_Dirt_03",
        "Clockwork_Loyalist_Minion_Dirt_04",
        "Clockwork_Loyalist_Minion_Dirt_05",
        "Clockwork_Loyalist_Minion_Dirt_06",
        "Clockwork_Loyalist_Minion_Dirt_07",
        "Clockwork_Loyalist_Minion_Dirt_08",
        "Clockwork_Loyalist_Minion_Dirt_09",
        "Clockwork_Loyalist_Minion_Dirt_10"
      ]
    },
    {
      "level": 31,
      "experience": 0,
      "display_names": [
        "Glitched Sweeper"
      ],
      "costumes": [
        "Clockwork_Loyalist_Minion_01",
        "Clockwork_Loyalist_Minion_02",
        "Clockwork_Loyalist_Minion_03",
        "Clockwork_Loyalist_Minion_04",
        "Clockwork_Loyalist_Minion_05",
        "Clockwork_Loyalist_Minion_06",
        "Clockwork_Loyalist_Minion_07",
        "Clockwork_Loyalist_Minion_08",
        "Clockwork_Loyalist_Minion_09",
        "Clockwork_Loyalist_Minion_10",
        "Clockwork_Loyalist_Minion_Dirt_01",
        "Clockwork_Loyalist_Minion_Dirt_02",
        "Clockwork_Loyalist_Minion_Dirt_03",
        "Clockwork_Loyalist_Minion_Dirt_04",
        "Clockwork_Loyalist_Minion_Dirt_05",
        "Clockwork_Loyalist_Minion_Dirt_06",
        "Clockwork_Loyalist_Minion_Dirt_07",
        "Clockwork_Loyalist_Minion_Dirt_08",
        "Clockwork_Loyalist_Minion_Dirt_09",
        "Clockwork_Loyalist_Minion_Dirt_10"
      ]
    },
    {
      "level": 32,
      "experience": 0,
      "display_names": [
        "Glitched Sweeper"
      ],
      "costumes": [
        "Clockwork_Loyalist_Minion_01",
        "Clockwork_Loyalist_Minion_02",
        "Clockwork_Loyalist_Minion_03",
        "Clockwork_Loyalist_Minion_04",
        "Clockwork_Loyalist_Minion_05",
        "Clockwork_Loyalist_Minion_06",
        "Clockwork_Loyalist_Minion_07",
        "Clockwork_Loyalist_Minion_08",
        "Clockwork_Loyalist_Minion_09",
        "Clockwork_Loyalist_Minion_10",
        "Clockwork_Loyalist_Minion_Dirt_01",
        "Clockwork_Loyalist_Minion_Dirt_02",
        "Clockwork_Loyalist_Minion_Dirt_03",
        "Clockwork_Loyalist_Minion_Dirt_04",
        "Clockwork_Loyalist_Minion_Dirt_05",
        "Clockwork_Loyalist_Minion_Dirt_06",
        "Clockwork_Loyalist_Minion_Dirt_07",
        "Clockwork_Loyalist_Minion_Dirt_08",
        "Clockwork_Loyalist_Minion_Dirt_09",
        "Clockwork_Loyalist_Minion_Dirt_10"
      ]
    },
    {
      "level": 33,
      "experience": 0,
      "display_names": [
        "Glitched Sweeper"
      ],
      "costumes": [
        "Clockwork_Loyalist_Minion_01",
        "Clockwork_Loyalist_Minion_02",
        "Clockwork_Loyalist_Minion_03",
        "Clockwork_Loyalist_Minion_04",
        "Clockwork_Loyalist_Minion_05",
        "Clockwork_Loyalist_Minion_06",
        "Clockwork_Loyalist_Minion_07",
        "Clockwork_Loyalist_Minion_08",
        "Clockwork_Loyalist_Minion_09",
        "Clockwork_Loyalist_Minion_10",
        "Clockwork_Loyalist_Minion_Dirt_01",
        "Clockwork_Loyalist_Minion_Dirt_02",
        "Clockwork_Loyalist_Minion_Dirt_03",
        "Clockwork_Loyalist_Minion_Dirt_04",
        "Clockwork_Loyalist_Minion_Dirt_05",
        "Clockwork_Loyalist_Minion_Dirt_06",
        "Clockwork_Loyalist_Minion_Dirt_07",
        "Clockwork_Loyalist_Minion_Dirt_08",
        "Clockwork_Loyalist_Minion_Dirt_09",
        "Clockwork_Loyalist_Minion_Dirt_10"
      ]
    },
    {
      "level": 34,
      "experience": 0,
      "display_names": [
        "Glitched Sweeper"
      ],
      "costumes": [
        "Clockwork_Loyalist_Minion_01",
        "Clockwork_Loyalist_Minion_02",
        "Clockwork_Loyalist_Minion_03",
        "Clockwork_Loyalist_Minion_04",
        "Clockwork_Loyalist_Minion_05",
        "Clockwork_Loyalist_Minion_06",
        "Clockwork_Loyalist_Minion_07",
        "Clockwork_Loyalist_Minion_08",
        "Clockwork_Loyalist_Minion_09",
        "Clockwork_Loyalist_Minion_10",
        "Clockwork_Loyalist_Minion_Dirt_01",
        "Clockwork_Loyalist_Minion_Dirt_02",
        "Clockwork_Loyalist_Minion_Dirt_03",
        "Clockwork_Loyalist_Minion_Dirt_04",
        "Clockwork_Loyalist_Minion_Dirt_05",
        "Clockwork_Loyalist_Minion_Dirt_06",
        "Clockwork_Loyalist_Minion_Dirt_07",
        "Clockwork_Loyalist_Minion_Dirt_08",
        "Clockwork_Loyalist_Minion_Dirt_09",
        "Clockwork_Loyalist_Minion_Dirt_10"
      ]
    },
    {
      "level": 35,
      "experience": 0,
      "display_names": [
        "Glitched Sweeper"
      ],
      "costumes": [
        "Clockwork_Loyalist_Minion_01",
        "Clockwork_Loyalist_Minion_02",
        "Clockwork_Loyalist_Minion_03",
        "Clockwork_Loyalist_Minion_04",
        "Clockwork_Loyalist_Minion_05",
        "Clockwork_Loyalist_Minion_06",
        "Clockwork_Loyalist_Minion_07",
        "Clockwork_Loyalist_Minion_08",
        "Clockwork_Loyalist_Minion_09",
        "Clockwork_Loyalist_Minion_10",
        "Clockwork_Loyalist_Minion_Dirt_01",
        "Clockwork_Loyalist_Minion_Dirt_02",
        "Clockwork_Loyalist_Minion_Dirt_03",
        "Clockwork_Loyalist_Minion_Dirt_04",
        "Clockwork_Loyalist_Minion_Dirt_05",
        "Clockwork_Loyalist_Minion_Dirt_06",
        "Clockwork_Loyalist_Minion_Dirt_07",
        "Clockwork_Loyalist_Minion_Dirt_08",
        "Clockwork_Loyalist_Minion_Dirt_09",
        "Clockwork_Loyalist_Minion_Dirt_10"
      ]
    },
    {
      "level": 36,
      "experience": 0,
      "display_names": [
        "Glitched Sweeper"
      ],
      "costumes": [
        "Clockwork_Loyalist_Minion_01",
        "Clockwork_Loyalist_Minion_02",
        "Clockwork_Loyalist_Minion_03",
        "Clockwork_Loyalist_Minion_04",
        "Clockwork_Loyalist_Minion_05",
        "Clockwork_Loyalist_Minion_06",
        "Clockwork_Loyalist_Minion_07",
        "Clockwork_Loyalist_Minion_08",
        "Clockwork_Loyalist_Minion_09",
        "Clockwork_Loyalist_Minion_10",
        "Clockwork_Loyalist_Minion_Dirt_01",
        "Clockwork_Loyalist_Minion_Dirt_02",
        "Clockwork_Loyalist_Minion_Dirt_03",
        "Clockwork_Loyalist_Minion_Dirt_04",
        "Clockwork_Loyalist_Minion_Dirt_05",
        "Clockwork_Loyalist_Minion_Dirt_06",
        "Clockwork_Loyalist_Minion_Dirt_07",
        "Clockwork_Loyalist_Minion_Dirt_08",
        "Clockwork_Loyalist_Minion_Dirt_09",
        "Clockwork_Loyalist_Minion_Dirt_10"
      ]
    },
    {
      "level": 37,
      "experience": 0,
      "display_names": [
        "Glitched Sweeper"
      ],
      "costumes": [
        "Clockwork_Loyalist_Minion_01",
        "Clockwork_Loyalist_Minion_02",
        "Clockwork_Loyalist_Minion_03",
        "Clockwork_Loyalist_Minion_04",
        "Clockwork_Loyalist_Minion_05",
        "Clockwork_Loyalist_Minion_06",
        "Clockwork_Loyalist_Minion_07",
        "Clockwork_Loyalist_Minion_08",
        "Clockwork_Loyalist_Minion_09",
        "Clockwork_Loyalist_Minion_10",
        "Clockwork_Loyalist_Minion_Dirt_01",
        "Clockwork_Loyalist_Minion_Dirt_02",
        "Clockwork_Loyalist_Minion_Dirt_03",
        "Clockwork_Loyalist_Minion_Dirt_04",
        "Clockwork_Loyalist_Minion_Dirt_05",
        "Clockwork_Loyalist_Minion_Dirt_06",
        "Clockwork_Loyalist_Minion_Dirt_07",
        "Clockwork_Loyalist_Minion_Dirt_08",
        "Clockwork_Loyalist_Minion_Dirt_09",
        "Clockwork_Loyalist_Minion_Dirt_10"
      ]
    },
    {
      "level": 38,
      "experience": 0,
      "display_names": [
        "Glitched Sweeper"
      ],
      "costumes": [
        "Clockwork_Loyalist_Minion_01",
        "Clockwork_Loyalist_Minion_02",
        "Clockwork_Loyalist_Minion_03",
        "Clockwork_Loyalist_Minion_04",
        "Clockwork_Loyalist_Minion_05",
        "Clockwork_Loyalist_Minion_06",
        "Clockwork_Loyalist_Minion_07",
        "Clockwork_Loyalist_Minion_08",
        "Clockwork_Loyalist_Minion_09",
        "Clockwork_Loyalist_Minion_10",
        "Clockwork_Loyalist_Minion_Dirt_01",
        "Clockwork_Loyalist_Minion_Dirt_02",
        "Clockwork_Loyalist_Minion_Dirt_03",
        "Clockwork_Loyalist_Minion_Dirt_04",
        "Clockwork_Loyalist_Minion_Dirt_05",
        "Clockwork_Loyalist_Minion_Dirt_06",
        "Clockwork_Loyalist_Minion_Dirt_07",
        "Clockwork_Loyalist_Minion_Dirt_08",
        "Clockwork_Loyalist_Minion_Dirt_09",
        "Clockwork_Loyalist_Minion_Dirt_10"
      ]
    },
    {
      "level": 39,
      "experience": 0,
      "display_names": [
        "Glitched Sweeper"
      ],
      "costumes": [
        "Clockwork_Loyalist_Minion_01",
        "Clockwork_Loyalist_Minion_02",
        "Clockwork_Loyalist_Minion_03",
        "Clockwork_Loyalist_Minion_04",
        "Clockwork_Loyalist_Minion_05",
        "Clockwork_Loyalist_Minion_06",
        "Clockwork_Loyalist_Minion_07",
        "Clockwork_Loyalist_Minion_08",
        "Clockwork_Loyalist_Minion_09",
        "Clockwork_Loyalist_Minion_10",
        "Clockwork_Loyalist_Minion_Dirt_01",
        "Clockwork_Loyalist_Minion_Dirt_02",
        "Clockwork_Loyalist_Minion_Dirt_03",
        "Clockwork_Loyalist_Minion_Dirt_04",
        "Clockwork_Loyalist_Minion_Dirt_05",
        "Clockwork_Loyalist_Minion_Dirt_06",
        "Clockwork_Loyalist_Minion_Dirt_07",
        "Clockwork_Loyalist_Minion_Dirt_08",
        "Clockwork_Loyalist_Minion_Dirt_09",
        "Clockwork_Loyalist_Minion_Dirt_10"
      ]
    },
    {
      "level": 40,
      "experience": 0,
      "display_names": [
        "Glitched Sweeper"
      ],
      "costumes": [
        "Clockwork_Loyalist_Minion_01",
        "Clockwork_Loyalist_Minion_02",
        "Clockwork_Loyalist_Minion_03",
        "Clockwork_Loyalist_Minion_04",
        "Clockwork_Loyalist_Minion_05",
        "Clockwork_Loyalist_Minion_06",
        "Clockwork_Loyalist_Minion_07",
        "Clockwork_Loyalist_Minion_08",
        "Clockwork_Loyalist_Minion_09",
        "Clockwork_Loyalist_Minion_10",
        "Clockwork_Loyalist_Minion_Dirt_01",
        "Clockwork_Loyalist_Minion_Dirt_02",
        "Clockwork_Loyalist_Minion_Dirt_03",
        "Clockwork_Loyalist_Minion_Dirt_04",
        "Clockwork_Loyalist_Minion_Dirt_05",
        "Clockwork_Loyalist_Minion_Dirt_06",
        "Clockwork_Loyalist_Minion_Dirt_07",
        "Clockwork_Loyalist_Minion_Dirt_08",
        "Clockwork_Loyalist_Minion_Dirt_09",
        "Clockwork_Loyalist_Minion_Dirt_10"
      ]
    },
    {
      "level": 41,
      "experience": 0,
      "display_names": [
        "Glitched Sweeper"
      ],
      "costumes": [
        "Clockwork_Loyalist_Minion_01",
        "Clockwork_Loyalist_Minion_02",
        "Clockwork_Loyalist_Minion_03",
        "Clockwork_Loyalist_Minion_04",
        "Clockwork_Loyalist_Minion_05",
        "Clockwork_Loyalist_Minion_06",
        "Clockwork_Loyalist_Minion_07",
        "Clockwork_Loyalist_Minion_08",
        "Clockwork_Loyalist_Minion_09",
        "Clockwork_Loyalist_Minion_10",
        "Clockwork_Loyalist_Minion_Dirt_01",
        "Clockwork_Loyalist_Minion_Dirt_02",
        "Clockwork_Loyalist_Minion_Dirt_03",
        "Clockwork_Loyalist_Minion_Dirt_04",
        "Clockwork_Loyalist_Minion_Dirt_05",
        "Clockwork_Loyalist_Minion_Dirt_06",
        "Clockwork_Loyalist_Minion_Dirt_07",
        "Clockwork_Loyalist_Minion_Dirt_08",
        "Clockwork_Loyalist_Minion_Dirt_09",
        "Clockwork_Loyalist_Minion_Dirt_10"
      ]
    },
    {
      "level": 42,
      "experience": 0,
      "display_names": [
        "Glitched Sweeper"
      ],
      "costumes": [
        "Clockwork_Loyalist_Minion_01",
        "Clockwork_Loyalist_Minion_02",
        "Clockwork_Loyalist_Minion_03",
        "Clockwork_Loyalist_Minion_04",
        "Clockwork_Loyalist_Minion_05",
        "Clockwork_Loyalist_Minion_06",
        "Clockwork_Loyalist_Minion_07",
        "Clockwork_Loyalist_Minion_08",
        "Clockwork_Loyalist_Minion_09",
        "Clockwork_Loyalist_Minion_10",
        "Clockwork_Loyalist_Minion_Dirt_01",
        "Clockwork_Loyalist_Minion_Dirt_02",
        "Clockwork_Loyalist_Minion_Dirt_03",
        "Clockwork_Loyalist_Minion_Dirt_04",
        "Clockwork_Loyalist_Minion_Dirt_05",
        "Clockwork_Loyalist_Minion_Dirt_06",
        "Clockwork_Loyalist_Minion_Dirt_07",
        "Clockwork_Loyalist_Minion_Dirt_08",
        "Clockwork_Loyalist_Minion_Dirt_09",
        "Clockwork_Loyalist_Minion_Dirt_10"
      ]
    },
    {
      "level": 43,
      "experience": 0,
      "display_names": [
        "Glitched Sweeper"
      ],
      "costumes": [
        "Clockwork_Loyalist_Minion_01",
        "Clockwork_Loyalist_Minion_02",
        "Clockwork_Loyalist_Minion_03",
        "Clockwork_Loyalist_Minion_04",
        "Clockwork_Loyalist_Minion_05",
        "Clockwork_Loyalist_Minion_06",
        "Clockwork_Loyalist_Minion_07",
        "Clockwork_Loyalist_Minion_08",
        "Clockwork_Loyalist_Minion_09",
        "Clockwork_Loyalist_Minion_10",
        "Clockwork_Loyalist_Minion_Dirt_01",
        "Clockwork_Loyalist_Minion_Dirt_02",
        "Clockwork_Loyalist_Minion_Dirt_03",
        "Clockwork_Loyalist_Minion_Dirt_04",
        "Clockwork_Loyalist_Minion_Dirt_05",
        "Clockwork_Loyalist_Minion_Dirt_06",
        "Clockwork_Loyalist_Minion_Dirt_07",
        "Clockwork_Loyalist_Minion_Dirt_08",
        "Clockwork_Loyalist_Minion_Dirt_09",
        "Clockwork_Loyalist_Minion_Dirt_10"
      ]
    },
    {
      "level": 44,
      "experience": 0,
      "display_names": [
        "Glitched Sweeper"
      ],
      "costumes": [
        "Clockwork_Loyalist_Minion_01",
        "Clockwork_Loyalist_Minion_02",
        "Clockwork_Loyalist_Minion_03",
        "Clockwork_Loyalist_Minion_04",
        "Clockwork_Loyalist_Minion_05",
        "Clockwork_Loyalist_Minion_06",
        "Clockwork_Loyalist_Minion_07",
        "Clockwork_Loyalist_Minion_08",
        "Clockwork_Loyalist_Minion_09",
        "Clockwork_Loyalist_Minion_10",
        "Clockwork_Loyalist_Minion_Dirt_01",
        "Clockwork_Loyalist_Minion_Dirt_02",
        "Clockwork_Loyalist_Minion_Dirt_03",
        "Clockwork_Loyalist_Minion_Dirt_04",
        "Clockwork_Loyalist_Minion_Dirt_05",
        "Clockwork_Loyalist_Minion_Dirt_06",
        "Clockwork_Loyalist_Minion_Dirt_07",
        "Clockwork_Loyalist_Minion_Dirt_08",
        "Clockwork_Loyalist_Minion_Dirt_09",
        "Clockwork_Loyalist_Minion_Dirt_10"
      ]
    },
    {
      "level": 45,
      "experience": 0,
      "display_names": [
        "Glitched Sweeper"
      ],
      "costumes": [
        "Clockwork_Loyalist_Minion_01",
        "Clockwork_Loyalist_Minion_02",
        "Clockwork_Loyalist_Minion_03",
        "Clockwork_Loyalist_Minion_04",
        "Clockwork_Loyalist_Minion_05",
        "Clockwork_Loyalist_Minion_06",
        "Clockwork_Loyalist_Minion_07",
        "Clockwork_Loyalist_Minion_08",
        "Clockwork_Loyalist_Minion_09",
        "Clockwork_Loyalist_Minion_10",
        "Clockwork_Loyalist_Minion_Dirt_01",
        "Clockwork_Loyalist_Minion_Dirt_02",
        "Clockwork_Loyalist_Minion_Dirt_03",
        "Clockwork_Loyalist_Minion_Dirt_04",
        "Clockwork_Loyalist_Minion_Dirt_05",
        "Clockwork_Loyalist_Minion_Dirt_06",
        "Clockwork_Loyalist_Minion_Dirt_07",
        "Clockwork_Loyalist_Minion_Dirt_08",
        "Clockwork_Loyalist_Minion_Dirt_09",
        "Clockwork_Loyalist_Minion_Dirt_10"
      ]
    },
    {
      "level": 46,
      "experience": 0,
      "display_names": [
        "Glitched Sweeper"
      ],
      "costumes": [
        "Clockwork_Loyalist_Minion_01",
        "Clockwork_Loyalist_Minion_02",
        "Clockwork_Loyalist_Minion_03",
        "Clockwork_Loyalist_Minion_04",
        "Clockwork_Loyalist_Minion_05",
        "Clockwork_Loyalist_Minion_06",
        "Clockwork_Loyalist_Minion_07",
        "Clockwork_Loyalist_Minion_08",
        "Clockwork_Loyalist_Minion_09",
        "Clockwork_Loyalist_Minion_10",
        "Clockwork_Loyalist_Minion_Dirt_01",
        "Clockwork_Loyalist_Minion_Dirt_02",
        "Clockwork_Loyalist_Minion_Dirt_03",
        "Clockwork_Loyalist_Minion_Dirt_04",
        "Clockwork_Loyalist_Minion_Dirt_05",
        "Clockwork_Loyalist_Minion_Dirt_06",
        "Clockwork_Loyalist_Minion_Dirt_07",
        "Clockwork_Loyalist_Minion_Dirt_08",
        "Clockwork_Loyalist_Minion_Dirt_09",
        "Clockwork_Loyalist_Minion_Dirt_10"
      ]
    },
    {
      "level": 47,
      "experience": 0,
      "display_names": [
        "Glitched Sweeper"
      ],
      "costumes": [
        "Clockwork_Loyalist_Minion_01",
        "Clockwork_Loyalist_Minion_02",
        "Clockwork_Loyalist_Minion_03",
        "Clockwork_Loyalist_Minion_04",
        "Clockwork_Loyalist_Minion_05",
        "Clockwork_Loyalist_Minion_06",
        "Clockwork_Loyalist_Minion_07",
        "Clockwork_Loyalist_Minion_08",
        "Clockwork_Loyalist_Minion_09",
        "Clockwork_Loyalist_Minion_10",
        "Clockwork_Loyalist_Minion_Dirt_01",
        "Clockwork_Loyalist_Minion_Dirt_02",
        "Clockwork_Loyalist_Minion_Dirt_03",
        "Clockwork_Loyalist_Minion_Dirt_04",
        "Clockwork_Loyalist_Minion_Dirt_05",
        "Clockwork_Loyalist_Minion_Dirt_06",
        "Clockwork_Loyalist_Minion_Dirt_07",
        "Clockwork_Loyalist_Minion_Dirt_08",
        "Clockwork_Loyalist_Minion_Dirt_09",
        "Clockwork_Loyalist_Minion_Dirt_10"
      ]
    },
    {
      "level": 48,
      "experience": 0,
      "display_names": [
        "Glitched Sweeper"
      ],
      "costumes": [
        "Clockwork_Loyalist_Minion_01",
        "Clockwork_Loyalist_Minion_02",
        "Clockwork_Loyalist_Minion_03",
        "Clockwork_Loyalist_Minion_04",
        "Clockwork_Loyalist_Minion_05",
        "Clockwork_Loyalist_Minion_06",
        "Clockwork_Loyalist_Minion_07",
        "Clockwork_Loyalist_Minion_08",
        "Clockwork_Loyalist_Minion_09",
        "Clockwork_Loyalist_Minion_10",
        "Clockwork_Loyalist_Minion_Dirt_01",
        "Clockwork_Loyalist_Minion_Dirt_02",
        "Clockwork_Loyalist_Minion_Dirt_03",
        "Clockwork_Loyalist_Minion_Dirt_04",
        "Clockwork_Loyalist_Minion_Dirt_05",
        "Clockwork_Loyalist_Minion_Dirt_06",
        "Clockwork_Loyalist_Minion_Dirt_07",
        "Clockwork_Loyalist_Minion_Dirt_08",
        "Clockwork_Loyalist_Minion_Dirt_09",
        "Clockwork_Loyalist_Minion_Dirt_10"
      ]
    },
    {
      "level": 49,
      "experience": 0,
      "display_names": [
        "Glitched Sweeper"
      ],
      "costumes": [
        "Clockwork_Loyalist_Minion_01",
        "Clockwork_Loyalist_Minion_02",
        "Clockwork_Loyalist_Minion_03",
        "Clockwork_Loyalist_Minion_04",
        "Clockwork_Loyalist_Minion_05",
        "Clockwork_Loyalist_Minion_06",
        "Clockwork_Loyalist_Minion_07",
        "Clockwork_Loyalist_Minion_08",
        "Clockwork_Loyalist_Minion_09",
        "Clockwork_Loyalist_Minion_10",
        "Clockwork_Loyalist_Minion_Dirt_01",
        "Clockwork_Loyalist_Minion_Dirt_02",
        "Clockwork_Loyalist_Minion_Dirt_03",
        "Clockwork_Loyalist_Minion_Dirt_04",
        "Clockwork_Loyalist_Minion_Dirt_05",
        "Clockwork_Loyalist_Minion_Dirt_06",
        "Clockwork_Loyalist_Minion_Dirt_07",
        "Clockwork_Loyalist_Minion_Dirt_08",
        "Clockwork_Loyalist_Minion_Dirt_09",
        "Clockwork_Loyalist_Minion_Dirt_10"
      ]
    },
    {
      "level": 50,
      "experience": 0,
      "display_names": [
        "Glitched Sweeper"
      ],
      "costumes": [
        "Clockwork_Loyalist_Minion_01",
        "Clockwork_Loyalist_Minion_02",
        "Clockwork_Loyalist_Minion_03",
        "Clockwork_Loyalist_Minion_04",
        "Clockwork_Loyalist_Minion_05",
        "Clockwork_Loyalist_Minion_06",
        "Clockwork_Loyalist_Minion_07",
        "Clockwork_Loyalist_Minion_08",
        "Clockwork_Loyalist_Minion_09",
        "Clockwork_Loyalist_Minion_10",
        "Clockwork_Loyalist_Minion_Dirt_01",
        "Clockwork_Loyalist_Minion_Dirt_02",
        "Clockwork_Loyalist_Minion_Dirt_03",
        "Clockwork_Loyalist_Minion_Dirt_04",
        "Clockwork_Loyalist_Minion_Dirt_05",
        "Clockwork_Loyalist_Minion_Dirt_06",
        "Clockwork_Loyalist_Minion_Dirt_07",
        "Clockwork_Loyalist_Minion_Dirt_08",
        "Clockwork_Loyalist_Minion_Dirt_09",
        "Clockwork_Loyalist_Minion_Dirt_10"
      ]
    },
    {
      "level": 51,
      "experience": 0,
      "display_names": [
        "Glitched Sweeper"
      ],
      "costumes": [
        "Clockwork_Loyalist_Minion_01",
        "Clockwork_Loyalist_Minion_02",
        "Clockwork_Loyalist_Minion_03",
        "Clockwork_Loyalist_Minion_04",
        "Clockwork_Loyalist_Minion_05",
        "Clockwork_Loyalist_Minion_06",
        "Clockwork_Loyalist_Minion_07",
        "Clockwork_Loyalist_Minion_08",
        "Clockwork_Loyalist_Minion_09",
        "Clockwork_Loyalist_Minion_10",
        "Clockwork_Loyalist_Minion_Dirt_01",
        "Clockwork_Loyalist_Minion_Dirt_02",
        "Clockwork_Loyalist_Minion_Dirt_03",
        "Clockwork_Loyalist_Minion_Dirt_04",
        "Clockwork_Loyalist_Minion_Dirt_05",
        "Clockwork_Loyalist_Minion_Dirt_06",
        "Clockwork_Loyalist_Minion_Dirt_07",
        "Clockwork_Loyalist_Minion_Dirt_08",
        "Clockwork_Loyalist_Minion_Dirt_09",
        "Clockwork_Loyalist_Minion_Dirt_10"
      ]
    },
    {
      "level": 52,
      "experience": 0,
      "display_names": [
        "Glitched Sweeper"
      ],
      "costumes": [
        "Clockwork_Loyalist_Minion_01",
        "Clockwork_Loyalist_Minion_02",
        "Clockwork_Loyalist_Minion_03",
        "Clockwork_Loyalist_Minion_04",
        "Clockwork_Loyalist_Minion_05",
        "Clockwork_Loyalist_Minion_06",
        "Clockwork_Loyalist_Minion_07",
        "Clockwork_Loyalist_Minion_08",
        "Clockwork_Loyalist_Minion_09",
        "Clockwork_Loyalist_Minion_10",
        "Clockwork_Loyalist_Minion_Dirt_01",
        "Clockwork_Loyalist_Minion_Dirt_02",
        "Clockwork_Loyalist_Minion_Dirt_03",
        "Clockwork_Loyalist_Minion_Dirt_04",
        "Clockwork_Loyalist_Minion_Dirt_05",
        "Clockwork_Loyalist_Minion_Dirt_06",
        "Clockwork_Loyalist_Minion_Dirt_07",
        "Clockwork_Loyalist_Minion_Dirt_08",
        "Clockwork_Loyalist_Minion_Dirt_09",
        "Clockwork_Loyalist_Minion_Dirt_10"
      ]
    },
    {
      "level": 53,
      "experience": 0,
      "display_names": [
        "Glitched Sweeper"
      ],
      "costumes": [
        "Clockwork_Loyalist_Minion_01",
        "Clockwork_Loyalist_Minion_02",
        "Clockwork_Loyalist_Minion_03",
        "Clockwork_Loyalist_Minion_04",
        "Clockwork_Loyalist_Minion_05",
        "Clockwork_Loyalist_Minion_06",
        "Clockwork_Loyalist_Minion_07",
        "Clockwork_Loyalist_Minion_08",
        "Clockwork_Loyalist_Minion_09",
        "Clockwork_Loyalist_Minion_10",
        "Clockwork_Loyalist_Minion_Dirt_01",
        "Clockwork_Loyalist_Minion_Dirt_02",
        "Clockwork_Loyalist_Minion_Dirt_03",
        "Clockwork_Loyalist_Minion_Dirt_04",
        "Clockwork_Loyalist_Minion_Dirt_05",
        "Clockwork_Loyalist_Minion_Dirt_06",
        "Clockwork_Loyalist_Minion_Dirt_07",
        "Clockwork_Loyalist_Minion_Dirt_08",
        "Clockwork_Loyalist_Minion_Dirt_09",
        "Clockwork_Loyalist_Minion_Dirt_10"
      ]
    },
    {
      "level": 54,
      "experience": 0,
      "display_names": [
        "Glitched Sweeper"
      ],
      "costumes": [
        "Clockwork_Loyalist_Minion_01",
        "Clockwork_Loyalist_Minion_02",
        "Clockwork_Loyalist_Minion_03",
        "Clockwork_Loyalist_Minion_04",
        "Clockwork_Loyalist_Minion_05",
        "Clockwork_Loyalist_Minion_06",
        "Clockwork_Loyalist_Minion_07",
        "Clockwork_Loyalist_Minion_08",
        "Clockwork_Loyalist_Minion_09",
        "Clockwork_Loyalist_Minion_10",
        "Clockwork_Loyalist_Minion_Dirt_01",
        "Clockwork_Loyalist_Minion_Dirt_02",
        "Clockwork_Loyalist_Minion_Dirt_03",
        "Clockwork_Loyalist_Minion_Dirt_04",
        "Clockwork_Loyalist_Minion_Dirt_05",
        "Clockwork_Loyalist_Minion_Dirt_06",
        "Clockwork_Loyalist_Minion_Dirt_07",
        "Clockwork_Loyalist_Minion_Dirt_08",
        "Clockwork_Loyalist_Minion_Dirt_09",
        "Clockwork_Loyalist_Minion_Dirt_10"
      ]
    }
  ]
}