{
  "name": "PraetorianResistance_Veteran",
  "gender": "GENDER_MALE",
  "description": "Resistance Veterans are surviving soldiers from the last wars before Cole's world order took over. They are well trained, disciplined, elite fighters armed with some of the best modified weapons the resistance can slap together.",
  "group_description": null,
  "display_class_name": null,
  "character_class_name": "lt_grunt",
  "ai_config": "Default_Ranged",
  "commandable_pet": false,
  "power_tags": [
    "HumanSkeleton",
    "Human"
  ],
  "additional_rewards": [

  ],
  "skill_hp_rewards": [

  ],
  "skill_status_rewards": [

  ],
  "ally": null,
  "gang": null,
  "reward_scale": 1.0,
  "game_exclusion": "None",
  "inactive_state_weapon": null,
  "ignores_combat_mods": false,
  "copy_creator_mods": false,
  "spawn_limit": -1,
  "spawn_limit_mission": -1,
  "ignore_av_to_eb_scaling": false,
  "can_zone": false,
  "custom_badge_stat": null,
  "badge_stat_flags": "DefaultBadgeStat",
  "rank": "VR_LIEUTENANT",
  "power_full_names": [
    "PraetorianResistance.LT_Rifle.Power_Punch",
    "PraetorianResistance.LT_Rifle.Power_Punch2",
    "PraetorianResistance.LT_Rifle.Single_Shot",
    "PraetorianResistance.LT_Rifle.Heavy_Burst",
    "PraetorianResistance.LT_Rifle.Covering_Fire"
  ],
  "power_display_names": [
    "Power Punch",
    "Power Punch",
    "Single Shot",
    "Heavy Burst",
    "Covering Fire"
  ],
  "power_levels": [
    0,
    0,
    0,
    0,
    0
  ],
  "powers": [
    {
      "power_category": "PraetorianResistance",
      "power_set": "LT_Rifle",
      "power": "*",
      "level": 0
    }
  ],
  "levels": [
    {
      "level": 1,
      "experience": 0,
      "display_names": [
        "Resistance Veteran"
      ],
      "costumes": [
        "Resistance_Veteran_01",
        "Resistance_Veteran_02",
        "Resistance_Veteran_03"
      ]
    },
    {
      "level": 2,
      "experience": 0,
      "display_names": [
        "Resistance Veteran"
      ],
      "costumes": [
        "Resistance_Veteran_01",
        "Resistance_Veteran_02",
        "Resistance_Veteran_03"
      ]
    },
    {
      "level": 3,
      "experience": 0,
      "display_names": [
        "Resistance Veteran"
      ],
      "costumes": [
        "Resistance_Veteran_01",
        "Resistance_Veteran_02",
        "Resistance_Veteran_03"
      ]
    },
    {
      "level": 4,
      "experience": 0,
      "display_names": [
        "Resistance Veteran"
      ],
      "costumes": [
        "Resistance_Veteran_01",
        "Resistance_Veteran_02",
        "Resistance_Veteran_03"
      ]
    },
    {
      "level": 5,
      "experience": 0,
      "display_names": [
        "Resistance Veteran"
      ],
      "costumes": [
        "Resistance_Veteran_01",
        "Resistance_Veteran_02",
        "Resistance_Veteran_03"
      ]
    },
    {
      "level": 6,
      "experience": 0,
      "display_names": [
        "Resistance Veteran"
      ],
      "costumes": [
        "Resistance_Veteran_01",
        "Resistance_Veteran_02",
        "Resistance_Veteran_03"
      ]
    },
    {
      "level": 7,
      "experience": 0,
      "display_names": [
        "Resistance Veteran"
      ],
      "costumes": [
        "Resistance_Veteran_01",
        "Resistance_Veteran_02",
        "Resistance_Veteran_03"
      ]
    },
    {
      "level": 8,
      "experience": 0,
      "display_names": [
        "Resistance Veteran"
      ],
      "costumes": [
        "Resistance_Veteran_01",
        "Resistance_Veteran_02",
        "Resistance_Veteran_03"
      ]
    },
    {
      "level": 9,
      "experience": 0,
      "display_names": [
        "Resistance Veteran"
      ],
      "costumes": [
        "Resistance_Veteran_01",
        "Resistance_Veteran_02",
        "Resistance_Veteran_03"
      ]
    },
    {
      "level": 10,
      "experience": 0,
      "display_names": [
        "Resistance Veteran"
      ],
      "costumes": [
        "Resistance_Veteran_01",
        "Resistance_Veteran_02",
        "Resistance_Veteran_03"
      ]
    }
  ]
}