{
  "name": "PraetorianPolice_Olympian_Experiment_Vat",
  "gender": "GENDER_MALE",
  "description": "Neuron's genetic engineering experiments at recreating Marcus Cole have reached a viable state, though its power pales in comparison to the Emperor.",
  "group_description": "Experiment",
  "display_class_name": null,
  "character_class_name": "boss_grunt",
  "ai_config": "Default_Melee",
  "commandable_pet": false,
  "power_tags": [
    "HumanSkeleton",
    "Human"
  ],
  "additional_rewards": [

  ],
  "skill_hp_rewards": [

  ],
  "skill_status_rewards": [

  ],
  "ally": null,
  "gang": null,
  "reward_scale": 1.0,
  "game_exclusion": "None",
  "inactive_state_weapon": null,
  "ignores_combat_mods": false,
  "copy_creator_mods": false,
  "spawn_limit": 0,
  "spawn_limit_mission": 0,
  "ignore_av_to_eb_scaling": false,
  "can_zone": false,
  "custom_badge_stat": null,
  "badge_stat_flags": "DefaultBadgeStat",
  "rank": "VR_BOSS",
  "power_full_names": [
    "PraetorianIDF.Olympian_Guard.Incarnate_Punch",
    "PraetorianIDF.Olympian_Guard.Incarnate_Haymaker",
    "PraetorianIDF.Olympian_Guard.Eye_Beam",
    "PraetorianIDF.Olympian_Guard.Dull_Pain"
  ],
  "power_display_names": [
    "Incarnate Punch",
    "Incarnate Haymaker",
    "Eye Beam",
    "Dull Pain"
  ],
  "power_levels": [
    0,
    0,
    0,
    0
  ],
  "powers": [
    {
      "power_category": "PraetorianIDF",
      "power_set": "Olympian_Guard",
      "power": "Incarnate_Punch",
      "level": 0
    },
    {
      "power_category": "PraetorianIDF",
      "power_set": "Olympian_Guard",
      "power": "Incarnate_Haymaker",
      "level": 0
    },
    {
      "power_category": "PraetorianIDF",
      "power_set": "Olympian_Guard",
      "power": "Eye_Beam",
      "level": 0
    },
    {
      "power_category": "PraetorianIDF",
      "power_set": "Olympian_Guard",
      "power": "Dull_Pain",
      "level": 0
    }
  ],
  "levels": [
    {
      "level": 1,
      "experience": 0,
      "display_names": [
        "Cole's Clone"
      ],
      "costumes": [
        "Model_Cole_Clone"
      ]
    },
    {
      "level": 2,
      "experience": 0,
      "display_names": [
        "Cole's Clone"
      ],
      "costumes": [
        "Model_Cole_Clone"
      ]
    },
    {
      "level": 3,
      "experience": 0,
      "display_names": [
        "Cole's Clone"
      ],
      "costumes": [
        "Model_Cole_Clone"
      ]
    },
    {
      "level": 4,
      "experience": 0,
      "display_names": [
        "Cole's Clone"
      ],
      "costumes": [
        "Model_Cole_Clone"
      ]
    },
    {
      "level": 5,
      "experience": 0,
      "display_names": [
        "Cole's Clone"
      ],
      "costumes": [
        "Model_Cole_Clone"
      ]
    },
    {
      "level": 6,
      "experience": 0,
      "display_names": [
        "Cole's Clone"
      ],
      "costumes": [
        "Model_Cole_Clone"
      ]
    },
    {
      "level": 7,
      "experience": 0,
      "display_names": [
        "Cole's Clone"
      ],
      "costumes": [
        "Model_Cole_Clone"
      ]
    },
    {
      "level": 8,
      "experience": 0,
      "display_names": [
        "Cole's Clone"
      ],
      "costumes": [
        "Model_Cole_Clone"
      ]
    },
    {
      "level": 9,
      "experience": 0,
      "display_names": [
        "Cole's Clone"
      ],
      "costumes": [
        "Model_Cole_Clone"
      ]
    },
    {
      "level": 10,
      "experience": 0,
      "display_names": [
        "Cole's Clone"
      ],
      "costumes": [
        "Model_Cole_Clone"
      ]
    },
    {
      "level": 11,
      "experience": 0,
      "display_names": [
        "Cole's Clone"
      ],
      "costumes": [
        "Model_Cole_Clone"
      ]
    },
    {
      "level": 12,
      "experience": 0,
      "display_names": [
        "Cole's Clone"
      ],
      "costumes": [
        "Model_Cole_Clone"
      ]
    },
    {
      "level": 13,
      "experience": 0,
      "display_names": [
        "Cole's Clone"
      ],
      "costumes": [
        "Model_Cole_Clone"
      ]
    },
    {
      "level": 14,
      "experience": 0,
      "display_names": [
        "Cole's Clone"
      ],
      "costumes": [
        "Model_Cole_Clone"
      ]
    },
    {
      "level": 15,
      "experience": 0,
      "display_names": [
        "Cole's Clone"
      ],
      "costumes": [
        "Model_Cole_Clone"
      ]
    },
    {
      "level": 16,
      "experience": 0,
      "display_names": [
        "Cole's Clone"
      ],
      "costumes": [
        "Model_Cole_Clone"
      ]
    },
    {
      "level": 17,
      "experience": 0,
      "display_names": [
        "Cole's Clone"
      ],
      "costumes": [
        "Model_Cole_Clone"
      ]
    },
    {
      "level": 18,
      "experience": 0,
      "display_names": [
        "Cole's Clone"
      ],
      "costumes": [
        "Model_Cole_Clone"
      ]
    },
    {
      "level": 19,
      "experience": 0,
      "display_names": [
        "Cole's Clone"
      ],
      "costumes": [
        "Model_Cole_Clone"
      ]
    },
    {
      "level": 20,
      "experience": 0,
      "display_names": [
        "Cole's Clone"
      ],
      "costumes": [
        "Model_Cole_Clone"
      ]
    },
    {
      "level": 21,
      "experience": 0,
      "display_names": [
        "Cole's Clone"
      ],
      "costumes": [
        "Model_Cole_Clone"
      ]
    },
    {
      "level": 22,
      "experience": 0,
      "display_names": [
        "Cole's Clone"
      ],
      "costumes": [
        "Model_Cole_Clone"
      ]
    },
    {
      "level": 23,
      "experience": 0,
      "display_names": [
        "Cole's Clone"
      ],
      "costumes": [
        "Model_Cole_Clone"
      ]
    },
    {
      "level": 24,
      "experience": 0,
      "display_names": [
        "Cole's Clone"
      ],
      "costumes": [
        "Model_Cole_Clone"
      ]
    }
  ]
}