{
  "name": "PraetorianPolice_PPD_Suppressor_Tutorial",
  "gender": "GENDER_MALE",
  "description": "The Praetoria Police Department is charged with the unending duty of maintaining order on the streets of the City. These tireless men and women watch over Praetoria City, dedicating their lives to serving Emperor Cole...and the populace, of course.",
  "group_description": null,
  "display_class_name": null,
  "character_class_name": "minion_grunt",
  "ai_config": "Default_Ranged",
  "commandable_pet": false,
  "power_tags": [
    "HumanSkeleton",
    "Human"
  ],
  "additional_rewards": [

  ],
  "skill_hp_rewards": [

  ],
  "skill_status_rewards": [

  ],
  "ally": null,
  "gang": null,
  "reward_scale": 0.0,
  "game_exclusion": "None",
  "inactive_state_weapon": null,
  "ignores_combat_mods": false,
  "copy_creator_mods": false,
  "spawn_limit": 0,
  "spawn_limit_mission": 0,
  "ignore_av_to_eb_scaling": false,
  "can_zone": false,
  "custom_badge_stat": null,
  "badge_stat_flags": "DefaultBadgeStat",
  "rank": "VR_MINION",
  "power_full_names": [
    "PraetorianPolice.PPD_Suppressor.Force_Burst",
    "PraetorianPolice.PPD_Minion_Resistance.Resistance"
  ],
  "power_display_names": [
    "Force Burst",
    "Resistance"
  ],
  "power_levels": [
    0,
    0
  ],
  "powers": [
    {
      "power_category": "PraetorianPolice",
      "power_set": "PPD_Suppressor",
      "power": "*",
      "level": 0
    },
    {
      "power_category": "PraetorianPolice",
      "power_set": "PPD_Minion_Resistance",
      "power": "*",
      "level": 0
    }
  ],
  "levels": [
    {
      "level": 1,
      "experience": 0,
      "display_names": [
        "PPD Suppressor"
      ],
      "costumes": [
        "Praetoria_Suppressor_01",
        "Praetoria_Suppressor_02",
        "Praetoria_Suppressor_03",
        "Praetoria_Suppressor_04",
        "Praetoria_Suppressor_05"
      ]
    },
    {
      "level": 2,
      "experience": 0,
      "display_names": [
        "PPD Suppressor"
      ],
      "costumes": [
        "Praetoria_Suppressor_01",
        "Praetoria_Suppressor_02",
        "Praetoria_Suppressor_03",
        "Praetoria_Suppressor_04",
        "Praetoria_Suppressor_05"
      ]
    },
    {
      "level": 3,
      "experience": 0,
      "display_names": [
        "PPD Suppressor"
      ],
      "costumes": [
        "Praetoria_Suppressor_01",
        "Praetoria_Suppressor_02",
        "Praetoria_Suppressor_03",
        "Praetoria_Suppressor_04",
        "Praetoria_Suppressor_05"
      ]
    },
    {
      "level": 4,
      "experience": 0,
      "display_names": [
        "PPD Suppressor"
      ],
      "costumes": [
        "Praetoria_Suppressor_01",
        "Praetoria_Suppressor_02",
        "Praetoria_Suppressor_03",
        "Praetoria_Suppressor_04",
        "Praetoria_Suppressor_05"
      ]
    },
    {
      "level": 5,
      "experience": 0,
      "display_names": [
        "PPD Suppressor"
      ],
      "costumes": [
        "Praetoria_Suppressor_01",
        "Praetoria_Suppressor_02",
        "Praetoria_Suppressor_03",
        "Praetoria_Suppressor_04",
        "Praetoria_Suppressor_05"
      ]
    }
  ]
}