{
  "name": "Prisoners_MA_Shotgun_Prisoners_Boss_MA",
  "gender": "GENDER_MALE",
  "description": "In some jailbreaks, the toughest of the prisoners manage to overpower the Zig's security guards and grab their weapons.",
  "group_description": "Prisoners",
  "display_class_name": null,
  "character_class_name": "boss_grunt",
  "ai_config": "Default_Ranged",
  "commandable_pet": false,
  "power_tags": [
    "HumanSkeleton",
    "Human"
  ],
  "additional_rewards": [

  ],
  "skill_hp_rewards": [

  ],
  "skill_status_rewards": [

  ],
  "ally": null,
  "gang": null,
  "reward_scale": 0.2,
  "game_exclusion": "None",
  "inactive_state_weapon": null,
  "ignores_combat_mods": false,
  "copy_creator_mods": false,
  "spawn_limit": -1,
  "spawn_limit_mission": -1,
  "ignore_av_to_eb_scaling": false,
  "can_zone": false,
  "custom_badge_stat": null,
  "badge_stat_flags": "DefaultBadgeStat",
  "rank": "VR_BOSS",
  "power_full_names": [
    "Prisoners.Prisoners_Boss_Shotgun.Shotgun"
  ],
  "power_display_names": [
    "Shotgun"
  ],
  "power_levels": [
    0
  ],
  "powers": [
    {
      "power_category": "Prisoners",
      "power_set": "Prisoners_Boss_Shotgun",
      "power": "*",
      "level": 0
    }
  ],
  "levels": [
    {
      "level": 30,
      "experience": 0,
      "display_names": [
        "Trash",
        "Jimbo",
        "Rumbles",
        "Lefty",
        "Slick",
        "Bullet",
        "Fingers",
        "Chains",
        "Scars",
        "Icepick",
        "Phil",
        "Banjo",
        "Foot Stephens",
        "Deiter Kilo-meter",
        "Garth"
      ],
      "costumes": [
        "Thug_Prisoner_01",
        "Thug_Prisoner_02",
        "Thug_Prisoner_03",
        "Thug_Prisoner_04",
        "Thug_Prisoner_05",
        "Thug_Prisoner_06",
        "Thug_Prisoner_07",
        "Thug_Prisoner_08",
        "Thug_Prisoner_09",
        "Thug_Prisoner_10",
        "Thug_Prisoner_11",
        "Thug_Prisoner_12",
        "Thug_Prisoner_13",
        "Thug_Prisoner_14",
        "Thug_Prisoner_15",
        "Thug_Prisoner_16",
        "Thug_Prisoner_17",
        "Thug_Prisoner_18",
        "Thug_Prisoner_19",
        "Thug_Prisoner_20"
      ]
    },
    {
      "level": 31,
      "experience": 0,
      "display_names": [
        "Trash",
        "Jimbo",
        "Rumbles",
        "Lefty",
        "Slick",
        "Bullet",
        "Fingers",
        "Chains",
        "Scars",
        "Icepick",
        "Phil",
        "Banjo",
        "Foot Stephens",
        "Deiter Kilo-meter",
        "Garth"
      ],
      "costumes": [
        "Thug_Prisoner_01",
        "Thug_Prisoner_02",
        "Thug_Prisoner_03",
        "Thug_Prisoner_04",
        "Thug_Prisoner_05",
        "Thug_Prisoner_06",
        "Thug_Prisoner_07",
        "Thug_Prisoner_08",
        "Thug_Prisoner_09",
        "Thug_Prisoner_10",
        "Thug_Prisoner_11",
        "Thug_Prisoner_12",
        "Thug_Prisoner_13",
        "Thug_Prisoner_14",
        "Thug_Prisoner_15",
        "Thug_Prisoner_16",
        "Thug_Prisoner_17",
        "Thug_Prisoner_18",
        "Thug_Prisoner_19",
        "Thug_Prisoner_20"
      ]
    },
    {
      "level": 32,
      "experience": 0,
      "display_names": [
        "Trash",
        "Jimbo",
        "Rumbles",
        "Lefty",
        "Slick",
        "Bullet",
        "Fingers",
        "Chains",
        "Scars",
        "Icepick",
        "Phil",
        "Banjo",
        "Foot Stephens",
        "Deiter Kilo-meter",
        "Garth"
      ],
      "costumes": [
        "Thug_Prisoner_01",
        "Thug_Prisoner_02",
        "Thug_Prisoner_03",
        "Thug_Prisoner_04",
        "Thug_Prisoner_05",
        "Thug_Prisoner_06",
        "Thug_Prisoner_07",
        "Thug_Prisoner_08",
        "Thug_Prisoner_09",
        "Thug_Prisoner_10",
        "Thug_Prisoner_11",
        "Thug_Prisoner_12",
        "Thug_Prisoner_13",
        "Thug_Prisoner_14",
        "Thug_Prisoner_15",
        "Thug_Prisoner_16",
        "Thug_Prisoner_17",
        "Thug_Prisoner_18",
        "Thug_Prisoner_19",
        "Thug_Prisoner_20"
      ]
    },
    {
      "level": 33,
      "experience": 0,
      "display_names": [
        "Trash",
        "Jimbo",
        "Rumbles",
        "Lefty",
        "Slick",
        "Bullet",
        "Fingers",
        "Chains",
        "Scars",
        "Icepick",
        "Phil",
        "Banjo",
        "Foot Stephens",
        "Deiter Kilo-meter",
        "Garth"
      ],
      "costumes": [
        "Thug_Prisoner_01",
        "Thug_Prisoner_02",
        "Thug_Prisoner_03",
        "Thug_Prisoner_04",
        "Thug_Prisoner_05",
        "Thug_Prisoner_06",
        "Thug_Prisoner_07",
        "Thug_Prisoner_08",
        "Thug_Prisoner_09",
        "Thug_Prisoner_10",
        "Thug_Prisoner_11",
        "Thug_Prisoner_12",
        "Thug_Prisoner_13",
        "Thug_Prisoner_14",
        "Thug_Prisoner_15",
        "Thug_Prisoner_16",
        "Thug_Prisoner_17",
        "Thug_Prisoner_18",
        "Thug_Prisoner_19",
        "Thug_Prisoner_20"
      ]
    },
    {
      "level": 34,
      "experience": 0,
      "display_names": [
        "Trash",
        "Jimbo",
        "Rumbles",
        "Lefty",
        "Slick",
        "Bullet",
        "Fingers",
        "Chains",
        "Scars",
        "Icepick",
        "Phil",
        "Banjo",
        "Foot Stephens",
        "Deiter Kilo-meter",
        "Garth"
      ],
      "costumes": [
        "Thug_Prisoner_01",
        "Thug_Prisoner_02",
        "Thug_Prisoner_03",
        "Thug_Prisoner_04",
        "Thug_Prisoner_05",
        "Thug_Prisoner_06",
        "Thug_Prisoner_07",
        "Thug_Prisoner_08",
        "Thug_Prisoner_09",
        "Thug_Prisoner_10",
        "Thug_Prisoner_11",
        "Thug_Prisoner_12",
        "Thug_Prisoner_13",
        "Thug_Prisoner_14",
        "Thug_Prisoner_15",
        "Thug_Prisoner_16",
        "Thug_Prisoner_17",
        "Thug_Prisoner_18",
        "Thug_Prisoner_19",
        "Thug_Prisoner_20"
      ]
    },
    {
      "level": 35,
      "experience": 0,
      "display_names": [
        "Trash",
        "Jimbo",
        "Rumbles",
        "Lefty",
        "Slick",
        "Bullet",
        "Fingers",
        "Chains",
        "Scars",
        "Icepick",
        "Phil",
        "Banjo",
        "Foot Stephens",
        "Deiter Kilo-meter",
        "Garth"
      ],
      "costumes": [
        "Thug_Prisoner_01",
        "Thug_Prisoner_02",
        "Thug_Prisoner_03",
        "Thug_Prisoner_04",
        "Thug_Prisoner_05",
        "Thug_Prisoner_06",
        "Thug_Prisoner_07",
        "Thug_Prisoner_08",
        "Thug_Prisoner_09",
        "Thug_Prisoner_10",
        "Thug_Prisoner_11",
        "Thug_Prisoner_12",
        "Thug_Prisoner_13",
        "Thug_Prisoner_14",
        "Thug_Prisoner_15",
        "Thug_Prisoner_16",
        "Thug_Prisoner_17",
        "Thug_Prisoner_18",
        "Thug_Prisoner_19",
        "Thug_Prisoner_20"
      ]
    },
    {
      "level": 36,
      "experience": 0,
      "display_names": [
        "Trash",
        "Jimbo",
        "Rumbles",
        "Lefty",
        "Slick",
        "Bullet",
        "Fingers",
        "Chains",
        "Scars",
        "Icepick",
        "Phil",
        "Banjo",
        "Foot Stephens",
        "Deiter Kilo-meter",
        "Garth"
      ],
      "costumes": [
        "Thug_Prisoner_01",
        "Thug_Prisoner_02",
        "Thug_Prisoner_03",
        "Thug_Prisoner_04",
        "Thug_Prisoner_05",
        "Thug_Prisoner_06",
        "Thug_Prisoner_07",
        "Thug_Prisoner_08",
        "Thug_Prisoner_09",
        "Thug_Prisoner_10",
        "Thug_Prisoner_11",
        "Thug_Prisoner_12",
        "Thug_Prisoner_13",
        "Thug_Prisoner_14",
        "Thug_Prisoner_15",
        "Thug_Prisoner_16",
        "Thug_Prisoner_17",
        "Thug_Prisoner_18",
        "Thug_Prisoner_19",
        "Thug_Prisoner_20"
      ]
    },
    {
      "level": 37,
      "experience": 0,
      "display_names": [
        "Trash",
        "Jimbo",
        "Rumbles",
        "Lefty",
        "Slick",
        "Bullet",
        "Fingers",
        "Chains",
        "Scars",
        "Icepick",
        "Phil",
        "Banjo",
        "Foot Stephens",
        "Deiter Kilo-meter",
        "Garth"
      ],
      "costumes": [
        "Thug_Prisoner_01",
        "Thug_Prisoner_02",
        "Thug_Prisoner_03",
        "Thug_Prisoner_04",
        "Thug_Prisoner_05",
        "Thug_Prisoner_06",
        "Thug_Prisoner_07",
        "Thug_Prisoner_08",
        "Thug_Prisoner_09",
        "Thug_Prisoner_10",
        "Thug_Prisoner_11",
        "Thug_Prisoner_12",
        "Thug_Prisoner_13",
        "Thug_Prisoner_14",
        "Thug_Prisoner_15",
        "Thug_Prisoner_16",
        "Thug_Prisoner_17",
        "Thug_Prisoner_18",
        "Thug_Prisoner_19",
        "Thug_Prisoner_20"
      ]
    },
    {
      "level": 38,
      "experience": 0,
      "display_names": [
        "Trash",
        "Jimbo",
        "Rumbles",
        "Lefty",
        "Slick",
        "Bullet",
        "Fingers",
        "Chains",
        "Scars",
        "Icepick",
        "Phil",
        "Banjo",
        "Foot Stephens",
        "Deiter Kilo-meter",
        "Garth"
      ],
      "costumes": [
        "Thug_Prisoner_01",
        "Thug_Prisoner_02",
        "Thug_Prisoner_03",
        "Thug_Prisoner_04",
        "Thug_Prisoner_05",
        "Thug_Prisoner_06",
        "Thug_Prisoner_07",
        "Thug_Prisoner_08",
        "Thug_Prisoner_09",
        "Thug_Prisoner_10",
        "Thug_Prisoner_11",
        "Thug_Prisoner_12",
        "Thug_Prisoner_13",
        "Thug_Prisoner_14",
        "Thug_Prisoner_15",
        "Thug_Prisoner_16",
        "Thug_Prisoner_17",
        "Thug_Prisoner_18",
        "Thug_Prisoner_19",
        "Thug_Prisoner_20"
      ]
    }
  ]
}