{
  "name": "RedCaps_RedCap_Lt2",
  "gender": "GENDER_MALE",
  "description": "The Hooligans have distinguished themselves among their brethren their acts of shocking cruelty. It's not uncommon to see a helpless villager or beast being tormented by a happy Hooligan; in fact, they like no sound better than the sound of tears.",
  "group_description": null,
  "display_class_name": null,
  "character_class_name": "lt_grunt",
  "ai_config": "Default_Ranged",
  "commandable_pet": false,
  "power_tags": [
    "Fey"
  ],
  "additional_rewards": [

  ],
  "skill_hp_rewards": [

  ],
  "skill_status_rewards": [

  ],
  "ally": null,
  "gang": "RedCapTuatha",
  "reward_scale": 1.0,
  "game_exclusion": "None",
  "inactive_state_weapon": null,
  "ignores_combat_mods": false,
  "copy_creator_mods": false,
  "spawn_limit": -1,
  "spawn_limit_mission": -1,
  "ignore_av_to_eb_scaling": false,
  "can_zone": false,
  "custom_badge_stat": null,
  "badge_stat_flags": "DefaultBadgeStat",
  "rank": "VR_LIEUTENANT",
  "power_full_names": [
    "RedCaps.Lt_Resists.Resistance",
    "RedCaps.RedCap_Melee3.Stab",
    "RedCaps.RedCap_Melee3.Lunge",
    "RedCaps.RedCap_Melee3.Jump_Stab",
    "RedCaps.RedCap_Ranged_Medium.Aimed_Shot",
    "RedCaps.RedCap_Ranged_Flame.Blazing_Arrow"
  ],
  "power_display_names": [
    "Resistance",
    "Stab",
    "Lunge",
    "Jump Stab",
    "Aimed Shot",
    "Blazing Arrow"
  ],
  "power_levels": [
    0,
    0,
    0,
    0,
    0,
    0
  ],
  "powers": [
    {
      "power_category": "RedCaps",
      "power_set": "Lt_Resists",
      "power": "*",
      "level": 0
    },
    {
      "power_category": "RedCaps",
      "power_set": "RedCap_Melee3",
      "power": "*",
      "level": 0
    },
    {
      "power_category": "RedCaps",
      "power_set": "RedCap_Ranged_Medium",
      "power": "*",
      "level": 0
    },
    {
      "power_category": "RedCaps",
      "power_set": "RedCap_Ranged_Flame",
      "power": "*",
      "level": 0
    }
  ],
  "levels": [
    {
      "level": 25,
      "experience": 0,
      "display_names": [
        "Hooligan"
      ],
      "costumes": [
        "Croatoa_Redcap_Lieutenant_02"
      ]
    },
    {
      "level": 26,
      "experience": 0,
      "display_names": [
        "Hooligan"
      ],
      "costumes": [
        "Croatoa_Redcap_Lieutenant_02"
      ]
    },
    {
      "level": 27,
      "experience": 0,
      "display_names": [
        "Hooligan"
      ],
      "costumes": [
        "Croatoa_Redcap_Lieutenant_02"
      ]
    },
    {
      "level": 28,
      "experience": 0,
      "display_names": [
        "Hooligan"
      ],
      "costumes": [
        "Croatoa_Redcap_Lieutenant_02"
      ]
    },
    {
      "level": 29,
      "experience": 0,
      "display_names": [
        "Hooligan"
      ],
      "costumes": [
        "Croatoa_Redcap_Lieutenant_02"
      ]
    },
    {
      "level": 30,
      "experience": 0,
      "display_names": [
        "Hooligan"
      ],
      "costumes": [
        "Croatoa_Redcap_Lieutenant_02"
      ]
    },
    {
      "level": 31,
      "experience": 0,
      "display_names": [
        "Hooligan"
      ],
      "costumes": [
        "Croatoa_Redcap_Lieutenant_02"
      ]
    },
    {
      "level": 32,
      "experience": 0,
      "display_names": [
        "Hooligan"
      ],
      "costumes": [
        "Croatoa_Redcap_Lieutenant_02"
      ]
    },
    {
      "level": 33,
      "experience": 0,
      "display_names": [
        "Hooligan"
      ],
      "costumes": [
        "Croatoa_Redcap_Lieutenant_02"
      ]
    },
    {
      "level": 34,
      "experience": 0,
      "display_names": [
        "Hooligan"
      ],
      "costumes": [
        "Croatoa_Redcap_Lieutenant_02"
      ]
    },
    {
      "level": 35,
      "experience": 0,
      "display_names": [
        "Hooligan"
      ],
      "costumes": [
        "Croatoa_Redcap_Lieutenant_02"
      ]
    },
    {
      "level": 36,
      "experience": 0,
      "display_names": [
        "Hooligan"
      ],
      "costumes": [
        "Croatoa_Redcap_Lieutenant_02"
      ]
    },
    {
      "level": 37,
      "experience": 0,
      "display_names": [
        "Hooligan"
      ],
      "costumes": [
        "Croatoa_Redcap_Lieutenant_02"
      ]
    },
    {
      "level": 38,
      "experience": 0,
      "display_names": [
        "Hooligan"
      ],
      "costumes": [
        "Croatoa_Redcap_Lieutenant_02"
      ]
    },
    {
      "level": 39,
      "experience": 0,
      "display_names": [
        "Hooligan"
      ],
      "costumes": [
        "Croatoa_Redcap_Lieutenant_02"
      ]
    },
    {
      "level": 40,
      "experience": 0,
      "display_names": [
        "Hooligan"
      ],
      "costumes": [
        "Croatoa_Redcap_Lieutenant_02"
      ]
    },
    {
      "level": 41,
      "experience": 0,
      "display_names": [
        "Hooligan"
      ],
      "costumes": [
        "Croatoa_Redcap_Lieutenant_02"
      ]
    },
    {
      "level": 42,
      "experience": 0,
      "display_names": [
        "Hooligan"
      ],
      "costumes": [
        "Croatoa_Redcap_Lieutenant_02"
      ]
    },
    {
      "level": 43,
      "experience": 0,
      "display_names": [
        "Hooligan"
      ],
      "costumes": [
        "Croatoa_Redcap_Lieutenant_02"
      ]
    },
    {
      "level": 44,
      "experience": 0,
      "display_names": [
        "Hooligan"
      ],
      "costumes": [
        "Croatoa_Redcap_Lieutenant_02"
      ]
    },
    {
      "level": 45,
      "experience": 0,
      "display_names": [
        "Hooligan"
      ],
      "costumes": [
        "Croatoa_Redcap_Lieutenant_02"
      ]
    },
    {
      "level": 46,
      "experience": 0,
      "display_names": [
        "Hooligan"
      ],
      "costumes": [
        "Croatoa_Redcap_Lieutenant_02"
      ]
    },
    {
      "level": 47,
      "experience": 0,
      "display_names": [
        "Hooligan"
      ],
      "costumes": [
        "Croatoa_Redcap_Lieutenant_02"
      ]
    },
    {
      "level": 48,
      "experience": 0,
      "display_names": [
        "Hooligan"
      ],
      "costumes": [
        "Croatoa_Redcap_Lieutenant_02"
      ]
    },
    {
      "level": 49,
      "experience": 0,
      "display_names": [
        "Hooligan"
      ],
      "costumes": [
        "Croatoa_Redcap_Lieutenant_02"
      ]
    },
    {
      "level": 50,
      "experience": 0,
      "display_names": [
        "Hooligan"
      ],
      "costumes": [
        "Croatoa_Redcap_Lieutenant_02"
      ]
    },
    {
      "level": 51,
      "experience": 0,
      "display_names": [
        "Hooligan"
      ],
      "costumes": [
        "Croatoa_Redcap_Lieutenant_02"
      ]
    },
    {
      "level": 52,
      "experience": 0,
      "display_names": [
        "Hooligan"
      ],
      "costumes": [
        "Croatoa_Redcap_Lieutenant_02"
      ]
    },
    {
      "level": 53,
      "experience": 0,
      "display_names": [
        "Hooligan"
      ],
      "costumes": [
        "Croatoa_Redcap_Lieutenant_02"
      ]
    },
    {
      "level": 54,
      "experience": 0,
      "display_names": [
        "Hooligan"
      ],
      "costumes": [
        "Croatoa_Redcap_Lieutenant_02"
      ]
    }
  ]
}