{
  "name": "Reflections_Thorn_Air_Caster",
  "gender": "GENDER_MALE",
  "description": "The Reflections seem to be exact copies of the terrors that exist on other worlds. It is unknown whether these mystics are Reflections of Paragon City's Circle of Thorns, or of the Oranbegans from some other dimension. What is certain is that they fight with the same utter disregard for life that Paragon City's heroes have witnessed many a time.",
  "group_description": "Shadow Shard Reflections",
  "display_class_name": null,
  "character_class_name": "minion_grunt",
  "ai_config": "CircleOfThorns_Thorn_Caster",
  "commandable_pet": false,
  "power_tags": [
    "HumanSkeleton"
  ],
  "additional_rewards": [

  ],
  "skill_hp_rewards": [

  ],
  "skill_status_rewards": [

  ],
  "ally": null,
  "gang": null,
  "reward_scale": 1.0,
  "game_exclusion": "None",
  "inactive_state_weapon": null,
  "ignores_combat_mods": false,
  "copy_creator_mods": false,
  "spawn_limit": -1,
  "spawn_limit_mission": -1,
  "ignore_av_to_eb_scaling": false,
  "can_zone": false,
  "custom_badge_stat": null,
  "badge_stat_flags": "DefaultBadgeStat",
  "rank": "VR_MINION",
  "power_full_names": [
    "Rularuu.Reflections.Resistance",
    "CircleOfThorns.Circle_Follower_Thorn_Caster_Melee.Falchion",
    "CircleOfThorns.Circle_Thorn_Caster_Air.Lightning_Bolt",
    "CircleOfThorns.Circle_Thorn_Caster_Air.Charged_Brawl",
    "CircleOfThorns.Circle_Thorn_Caster_Air.Gale",
    "CircleOfThorns.Circle_Thorn_Caster_Air_Movement.Fly",
    "CircleOfThorns.Circle_Thorn_Caster_Air_Movement.Fly_fx"
  ],
  "power_display_names": [
    "Resistance",
    "Falchion",
    "Lightning Bolt",
    "Charged Brawl",
    "Gale",
    "Fly",
    "Fly fx"
  ],
  "power_levels": [
    0,
    0,
    0,
    0,
    0,
    0,
    0
  ],
  "powers": [
    {
      "power_category": "Rularuu",
      "power_set": "Reflections",
      "power": "*",
      "level": 0
    },
    {
      "power_category": "CircleOfThorns",
      "power_set": "Circle_Follower_Thorn_Caster_Melee",
      "power": "Falchion",
      "level": 0
    },
    {
      "power_category": "CircleOfThorns",
      "power_set": "Circle_Thorn_Caster_Air",
      "power": "*",
      "level": 0
    },
    {
      "power_category": "CircleOfThorns",
      "power_set": "Circle_Thorn_Caster_Air_Movement",
      "power": "*",
      "level": 0
    }
  ],
  "levels": [
    {
      "level": 41,
      "experience": 0,
      "display_names": [
        "Air Thorn Caster"
      ],
      "costumes": [
        "CoT_AirCaster_01",
        "CoT_AirCaster_02",
        "CoT_AirCaster_03"
      ]
    },
    {
      "level": 42,
      "experience": 0,
      "display_names": [
        "Air Thorn Caster"
      ],
      "costumes": [
        "CoT_AirCaster_01",
        "CoT_AirCaster_02",
        "CoT_AirCaster_03"
      ]
    },
    {
      "level": 43,
      "experience": 0,
      "display_names": [
        "Air Thorn Caster"
      ],
      "costumes": [
        "CoT_AirCaster_01",
        "CoT_AirCaster_02",
        "CoT_AirCaster_03"
      ]
    },
    {
      "level": 44,
      "experience": 0,
      "display_names": [
        "Air Thorn Caster"
      ],
      "costumes": [
        "CoT_AirCaster_01",
        "CoT_AirCaster_02",
        "CoT_AirCaster_03"
      ]
    },
    {
      "level": 45,
      "experience": 0,
      "display_names": [
        "Air Thorn Caster"
      ],
      "costumes": [
        "CoT_AirCaster_01",
        "CoT_AirCaster_02",
        "CoT_AirCaster_03"
      ]
    },
    {
      "level": 46,
      "experience": 0,
      "display_names": [
        "Air Thorn Caster"
      ],
      "costumes": [
        "CoT_AirCaster_01",
        "CoT_AirCaster_02",
        "CoT_AirCaster_03"
      ]
    },
    {
      "level": 47,
      "experience": 0,
      "display_names": [
        "Air Thorn Caster"
      ],
      "costumes": [
        "CoT_AirCaster_01",
        "CoT_AirCaster_02",
        "CoT_AirCaster_03"
      ]
    },
    {
      "level": 48,
      "experience": 0,
      "display_names": [
        "Air Thorn Caster"
      ],
      "costumes": [
        "CoT_AirCaster_01",
        "CoT_AirCaster_02",
        "CoT_AirCaster_03"
      ]
    },
    {
      "level": 49,
      "experience": 0,
      "display_names": [
        "Air Thorn Caster"
      ],
      "costumes": [
        "CoT_AirCaster_01",
        "CoT_AirCaster_02",
        "CoT_AirCaster_03"
      ]
    },
    {
      "level": 50,
      "experience": 0,
      "display_names": [
        "Air Thorn Caster"
      ],
      "costumes": [
        "CoT_AirCaster_01",
        "CoT_AirCaster_02",
        "CoT_AirCaster_03"
      ]
    },
    {
      "level": 51,
      "experience": 0,
      "display_names": [
        "Air Thorn Caster"
      ],
      "costumes": [
        "CoT_AirCaster_01",
        "CoT_AirCaster_02",
        "CoT_AirCaster_03"
      ]
    },
    {
      "level": 52,
      "experience": 0,
      "display_names": [
        "Air Thorn Caster"
      ],
      "costumes": [
        "CoT_AirCaster_01",
        "CoT_AirCaster_02",
        "CoT_AirCaster_03"
      ]
    },
    {
      "level": 53,
      "experience": 0,
      "display_names": [
        "Air Thorn Caster"
      ],
      "costumes": [
        "CoT_AirCaster_01",
        "CoT_AirCaster_02",
        "CoT_AirCaster_03"
      ]
    },
    {
      "level": 54,
      "experience": 0,
      "display_names": [
        "Air Thorn Caster"
      ],
      "costumes": [
        "CoT_AirCaster_01",
        "CoT_AirCaster_02",
        "CoT_AirCaster_03"
      ]
    }
  ]
}