{
  "name": "Rikti_Arachnos_Minion",
  "gender": "GENDER_MALE",
  "description": "Taken from the ranks of the Wolf Spiders, Bane Spider Commandos are given specialized assault training. They are vicious masters of combat that relish engaging the enemies of Arachnos.",
  "group_description": "Arachnos",
  "display_class_name": null,
  "character_class_name": "minion_grunt",
  "ai_config": "Default_Ranged",
  "commandable_pet": false,
  "power_tags": [

  ],
  "additional_rewards": [

  ],
  "skill_hp_rewards": [

  ],
  "skill_status_rewards": [

  ],
  "ally": null,
  "gang": null,
  "reward_scale": 1.0,
  "game_exclusion": "None",
  "inactive_state_weapon": null,
  "ignores_combat_mods": false,
  "copy_creator_mods": false,
  "spawn_limit": 0,
  "spawn_limit_mission": 0,
  "ignore_av_to_eb_scaling": false,
  "can_zone": false,
  "custom_badge_stat": null,
  "badge_stat_flags": "DefaultBadgeStat",
  "rank": "VR_MINION",
  "power_full_names": [
    "Rikti.Arachnos_Minion_Transformation.Transformation"
  ],
  "power_display_names": [
    "Transformation"
  ],
  "power_levels": [
    0
  ],
  "powers": [
    {
      "power_category": "Rikti",
      "power_set": "Arachnos_Minion_Transformation",
      "power": "*",
      "level": 0
    }
  ],
  "levels": [
    {
      "level": 46,
      "experience": 0,
      "display_names": [
        "Bane Spider Commando"
      ],
      "costumes": [
        "Arachnos_Bane_Minion"
      ]
    },
    {
      "level": 47,
      "experience": 0,
      "display_names": [
        "Bane Spider Commando"
      ],
      "costumes": [
        "Arachnos_Bane_Minion"
      ]
    },
    {
      "level": 48,
      "experience": 0,
      "display_names": [
        "Bane Spider Commando"
      ],
      "costumes": [
        "Arachnos_Bane_Minion"
      ]
    },
    {
      "level": 49,
      "experience": 0,
      "display_names": [
        "Bane Spider Commando"
      ],
      "costumes": [
        "Arachnos_Bane_Minion"
      ]
    },
    {
      "level": 50,
      "experience": 0,
      "display_names": [
        "Bane Spider Commando"
      ],
      "costumes": [
        "Arachnos_Bane_Minion"
      ]
    },
    {
      "level": 51,
      "experience": 0,
      "display_names": [
        "Bane Spider Commando"
      ],
      "costumes": [
        "Arachnos_Bane_Minion"
      ]
    },
    {
      "level": 52,
      "experience": 0,
      "display_names": [
        "Bane Spider Commando"
      ],
      "costumes": [
        "Arachnos_Bane_Minion"
      ]
    }
  ]
}