{
  "name": "Rikti_Sewer_Trial_Armoured_Rikti_Mentalist_Lt",
  "gender": "GENDER_MALE",
  "description": "The Rikti battle armor is more advanced than any armor found on Earth. It offers the alien invaders protection from most normal kinds of physical attack. Armed with powerful energy weapons, these armored soldiers continue to pose a deadly threat to humans everywhere.",
  "group_description": "Rikti",
  "display_class_name": null,
  "character_class_name": "lt_grunt",
  "ai_config": "Default_Ranged",
  "commandable_pet": false,
  "power_tags": [

  ],
  "additional_rewards": [

  ],
  "skill_hp_rewards": [

  ],
  "skill_status_rewards": [

  ],
  "ally": null,
  "gang": null,
  "reward_scale": 1.2,
  "game_exclusion": "None",
  "inactive_state_weapon": null,
  "ignores_combat_mods": false,
  "copy_creator_mods": false,
  "spawn_limit": 0,
  "spawn_limit_mission": 0,
  "ignore_av_to_eb_scaling": false,
  "can_zone": false,
  "custom_badge_stat": null,
  "badge_stat_flags": "DefaultBadgeStat",
  "rank": "VR_LIEUTENANT",
  "power_full_names": [
    "Rikti.Rikti_Greater_Sword.Greater_Rikti_Sword",
    "Rikti.Rikti_Mentalist_Ranged.Mental_Blast",
    "Rikti.Rikti_Mentalist_Ranged.Mesmerize",
    "Rikti.Rikti_Mentalist_Ranged.Dominate",
    "Rikti.Rikti_Mentalist_Defense.Resistance"
  ],
  "power_display_names": [
    "Greater Rikti Sword",
    "Mental Blast",
    "Mesmerize",
    "Dominate",
    "Resistance"
  ],
  "power_levels": [
    0,
    0,
    0,
    0,
    0
  ],
  "powers": [
    {
      "power_category": "Rikti",
      "power_set": "Rikti_Greater_Sword",
      "power": "*",
      "level": 0
    },
    {
      "power_category": "Rikti",
      "power_set": "Rikti_Mentalist_Ranged",
      "power": "*",
      "level": 0
    },
    {
      "power_category": "Rikti",
      "power_set": "Rikti_Mentalist_Defense",
      "power": "*",
      "level": 0
    }
  ],
  "levels": [
    {
      "level": 42,
      "experience": 0,
      "display_names": [
        "Chief Mentalist"
      ],
      "costumes": [
        "Rikti_Armour_Lieutenant_03"
      ]
    },
    {
      "level": 43,
      "experience": 0,
      "display_names": [
        "Chief Mentalist"
      ],
      "costumes": [
        "Rikti_Armour_Lieutenant_03"
      ]
    },
    {
      "level": 44,
      "experience": 0,
      "display_names": [
        "Chief Mentalist"
      ],
      "costumes": [
        "Rikti_Armour_Lieutenant_03"
      ]
    },
    {
      "level": 45,
      "experience": 0,
      "display_names": [
        "Chief Mentalist"
      ],
      "costumes": [
        "Rikti_Armour_Lieutenant_03"
      ]
    },
    {
      "level": 46,
      "experience": 0,
      "display_names": [
        "Chief Mentalist"
      ],
      "costumes": [
        "Rikti_Armour_Lieutenant_03"
      ]
    },
    {
      "level": 47,
      "experience": 0,
      "display_names": [
        "Chief Mentalist"
      ],
      "costumes": [
        "Rikti_Armour_Lieutenant_03"
      ]
    },
    {
      "level": 48,
      "experience": 0,
      "display_names": [
        "Chief Mentalist"
      ],
      "costumes": [
        "Rikti_Armour_Lieutenant_03"
      ]
    },
    {
      "level": 49,
      "experience": 0,
      "display_names": [
        "Chief Mentalist"
      ],
      "costumes": [
        "Rikti_Armour_Lieutenant_03"
      ]
    },
    {
      "level": 50,
      "experience": 0,
      "display_names": [
        "Chief Mentalist"
      ],
      "costumes": [
        "Rikti_Armour_Lieutenant_03"
      ]
    },
    {
      "level": 51,
      "experience": 0,
      "display_names": [
        "Chief Mentalist"
      ],
      "costumes": [
        "Rikti_Armour_Lieutenant_03"
      ]
    },
    {
      "level": 52,
      "experience": 0,
      "display_names": [
        "Chief Mentalist"
      ],
      "costumes": [
        "Rikti_Armour_Lieutenant_03"
      ]
    },
    {
      "level": 53,
      "experience": 0,
      "display_names": [
        "Chief Mentalist"
      ],
      "costumes": [
        "Rikti_Armour_Lieutenant_03"
      ]
    },
    {
      "level": 54,
      "experience": 0,
      "display_names": [
        "Chief Mentalist"
      ],
      "costumes": [
        "Rikti_Armour_Lieutenant_03"
      ]
    }
  ]
}