{
  "name": "Rikti_UXB",
  "gender": "GENDER_MALE",
  "description": "A Rikti Bomb that failed to detonate when dropped.  It is apparently repairing itself.",
  "group_description": "Object",
  "display_class_name": null,
  "character_class_name": "boss_elite",
  "ai_config": "Rikti_UXB",
  "commandable_pet": false,
  "power_tags": [

  ],
  "additional_rewards": [

  ],
  "skill_hp_rewards": [

  ],
  "skill_status_rewards": [

  ],
  "ally": null,
  "gang": null,
  "reward_scale": 1.0,
  "game_exclusion": "None",
  "inactive_state_weapon": null,
  "ignores_combat_mods": true,
  "copy_creator_mods": false,
  "spawn_limit": 0,
  "spawn_limit_mission": 0,
  "ignore_av_to_eb_scaling": false,
  "can_zone": false,
  "custom_badge_stat": null,
  "badge_stat_flags": "DefaultBadgeStat",
  "rank": "VR_ELITE",
  "power_full_names": [
    "Rikti.UXB.Resistance",
    "Rikti.UXB.Nuke"
  ],
  "power_display_names": [
    "Resistance",
    "Nuclear Blast"
  ],
  "power_levels": [
    0,
    0
  ],
  "powers": [
    {
      "power_category": "Rikti",
      "power_set": "UXB",
      "power": "*",
      "level": 0
    }
  ],
  "levels": [
    {
      "level": 54,
      "experience": 0,
      "display_names": [
        "A bomb"
      ],
      "costumes": [
        "Rikti_UXB"
      ]
    }
  ]
}