{
  "name": "Rikti_Transport_Armoured_Rikti_Mesmerist",
  "gender": "GENDER_MALE",
  "description": "The Rikti battle armor is more advanced than any armor found on Earth. It offers the alien invaders protection from most normal kinds of physical attack. Armed with powerful energy weapons, these armored soldiers continue to pose a deadly threat to humans everywhere.",
  "group_description": "Rikti",
  "display_class_name": "Boss",
  "character_class_name": "boss_grunt",
  "ai_config": "Default_Melee",
  "commandable_pet": false,
  "power_tags": [

  ],
  "additional_rewards": [

  ],
  "skill_hp_rewards": [

  ],
  "skill_status_rewards": [

  ],
  "ally": null,
  "gang": null,
  "reward_scale": 1.0,
  "game_exclusion": "None",
  "inactive_state_weapon": null,
  "ignores_combat_mods": true,
  "copy_creator_mods": false,
  "spawn_limit": 0,
  "spawn_limit_mission": 0,
  "ignore_av_to_eb_scaling": false,
  "can_zone": false,
  "custom_badge_stat": null,
  "badge_stat_flags": "DefaultBadgeStat",
  "rank": "VR_BOSS",
  "power_full_names": [
    "Rikti.Rikti_Sword.Rikti_Sword",
    "Rikti.Rikti_Mesmerist_Ranged.Mental_Blast",
    "Rikti.Rikti_Mesmerist_Ranged.Mass_Hypnosis",
    "Rikti.Rikti_Mesmerist_Ranged.Total_Domination",
    "Rikti.Rikti_Mentalist_Defense.Resistance"
  ],
  "power_display_names": [
    "Rikti Sword",
    "Mental Blast",
    "Mass Hypnosis",
    "Total Domination",
    "Resistance"
  ],
  "power_levels": [
    0,
    0,
    0,
    0,
    0
  ],
  "powers": [
    {
      "power_category": "Rikti",
      "power_set": "Rikti_Sword",
      "power": "*",
      "level": 0
    },
    {
      "power_category": "Rikti",
      "power_set": "Rikti_Mesmerist_Ranged",
      "power": "*",
      "level": 0
    },
    {
      "power_category": "Rikti",
      "power_set": "Rikti_Mentalist_Defense",
      "power": "*",
      "level": 0
    }
  ],
  "levels": [
    {
      "level": 30,
      "experience": 0,
      "display_names": [
        "Chief Mesmerist"
      ],
      "costumes": [
        "Rikti_Armour_Lieutenant_02"
      ]
    }
  ]
}