{
  "name": "Rikti_Rikti_Archvillain_31",
  "gender": "GENDER_MALE",
  "description": "These fiendish Rikti have cast off their disguises as game developers and are now leading the Second Invasion of Earth!",
  "group_description": "Rikti",
  "display_class_name": null,
  "character_class_name": "boss_archvillain",
  "ai_config": null,
  "commandable_pet": false,
  "power_tags": [

  ],
  "additional_rewards": [

  ],
  "skill_hp_rewards": [

  ],
  "skill_status_rewards": [

  ],
  "ally": null,
  "gang": null,
  "reward_scale": 1.0,
  "game_exclusion": "None",
  "inactive_state_weapon": null,
  "ignores_combat_mods": false,
  "copy_creator_mods": false,
  "spawn_limit": 0,
  "spawn_limit_mission": 0,
  "ignore_av_to_eb_scaling": true,
  "can_zone": false,
  "custom_badge_stat": null,
  "badge_stat_flags": "DefaultBadgeStat",
  "rank": "VR_ARCHVILLAIN",
  "power_full_names": [
    "Rikti.Rikti_Commander.Blade_Swing",
    "Rikti.Rikti_Commander.Blade_Eviscerate",
    "Rikti.Rikti_Commander.Mesmerize",
    "Rikti.Rikti_Commander.Dominate",
    "Rikti.Rikti_Commander.Mass_Hypnosis",
    "Rikti.Rikti_Commander.Rikti_Rifle_Burst",
    "Rikti.Rikti_Commander.Rikti_Rifle_Blast",
    "Rikti.Rikti_Commander.Transponder",
    "Rikti.Rikti_Commander.Teleport_Friend",
    "Rikti.Rikti_Commander.Teleport_Foe",
    "Rikti.Rikti_Commander.Teleport",
    "Rikti.Rikti_Commander.Resistance"
  ],
  "power_display_names": [
    "Blade Swing",
    "Blade Eviscerate",
    "Mesmerize",
    "Dominate",
    "Mass Hypnosis",
    "Rikti Rifle Burst",
    "Rikti Rifle Blast",
    "Transponder",
    "Teleport Friend",
    "Teleport Foe",
    "Teleport",
    "Resistance"
  ],
  "power_levels": [
    0,
    0,
    0,
    0,
    0,
    0,
    0,
    0,
    0,
    0,
    0,
    0
  ],
  "powers": [
    {
      "power_category": "Rikti",
      "power_set": "Rikti_Commander",
      "power": "*",
      "level": 0
    }
  ],
  "levels": [
    {
      "level": 31,
      "experience": 0,
      "display_names": [
        "Rikti Commander"
      ],
      "costumes": [
        "Rikti_Armour_Minion_05"
      ]
    }
  ]
}