{
  "name": "Rikti_Kraken_Pylon",
  "gender": "GENDER_NEUTER",
  "description": "This pylon appears to be retrofitted with some bio-electric gel packs. Presumably, this is what is keeping the Kraken under their control and so large.",
  "group_description": null,
  "display_class_name": "Object",
  "character_class_name": "boss_elite",
  "ai_config": "Turrets_Base",
  "commandable_pet": false,
  "power_tags": [

  ],
  "additional_rewards": [

  ],
  "skill_hp_rewards": [

  ],
  "skill_status_rewards": [

  ],
  "ally": "Monster",
  "gang": null,
  "reward_scale": 1.0,
  "game_exclusion": "None",
  "inactive_state_weapon": null,
  "ignores_combat_mods": false,
  "copy_creator_mods": false,
  "spawn_limit": 0,
  "spawn_limit_mission": 0,
  "ignore_av_to_eb_scaling": false,
  "can_zone": false,
  "custom_badge_stat": null,
  "badge_stat_flags": "DefaultBadgeStat",
  "rank": "VR_DESTRUCTIBLE",
  "power_full_names": [
    "Rikti.War_Zone_Pylon.Resistance"
  ],
  "power_display_names": [
    "Resistance"
  ],
  "power_levels": [
    0
  ],
  "powers": [
    {
      "power_category": "Rikti",
      "power_set": "War_Zone_Pylon",
      "power": "Resistance",
      "level": 0
    }
  ],
  "levels": [
    {
      "level": 30,
      "experience": 0,
      "display_names": [
        "Hydra Growth Control Pylon"
      ],
      "costumes": [
        "Rikti_Pylon"
      ]
    },
    {
      "level": 31,
      "experience": 0,
      "display_names": [
        "Hydra Growth Control Pylon"
      ],
      "costumes": [
        "Rikti_Pylon"
      ]
    },
    {
      "level": 32,
      "experience": 0,
      "display_names": [
        "Hydra Growth Control Pylon"
      ],
      "costumes": [
        "Rikti_Pylon"
      ]
    },
    {
      "level": 33,
      "experience": 0,
      "display_names": [
        "Hydra Growth Control Pylon"
      ],
      "costumes": [
        "Rikti_Pylon"
      ]
    },
    {
      "level": 34,
      "experience": 0,
      "display_names": [
        "Hydra Growth Control Pylon"
      ],
      "costumes": [
        "Rikti_Pylon"
      ]
    },
    {
      "level": 35,
      "experience": 0,
      "display_names": [
        "Hydra Growth Control Pylon"
      ],
      "costumes": [
        "Rikti_Pylon"
      ]
    },
    {
      "level": 36,
      "experience": 0,
      "display_names": [
        "Hydra Growth Control Pylon"
      ],
      "costumes": [
        "Rikti_Pylon"
      ]
    },
    {
      "level": 37,
      "experience": 0,
      "display_names": [
        "Hydra Growth Control Pylon"
      ],
      "costumes": [
        "Rikti_Pylon"
      ]
    },
    {
      "level": 38,
      "experience": 0,
      "display_names": [
        "Hydra Growth Control Pylon"
      ],
      "costumes": [
        "Rikti_Pylon"
      ]
    },
    {
      "level": 39,
      "experience": 0,
      "display_names": [
        "Hydra Growth Control Pylon"
      ],
      "costumes": [
        "Rikti_Pylon"
      ]
    },
    {
      "level": 40,
      "experience": 0,
      "display_names": [
        "Hydra Growth Control Pylon"
      ],
      "costumes": [
        "Rikti_Pylon"
      ]
    },
    {
      "level": 41,
      "experience": 0,
      "display_names": [
        "Hydra Growth Control Pylon"
      ],
      "costumes": [
        "Rikti_Pylon"
      ]
    },
    {
      "level": 42,
      "experience": 0,
      "display_names": [
        "Hydra Growth Control Pylon"
      ],
      "costumes": [
        "Rikti_Pylon"
      ]
    },
    {
      "level": 43,
      "experience": 0,
      "display_names": [
        "Hydra Growth Control Pylon"
      ],
      "costumes": [
        "Rikti_Pylon"
      ]
    },
    {
      "level": 44,
      "experience": 0,
      "display_names": [
        "Hydra Growth Control Pylon"
      ],
      "costumes": [
        "Rikti_Pylon"
      ]
    }
  ]
}