{
  "name": "RogueArachnos_Mu_Striker",
  "gender": "GENDER_MALE",
  "description": "Strikers are descendents of the long-lost Mu, drafted into Arachnos service to fight both mystic heroes and the troublesome Circle of Thorns.",
  "group_description": null,
  "display_class_name": null,
  "character_class_name": "minion_grunt",
  "ai_config": "Default_Melee",
  "commandable_pet": false,
  "power_tags": [
    "Humanoid",
    "HumanSkeleton"
  ],
  "additional_rewards": [

  ],
  "skill_hp_rewards": [

  ],
  "skill_status_rewards": [

  ],
  "ally": null,
  "gang": null,
  "reward_scale": 1.0,
  "game_exclusion": "None",
  "inactive_state_weapon": null,
  "ignores_combat_mods": false,
  "copy_creator_mods": false,
  "spawn_limit": -1,
  "spawn_limit_mission": -1,
  "ignore_av_to_eb_scaling": false,
  "can_zone": false,
  "custom_badge_stat": null,
  "badge_stat_flags": "DefaultBadgeStat",
  "rank": "VR_MINION",
  "power_full_names": [
    "V_Arachnos.Mu_Small_Attack.Lightning_Bolt",
    "V_Arachnos.Mu_Inherent.Resistance"
  ],
  "power_display_names": [
    "Lightning Bolt",
    "Resistance"
  ],
  "power_levels": [
    0,
    0
  ],
  "powers": [
    {
      "power_category": "V_Arachnos",
      "power_set": "Mu_Small_Attack",
      "power": "*",
      "level": 0
    },
    {
      "power_category": "V_Arachnos",
      "power_set": "Mu_Inherent",
      "power": "*",
      "level": 0
    }
  ],
  "levels": [
    {
      "level": 15,
      "experience": 0,
      "display_names": [
        "Rogue Mu Striker"
      ],
      "costumes": [
        "Rogue_Mu_Guardian"
      ]
    },
    {
      "level": 16,
      "experience": 0,
      "display_names": [
        "Rogue Mu Striker"
      ],
      "costumes": [
        "Rogue_Mu_Guardian"
      ]
    },
    {
      "level": 17,
      "experience": 0,
      "display_names": [
        "Rogue Mu Striker"
      ],
      "costumes": [
        "Rogue_Mu_Guardian"
      ]
    },
    {
      "level": 18,
      "experience": 0,
      "display_names": [
        "Rogue Mu Striker"
      ],
      "costumes": [
        "Rogue_Mu_Guardian"
      ]
    },
    {
      "level": 19,
      "experience": 0,
      "display_names": [
        "Rogue Mu Striker"
      ],
      "costumes": [
        "Rogue_Mu_Guardian"
      ]
    },
    {
      "level": 20,
      "experience": 0,
      "display_names": [
        "Rogue Mu Striker"
      ],
      "costumes": [
        "Rogue_Mu_Guardian"
      ]
    }
  ]
}