{
  "name": "RogueIslandPolice_E3_Guard_MidHigh",
  "gender": "GENDER_MALE",
  "description": "Working as a private security guard in a 'city of villains' must be a very tough job.",
  "group_description": null,
  "display_class_name": "Minion",
  "character_class_name": "minion_small_agressive",
  "ai_config": "Default_Ranged",
  "commandable_pet": false,
  "power_tags": [
    "Humanoid",
    "HumanSkeleton"
  ],
  "additional_rewards": [

  ],
  "skill_hp_rewards": [

  ],
  "skill_status_rewards": [

  ],
  "ally": null,
  "gang": null,
  "reward_scale": 1.0,
  "game_exclusion": "None",
  "inactive_state_weapon": null,
  "ignores_combat_mods": false,
  "copy_creator_mods": false,
  "spawn_limit": 0,
  "spawn_limit_mission": 0,
  "ignore_av_to_eb_scaling": false,
  "can_zone": false,
  "custom_badge_stat": null,
  "badge_stat_flags": "DefaultBadgeStat",
  "rank": "VR_MINION",
  "power_full_names": [
    "V_Security_Guards.Security_Guard_Brawl.Brawl",
    "V_Security_Guards.Security_Guard_Advanced_SubmachineGun_Butt.Adv._SubmachineGun_Butt",
    "V_Security_Guards.Security_Guard_Advanced_SubmachineGun.Burst"
  ],
  "power_display_names": [
    "Brawl",
    "Adv. SubmachineGun Butt",
    "Burst"
  ],
  "power_levels": [
    0,
    0,
    0
  ],
  "powers": [
    {
      "power_category": "V_Security_Guards",
      "power_set": "Security_Guard_Brawl",
      "power": "*",
      "level": 0
    },
    {
      "power_category": "V_Security_Guards",
      "power_set": "Security_Guard_Advanced_SubmachineGun_Butt",
      "power": "*",
      "level": 0
    },
    {
      "power_category": "V_Security_Guards",
      "power_set": "Security_Guard_Advanced_SubmachineGun",
      "power": "*",
      "level": 0
    }
  ],
  "levels": [
    {
      "level": 20,
      "experience": 0,
      "display_names": [
        "Private Security Guard"
      ],
      "costumes": [
        "CSE_01",
        "CSE_02"
      ]
    },
    {
      "level": 21,
      "experience": 0,
      "display_names": [
        "Private Security Guard"
      ],
      "costumes": [
        "CSE_01",
        "CSE_02"
      ]
    },
    {
      "level": 22,
      "experience": 0,
      "display_names": [
        "Private Security Guard"
      ],
      "costumes": [
        "CSE_01",
        "CSE_02"
      ]
    },
    {
      "level": 23,
      "experience": 0,
      "display_names": [
        "Private Security Guard"
      ],
      "costumes": [
        "CSE_01",
        "CSE_02"
      ]
    },
    {
      "level": 24,
      "experience": 0,
      "display_names": [
        "Private Security Guard"
      ],
      "costumes": [
        "CSE_01",
        "CSE_02"
      ]
    },
    {
      "level": 25,
      "experience": 0,
      "display_names": [
        "Private Security Guard"
      ],
      "costumes": [
        "CSE_01",
        "CSE_02"
      ]
    },
    {
      "level": 26,
      "experience": 0,
      "display_names": [
        "Private Security Guard"
      ],
      "costumes": [
        "CSE_01",
        "CSE_02"
      ]
    },
    {
      "level": 27,
      "experience": 0,
      "display_names": [
        "Private Security Guard"
      ],
      "costumes": [
        "CSE_01",
        "CSE_02"
      ]
    },
    {
      "level": 28,
      "experience": 0,
      "display_names": [
        "Private Security Guard"
      ],
      "costumes": [
        "CSE_01",
        "CSE_02"
      ]
    },
    {
      "level": 29,
      "experience": 0,
      "display_names": [
        "Private Security Guard"
      ],
      "costumes": [
        "CSE_01",
        "CSE_02"
      ]
    }
  ]
}