{
  "name": "RogueIslandPolice_Officer_MidLow",
  "gender": "GENDER_MALE",
  "description": "Working as a private security guard in a 'city of villains' must be a very tough job.",
  "group_description": null,
  "display_class_name": null,
  "character_class_name": "lt_grunt",
  "ai_config": "Default_Ranged",
  "commandable_pet": false,
  "power_tags": [
    "Humanoid",
    "HumanSkeleton"
  ],
  "additional_rewards": [

  ],
  "skill_hp_rewards": [

  ],
  "skill_status_rewards": [

  ],
  "ally": "Monster",
  "gang": null,
  "reward_scale": 1.0,
  "game_exclusion": "None",
  "inactive_state_weapon": null,
  "ignores_combat_mods": false,
  "copy_creator_mods": false,
  "spawn_limit": -1,
  "spawn_limit_mission": -1,
  "ignore_av_to_eb_scaling": false,
  "can_zone": false,
  "custom_badge_stat": null,
  "badge_stat_flags": "DefaultBadgeStat",
  "rank": "VR_LIEUTENANT",
  "power_full_names": [
    "V_Security_Guards.Security_Guard_Baton.Riot_Baton",
    "V_Security_Guards.Security_Guard_Advanced_SubmachineGun.Burst",
    "V_Security_Guards.Security_Guard_Leadership_Tactics.Tactics"
  ],
  "power_display_names": [
    "Riot Baton",
    "Burst",
    "Tactics"
  ],
  "power_levels": [
    0,
    0,
    0
  ],
  "powers": [
    {
      "power_category": "V_Security_Guards",
      "power_set": "Security_Guard_Baton",
      "power": "*",
      "level": 0
    },
    {
      "power_category": "V_Security_Guards",
      "power_set": "Security_Guard_Advanced_SubmachineGun",
      "power": "*",
      "level": 0
    },
    {
      "power_category": "V_Security_Guards",
      "power_set": "Security_Guard_Leadership_Tactics",
      "power": "*",
      "level": 0
    }
  ],
  "levels": [
    {
      "level": 10,
      "experience": 0,
      "display_names": [
        "Ripper"
      ],
      "costumes": [
        "Villain_Isle_Ripper_01",
        "Villain_Isle_Ripper_02",
        "Villain_Isle_Ripper_03",
        "Villain_Isle_Ripper_04"
      ]
    },
    {
      "level": 11,
      "experience": 0,
      "display_names": [
        "Ripper"
      ],
      "costumes": [
        "Villain_Isle_Ripper_01",
        "Villain_Isle_Ripper_02",
        "Villain_Isle_Ripper_03",
        "Villain_Isle_Ripper_04"
      ]
    },
    {
      "level": 12,
      "experience": 0,
      "display_names": [
        "Ripper"
      ],
      "costumes": [
        "Villain_Isle_Ripper_01",
        "Villain_Isle_Ripper_02",
        "Villain_Isle_Ripper_03",
        "Villain_Isle_Ripper_04"
      ]
    },
    {
      "level": 13,
      "experience": 0,
      "display_names": [
        "Ripper"
      ],
      "costumes": [
        "Villain_Isle_Ripper_01",
        "Villain_Isle_Ripper_02",
        "Villain_Isle_Ripper_03",
        "Villain_Isle_Ripper_04"
      ]
    },
    {
      "level": 14,
      "experience": 0,
      "display_names": [
        "Ripper"
      ],
      "costumes": [
        "Villain_Isle_Ripper_01",
        "Villain_Isle_Ripper_02",
        "Villain_Isle_Ripper_03",
        "Villain_Isle_Ripper_04"
      ]
    },
    {
      "level": 15,
      "experience": 0,
      "display_names": [
        "Ripper"
      ],
      "costumes": [
        "Villain_Isle_Ripper_01",
        "Villain_Isle_Ripper_02",
        "Villain_Isle_Ripper_03",
        "Villain_Isle_Ripper_04"
      ]
    },
    {
      "level": 16,
      "experience": 0,
      "display_names": [
        "Ripper"
      ],
      "costumes": [
        "Villain_Isle_Ripper_01",
        "Villain_Isle_Ripper_02",
        "Villain_Isle_Ripper_03",
        "Villain_Isle_Ripper_04"
      ]
    },
    {
      "level": 17,
      "experience": 0,
      "display_names": [
        "Ripper"
      ],
      "costumes": [
        "Villain_Isle_Ripper_01",
        "Villain_Isle_Ripper_02",
        "Villain_Isle_Ripper_03",
        "Villain_Isle_Ripper_04"
      ]
    },
    {
      "level": 18,
      "experience": 0,
      "display_names": [
        "Ripper"
      ],
      "costumes": [
        "Villain_Isle_Ripper_01",
        "Villain_Isle_Ripper_02",
        "Villain_Isle_Ripper_03",
        "Villain_Isle_Ripper_04"
      ]
    },
    {
      "level": 19,
      "experience": 0,
      "display_names": [
        "Ripper"
      ],
      "costumes": [
        "Villain_Isle_Ripper_01",
        "Villain_Isle_Ripper_02",
        "Villain_Isle_Ripper_03",
        "Villain_Isle_Ripper_04"
      ]
    }
  ]
}