{
  "name": "RogueParagonPolice_SWAT_Equalizer_High",
  "gender": "GENDER_MALE",
  "description": "These masked thugs seem to be wielding weaponry similar to the Paragon Police Department. They also appear to be well-trained. It's not too hard to figure out these must be members of the PPD, though what exactly they're up to is anyone's guess.",
  "group_description": null,
  "display_class_name": null,
  "character_class_name": "minion_grunt",
  "ai_config": "Default_Ranged",
  "commandable_pet": false,
  "power_tags": [
    "Humanoid",
    "HumanSkeleton"
  ],
  "additional_rewards": [

  ],
  "skill_hp_rewards": [

  ],
  "skill_status_rewards": [

  ],
  "ally": "Monster",
  "gang": null,
  "reward_scale": 1.0,
  "game_exclusion": "None",
  "inactive_state_weapon": null,
  "ignores_combat_mods": false,
  "copy_creator_mods": false,
  "spawn_limit": 1,
  "spawn_limit_mission": 1,
  "ignore_av_to_eb_scaling": false,
  "can_zone": false,
  "custom_badge_stat": null,
  "badge_stat_flags": "DefaultBadgeStat",
  "rank": "VR_MINION",
  "power_full_names": [
    "V_ParagonPolice.Equalizer_Carbine.Carbine_Shot",
    "V_ParagonPolice.Equalizer_Carbine.Web_Grenade",
    "V_ParagonPolice.Equalizer_Carbine.Glue_Grenade",
    "V_ParagonPolice.Equalizer_Traps.Acid_Mortar",
    "V_ParagonPolice.SWAT_Resists.Resistances"
  ],
  "power_display_names": [
    "Carbine Shot",
    "Web Grenade",
    "Glue Grenade",
    "Acid Mortar",
    "Resistances"
  ],
  "power_levels": [
    0,
    0,
    0,
    0,
    0
  ],
  "powers": [
    {
      "power_category": "V_ParagonPolice",
      "power_set": "Equalizer_Carbine",
      "power": "*",
      "level": 0
    },
    {
      "power_category": "V_ParagonPolice",
      "power_set": "Equalizer_Traps",
      "power": "Acid_Mortar",
      "level": 0
    },
    {
      "power_category": "V_ParagonPolice",
      "power_set": "SWAT_Resists",
      "power": "*",
      "level": 0
    }
  ],
  "levels": [
    {
      "level": 26,
      "experience": 0,
      "display_names": [
        "Rogue SWAT Equalizer"
      ],
      "costumes": [
        "RoguePPD_Minion_01",
        "RoguePPD_Minion_02",
        "RoguePPD_Minion_03",
        "RoguePPD_Minion_04",
        "RoguePPD_Minion_05",
        "RoguePPD_Minion_06",
        "RoguePPD_Minion_07",
        "RoguePPD_Minion_08",
        "RoguePPD_Minion_09",
        "RoguePPD_Minion_10",
        "RoguePPD_Minion_11"
      ]
    },
    {
      "level": 27,
      "experience": 0,
      "display_names": [
        "Rogue SWAT Equalizer"
      ],
      "costumes": [
        "RoguePPD_Minion_01",
        "RoguePPD_Minion_02",
        "RoguePPD_Minion_03",
        "RoguePPD_Minion_04",
        "RoguePPD_Minion_05",
        "RoguePPD_Minion_06",
        "RoguePPD_Minion_07",
        "RoguePPD_Minion_08",
        "RoguePPD_Minion_09",
        "RoguePPD_Minion_10",
        "RoguePPD_Minion_11"
      ]
    },
    {
      "level": 28,
      "experience": 0,
      "display_names": [
        "Rogue SWAT Equalizer"
      ],
      "costumes": [
        "RoguePPD_Minion_01",
        "RoguePPD_Minion_02",
        "RoguePPD_Minion_03",
        "RoguePPD_Minion_04",
        "RoguePPD_Minion_05",
        "RoguePPD_Minion_06",
        "RoguePPD_Minion_07",
        "RoguePPD_Minion_08",
        "RoguePPD_Minion_09",
        "RoguePPD_Minion_10",
        "RoguePPD_Minion_11"
      ]
    },
    {
      "level": 29,
      "experience": 0,
      "display_names": [
        "Rogue SWAT Equalizer"
      ],
      "costumes": [
        "RoguePPD_Minion_01",
        "RoguePPD_Minion_02",
        "RoguePPD_Minion_03",
        "RoguePPD_Minion_04",
        "RoguePPD_Minion_05",
        "RoguePPD_Minion_06",
        "RoguePPD_Minion_07",
        "RoguePPD_Minion_08",
        "RoguePPD_Minion_09",
        "RoguePPD_Minion_10",
        "RoguePPD_Minion_11"
      ]
    },
    {
      "level": 30,
      "experience": 0,
      "display_names": [
        "Rogue SWAT Equalizer"
      ],
      "costumes": [
        "RoguePPD_Minion_01",
        "RoguePPD_Minion_02",
        "RoguePPD_Minion_03",
        "RoguePPD_Minion_04",
        "RoguePPD_Minion_05",
        "RoguePPD_Minion_06",
        "RoguePPD_Minion_07",
        "RoguePPD_Minion_08",
        "RoguePPD_Minion_09",
        "RoguePPD_Minion_10",
        "RoguePPD_Minion_11"
      ]
    }
  ]
}