{
  "name": "RogueArachnosIllusions_Fortunata_Mistress",
  "gender": "GENDER_FEMALE",
  "description": "The most powerful of the Fortunats are the Mistresses. These rare few have mastered numerous psychic abilities and risen to the top of Lord Recluse's beautiful Black Widows.",
  "group_description": null,
  "display_class_name": null,
  "character_class_name": "boss_grunt",
  "ai_config": "Default_Ranged",
  "commandable_pet": false,
  "power_tags": [
    "Humanoid",
    "HumanSkeleton"
  ],
  "additional_rewards": [

  ],
  "skill_hp_rewards": [

  ],
  "skill_status_rewards": [

  ],
  "ally": null,
  "gang": null,
  "reward_scale": 1.2,
  "game_exclusion": "None",
  "inactive_state_weapon": null,
  "ignores_combat_mods": false,
  "copy_creator_mods": false,
  "spawn_limit": 1,
  "spawn_limit_mission": 1,
  "ignore_av_to_eb_scaling": false,
  "can_zone": false,
  "custom_badge_stat": null,
  "badge_stat_flags": "DefaultBadgeStat",
  "rank": "VR_BOSS",
  "power_full_names": [
    "V_Arachnos.Fortunata_Mistress.Psychic_Scream",
    "V_Arachnos.Fortunata_Mistress.Telekinetic_Blast",
    "V_Arachnos.Fortunata_Mistress.Will_Domination",
    "V_Arachnos.Fortunata_Mistress.Mind_Link",
    "V_Arachnos.Fortunata_Mistress_High.Scramble_Thoughts",
    "V_Arachnos.Fortunata_Mistress_High.Psychic_Wail",
    "V_Arachnos.Fortunata_Mistress_Defense.Mental_Training",
    "OneWillDie_Issue3Powers.Shattered_Mind.Illusory"
  ],
  "power_display_names": [
    "Psychic Scream",
    "Telekinetic Blast",
    "Will Domination",
    "Mind Link",
    "Scramble Thoughts",
    "Psychic Wail",
    "Mental Training",
    "Illusory"
  ],
  "power_levels": [
    0,
    0,
    0,
    0,
    0,
    0,
    0,
    0
  ],
  "powers": [
    {
      "power_category": "V_Arachnos",
      "power_set": "Fortunata_Mistress",
      "power": "*",
      "level": 0
    },
    {
      "power_category": "V_Arachnos",
      "power_set": "Fortunata_Mistress_High",
      "power": "*",
      "level": 0
    },
    {
      "power_category": "V_Arachnos",
      "power_set": "Fortunata_Mistress_Defense",
      "power": "*",
      "level": 0
    },
    {
      "power_category": "OneWillDie_Issue3Powers",
      "power_set": "Shattered_Mind",
      "power": "*",
      "level": 0
    }
  ],
  "levels": [
    {
      "level": 30,
      "experience": 0,
      "display_names": [
        "Rogue Fortunata Mistress"
      ],
      "costumes": [
        "Rogue_Fortunata_02"
      ]
    },
    {
      "level": 31,
      "experience": 0,
      "display_names": [
        "Rogue Fortunata Mistress"
      ],
      "costumes": [
        "Rogue_Fortunata_02"
      ]
    },
    {
      "level": 32,
      "experience": 0,
      "display_names": [
        "Rogue Fortunata Mistress"
      ],
      "costumes": [
        "Rogue_Fortunata_02"
      ]
    },
    {
      "level": 33,
      "experience": 0,
      "display_names": [
        "Rogue Fortunata Mistress"
      ],
      "costumes": [
        "Rogue_Fortunata_02"
      ]
    },
    {
      "level": 34,
      "experience": 0,
      "display_names": [
        "Rogue Fortunata Mistress"
      ],
      "costumes": [
        "Rogue_Fortunata_02"
      ]
    },
    {
      "level": 35,
      "experience": 0,
      "display_names": [
        "Rogue Fortunata Mistress"
      ],
      "costumes": [
        "Rogue_Fortunata_02"
      ]
    },
    {
      "level": 36,
      "experience": 0,
      "display_names": [
        "Rogue Fortunata Mistress"
      ],
      "costumes": [
        "Rogue_Fortunata_02"
      ]
    },
    {
      "level": 37,
      "experience": 0,
      "display_names": [
        "Rogue Fortunata Mistress"
      ],
      "costumes": [
        "Rogue_Fortunata_02"
      ]
    },
    {
      "level": 38,
      "experience": 0,
      "display_names": [
        "Rogue Fortunata Mistress"
      ],
      "costumes": [
        "Rogue_Fortunata_02"
      ]
    },
    {
      "level": 39,
      "experience": 0,
      "display_names": [
        "Rogue Fortunata Mistress"
      ],
      "costumes": [
        "Rogue_Fortunata_02"
      ]
    },
    {
      "level": 40,
      "experience": 0,
      "display_names": [
        "Rogue Fortunata Mistress"
      ],
      "costumes": [
        "Rogue_Fortunata_02"
      ]
    },
    {
      "level": 41,
      "experience": 0,
      "display_names": [
        "Rogue Fortunata Mistress"
      ],
      "costumes": [
        "Rogue_Fortunata_02"
      ]
    },
    {
      "level": 42,
      "experience": 0,
      "display_names": [
        "Rogue Fortunata Mistress"
      ],
      "costumes": [
        "Rogue_Fortunata_02"
      ]
    },
    {
      "level": 43,
      "experience": 0,
      "display_names": [
        "Rogue Fortunata Mistress"
      ],
      "costumes": [
        "Rogue_Fortunata_02"
      ]
    },
    {
      "level": 44,
      "experience": 0,
      "display_names": [
        "Rogue Fortunata Mistress"
      ],
      "costumes": [
        "Rogue_Fortunata_02"
      ]
    },
    {
      "level": 45,
      "experience": 0,
      "display_names": [
        "Rogue Fortunata Mistress"
      ],
      "costumes": [
        "Rogue_Fortunata_02"
      ]
    },
    {
      "level": 46,
      "experience": 0,
      "display_names": [
        "Rogue Fortunata Mistress"
      ],
      "costumes": [
        "Rogue_Fortunata_02"
      ]
    },
    {
      "level": 47,
      "experience": 0,
      "display_names": [
        "Rogue Fortunata Mistress"
      ],
      "costumes": [
        "Rogue_Fortunata_02"
      ]
    },
    {
      "level": 48,
      "experience": 0,
      "display_names": [
        "Rogue Fortunata Mistress"
      ],
      "costumes": [
        "Rogue_Fortunata_02"
      ]
    },
    {
      "level": 49,
      "experience": 0,
      "display_names": [
        "Rogue Fortunata Mistress"
      ],
      "costumes": [
        "Rogue_Fortunata_02"
      ]
    },
    {
      "level": 50,
      "experience": 0,
      "display_names": [
        "Rogue Fortunata Mistress"
      ],
      "costumes": [
        "Rogue_Fortunata_02"
      ]
    },
    {
      "level": 51,
      "experience": 0,
      "display_names": [
        "Rogue Fortunata Mistress"
      ],
      "costumes": [
        "Rogue_Fortunata_02"
      ]
    },
    {
      "level": 52,
      "experience": 0,
      "display_names": [
        "Rogue Fortunata Mistress"
      ],
      "costumes": [
        "Rogue_Fortunata_02"
      ]
    },
    {
      "level": 53,
      "experience": 0,
      "display_names": [
        "Rogue Fortunata Mistress"
      ],
      "costumes": [
        "Rogue_Fortunata_02"
      ]
    },
    {
      "level": 54,
      "experience": 0,
      "display_names": [
        "Rogue Fortunata Mistress"
      ],
      "costumes": [
        "Rogue_Fortunata_02"
      ]
    }
  ]
}