{
  "name": "RoguesGallery_LowLevel_MissThystle",
  "gender": "GENDER_FEMALE",
  "description": "This woman was just born into the wrong family. Her parents being her role model she decided that she wanted it all in life, without the hassle of working for it. Miss Thystle doesn't care how she gets what she wants, just as long as she gets it.",
  "group_description": "Rogue Isles Villains",
  "display_class_name": null,
  "character_class_name": "boss_grunt",
  "ai_config": "Default_Melee",
  "commandable_pet": false,
  "power_tags": [
    "Humanoid",
    "HumanSkeleton"
  ],
  "additional_rewards": [

  ],
  "skill_hp_rewards": [

  ],
  "skill_status_rewards": [

  ],
  "ally": null,
  "gang": null,
  "reward_scale": 1.0,
  "game_exclusion": "None",
  "inactive_state_weapon": null,
  "ignores_combat_mods": false,
  "copy_creator_mods": false,
  "spawn_limit": 0,
  "spawn_limit_mission": 0,
  "ignore_av_to_eb_scaling": false,
  "can_zone": false,
  "custom_badge_stat": null,
  "badge_stat_flags": "DefaultBadgeStat",
  "rank": "VR_BOSS",
  "power_full_names": [
    "V_GenericVillains.Brute_Resistance.Resistance",
    "V_GenericVillains.SS_Brute.Jab",
    "V_GenericVillains.SS_Brute.Punch",
    "V_GenericVillains.SS_Brute.Hurl",
    "V_GenericVillains.SS_Brute_Low.Haymaker"
  ],
  "power_display_names": [
    "Resistance",
    "Jab",
    "Punch",
    "Hurl",
    "Haymaker"
  ],
  "power_levels": [
    0,
    0,
    0,
    0,
    0
  ],
  "powers": [
    {
      "power_category": "V_GenericVillains",
      "power_set": "Brute_Resistance",
      "power": "*",
      "level": 0
    },
    {
      "power_category": "V_GenericVillains",
      "power_set": "SS_Brute",
      "power": "Jab",
      "level": 0
    },
    {
      "power_category": "V_GenericVillains",
      "power_set": "SS_Brute",
      "power": "Punch",
      "level": 0
    },
    {
      "power_category": "V_GenericVillains",
      "power_set": "SS_Brute",
      "power": "Hurl",
      "level": 0
    },
    {
      "power_category": "V_GenericVillains",
      "power_set": "SS_Brute_Low",
      "power": "Haymaker",
      "level": 0
    }
  ],
  "levels": [
    {
      "level": 15,
      "experience": 0,
      "display_names": [
        "Miss Thystle"
      ],
      "costumes": [
        "Model_Miss_Thysle"
      ]
    },
    {
      "level": 16,
      "experience": 0,
      "display_names": [
        "Miss Thystle"
      ],
      "costumes": [
        "Model_Miss_Thysle"
      ]
    },
    {
      "level": 17,
      "experience": 0,
      "display_names": [
        "Miss Thystle"
      ],
      "costumes": [
        "Model_Miss_Thysle"
      ]
    },
    {
      "level": 18,
      "experience": 0,
      "display_names": [
        "Miss Thystle"
      ],
      "costumes": [
        "Model_Miss_Thysle"
      ]
    },
    {
      "level": 19,
      "experience": 0,
      "display_names": [
        "Miss Thystle"
      ],
      "costumes": [
        "Model_Miss_Thysle"
      ]
    },
    {
      "level": 20,
      "experience": 0,
      "display_names": [
        "Miss Thystle"
      ],
      "costumes": [
        "Model_Miss_Thysle"
      ]
    },
    {
      "level": 21,
      "experience": 0,
      "display_names": [
        "Miss Thystle"
      ],
      "costumes": [
        "Model_Miss_Thysle"
      ]
    },
    {
      "level": 22,
      "experience": 0,
      "display_names": [
        "Miss Thystle"
      ],
      "costumes": [
        "Model_Miss_Thysle"
      ]
    },
    {
      "level": 23,
      "experience": 0,
      "display_names": [
        "Miss Thystle"
      ],
      "costumes": [
        "Model_Miss_Thysle"
      ]
    },
    {
      "level": 24,
      "experience": 0,
      "display_names": [
        "Miss Thystle"
      ],
      "costumes": [
        "Model_Miss_Thysle"
      ]
    }
  ]
}