{
  "name": "RoguesGallery_LowLevel_LauraLockhart",
  "gender": "GENDER_MALE",
  "description": "Laura Lockhart is a military deprogrammer that specializes in countering 5th Column propaganda. She is currently working alongside the Paragon City Police Department, trying to stifle the recent surge in 5th Column activity in the Steel Canyon district.",
  "group_description": "U.N. Security Forces",
  "display_class_name": null,
  "character_class_name": "lt_grunt",
  "ai_config": "Default_Melee",
  "commandable_pet": false,
  "power_tags": [
    "Humanoid",
    "HumanSkeleton"
  ],
  "additional_rewards": [

  ],
  "skill_hp_rewards": [

  ],
  "skill_status_rewards": [

  ],
  "ally": null,
  "gang": null,
  "reward_scale": 1.0,
  "game_exclusion": "None",
  "inactive_state_weapon": null,
  "ignores_combat_mods": false,
  "copy_creator_mods": false,
  "spawn_limit": 0,
  "spawn_limit_mission": 0,
  "ignore_av_to_eb_scaling": false,
  "can_zone": false,
  "custom_badge_stat": null,
  "badge_stat_flags": "DefaultBadgeStat",
  "rank": "VR_LIEUTENANT",
  "power_full_names": [
    "GenericVillains.No_Regeneration.No_Regeneration"
  ],
  "power_display_names": [
    "No Regeneration"
  ],
  "power_levels": [
    0
  ],
  "powers": [
    {
      "power_category": "GenericVillains",
      "power_set": "No_Regeneration",
      "power": "*",
      "level": 0
    }
  ],
  "levels": [
    {
      "level": 15,
      "experience": 0,
      "display_names": [
        "Laura Lockhart"
      ],
      "costumes": [
        "Model_LauraLockhart_NoRing"
      ]
    },
    {
      "level": 16,
      "experience": 0,
      "display_names": [
        "Laura Lockhart"
      ],
      "costumes": [
        "Model_LauraLockhart_NoRing"
      ]
    },
    {
      "level": 17,
      "experience": 0,
      "display_names": [
        "Laura Lockhart"
      ],
      "costumes": [
        "Model_LauraLockhart_NoRing"
      ]
    },
    {
      "level": 18,
      "experience": 0,
      "display_names": [
        "Laura Lockhart"
      ],
      "costumes": [
        "Model_LauraLockhart_NoRing"
      ]
    },
    {
      "level": 19,
      "experience": 0,
      "display_names": [
        "Laura Lockhart"
      ],
      "costumes": [
        "Model_LauraLockhart_NoRing"
      ]
    },
    {
      "level": 20,
      "experience": 0,
      "display_names": [
        "Laura Lockhart"
      ],
      "costumes": [
        "Model_LauraLockhart_NoRing"
      ]
    },
    {
      "level": 21,
      "experience": 0,
      "display_names": [
        "Laura Lockhart"
      ],
      "costumes": [
        "Model_LauraLockhart_NoRing"
      ]
    },
    {
      "level": 22,
      "experience": 0,
      "display_names": [
        "Laura Lockhart"
      ],
      "costumes": [
        "Model_LauraLockhart_NoRing"
      ]
    },
    {
      "level": 23,
      "experience": 0,
      "display_names": [
        "Laura Lockhart"
      ],
      "costumes": [
        "Model_LauraLockhart_NoRing"
      ]
    },
    {
      "level": 24,
      "experience": 0,
      "display_names": [
        "Laura Lockhart"
      ],
      "costumes": [
        "Model_LauraLockhart_NoRing"
      ]
    }
  ]
}