{
  "name": "RogueIslesVillains_Giga_Watts",
  "gender": "GENDER_MALE",
  "description": "Giga Watts is a cyborg, developed by a resident scientist in Cap au Diable. After many months of testing, Giga learned that he is capable of self-control, and has since abandoned his maker. Giga seeks to join Arachnos, by any means necessary.",
  "group_description": "Rogue Isles Villains",
  "display_class_name": null,
  "character_class_name": "boss_grunt",
  "ai_config": "Default_Melee",
  "commandable_pet": false,
  "power_tags": [
    "Humanoid",
    "HumanSkeleton"
  ],
  "additional_rewards": [

  ],
  "skill_hp_rewards": [

  ],
  "skill_status_rewards": [

  ],
  "ally": null,
  "gang": null,
  "reward_scale": 1.0,
  "game_exclusion": "None",
  "inactive_state_weapon": null,
  "ignores_combat_mods": false,
  "copy_creator_mods": false,
  "spawn_limit": -1,
  "spawn_limit_mission": -1,
  "ignore_av_to_eb_scaling": false,
  "can_zone": false,
  "custom_badge_stat": null,
  "badge_stat_flags": "DefaultBadgeStat",
  "rank": "VR_BOSS",
  "power_full_names": [
    "V_GenericVillains.Brute_Resistance.Resistance",
    "V_GenericVillains.Electrical_Brute.Charged_Brawl",
    "V_GenericVillains.Electrical_Brute.Havoc_Punch",
    "V_GenericVillains.Electrical_Brute.Jacobs_Ladder",
    "V_GenericVillains.Electrical_Brute.Lightning_Blast",
    "V_GenericVillains.Electrical_Brute_Low.Thunder_Strike",
    "V_GenericVillains.Electrical_Brute_Low.Power_Sink",
    "V_GenericVillains.Electrical_Brute_Low.Static_Shield",
    "V_GenericVillains.Electrical_Brute_Low.Ball_Lightning",
    "V_GenericVillains.Electrical_Brute_Low.Chain_Induction",
    "V_GenericVillains.Electrical_Brute_Mid.Lightning_Clap"
  ],
  "power_display_names": [
    "Resistance",
    "Charged Brawl",
    "Havoc Punch",
    "Jacobs Ladder",
    "Lightning Blast",
    "Thunder Strike",
    "Power Sink",
    "Static Shield",
    "Ball Lightning",
    "Chain Induction",
    "Lightning Clap"
  ],
  "power_levels": [
    0,
    0,
    0,
    0,
    0,
    0,
    0,
    0,
    0,
    0,
    0
  ],
  "powers": [
    {
      "power_category": "V_GenericVillains",
      "power_set": "Brute_Resistance",
      "power": "*",
      "level": 0
    },
    {
      "power_category": "V_GenericVillains",
      "power_set": "Electrical_Brute",
      "power": "Charged_Brawl",
      "level": 0
    },
    {
      "power_category": "V_GenericVillains",
      "power_set": "Electrical_Brute",
      "power": "Havoc_Punch",
      "level": 0
    },
    {
      "power_category": "V_GenericVillains",
      "power_set": "Electrical_Brute",
      "power": "Jacobs_Ladder",
      "level": 0
    },
    {
      "power_category": "V_GenericVillains",
      "power_set": "Electrical_Brute",
      "power": "Lightning_Blast",
      "level": 0
    },
    {
      "power_category": "V_GenericVillains",
      "power_set": "Electrical_Brute_Low",
      "power": "*",
      "level": 0
    },
    {
      "power_category": "V_GenericVillains",
      "power_set": "Electrical_Brute_Mid",
      "power": "Lightning_Clap",
      "level": 0
    }
  ],
  "levels": [
    {
      "level": 30,
      "experience": 0,
      "display_names": [
        "Giga Watts"
      ],
      "costumes": [
        "Model_Giga_Watts"
      ]
    },
    {
      "level": 31,
      "experience": 0,
      "display_names": [
        "Giga Watts"
      ],
      "costumes": [
        "Model_Giga_Watts"
      ]
    },
    {
      "level": 32,
      "experience": 0,
      "display_names": [
        "Giga Watts"
      ],
      "costumes": [
        "Model_Giga_Watts"
      ]
    },
    {
      "level": 33,
      "experience": 0,
      "display_names": [
        "Giga Watts"
      ],
      "costumes": [
        "Model_Giga_Watts"
      ]
    },
    {
      "level": 34,
      "experience": 0,
      "display_names": [
        "Giga Watts"
      ],
      "costumes": [
        "Model_Giga_Watts"
      ]
    },
    {
      "level": 35,
      "experience": 0,
      "display_names": [
        "Giga Watts"
      ],
      "costumes": [
        "Model_Giga_Watts"
      ]
    },
    {
      "level": 36,
      "experience": 0,
      "display_names": [
        "Giga Watts"
      ],
      "costumes": [
        "Model_Giga_Watts"
      ]
    },
    {
      "level": 37,
      "experience": 0,
      "display_names": [
        "Giga Watts"
      ],
      "costumes": [
        "Model_Giga_Watts"
      ]
    },
    {
      "level": 38,
      "experience": 0,
      "display_names": [
        "Giga Watts"
      ],
      "costumes": [
        "Model_Giga_Watts"
      ]
    },
    {
      "level": 39,
      "experience": 0,
      "display_names": [
        "Giga Watts"
      ],
      "costumes": [
        "Model_Giga_Watts"
      ]
    },
    {
      "level": 40,
      "experience": 0,
      "display_names": [
        "Giga Watts"
      ],
      "costumes": [
        "Model_Giga_Watts"
      ]
    },
    {
      "level": 41,
      "experience": 0,
      "display_names": [
        "Giga Watts"
      ],
      "costumes": [
        "Model_Giga_Watts"
      ]
    },
    {
      "level": 42,
      "experience": 0,
      "display_names": [
        "Giga Watts"
      ],
      "costumes": [
        "Model_Giga_Watts"
      ]
    },
    {
      "level": 43,
      "experience": 0,
      "display_names": [
        "Giga Watts"
      ],
      "costumes": [
        "Model_Giga_Watts"
      ]
    },
    {
      "level": 44,
      "experience": 0,
      "display_names": [
        "Giga Watts"
      ],
      "costumes": [
        "Model_Giga_Watts"
      ]
    },
    {
      "level": 45,
      "experience": 0,
      "display_names": [
        "Giga Watts"
      ],
      "costumes": [
        "Model_Giga_Watts"
      ]
    },
    {
      "level": 46,
      "experience": 0,
      "display_names": [
        "Giga Watts"
      ],
      "costumes": [
        "Model_Giga_Watts"
      ]
    },
    {
      "level": 47,
      "experience": 0,
      "display_names": [
        "Giga Watts"
      ],
      "costumes": [
        "Model_Giga_Watts"
      ]
    },
    {
      "level": 48,
      "experience": 0,
      "display_names": [
        "Giga Watts"
      ],
      "costumes": [
        "Model_Giga_Watts"
      ]
    },
    {
      "level": 49,
      "experience": 0,
      "display_names": [
        "Giga Watts"
      ],
      "costumes": [
        "Model_Giga_Watts"
      ]
    },
    {
      "level": 50,
      "experience": 0,
      "display_names": [
        "Giga Watts"
      ],
      "costumes": [
        "Model_Giga_Watts"
      ]
    },
    {
      "level": 51,
      "experience": 0,
      "display_names": [
        "Giga Watts"
      ],
      "costumes": [
        "Model_Giga_Watts"
      ]
    },
    {
      "level": 52,
      "experience": 0,
      "display_names": [
        "Giga Watts"
      ],
      "costumes": [
        "Model_Giga_Watts"
      ]
    },
    {
      "level": 53,
      "experience": 0,
      "display_names": [
        "Giga Watts"
      ],
      "costumes": [
        "Model_Giga_Watts"
      ]
    },
    {
      "level": 54,
      "experience": 0,
      "display_names": [
        "Giga Watts"
      ],
      "costumes": [
        "Model_Giga_Watts"
      ]
    }
  ]
}