{
  "name": "RoguesGallery_Mangle_SL6-7",
  "gender": "GENDER_MALE",
  "description": "Mangle was an unwilling attraction for a traveling freak show, but the chains couldn't contain his fury forever. Once free he waited in the shadows to repay his captors' 'kindness' with blood.",
  "group_description": null,
  "display_class_name": null,
  "character_class_name": "boss_grunt",
  "ai_config": "Default_Melee",
  "commandable_pet": false,
  "power_tags": [
    "Humanoid",
    "HumanSkeleton"
  ],
  "additional_rewards": [

  ],
  "skill_hp_rewards": [

  ],
  "skill_status_rewards": [

  ],
  "ally": null,
  "gang": null,
  "reward_scale": 1.0,
  "game_exclusion": "None",
  "inactive_state_weapon": null,
  "ignores_combat_mods": false,
  "copy_creator_mods": false,
  "spawn_limit": 0,
  "spawn_limit_mission": 0,
  "ignore_av_to_eb_scaling": false,
  "can_zone": false,
  "custom_badge_stat": null,
  "badge_stat_flags": "DefaultBadgeStat",
  "rank": "VR_BOSS",
  "power_full_names": [
    "V_GenericVillains.Claws_Stalker.Swipe",
    "V_GenericVillains.Claws_Stalker.Strike",
    "V_GenericVillains.Claws_Stalker.Focus",
    "V_GenericVillains.Claws_Stalker.Slash",
    "V_GenericVillains.Claws_Stalker.Assassins_Claw",
    "V_GenericVillains.Claws_Stalker.Shockwave",
    "V_GenericVillains.Claws_Stalker.Focused_Fighting",
    "V_GenericVillains.Claws_Stalker.Inner_Focus",
    "V_GenericVillains.Claws_Stalker.Eviscerate"
  ],
  "power_display_names": [
    "Swipe",
    "Strike",
    "Focus",
    "Slash",
    "Assassin's Claw",
    "Shockwave",
    "Focused Fighting",
    "Inner Focus",
    "Eviscerate"
  ],
  "power_levels": [
    0,
    0,
    0,
    0,
    0,
    0,
    0,
    0,
    0
  ],
  "powers": [
    {
      "power_category": "V_GenericVillains",
      "power_set": "Claws_Stalker",
      "power": "Swipe",
      "level": 0
    },
    {
      "power_category": "V_GenericVillains",
      "power_set": "Claws_Stalker",
      "power": "Strike",
      "level": 0
    },
    {
      "power_category": "V_GenericVillains",
      "power_set": "Claws_Stalker",
      "power": "Focus",
      "level": 0
    },
    {
      "power_category": "V_GenericVillains",
      "power_set": "Claws_Stalker",
      "power": "Slash",
      "level": 0
    },
    {
      "power_category": "V_GenericVillains",
      "power_set": "Claws_Stalker",
      "power": "Assassins_Claw",
      "level": 0
    },
    {
      "power_category": "V_GenericVillains",
      "power_set": "Claws_Stalker",
      "power": "Shockwave",
      "level": 0
    },
    {
      "power_category": "V_GenericVillains",
      "power_set": "Claws_Stalker",
      "power": "Focused_Fighting",
      "level": 0
    },
    {
      "power_category": "V_GenericVillains",
      "power_set": "Claws_Stalker",
      "power": "Inner_Focus",
      "level": 0
    },
    {
      "power_category": "V_GenericVillains",
      "power_set": "Claws_Stalker",
      "power": "Eviscerate",
      "level": 0
    }
  ],
  "levels": [
    {
      "level": 29,
      "experience": 0,
      "display_names": [
        "Mangle"
      ],
      "costumes": [
        "Model_Mangle"
      ]
    },
    {
      "level": 30,
      "experience": 0,
      "display_names": [
        "Mangle"
      ],
      "costumes": [
        "Model_Mangle"
      ]
    },
    {
      "level": 31,
      "experience": 0,
      "display_names": [
        "Mangle"
      ],
      "costumes": [
        "Model_Mangle"
      ]
    },
    {
      "level": 32,
      "experience": 0,
      "display_names": [
        "Mangle"
      ],
      "costumes": [
        "Model_Mangle"
      ]
    },
    {
      "level": 33,
      "experience": 0,
      "display_names": [
        "Mangle"
      ],
      "costumes": [
        "Model_Mangle"
      ]
    },
    {
      "level": 34,
      "experience": 0,
      "display_names": [
        "Mangle"
      ],
      "costumes": [
        "Model_Mangle"
      ]
    },
    {
      "level": 35,
      "experience": 0,
      "display_names": [
        "Mangle"
      ],
      "costumes": [
        "Model_Mangle"
      ]
    },
    {
      "level": 36,
      "experience": 0,
      "display_names": [
        "Mangle"
      ],
      "costumes": [
        "Model_Mangle"
      ]
    },
    {
      "level": 37,
      "experience": 0,
      "display_names": [
        "Mangle"
      ],
      "costumes": [
        "Model_Mangle"
      ]
    },
    {
      "level": 38,
      "experience": 0,
      "display_names": [
        "Mangle"
      ],
      "costumes": [
        "Model_Mangle"
      ]
    },
    {
      "level": 39,
      "experience": 0,
      "display_names": [
        "Mangle"
      ],
      "costumes": [
        "Model_Mangle"
      ]
    },
    {
      "level": 40,
      "experience": 0,
      "display_names": [
        "Mangle"
      ],
      "costumes": [
        "Model_Mangle"
      ]
    },
    {
      "level": 41,
      "experience": 0,
      "display_names": [
        "Mangle"
      ],
      "costumes": [
        "Model_Mangle"
      ]
    },
    {
      "level": 42,
      "experience": 0,
      "display_names": [
        "Mangle"
      ],
      "costumes": [
        "Model_Mangle"
      ]
    },
    {
      "level": 43,
      "experience": 0,
      "display_names": [
        "Mangle"
      ],
      "costumes": [
        "Model_Mangle"
      ]
    },
    {
      "level": 44,
      "experience": 0,
      "display_names": [
        "Mangle"
      ],
      "costumes": [
        "Model_Mangle"
      ]
    }
  ]
}