{
  "name": "RogueIslesVillains_Savage_Siren",
  "gender": "GENDER_FEMALE",
  "description": "Savage Siren once looked up to Paragon City's heroes, until the day of the Rikti War, when one of the heroes hurled a Rikti Drone into her parent's apartment, killing them instantly. Siren has vowed to destroy the Freedom Phalanx, and is seeking to join Arachnos to help in their conquest.",
  "group_description": "Rogue Isles Villains",
  "display_class_name": null,
  "character_class_name": "boss_grunt",
  "ai_config": "Default_Ranged",
  "commandable_pet": false,
  "power_tags": [
    "Humanoid",
    "HumanSkeleton"
  ],
  "additional_rewards": [

  ],
  "skill_hp_rewards": [

  ],
  "skill_status_rewards": [

  ],
  "ally": null,
  "gang": null,
  "reward_scale": 1.0,
  "game_exclusion": "None",
  "inactive_state_weapon": null,
  "ignores_combat_mods": false,
  "copy_creator_mods": false,
  "spawn_limit": -1,
  "spawn_limit_mission": -1,
  "ignore_av_to_eb_scaling": false,
  "can_zone": false,
  "custom_badge_stat": null,
  "badge_stat_flags": "DefaultBadgeStat",
  "rank": "VR_BOSS",
  "power_full_names": [
    "V_GenericVillains.Mind_Dominator.Mind_Probe",
    "V_GenericVillains.Mind_Dominator.Psychic_Scream",
    "V_GenericVillains.Mind_Dominator.Drain_Psyche",
    "V_GenericVillains.Mind_Dominator.Subdue",
    "V_GenericVillains.Mind_Dominator.Levitate",
    "V_GenericVillains.Mind_Dominator.Dominate",
    "V_GenericVillains.Mind_Dominator.Terrify",
    "V_GenericVillains.Mind_Dominator.Mass_Hypnosis"
  ],
  "power_display_names": [
    "Mind Probe",
    "Psychic Scream",
    "Drain Psyche",
    "Subdue",
    "Levitate",
    "Dominate",
    "Terrify",
    "Mass Hypnosis"
  ],
  "power_levels": [
    0,
    0,
    0,
    0,
    0,
    0,
    0,
    0
  ],
  "powers": [
    {
      "power_category": "V_GenericVillains",
      "power_set": "Mind_Dominator",
      "power": "*",
      "level": 0
    }
  ],
  "levels": [
    {
      "level": 31,
      "experience": 0,
      "display_names": [
        "Savage Siren"
      ],
      "costumes": [
        "Model_Savage_Siren"
      ]
    },
    {
      "level": 32,
      "experience": 0,
      "display_names": [
        "Savage Siren"
      ],
      "costumes": [
        "Model_Savage_Siren"
      ]
    },
    {
      "level": 33,
      "experience": 0,
      "display_names": [
        "Savage Siren"
      ],
      "costumes": [
        "Model_Savage_Siren"
      ]
    },
    {
      "level": 34,
      "experience": 0,
      "display_names": [
        "Savage Siren"
      ],
      "costumes": [
        "Model_Savage_Siren"
      ]
    },
    {
      "level": 35,
      "experience": 0,
      "display_names": [
        "Savage Siren"
      ],
      "costumes": [
        "Model_Savage_Siren"
      ]
    },
    {
      "level": 36,
      "experience": 0,
      "display_names": [
        "Savage Siren"
      ],
      "costumes": [
        "Model_Savage_Siren"
      ]
    },
    {
      "level": 37,
      "experience": 0,
      "display_names": [
        "Savage Siren"
      ],
      "costumes": [
        "Model_Savage_Siren"
      ]
    },
    {
      "level": 38,
      "experience": 0,
      "display_names": [
        "Savage Siren"
      ],
      "costumes": [
        "Model_Savage_Siren"
      ]
    },
    {
      "level": 39,
      "experience": 0,
      "display_names": [
        "Savage Siren"
      ],
      "costumes": [
        "Model_Savage_Siren"
      ]
    },
    {
      "level": 40,
      "experience": 0,
      "display_names": [
        "Savage Siren"
      ],
      "costumes": [
        "Model_Savage_Siren"
      ]
    }
  ]
}