{
  "name": "RogueIslesVillains_Dr_Eva_Lone",
  "gender": "GENDER_FEMALE",
  "description": "Dr. Lone never did well in academics. She cheated her way through medical school, and when she found the public sector actually expected results, turned her attentions to mad science. Dr. Lone has never invented anything though, she only steals inventions from others who are far more creative than she is.",
  "group_description": "Rogue Isles Villains",
  "display_class_name": null,
  "character_class_name": "boss_grunt",
  "ai_config": "Default_Melee",
  "commandable_pet": false,
  "power_tags": [
    "Humanoid",
    "HumanSkeleton"
  ],
  "additional_rewards": [

  ],
  "skill_hp_rewards": [

  ],
  "skill_status_rewards": [

  ],
  "ally": "Monster",
  "gang": null,
  "reward_scale": 1.0,
  "game_exclusion": "None",
  "inactive_state_weapon": null,
  "ignores_combat_mods": false,
  "copy_creator_mods": false,
  "spawn_limit": -1,
  "spawn_limit_mission": -1,
  "ignore_av_to_eb_scaling": false,
  "can_zone": false,
  "custom_badge_stat": null,
  "badge_stat_flags": "DefaultBadgeStat",
  "rank": "VR_BOSS",
  "power_full_names": [
    "V_GenericVillains.Brute_Resistance.Resistance",
    "V_GenericVillains.Electrical_Brute.Charged_Brawl",
    "V_GenericVillains.Electrical_Brute.Havoc_Punch",
    "V_GenericVillains.Electrical_Brute.Jacobs_Ladder",
    "V_GenericVillains.Electrical_Brute.Lightning_Blast",
    "V_GenericVillains.Electrical_Brute_Low.Thunder_Strike",
    "V_GenericVillains.Electrical_Brute_Low.Power_Sink",
    "V_GenericVillains.Electrical_Brute_Low.Static_Shield",
    "V_GenericVillains.Electrical_Brute_Low.Ball_Lightning",
    "V_GenericVillains.Electrical_Brute_Low.Chain_Induction",
    "V_GenericVillains.Electrical_Brute_Mid.Lightning_Clap",
    "V_GenericVillains.Electrical_Brute_Mid.Power_Surge",
    "V_GenericVillains.Electrical_Brute_High.Thunderous_Blast"
  ],
  "power_display_names": [
    "Resistance",
    "Charged Brawl",
    "Havoc Punch",
    "Jacobs Ladder",
    "Lightning Blast",
    "Thunder Strike",
    "Power Sink",
    "Static Shield",
    "Ball Lightning",
    "Chain Induction",
    "Lightning Clap",
    "Power Surge",
    "Thunderous Blast"
  ],
  "power_levels": [
    0,
    0,
    0,
    0,
    0,
    0,
    0,
    0,
    0,
    0,
    0,
    0,
    0
  ],
  "powers": [
    {
      "power_category": "V_GenericVillains",
      "power_set": "Brute_Resistance",
      "power": "*",
      "level": 0
    },
    {
      "power_category": "V_GenericVillains",
      "power_set": "Electrical_Brute",
      "power": "Charged_Brawl",
      "level": 0
    },
    {
      "power_category": "V_GenericVillains",
      "power_set": "Electrical_Brute",
      "power": "Havoc_Punch",
      "level": 0
    },
    {
      "power_category": "V_GenericVillains",
      "power_set": "Electrical_Brute",
      "power": "Jacobs_Ladder",
      "level": 0
    },
    {
      "power_category": "V_GenericVillains",
      "power_set": "Electrical_Brute",
      "power": "Lightning_Blast",
      "level": 0
    },
    {
      "power_category": "V_GenericVillains",
      "power_set": "Electrical_Brute_Low",
      "power": "*",
      "level": 0
    },
    {
      "power_category": "V_GenericVillains",
      "power_set": "Electrical_Brute_Mid",
      "power": "*",
      "level": 0
    },
    {
      "power_category": "V_GenericVillains",
      "power_set": "Electrical_Brute_High",
      "power": "*",
      "level": 0
    }
  ],
  "levels": [
    {
      "level": 45,
      "experience": 0,
      "display_names": [
        "Dr. Eva Lone"
      ],
      "costumes": [
        "RogueIslesVillains_Dr_Eva_Lone"
      ]
    },
    {
      "level": 46,
      "experience": 0,
      "display_names": [
        "Dr. Eva Lone"
      ],
      "costumes": [
        "RogueIslesVillains_Dr_Eva_Lone"
      ]
    },
    {
      "level": 47,
      "experience": 0,
      "display_names": [
        "Dr. Eva Lone"
      ],
      "costumes": [
        "RogueIslesVillains_Dr_Eva_Lone"
      ]
    },
    {
      "level": 48,
      "experience": 0,
      "display_names": [
        "Dr. Eva Lone"
      ],
      "costumes": [
        "RogueIslesVillains_Dr_Eva_Lone"
      ]
    },
    {
      "level": 49,
      "experience": 0,
      "display_names": [
        "Dr. Eva Lone"
      ],
      "costumes": [
        "RogueIslesVillains_Dr_Eva_Lone"
      ]
    },
    {
      "level": 50,
      "experience": 0,
      "display_names": [
        "Dr. Eva Lone"
      ],
      "costumes": [
        "RogueIslesVillains_Dr_Eva_Lone"
      ]
    },
    {
      "level": 51,
      "experience": 0,
      "display_names": [
        "Dr. Eva Lone"
      ],
      "costumes": [
        "RogueIslesVillains_Dr_Eva_Lone"
      ]
    },
    {
      "level": 52,
      "experience": 0,
      "display_names": [
        "Dr. Eva Lone"
      ],
      "costumes": [
        "RogueIslesVillains_Dr_Eva_Lone"
      ]
    },
    {
      "level": 53,
      "experience": 0,
      "display_names": [
        "Dr. Eva Lone"
      ],
      "costumes": [
        "RogueIslesVillains_Dr_Eva_Lone"
      ]
    },
    {
      "level": 54,
      "experience": 0,
      "display_names": [
        "Dr. Eva Lone"
      ],
      "costumes": [
        "RogueIslesVillains_Dr_Eva_Lone"
      ]
    }
  ]
}