{
  "name": "Romans_Cyclops_Boss",
  "gender": "GENDER_MALE",
  "description": "Captured in the hills of Cimerora and brought to the gladiatorial pits, the Cyclops fights for no other purpose but to kill and maim. There are rumors that it has the blood of an Incarnate flowing through its veins, but none has claimed it as their own.",
  "group_description": null,
  "display_class_name": null,
  "character_class_name": "boss_grunt",
  "ai_config": "Default_Melee",
  "commandable_pet": false,
  "power_tags": [
    "Humanoid",
    "HumanSkeleton"
  ],
  "additional_rewards": [

  ],
  "skill_hp_rewards": [

  ],
  "skill_status_rewards": [

  ],
  "ally": null,
  "gang": null,
  "reward_scale": 1.0,
  "game_exclusion": "None",
  "inactive_state_weapon": null,
  "ignores_combat_mods": false,
  "copy_creator_mods": false,
  "spawn_limit": 0,
  "spawn_limit_mission": 0,
  "ignore_av_to_eb_scaling": true,
  "can_zone": false,
  "custom_badge_stat": null,
  "badge_stat_flags": "DefaultBadgeStat",
  "rank": "VR_BOSS",
  "power_full_names": [
    "Romans.Cyclops.Jab",
    "Romans.Cyclops.Punch",
    "Romans.Cyclops.Hurl",
    "Romans.Cyclops.Resistance",
    "Romans.Cyclops.Haymaker",
    "Romans.Cyclops.Hand_Clap",
    "Romans.Cyclops.Unyielding",
    "Romans.Cyclops.Knockout_Blow",
    "Romans.Cyclops.Foot_Stomp",
    "Romans.Cyclops.Unstoppable"
  ],
  "power_display_names": [
    "Jab",
    "Punch",
    "Hurl",
    "Resistance",
    "Haymaker",
    "Hand Clap",
    "Unyielding",
    "Knockout Blow",
    "Foot Stomp",
    "Unstoppable"
  ],
  "power_levels": [
    0,
    0,
    0,
    0,
    0,
    0,
    0,
    0,
    0,
    0
  ],
  "powers": [
    {
      "power_category": "Romans",
      "power_set": "Cyclops",
      "power": "*",
      "level": 0
    }
  ],
  "levels": [
    {
      "level": 35,
      "experience": 0,
      "display_names": [
        "Cyclops"
      ],
      "costumes": [
        "Roman_Cyclops_01"
      ]
    },
    {
      "level": 36,
      "experience": 0,
      "display_names": [
        "Cyclops"
      ],
      "costumes": [
        "Roman_Cyclops_01"
      ]
    },
    {
      "level": 37,
      "experience": 0,
      "display_names": [
        "Cyclops"
      ],
      "costumes": [
        "Roman_Cyclops_01"
      ]
    },
    {
      "level": 38,
      "experience": 0,
      "display_names": [
        "Cyclops"
      ],
      "costumes": [
        "Roman_Cyclops_01"
      ]
    },
    {
      "level": 39,
      "experience": 0,
      "display_names": [
        "Cyclops"
      ],
      "costumes": [
        "Roman_Cyclops_01"
      ]
    },
    {
      "level": 40,
      "experience": 0,
      "display_names": [
        "Cyclops"
      ],
      "costumes": [
        "Roman_Cyclops_01"
      ]
    },
    {
      "level": 41,
      "experience": 0,
      "display_names": [
        "Cyclops"
      ],
      "costumes": [
        "Roman_Cyclops_01"
      ]
    },
    {
      "level": 42,
      "experience": 0,
      "display_names": [
        "Cyclops"
      ],
      "costumes": [
        "Roman_Cyclops_01"
      ]
    },
    {
      "level": 43,
      "experience": 0,
      "display_names": [
        "Cyclops"
      ],
      "costumes": [
        "Roman_Cyclops_01"
      ]
    },
    {
      "level": 44,
      "experience": 0,
      "display_names": [
        "Cyclops"
      ],
      "costumes": [
        "Roman_Cyclops_01"
      ]
    },
    {
      "level": 45,
      "experience": 0,
      "display_names": [
        "Cyclops"
      ],
      "costumes": [
        "Roman_Cyclops_01"
      ]
    },
    {
      "level": 46,
      "experience": 0,
      "display_names": [
        "Cyclops"
      ],
      "costumes": [
        "Roman_Cyclops_01"
      ]
    },
    {
      "level": 47,
      "experience": 0,
      "display_names": [
        "Cyclops"
      ],
      "costumes": [
        "Roman_Cyclops_01"
      ]
    },
    {
      "level": 48,
      "experience": 0,
      "display_names": [
        "Cyclops"
      ],
      "costumes": [
        "Roman_Cyclops_01"
      ]
    },
    {
      "level": 49,
      "experience": 0,
      "display_names": [
        "Cyclops"
      ],
      "costumes": [
        "Roman_Cyclops_01"
      ]
    },
    {
      "level": 50,
      "experience": 0,
      "display_names": [
        "Cyclops"
      ],
      "costumes": [
        "Roman_Cyclops_01"
      ]
    },
    {
      "level": 51,
      "experience": 0,
      "display_names": [
        "Cyclops"
      ],
      "costumes": [
        "Roman_Cyclops_01"
      ]
    },
    {
      "level": 52,
      "experience": 0,
      "display_names": [
        "Cyclops"
      ],
      "costumes": [
        "Roman_Cyclops_01"
      ]
    },
    {
      "level": 53,
      "experience": 0,
      "display_names": [
        "Cyclops"
      ],
      "costumes": [
        "Roman_Cyclops_01"
      ]
    },
    {
      "level": 54,
      "experience": 0,
      "display_names": [
        "Cyclops"
      ],
      "costumes": [
        "Roman_Cyclops_01"
      ]
    }
  ]
}