{
  "name": "Romans_Engineer",
  "gender": "GENDER_MALE",
  "description": "The tactics of the Engineer have been honed through countless battles. They function as a secondary team amongst the Centurions and Legionarii, performing quick strikes to the weakest points in their enemies armor.",
  "group_description": null,
  "display_class_name": null,
  "character_class_name": "minion_grunt",
  "ai_config": "Romans",
  "commandable_pet": false,
  "power_tags": [
    "Humanoid",
    "HumanSkeleton"
  ],
  "additional_rewards": [

  ],
  "skill_hp_rewards": [

  ],
  "skill_status_rewards": [

  ],
  "ally": null,
  "gang": null,
  "reward_scale": 1.0,
  "game_exclusion": "None",
  "inactive_state_weapon": null,
  "ignores_combat_mods": false,
  "copy_creator_mods": false,
  "spawn_limit": 1,
  "spawn_limit_mission": 1,
  "ignore_av_to_eb_scaling": false,
  "can_zone": false,
  "custom_badge_stat": null,
  "badge_stat_flags": "DefaultBadgeStat",
  "rank": "VR_MINION",
  "power_full_names": [
    "Romans.Engineer.Phalanx_Fighting",
    "Romans.Engineer.Push_Back",
    "Romans.Engineer.Frag_Grenade"
  ],
  "power_display_names": [
    "Phalanx Fighting",
    "Push Back",
    "Frag Grenade"
  ],
  "power_levels": [
    0,
    0,
    0
  ],
  "powers": [
    {
      "power_category": "Romans",
      "power_set": "Engineer",
      "power": "Phalanx_Fighting",
      "level": 0
    },
    {
      "power_category": "Romans",
      "power_set": "Engineer",
      "power": "Push_Back",
      "level": 0
    },
    {
      "power_category": "Romans",
      "power_set": "Engineer",
      "power": "Frag_Grenade",
      "level": 0
    }
  ],
  "levels": [
    {
      "level": 35,
      "experience": 0,
      "display_names": [
        "Immunes Engineer"
      ],
      "costumes": [
        "Roman_Spartan_Minion_Male_01",
        "Roman_Spartan_Minion_Male_02",
        "Roman_Spartan_Minion_Male_03",
        "Roman_Spartan_Minion_Male_04"
      ]
    },
    {
      "level": 36,
      "experience": 0,
      "display_names": [
        "Immunes Engineer"
      ],
      "costumes": [
        "Roman_Spartan_Minion_Male_01",
        "Roman_Spartan_Minion_Male_02",
        "Roman_Spartan_Minion_Male_03",
        "Roman_Spartan_Minion_Male_04"
      ]
    },
    {
      "level": 37,
      "experience": 0,
      "display_names": [
        "Immunes Engineer"
      ],
      "costumes": [
        "Roman_Spartan_Minion_Male_01",
        "Roman_Spartan_Minion_Male_02",
        "Roman_Spartan_Minion_Male_03",
        "Roman_Spartan_Minion_Male_04"
      ]
    },
    {
      "level": 38,
      "experience": 0,
      "display_names": [
        "Immunes Engineer"
      ],
      "costumes": [
        "Roman_Spartan_Minion_Male_01",
        "Roman_Spartan_Minion_Male_02",
        "Roman_Spartan_Minion_Male_03",
        "Roman_Spartan_Minion_Male_04"
      ]
    },
    {
      "level": 39,
      "experience": 0,
      "display_names": [
        "Immunes Engineer"
      ],
      "costumes": [
        "Roman_Spartan_Minion_Male_01",
        "Roman_Spartan_Minion_Male_02",
        "Roman_Spartan_Minion_Male_03",
        "Roman_Spartan_Minion_Male_04"
      ]
    },
    {
      "level": 40,
      "experience": 0,
      "display_names": [
        "Immunes Engineer"
      ],
      "costumes": [
        "Roman_Spartan_Minion_Male_01",
        "Roman_Spartan_Minion_Male_02",
        "Roman_Spartan_Minion_Male_03",
        "Roman_Spartan_Minion_Male_04"
      ]
    },
    {
      "level": 41,
      "experience": 0,
      "display_names": [
        "Immunes Engineer"
      ],
      "costumes": [
        "Roman_Spartan_Minion_Male_01",
        "Roman_Spartan_Minion_Male_02",
        "Roman_Spartan_Minion_Male_03",
        "Roman_Spartan_Minion_Male_04"
      ]
    },
    {
      "level": 42,
      "experience": 0,
      "display_names": [
        "Immunes Engineer"
      ],
      "costumes": [
        "Roman_Spartan_Minion_Male_01",
        "Roman_Spartan_Minion_Male_02",
        "Roman_Spartan_Minion_Male_03",
        "Roman_Spartan_Minion_Male_04"
      ]
    },
    {
      "level": 43,
      "experience": 0,
      "display_names": [
        "Immunes Engineer"
      ],
      "costumes": [
        "Roman_Spartan_Minion_Male_01",
        "Roman_Spartan_Minion_Male_02",
        "Roman_Spartan_Minion_Male_03",
        "Roman_Spartan_Minion_Male_04"
      ]
    },
    {
      "level": 44,
      "experience": 0,
      "display_names": [
        "Immunes Engineer"
      ],
      "costumes": [
        "Roman_Spartan_Minion_Male_01",
        "Roman_Spartan_Minion_Male_02",
        "Roman_Spartan_Minion_Male_03",
        "Roman_Spartan_Minion_Male_04"
      ]
    },
    {
      "level": 45,
      "experience": 0,
      "display_names": [
        "Immunes Engineer"
      ],
      "costumes": [
        "Roman_Spartan_Minion_Male_01",
        "Roman_Spartan_Minion_Male_02",
        "Roman_Spartan_Minion_Male_03",
        "Roman_Spartan_Minion_Male_04"
      ]
    },
    {
      "level": 46,
      "experience": 0,
      "display_names": [
        "Immunes Engineer"
      ],
      "costumes": [
        "Roman_Spartan_Minion_Male_01",
        "Roman_Spartan_Minion_Male_02",
        "Roman_Spartan_Minion_Male_03",
        "Roman_Spartan_Minion_Male_04"
      ]
    },
    {
      "level": 47,
      "experience": 0,
      "display_names": [
        "Immunes Engineer"
      ],
      "costumes": [
        "Roman_Spartan_Minion_Male_01",
        "Roman_Spartan_Minion_Male_02",
        "Roman_Spartan_Minion_Male_03",
        "Roman_Spartan_Minion_Male_04"
      ]
    },
    {
      "level": 48,
      "experience": 0,
      "display_names": [
        "Immunes Engineer"
      ],
      "costumes": [
        "Roman_Spartan_Minion_Male_01",
        "Roman_Spartan_Minion_Male_02",
        "Roman_Spartan_Minion_Male_03",
        "Roman_Spartan_Minion_Male_04"
      ]
    },
    {
      "level": 49,
      "experience": 0,
      "display_names": [
        "Immunes Engineer"
      ],
      "costumes": [
        "Roman_Spartan_Minion_Male_01",
        "Roman_Spartan_Minion_Male_02",
        "Roman_Spartan_Minion_Male_03",
        "Roman_Spartan_Minion_Male_04"
      ]
    },
    {
      "level": 50,
      "experience": 0,
      "display_names": [
        "Immunes Engineer"
      ],
      "costumes": [
        "Roman_Spartan_Minion_Male_01",
        "Roman_Spartan_Minion_Male_02",
        "Roman_Spartan_Minion_Male_03",
        "Roman_Spartan_Minion_Male_04"
      ]
    },
    {
      "level": 51,
      "experience": 0,
      "display_names": [
        "Immunes Engineer"
      ],
      "costumes": [
        "Roman_Spartan_Minion_Male_01",
        "Roman_Spartan_Minion_Male_02",
        "Roman_Spartan_Minion_Male_03",
        "Roman_Spartan_Minion_Male_04"
      ]
    },
    {
      "level": 52,
      "experience": 0,
      "display_names": [
        "Immunes Engineer"
      ],
      "costumes": [
        "Roman_Spartan_Minion_Male_01",
        "Roman_Spartan_Minion_Male_02",
        "Roman_Spartan_Minion_Male_03",
        "Roman_Spartan_Minion_Male_04"
      ]
    },
    {
      "level": 53,
      "experience": 0,
      "display_names": [
        "Immunes Engineer"
      ],
      "costumes": [
        "Roman_Spartan_Minion_Male_01",
        "Roman_Spartan_Minion_Male_02",
        "Roman_Spartan_Minion_Male_03",
        "Roman_Spartan_Minion_Male_04"
      ]
    },
    {
      "level": 54,
      "experience": 0,
      "display_names": [
        "Immunes Engineer"
      ],
      "costumes": [
        "Roman_Spartan_Minion_Male_01",
        "Roman_Spartan_Minion_Male_02",
        "Roman_Spartan_Minion_Male_03",
        "Roman_Spartan_Minion_Male_04"
      ]
    }
  ]
}