{
  "name": "Scrapyarders_Pet_Crazed_Demolitionist",
  "gender": "GENDER_MALE",
  "description": "These poor chumps think they've got a chance against the Cage Consortium. Sure their working conditions are atrocious. If most of them weren't former criminals and other troublemakers maybe they could have found better jobs in St. Martial or Grandville instead of this dump.",
  "group_description": null,
  "display_class_name": null,
  "character_class_name": "minion_pets",
  "ai_config": "Default_Melee",
  "commandable_pet": false,
  "power_tags": [
    "Humanoid",
    "HumanSkeleton"
  ],
  "additional_rewards": [

  ],
  "skill_hp_rewards": [

  ],
  "skill_status_rewards": [

  ],
  "ally": "Hero",
  "gang": null,
  "reward_scale": 1.0,
  "game_exclusion": "None",
  "inactive_state_weapon": null,
  "ignores_combat_mods": false,
  "copy_creator_mods": false,
  "spawn_limit": -1,
  "spawn_limit_mission": -1,
  "ignore_av_to_eb_scaling": false,
  "can_zone": false,
  "custom_badge_stat": null,
  "badge_stat_flags": "DefaultBadgeStat",
  "rank": "VR_PET",
  "power_full_names": [
    "V_Scrapyarders.Lt_Demolitionist.Jackhammer",
    "V_Scrapyarders.Lt_Demolitionist.Dynamite",
    "V_Scrapyarders.Lt_Demolitionist.Fire_Bomb"
  ],
  "power_display_names": [
    "Jackhammer",
    "Dynamite",
    "Fire Bomb"
  ],
  "power_levels": [
    0,
    0,
    0
  ],
  "powers": [
    {
      "power_category": "V_Scrapyarders",
      "power_set": "Lt_Demolitionist",
      "power": "*",
      "level": 0
    }
  ],
  "levels": [
    {
      "level": 20,
      "experience": 0,
      "display_names": [
        "Crazed Demolitionist"
      ],
      "costumes": [
        "Scrapyarder_Lieutenant_01",
        "Scrapyarder_Lieutenant_02",
        "Scrapyarder_Lieutenant_03",
        "Scrapyarder_Lieutenant_04",
        "Scrapyarder_Lieutenant_05"
      ]
    },
    {
      "level": 21,
      "experience": 0,
      "display_names": [
        "Crazed Demolitionist"
      ],
      "costumes": [
        "Scrapyarder_Lieutenant_01",
        "Scrapyarder_Lieutenant_02",
        "Scrapyarder_Lieutenant_03",
        "Scrapyarder_Lieutenant_04",
        "Scrapyarder_Lieutenant_05"
      ]
    },
    {
      "level": 22,
      "experience": 0,
      "display_names": [
        "Crazed Demolitionist"
      ],
      "costumes": [
        "Scrapyarder_Lieutenant_01",
        "Scrapyarder_Lieutenant_02",
        "Scrapyarder_Lieutenant_03",
        "Scrapyarder_Lieutenant_04",
        "Scrapyarder_Lieutenant_05"
      ]
    },
    {
      "level": 23,
      "experience": 0,
      "display_names": [
        "Crazed Demolitionist"
      ],
      "costumes": [
        "Scrapyarder_Lieutenant_01",
        "Scrapyarder_Lieutenant_02",
        "Scrapyarder_Lieutenant_03",
        "Scrapyarder_Lieutenant_04",
        "Scrapyarder_Lieutenant_05"
      ]
    },
    {
      "level": 24,
      "experience": 0,
      "display_names": [
        "Crazed Demolitionist"
      ],
      "costumes": [
        "Scrapyarder_Lieutenant_01",
        "Scrapyarder_Lieutenant_02",
        "Scrapyarder_Lieutenant_03",
        "Scrapyarder_Lieutenant_04",
        "Scrapyarder_Lieutenant_05"
      ]
    },
    {
      "level": 25,
      "experience": 0,
      "display_names": [
        "Crazed Demolitionist"
      ],
      "costumes": [
        "Scrapyarder_Lieutenant_01",
        "Scrapyarder_Lieutenant_02",
        "Scrapyarder_Lieutenant_03",
        "Scrapyarder_Lieutenant_04",
        "Scrapyarder_Lieutenant_05"
      ]
    },
    {
      "level": 26,
      "experience": 0,
      "display_names": [
        "Crazed Demolitionist"
      ],
      "costumes": [
        "Scrapyarder_Lieutenant_01",
        "Scrapyarder_Lieutenant_02",
        "Scrapyarder_Lieutenant_03",
        "Scrapyarder_Lieutenant_04",
        "Scrapyarder_Lieutenant_05"
      ]
    },
    {
      "level": 27,
      "experience": 0,
      "display_names": [
        "Crazed Demolitionist"
      ],
      "costumes": [
        "Scrapyarder_Lieutenant_01",
        "Scrapyarder_Lieutenant_02",
        "Scrapyarder_Lieutenant_03",
        "Scrapyarder_Lieutenant_04",
        "Scrapyarder_Lieutenant_05"
      ]
    },
    {
      "level": 28,
      "experience": 0,
      "display_names": [
        "Crazed Demolitionist"
      ],
      "costumes": [
        "Scrapyarder_Lieutenant_01",
        "Scrapyarder_Lieutenant_02",
        "Scrapyarder_Lieutenant_03",
        "Scrapyarder_Lieutenant_04",
        "Scrapyarder_Lieutenant_05"
      ]
    },
    {
      "level": 29,
      "experience": 0,
      "display_names": [
        "Crazed Demolitionist"
      ],
      "costumes": [
        "Scrapyarder_Lieutenant_01",
        "Scrapyarder_Lieutenant_02",
        "Scrapyarder_Lieutenant_03",
        "Scrapyarder_Lieutenant_04",
        "Scrapyarder_Lieutenant_05"
      ]
    },
    {
      "level": 30,
      "experience": 0,
      "display_names": [
        "Crazed Demolitionist"
      ],
      "costumes": [
        "Scrapyarder_Lieutenant_01",
        "Scrapyarder_Lieutenant_02",
        "Scrapyarder_Lieutenant_03",
        "Scrapyarder_Lieutenant_04",
        "Scrapyarder_Lieutenant_05"
      ]
    }
  ]
}