{
  "name": "Security_Guards_Officer_High",
  "gender": "GENDER_MALE",
  "description": "Working as a private security guard in a 'city of villains' must be a very tough job.",
  "group_description": null,
  "display_class_name": null,
  "character_class_name": "lt_grunt",
  "ai_config": "Default_Ranged",
  "commandable_pet": false,
  "power_tags": [
    "Humanoid",
    "HumanSkeleton"
  ],
  "additional_rewards": [

  ],
  "skill_hp_rewards": [

  ],
  "skill_status_rewards": [

  ],
  "ally": "Hero",
  "gang": null,
  "reward_scale": 1.0,
  "game_exclusion": "None",
  "inactive_state_weapon": null,
  "ignores_combat_mods": false,
  "copy_creator_mods": false,
  "spawn_limit": -1,
  "spawn_limit_mission": -1,
  "ignore_av_to_eb_scaling": false,
  "can_zone": false,
  "custom_badge_stat": null,
  "badge_stat_flags": "DefaultBadgeStat",
  "rank": "VR_LIEUTENANT",
  "power_full_names": [
    "V_Security_Guards.Security_Guard_Advanced_AssaultRifle.Single_Shot",
    "V_Security_Guards.Security_Guard_Advanced_AssaultRifle_Butt.Adv._AssaultRifle_Butt",
    "V_Security_Guards.Security_Guard_Grenade.Frag_Grenade",
    "V_Security_Guards.Security_Guard_Leadership_Tactics.Tactics"
  ],
  "power_display_names": [
    "Single Shot",
    "Adv. AssaultRifle Butt",
    "Frag Grenade",
    "Tactics"
  ],
  "power_levels": [
    0,
    0,
    0,
    0
  ],
  "powers": [
    {
      "power_category": "V_Security_Guards",
      "power_set": "Security_Guard_Advanced_AssaultRifle",
      "power": "*",
      "level": 0
    },
    {
      "power_category": "V_Security_Guards",
      "power_set": "Security_Guard_Advanced_AssaultRifle_Butt",
      "power": "*",
      "level": 0
    },
    {
      "power_category": "V_Security_Guards",
      "power_set": "Security_Guard_Grenade",
      "power": "*",
      "level": 0
    },
    {
      "power_category": "V_Security_Guards",
      "power_set": "Security_Guard_Leadership_Tactics",
      "power": "*",
      "level": 0
    }
  ],
  "levels": [
    {
      "level": 30,
      "experience": 0,
      "display_names": [
        "Private Security Officer"
      ],
      "costumes": [
        "Villain_Security_Officer_01",
        "Villain_Security_Officer_02",
        "Villain_Security_Officer_03",
        "Villain_Security_Officer_04"
      ]
    },
    {
      "level": 31,
      "experience": 0,
      "display_names": [
        "Private Security Officer"
      ],
      "costumes": [
        "Villain_Security_Officer_01",
        "Villain_Security_Officer_02",
        "Villain_Security_Officer_03",
        "Villain_Security_Officer_04"
      ]
    },
    {
      "level": 32,
      "experience": 0,
      "display_names": [
        "Private Security Officer"
      ],
      "costumes": [
        "Villain_Security_Officer_01",
        "Villain_Security_Officer_02",
        "Villain_Security_Officer_03",
        "Villain_Security_Officer_04"
      ]
    },
    {
      "level": 33,
      "experience": 0,
      "display_names": [
        "Private Security Officer"
      ],
      "costumes": [
        "Villain_Security_Officer_01",
        "Villain_Security_Officer_02",
        "Villain_Security_Officer_03",
        "Villain_Security_Officer_04"
      ]
    },
    {
      "level": 34,
      "experience": 0,
      "display_names": [
        "Private Security Officer"
      ],
      "costumes": [
        "Villain_Security_Officer_01",
        "Villain_Security_Officer_02",
        "Villain_Security_Officer_03",
        "Villain_Security_Officer_04"
      ]
    },
    {
      "level": 35,
      "experience": 0,
      "display_names": [
        "Private Security Officer"
      ],
      "costumes": [
        "Villain_Security_Officer_01",
        "Villain_Security_Officer_02",
        "Villain_Security_Officer_03",
        "Villain_Security_Officer_04"
      ]
    },
    {
      "level": 36,
      "experience": 0,
      "display_names": [
        "Private Security Officer"
      ],
      "costumes": [
        "Villain_Security_Officer_01",
        "Villain_Security_Officer_02",
        "Villain_Security_Officer_03",
        "Villain_Security_Officer_04"
      ]
    },
    {
      "level": 37,
      "experience": 0,
      "display_names": [
        "Private Security Officer"
      ],
      "costumes": [
        "Villain_Security_Officer_01",
        "Villain_Security_Officer_02",
        "Villain_Security_Officer_03",
        "Villain_Security_Officer_04"
      ]
    },
    {
      "level": 38,
      "experience": 0,
      "display_names": [
        "Private Security Officer"
      ],
      "costumes": [
        "Villain_Security_Officer_01",
        "Villain_Security_Officer_02",
        "Villain_Security_Officer_03",
        "Villain_Security_Officer_04"
      ]
    },
    {
      "level": 39,
      "experience": 0,
      "display_names": [
        "Private Security Officer"
      ],
      "costumes": [
        "Villain_Security_Officer_01",
        "Villain_Security_Officer_02",
        "Villain_Security_Officer_03",
        "Villain_Security_Officer_04"
      ]
    },
    {
      "level": 40,
      "experience": 0,
      "display_names": [
        "Private Security Officer"
      ],
      "costumes": [
        "Villain_Security_Officer_01",
        "Villain_Security_Officer_02",
        "Villain_Security_Officer_03",
        "Villain_Security_Officer_04"
      ]
    }
  ]
}