{
  "name": "ShadowHunter_P_Endgame_ShadowHunter",
  "gender": "GENDER_MALE",
  "description": "Infused with the fury of the Wild Hunt, Shadowhunter roams with his Pack, cutting down everything in his path. He loathes humanity for the most part and his alliance with Tyrant is an uneasy one at best. It is held together by the fact that Tyrant cares nothing for the wilderness and is happy to give it over to Shadowhunter. If Tyrant ever begins to strip the land for resources, things will quickly unravel.",
  "group_description": "Praetorians",
  "display_class_name": null,
  "character_class_name": "boss_praetorianarchvillain",
  "ai_config": "Signatures_Ranged",
  "commandable_pet": false,
  "power_tags": [
    "HumanSkeleton",
    "Human",
    "Raid",
    "Undead"
  ],
  "additional_rewards": [

  ],
  "skill_hp_rewards": [

  ],
  "skill_status_rewards": [

  ],
  "ally": null,
  "gang": null,
  "reward_scale": 1.0,
  "game_exclusion": "None",
  "inactive_state_weapon": null,
  "ignores_combat_mods": false,
  "copy_creator_mods": false,
  "spawn_limit": 0,
  "spawn_limit_mission": 0,
  "ignore_av_to_eb_scaling": false,
  "can_zone": false,
  "custom_badge_stat": "kills.ShadowHunter_ShadowHunter",
  "badge_stat_flags": "DefaultBadgeStat",
  "rank": "VR_ARCHVILLAIN",
  "power_full_names": [
    "GenericVillains.Scaling.HP_15_Dmg_4_Min_8",
    "GenericVillains.Supervillain_Resistance.Resistance",
    "Magisterium.Shadowhunter.Call_of_the_Pack",
    "Magisterium.Shadowhunter.Feeding_Frenzy",
    "Magisterium.Shadowhunter.Leader_of_the_Pack",
    "Magisterium.Shadowhunter.Grasp_of_the_Beyond",
    "Magisterium.Shadowhunter.Transform",
    "Magisterium.Shadowhunter.Netherworld_Empowerment",
    "Magisterium.Shadowhunter.Mercurial_Blow",
    "Magisterium.Shadowhunter.Precise_Strike",
    "Magisterium.Shadowhunter.Guarded_Spin",
    "Magisterium.Shadowhunter.Serpents_Reach",
    "Magisterium.Shadowhunter.Innocuous_Strikes",
    "Magisterium.Shadowhunter.Sky_Splitter",
    "Magisterium.Shadowhunter.Twilight_Grasp"
  ],
  "power_display_names": [
    "Scaling",
    "Resistance",
    "Call of the Pack",
    "Feeding Frenzy",
    "Leader of the Pack",
    "Grasp of the Beyond",
    "Transform",
    "Netherworld Empowerment",
    "Mercurial Blow",
    "Precise Strike",
    "Guarded Spin",
    "Serpent's Reach",
    "Innocuous Strikes",
    "Sky Splitter",
    "Twilight Grasp"
  ],
  "power_levels": [
    0,
    0,
    0,
    0,
    0,
    0,
    0,
    0,
    0,
    0,
    0,
    0,
    0,
    0,
    0
  ],
  "powers": [
    {
      "power_category": "GenericVillains",
      "power_set": "Scaling",
      "power": "HP_15_Dmg_4_Min_8",
      "level": 0
    },
    {
      "power_category": "GenericVillains",
      "power_set": "Supervillain_Resistance",
      "power": "Resistance",
      "level": 0
    },
    {
      "power_category": "Magisterium",
      "power_set": "Shadowhunter",
      "power": "*",
      "level": 0
    }
  ],
  "levels": [
    {
      "level": 54,
      "experience": 0,
      "display_names": [
        "Shadow Hunter"
      ],
      "costumes": [
        "NW_ShadowHunter_01"
      ]
    }
  ]
}