{
  "name": "ShadowHunter_Lieutenant",
  "gender": "GENDER_MALE",
  "description": "When the Pack has approved of an Omega, they are immediately protected and treated well. It is an instant transition with no going back. Once someone is Pack, death is the only thing that will break that.",
  "group_description": "Praetorians",
  "display_class_name": null,
  "character_class_name": "lt_grunt",
  "ai_config": "Default_Melee",
  "commandable_pet": false,
  "power_tags": [

  ],
  "additional_rewards": [

  ],
  "skill_hp_rewards": [

  ],
  "skill_status_rewards": [

  ],
  "ally": null,
  "gang": null,
  "reward_scale": 1.0,
  "game_exclusion": "None",
  "inactive_state_weapon": null,
  "ignores_combat_mods": false,
  "copy_creator_mods": false,
  "spawn_limit": -1,
  "spawn_limit_mission": -1,
  "ignore_av_to_eb_scaling": false,
  "can_zone": false,
  "custom_badge_stat": null,
  "badge_stat_flags": "DefaultBadgeStat",
  "rank": "VR_LIEUTENANT",
  "power_full_names": [
    "Praetorians.Shadowhunter_Wolf.Claw_Swipe",
    "Praetorians.Shadowhunter_Wolf.Hurl",
    "Praetorians.Shadowhunter_Wolf.Wolf_Jumping",
    "Praetorians.Shadowhunter_Wolf.Resistance"
  ],
  "power_display_names": [
    "Claw Swipe",
    "Hurl",
    "Wolf Jumping",
    "Resistance"
  ],
  "power_levels": [
    0,
    0,
    0,
    0
  ],
  "powers": [
    {
      "power_category": "Praetorians",
      "power_set": "Shadowhunter_Wolf",
      "power": "*",
      "level": 0
    }
  ],
  "levels": [
    {
      "level": 40,
      "experience": 0,
      "display_names": [
        "Beta Wolf"
      ],
      "costumes": [
        "Council_Nightwolf_02"
      ]
    },
    {
      "level": 41,
      "experience": 0,
      "display_names": [
        "Beta Wolf"
      ],
      "costumes": [
        "Council_Nightwolf_02"
      ]
    },
    {
      "level": 42,
      "experience": 0,
      "display_names": [
        "Beta Wolf"
      ],
      "costumes": [
        "Council_Nightwolf_02"
      ]
    },
    {
      "level": 43,
      "experience": 0,
      "display_names": [
        "Beta Wolf"
      ],
      "costumes": [
        "Council_Nightwolf_02"
      ]
    },
    {
      "level": 44,
      "experience": 0,
      "display_names": [
        "Beta Wolf"
      ],
      "costumes": [
        "Council_Nightwolf_02"
      ]
    },
    {
      "level": 45,
      "experience": 0,
      "display_names": [
        "Beta Wolf"
      ],
      "costumes": [
        "Council_Nightwolf_02"
      ]
    },
    {
      "level": 46,
      "experience": 0,
      "display_names": [
        "Beta Wolf"
      ],
      "costumes": [
        "Council_Nightwolf_02"
      ]
    },
    {
      "level": 47,
      "experience": 0,
      "display_names": [
        "Beta Wolf"
      ],
      "costumes": [
        "Council_Nightwolf_02"
      ]
    },
    {
      "level": 48,
      "experience": 0,
      "display_names": [
        "Beta Wolf"
      ],
      "costumes": [
        "Council_Nightwolf_02"
      ]
    },
    {
      "level": 49,
      "experience": 0,
      "display_names": [
        "Beta Wolf"
      ],
      "costumes": [
        "Council_Nightwolf_02"
      ]
    },
    {
      "level": 50,
      "experience": 0,
      "display_names": [
        "Beta Wolf"
      ],
      "costumes": [
        "Council_Nightwolf_02"
      ]
    },
    {
      "level": 51,
      "experience": 0,
      "display_names": [
        "Beta Wolf"
      ],
      "costumes": [
        "Council_Nightwolf_02"
      ]
    },
    {
      "level": 52,
      "experience": 0,
      "display_names": [
        "Beta Wolf"
      ],
      "costumes": [
        "Council_Nightwolf_02"
      ]
    },
    {
      "level": 53,
      "experience": 0,
      "display_names": [
        "Beta Wolf"
      ],
      "costumes": [
        "Council_Nightwolf_02"
      ]
    },
    {
      "level": 54,
      "experience": 0,
      "display_names": [
        "Beta Wolf"
      ],
      "costumes": [
        "Council_Nightwolf_02"
      ]
    }
  ]
}