{
  "name": "Skulls_Petrovic_Chernobog",
  "gender": "GENDER_MALE",
  "description": "Bolek Petrovic is the youngest of the Petrovic brothers. As one of the Lords of Death he is a leader of the Skulls street gang in Paragon City. Like his brother he took the name of an ancient Slavic deity when he learned the black arts. Chernobog was known as 'The Black God' to the ancient Slavic tribes, and little is truly known of him. What is known of Bolek Petrovic, however, is that he is a merciless killer who possesses terrible strength.",
  "group_description": null,
  "display_class_name": null,
  "character_class_name": "boss_archvillain",
  "ai_config": "Default_Melee",
  "commandable_pet": false,
  "power_tags": [
    "HumanSkeleton",
    "Human"
  ],
  "additional_rewards": [

  ],
  "skill_hp_rewards": [

  ],
  "skill_status_rewards": [

  ],
  "ally": null,
  "gang": null,
  "reward_scale": 1.0,
  "game_exclusion": "None",
  "inactive_state_weapon": null,
  "ignores_combat_mods": false,
  "copy_creator_mods": false,
  "spawn_limit": -1,
  "spawn_limit_mission": -1,
  "ignore_av_to_eb_scaling": false,
  "can_zone": false,
  "custom_badge_stat": null,
  "badge_stat_flags": "DefaultBadgeStat",
  "rank": "VR_ARCHVILLAIN",
  "power_full_names": [
    "Skulls.Chernobog.Deadly_Cut",
    "Skulls.Chernobog.Deadly_Bolt",
    "Skulls.Chernobog.Deadly_Blast",
    "Skulls.Chernobog.Deadly_Hack",
    "Skulls.Chernobog.Deadly_Circle",
    "Skulls.Chernobog.Terrifying_Stare",
    "Skulls.Chernobog.Boon_of_Death",
    "Skulls.Chernobog.Deaths_Embrace",
    "Skulls.Skulls_Inherent_Defense.Resistance_AV",
    "GenericVillains.AV_Resistance.AV_Resistance"
  ],
  "power_display_names": [
    "Deadly Smash",
    "Deadly Bolt",
    "Deadly Blast",
    "Deadly Crush",
    "Deadly Bash",
    "Terrifying Stare",
    "Boon of Death",
    "Death's Embrace",
    "Resistance AV",
    "Archvillain's Might"
  ],
  "power_levels": [
    0,
    0,
    0,
    0,
    0,
    0,
    0,
    0,
    0,
    0
  ],
  "powers": [
    {
      "power_category": "Skulls",
      "power_set": "Chernobog",
      "power": "*",
      "level": 0
    },
    {
      "power_category": "Skulls",
      "power_set": "Skulls_Inherent_Defense",
      "power": "Resistance_AV",
      "level": 0
    },
    {
      "power_category": "GenericVillains",
      "power_set": "AV_Resistance",
      "power": "*",
      "level": 0
    }
  ],
  "levels": [
    {
      "level": 7,
      "experience": 0,
      "display_names": [
        "Chernobog"
      ],
      "costumes": [
        "Thug_Skull_AV_Petrovic_Chernobog"
      ]
    },
    {
      "level": 8,
      "experience": 0,
      "display_names": [
        "Chernobog"
      ],
      "costumes": [
        "Thug_Skull_AV_Petrovic_Chernobog"
      ]
    },
    {
      "level": 9,
      "experience": 0,
      "display_names": [
        "Chernobog"
      ],
      "costumes": [
        "Thug_Skull_AV_Petrovic_Chernobog"
      ]
    },
    {
      "level": 10,
      "experience": 0,
      "display_names": [
        "Chernobog"
      ],
      "costumes": [
        "Thug_Skull_AV_Petrovic_Chernobog"
      ]
    },
    {
      "level": 11,
      "experience": 0,
      "display_names": [
        "Chernobog"
      ],
      "costumes": [
        "Thug_Skull_AV_Petrovic_Chernobog"
      ]
    },
    {
      "level": 12,
      "experience": 0,
      "display_names": [
        "Chernobog"
      ],
      "costumes": [
        "Thug_Skull_AV_Petrovic_Chernobog"
      ]
    },
    {
      "level": 13,
      "experience": 0,
      "display_names": [
        "Chernobog"
      ],
      "costumes": [
        "Thug_Skull_AV_Petrovic_Chernobog"
      ]
    },
    {
      "level": 14,
      "experience": 0,
      "display_names": [
        "Chernobog"
      ],
      "costumes": [
        "Thug_Skull_AV_Petrovic_Chernobog"
      ]
    },
    {
      "level": 15,
      "experience": 0,
      "display_names": [
        "Chernobog"
      ],
      "costumes": [
        "Thug_Skull_AV_Petrovic_Chernobog"
      ]
    },
    {
      "level": 16,
      "experience": 0,
      "display_names": [
        "Chernobog"
      ],
      "costumes": [
        "Thug_Skull_AV_Petrovic_Chernobog"
      ]
    },
    {
      "level": 17,
      "experience": 0,
      "display_names": [
        "Chernobog"
      ],
      "costumes": [
        "Thug_Skull_AV_Petrovic_Chernobog"
      ]
    },
    {
      "level": 18,
      "experience": 0,
      "display_names": [
        "Chernobog"
      ],
      "costumes": [
        "Thug_Skull_AV_Petrovic_Chernobog"
      ]
    },
    {
      "level": 19,
      "experience": 0,
      "display_names": [
        "Chernobog"
      ],
      "costumes": [
        "Thug_Skull_AV_Petrovic_Chernobog"
      ]
    },
    {
      "level": 20,
      "experience": 0,
      "display_names": [
        "Chernobog"
      ],
      "costumes": [
        "Thug_Skull_AV_Petrovic_Chernobog"
      ]
    },
    {
      "level": 21,
      "experience": 0,
      "display_names": [
        "Chernobog"
      ],
      "costumes": [
        "Thug_Skull_AV_Petrovic_Chernobog"
      ]
    },
    {
      "level": 22,
      "experience": 0,
      "display_names": [
        "Chernobog"
      ],
      "costumes": [
        "Thug_Skull_AV_Petrovic_Chernobog"
      ]
    },
    {
      "level": 23,
      "experience": 0,
      "display_names": [
        "Chernobog"
      ],
      "costumes": [
        "Thug_Skull_AV_Petrovic_Chernobog"
      ]
    },
    {
      "level": 24,
      "experience": 0,
      "display_names": [
        "Chernobog"
      ],
      "costumes": [
        "Thug_Skull_AV_Petrovic_Chernobog"
      ]
    }
  ]
}