{
  "name": "Skulls_SubmachineGun_Lieutenant",
  "gender": "GENDER_MALE",
  "description": "The Death Heads are proven leaders in the Skulls - utter nihilists who worship death in the hopes of eventually defying it. These bloodthirsty, cold-blooded killers are armed to the teeth and resistant to any kind of negative energy attacks.",
  "group_description": null,
  "display_class_name": null,
  "character_class_name": "lt_grunt",
  "ai_config": "Default_Ranged",
  "commandable_pet": false,
  "power_tags": [
    "HumanSkeleton",
    "Human"
  ],
  "additional_rewards": [

  ],
  "skill_hp_rewards": [

  ],
  "skill_status_rewards": [

  ],
  "ally": null,
  "gang": null,
  "reward_scale": 1.0,
  "game_exclusion": "None",
  "inactive_state_weapon": null,
  "ignores_combat_mods": false,
  "copy_creator_mods": false,
  "spawn_limit": -1,
  "spawn_limit_mission": -1,
  "ignore_av_to_eb_scaling": false,
  "can_zone": false,
  "custom_badge_stat": null,
  "badge_stat_flags": "DefaultBadgeStat",
  "rank": "VR_LIEUTENANT",
  "power_full_names": [
    "Skulls.Skulls_Lt_SubmachineGun.Submachine_Gun",
    "Skulls.Skulls_Inherent_Defense.Resistance"
  ],
  "power_display_names": [
    "Submachine Gun",
    "Resistance"
  ],
  "power_levels": [
    0,
    0
  ],
  "powers": [
    {
      "power_category": "Skulls",
      "power_set": "Skulls_Lt_SubmachineGun",
      "power": "*",
      "level": 0
    },
    {
      "power_category": "Skulls",
      "power_set": "Skulls_Inherent_Defense",
      "power": "Resistance",
      "level": 0
    }
  ],
  "levels": [
    {
      "level": 1,
      "experience": 0,
      "display_names": [
        "Death Head Gunner"
      ],
      "costumes": [
        "Thug_Skull_Male_Lieutenant_01",
        "Thug_Skull_Male_Lieutenant_02",
        "Thug_Skull_Male_Lieutenant_03",
        "Thug_Skull_Male_Lieutenant_04",
        "Thug_Skull_Male_Lieutenant_05",
        "Thug_Skull_Male_Lieutenant_06",
        "Thug_Skull_Male_Lieutenant_07",
        "Thug_Skull_Male_Lieutenant_08",
        "Thug_Skull_Male_Lieutenant_09"
      ]
    },
    {
      "level": 2,
      "experience": 0,
      "display_names": [
        "Death Head Gunner"
      ],
      "costumes": [
        "Thug_Skull_Male_Lieutenant_01",
        "Thug_Skull_Male_Lieutenant_02",
        "Thug_Skull_Male_Lieutenant_03",
        "Thug_Skull_Male_Lieutenant_04",
        "Thug_Skull_Male_Lieutenant_05",
        "Thug_Skull_Male_Lieutenant_06",
        "Thug_Skull_Male_Lieutenant_07",
        "Thug_Skull_Male_Lieutenant_08",
        "Thug_Skull_Male_Lieutenant_09"
      ]
    },
    {
      "level": 3,
      "experience": 0,
      "display_names": [
        "Death Head Gunner"
      ],
      "costumes": [
        "Thug_Skull_Male_Lieutenant_01",
        "Thug_Skull_Male_Lieutenant_02",
        "Thug_Skull_Male_Lieutenant_03",
        "Thug_Skull_Male_Lieutenant_04",
        "Thug_Skull_Male_Lieutenant_05",
        "Thug_Skull_Male_Lieutenant_06",
        "Thug_Skull_Male_Lieutenant_07",
        "Thug_Skull_Male_Lieutenant_08",
        "Thug_Skull_Male_Lieutenant_09"
      ]
    },
    {
      "level": 4,
      "experience": 0,
      "display_names": [
        "Death Head Gunner"
      ],
      "costumes": [
        "Thug_Skull_Male_Lieutenant_01",
        "Thug_Skull_Male_Lieutenant_02",
        "Thug_Skull_Male_Lieutenant_03",
        "Thug_Skull_Male_Lieutenant_04",
        "Thug_Skull_Male_Lieutenant_05",
        "Thug_Skull_Male_Lieutenant_06",
        "Thug_Skull_Male_Lieutenant_07",
        "Thug_Skull_Male_Lieutenant_08",
        "Thug_Skull_Male_Lieutenant_09"
      ]
    },
    {
      "level": 5,
      "experience": 0,
      "display_names": [
        "Death Head Gunner"
      ],
      "costumes": [
        "Thug_Skull_Male_Lieutenant_01",
        "Thug_Skull_Male_Lieutenant_02",
        "Thug_Skull_Male_Lieutenant_03",
        "Thug_Skull_Male_Lieutenant_04",
        "Thug_Skull_Male_Lieutenant_05",
        "Thug_Skull_Male_Lieutenant_06",
        "Thug_Skull_Male_Lieutenant_07",
        "Thug_Skull_Male_Lieutenant_08",
        "Thug_Skull_Male_Lieutenant_09"
      ]
    },
    {
      "level": 6,
      "experience": 0,
      "display_names": [
        "Death Head Gunner"
      ],
      "costumes": [
        "Thug_Skull_Male_Lieutenant_01",
        "Thug_Skull_Male_Lieutenant_02",
        "Thug_Skull_Male_Lieutenant_03",
        "Thug_Skull_Male_Lieutenant_04",
        "Thug_Skull_Male_Lieutenant_05",
        "Thug_Skull_Male_Lieutenant_06",
        "Thug_Skull_Male_Lieutenant_07",
        "Thug_Skull_Male_Lieutenant_08",
        "Thug_Skull_Male_Lieutenant_09"
      ]
    },
    {
      "level": 7,
      "experience": 0,
      "display_names": [
        "Death Head Gunner"
      ],
      "costumes": [
        "Thug_Skull_Male_Lieutenant_01",
        "Thug_Skull_Male_Lieutenant_02",
        "Thug_Skull_Male_Lieutenant_03",
        "Thug_Skull_Male_Lieutenant_04",
        "Thug_Skull_Male_Lieutenant_05",
        "Thug_Skull_Male_Lieutenant_06",
        "Thug_Skull_Male_Lieutenant_07",
        "Thug_Skull_Male_Lieutenant_08",
        "Thug_Skull_Male_Lieutenant_09"
      ]
    },
    {
      "level": 8,
      "experience": 0,
      "display_names": [
        "Death Head Gunner"
      ],
      "costumes": [
        "Thug_Skull_Male_Lieutenant_01",
        "Thug_Skull_Male_Lieutenant_02",
        "Thug_Skull_Male_Lieutenant_03",
        "Thug_Skull_Male_Lieutenant_04",
        "Thug_Skull_Male_Lieutenant_05",
        "Thug_Skull_Male_Lieutenant_06",
        "Thug_Skull_Male_Lieutenant_07",
        "Thug_Skull_Male_Lieutenant_08",
        "Thug_Skull_Male_Lieutenant_09"
      ]
    },
    {
      "level": 9,
      "experience": 0,
      "display_names": [
        "Death Head Gunner"
      ],
      "costumes": [
        "Thug_Skull_Male_Lieutenant_01",
        "Thug_Skull_Male_Lieutenant_02",
        "Thug_Skull_Male_Lieutenant_03",
        "Thug_Skull_Male_Lieutenant_04",
        "Thug_Skull_Male_Lieutenant_05",
        "Thug_Skull_Male_Lieutenant_06",
        "Thug_Skull_Male_Lieutenant_07",
        "Thug_Skull_Male_Lieutenant_08",
        "Thug_Skull_Male_Lieutenant_09"
      ]
    },
    {
      "level": 10,
      "experience": 0,
      "display_names": [
        "Death Head Gunner"
      ],
      "costumes": [
        "Thug_Skull_Male_Lieutenant_01",
        "Thug_Skull_Male_Lieutenant_02",
        "Thug_Skull_Male_Lieutenant_03",
        "Thug_Skull_Male_Lieutenant_04",
        "Thug_Skull_Male_Lieutenant_05",
        "Thug_Skull_Male_Lieutenant_06",
        "Thug_Skull_Male_Lieutenant_07",
        "Thug_Skull_Male_Lieutenant_08",
        "Thug_Skull_Male_Lieutenant_09"
      ]
    },
    {
      "level": 11,
      "experience": 0,
      "display_names": [
        "Death Head Gunner"
      ],
      "costumes": [
        "Thug_Skull_Male_Lieutenant_01",
        "Thug_Skull_Male_Lieutenant_02",
        "Thug_Skull_Male_Lieutenant_03",
        "Thug_Skull_Male_Lieutenant_04",
        "Thug_Skull_Male_Lieutenant_05",
        "Thug_Skull_Male_Lieutenant_06",
        "Thug_Skull_Male_Lieutenant_07",
        "Thug_Skull_Male_Lieutenant_08",
        "Thug_Skull_Male_Lieutenant_09"
      ]
    },
    {
      "level": 12,
      "experience": 0,
      "display_names": [
        "Death Head Gunner"
      ],
      "costumes": [
        "Thug_Skull_Male_Lieutenant_01",
        "Thug_Skull_Male_Lieutenant_02",
        "Thug_Skull_Male_Lieutenant_03",
        "Thug_Skull_Male_Lieutenant_04",
        "Thug_Skull_Male_Lieutenant_05",
        "Thug_Skull_Male_Lieutenant_06",
        "Thug_Skull_Male_Lieutenant_07",
        "Thug_Skull_Male_Lieutenant_08",
        "Thug_Skull_Male_Lieutenant_09"
      ]
    },
    {
      "level": 13,
      "experience": 0,
      "display_names": [
        "Death Head Gunner"
      ],
      "costumes": [
        "Thug_Skull_Male_Lieutenant_01",
        "Thug_Skull_Male_Lieutenant_02",
        "Thug_Skull_Male_Lieutenant_03",
        "Thug_Skull_Male_Lieutenant_04",
        "Thug_Skull_Male_Lieutenant_05",
        "Thug_Skull_Male_Lieutenant_06",
        "Thug_Skull_Male_Lieutenant_07",
        "Thug_Skull_Male_Lieutenant_08",
        "Thug_Skull_Male_Lieutenant_09"
      ]
    },
    {
      "level": 14,
      "experience": 0,
      "display_names": [
        "Death Head Gunner"
      ],
      "costumes": [
        "Thug_Skull_Male_Lieutenant_01",
        "Thug_Skull_Male_Lieutenant_02",
        "Thug_Skull_Male_Lieutenant_03",
        "Thug_Skull_Male_Lieutenant_04",
        "Thug_Skull_Male_Lieutenant_05",
        "Thug_Skull_Male_Lieutenant_06",
        "Thug_Skull_Male_Lieutenant_07",
        "Thug_Skull_Male_Lieutenant_08",
        "Thug_Skull_Male_Lieutenant_09"
      ]
    },
    {
      "level": 15,
      "experience": 0,
      "display_names": [
        "Death Head Gunner"
      ],
      "costumes": [
        "Thug_Skull_Male_Lieutenant_01",
        "Thug_Skull_Male_Lieutenant_02",
        "Thug_Skull_Male_Lieutenant_03",
        "Thug_Skull_Male_Lieutenant_04",
        "Thug_Skull_Male_Lieutenant_05",
        "Thug_Skull_Male_Lieutenant_06",
        "Thug_Skull_Male_Lieutenant_07",
        "Thug_Skull_Male_Lieutenant_08",
        "Thug_Skull_Male_Lieutenant_09"
      ]
    },
    {
      "level": 16,
      "experience": 0,
      "display_names": [
        "Death Head Gunner"
      ],
      "costumes": [
        "Thug_Skull_Male_Lieutenant_01",
        "Thug_Skull_Male_Lieutenant_02",
        "Thug_Skull_Male_Lieutenant_03",
        "Thug_Skull_Male_Lieutenant_04",
        "Thug_Skull_Male_Lieutenant_05",
        "Thug_Skull_Male_Lieutenant_06",
        "Thug_Skull_Male_Lieutenant_07",
        "Thug_Skull_Male_Lieutenant_08",
        "Thug_Skull_Male_Lieutenant_09"
      ]
    },
    {
      "level": 17,
      "experience": 0,
      "display_names": [
        "Death Head Gunner"
      ],
      "costumes": [
        "Thug_Skull_Male_Lieutenant_01",
        "Thug_Skull_Male_Lieutenant_02",
        "Thug_Skull_Male_Lieutenant_03",
        "Thug_Skull_Male_Lieutenant_04",
        "Thug_Skull_Male_Lieutenant_05",
        "Thug_Skull_Male_Lieutenant_06",
        "Thug_Skull_Male_Lieutenant_07",
        "Thug_Skull_Male_Lieutenant_08",
        "Thug_Skull_Male_Lieutenant_09"
      ]
    },
    {
      "level": 18,
      "experience": 0,
      "display_names": [
        "Death Head Gunner"
      ],
      "costumes": [
        "Thug_Skull_Male_Lieutenant_01",
        "Thug_Skull_Male_Lieutenant_02",
        "Thug_Skull_Male_Lieutenant_03",
        "Thug_Skull_Male_Lieutenant_04",
        "Thug_Skull_Male_Lieutenant_05",
        "Thug_Skull_Male_Lieutenant_06",
        "Thug_Skull_Male_Lieutenant_07",
        "Thug_Skull_Male_Lieutenant_08",
        "Thug_Skull_Male_Lieutenant_09"
      ]
    },
    {
      "level": 19,
      "experience": 0,
      "display_names": [
        "Death Head Gunner"
      ],
      "costumes": [
        "Thug_Skull_Male_Lieutenant_01",
        "Thug_Skull_Male_Lieutenant_02",
        "Thug_Skull_Male_Lieutenant_03",
        "Thug_Skull_Male_Lieutenant_04",
        "Thug_Skull_Male_Lieutenant_05",
        "Thug_Skull_Male_Lieutenant_06",
        "Thug_Skull_Male_Lieutenant_07",
        "Thug_Skull_Male_Lieutenant_08",
        "Thug_Skull_Male_Lieutenant_09"
      ]
    },
    {
      "level": 20,
      "experience": 0,
      "display_names": [
        "Death Head Gunner"
      ],
      "costumes": [
        "Thug_Skull_Male_Lieutenant_01",
        "Thug_Skull_Male_Lieutenant_02",
        "Thug_Skull_Male_Lieutenant_03",
        "Thug_Skull_Male_Lieutenant_04",
        "Thug_Skull_Male_Lieutenant_05",
        "Thug_Skull_Male_Lieutenant_06",
        "Thug_Skull_Male_Lieutenant_07",
        "Thug_Skull_Male_Lieutenant_08",
        "Thug_Skull_Male_Lieutenant_09"
      ]
    },
    {
      "level": 21,
      "experience": 0,
      "display_names": [
        "Death Head Gunner"
      ],
      "costumes": [
        "Thug_Skull_Male_Lieutenant_01",
        "Thug_Skull_Male_Lieutenant_02",
        "Thug_Skull_Male_Lieutenant_03",
        "Thug_Skull_Male_Lieutenant_04",
        "Thug_Skull_Male_Lieutenant_05",
        "Thug_Skull_Male_Lieutenant_06",
        "Thug_Skull_Male_Lieutenant_07",
        "Thug_Skull_Male_Lieutenant_08",
        "Thug_Skull_Male_Lieutenant_09"
      ]
    },
    {
      "level": 22,
      "experience": 0,
      "display_names": [
        "Death Head Gunner"
      ],
      "costumes": [
        "Thug_Skull_Male_Lieutenant_01",
        "Thug_Skull_Male_Lieutenant_02",
        "Thug_Skull_Male_Lieutenant_03",
        "Thug_Skull_Male_Lieutenant_04",
        "Thug_Skull_Male_Lieutenant_05",
        "Thug_Skull_Male_Lieutenant_06",
        "Thug_Skull_Male_Lieutenant_07",
        "Thug_Skull_Male_Lieutenant_08",
        "Thug_Skull_Male_Lieutenant_09"
      ]
    },
    {
      "level": 23,
      "experience": 0,
      "display_names": [
        "Death Head Gunner"
      ],
      "costumes": [
        "Thug_Skull_Male_Lieutenant_01",
        "Thug_Skull_Male_Lieutenant_02",
        "Thug_Skull_Male_Lieutenant_03",
        "Thug_Skull_Male_Lieutenant_04",
        "Thug_Skull_Male_Lieutenant_05",
        "Thug_Skull_Male_Lieutenant_06",
        "Thug_Skull_Male_Lieutenant_07",
        "Thug_Skull_Male_Lieutenant_08",
        "Thug_Skull_Male_Lieutenant_09"
      ]
    },
    {
      "level": 24,
      "experience": 0,
      "display_names": [
        "Death Head Gunner"
      ],
      "costumes": [
        "Thug_Skull_Male_Lieutenant_01",
        "Thug_Skull_Male_Lieutenant_02",
        "Thug_Skull_Male_Lieutenant_03",
        "Thug_Skull_Male_Lieutenant_04",
        "Thug_Skull_Male_Lieutenant_05",
        "Thug_Skull_Male_Lieutenant_06",
        "Thug_Skull_Male_Lieutenant_07",
        "Thug_Skull_Male_Lieutenant_08",
        "Thug_Skull_Male_Lieutenant_09"
      ]
    }
  ]
}