{
  "name": "SkyRaiders_Porter",
  "gender": "GENDER_MALE",
  "description": "Because they have a relatively small number of men, the Sky Raiders rely on speed and maneuverability to win battles. No one is faster than the Porters, special forces who can teleport directly into or out of battle, allowing them to strike where the enemy's weakest and retreat from dire situations.",
  "group_description": null,
  "display_class_name": null,
  "character_class_name": "minion_grunt",
  "ai_config": "SkyRaiders_Porter",
  "commandable_pet": false,
  "power_tags": [
    "HumanSkeleton",
    "Human"
  ],
  "additional_rewards": [

  ],
  "skill_hp_rewards": [

  ],
  "skill_status_rewards": [

  ],
  "ally": null,
  "gang": null,
  "reward_scale": 1.0,
  "game_exclusion": "None",
  "inactive_state_weapon": null,
  "ignores_combat_mods": false,
  "copy_creator_mods": false,
  "spawn_limit": -1,
  "spawn_limit_mission": -1,
  "ignore_av_to_eb_scaling": false,
  "can_zone": false,
  "custom_badge_stat": null,
  "badge_stat_flags": "DefaultBadgeStat",
  "rank": "VR_MINION",
  "power_full_names": [
    "SkyRaiders.Sky_Raider_Wings_Porter_Melee.Brawl",
    "SkyRaiders.Sky_Raider_Wings_Porter_Melee.Machete",
    "SkyRaiders.Sky_Raider_SubmachineGun.Adv_Sub_Machine_Gun",
    "SkyRaiders.Sky_Raider_Porters_Movement.Teleport"
  ],
  "power_display_names": [
    "Brawl",
    "Machete",
    "Adv Sub Machine Gun",
    "Teleport"
  ],
  "power_levels": [
    0,
    0,
    0,
    0
  ],
  "powers": [
    {
      "power_category": "SkyRaiders",
      "power_set": "Sky_Raider_Wings_Porter_Melee",
      "power": "*",
      "level": 0
    },
    {
      "power_category": "SkyRaiders",
      "power_set": "Sky_Raider_SubmachineGun",
      "power": "*",
      "level": 0
    },
    {
      "power_category": "SkyRaiders",
      "power_set": "Sky_Raider_Porters_Movement",
      "power": "*",
      "level": 0
    }
  ],
  "levels": [
    {
      "level": 23,
      "experience": 0,
      "display_names": [
        "Porter"
      ],
      "costumes": [
        "Sky_Raiders_04"
      ]
    },
    {
      "level": 24,
      "experience": 0,
      "display_names": [
        "Porter"
      ],
      "costumes": [
        "Sky_Raiders_04"
      ]
    },
    {
      "level": 25,
      "experience": 0,
      "display_names": [
        "Porter"
      ],
      "costumes": [
        "Sky_Raiders_04"
      ]
    },
    {
      "level": 26,
      "experience": 0,
      "display_names": [
        "Porter"
      ],
      "costumes": [
        "Sky_Raiders_04"
      ]
    },
    {
      "level": 27,
      "experience": 0,
      "display_names": [
        "Porter"
      ],
      "costumes": [
        "Sky_Raiders_04"
      ]
    },
    {
      "level": 28,
      "experience": 0,
      "display_names": [
        "Porter"
      ],
      "costumes": [
        "Sky_Raiders_04"
      ]
    },
    {
      "level": 29,
      "experience": 0,
      "display_names": [
        "Porter"
      ],
      "costumes": [
        "Sky_Raiders_04"
      ]
    },
    {
      "level": 30,
      "experience": 0,
      "display_names": [
        "Porter"
      ],
      "costumes": [
        "Sky_Raiders_04"
      ]
    },
    {
      "level": 31,
      "experience": 0,
      "display_names": [
        "Porter"
      ],
      "costumes": [
        "Sky_Raiders_04"
      ]
    },
    {
      "level": 32,
      "experience": 0,
      "display_names": [
        "Porter"
      ],
      "costumes": [
        "Sky_Raiders_04"
      ]
    },
    {
      "level": 33,
      "experience": 0,
      "display_names": [
        "Porter"
      ],
      "costumes": [
        "Sky_Raiders_04"
      ]
    },
    {
      "level": 34,
      "experience": 0,
      "display_names": [
        "Porter"
      ],
      "costumes": [
        "Sky_Raiders_04"
      ]
    },
    {
      "level": 35,
      "experience": 0,
      "display_names": [
        "Porter"
      ],
      "costumes": [
        "Sky_Raiders_04"
      ]
    }
  ]
}