{
  "name": "Snakes_Elder_Viper",
  "gender": "GENDER_MALE",
  "description": "These Elder Snakes are vastly more powerful versions of the regular Snakes who inhabit Mercy Island. They are spawned from the mighty Snake goddess Stheno herself!",
  "group_description": null,
  "display_class_name": null,
  "character_class_name": "minion_grunt",
  "ai_config": "Default_Melee",
  "commandable_pet": false,
  "power_tags": [

  ],
  "additional_rewards": [

  ],
  "skill_hp_rewards": [

  ],
  "skill_status_rewards": [

  ],
  "ally": null,
  "gang": null,
  "reward_scale": 1.0,
  "game_exclusion": "None",
  "inactive_state_weapon": null,
  "ignores_combat_mods": false,
  "copy_creator_mods": false,
  "spawn_limit": -1,
  "spawn_limit_mission": -1,
  "ignore_av_to_eb_scaling": false,
  "can_zone": false,
  "custom_badge_stat": null,
  "badge_stat_flags": "DefaultBadgeStat",
  "rank": "VR_MINION",
  "power_full_names": [
    "V_Snakes.Resistance.Resistance",
    "V_Snakes.Snakes_Speed.Quick",
    "V_Snakes.Elder_Viper.Stab",
    "V_Snakes.Elder_Viper.Venomous_Spit",
    "V_Snakes.Elder_Viper.Poison_Bite"
  ],
  "power_display_names": [
    "Resistance",
    "Quick",
    "Stab",
    "Venomous Spit",
    "Poison Bite"
  ],
  "power_levels": [
    0,
    0,
    0,
    0,
    0
  ],
  "powers": [
    {
      "power_category": "V_Snakes",
      "power_set": "Resistance",
      "power": "*",
      "level": 0
    },
    {
      "power_category": "V_Snakes",
      "power_set": "Snakes_Speed",
      "power": "*",
      "level": 0
    },
    {
      "power_category": "V_Snakes",
      "power_set": "Elder_Viper",
      "power": "*",
      "level": 0
    }
  ],
  "levels": [
    {
      "level": 46,
      "experience": 0,
      "display_names": [
        "Elder Viper"
      ],
      "costumes": [
        "Children_of_Stheno_Minion",
        "Children_of_Stheno_Minion_02"
      ]
    },
    {
      "level": 47,
      "experience": 0,
      "display_names": [
        "Elder Viper"
      ],
      "costumes": [
        "Children_of_Stheno_Minion",
        "Children_of_Stheno_Minion_02"
      ]
    },
    {
      "level": 48,
      "experience": 0,
      "display_names": [
        "Elder Viper"
      ],
      "costumes": [
        "Children_of_Stheno_Minion",
        "Children_of_Stheno_Minion_02"
      ]
    },
    {
      "level": 49,
      "experience": 0,
      "display_names": [
        "Elder Viper"
      ],
      "costumes": [
        "Children_of_Stheno_Minion",
        "Children_of_Stheno_Minion_02"
      ]
    },
    {
      "level": 50,
      "experience": 0,
      "display_names": [
        "Elder Viper"
      ],
      "costumes": [
        "Children_of_Stheno_Minion",
        "Children_of_Stheno_Minion_02"
      ]
    },
    {
      "level": 51,
      "experience": 0,
      "display_names": [
        "Elder Viper"
      ],
      "costumes": [
        "Children_of_Stheno_Minion",
        "Children_of_Stheno_Minion_02"
      ]
    },
    {
      "level": 52,
      "experience": 0,
      "display_names": [
        "Elder Viper"
      ],
      "costumes": [
        "Children_of_Stheno_Minion",
        "Children_of_Stheno_Minion_02"
      ]
    }
  ]
}