{
  "name": "Snakes_Lt_Mamba_Sword_VHigh",
  "gender": "GENDER_MALE",
  "description": "Rumor has it that that Snakes are what's left of the long-vanished Children of Enos, the Mu cult that originally discovered the Rogue Isles. Or perhaps they were here before the Children fled the French authorities, and gobbled up the unfortunate refugees who tried to hide here on Mercy Island.",
  "group_description": null,
  "display_class_name": null,
  "character_class_name": "lt_grunt",
  "ai_config": "Default_Melee",
  "commandable_pet": false,
  "power_tags": [

  ],
  "additional_rewards": [

  ],
  "skill_hp_rewards": [

  ],
  "skill_status_rewards": [

  ],
  "ally": null,
  "gang": null,
  "reward_scale": 1.0,
  "game_exclusion": "None",
  "inactive_state_weapon": null,
  "ignores_combat_mods": false,
  "copy_creator_mods": false,
  "spawn_limit": -1,
  "spawn_limit_mission": -1,
  "ignore_av_to_eb_scaling": false,
  "can_zone": false,
  "custom_badge_stat": null,
  "badge_stat_flags": "DefaultBadgeStat",
  "rank": "VR_LIEUTENANT",
  "power_full_names": [
    "V_Snakes.Resistance.Resistance",
    "V_Snakes.Resilience.Resilience",
    "V_Snakes.Snakes_Lt_Sword.Hack",
    "V_Snakes.Lt_Mamba_3_Daggers.Throwing_Daggers",
    "V_Snakes.Snakes_Spit.Venomous_Spit",
    "V_Snakes.Snakes_Speed.Quick",
    "V_Snakes.Snakes_Lt_Heal.Regenerate"
  ],
  "power_display_names": [
    "Resistance",
    "Resilience",
    "Hack",
    "Throwing Daggers",
    "Venomous Spit",
    "Quick",
    "Regenerate"
  ],
  "power_levels": [
    0,
    0,
    0,
    0,
    0,
    0,
    0
  ],
  "powers": [
    {
      "power_category": "V_Snakes",
      "power_set": "Resistance",
      "power": "*",
      "level": 0
    },
    {
      "power_category": "V_Snakes",
      "power_set": "Resilience",
      "power": "*",
      "level": 0
    },
    {
      "power_category": "V_Snakes",
      "power_set": "Snakes_Lt_Sword",
      "power": "*",
      "level": 0
    },
    {
      "power_category": "V_Snakes",
      "power_set": "Lt_Mamba_3_Daggers",
      "power": "*",
      "level": 0
    },
    {
      "power_category": "V_Snakes",
      "power_set": "Snakes_Spit",
      "power": "*",
      "level": 0
    },
    {
      "power_category": "V_Snakes",
      "power_set": "Snakes_Speed",
      "power": "*",
      "level": 0
    },
    {
      "power_category": "V_Snakes",
      "power_set": "Snakes_Lt_Heal",
      "power": "*",
      "level": 0
    }
  ],
  "levels": [
    {
      "level": 20,
      "experience": 0,
      "display_names": [
        "Mamba Blade"
      ],
      "costumes": [
        "Snakeman_Lieutenant_01",
        "Snakeman_Lieutenant_02",
        "Snakeman_Lieutenant_03"
      ]
    },
    {
      "level": 21,
      "experience": 0,
      "display_names": [
        "Mamba Blade"
      ],
      "costumes": [
        "Snakeman_Lieutenant_01",
        "Snakeman_Lieutenant_02",
        "Snakeman_Lieutenant_03"
      ]
    },
    {
      "level": 22,
      "experience": 0,
      "display_names": [
        "Mamba Blade"
      ],
      "costumes": [
        "Snakeman_Lieutenant_01",
        "Snakeman_Lieutenant_02",
        "Snakeman_Lieutenant_03"
      ]
    },
    {
      "level": 23,
      "experience": 0,
      "display_names": [
        "Mamba Blade"
      ],
      "costumes": [
        "Snakeman_Lieutenant_01",
        "Snakeman_Lieutenant_02",
        "Snakeman_Lieutenant_03"
      ]
    },
    {
      "level": 24,
      "experience": 0,
      "display_names": [
        "Mamba Blade"
      ],
      "costumes": [
        "Snakeman_Lieutenant_01",
        "Snakeman_Lieutenant_02",
        "Snakeman_Lieutenant_03"
      ]
    },
    {
      "level": 25,
      "experience": 0,
      "display_names": [
        "Mamba Blade"
      ],
      "costumes": [
        "Snakeman_Lieutenant_01",
        "Snakeman_Lieutenant_02",
        "Snakeman_Lieutenant_03"
      ]
    },
    {
      "level": 26,
      "experience": 0,
      "display_names": [
        "Mamba Blade"
      ],
      "costumes": [
        "Snakeman_Lieutenant_01",
        "Snakeman_Lieutenant_02",
        "Snakeman_Lieutenant_03"
      ]
    },
    {
      "level": 27,
      "experience": 0,
      "display_names": [
        "Mamba Blade"
      ],
      "costumes": [
        "Snakeman_Lieutenant_01",
        "Snakeman_Lieutenant_02",
        "Snakeman_Lieutenant_03"
      ]
    },
    {
      "level": 28,
      "experience": 0,
      "display_names": [
        "Mamba Blade"
      ],
      "costumes": [
        "Snakeman_Lieutenant_01",
        "Snakeman_Lieutenant_02",
        "Snakeman_Lieutenant_03"
      ]
    },
    {
      "level": 29,
      "experience": 0,
      "display_names": [
        "Mamba Blade"
      ],
      "costumes": [
        "Snakeman_Lieutenant_01",
        "Snakeman_Lieutenant_02",
        "Snakeman_Lieutenant_03"
      ]
    },
    {
      "level": 30,
      "experience": 0,
      "display_names": [
        "Mamba Blade"
      ],
      "costumes": [
        "Snakeman_Lieutenant_01",
        "Snakeman_Lieutenant_02",
        "Snakeman_Lieutenant_03"
      ]
    },
    {
      "level": 31,
      "experience": 0,
      "display_names": [
        "Mamba Blade"
      ],
      "costumes": [
        "Snakeman_Lieutenant_01",
        "Snakeman_Lieutenant_02",
        "Snakeman_Lieutenant_03"
      ]
    },
    {
      "level": 32,
      "experience": 0,
      "display_names": [
        "Mamba Blade"
      ],
      "costumes": [
        "Snakeman_Lieutenant_01",
        "Snakeman_Lieutenant_02",
        "Snakeman_Lieutenant_03"
      ]
    },
    {
      "level": 33,
      "experience": 0,
      "display_names": [
        "Mamba Blade"
      ],
      "costumes": [
        "Snakeman_Lieutenant_01",
        "Snakeman_Lieutenant_02",
        "Snakeman_Lieutenant_03"
      ]
    },
    {
      "level": 34,
      "experience": 0,
      "display_names": [
        "Mamba Blade"
      ],
      "costumes": [
        "Snakeman_Lieutenant_01",
        "Snakeman_Lieutenant_02",
        "Snakeman_Lieutenant_03"
      ]
    }
  ]
}