{
  "name": "StormElementals_Storm_Elemental_Lt",
  "gender": "GENDER_MALE",
  "description": "From a distance, the Storm Elementals are a beautiful sight. At close range, however, they're a serious threat. Their Endurance-draining attacks can cripple their foes, and their ion strikes can disorient heroes, leaving them defenseless.",
  "group_description": "Lanaruu",
  "display_class_name": null,
  "character_class_name": "lt_grunt",
  "ai_config": "Default_Ranged",
  "commandable_pet": false,
  "power_tags": [

  ],
  "additional_rewards": [

  ],
  "skill_hp_rewards": [

  ],
  "skill_status_rewards": [

  ],
  "ally": null,
  "gang": null,
  "reward_scale": 1.0,
  "game_exclusion": "None",
  "inactive_state_weapon": null,
  "ignores_combat_mods": false,
  "copy_creator_mods": false,
  "spawn_limit": -1,
  "spawn_limit_mission": -1,
  "ignore_av_to_eb_scaling": false,
  "can_zone": false,
  "custom_badge_stat": null,
  "badge_stat_flags": "DefaultBadgeStat",
  "rank": "VR_LIEUTENANT",
  "power_full_names": [
    "Rularuu.Elementals.Resistance",
    "Rularuu.Elementals.Fly",
    "Rularuu.Elementals.Ion_Field",
    "Rularuu.Elementals.Ion_Blast",
    "Rularuu.Elementals_Lt_Boss.Ion_Burst",
    "Rularuu.Elementals_Lt_Boss.Ion_Strike"
  ],
  "power_display_names": [
    "Resistance",
    "Fly",
    "Ion Field",
    "Ion Blast",
    "Ion Burst",
    "Ion Strike"
  ],
  "power_levels": [
    0,
    0,
    0,
    0,
    0,
    0
  ],
  "powers": [
    {
      "power_category": "Rularuu",
      "power_set": "Elementals",
      "power": "*",
      "level": 0
    },
    {
      "power_category": "Rularuu",
      "power_set": "Elementals_Lt_Boss",
      "power": "*",
      "level": 0
    }
  ],
  "levels": [
    {
      "level": 41,
      "experience": 0,
      "display_names": [
        "Tempest Elemental"
      ],
      "costumes": [
        "Rularuu_Storm_02"
      ]
    },
    {
      "level": 42,
      "experience": 0,
      "display_names": [
        "Tempest Elemental"
      ],
      "costumes": [
        "Rularuu_Storm_02"
      ]
    },
    {
      "level": 43,
      "experience": 0,
      "display_names": [
        "Tempest Elemental"
      ],
      "costumes": [
        "Rularuu_Storm_02"
      ]
    },
    {
      "level": 44,
      "experience": 0,
      "display_names": [
        "Tempest Elemental"
      ],
      "costumes": [
        "Rularuu_Storm_02"
      ]
    },
    {
      "level": 45,
      "experience": 0,
      "display_names": [
        "Tempest Elemental"
      ],
      "costumes": [
        "Rularuu_Storm_02"
      ]
    },
    {
      "level": 46,
      "experience": 0,
      "display_names": [
        "Tempest Elemental"
      ],
      "costumes": [
        "Rularuu_Storm_02"
      ]
    },
    {
      "level": 47,
      "experience": 0,
      "display_names": [
        "Tempest Elemental"
      ],
      "costumes": [
        "Rularuu_Storm_02"
      ]
    },
    {
      "level": 48,
      "experience": 0,
      "display_names": [
        "Tempest Elemental"
      ],
      "costumes": [
        "Rularuu_Storm_02"
      ]
    },
    {
      "level": 49,
      "experience": 0,
      "display_names": [
        "Tempest Elemental"
      ],
      "costumes": [
        "Rularuu_Storm_02"
      ]
    },
    {
      "level": 50,
      "experience": 0,
      "display_names": [
        "Tempest Elemental"
      ],
      "costumes": [
        "Rularuu_Storm_02"
      ]
    },
    {
      "level": 51,
      "experience": 0,
      "display_names": [
        "Tempest Elemental"
      ],
      "costumes": [
        "Rularuu_Storm_02"
      ]
    },
    {
      "level": 52,
      "experience": 0,
      "display_names": [
        "Tempest Elemental"
      ],
      "costumes": [
        "Rularuu_Storm_02"
      ]
    },
    {
      "level": 53,
      "experience": 0,
      "display_names": [
        "Tempest Elemental"
      ],
      "costumes": [
        "Rularuu_Storm_02"
      ]
    },
    {
      "level": 54,
      "experience": 0,
      "display_names": [
        "Tempest Elemental"
      ],
      "costumes": [
        "Rularuu_Storm_02"
      ]
    }
  ]
}