{
  "name": "Syndicate_Wu_Yin",
  "gender": "GENDER_MALE",
  "description": "Mega Corp titan and CEO of Yin Corp, Mr. Yin is a household name. In the wake of the Hamidon Wars, Mr. Yin's hard work ethic galvanized his workers, forming the world spanning Yin Corp in a matter of a few short years. Invaluable in the reconstruction efforts, Mr. Yin enjoys a privileged life along with his daughter and heiress to the corporate throne, Penelope Yin.",
  "group_description": null,
  "display_class_name": null,
  "character_class_name": "boss_elite",
  "ai_config": "Default_Range",
  "commandable_pet": false,
  "power_tags": [
    "Human",
    "HumanSkeleton"
  ],
  "additional_rewards": [

  ],
  "skill_hp_rewards": [

  ],
  "skill_status_rewards": [

  ],
  "ally": null,
  "gang": null,
  "reward_scale": 1.0,
  "game_exclusion": "None",
  "inactive_state_weapon": null,
  "ignores_combat_mods": false,
  "copy_creator_mods": false,
  "spawn_limit": 0,
  "spawn_limit_mission": 0,
  "ignore_av_to_eb_scaling": false,
  "can_zone": false,
  "custom_badge_stat": null,
  "badge_stat_flags": "DefaultBadgeStat",
  "rank": "VR_ELITE",
  "power_full_names": [
    "Syndicate.Boss_Suit.Resistance",
    "Syndicate.Boss_Suit.Psionic_Dart",
    "Syndicate.Boss_Suit.Psychic_Scream",
    "Syndicate.Boss_Suit.Mesmerize",
    "Syndicate.Boss_Suit.Dominate",
    "Syndicate.Boss_Suit.Aura_of_Empowerment"
  ],
  "power_display_names": [
    "Resistance",
    "Psionic Dart",
    "Psychic Scream",
    "Mesmerize",
    "Dominate",
    "Aura of Empowerment"
  ],
  "power_levels": [
    0,
    0,
    0,
    0,
    0,
    0
  ],
  "powers": [
    {
      "power_category": "Syndicate",
      "power_set": "Boss_Suit",
      "power": "*",
      "level": 0
    }
  ],
  "levels": [
    {
      "level": 1,
      "experience": 0,
      "display_names": [
        "Wu Yin"
      ],
      "costumes": [
        "Syndicate_Mr_Yin_01"
      ]
    },
    {
      "level": 2,
      "experience": 0,
      "display_names": [
        "Wu Yin"
      ],
      "costumes": [
        "Syndicate_Mr_Yin_01"
      ]
    },
    {
      "level": 3,
      "experience": 0,
      "display_names": [
        "Wu Yin"
      ],
      "costumes": [
        "Syndicate_Mr_Yin_01"
      ]
    },
    {
      "level": 4,
      "experience": 0,
      "display_names": [
        "Wu Yin"
      ],
      "costumes": [
        "Syndicate_Mr_Yin_01"
      ]
    },
    {
      "level": 5,
      "experience": 0,
      "display_names": [
        "Wu Yin"
      ],
      "costumes": [
        "Syndicate_Mr_Yin_01"
      ]
    },
    {
      "level": 6,
      "experience": 0,
      "display_names": [
        "Wu Yin"
      ],
      "costumes": [
        "Syndicate_Mr_Yin_01"
      ]
    },
    {
      "level": 7,
      "experience": 0,
      "display_names": [
        "Wu Yin"
      ],
      "costumes": [
        "Syndicate_Mr_Yin_01"
      ]
    },
    {
      "level": 8,
      "experience": 0,
      "display_names": [
        "Wu Yin"
      ],
      "costumes": [
        "Syndicate_Mr_Yin_01"
      ]
    },
    {
      "level": 9,
      "experience": 0,
      "display_names": [
        "Wu Yin"
      ],
      "costumes": [
        "Syndicate_Mr_Yin_01"
      ]
    },
    {
      "level": 10,
      "experience": 0,
      "display_names": [
        "Wu Yin"
      ],
      "costumes": [
        "Syndicate_Mr_Yin_01"
      ]
    },
    {
      "level": 11,
      "experience": 0,
      "display_names": [
        "Wu Yin"
      ],
      "costumes": [
        "Syndicate_Mr_Yin_01"
      ]
    },
    {
      "level": 12,
      "experience": 0,
      "display_names": [
        "Wu Yin"
      ],
      "costumes": [
        "Syndicate_Mr_Yin_01"
      ]
    },
    {
      "level": 13,
      "experience": 0,
      "display_names": [
        "Wu Yin"
      ],
      "costumes": [
        "Syndicate_Mr_Yin_01"
      ]
    },
    {
      "level": 14,
      "experience": 0,
      "display_names": [
        "Wu Yin"
      ],
      "costumes": [
        "Syndicate_Mr_Yin_01"
      ]
    },
    {
      "level": 15,
      "experience": 0,
      "display_names": [
        "Wu Yin"
      ],
      "costumes": [
        "Syndicate_Mr_Yin_01"
      ]
    },
    {
      "level": 16,
      "experience": 0,
      "display_names": [
        "Wu Yin"
      ],
      "costumes": [
        "Syndicate_Mr_Yin_01"
      ]
    },
    {
      "level": 17,
      "experience": 0,
      "display_names": [
        "Wu Yin"
      ],
      "costumes": [
        "Syndicate_Mr_Yin_01"
      ]
    },
    {
      "level": 18,
      "experience": 0,
      "display_names": [
        "Wu Yin"
      ],
      "costumes": [
        "Syndicate_Mr_Yin_01"
      ]
    },
    {
      "level": 19,
      "experience": 0,
      "display_names": [
        "Wu Yin"
      ],
      "costumes": [
        "Syndicate_Mr_Yin_01"
      ]
    },
    {
      "level": 20,
      "experience": 0,
      "display_names": [
        "Wu Yin"
      ],
      "costumes": [
        "Syndicate_Mr_Yin_01"
      ]
    },
    {
      "level": 21,
      "experience": 0,
      "display_names": [
        "Wu Yin"
      ],
      "costumes": [
        "Syndicate_Mr_Yin_01"
      ]
    },
    {
      "level": 22,
      "experience": 0,
      "display_names": [
        "Wu Yin"
      ],
      "costumes": [
        "Syndicate_Mr_Yin_01"
      ]
    },
    {
      "level": 23,
      "experience": 0,
      "display_names": [
        "Wu Yin"
      ],
      "costumes": [
        "Syndicate_Mr_Yin_01"
      ]
    },
    {
      "level": 24,
      "experience": 0,
      "display_names": [
        "Wu Yin"
      ],
      "costumes": [
        "Syndicate_Mr_Yin_01"
      ]
    }
  ]
}