{
  "name": "Syndicate_Weak_Blades_Initiate",
  "gender": "GENDER_MALE",
  "description": "The Syndicate has survived by recruiting only those with at least some psychic potential. The initiates are the bottom rung of Syndicate ladder, they have yet to prove themselves and ascend to the ranks of Adept.",
  "group_description": null,
  "display_class_name": null,
  "character_class_name": "minion_grunt",
  "ai_config": "Default_Melee",
  "commandable_pet": false,
  "power_tags": [
    "Human",
    "HumanSkeleton"
  ],
  "additional_rewards": [

  ],
  "skill_hp_rewards": [

  ],
  "skill_status_rewards": [

  ],
  "ally": null,
  "gang": null,
  "reward_scale": 0.0,
  "game_exclusion": "None",
  "inactive_state_weapon": null,
  "ignores_combat_mods": false,
  "copy_creator_mods": false,
  "spawn_limit": 0,
  "spawn_limit_mission": 0,
  "ignore_av_to_eb_scaling": false,
  "can_zone": false,
  "custom_badge_stat": null,
  "badge_stat_flags": "DefaultBadgeStat",
  "rank": "VR_MINION",
  "power_full_names": [
    "Syndicate.Minion_Weakness.Resistance",
    "Syndicate.Minion_Burst.Burst_Low",
    "Syndicate.Minion_Burst.Burst",
    "Syndicate.Minion_DualKnives.Gamblers_Cut",
    "Syndicate.Minion_DualKnives.Gamblers_Cut_High"
  ],
  "power_display_names": [
    "Resistance",
    "Burst",
    "Burst",
    "Gambler's Cut",
    "Gambler's Cut High"
  ],
  "power_levels": [
    0,
    0,
    0,
    0,
    0
  ],
  "powers": [
    {
      "power_category": "Syndicate",
      "power_set": "Minion_Weakness",
      "power": "*",
      "level": 0
    },
    {
      "power_category": "Syndicate",
      "power_set": "Minion_Burst",
      "power": "*",
      "level": 0
    },
    {
      "power_category": "Syndicate",
      "power_set": "Minion_DualKnives",
      "power": "*",
      "level": 0
    }
  ],
  "levels": [
    {
      "level": 1,
      "experience": 0,
      "display_names": [
        "Blade Initiate"
      ],
      "costumes": [
        "Syndicate_Initiates_Male_01",
        "Syndicate_Initiates_Male_02",
        "Syndicate_Initiates_Male_03",
        "Syndicate_Initiates_Male_04"
      ]
    },
    {
      "level": 2,
      "experience": 0,
      "display_names": [
        "Blade Initiate"
      ],
      "costumes": [
        "Syndicate_Initiates_Male_01",
        "Syndicate_Initiates_Male_02",
        "Syndicate_Initiates_Male_03",
        "Syndicate_Initiates_Male_04"
      ]
    },
    {
      "level": 3,
      "experience": 0,
      "display_names": [
        "Blade Initiate"
      ],
      "costumes": [
        "Syndicate_Initiates_Male_01",
        "Syndicate_Initiates_Male_02",
        "Syndicate_Initiates_Male_03",
        "Syndicate_Initiates_Male_04"
      ]
    },
    {
      "level": 4,
      "experience": 0,
      "display_names": [
        "Blade Initiate"
      ],
      "costumes": [
        "Syndicate_Initiates_Male_01",
        "Syndicate_Initiates_Male_02",
        "Syndicate_Initiates_Male_03",
        "Syndicate_Initiates_Male_04"
      ]
    },
    {
      "level": 5,
      "experience": 0,
      "display_names": [
        "Blade Initiate"
      ],
      "costumes": [
        "Syndicate_Initiates_Male_01",
        "Syndicate_Initiates_Male_02",
        "Syndicate_Initiates_Male_03",
        "Syndicate_Initiates_Male_04"
      ]
    },
    {
      "level": 6,
      "experience": 0,
      "display_names": [
        "Blade Initiate"
      ],
      "costumes": [
        "Syndicate_Initiates_Male_01",
        "Syndicate_Initiates_Male_02",
        "Syndicate_Initiates_Male_03",
        "Syndicate_Initiates_Male_04"
      ]
    },
    {
      "level": 7,
      "experience": 0,
      "display_names": [
        "Blade Initiate"
      ],
      "costumes": [
        "Syndicate_Initiates_Male_01",
        "Syndicate_Initiates_Male_02",
        "Syndicate_Initiates_Male_03",
        "Syndicate_Initiates_Male_04"
      ]
    },
    {
      "level": 8,
      "experience": 0,
      "display_names": [
        "Blade Initiate"
      ],
      "costumes": [
        "Syndicate_Initiates_Male_01",
        "Syndicate_Initiates_Male_02",
        "Syndicate_Initiates_Male_03",
        "Syndicate_Initiates_Male_04"
      ]
    },
    {
      "level": 9,
      "experience": 0,
      "display_names": [
        "Blade Initiate"
      ],
      "costumes": [
        "Syndicate_Initiates_Male_01",
        "Syndicate_Initiates_Male_02",
        "Syndicate_Initiates_Male_03",
        "Syndicate_Initiates_Male_04"
      ]
    },
    {
      "level": 10,
      "experience": 0,
      "display_names": [
        "Blade Initiate"
      ],
      "costumes": [
        "Syndicate_Initiates_Male_01",
        "Syndicate_Initiates_Male_02",
        "Syndicate_Initiates_Male_03",
        "Syndicate_Initiates_Male_04"
      ]
    },
    {
      "level": 11,
      "experience": 0,
      "display_names": [
        "Blade Initiate"
      ],
      "costumes": [
        "Syndicate_Initiates_Male_01",
        "Syndicate_Initiates_Male_02",
        "Syndicate_Initiates_Male_03",
        "Syndicate_Initiates_Male_04"
      ]
    },
    {
      "level": 12,
      "experience": 0,
      "display_names": [
        "Blade Initiate"
      ],
      "costumes": [
        "Syndicate_Initiates_Male_01",
        "Syndicate_Initiates_Male_02",
        "Syndicate_Initiates_Male_03",
        "Syndicate_Initiates_Male_04"
      ]
    },
    {
      "level": 13,
      "experience": 0,
      "display_names": [
        "Blade Initiate"
      ],
      "costumes": [
        "Syndicate_Initiates_Male_01",
        "Syndicate_Initiates_Male_02",
        "Syndicate_Initiates_Male_03",
        "Syndicate_Initiates_Male_04"
      ]
    },
    {
      "level": 14,
      "experience": 0,
      "display_names": [
        "Blade Initiate"
      ],
      "costumes": [
        "Syndicate_Initiates_Male_01",
        "Syndicate_Initiates_Male_02",
        "Syndicate_Initiates_Male_03",
        "Syndicate_Initiates_Male_04"
      ]
    },
    {
      "level": 15,
      "experience": 0,
      "display_names": [
        "Blade Initiate"
      ],
      "costumes": [
        "Syndicate_Initiates_Male_01",
        "Syndicate_Initiates_Male_02",
        "Syndicate_Initiates_Male_03",
        "Syndicate_Initiates_Male_04"
      ]
    },
    {
      "level": 16,
      "experience": 0,
      "display_names": [
        "Blade Initiate"
      ],
      "costumes": [
        "Syndicate_Initiates_Male_01",
        "Syndicate_Initiates_Male_02",
        "Syndicate_Initiates_Male_03",
        "Syndicate_Initiates_Male_04"
      ]
    },
    {
      "level": 17,
      "experience": 0,
      "display_names": [
        "Blade Initiate"
      ],
      "costumes": [
        "Syndicate_Initiates_Male_01",
        "Syndicate_Initiates_Male_02",
        "Syndicate_Initiates_Male_03",
        "Syndicate_Initiates_Male_04"
      ]
    },
    {
      "level": 18,
      "experience": 0,
      "display_names": [
        "Blade Initiate"
      ],
      "costumes": [
        "Syndicate_Initiates_Male_01",
        "Syndicate_Initiates_Male_02",
        "Syndicate_Initiates_Male_03",
        "Syndicate_Initiates_Male_04"
      ]
    },
    {
      "level": 19,
      "experience": 0,
      "display_names": [
        "Blade Initiate"
      ],
      "costumes": [
        "Syndicate_Initiates_Male_01",
        "Syndicate_Initiates_Male_02",
        "Syndicate_Initiates_Male_03",
        "Syndicate_Initiates_Male_04"
      ]
    },
    {
      "level": 20,
      "experience": 0,
      "display_names": [
        "Blade Initiate"
      ],
      "costumes": [
        "Syndicate_Initiates_Male_01",
        "Syndicate_Initiates_Male_02",
        "Syndicate_Initiates_Male_03",
        "Syndicate_Initiates_Male_04"
      ]
    },
    {
      "level": 21,
      "experience": 0,
      "display_names": [
        "Blade Initiate"
      ],
      "costumes": [
        "Syndicate_Initiates_Male_01",
        "Syndicate_Initiates_Male_02",
        "Syndicate_Initiates_Male_03",
        "Syndicate_Initiates_Male_04"
      ]
    },
    {
      "level": 22,
      "experience": 0,
      "display_names": [
        "Blade Initiate"
      ],
      "costumes": [
        "Syndicate_Initiates_Male_01",
        "Syndicate_Initiates_Male_02",
        "Syndicate_Initiates_Male_03",
        "Syndicate_Initiates_Male_04"
      ]
    },
    {
      "level": 23,
      "experience": 0,
      "display_names": [
        "Blade Initiate"
      ],
      "costumes": [
        "Syndicate_Initiates_Male_01",
        "Syndicate_Initiates_Male_02",
        "Syndicate_Initiates_Male_03",
        "Syndicate_Initiates_Male_04"
      ]
    },
    {
      "level": 24,
      "experience": 0,
      "display_names": [
        "Blade Initiate"
      ],
      "costumes": [
        "Syndicate_Initiates_Male_01",
        "Syndicate_Initiates_Male_02",
        "Syndicate_Initiates_Male_03",
        "Syndicate_Initiates_Male_04"
      ]
    }
  ]
}