{
  "name": "Syndicate_Telekineticist_Span",
  "gender": "GENDER_MALE",
  "description": "The Syndicate encourages their Adepts to advance their psychic powers, so it isn't uncommon to see Telekineticists within their ranks. These Adepts are capable of manipulating kinetic energy to crush their foes, but also to steal power from their foes to build their own.",
  "group_description": null,
  "display_class_name": null,
  "character_class_name": "lt_grunt",
  "ai_config": "Default_Ranged",
  "commandable_pet": false,
  "power_tags": [
    "Human",
    "HumanSkeleton"
  ],
  "additional_rewards": [

  ],
  "skill_hp_rewards": [

  ],
  "skill_status_rewards": [

  ],
  "ally": null,
  "gang": null,
  "reward_scale": 1.0,
  "game_exclusion": "None",
  "inactive_state_weapon": null,
  "ignores_combat_mods": false,
  "copy_creator_mods": false,
  "spawn_limit": 0,
  "spawn_limit_mission": 0,
  "ignore_av_to_eb_scaling": false,
  "can_zone": false,
  "custom_badge_stat": null,
  "badge_stat_flags": "DefaultBadgeStat",
  "rank": "VR_LIEUTENANT",
  "power_full_names": [
    "Syndicate.LT_Telekinetic.Resistance",
    "Syndicate.LT_Telekinetic.Kinetic_Shackles",
    "Syndicate.LT_Telekinetic.Force_Blast",
    "Syndicate.LT_Telekinetic.Kinetic_Strike",
    "Syndicate.LT_Telekinetic.Siphon_Speed"
  ],
  "power_display_names": [
    "Resistance",
    "Kinetic Shackles",
    "Force Blast",
    "Kinetic Strike",
    "Siphon Speed"
  ],
  "power_levels": [
    0,
    0,
    0,
    0,
    0
  ],
  "powers": [
    {
      "power_category": "Syndicate",
      "power_set": "LT_Telekinetic",
      "power": "*",
      "level": 0
    }
  ],
  "levels": [
    {
      "level": 6,
      "experience": 0,
      "display_names": [
        "Telekineticist"
      ],
      "costumes": [
        "Syndicate_Telekinetic_Male_01",
        "Syndicate_Telekinetic_Male_02",
        "Syndicate_Telekinetic_Male_03"
      ]
    },
    {
      "level": 7,
      "experience": 0,
      "display_names": [
        "Telekineticist"
      ],
      "costumes": [
        "Syndicate_Telekinetic_Male_01",
        "Syndicate_Telekinetic_Male_02",
        "Syndicate_Telekinetic_Male_03"
      ]
    },
    {
      "level": 8,
      "experience": 0,
      "display_names": [
        "Telekineticist"
      ],
      "costumes": [
        "Syndicate_Telekinetic_Male_01",
        "Syndicate_Telekinetic_Male_02",
        "Syndicate_Telekinetic_Male_03"
      ]
    },
    {
      "level": 9,
      "experience": 0,
      "display_names": [
        "Telekineticist"
      ],
      "costumes": [
        "Syndicate_Telekinetic_Male_01",
        "Syndicate_Telekinetic_Male_02",
        "Syndicate_Telekinetic_Male_03"
      ]
    },
    {
      "level": 10,
      "experience": 0,
      "display_names": [
        "Telekineticist"
      ],
      "costumes": [
        "Syndicate_Telekinetic_Male_01",
        "Syndicate_Telekinetic_Male_02",
        "Syndicate_Telekinetic_Male_03"
      ]
    },
    {
      "level": 11,
      "experience": 0,
      "display_names": [
        "Telekineticist"
      ],
      "costumes": [
        "Syndicate_Telekinetic_Male_01",
        "Syndicate_Telekinetic_Male_02",
        "Syndicate_Telekinetic_Male_03"
      ]
    },
    {
      "level": 12,
      "experience": 0,
      "display_names": [
        "Telekineticist"
      ],
      "costumes": [
        "Syndicate_Telekinetic_Male_01",
        "Syndicate_Telekinetic_Male_02",
        "Syndicate_Telekinetic_Male_03"
      ]
    },
    {
      "level": 13,
      "experience": 0,
      "display_names": [
        "Telekineticist"
      ],
      "costumes": [
        "Syndicate_Telekinetic_Male_01",
        "Syndicate_Telekinetic_Male_02",
        "Syndicate_Telekinetic_Male_03"
      ]
    },
    {
      "level": 14,
      "experience": 0,
      "display_names": [
        "Telekineticist"
      ],
      "costumes": [
        "Syndicate_Telekinetic_Male_01",
        "Syndicate_Telekinetic_Male_02",
        "Syndicate_Telekinetic_Male_03"
      ]
    },
    {
      "level": 15,
      "experience": 0,
      "display_names": [
        "Telekineticist"
      ],
      "costumes": [
        "Syndicate_Telekinetic_Male_01",
        "Syndicate_Telekinetic_Male_02",
        "Syndicate_Telekinetic_Male_03"
      ]
    },
    {
      "level": 16,
      "experience": 0,
      "display_names": [
        "Telekineticist"
      ],
      "costumes": [
        "Syndicate_Telekinetic_Male_01",
        "Syndicate_Telekinetic_Male_02",
        "Syndicate_Telekinetic_Male_03"
      ]
    },
    {
      "level": 17,
      "experience": 0,
      "display_names": [
        "Telekineticist"
      ],
      "costumes": [
        "Syndicate_Telekinetic_Male_01",
        "Syndicate_Telekinetic_Male_02",
        "Syndicate_Telekinetic_Male_03"
      ]
    },
    {
      "level": 18,
      "experience": 0,
      "display_names": [
        "Telekineticist"
      ],
      "costumes": [
        "Syndicate_Telekinetic_Male_01",
        "Syndicate_Telekinetic_Male_02",
        "Syndicate_Telekinetic_Male_03"
      ]
    },
    {
      "level": 19,
      "experience": 0,
      "display_names": [
        "Telekineticist"
      ],
      "costumes": [
        "Syndicate_Telekinetic_Male_01",
        "Syndicate_Telekinetic_Male_02",
        "Syndicate_Telekinetic_Male_03"
      ]
    },
    {
      "level": 20,
      "experience": 0,
      "display_names": [
        "Telekineticist"
      ],
      "costumes": [
        "Syndicate_Telekinetic_Male_01",
        "Syndicate_Telekinetic_Male_02",
        "Syndicate_Telekinetic_Male_03"
      ]
    },
    {
      "level": 21,
      "experience": 0,
      "display_names": [
        "Telekineticist"
      ],
      "costumes": [
        "Syndicate_Telekinetic_Male_01",
        "Syndicate_Telekinetic_Male_02",
        "Syndicate_Telekinetic_Male_03"
      ]
    },
    {
      "level": 22,
      "experience": 0,
      "display_names": [
        "Telekineticist"
      ],
      "costumes": [
        "Syndicate_Telekinetic_Male_01",
        "Syndicate_Telekinetic_Male_02",
        "Syndicate_Telekinetic_Male_03"
      ]
    },
    {
      "level": 23,
      "experience": 0,
      "display_names": [
        "Telekineticist"
      ],
      "costumes": [
        "Syndicate_Telekinetic_Male_01",
        "Syndicate_Telekinetic_Male_02",
        "Syndicate_Telekinetic_Male_03"
      ]
    },
    {
      "level": 24,
      "experience": 0,
      "display_names": [
        "Telekineticist"
      ],
      "costumes": [
        "Syndicate_Telekinetic_Male_01",
        "Syndicate_Telekinetic_Male_02",
        "Syndicate_Telekinetic_Male_03"
      ]
    }
  ]
}