{
  "name": "TalonsOfVengeanceEndgame_Raider",
  "gender": "GENDER_FEMALE",
  "description": "The Raiders are ferocious, intense fighters who have endured through the many tribulations a footsoldier of the Talons of Vengeance must face. They are fanatically loyal to their sisters and the cause of the Talons, seeking to sow the destruction which is meted out to those who have betrayed the principles of the Furies. They are dangerous opponents who can make quick work of a foe if they are allowed to approach too close.",
  "group_description": null,
  "display_class_name": null,
  "character_class_name": "minion_praetoriangrunt",
  "ai_config": "Default_Melee",
  "commandable_pet": false,
  "power_tags": [
    "HumanSkeleton",
    "Human"
  ],
  "additional_rewards": [

  ],
  "skill_hp_rewards": [

  ],
  "skill_status_rewards": [

  ],
  "ally": null,
  "gang": null,
  "reward_scale": 1.0,
  "game_exclusion": "None",
  "inactive_state_weapon": null,
  "ignores_combat_mods": false,
  "copy_creator_mods": false,
  "spawn_limit": -1,
  "spawn_limit_mission": -1,
  "ignore_av_to_eb_scaling": false,
  "can_zone": false,
  "custom_badge_stat": null,
  "badge_stat_flags": "DefaultBadgeStat",
  "rank": "VR_MINION",
  "power_full_names": [
    "TalonsOfVengeance.Zealot.Swipe",
    "TalonsOfVengeance.Zealot.Slash",
    "TalonsOfVengeance.Fanatic.Spin",
    "TalonsOfVengeance.Fanatic.Weaken",
    "TalonsOfVengeance.Talon_Crossbow.Talon_Crossbow",
    "TalonsOfVengeance.Resistances.Damage_MN"
  ],
  "power_display_names": [
    "Swipe",
    "Slash",
    "Spin",
    "Weaken",
    "Talon Crossbow",
    "Damage Resistance"
  ],
  "power_levels": [
    0,
    0,
    0,
    0,
    0,
    0
  ],
  "powers": [
    {
      "power_category": "TalonsOfVengeance",
      "power_set": "Zealot",
      "power": "*",
      "level": 0
    },
    {
      "power_category": "TalonsOfVengeance",
      "power_set": "Fanatic",
      "power": "*",
      "level": 0
    },
    {
      "power_category": "TalonsOfVengeance",
      "power_set": "Talon_Crossbow",
      "power": "*",
      "level": 0
    },
    {
      "power_category": "TalonsOfVengeance",
      "power_set": "Resistances",
      "power": "Damage_MN",
      "level": 0
    }
  ],
  "levels": [
    {
      "level": 50,
      "experience": 0,
      "display_names": [
        "Raider"
      ],
      "costumes": [
        "Talons_Fanatic_01",
        "Talons_Fanatic_02",
        "Talons_Fanatic_03",
        "Talons_Fanatic_04"
      ]
    },
    {
      "level": 51,
      "experience": 0,
      "display_names": [
        "Raider"
      ],
      "costumes": [
        "Talons_Fanatic_01",
        "Talons_Fanatic_02",
        "Talons_Fanatic_03",
        "Talons_Fanatic_04"
      ]
    },
    {
      "level": 52,
      "experience": 0,
      "display_names": [
        "Raider"
      ],
      "costumes": [
        "Talons_Fanatic_01",
        "Talons_Fanatic_02",
        "Talons_Fanatic_03",
        "Talons_Fanatic_04"
      ]
    },
    {
      "level": 53,
      "experience": 0,
      "display_names": [
        "Raider"
      ],
      "costumes": [
        "Talons_Fanatic_01",
        "Talons_Fanatic_02",
        "Talons_Fanatic_03",
        "Talons_Fanatic_04"
      ]
    },
    {
      "level": 54,
      "experience": 0,
      "display_names": [
        "Raider"
      ],
      "costumes": [
        "Talons_Fanatic_01",
        "Talons_Fanatic_02",
        "Talons_Fanatic_03",
        "Talons_Fanatic_04"
      ]
    }
  ]
}