{
  "name": "TalonsOfVengeanceEndgame_Elementalist_Fire",
  "gender": "GENDER_FEMALE",
  "description": "Having long ago sworn fealty to the Talons of Vengeance, the Elementalist has been twisted into a half-human, half-serpent monstrosities. In the process of transformation, however, they gain significant aptitude with the mystical elements, allowing them to call forth a variety of elementally attuned powers. In addition, they become more resistant to the element with which they have an affinity.",
  "group_description": null,
  "display_class_name": null,
  "character_class_name": "minion_praetoriangrunt",
  "ai_config": "Default_Ranged",
  "commandable_pet": false,
  "power_tags": [
    "HumanSkeleton",
    "Human"
  ],
  "additional_rewards": [

  ],
  "skill_hp_rewards": [

  ],
  "skill_status_rewards": [

  ],
  "ally": null,
  "gang": null,
  "reward_scale": 1.0,
  "game_exclusion": "None",
  "inactive_state_weapon": null,
  "ignores_combat_mods": false,
  "copy_creator_mods": false,
  "spawn_limit": -1,
  "spawn_limit_mission": -1,
  "ignore_av_to_eb_scaling": false,
  "can_zone": false,
  "custom_badge_stat": null,
  "badge_stat_flags": "DefaultBadgeStat",
  "rank": "VR_MINION",
  "power_full_names": [
    "TalonsOfVengeance.Spiritualist_General.Thunderclap",
    "TalonsOfVengeance.Spiritualist_Fire.Flares",
    "TalonsOfVengeance.Spiritualist_Fire.Fire_Blast",
    "TalonsOfVengeance.Spiritualist_Fire.Resistance",
    "TalonsOfVengeance.Talon_Blade_Snake.Talon_Blade",
    "TalonsOfVengeance.Resistances.Damage_MN"
  ],
  "power_display_names": [
    "Thunderclap",
    "Flares",
    "Fire Blast",
    "Affinity",
    "Talon Blade",
    "Damage Resistance"
  ],
  "power_levels": [
    0,
    0,
    0,
    0,
    0,
    0
  ],
  "powers": [
    {
      "power_category": "TalonsOfVengeance",
      "power_set": "Spiritualist_General",
      "power": "*",
      "level": 0
    },
    {
      "power_category": "TalonsOfVengeance",
      "power_set": "Spiritualist_Fire",
      "power": "*",
      "level": 0
    },
    {
      "power_category": "TalonsOfVengeance",
      "power_set": "Talon_Blade_Snake",
      "power": "*",
      "level": 0
    },
    {
      "power_category": "TalonsOfVengeance",
      "power_set": "Resistances",
      "power": "Damage_MN",
      "level": 0
    }
  ],
  "levels": [
    {
      "level": 50,
      "experience": 0,
      "display_names": [
        "Elementalist"
      ],
      "costumes": [
        "Talons_Spiritualist_Fire_01",
        "Talons_Spiritualist_Fire_02",
        "Talons_Spiritualist_Fire_03"
      ]
    },
    {
      "level": 51,
      "experience": 0,
      "display_names": [
        "Elementalist"
      ],
      "costumes": [
        "Talons_Spiritualist_Fire_01",
        "Talons_Spiritualist_Fire_02",
        "Talons_Spiritualist_Fire_03"
      ]
    },
    {
      "level": 52,
      "experience": 0,
      "display_names": [
        "Elementalist"
      ],
      "costumes": [
        "Talons_Spiritualist_Fire_01",
        "Talons_Spiritualist_Fire_02",
        "Talons_Spiritualist_Fire_03"
      ]
    },
    {
      "level": 53,
      "experience": 0,
      "display_names": [
        "Elementalist"
      ],
      "costumes": [
        "Talons_Spiritualist_Fire_01",
        "Talons_Spiritualist_Fire_02",
        "Talons_Spiritualist_Fire_03"
      ]
    },
    {
      "level": 54,
      "experience": 0,
      "display_names": [
        "Elementalist"
      ],
      "costumes": [
        "Talons_Spiritualist_Fire_01",
        "Talons_Spiritualist_Fire_02",
        "Talons_Spiritualist_Fire_03"
      ]
    }
  ]
}