{
  "name": "TheDestroyers_High_Brawling_Thug",
  "gender": "GENDER_FEMALE",
  "description": "The majority of The Destroyers are made up of extraordinarily tough individuals who have survived The Gauntlet, an initiation ritual designed to weed out the weak. Once initiated they are expected to fight for the cause. Rocket Girls carry rocket launchers capable of firing high explosive rockets.",
  "group_description": null,
  "display_class_name": null,
  "character_class_name": "minion_grunt",
  "ai_config": "Default_Range",
  "commandable_pet": false,
  "power_tags": [
    "HumanSkeleton",
    "Human"
  ],
  "additional_rewards": [

  ],
  "skill_hp_rewards": [

  ],
  "skill_status_rewards": [

  ],
  "ally": null,
  "gang": null,
  "reward_scale": 1.0,
  "game_exclusion": "None",
  "inactive_state_weapon": null,
  "ignores_combat_mods": false,
  "copy_creator_mods": false,
  "spawn_limit": -1,
  "spawn_limit_mission": -1,
  "ignore_av_to_eb_scaling": false,
  "can_zone": false,
  "custom_badge_stat": null,
  "badge_stat_flags": "DefaultBadgeStat",
  "rank": "VR_MINION",
  "power_full_names": [
    "Destroyers.Brawler_Low.Grenade_Launcher",
    "Destroyers.Brawler_Low.Boxing"
  ],
  "power_display_names": [
    "Rocket Launcher",
    "Boxing"
  ],
  "power_levels": [
    0,
    0
  ],
  "powers": [
    {
      "power_category": "Destroyers",
      "power_set": "Brawler_Low",
      "power": "*",
      "level": 0
    }
  ],
  "levels": [
    {
      "level": 6,
      "experience": 0,
      "display_names": [
        "Rocket Girl"
      ],
      "costumes": [
        "Destroyer_Minion_Female_01",
        "Destroyer_Minion_Female_02",
        "Destroyer_Minion_Female_03",
        "Destroyer_Minion_Female_04",
        "Destroyer_Minion_Female_05",
        "Destroyer_Minion_Female_06"
      ]
    },
    {
      "level": 7,
      "experience": 0,
      "display_names": [
        "Rocket Girl"
      ],
      "costumes": [
        "Destroyer_Minion_Female_01",
        "Destroyer_Minion_Female_02",
        "Destroyer_Minion_Female_03",
        "Destroyer_Minion_Female_04",
        "Destroyer_Minion_Female_05",
        "Destroyer_Minion_Female_06"
      ]
    },
    {
      "level": 8,
      "experience": 0,
      "display_names": [
        "Rocket Girl"
      ],
      "costumes": [
        "Destroyer_Minion_Female_01",
        "Destroyer_Minion_Female_02",
        "Destroyer_Minion_Female_03",
        "Destroyer_Minion_Female_04",
        "Destroyer_Minion_Female_05",
        "Destroyer_Minion_Female_06"
      ]
    },
    {
      "level": 9,
      "experience": 0,
      "display_names": [
        "Rocket Girl"
      ],
      "costumes": [
        "Destroyer_Minion_Female_01",
        "Destroyer_Minion_Female_02",
        "Destroyer_Minion_Female_03",
        "Destroyer_Minion_Female_04",
        "Destroyer_Minion_Female_05",
        "Destroyer_Minion_Female_06"
      ]
    },
    {
      "level": 10,
      "experience": 0,
      "display_names": [
        "Rocket Girl"
      ],
      "costumes": [
        "Destroyer_Minion_Female_01",
        "Destroyer_Minion_Female_02",
        "Destroyer_Minion_Female_03",
        "Destroyer_Minion_Female_04",
        "Destroyer_Minion_Female_05",
        "Destroyer_Minion_Female_06"
      ]
    },
    {
      "level": 11,
      "experience": 0,
      "display_names": [
        "Rocket Girl"
      ],
      "costumes": [
        "Destroyer_Minion_Female_01",
        "Destroyer_Minion_Female_02",
        "Destroyer_Minion_Female_03",
        "Destroyer_Minion_Female_04",
        "Destroyer_Minion_Female_05",
        "Destroyer_Minion_Female_06"
      ]
    },
    {
      "level": 12,
      "experience": 0,
      "display_names": [
        "Rocket Girl"
      ],
      "costumes": [
        "Destroyer_Minion_Female_01",
        "Destroyer_Minion_Female_02",
        "Destroyer_Minion_Female_03",
        "Destroyer_Minion_Female_04",
        "Destroyer_Minion_Female_05",
        "Destroyer_Minion_Female_06"
      ]
    },
    {
      "level": 13,
      "experience": 0,
      "display_names": [
        "Rocket Girl"
      ],
      "costumes": [
        "Destroyer_Minion_Female_01",
        "Destroyer_Minion_Female_02",
        "Destroyer_Minion_Female_03",
        "Destroyer_Minion_Female_04",
        "Destroyer_Minion_Female_05",
        "Destroyer_Minion_Female_06"
      ]
    },
    {
      "level": 14,
      "experience": 0,
      "display_names": [
        "Rocket Girl"
      ],
      "costumes": [
        "Destroyer_Minion_Female_01",
        "Destroyer_Minion_Female_02",
        "Destroyer_Minion_Female_03",
        "Destroyer_Minion_Female_04",
        "Destroyer_Minion_Female_05",
        "Destroyer_Minion_Female_06"
      ]
    },
    {
      "level": 15,
      "experience": 0,
      "display_names": [
        "Rocket Girl"
      ],
      "costumes": [
        "Destroyer_Minion_Female_01",
        "Destroyer_Minion_Female_02",
        "Destroyer_Minion_Female_03",
        "Destroyer_Minion_Female_04",
        "Destroyer_Minion_Female_05",
        "Destroyer_Minion_Female_06"
      ]
    }
  ]
}