{
  "name": "TheDestroyers_Subject_Zero",
  "gender": "GENDER_MALE",
  "description": "When a Destroyer has shown his true dedication to the group he is put through another Gauntlet. Those who pass the test are elevated to Hombres and are given the symbolic tattoos fitting of their station. Hombres have no need of weapons as the immense strength afforded by their increased Fixodine use is more than enough to make them deadly adversaries.",
  "group_description": null,
  "display_class_name": null,
  "character_class_name": "lt_grunt",
  "ai_config": "Default_Melee",
  "commandable_pet": false,
  "power_tags": [
    "HumanSkeleton",
    "Human"
  ],
  "additional_rewards": [

  ],
  "skill_hp_rewards": [

  ],
  "skill_status_rewards": [

  ],
  "ally": null,
  "gang": null,
  "reward_scale": 1.0,
  "game_exclusion": "None",
  "inactive_state_weapon": null,
  "ignores_combat_mods": false,
  "copy_creator_mods": false,
  "spawn_limit": 0,
  "spawn_limit_mission": 0,
  "ignore_av_to_eb_scaling": false,
  "can_zone": false,
  "custom_badge_stat": null,
  "badge_stat_flags": "DefaultBadgeStat",
  "rank": "VR_LIEUTENANT",
  "power_full_names": [
    "Trolls.Trolls_All.Resistance",
    "Destroyers.Bruiser.Hurl",
    "Destroyers.Bruiser.Punch",
    "Destroyers.Bruiser.Integration"
  ],
  "power_display_names": [
    "Resistance",
    "Hurl",
    "Punch",
    "Integration"
  ],
  "power_levels": [
    0,
    0,
    0,
    0
  ],
  "powers": [
    {
      "power_category": "Trolls",
      "power_set": "Trolls_All",
      "power": "*",
      "level": 0
    },
    {
      "power_category": "Destroyers",
      "power_set": "Bruiser",
      "power": "*",
      "level": 0
    }
  ],
  "levels": [
    {
      "level": 1,
      "experience": 0,
      "display_names": [
        "Patient Zero"
      ],
      "costumes": [
        "Destroyer_Lt_Male_10"
      ]
    },
    {
      "level": 2,
      "experience": 0,
      "display_names": [
        "Patient Zero"
      ],
      "costumes": [
        "Destroyer_Lt_Male_10"
      ]
    },
    {
      "level": 3,
      "experience": 0,
      "display_names": [
        "Patient Zero"
      ],
      "costumes": [
        "Destroyer_Lt_Male_10"
      ]
    },
    {
      "level": 4,
      "experience": 0,
      "display_names": [
        "Patient Zero"
      ],
      "costumes": [
        "Destroyer_Lt_Male_10"
      ]
    },
    {
      "level": 5,
      "experience": 0,
      "display_names": [
        "Patient Zero"
      ],
      "costumes": [
        "Destroyer_Lt_Male_10"
      ]
    },
    {
      "level": 6,
      "experience": 0,
      "display_names": [
        "Patient Zero"
      ],
      "costumes": [
        "Destroyer_Lt_Male_10"
      ]
    },
    {
      "level": 7,
      "experience": 0,
      "display_names": [
        "Patient Zero"
      ],
      "costumes": [
        "Destroyer_Lt_Male_10"
      ]
    },
    {
      "level": 8,
      "experience": 0,
      "display_names": [
        "Patient Zero"
      ],
      "costumes": [
        "Destroyer_Lt_Male_10"
      ]
    },
    {
      "level": 9,
      "experience": 0,
      "display_names": [
        "Patient Zero"
      ],
      "costumes": [
        "Destroyer_Lt_Male_10"
      ]
    },
    {
      "level": 10,
      "experience": 0,
      "display_names": [
        "Patient Zero"
      ],
      "costumes": [
        "Destroyer_Lt_Male_10"
      ]
    },
    {
      "level": 11,
      "experience": 0,
      "display_names": [
        "Patient Zero"
      ],
      "costumes": [
        "Destroyer_Lt_Male_10"
      ]
    },
    {
      "level": 12,
      "experience": 0,
      "display_names": [
        "Patient Zero"
      ],
      "costumes": [
        "Destroyer_Lt_Male_10"
      ]
    },
    {
      "level": 13,
      "experience": 0,
      "display_names": [
        "Patient Zero"
      ],
      "costumes": [
        "Destroyer_Lt_Male_10"
      ]
    },
    {
      "level": 14,
      "experience": 0,
      "display_names": [
        "Patient Zero"
      ],
      "costumes": [
        "Destroyer_Lt_Male_10"
      ]
    },
    {
      "level": 15,
      "experience": 0,
      "display_names": [
        "Patient Zero"
      ],
      "costumes": [
        "Destroyer_Lt_Male_10"
      ]
    }
  ]
}