{
  "name": "TheFamily_Underboss_Boss",
  "gender": "GENDER_MALE",
  "description": "The Underbosses report directly to the Don, and each has control over a number of Capos. In Paragon City, you don't rise to the top without a little super-powered help, and many Underbosses have heightened abilities or access to specialized gear that helps them stay on top in their cutthroat business.",
  "group_description": null,
  "display_class_name": null,
  "character_class_name": "boss_grunt",
  "ai_config": "Default_Melee",
  "commandable_pet": false,
  "power_tags": [
    "HumanSkeleton",
    "Human"
  ],
  "additional_rewards": [

  ],
  "skill_hp_rewards": [

  ],
  "skill_status_rewards": [

  ],
  "ally": null,
  "gang": null,
  "reward_scale": 1.0,
  "game_exclusion": "None",
  "inactive_state_weapon": null,
  "ignores_combat_mods": false,
  "copy_creator_mods": false,
  "spawn_limit": -1,
  "spawn_limit_mission": -1,
  "ignore_av_to_eb_scaling": false,
  "can_zone": false,
  "custom_badge_stat": null,
  "badge_stat_flags": "DefaultBadgeStat",
  "rank": "VR_BOSS",
  "power_full_names": [
    "Family.Family_Lt_Boss_Melee.Jab",
    "Family.Family_Lt_Boss_Melee.Punch",
    "Family.Family_Lt_Boss_Melee.Haymaker",
    "Family.Family_Grenade.Frag_Grenade",
    "Family.Family_Tommy_Gun_Lt.Full_Auto",
    "Family.Family_Tommy_Gun_Lt.Burst",
    "Family.Family_Boss_Defense.Focus"
  ],
  "power_display_names": [
    "Jab",
    "Punch",
    "Haymaker",
    "Frag Grenade",
    "Full Auto",
    "Burst",
    "Focus"
  ],
  "power_levels": [
    0,
    0,
    0,
    0,
    0,
    0,
    0
  ],
  "powers": [
    {
      "power_category": "Family",
      "power_set": "Family_Lt_Boss_Melee",
      "power": "*",
      "level": 0
    },
    {
      "power_category": "Family",
      "power_set": "Family_Grenade",
      "power": "*",
      "level": 0
    },
    {
      "power_category": "Family",
      "power_set": "Family_Tommy_Gun_Lt",
      "power": "*",
      "level": 0
    },
    {
      "power_category": "Family",
      "power_set": "Family_Boss_Defense",
      "power": "*",
      "level": 0
    }
  ],
  "levels": [
    {
      "level": 20,
      "experience": 0,
      "display_names": [
        "Underboss"
      ],
      "costumes": [
        "Family_Boss_01",
        "Family_Boss_02"
      ]
    },
    {
      "level": 21,
      "experience": 0,
      "display_names": [
        "Underboss"
      ],
      "costumes": [
        "Family_Boss_01",
        "Family_Boss_02"
      ]
    },
    {
      "level": 22,
      "experience": 0,
      "display_names": [
        "Underboss"
      ],
      "costumes": [
        "Family_Boss_01",
        "Family_Boss_02"
      ]
    },
    {
      "level": 23,
      "experience": 0,
      "display_names": [
        "Underboss"
      ],
      "costumes": [
        "Family_Boss_01",
        "Family_Boss_02"
      ]
    },
    {
      "level": 24,
      "experience": 0,
      "display_names": [
        "Underboss"
      ],
      "costumes": [
        "Family_Boss_01",
        "Family_Boss_02"
      ]
    },
    {
      "level": 25,
      "experience": 0,
      "display_names": [
        "Underboss"
      ],
      "costumes": [
        "Family_Boss_01",
        "Family_Boss_02"
      ]
    },
    {
      "level": 26,
      "experience": 0,
      "display_names": [
        "Underboss"
      ],
      "costumes": [
        "Family_Boss_01",
        "Family_Boss_02"
      ]
    },
    {
      "level": 27,
      "experience": 0,
      "display_names": [
        "Underboss"
      ],
      "costumes": [
        "Family_Boss_01",
        "Family_Boss_02"
      ]
    },
    {
      "level": 28,
      "experience": 0,
      "display_names": [
        "Underboss"
      ],
      "costumes": [
        "Family_Boss_01",
        "Family_Boss_02"
      ]
    },
    {
      "level": 29,
      "experience": 0,
      "display_names": [
        "Underboss"
      ],
      "costumes": [
        "Family_Boss_01",
        "Family_Boss_02"
      ]
    }
  ]
}