{
  "name": "TheFamily_AssaultRifle_Lieutenant",
  "gender": "GENDER_MALE",
  "description": "Each Capo controls his own crew of Button Men. It's a kind of authority you don't earn unless you've proven yourself both ruthless and lucky. Capos save the best weapons and women for themselves and are inevitably smart, tough fighters.",
  "group_description": null,
  "display_class_name": null,
  "character_class_name": "lt_grunt",
  "ai_config": "Default_Ranged",
  "commandable_pet": false,
  "power_tags": [
    "HumanSkeleton",
    "Human"
  ],
  "additional_rewards": [

  ],
  "skill_hp_rewards": [

  ],
  "skill_status_rewards": [

  ],
  "ally": null,
  "gang": null,
  "reward_scale": 1.0,
  "game_exclusion": "None",
  "inactive_state_weapon": null,
  "ignores_combat_mods": false,
  "copy_creator_mods": false,
  "spawn_limit": -1,
  "spawn_limit_mission": -1,
  "ignore_av_to_eb_scaling": false,
  "can_zone": false,
  "custom_badge_stat": null,
  "badge_stat_flags": "DefaultBadgeStat",
  "rank": "VR_LIEUTENANT",
  "power_full_names": [
    "Family.Family_Tommy_Gun_Lt.Full_Auto",
    "Family.Family_Tommy_Gun_Lt.Burst"
  ],
  "power_display_names": [
    "Full Auto",
    "Burst"
  ],
  "power_levels": [
    0,
    0
  ],
  "powers": [
    {
      "power_category": "Family",
      "power_set": "Family_Tommy_Gun_Lt",
      "power": "*",
      "level": 0
    }
  ],
  "levels": [
    {
      "level": 20,
      "experience": 0,
      "display_names": [
        "Capo Gunner"
      ],
      "costumes": [
        "Family_Lt_01",
        "Family_Lt_02",
        "Family_Lt_03",
        "Family_Lt_04",
        "Family_Lt_05",
        "Family_Lt_06"
      ]
    },
    {
      "level": 21,
      "experience": 0,
      "display_names": [
        "Capo Gunner"
      ],
      "costumes": [
        "Family_Lt_01",
        "Family_Lt_02",
        "Family_Lt_03",
        "Family_Lt_04",
        "Family_Lt_05",
        "Family_Lt_06"
      ]
    },
    {
      "level": 22,
      "experience": 0,
      "display_names": [
        "Capo Gunner"
      ],
      "costumes": [
        "Family_Lt_01",
        "Family_Lt_02",
        "Family_Lt_03",
        "Family_Lt_04",
        "Family_Lt_05",
        "Family_Lt_06"
      ]
    },
    {
      "level": 23,
      "experience": 0,
      "display_names": [
        "Capo Gunner"
      ],
      "costumes": [
        "Family_Lt_01",
        "Family_Lt_02",
        "Family_Lt_03",
        "Family_Lt_04",
        "Family_Lt_05",
        "Family_Lt_06"
      ]
    },
    {
      "level": 24,
      "experience": 0,
      "display_names": [
        "Capo Gunner"
      ],
      "costumes": [
        "Family_Lt_01",
        "Family_Lt_02",
        "Family_Lt_03",
        "Family_Lt_04",
        "Family_Lt_05",
        "Family_Lt_06"
      ]
    },
    {
      "level": 25,
      "experience": 0,
      "display_names": [
        "Capo Gunner"
      ],
      "costumes": [
        "Family_Lt_01",
        "Family_Lt_02",
        "Family_Lt_03",
        "Family_Lt_04",
        "Family_Lt_05",
        "Family_Lt_06"
      ]
    },
    {
      "level": 26,
      "experience": 0,
      "display_names": [
        "Capo Gunner"
      ],
      "costumes": [
        "Family_Lt_01",
        "Family_Lt_02",
        "Family_Lt_03",
        "Family_Lt_04",
        "Family_Lt_05",
        "Family_Lt_06"
      ]
    },
    {
      "level": 27,
      "experience": 0,
      "display_names": [
        "Capo Gunner"
      ],
      "costumes": [
        "Family_Lt_01",
        "Family_Lt_02",
        "Family_Lt_03",
        "Family_Lt_04",
        "Family_Lt_05",
        "Family_Lt_06"
      ]
    },
    {
      "level": 28,
      "experience": 0,
      "display_names": [
        "Capo Gunner"
      ],
      "costumes": [
        "Family_Lt_01",
        "Family_Lt_02",
        "Family_Lt_03",
        "Family_Lt_04",
        "Family_Lt_05",
        "Family_Lt_06"
      ]
    },
    {
      "level": 29,
      "experience": 0,
      "display_names": [
        "Capo Gunner"
      ],
      "costumes": [
        "Family_Lt_01",
        "Family_Lt_02",
        "Family_Lt_03",
        "Family_Lt_04",
        "Family_Lt_05",
        "Family_Lt_06"
      ]
    }
  ]
}