{
  "name": "TheLost_Portal_Armoured_Rikti_Mesmerist",
  "gender": "GENDER_MALE",
  "description": "The Rikti battle armor is more advanced than any armor found on Earth. It offers the alien invaders protection from most normal kinds of physical attack. Armed with powerful energy weapons, these armored soldiers continue to pose a deadly threat to humans everywhere.",
  "group_description": "Rikti",
  "display_class_name": null,
  "character_class_name": "boss_grunt",
  "ai_config": "Default_Melee",
  "commandable_pet": false,
  "power_tags": [

  ],
  "additional_rewards": [

  ],
  "skill_hp_rewards": [

  ],
  "skill_status_rewards": [

  ],
  "ally": null,
  "gang": null,
  "reward_scale": 1.0,
  "game_exclusion": "None",
  "inactive_state_weapon": null,
  "ignores_combat_mods": false,
  "copy_creator_mods": false,
  "spawn_limit": 0,
  "spawn_limit_mission": 0,
  "ignore_av_to_eb_scaling": false,
  "can_zone": false,
  "custom_badge_stat": null,
  "badge_stat_flags": "DefaultBadgeStat",
  "rank": "VR_BOSS",
  "power_full_names": [
    "Rikti.Rikti_Sword.Rikti_Sword",
    "Rikti.Rikti_Mesmerist_Ranged.Mental_Blast",
    "Rikti.Rikti_Mesmerist_Ranged.Mass_Hypnosis",
    "Rikti.Rikti_Mesmerist_Ranged.Total_Domination",
    "Rikti.Rikti_Mentalist_Defense.Resistance"
  ],
  "power_display_names": [
    "Rikti Sword",
    "Mental Blast",
    "Mass Hypnosis",
    "Total Domination",
    "Resistance"
  ],
  "power_levels": [
    0,
    0,
    0,
    0,
    0
  ],
  "powers": [
    {
      "power_category": "Rikti",
      "power_set": "Rikti_Sword",
      "power": "*",
      "level": 0
    },
    {
      "power_category": "Rikti",
      "power_set": "Rikti_Mesmerist_Ranged",
      "power": "*",
      "level": 0
    },
    {
      "power_category": "Rikti",
      "power_set": "Rikti_Mentalist_Defense",
      "power": "*",
      "level": 0
    }
  ],
  "levels": [
    {
      "level": 1,
      "experience": 0,
      "display_names": [
        "Chief Mesmerist"
      ],
      "costumes": [
        "Rikti_Armour_Lieutenant_01",
        "Rikti_Armour_Lieutenant_02",
        "Rikti_Armour_Lieutenant_03",
        "Rikti_Armour_Lieutenant_04",
        "Rikti_Armour_Lieutenant_05"
      ]
    },
    {
      "level": 2,
      "experience": 0,
      "display_names": [
        "Chief Mesmerist"
      ],
      "costumes": [
        "Rikti_Armour_Lieutenant_01",
        "Rikti_Armour_Lieutenant_02",
        "Rikti_Armour_Lieutenant_03",
        "Rikti_Armour_Lieutenant_04",
        "Rikti_Armour_Lieutenant_05"
      ]
    },
    {
      "level": 3,
      "experience": 0,
      "display_names": [
        "Chief Mesmerist"
      ],
      "costumes": [
        "Rikti_Armour_Lieutenant_01",
        "Rikti_Armour_Lieutenant_02",
        "Rikti_Armour_Lieutenant_03",
        "Rikti_Armour_Lieutenant_04",
        "Rikti_Armour_Lieutenant_05"
      ]
    },
    {
      "level": 4,
      "experience": 0,
      "display_names": [
        "Chief Mesmerist"
      ],
      "costumes": [
        "Rikti_Armour_Lieutenant_01",
        "Rikti_Armour_Lieutenant_02",
        "Rikti_Armour_Lieutenant_03",
        "Rikti_Armour_Lieutenant_04",
        "Rikti_Armour_Lieutenant_05"
      ]
    },
    {
      "level": 5,
      "experience": 0,
      "display_names": [
        "Chief Mesmerist"
      ],
      "costumes": [
        "Rikti_Armour_Lieutenant_01",
        "Rikti_Armour_Lieutenant_02",
        "Rikti_Armour_Lieutenant_03",
        "Rikti_Armour_Lieutenant_04",
        "Rikti_Armour_Lieutenant_05"
      ]
    },
    {
      "level": 6,
      "experience": 0,
      "display_names": [
        "Chief Mesmerist"
      ],
      "costumes": [
        "Rikti_Armour_Lieutenant_01",
        "Rikti_Armour_Lieutenant_02",
        "Rikti_Armour_Lieutenant_03",
        "Rikti_Armour_Lieutenant_04",
        "Rikti_Armour_Lieutenant_05"
      ]
    },
    {
      "level": 7,
      "experience": 0,
      "display_names": [
        "Chief Mesmerist"
      ],
      "costumes": [
        "Rikti_Armour_Lieutenant_01",
        "Rikti_Armour_Lieutenant_02",
        "Rikti_Armour_Lieutenant_03",
        "Rikti_Armour_Lieutenant_04",
        "Rikti_Armour_Lieutenant_05"
      ]
    },
    {
      "level": 8,
      "experience": 0,
      "display_names": [
        "Chief Mesmerist"
      ],
      "costumes": [
        "Rikti_Armour_Lieutenant_01",
        "Rikti_Armour_Lieutenant_02",
        "Rikti_Armour_Lieutenant_03",
        "Rikti_Armour_Lieutenant_04",
        "Rikti_Armour_Lieutenant_05"
      ]
    },
    {
      "level": 9,
      "experience": 0,
      "display_names": [
        "Chief Mesmerist"
      ],
      "costumes": [
        "Rikti_Armour_Lieutenant_01",
        "Rikti_Armour_Lieutenant_02",
        "Rikti_Armour_Lieutenant_03",
        "Rikti_Armour_Lieutenant_04",
        "Rikti_Armour_Lieutenant_05"
      ]
    },
    {
      "level": 10,
      "experience": 0,
      "display_names": [
        "Chief Mesmerist"
      ],
      "costumes": [
        "Rikti_Armour_Lieutenant_01",
        "Rikti_Armour_Lieutenant_02",
        "Rikti_Armour_Lieutenant_03",
        "Rikti_Armour_Lieutenant_04",
        "Rikti_Armour_Lieutenant_05"
      ]
    },
    {
      "level": 11,
      "experience": 0,
      "display_names": [
        "Chief Mesmerist"
      ],
      "costumes": [
        "Rikti_Armour_Lieutenant_01",
        "Rikti_Armour_Lieutenant_02",
        "Rikti_Armour_Lieutenant_03",
        "Rikti_Armour_Lieutenant_04",
        "Rikti_Armour_Lieutenant_05"
      ]
    },
    {
      "level": 12,
      "experience": 0,
      "display_names": [
        "Chief Mesmerist"
      ],
      "costumes": [
        "Rikti_Armour_Lieutenant_01",
        "Rikti_Armour_Lieutenant_02",
        "Rikti_Armour_Lieutenant_03",
        "Rikti_Armour_Lieutenant_04",
        "Rikti_Armour_Lieutenant_05"
      ]
    },
    {
      "level": 13,
      "experience": 0,
      "display_names": [
        "Chief Mesmerist"
      ],
      "costumes": [
        "Rikti_Armour_Lieutenant_01",
        "Rikti_Armour_Lieutenant_02",
        "Rikti_Armour_Lieutenant_03",
        "Rikti_Armour_Lieutenant_04",
        "Rikti_Armour_Lieutenant_05"
      ]
    },
    {
      "level": 14,
      "experience": 0,
      "display_names": [
        "Chief Mesmerist"
      ],
      "costumes": [
        "Rikti_Armour_Lieutenant_01",
        "Rikti_Armour_Lieutenant_02",
        "Rikti_Armour_Lieutenant_03",
        "Rikti_Armour_Lieutenant_04",
        "Rikti_Armour_Lieutenant_05"
      ]
    },
    {
      "level": 15,
      "experience": 0,
      "display_names": [
        "Chief Mesmerist"
      ],
      "costumes": [
        "Rikti_Armour_Lieutenant_01",
        "Rikti_Armour_Lieutenant_02",
        "Rikti_Armour_Lieutenant_03",
        "Rikti_Armour_Lieutenant_04",
        "Rikti_Armour_Lieutenant_05"
      ]
    },
    {
      "level": 16,
      "experience": 0,
      "display_names": [
        "Chief Mesmerist"
      ],
      "costumes": [
        "Rikti_Armour_Lieutenant_01",
        "Rikti_Armour_Lieutenant_02",
        "Rikti_Armour_Lieutenant_03",
        "Rikti_Armour_Lieutenant_04",
        "Rikti_Armour_Lieutenant_05"
      ]
    },
    {
      "level": 17,
      "experience": 0,
      "display_names": [
        "Chief Mesmerist"
      ],
      "costumes": [
        "Rikti_Armour_Lieutenant_01",
        "Rikti_Armour_Lieutenant_02",
        "Rikti_Armour_Lieutenant_03",
        "Rikti_Armour_Lieutenant_04",
        "Rikti_Armour_Lieutenant_05"
      ]
    },
    {
      "level": 18,
      "experience": 0,
      "display_names": [
        "Chief Mesmerist"
      ],
      "costumes": [
        "Rikti_Armour_Lieutenant_01",
        "Rikti_Armour_Lieutenant_02",
        "Rikti_Armour_Lieutenant_03",
        "Rikti_Armour_Lieutenant_04",
        "Rikti_Armour_Lieutenant_05"
      ]
    },
    {
      "level": 19,
      "experience": 0,
      "display_names": [
        "Chief Mesmerist"
      ],
      "costumes": [
        "Rikti_Armour_Lieutenant_01",
        "Rikti_Armour_Lieutenant_02",
        "Rikti_Armour_Lieutenant_03",
        "Rikti_Armour_Lieutenant_04",
        "Rikti_Armour_Lieutenant_05"
      ]
    },
    {
      "level": 20,
      "experience": 0,
      "display_names": [
        "Chief Mesmerist"
      ],
      "costumes": [
        "Rikti_Armour_Lieutenant_01",
        "Rikti_Armour_Lieutenant_02",
        "Rikti_Armour_Lieutenant_03",
        "Rikti_Armour_Lieutenant_04",
        "Rikti_Armour_Lieutenant_05"
      ]
    },
    {
      "level": 21,
      "experience": 0,
      "display_names": [
        "Chief Mesmerist"
      ],
      "costumes": [
        "Rikti_Armour_Lieutenant_01",
        "Rikti_Armour_Lieutenant_02",
        "Rikti_Armour_Lieutenant_03",
        "Rikti_Armour_Lieutenant_04",
        "Rikti_Armour_Lieutenant_05"
      ]
    },
    {
      "level": 22,
      "experience": 0,
      "display_names": [
        "Chief Mesmerist"
      ],
      "costumes": [
        "Rikti_Armour_Lieutenant_01",
        "Rikti_Armour_Lieutenant_02",
        "Rikti_Armour_Lieutenant_03",
        "Rikti_Armour_Lieutenant_04",
        "Rikti_Armour_Lieutenant_05"
      ]
    },
    {
      "level": 23,
      "experience": 0,
      "display_names": [
        "Chief Mesmerist"
      ],
      "costumes": [
        "Rikti_Armour_Lieutenant_01",
        "Rikti_Armour_Lieutenant_02",
        "Rikti_Armour_Lieutenant_03",
        "Rikti_Armour_Lieutenant_04",
        "Rikti_Armour_Lieutenant_05"
      ]
    },
    {
      "level": 24,
      "experience": 0,
      "display_names": [
        "Chief Mesmerist"
      ],
      "costumes": [
        "Rikti_Armour_Lieutenant_01",
        "Rikti_Armour_Lieutenant_02",
        "Rikti_Armour_Lieutenant_03",
        "Rikti_Armour_Lieutenant_04",
        "Rikti_Armour_Lieutenant_05"
      ]
    },
    {
      "level": 25,
      "experience": 0,
      "display_names": [
        "Chief Mesmerist"
      ],
      "costumes": [
        "Rikti_Armour_Lieutenant_01",
        "Rikti_Armour_Lieutenant_02",
        "Rikti_Armour_Lieutenant_03",
        "Rikti_Armour_Lieutenant_04",
        "Rikti_Armour_Lieutenant_05"
      ]
    },
    {
      "level": 26,
      "experience": 0,
      "display_names": [
        "Chief Mesmerist"
      ],
      "costumes": [
        "Rikti_Armour_Lieutenant_01",
        "Rikti_Armour_Lieutenant_02",
        "Rikti_Armour_Lieutenant_03",
        "Rikti_Armour_Lieutenant_04",
        "Rikti_Armour_Lieutenant_05"
      ]
    },
    {
      "level": 27,
      "experience": 0,
      "display_names": [
        "Chief Mesmerist"
      ],
      "costumes": [
        "Rikti_Armour_Lieutenant_01",
        "Rikti_Armour_Lieutenant_02",
        "Rikti_Armour_Lieutenant_03",
        "Rikti_Armour_Lieutenant_04",
        "Rikti_Armour_Lieutenant_05"
      ]
    },
    {
      "level": 28,
      "experience": 0,
      "display_names": [
        "Chief Mesmerist"
      ],
      "costumes": [
        "Rikti_Armour_Lieutenant_01",
        "Rikti_Armour_Lieutenant_02",
        "Rikti_Armour_Lieutenant_03",
        "Rikti_Armour_Lieutenant_04",
        "Rikti_Armour_Lieutenant_05"
      ]
    },
    {
      "level": 29,
      "experience": 0,
      "display_names": [
        "Chief Mesmerist"
      ],
      "costumes": [
        "Rikti_Armour_Lieutenant_01",
        "Rikti_Armour_Lieutenant_02",
        "Rikti_Armour_Lieutenant_03",
        "Rikti_Armour_Lieutenant_04",
        "Rikti_Armour_Lieutenant_05"
      ]
    },
    {
      "level": 30,
      "experience": 0,
      "display_names": [
        "Chief Mesmerist"
      ],
      "costumes": [
        "Rikti_Armour_Lieutenant_01",
        "Rikti_Armour_Lieutenant_02",
        "Rikti_Armour_Lieutenant_03",
        "Rikti_Armour_Lieutenant_04",
        "Rikti_Armour_Lieutenant_05"
      ]
    },
    {
      "level": 31,
      "experience": 0,
      "display_names": [
        "Chief Mesmerist"
      ],
      "costumes": [
        "Rikti_Armour_Lieutenant_01",
        "Rikti_Armour_Lieutenant_02",
        "Rikti_Armour_Lieutenant_03",
        "Rikti_Armour_Lieutenant_04",
        "Rikti_Armour_Lieutenant_05"
      ]
    },
    {
      "level": 32,
      "experience": 0,
      "display_names": [
        "Chief Mesmerist"
      ],
      "costumes": [
        "Rikti_Armour_Lieutenant_01",
        "Rikti_Armour_Lieutenant_02",
        "Rikti_Armour_Lieutenant_03",
        "Rikti_Armour_Lieutenant_04",
        "Rikti_Armour_Lieutenant_05"
      ]
    },
    {
      "level": 33,
      "experience": 0,
      "display_names": [
        "Chief Mesmerist"
      ],
      "costumes": [
        "Rikti_Armour_Lieutenant_01",
        "Rikti_Armour_Lieutenant_02",
        "Rikti_Armour_Lieutenant_03",
        "Rikti_Armour_Lieutenant_04",
        "Rikti_Armour_Lieutenant_05"
      ]
    },
    {
      "level": 34,
      "experience": 0,
      "display_names": [
        "Chief Mesmerist"
      ],
      "costumes": [
        "Rikti_Armour_Lieutenant_01",
        "Rikti_Armour_Lieutenant_02",
        "Rikti_Armour_Lieutenant_03",
        "Rikti_Armour_Lieutenant_04",
        "Rikti_Armour_Lieutenant_05"
      ]
    },
    {
      "level": 35,
      "experience": 0,
      "display_names": [
        "Chief Mesmerist"
      ],
      "costumes": [
        "Rikti_Armour_Lieutenant_01",
        "Rikti_Armour_Lieutenant_02",
        "Rikti_Armour_Lieutenant_03",
        "Rikti_Armour_Lieutenant_04",
        "Rikti_Armour_Lieutenant_05"
      ]
    },
    {
      "level": 36,
      "experience": 0,
      "display_names": [
        "Chief Mesmerist"
      ],
      "costumes": [
        "Rikti_Armour_Lieutenant_01",
        "Rikti_Armour_Lieutenant_02",
        "Rikti_Armour_Lieutenant_03",
        "Rikti_Armour_Lieutenant_04",
        "Rikti_Armour_Lieutenant_05"
      ]
    },
    {
      "level": 37,
      "experience": 0,
      "display_names": [
        "Chief Mesmerist"
      ],
      "costumes": [
        "Rikti_Armour_Lieutenant_01",
        "Rikti_Armour_Lieutenant_02",
        "Rikti_Armour_Lieutenant_03",
        "Rikti_Armour_Lieutenant_04",
        "Rikti_Armour_Lieutenant_05"
      ]
    },
    {
      "level": 38,
      "experience": 0,
      "display_names": [
        "Chief Mesmerist"
      ],
      "costumes": [
        "Rikti_Armour_Lieutenant_01",
        "Rikti_Armour_Lieutenant_02",
        "Rikti_Armour_Lieutenant_03",
        "Rikti_Armour_Lieutenant_04",
        "Rikti_Armour_Lieutenant_05"
      ]
    },
    {
      "level": 39,
      "experience": 0,
      "display_names": [
        "Chief Mesmerist"
      ],
      "costumes": [
        "Rikti_Armour_Lieutenant_01",
        "Rikti_Armour_Lieutenant_02",
        "Rikti_Armour_Lieutenant_03",
        "Rikti_Armour_Lieutenant_04",
        "Rikti_Armour_Lieutenant_05"
      ]
    },
    {
      "level": 40,
      "experience": 0,
      "display_names": [
        "Chief Mesmerist"
      ],
      "costumes": [
        "Rikti_Armour_Lieutenant_01",
        "Rikti_Armour_Lieutenant_02",
        "Rikti_Armour_Lieutenant_03",
        "Rikti_Armour_Lieutenant_04",
        "Rikti_Armour_Lieutenant_05"
      ]
    },
    {
      "level": 41,
      "experience": 0,
      "display_names": [
        "Chief Mesmerist"
      ],
      "costumes": [
        "Rikti_Armour_Lieutenant_01",
        "Rikti_Armour_Lieutenant_02",
        "Rikti_Armour_Lieutenant_03",
        "Rikti_Armour_Lieutenant_04",
        "Rikti_Armour_Lieutenant_05"
      ]
    },
    {
      "level": 42,
      "experience": 0,
      "display_names": [
        "Chief Mesmerist"
      ],
      "costumes": [
        "Rikti_Armour_Lieutenant_01",
        "Rikti_Armour_Lieutenant_02",
        "Rikti_Armour_Lieutenant_03",
        "Rikti_Armour_Lieutenant_04",
        "Rikti_Armour_Lieutenant_05"
      ]
    },
    {
      "level": 43,
      "experience": 0,
      "display_names": [
        "Chief Mesmerist"
      ],
      "costumes": [
        "Rikti_Armour_Lieutenant_01",
        "Rikti_Armour_Lieutenant_02",
        "Rikti_Armour_Lieutenant_03",
        "Rikti_Armour_Lieutenant_04",
        "Rikti_Armour_Lieutenant_05"
      ]
    },
    {
      "level": 44,
      "experience": 0,
      "display_names": [
        "Chief Mesmerist"
      ],
      "costumes": [
        "Rikti_Armour_Lieutenant_01",
        "Rikti_Armour_Lieutenant_02",
        "Rikti_Armour_Lieutenant_03",
        "Rikti_Armour_Lieutenant_04",
        "Rikti_Armour_Lieutenant_05"
      ]
    },
    {
      "level": 45,
      "experience": 0,
      "display_names": [
        "Chief Mesmerist"
      ],
      "costumes": [
        "Rikti_Armour_Lieutenant_01",
        "Rikti_Armour_Lieutenant_02",
        "Rikti_Armour_Lieutenant_03",
        "Rikti_Armour_Lieutenant_04",
        "Rikti_Armour_Lieutenant_05"
      ]
    },
    {
      "level": 46,
      "experience": 0,
      "display_names": [
        "Chief Mesmerist"
      ],
      "costumes": [
        "Rikti_Armour_Lieutenant_01",
        "Rikti_Armour_Lieutenant_02",
        "Rikti_Armour_Lieutenant_03",
        "Rikti_Armour_Lieutenant_04",
        "Rikti_Armour_Lieutenant_05"
      ]
    },
    {
      "level": 47,
      "experience": 0,
      "display_names": [
        "Chief Mesmerist"
      ],
      "costumes": [
        "Rikti_Armour_Lieutenant_01",
        "Rikti_Armour_Lieutenant_02",
        "Rikti_Armour_Lieutenant_03",
        "Rikti_Armour_Lieutenant_04",
        "Rikti_Armour_Lieutenant_05"
      ]
    },
    {
      "level": 48,
      "experience": 0,
      "display_names": [
        "Chief Mesmerist"
      ],
      "costumes": [
        "Rikti_Armour_Lieutenant_01",
        "Rikti_Armour_Lieutenant_02",
        "Rikti_Armour_Lieutenant_03",
        "Rikti_Armour_Lieutenant_04",
        "Rikti_Armour_Lieutenant_05"
      ]
    },
    {
      "level": 49,
      "experience": 0,
      "display_names": [
        "Chief Mesmerist"
      ],
      "costumes": [
        "Rikti_Armour_Lieutenant_01",
        "Rikti_Armour_Lieutenant_02",
        "Rikti_Armour_Lieutenant_03",
        "Rikti_Armour_Lieutenant_04",
        "Rikti_Armour_Lieutenant_05"
      ]
    },
    {
      "level": 50,
      "experience": 0,
      "display_names": [
        "Chief Mesmerist"
      ],
      "costumes": [
        "Rikti_Armour_Lieutenant_01",
        "Rikti_Armour_Lieutenant_02",
        "Rikti_Armour_Lieutenant_03",
        "Rikti_Armour_Lieutenant_04",
        "Rikti_Armour_Lieutenant_05"
      ]
    },
    {
      "level": 51,
      "experience": 0,
      "display_names": [
        "Chief Mesmerist"
      ],
      "costumes": [
        "Rikti_Armour_Lieutenant_01",
        "Rikti_Armour_Lieutenant_02",
        "Rikti_Armour_Lieutenant_03",
        "Rikti_Armour_Lieutenant_04",
        "Rikti_Armour_Lieutenant_05"
      ]
    },
    {
      "level": 52,
      "experience": 0,
      "display_names": [
        "Chief Mesmerist"
      ],
      "costumes": [
        "Rikti_Armour_Lieutenant_01",
        "Rikti_Armour_Lieutenant_02",
        "Rikti_Armour_Lieutenant_03",
        "Rikti_Armour_Lieutenant_04",
        "Rikti_Armour_Lieutenant_05"
      ]
    },
    {
      "level": 53,
      "experience": 0,
      "display_names": [
        "Chief Mesmerist"
      ],
      "costumes": [
        "Rikti_Armour_Lieutenant_01",
        "Rikti_Armour_Lieutenant_02",
        "Rikti_Armour_Lieutenant_03",
        "Rikti_Armour_Lieutenant_04",
        "Rikti_Armour_Lieutenant_05"
      ]
    },
    {
      "level": 54,
      "experience": 0,
      "display_names": [
        "Chief Mesmerist"
      ],
      "costumes": [
        "Rikti_Armour_Lieutenant_01",
        "Rikti_Armour_Lieutenant_02",
        "Rikti_Armour_Lieutenant_03",
        "Rikti_Armour_Lieutenant_04",
        "Rikti_Armour_Lieutenant_05"
      ]
    }
  ]
}