{
  "name": "TheLost_Rector_Anathema_Boss_Trial",
  "gender": "GENDER_MALE",
  "description": "The leaders of the Anathema have fully mutated minds that allow them to project their indomitable will onto others. They can use these powers to immobilize, hypnotize, or even dominate lesser wills. The Rectors are the masters of one-on-one conversions; their persuasive abilities work best on a single target.",
  "group_description": "The Lost",
  "display_class_name": null,
  "character_class_name": "boss_grunt",
  "ai_config": null,
  "commandable_pet": false,
  "power_tags": [
    "HumanSkeleton"
  ],
  "additional_rewards": [

  ],
  "skill_hp_rewards": [

  ],
  "skill_status_rewards": [

  ],
  "ally": null,
  "gang": null,
  "reward_scale": 1.4,
  "game_exclusion": "None",
  "inactive_state_weapon": null,
  "ignores_combat_mods": false,
  "copy_creator_mods": false,
  "spawn_limit": 0,
  "spawn_limit_mission": 0,
  "ignore_av_to_eb_scaling": false,
  "can_zone": false,
  "custom_badge_stat": null,
  "badge_stat_flags": "DefaultBadgeStat",
  "rank": "VR_BOSS",
  "power_full_names": [
    "Rikti.Lost_Brawl.Brawl",
    "Rikti.Lost_RiktiSword.Rikti_Sword",
    "Rikti.Anathema_Pariah_Boss_Ranged_Trial.Mental_Blast",
    "Rikti.Anathema_Pariah_Boss_Ranged_Trial.Mesmerize",
    "Rikti.Anathema_Pariah_Boss_Ranged_Trial.Dominate",
    "Rikti.Lost_Anathema_Pariah_Defense.Resistance"
  ],
  "power_display_names": [
    "Brawl",
    "Rikti Sword",
    "Mental Blast",
    "Mesmerize",
    "Dominate",
    "Resistance"
  ],
  "power_levels": [
    0,
    0,
    0,
    0,
    0,
    0
  ],
  "powers": [
    {
      "power_category": "Rikti",
      "power_set": "Lost_Brawl",
      "power": "*",
      "level": 0
    },
    {
      "power_category": "Rikti",
      "power_set": "Lost_RiktiSword",
      "power": "*",
      "level": 0
    },
    {
      "power_category": "Rikti",
      "power_set": "Anathema_Pariah_Boss_Ranged_Trial",
      "power": "*",
      "level": 0
    },
    {
      "power_category": "Rikti",
      "power_set": "Lost_Anathema_Pariah_Defense",
      "power": "*",
      "level": 0
    }
  ],
  "levels": [
    {
      "level": 4,
      "experience": 0,
      "display_names": [
        "Aberrant Rector"
      ],
      "costumes": [
        "Lost_40",
        "Lost_41",
        "Lost_42",
        "Lost_43",
        "Lost_44"
      ]
    }
  ]
}