{
  "name": "TheLost_Transponder_Monkey",
  "gender": "GENDER_MALE",
  "description": "Often referred to as ruin monkeys, these horrible creatures were created by the Rikti, then let loose in the city to wreak havoc. They roam in packs and pounce with tremendous speed and ferocity. Unfortunately, the Rikti seem to have a never-ending supply of them.",
  "group_description": "Rikti",
  "display_class_name": null,
  "character_class_name": "minion_small",
  "ai_config": "Default_Melee",
  "commandable_pet": false,
  "power_tags": [

  ],
  "additional_rewards": [

  ],
  "skill_hp_rewards": [

  ],
  "skill_status_rewards": [

  ],
  "ally": null,
  "gang": null,
  "reward_scale": 1.0,
  "game_exclusion": "None",
  "inactive_state_weapon": null,
  "ignores_combat_mods": false,
  "copy_creator_mods": false,
  "spawn_limit": 0,
  "spawn_limit_mission": 0,
  "ignore_av_to_eb_scaling": false,
  "can_zone": false,
  "custom_badge_stat": null,
  "badge_stat_flags": "DefaultBadgeStat",
  "rank": "VR_SMALL",
  "power_full_names": [
    "Rikti.Rikti_Monkey_Movement.Monkey_Jumping",
    "Rikti.Rikti_Monkey_Melee.Monkey_Brawl",
    "Rikti.Rikti_Monkey_Melee.Psychic_Dart",
    "Rikti.Rikti_Monkey_Melee.Gas"
  ],
  "power_display_names": [
    "Monkey Jumping",
    "Monkey Brawl",
    "Psychic Dart",
    "Gas"
  ],
  "power_levels": [
    0,
    0,
    0,
    0
  ],
  "powers": [
    {
      "power_category": "Rikti",
      "power_set": "Rikti_Monkey_Movement",
      "power": "*",
      "level": 0
    },
    {
      "power_category": "Rikti",
      "power_set": "Rikti_Monkey_Melee",
      "power": "*",
      "level": 0
    }
  ],
  "levels": [
    {
      "level": 1,
      "experience": 0,
      "display_names": [
        "Rikti Monkey"
      ],
      "costumes": [
        "Rikti_Monkey_01",
        "Rikti_Monkey_02",
        "Rikti_Monkey_03"
      ]
    },
    {
      "level": 2,
      "experience": 0,
      "display_names": [
        "Rikti Monkey"
      ],
      "costumes": [
        "Rikti_Monkey_01",
        "Rikti_Monkey_02",
        "Rikti_Monkey_03"
      ]
    },
    {
      "level": 3,
      "experience": 0,
      "display_names": [
        "Rikti Monkey"
      ],
      "costumes": [
        "Rikti_Monkey_01",
        "Rikti_Monkey_02",
        "Rikti_Monkey_03"
      ]
    },
    {
      "level": 4,
      "experience": 0,
      "display_names": [
        "Rikti Monkey"
      ],
      "costumes": [
        "Rikti_Monkey_01",
        "Rikti_Monkey_02",
        "Rikti_Monkey_03"
      ]
    },
    {
      "level": 5,
      "experience": 0,
      "display_names": [
        "Rikti Monkey"
      ],
      "costumes": [
        "Rikti_Monkey_01",
        "Rikti_Monkey_02",
        "Rikti_Monkey_03"
      ]
    },
    {
      "level": 6,
      "experience": 0,
      "display_names": [
        "Rikti Monkey"
      ],
      "costumes": [
        "Rikti_Monkey_01",
        "Rikti_Monkey_02",
        "Rikti_Monkey_03"
      ]
    },
    {
      "level": 7,
      "experience": 0,
      "display_names": [
        "Rikti Monkey"
      ],
      "costumes": [
        "Rikti_Monkey_01",
        "Rikti_Monkey_02",
        "Rikti_Monkey_03"
      ]
    },
    {
      "level": 8,
      "experience": 0,
      "display_names": [
        "Rikti Monkey"
      ],
      "costumes": [
        "Rikti_Monkey_01",
        "Rikti_Monkey_02",
        "Rikti_Monkey_03"
      ]
    },
    {
      "level": 9,
      "experience": 0,
      "display_names": [
        "Rikti Monkey"
      ],
      "costumes": [
        "Rikti_Monkey_01",
        "Rikti_Monkey_02",
        "Rikti_Monkey_03"
      ]
    },
    {
      "level": 10,
      "experience": 0,
      "display_names": [
        "Rikti Monkey"
      ],
      "costumes": [
        "Rikti_Monkey_01",
        "Rikti_Monkey_02",
        "Rikti_Monkey_03"
      ]
    },
    {
      "level": 11,
      "experience": 0,
      "display_names": [
        "Rikti Monkey"
      ],
      "costumes": [
        "Rikti_Monkey_01",
        "Rikti_Monkey_02",
        "Rikti_Monkey_03"
      ]
    },
    {
      "level": 12,
      "experience": 0,
      "display_names": [
        "Rikti Monkey"
      ],
      "costumes": [
        "Rikti_Monkey_01",
        "Rikti_Monkey_02",
        "Rikti_Monkey_03"
      ]
    },
    {
      "level": 13,
      "experience": 0,
      "display_names": [
        "Rikti Monkey"
      ],
      "costumes": [
        "Rikti_Monkey_01",
        "Rikti_Monkey_02",
        "Rikti_Monkey_03"
      ]
    },
    {
      "level": 14,
      "experience": 0,
      "display_names": [
        "Rikti Monkey"
      ],
      "costumes": [
        "Rikti_Monkey_01",
        "Rikti_Monkey_02",
        "Rikti_Monkey_03"
      ]
    },
    {
      "level": 15,
      "experience": 0,
      "display_names": [
        "Rikti Monkey"
      ],
      "costumes": [
        "Rikti_Monkey_01",
        "Rikti_Monkey_02",
        "Rikti_Monkey_03"
      ]
    },
    {
      "level": 16,
      "experience": 0,
      "display_names": [
        "Rikti Monkey"
      ],
      "costumes": [
        "Rikti_Monkey_01",
        "Rikti_Monkey_02",
        "Rikti_Monkey_03"
      ]
    },
    {
      "level": 17,
      "experience": 0,
      "display_names": [
        "Rikti Monkey"
      ],
      "costumes": [
        "Rikti_Monkey_01",
        "Rikti_Monkey_02",
        "Rikti_Monkey_03"
      ]
    },
    {
      "level": 18,
      "experience": 0,
      "display_names": [
        "Rikti Monkey"
      ],
      "costumes": [
        "Rikti_Monkey_01",
        "Rikti_Monkey_02",
        "Rikti_Monkey_03"
      ]
    },
    {
      "level": 19,
      "experience": 0,
      "display_names": [
        "Rikti Monkey"
      ],
      "costumes": [
        "Rikti_Monkey_01",
        "Rikti_Monkey_02",
        "Rikti_Monkey_03"
      ]
    },
    {
      "level": 20,
      "experience": 0,
      "display_names": [
        "Rikti Monkey"
      ],
      "costumes": [
        "Rikti_Monkey_01",
        "Rikti_Monkey_02",
        "Rikti_Monkey_03"
      ]
    },
    {
      "level": 21,
      "experience": 0,
      "display_names": [
        "Rikti Monkey"
      ],
      "costumes": [
        "Rikti_Monkey_01",
        "Rikti_Monkey_02",
        "Rikti_Monkey_03"
      ]
    },
    {
      "level": 22,
      "experience": 0,
      "display_names": [
        "Rikti Monkey"
      ],
      "costumes": [
        "Rikti_Monkey_01",
        "Rikti_Monkey_02",
        "Rikti_Monkey_03"
      ]
    },
    {
      "level": 23,
      "experience": 0,
      "display_names": [
        "Rikti Monkey"
      ],
      "costumes": [
        "Rikti_Monkey_01",
        "Rikti_Monkey_02",
        "Rikti_Monkey_03"
      ]
    },
    {
      "level": 24,
      "experience": 0,
      "display_names": [
        "Rikti Monkey"
      ],
      "costumes": [
        "Rikti_Monkey_01",
        "Rikti_Monkey_02",
        "Rikti_Monkey_03"
      ]
    },
    {
      "level": 25,
      "experience": 0,
      "display_names": [
        "Rikti Monkey"
      ],
      "costumes": [
        "Rikti_Monkey_01",
        "Rikti_Monkey_02",
        "Rikti_Monkey_03"
      ]
    },
    {
      "level": 26,
      "experience": 0,
      "display_names": [
        "Rikti Monkey"
      ],
      "costumes": [
        "Rikti_Monkey_01",
        "Rikti_Monkey_02",
        "Rikti_Monkey_03"
      ]
    },
    {
      "level": 27,
      "experience": 0,
      "display_names": [
        "Rikti Monkey"
      ],
      "costumes": [
        "Rikti_Monkey_01",
        "Rikti_Monkey_02",
        "Rikti_Monkey_03"
      ]
    },
    {
      "level": 28,
      "experience": 0,
      "display_names": [
        "Rikti Monkey"
      ],
      "costumes": [
        "Rikti_Monkey_01",
        "Rikti_Monkey_02",
        "Rikti_Monkey_03"
      ]
    },
    {
      "level": 29,
      "experience": 0,
      "display_names": [
        "Rikti Monkey"
      ],
      "costumes": [
        "Rikti_Monkey_01",
        "Rikti_Monkey_02",
        "Rikti_Monkey_03"
      ]
    },
    {
      "level": 30,
      "experience": 0,
      "display_names": [
        "Rikti Monkey"
      ],
      "costumes": [
        "Rikti_Monkey_01",
        "Rikti_Monkey_02",
        "Rikti_Monkey_03"
      ]
    },
    {
      "level": 31,
      "experience": 0,
      "display_names": [
        "Rikti Monkey"
      ],
      "costumes": [
        "Rikti_Monkey_01",
        "Rikti_Monkey_02",
        "Rikti_Monkey_03"
      ]
    },
    {
      "level": 32,
      "experience": 0,
      "display_names": [
        "Rikti Monkey"
      ],
      "costumes": [
        "Rikti_Monkey_01",
        "Rikti_Monkey_02",
        "Rikti_Monkey_03"
      ]
    },
    {
      "level": 33,
      "experience": 0,
      "display_names": [
        "Rikti Monkey"
      ],
      "costumes": [
        "Rikti_Monkey_01",
        "Rikti_Monkey_02",
        "Rikti_Monkey_03"
      ]
    },
    {
      "level": 34,
      "experience": 0,
      "display_names": [
        "Wild Rikti Monkey"
      ],
      "costumes": [
        "Rikti_Monkey_04",
        "Rikti_Monkey_05"
      ]
    },
    {
      "level": 35,
      "experience": 0,
      "display_names": [
        "Wild Rikti Monkey"
      ],
      "costumes": [
        "Rikti_Monkey_04",
        "Rikti_Monkey_05"
      ]
    },
    {
      "level": 36,
      "experience": 0,
      "display_names": [
        "Wild Rikti Monkey"
      ],
      "costumes": [
        "Rikti_Monkey_04",
        "Rikti_Monkey_05"
      ]
    },
    {
      "level": 37,
      "experience": 0,
      "display_names": [
        "Wild Rikti Monkey"
      ],
      "costumes": [
        "Rikti_Monkey_04",
        "Rikti_Monkey_05"
      ]
    },
    {
      "level": 38,
      "experience": 0,
      "display_names": [
        "Vicious Rikti Monkey"
      ],
      "costumes": [
        "Rikti_Monkey_06",
        "Rikti_Monkey_07"
      ]
    },
    {
      "level": 39,
      "experience": 0,
      "display_names": [
        "Vicious Rikti Monkey"
      ],
      "costumes": [
        "Rikti_Monkey_06",
        "Rikti_Monkey_07"
      ]
    },
    {
      "level": 40,
      "experience": 0,
      "display_names": [
        "Vicious Rikti Monkey"
      ],
      "costumes": [
        "Rikti_Monkey_06",
        "Rikti_Monkey_07"
      ]
    },
    {
      "level": 41,
      "experience": 0,
      "display_names": [
        "Vicious Rikti Monkey"
      ],
      "costumes": [
        "Rikti_Monkey_06",
        "Rikti_Monkey_07"
      ]
    },
    {
      "level": 42,
      "experience": 0,
      "display_names": [
        "Vicious Rikti Monkey"
      ],
      "costumes": [
        "Rikti_Monkey_06",
        "Rikti_Monkey_07"
      ]
    },
    {
      "level": 43,
      "experience": 0,
      "display_names": [
        "Vicious Rikti Monkey"
      ],
      "costumes": [
        "Rikti_Monkey_06",
        "Rikti_Monkey_07"
      ]
    },
    {
      "level": 44,
      "experience": 0,
      "display_names": [
        "Vicious Rikti Monkey"
      ],
      "costumes": [
        "Rikti_Monkey_06",
        "Rikti_Monkey_07"
      ]
    },
    {
      "level": 45,
      "experience": 0,
      "display_names": [
        "Vicious Rikti Monkey"
      ],
      "costumes": [
        "Rikti_Monkey_06",
        "Rikti_Monkey_07"
      ]
    },
    {
      "level": 46,
      "experience": 0,
      "display_names": [
        "Vicious Rikti Monkey"
      ],
      "costumes": [
        "Rikti_Monkey_06",
        "Rikti_Monkey_07"
      ]
    },
    {
      "level": 47,
      "experience": 0,
      "display_names": [
        "Vicious Rikti Monkey"
      ],
      "costumes": [
        "Rikti_Monkey_06",
        "Rikti_Monkey_07"
      ]
    },
    {
      "level": 48,
      "experience": 0,
      "display_names": [
        "Vicious Rikti Monkey"
      ],
      "costumes": [
        "Rikti_Monkey_06",
        "Rikti_Monkey_07"
      ]
    },
    {
      "level": 49,
      "experience": 0,
      "display_names": [
        "Vicious Rikti Monkey"
      ],
      "costumes": [
        "Rikti_Monkey_06",
        "Rikti_Monkey_07"
      ]
    },
    {
      "level": 50,
      "experience": 0,
      "display_names": [
        "Vicious Rikti Monkey"
      ],
      "costumes": [
        "Rikti_Monkey_06",
        "Rikti_Monkey_07"
      ]
    },
    {
      "level": 51,
      "experience": 0,
      "display_names": [
        "Vicious Rikti Monkey"
      ],
      "costumes": [
        "Rikti_Monkey_06",
        "Rikti_Monkey_07"
      ]
    },
    {
      "level": 52,
      "experience": 0,
      "display_names": [
        "Vicious Rikti Monkey"
      ],
      "costumes": [
        "Rikti_Monkey_06",
        "Rikti_Monkey_07"
      ]
    },
    {
      "level": 53,
      "experience": 0,
      "display_names": [
        "Vicious Rikti Monkey"
      ],
      "costumes": [
        "Rikti_Monkey_06",
        "Rikti_Monkey_07"
      ]
    },
    {
      "level": 54,
      "experience": 0,
      "display_names": [
        "Vicious Rikti Monkey"
      ],
      "costumes": [
        "Rikti_Monkey_06",
        "Rikti_Monkey_07"
      ]
    }
  ]
}