{
  "name": "Thugs_Boss",
  "gender": "GENDER_MALE",
  "description": null,
  "group_description": null,
  "display_class_name": null,
  "character_class_name": "boss_grunt",
  "ai_config": null,
  "commandable_pet": false,
  "power_tags": [
    "HumanSkeleton",
    "Human"
  ],
  "additional_rewards": [

  ],
  "skill_hp_rewards": [

  ],
  "skill_status_rewards": [

  ],
  "ally": null,
  "gang": null,
  "reward_scale": 1.0,
  "game_exclusion": "None",
  "inactive_state_weapon": null,
  "ignores_combat_mods": false,
  "copy_creator_mods": false,
  "spawn_limit": -1,
  "spawn_limit_mission": -1,
  "ignore_av_to_eb_scaling": false,
  "can_zone": false,
  "custom_badge_stat": null,
  "badge_stat_flags": "DefaultBadgeStat",
  "rank": "VR_BOSS",
  "power_full_names": [
    "Hellions.Hellions_Brawl.Brawl",
    "Hellions.Hellions_Minion_Revolver.Revolver"
  ],
  "power_display_names": [
    "Brawl",
    "Revolver"
  ],
  "power_levels": [
    0,
    0
  ],
  "powers": [
    {
      "power_category": "Hellions",
      "power_set": "Hellions_Brawl",
      "power": "*",
      "level": 0
    },
    {
      "power_category": "Hellions",
      "power_set": "Hellions_Minion_Revolver",
      "power": "*",
      "level": 0
    }
  ],
  "levels": [
    {
      "level": 1,
      "experience": 0,
      "display_names": [
        "Trash",
        "Jimbo",
        "Rumbles",
        "Lefty",
        "Slick",
        "Bullet",
        "Fingers",
        "Chains",
        "Scars",
        "Icepick",
        "Needles",
        "Nails"
      ],
      "costumes": [
        "Thug_01",
        "Thug_02"
      ]
    },
    {
      "level": 2,
      "experience": 0,
      "display_names": [
        "Trash",
        "Jimbo",
        "Rumbles",
        "Lefty",
        "Slick",
        "Bullet",
        "Fingers",
        "Chains",
        "Scars",
        "Icepick",
        "Needles",
        "Nails"
      ],
      "costumes": [
        "Thug_01",
        "Thug_02"
      ]
    },
    {
      "level": 3,
      "experience": 0,
      "display_names": [
        "Trash",
        "Jimbo",
        "Rumbles",
        "Lefty",
        "Slick",
        "Bullet",
        "Fingers",
        "Chains",
        "Scars",
        "Icepick",
        "Needles",
        "Nails"
      ],
      "costumes": [
        "Thug_01",
        "Thug_02"
      ]
    },
    {
      "level": 4,
      "experience": 0,
      "display_names": [
        "Trash",
        "Jimbo",
        "Rumbles",
        "Lefty",
        "Slick",
        "Bullet",
        "Fingers",
        "Chains",
        "Scars",
        "Icepick",
        "Needles",
        "Nails"
      ],
      "costumes": [
        "Thug_01",
        "Thug_02"
      ]
    },
    {
      "level": 5,
      "experience": 0,
      "display_names": [
        "Trash",
        "Jimbo",
        "Rumbles",
        "Lefty",
        "Slick",
        "Bullet",
        "Fingers",
        "Chains",
        "Scars",
        "Icepick",
        "Needles",
        "Nails"
      ],
      "costumes": [
        "Thug_01",
        "Thug_02"
      ]
    },
    {
      "level": 6,
      "experience": 0,
      "display_names": [
        "Trash",
        "Jimbo",
        "Rumbles",
        "Lefty",
        "Slick",
        "Bullet",
        "Fingers",
        "Chains",
        "Scars",
        "Icepick",
        "Needles",
        "Nails"
      ],
      "costumes": [
        "Thug_01",
        "Thug_02"
      ]
    },
    {
      "level": 7,
      "experience": 0,
      "display_names": [
        "Trash",
        "Jimbo",
        "Rumbles",
        "Lefty",
        "Slick",
        "Bullet",
        "Fingers",
        "Chains",
        "Scars",
        "Icepick",
        "Needles",
        "Nails"
      ],
      "costumes": [
        "Thug_01",
        "Thug_02"
      ]
    },
    {
      "level": 8,
      "experience": 0,
      "display_names": [
        "Trash",
        "Jimbo",
        "Rumbles",
        "Lefty",
        "Slick",
        "Bullet",
        "Fingers",
        "Chains",
        "Scars",
        "Icepick",
        "Needles",
        "Nails"
      ],
      "costumes": [
        "Thug_01",
        "Thug_02"
      ]
    },
    {
      "level": 9,
      "experience": 0,
      "display_names": [
        "Trash",
        "Jimbo",
        "Rumbles",
        "Lefty",
        "Slick",
        "Bullet",
        "Fingers",
        "Chains",
        "Scars",
        "Icepick",
        "Needles",
        "Nails"
      ],
      "costumes": [
        "Thug_01",
        "Thug_02"
      ]
    },
    {
      "level": 10,
      "experience": 0,
      "display_names": [
        "Trash",
        "Jimbo",
        "Rumbles",
        "Lefty",
        "Slick",
        "Bullet",
        "Fingers",
        "Chains",
        "Scars",
        "Icepick",
        "Needles",
        "Nails"
      ],
      "costumes": [
        "Thug_01",
        "Thug_02"
      ]
    }
  ]
}