{
  "name": "TimeEchoes_Minotaur",
  "gender": "GENDER_MALE",
  "description": "The Minotaur is a beast of ancient times; born from the blood of a human and the passion of an Incarnate. Any man who dares challenge this beast will face a wrath of celestial force.",
  "group_description": null,
  "display_class_name": null,
  "character_class_name": "boss_elite",
  "ai_config": "Default_Melee",
  "commandable_pet": false,
  "power_tags": [
    "Humanoid",
    "HumanSkeleton"
  ],
  "additional_rewards": [

  ],
  "skill_hp_rewards": [

  ],
  "skill_status_rewards": [

  ],
  "ally": null,
  "gang": null,
  "reward_scale": 1.0,
  "game_exclusion": "None",
  "inactive_state_weapon": null,
  "ignores_combat_mods": false,
  "copy_creator_mods": false,
  "spawn_limit": 0,
  "spawn_limit_mission": 0,
  "ignore_av_to_eb_scaling": false,
  "can_zone": false,
  "custom_badge_stat": null,
  "badge_stat_flags": "DefaultBadgeStat",
  "rank": "VR_ELITE",
  "power_full_names": [
    "Rularuu.Reflections.Resistance",
    "Romans.Minotaur.Chop",
    "Romans.Minotaur.Beheader",
    "Romans.Minotaur.Whirling_Axe",
    "Romans.Minotaur.Cleave",
    "Romans.Minotaur.Pendulum",
    "Romans.Minotaur.Unyielding",
    "Romans.Minotaur.Unstoppable",
    "Romans.Minotaur.Fetid_Howl"
  ],
  "power_display_names": [
    "Resistance",
    "Chop",
    "Beheader",
    "Whirling Axe",
    "Cleave",
    "Pendulum",
    "Unyielding",
    "Unstoppable",
    "Fetid Howl"
  ],
  "power_levels": [
    0,
    0,
    0,
    0,
    0,
    0,
    0,
    0,
    0
  ],
  "powers": [
    {
      "power_category": "Rularuu",
      "power_set": "Reflections",
      "power": "*",
      "level": 0
    },
    {
      "power_category": "Romans",
      "power_set": "Minotaur",
      "power": "*",
      "level": 0
    }
  ],
  "levels": [
    {
      "level": 50,
      "experience": 0,
      "display_names": [
        "Echo of Minotaur"
      ],
      "costumes": [
        "Roman_Minotaur_01"
      ]
    },
    {
      "level": 51,
      "experience": 0,
      "display_names": [
        "Echo of Minotaur"
      ],
      "costumes": [
        "Roman_Minotaur_01"
      ]
    },
    {
      "level": 52,
      "experience": 0,
      "display_names": [
        "Echo of Minotaur"
      ],
      "costumes": [
        "Roman_Minotaur_01"
      ]
    },
    {
      "level": 53,
      "experience": 0,
      "display_names": [
        "Echo of Minotaur"
      ],
      "costumes": [
        "Roman_Minotaur_01"
      ]
    },
    {
      "level": 54,
      "experience": 0,
      "display_names": [
        "Echo of Minotaur"
      ],
      "costumes": [
        "Roman_Minotaur_01"
      ]
    }
  ]
}