{
  "name": "Trolls_Rave_Lieutenant",
  "gender": "GENDER_MALE",
  "description": "These Trolls have managed to hit upon a stash of uncut Superadine. It's got them raging out of control and bent on destruction.",
  "group_description": null,
  "display_class_name": null,
  "character_class_name": "lt_grunt",
  "ai_config": "Default_Melee",
  "commandable_pet": false,
  "power_tags": [
    "HumanSkeleton",
    "Human"
  ],
  "additional_rewards": [

  ],
  "skill_hp_rewards": [

  ],
  "skill_status_rewards": [

  ],
  "ally": null,
  "gang": null,
  "reward_scale": 1.0,
  "game_exclusion": "None",
  "inactive_state_weapon": null,
  "ignores_combat_mods": false,
  "copy_creator_mods": false,
  "spawn_limit": 0,
  "spawn_limit_mission": 0,
  "ignore_av_to_eb_scaling": false,
  "can_zone": false,
  "custom_badge_stat": null,
  "badge_stat_flags": "DefaultBadgeStat",
  "rank": "VR_LIEUTENANT",
  "power_full_names": [
    "Trolls.Rave_Trolls_All.Resistance",
    "Trolls.Troll_Lt_Boss_Defense.Fast_Healing",
    "Trolls.Troll_Lt.Hurl",
    "Trolls.Troll_Lt.Punch",
    "Trolls.Troll_Lt.Integration"
  ],
  "power_display_names": [
    "Resistance",
    "Fast Healing",
    "Hurl",
    "Punch",
    "Integration"
  ],
  "power_levels": [
    0,
    0,
    0,
    0,
    0
  ],
  "powers": [
    {
      "power_category": "Trolls",
      "power_set": "Rave_Trolls_All",
      "power": "*",
      "level": 0
    },
    {
      "power_category": "Trolls",
      "power_set": "Troll_Lt_Boss_Defense",
      "power": "*",
      "level": 0
    },
    {
      "power_category": "Trolls",
      "power_set": "Troll_Lt",
      "power": "*",
      "level": 0
    }
  ],
  "levels": [
    {
      "level": 13,
      "experience": 0,
      "display_names": [
        "Gardvord"
      ],
      "costumes": [
        "Thug_Troll_Boss_01",
        "Thug_Troll_Boss_02",
        "Thug_Troll_Boss_03"
      ]
    },
    {
      "level": 14,
      "experience": 0,
      "display_names": [
        "Gardvord"
      ],
      "costumes": [
        "Thug_Troll_Boss_01",
        "Thug_Troll_Boss_02",
        "Thug_Troll_Boss_03"
      ]
    },
    {
      "level": 15,
      "experience": 0,
      "display_names": [
        "Gardvord"
      ],
      "costumes": [
        "Thug_Troll_Boss_01",
        "Thug_Troll_Boss_02",
        "Thug_Troll_Boss_03"
      ]
    },
    {
      "level": 16,
      "experience": 0,
      "display_names": [
        "Gardvord"
      ],
      "costumes": [
        "Thug_Troll_Boss_01",
        "Thug_Troll_Boss_02",
        "Thug_Troll_Boss_03"
      ]
    },
    {
      "level": 17,
      "experience": 0,
      "display_names": [
        "Gardvord"
      ],
      "costumes": [
        "Thug_Troll_Boss_01",
        "Thug_Troll_Boss_02",
        "Thug_Troll_Boss_03"
      ]
    },
    {
      "level": 18,
      "experience": 0,
      "display_names": [
        "Gardvord"
      ],
      "costumes": [
        "Thug_Troll_Boss_01",
        "Thug_Troll_Boss_02",
        "Thug_Troll_Boss_03"
      ]
    },
    {
      "level": 19,
      "experience": 0,
      "display_names": [
        "Gardvord"
      ],
      "costumes": [
        "Thug_Troll_Boss_01",
        "Thug_Troll_Boss_02",
        "Thug_Troll_Boss_03"
      ]
    }
  ]
}