{
  "name": "TsooEndgame_BlueInkMan_Kama",
  "gender": "GENDER_MALE",
  "description": "The enchanted inks used in Tsoo tattoos grant these soldiers special powers. The   blue ink empowers the Tsoo with the ability to drain the strength and energy from a victim and add it to his own. Blue Ink Men are masters of using an opponent's strengths against him.",
  "group_description": null,
  "display_class_name": null,
  "character_class_name": "minion_praetoriangrunt",
  "ai_config": "Tsoo_Minion",
  "commandable_pet": false,
  "power_tags": [
    "HumanSkeleton",
    "Human"
  ],
  "additional_rewards": [

  ],
  "skill_hp_rewards": [

  ],
  "skill_status_rewards": [

  ],
  "ally": null,
  "gang": null,
  "reward_scale": 1.0,
  "game_exclusion": "None",
  "inactive_state_weapon": null,
  "ignores_combat_mods": false,
  "copy_creator_mods": false,
  "spawn_limit": -1,
  "spawn_limit_mission": -1,
  "ignore_av_to_eb_scaling": false,
  "can_zone": false,
  "custom_badge_stat": "kills.Tsoo_CoV_Sai_Red_Men",
  "badge_stat_flags": "DefaultBadgeStat",
  "rank": "VR_MINION",
  "power_full_names": [
    "Tsoo.Endgame_Minion.Kama",
    "Tsoo.Endgame_Minion.Shuriken",
    "Tsoo.Endgame_Minion.Poison_Dart",
    "Tsoo.Endgame_Minion.Thunder_Kick",
    "Tsoo.Tsoo_Red_Ink_Men_Defense.Siphon_Power",
    "Tsoo.Tsoo_Movement.Super_Leap",
    "Tsoo.Resistances.Damage_Endgame_MN"
  ],
  "power_display_names": [
    "Kama",
    "Shuriken",
    "Poison Dart",
    "Thunder Kick",
    "Siphon Power",
    "Super Leap",
    "Damage Resistance"
  ],
  "power_levels": [
    0,
    0,
    0,
    0,
    0,
    0,
    0
  ],
  "powers": [
    {
      "power_category": "Tsoo",
      "power_set": "Endgame_Minion",
      "power": "Kama",
      "level": 0
    },
    {
      "power_category": "Tsoo",
      "power_set": "Endgame_Minion",
      "power": "Shuriken",
      "level": 0
    },
    {
      "power_category": "Tsoo",
      "power_set": "Endgame_Minion",
      "power": "Poison_Dart",
      "level": 0
    },
    {
      "power_category": "Tsoo",
      "power_set": "Endgame_Minion",
      "power": "Thunder_Kick",
      "level": 0
    },
    {
      "power_category": "Tsoo",
      "power_set": "Tsoo_Red_Ink_Men_Defense",
      "power": "Siphon_Power",
      "level": 0
    },
    {
      "power_category": "Tsoo",
      "power_set": "Tsoo_Movement",
      "power": "*",
      "level": 0
    },
    {
      "power_category": "Tsoo",
      "power_set": "Resistances",
      "power": "Damage_Endgame_MN",
      "level": 0
    }
  ],
  "levels": [
    {
      "level": 50,
      "experience": 0,
      "display_names": [
        "Eagle Blue Ink Man"
      ],
      "costumes": [
        "Inkman_Blue_01",
        "Inkman_Blue_02",
        "Inkman_Blue_03",
        "Inkman_Blue_04",
        "Inkman_Blue_05",
        "Inkman_Blue_06"
      ]
    },
    {
      "level": 51,
      "experience": 0,
      "display_names": [
        "Eagle Blue Ink Man"
      ],
      "costumes": [
        "Inkman_Blue_01",
        "Inkman_Blue_02",
        "Inkman_Blue_03",
        "Inkman_Blue_04",
        "Inkman_Blue_05",
        "Inkman_Blue_06"
      ]
    },
    {
      "level": 52,
      "experience": 0,
      "display_names": [
        "Eagle Blue Ink Man"
      ],
      "costumes": [
        "Inkman_Blue_01",
        "Inkman_Blue_02",
        "Inkman_Blue_03",
        "Inkman_Blue_04",
        "Inkman_Blue_05",
        "Inkman_Blue_06"
      ]
    },
    {
      "level": 53,
      "experience": 0,
      "display_names": [
        "Eagle Blue Ink Man"
      ],
      "costumes": [
        "Inkman_Blue_01",
        "Inkman_Blue_02",
        "Inkman_Blue_03",
        "Inkman_Blue_04",
        "Inkman_Blue_05",
        "Inkman_Blue_06"
      ]
    },
    {
      "level": 54,
      "experience": 0,
      "display_names": [
        "Eagle Blue Ink Man"
      ],
      "costumes": [
        "Inkman_Blue_01",
        "Inkman_Blue_02",
        "Inkman_Blue_03",
        "Inkman_Blue_04",
        "Inkman_Blue_05",
        "Inkman_Blue_06"
      ]
    }
  ]
}