{
  "name": "Tsoo_Boss_10",
  "gender": "GENDER_MALE",
  "description": "The powerful strikes of the Lost Son technique are used in conjunction with deadly knowledge of human pressure points. Masters of this technique can easily cripple and incapacitate their foes.",
  "group_description": null,
  "display_class_name": null,
  "character_class_name": "boss_grunt",
  "ai_config": "Tsoo_Minion",
  "commandable_pet": false,
  "power_tags": [
    "HumanSkeleton",
    "Human"
  ],
  "additional_rewards": [

  ],
  "skill_hp_rewards": [

  ],
  "skill_status_rewards": [

  ],
  "ally": null,
  "gang": null,
  "reward_scale": 1.2,
  "game_exclusion": "None",
  "inactive_state_weapon": null,
  "ignores_combat_mods": false,
  "copy_creator_mods": false,
  "spawn_limit": 1,
  "spawn_limit_mission": 1,
  "ignore_av_to_eb_scaling": false,
  "can_zone": false,
  "custom_badge_stat": null,
  "badge_stat_flags": "DefaultBadgeStat",
  "rank": "VR_BOSS",
  "power_full_names": [
    "Tsoo.LostSon.Crane_Kick",
    "Tsoo.LostSon.Crippling_Axe_Kick",
    "Tsoo.LostSon.Eagles_Claw",
    "Tsoo.LostSon.Shuriken",
    "Tsoo.LostSon.Blind",
    "Tsoo.Tsoo_Movement.Super_Leap",
    "Tsoo.Tsoo_InkMen_Boss_Defense.Resistance"
  ],
  "power_display_names": [
    "Crane Kick",
    "Crippling Axe Kick",
    "Eagles Claw",
    "Shuriken",
    "Blind",
    "Super Leap",
    "Resistance"
  ],
  "power_levels": [
    0,
    0,
    0,
    0,
    0,
    0,
    0
  ],
  "powers": [
    {
      "power_category": "Tsoo",
      "power_set": "LostSon",
      "power": "*",
      "level": 0
    },
    {
      "power_category": "Tsoo",
      "power_set": "Tsoo_Movement",
      "power": "*",
      "level": 0
    },
    {
      "power_category": "Tsoo",
      "power_set": "Tsoo_InkMen_Boss_Defense",
      "power": "*",
      "level": 0
    }
  ],
  "levels": [
    {
      "level": 24,
      "experience": 0,
      "display_names": [
        "Lost Son"
      ],
      "costumes": [
        "Tsoo_10"
      ]
    },
    {
      "level": 25,
      "experience": 0,
      "display_names": [
        "Lost Son"
      ],
      "costumes": [
        "Tsoo_10"
      ]
    },
    {
      "level": 26,
      "experience": 0,
      "display_names": [
        "Lost Son"
      ],
      "costumes": [
        "Tsoo_10"
      ]
    },
    {
      "level": 27,
      "experience": 0,
      "display_names": [
        "Lost Son"
      ],
      "costumes": [
        "Tsoo_10"
      ]
    },
    {
      "level": 28,
      "experience": 0,
      "display_names": [
        "Lost Son"
      ],
      "costumes": [
        "Tsoo_10"
      ]
    }
  ]
}