{
  "name": "Tsoo_Boss_09",
  "gender": "GENDER_MALE",
  "description": "Masters of the art of the Fire Dagger have suffused their internal energies with the power of flame. Fire comes to their fingertips at a whim, allowing them to devastate their foes.",
  "group_description": null,
  "display_class_name": null,
  "character_class_name": "boss_grunt",
  "ai_config": "Tsoo_Minion",
  "commandable_pet": false,
  "power_tags": [
    "HumanSkeleton",
    "Human"
  ],
  "additional_rewards": [

  ],
  "skill_hp_rewards": [

  ],
  "skill_status_rewards": [

  ],
  "ally": null,
  "gang": null,
  "reward_scale": 1.2,
  "game_exclusion": "None",
  "inactive_state_weapon": null,
  "ignores_combat_mods": false,
  "copy_creator_mods": false,
  "spawn_limit": 1,
  "spawn_limit_mission": 1,
  "ignore_av_to_eb_scaling": false,
  "can_zone": false,
  "custom_badge_stat": null,
  "badge_stat_flags": "DefaultBadgeStat",
  "rank": "VR_BOSS",
  "power_full_names": [
    "Tsoo.FireDagger.Fire_Smash",
    "Tsoo.FireDagger.Fire_Sword",
    "Tsoo.FireDagger.Fire_Ball",
    "Tsoo.FireDagger.Flares",
    "Tsoo.Tsoo_Movement.Super_Leap",
    "Tsoo.Tsoo_InkMen_Boss_Defense.Resistance"
  ],
  "power_display_names": [
    "Fire Smash",
    "Fire Sword",
    "Fire Ball",
    "Flares",
    "Super Leap",
    "Resistance"
  ],
  "power_levels": [
    0,
    0,
    0,
    0,
    0,
    0
  ],
  "powers": [
    {
      "power_category": "Tsoo",
      "power_set": "FireDagger",
      "power": "*",
      "level": 0
    },
    {
      "power_category": "Tsoo",
      "power_set": "Tsoo_Movement",
      "power": "*",
      "level": 0
    },
    {
      "power_category": "Tsoo",
      "power_set": "Tsoo_InkMen_Boss_Defense",
      "power": "*",
      "level": 0
    }
  ],
  "levels": [
    {
      "level": 21,
      "experience": 0,
      "display_names": [
        "Fire Dagger"
      ],
      "costumes": [
        "Tsoo_09"
      ]
    },
    {
      "level": 22,
      "experience": 0,
      "display_names": [
        "Fire Dagger"
      ],
      "costumes": [
        "Tsoo_09"
      ]
    },
    {
      "level": 23,
      "experience": 0,
      "display_names": [
        "Fire Dagger"
      ],
      "costumes": [
        "Tsoo_09"
      ]
    },
    {
      "level": 24,
      "experience": 0,
      "display_names": [
        "Fire Dagger"
      ],
      "costumes": [
        "Tsoo_09"
      ]
    },
    {
      "level": 25,
      "experience": 0,
      "display_names": [
        "Fire Dagger"
      ],
      "costumes": [
        "Tsoo_09"
      ]
    }
  ]
}