{
  "name": "Tuatha_Tuatha_Lt1",
  "gender": "GENDER_MALE",
  "description": "The Champions of the Tuatha de Dannan are big, bulky brutes, capable of tearing most people in half. They have distinguished themselves by acts of great strength and courage, and many of the Tuatha look to them as leaders.",
  "group_description": null,
  "display_class_name": null,
  "character_class_name": "lt_grunt",
  "ai_config": "Default_Ranged",
  "commandable_pet": false,
  "power_tags": [
    "Fey"
  ],
  "additional_rewards": [

  ],
  "skill_hp_rewards": [

  ],
  "skill_status_rewards": [

  ],
  "ally": null,
  "gang": "RedCapTuatha",
  "reward_scale": 1.0,
  "game_exclusion": "None",
  "inactive_state_weapon": null,
  "ignores_combat_mods": false,
  "copy_creator_mods": false,
  "spawn_limit": -1,
  "spawn_limit_mission": -1,
  "ignore_av_to_eb_scaling": false,
  "can_zone": false,
  "custom_badge_stat": null,
  "badge_stat_flags": "DefaultBadgeStat",
  "rank": "VR_LIEUTENANT",
  "power_full_names": [
    "Tuatha.Tuatha_Lt_Resists.Resistance",
    "Tuatha.Tuatha_Lt_Melee.Smash",
    "Tuatha.Tuatha_Lt_Melee.Head_Butt",
    "Tuatha.Tuatha_Lt_Defender.Tremor",
    "Tuatha.Tuatha_Lt_Defender.Earths_Embrace",
    "Tuatha.Tuatha_Lt_Defender.Root_Throw"
  ],
  "power_display_names": [
    "Resistance",
    "Smash",
    "Head Butt",
    "Tremor",
    "Earth's Embrace",
    "Root Throw"
  ],
  "power_levels": [
    0,
    0,
    0,
    0,
    0,
    0
  ],
  "powers": [
    {
      "power_category": "Tuatha",
      "power_set": "Tuatha_Lt_Resists",
      "power": "*",
      "level": 0
    },
    {
      "power_category": "Tuatha",
      "power_set": "Tuatha_Lt_Melee",
      "power": "*",
      "level": 0
    },
    {
      "power_category": "Tuatha",
      "power_set": "Tuatha_Lt_Defender",
      "power": "*",
      "level": 0
    }
  ],
  "levels": [
    {
      "level": 25,
      "experience": 0,
      "display_names": [
        "Champion"
      ],
      "costumes": [
        "Croatoa_Tuatha_Lieutenant_01",
        "Croatoa_Tuatha_Lieutenant_02",
        "Croatoa_Tuatha_Lieutenant_03"
      ]
    },
    {
      "level": 26,
      "experience": 0,
      "display_names": [
        "Champion"
      ],
      "costumes": [
        "Croatoa_Tuatha_Lieutenant_01",
        "Croatoa_Tuatha_Lieutenant_02",
        "Croatoa_Tuatha_Lieutenant_03"
      ]
    },
    {
      "level": 27,
      "experience": 0,
      "display_names": [
        "Champion"
      ],
      "costumes": [
        "Croatoa_Tuatha_Lieutenant_01",
        "Croatoa_Tuatha_Lieutenant_02",
        "Croatoa_Tuatha_Lieutenant_03"
      ]
    },
    {
      "level": 28,
      "experience": 0,
      "display_names": [
        "Champion"
      ],
      "costumes": [
        "Croatoa_Tuatha_Lieutenant_01",
        "Croatoa_Tuatha_Lieutenant_02",
        "Croatoa_Tuatha_Lieutenant_03"
      ]
    },
    {
      "level": 29,
      "experience": 0,
      "display_names": [
        "Champion"
      ],
      "costumes": [
        "Croatoa_Tuatha_Lieutenant_01",
        "Croatoa_Tuatha_Lieutenant_02",
        "Croatoa_Tuatha_Lieutenant_03"
      ]
    },
    {
      "level": 30,
      "experience": 0,
      "display_names": [
        "Champion"
      ],
      "costumes": [
        "Croatoa_Tuatha_Lieutenant_01",
        "Croatoa_Tuatha_Lieutenant_02",
        "Croatoa_Tuatha_Lieutenant_03"
      ]
    },
    {
      "level": 31,
      "experience": 0,
      "display_names": [
        "Champion"
      ],
      "costumes": [
        "Croatoa_Tuatha_Lieutenant_01",
        "Croatoa_Tuatha_Lieutenant_02",
        "Croatoa_Tuatha_Lieutenant_03"
      ]
    },
    {
      "level": 32,
      "experience": 0,
      "display_names": [
        "Champion"
      ],
      "costumes": [
        "Croatoa_Tuatha_Lieutenant_01",
        "Croatoa_Tuatha_Lieutenant_02",
        "Croatoa_Tuatha_Lieutenant_03"
      ]
    },
    {
      "level": 33,
      "experience": 0,
      "display_names": [
        "Champion"
      ],
      "costumes": [
        "Croatoa_Tuatha_Lieutenant_01",
        "Croatoa_Tuatha_Lieutenant_02",
        "Croatoa_Tuatha_Lieutenant_03"
      ]
    },
    {
      "level": 34,
      "experience": 0,
      "display_names": [
        "Champion"
      ],
      "costumes": [
        "Croatoa_Tuatha_Lieutenant_01",
        "Croatoa_Tuatha_Lieutenant_02",
        "Croatoa_Tuatha_Lieutenant_03"
      ]
    }
  ]
}