{
  "name": "Vahzilok_Cadaver_Mander",
  "gender": "GENDER_MALE",
  "description": "These reanimated corpses give off a powerful stench that's a mixture of chemicals and rotting flesh. The odor becomes a hundred times worse when they use their favorite attack - vomiting a stream of corrosive acid on their nearby opponents.",
  "group_description": null,
  "display_class_name": null,
  "character_class_name": "minion_grunt",
  "ai_config": "Vahzilok_Boss",
  "commandable_pet": false,
  "power_tags": [
    "HumanSkeleton"
  ],
  "additional_rewards": [

  ],
  "skill_hp_rewards": [

  ],
  "skill_status_rewards": [

  ],
  "ally": null,
  "gang": null,
  "reward_scale": 1.1,
  "game_exclusion": "None",
  "inactive_state_weapon": null,
  "ignores_combat_mods": false,
  "copy_creator_mods": false,
  "spawn_limit": 0,
  "spawn_limit_mission": 0,
  "ignore_av_to_eb_scaling": false,
  "can_zone": false,
  "custom_badge_stat": null,
  "badge_stat_flags": "DefaultBadgeStat",
  "rank": "VR_MINION",
  "power_full_names": [
    "Vahzilok.Vahzilok_Cadaver_Slab_Minion_Powers_Melee.Zombie_Brawl",
    "Vahzilok.Vahzilok_Cadaver_Slab_Minion_Powers_Melee.Zombie_Vomit",
    "Vahzilok.Vahzilok_Cadaver_Slab_Minion_Powers_Defense.Resistance",
    "Mission_Maker_Secondary.Regeneration.Integration",
    "Mission_Maker_Attacks.Electrical_Melee.Chain_Induction",
    "Mission_Maker_Attacks.Savage_Melee.Maiming_Slash"
  ],
  "power_display_names": [
    "Zombie Brawl",
    "Zombie Vomit",
    "Resistance",
    "Integration",
    "Chain Induction",
    "Maiming Slash"
  ],
  "power_levels": [
    0,
    0,
    0,
    0,
    0,
    0
  ],
  "powers": [
    {
      "power_category": "Vahzilok",
      "power_set": "Vahzilok_Cadaver_Slab_Minion_Powers_Melee",
      "power": "*",
      "level": 0
    },
    {
      "power_category": "Vahzilok",
      "power_set": "Vahzilok_Cadaver_Slab_Minion_Powers_Defense",
      "power": "*",
      "level": 0
    },
    {
      "power_category": "Mission_Maker_Secondary",
      "power_set": "Regeneration",
      "power": "Integration",
      "level": 0
    },
    {
      "power_category": "Mission_Maker_Attacks",
      "power_set": "Electrical_Melee",
      "power": "Chain_Induction",
      "level": 0
    },
    {
      "power_category": "Mission_Maker_Attacks",
      "power_set": "Savage_Melee",
      "power": "Maiming_Slash",
      "level": 0
    }
  ],
  "levels": [
    {
      "level": 1,
      "experience": 0,
      "display_names": [
        "Regenerating Cadaver"
      ],
      "costumes": [
        "Lokling_01",
        "Lokling_02",
        "Lokling_03",
        "Lokling_04"
      ]
    },
    {
      "level": 2,
      "experience": 0,
      "display_names": [
        "Regenerating Cadaver"
      ],
      "costumes": [
        "Lokling_01",
        "Lokling_02",
        "Lokling_03",
        "Lokling_04"
      ]
    },
    {
      "level": 3,
      "experience": 0,
      "display_names": [
        "Regenerating Cadaver"
      ],
      "costumes": [
        "Lokling_01",
        "Lokling_02",
        "Lokling_03",
        "Lokling_04"
      ]
    },
    {
      "level": 4,
      "experience": 0,
      "display_names": [
        "Regenerating Cadaver"
      ],
      "costumes": [
        "Lokling_01",
        "Lokling_02",
        "Lokling_03",
        "Lokling_04"
      ]
    },
    {
      "level": 5,
      "experience": 0,
      "display_names": [
        "Regenerating Cadaver"
      ],
      "costumes": [
        "Lokling_01",
        "Lokling_02",
        "Lokling_03",
        "Lokling_04"
      ]
    },
    {
      "level": 6,
      "experience": 0,
      "display_names": [
        "Regenerating Cadaver"
      ],
      "costumes": [
        "Lokling_01",
        "Lokling_02",
        "Lokling_03",
        "Lokling_04"
      ]
    },
    {
      "level": 7,
      "experience": 0,
      "display_names": [
        "Regenerating Cadaver"
      ],
      "costumes": [
        "Lokling_01",
        "Lokling_02",
        "Lokling_03",
        "Lokling_04"
      ]
    },
    {
      "level": 8,
      "experience": 0,
      "display_names": [
        "Regenerating Cadaver"
      ],
      "costumes": [
        "Lokling_01",
        "Lokling_02",
        "Lokling_03",
        "Lokling_04"
      ]
    },
    {
      "level": 9,
      "experience": 0,
      "display_names": [
        "Regenerating Cadaver"
      ],
      "costumes": [
        "Lokling_01",
        "Lokling_02",
        "Lokling_03",
        "Lokling_04"
      ]
    },
    {
      "level": 10,
      "experience": 0,
      "display_names": [
        "Regenerating Cadaver"
      ],
      "costumes": [
        "Lokling_01",
        "Lokling_02",
        "Lokling_03",
        "Lokling_04"
      ]
    },
    {
      "level": 11,
      "experience": 0,
      "display_names": [
        "Regenerating Cadaver"
      ],
      "costumes": [
        "Lokling_01",
        "Lokling_02",
        "Lokling_03",
        "Lokling_04"
      ]
    },
    {
      "level": 12,
      "experience": 0,
      "display_names": [
        "Regenerating Cadaver"
      ],
      "costumes": [
        "Lokling_01",
        "Lokling_02",
        "Lokling_03",
        "Lokling_04"
      ]
    },
    {
      "level": 13,
      "experience": 0,
      "display_names": [
        "Regenerating Cadaver"
      ],
      "costumes": [
        "Lokling_01",
        "Lokling_02",
        "Lokling_03",
        "Lokling_04"
      ]
    },
    {
      "level": 14,
      "experience": 0,
      "display_names": [
        "Regenerating Cadaver"
      ],
      "costumes": [
        "Lokling_01",
        "Lokling_02",
        "Lokling_03",
        "Lokling_04"
      ]
    },
    {
      "level": 15,
      "experience": 0,
      "display_names": [
        "Regenerating Cadaver"
      ],
      "costumes": [
        "Lokling_01",
        "Lokling_02",
        "Lokling_03",
        "Lokling_04"
      ]
    },
    {
      "level": 16,
      "experience": 0,
      "display_names": [
        "Regenerating Cadaver"
      ],
      "costumes": [
        "Lokling_01",
        "Lokling_02",
        "Lokling_03",
        "Lokling_04"
      ]
    },
    {
      "level": 17,
      "experience": 0,
      "display_names": [
        "Regenerating Cadaver"
      ],
      "costumes": [
        "Lokling_01",
        "Lokling_02",
        "Lokling_03",
        "Lokling_04"
      ]
    },
    {
      "level": 18,
      "experience": 0,
      "display_names": [
        "Regenerating Cadaver"
      ],
      "costumes": [
        "Lokling_01",
        "Lokling_02",
        "Lokling_03",
        "Lokling_04"
      ]
    },
    {
      "level": 19,
      "experience": 0,
      "display_names": [
        "Regenerating Cadaver"
      ],
      "costumes": [
        "Lokling_01",
        "Lokling_02",
        "Lokling_03",
        "Lokling_04"
      ]
    },
    {
      "level": 20,
      "experience": 0,
      "display_names": [
        "Regenerating Cadaver"
      ],
      "costumes": [
        "Lokling_01",
        "Lokling_02",
        "Lokling_03",
        "Lokling_04"
      ]
    },
    {
      "level": 21,
      "experience": 0,
      "display_names": [
        "Regenerating Cadaver"
      ],
      "costumes": [
        "Lokling_01",
        "Lokling_02",
        "Lokling_03",
        "Lokling_04"
      ]
    },
    {
      "level": 22,
      "experience": 0,
      "display_names": [
        "Regenerating Cadaver"
      ],
      "costumes": [
        "Lokling_01",
        "Lokling_02",
        "Lokling_03",
        "Lokling_04"
      ]
    },
    {
      "level": 23,
      "experience": 0,
      "display_names": [
        "Regenerating Cadaver"
      ],
      "costumes": [
        "Lokling_01",
        "Lokling_02",
        "Lokling_03",
        "Lokling_04"
      ]
    },
    {
      "level": 24,
      "experience": 0,
      "display_names": [
        "Regenerating Cadaver"
      ],
      "costumes": [
        "Lokling_01",
        "Lokling_02",
        "Lokling_03",
        "Lokling_04"
      ]
    },
    {
      "level": 25,
      "experience": 0,
      "display_names": [
        "Regenerating Cadaver"
      ],
      "costumes": [
        "Lokling_01",
        "Lokling_02",
        "Lokling_03",
        "Lokling_04"
      ]
    },
    {
      "level": 26,
      "experience": 0,
      "display_names": [
        "Regenerating Cadaver"
      ],
      "costumes": [
        "Lokling_01",
        "Lokling_02",
        "Lokling_03",
        "Lokling_04"
      ]
    },
    {
      "level": 27,
      "experience": 0,
      "display_names": [
        "Regenerating Cadaver"
      ],
      "costumes": [
        "Lokling_01",
        "Lokling_02",
        "Lokling_03",
        "Lokling_04"
      ]
    },
    {
      "level": 28,
      "experience": 0,
      "display_names": [
        "Regenerating Cadaver"
      ],
      "costumes": [
        "Lokling_01",
        "Lokling_02",
        "Lokling_03",
        "Lokling_04"
      ]
    },
    {
      "level": 29,
      "experience": 0,
      "display_names": [
        "Regenerating Cadaver"
      ],
      "costumes": [
        "Lokling_01",
        "Lokling_02",
        "Lokling_03",
        "Lokling_04"
      ]
    },
    {
      "level": 30,
      "experience": 0,
      "display_names": [
        "Regenerating Cadaver"
      ],
      "costumes": [
        "Lokling_01",
        "Lokling_02",
        "Lokling_03",
        "Lokling_04"
      ]
    },
    {
      "level": 31,
      "experience": 0,
      "display_names": [
        "Regenerating Cadaver"
      ],
      "costumes": [
        "Lokling_01",
        "Lokling_02",
        "Lokling_03",
        "Lokling_04"
      ]
    },
    {
      "level": 32,
      "experience": 0,
      "display_names": [
        "Regenerating Cadaver"
      ],
      "costumes": [
        "Lokling_01",
        "Lokling_02",
        "Lokling_03",
        "Lokling_04"
      ]
    },
    {
      "level": 33,
      "experience": 0,
      "display_names": [
        "Regenerating Cadaver"
      ],
      "costumes": [
        "Lokling_01",
        "Lokling_02",
        "Lokling_03",
        "Lokling_04"
      ]
    },
    {
      "level": 34,
      "experience": 0,
      "display_names": [
        "Regenerating Cadaver"
      ],
      "costumes": [
        "Lokling_01",
        "Lokling_02",
        "Lokling_03",
        "Lokling_04"
      ]
    },
    {
      "level": 35,
      "experience": 0,
      "display_names": [
        "Regenerating Cadaver"
      ],
      "costumes": [
        "Lokling_01",
        "Lokling_02",
        "Lokling_03",
        "Lokling_04"
      ]
    }
  ]
}