{
  "name": "Vahzilok_Decay_Luminous_Eidolon_Eidolon_boss",
  "gender": "GENDER_FEMALE",
  "description": "The Luminous Eidolons from Dr. Vahzilok's ruined corpse army have become akin to minor walking meltdowns. Approach these with caution, as they can infect and leech from an unsuspecting hero.",
  "group_description": null,
  "display_class_name": null,
  "character_class_name": "boss_grunt",
  "ai_config": "Vahzilok_Decay_Boss",
  "commandable_pet": false,
  "power_tags": [
    "HumanSkeleton",
    "Human"
  ],
  "additional_rewards": [

  ],
  "skill_hp_rewards": [

  ],
  "skill_status_rewards": [

  ],
  "ally": null,
  "gang": null,
  "reward_scale": 1.5,
  "game_exclusion": "None",
  "inactive_state_weapon": null,
  "ignores_combat_mods": false,
  "copy_creator_mods": false,
  "spawn_limit": 1,
  "spawn_limit_mission": 1,
  "ignore_av_to_eb_scaling": false,
  "can_zone": false,
  "custom_badge_stat": null,
  "badge_stat_flags": "DefaultBadgeStat",
  "rank": "VR_BOSS",
  "power_full_names": [
    "Vahzilok.Vahzilok_Decay_Luminous_Eidolon_Powers.Neutrino_Bolt",
    "Vahzilok.Vahzilok_Decay_Luminous_Eidolon_Powers.Focus",
    "Vahzilok.Vahzilok_Decay_Luminous_Eidolon_Powers.Neutron_Bomb",
    "Vahzilok.Vahzilok_Decay_Luminous_Eidolon_Powers.Irradiate",
    "Vahzilok.Vahzilok_Decay_Luminous_Eidolon_Powers.Fusion",
    "Vahzilok.Vahzilok_Decay_Luminous_Eidolon_Powers.Radiation_Siphon",
    "Vahzilok.Vahzilok_Decay_Luminous_Eidolon_Powers.X-Ray_Beam"
  ],
  "power_display_names": [
    "Neutrino Bolt",
    "Focus",
    "Neutron Bomb",
    "Irradiate",
    "Fusion",
    "Radiation Siphon",
    "X-Ray Beam"
  ],
  "power_levels": [
    0,
    0,
    0,
    0,
    0,
    0,
    0
  ],
  "powers": [
    {
      "power_category": "Vahzilok",
      "power_set": "Vahzilok_Decay_Luminous_Eidolon_Powers",
      "power": "*",
      "level": 0
    }
  ],
  "levels": [
    {
      "level": 29,
      "experience": 0,
      "display_names": [
        "Decaying Luminous Eidolon"
      ],
      "costumes": [
        "Eidola_Decaying_Female_01",
        "Eidola_Decaying_Female_02",
        "Eidola_Decaying_Female_03"
      ]
    },
    {
      "level": 30,
      "experience": 0,
      "display_names": [
        "Decaying Luminous Eidolon"
      ],
      "costumes": [
        "Eidola_Decaying_Female_01",
        "Eidola_Decaying_Female_02",
        "Eidola_Decaying_Female_03"
      ]
    },
    {
      "level": 31,
      "experience": 0,
      "display_names": [
        "Decaying Luminous Eidolon"
      ],
      "costumes": [
        "Eidola_Decaying_Female_01",
        "Eidola_Decaying_Female_02",
        "Eidola_Decaying_Female_03"
      ]
    },
    {
      "level": 32,
      "experience": 0,
      "display_names": [
        "Decaying Luminous Eidolon"
      ],
      "costumes": [
        "Eidola_Decaying_Female_01",
        "Eidola_Decaying_Female_02",
        "Eidola_Decaying_Female_03"
      ]
    },
    {
      "level": 33,
      "experience": 0,
      "display_names": [
        "Decaying Luminous Eidolon"
      ],
      "costumes": [
        "Eidola_Decaying_Female_01",
        "Eidola_Decaying_Female_02",
        "Eidola_Decaying_Female_03"
      ]
    },
    {
      "level": 34,
      "experience": 0,
      "display_names": [
        "Decaying Luminous Eidolon"
      ],
      "costumes": [
        "Eidola_Decaying_Female_01",
        "Eidola_Decaying_Female_02",
        "Eidola_Decaying_Female_03"
      ]
    },
    {
      "level": 35,
      "experience": 0,
      "display_names": [
        "Decaying Luminous Eidolon"
      ],
      "costumes": [
        "Eidola_Decaying_Female_01",
        "Eidola_Decaying_Female_02",
        "Eidola_Decaying_Female_03"
      ]
    },
    {
      "level": 36,
      "experience": 0,
      "display_names": [
        "Decaying Luminous Eidolon"
      ],
      "costumes": [
        "Eidola_Decaying_Female_01",
        "Eidola_Decaying_Female_02",
        "Eidola_Decaying_Female_03"
      ]
    },
    {
      "level": 37,
      "experience": 0,
      "display_names": [
        "Decaying Luminous Eidolon"
      ],
      "costumes": [
        "Eidola_Decaying_Female_01",
        "Eidola_Decaying_Female_02",
        "Eidola_Decaying_Female_03"
      ]
    },
    {
      "level": 38,
      "experience": 0,
      "display_names": [
        "Decaying Luminous Eidolon"
      ],
      "costumes": [
        "Eidola_Decaying_Female_01",
        "Eidola_Decaying_Female_02",
        "Eidola_Decaying_Female_03"
      ]
    },
    {
      "level": 39,
      "experience": 0,
      "display_names": [
        "Decaying Luminous Eidolon"
      ],
      "costumes": [
        "Eidola_Decaying_Female_01",
        "Eidola_Decaying_Female_02",
        "Eidola_Decaying_Female_03"
      ]
    },
    {
      "level": 40,
      "experience": 0,
      "display_names": [
        "Decaying Luminous Eidolon"
      ],
      "costumes": [
        "Eidola_Decaying_Female_01",
        "Eidola_Decaying_Female_02",
        "Eidola_Decaying_Female_03"
      ]
    },
    {
      "level": 41,
      "experience": 0,
      "display_names": [
        "Decaying Mire Eidolon"
      ],
      "costumes": [
        "Eidola_Decaying_Female_01",
        "Eidola_Decaying_Female_02",
        "Eidola_Decaying_Female_03"
      ]
    },
    {
      "level": 42,
      "experience": 0,
      "display_names": [
        "Decaying Mire Eidolon"
      ],
      "costumes": [
        "Eidola_Decaying_Female_01",
        "Eidola_Decaying_Female_02",
        "Eidola_Decaying_Female_03"
      ]
    },
    {
      "level": 43,
      "experience": 0,
      "display_names": [
        "Decaying Mire Eidolon"
      ],
      "costumes": [
        "Eidola_Decaying_Female_01",
        "Eidola_Decaying_Female_02",
        "Eidola_Decaying_Female_03"
      ]
    },
    {
      "level": 44,
      "experience": 0,
      "display_names": [
        "Decaying Mire Eidolon"
      ],
      "costumes": [
        "Eidola_Decaying_Female_01",
        "Eidola_Decaying_Female_02",
        "Eidola_Decaying_Female_03"
      ]
    },
    {
      "level": 45,
      "experience": 0,
      "display_names": [
        "Decaying Mire Eidolon"
      ],
      "costumes": [
        "Eidola_Decaying_Female_01",
        "Eidola_Decaying_Female_02",
        "Eidola_Decaying_Female_03"
      ]
    },
    {
      "level": 46,
      "experience": 0,
      "display_names": [
        "Decaying Mire Eidolon"
      ],
      "costumes": [
        "Eidola_Decaying_Female_01",
        "Eidola_Decaying_Female_02",
        "Eidola_Decaying_Female_03"
      ]
    },
    {
      "level": 47,
      "experience": 0,
      "display_names": [
        "Decaying Mire Eidolon"
      ],
      "costumes": [
        "Eidola_Decaying_Female_01",
        "Eidola_Decaying_Female_02",
        "Eidola_Decaying_Female_03"
      ]
    },
    {
      "level": 48,
      "experience": 0,
      "display_names": [
        "Decaying Mire Eidolon"
      ],
      "costumes": [
        "Eidola_Decaying_Female_01",
        "Eidola_Decaying_Female_02",
        "Eidola_Decaying_Female_03"
      ]
    },
    {
      "level": 49,
      "experience": 0,
      "display_names": [
        "Decaying Mire Eidolon"
      ],
      "costumes": [
        "Eidola_Decaying_Female_01",
        "Eidola_Decaying_Female_02",
        "Eidola_Decaying_Female_03"
      ]
    },
    {
      "level": 50,
      "experience": 0,
      "display_names": [
        "Decaying Mire Eidolon"
      ],
      "costumes": [
        "Eidola_Decaying_Female_01",
        "Eidola_Decaying_Female_02",
        "Eidola_Decaying_Female_03"
      ]
    },
    {
      "level": 51,
      "experience": 0,
      "display_names": [
        "Decaying Mire Eidolon"
      ],
      "costumes": [
        "Eidola_Decaying_Female_01",
        "Eidola_Decaying_Female_02",
        "Eidola_Decaying_Female_03"
      ]
    },
    {
      "level": 52,
      "experience": 0,
      "display_names": [
        "Decaying Mire Eidolon"
      ],
      "costumes": [
        "Eidola_Decaying_Female_01",
        "Eidola_Decaying_Female_02",
        "Eidola_Decaying_Female_03"
      ]
    },
    {
      "level": 53,
      "experience": 0,
      "display_names": [
        "Decaying Mire Eidolon"
      ],
      "costumes": [
        "Eidola_Decaying_Female_01",
        "Eidola_Decaying_Female_02",
        "Eidola_Decaying_Female_03"
      ]
    },
    {
      "level": 54,
      "experience": 0,
      "display_names": [
        "Decaying Mire Eidolon"
      ],
      "costumes": [
        "Eidola_Decaying_Female_01",
        "Eidola_Decaying_Female_02",
        "Eidola_Decaying_Female_03"
      ]
    }
  ]
}