{
  "name": "Vanguard_Shield_Faultine",
  "gender": "GENDER_MALE",
  "description": "After he rediscovered his heroic roots, young Jim Temblor has been doing all he can to redeem the name of his father: Faultline. Following several intense battles with the Rikti, Faultline and his girlfriend Fusionette have joined the Vanguard to help fight the alien invaders.",
  "group_description": "Vanguard Shield",
  "display_class_name": "Hero",
  "character_class_name": "boss_signature_pets",
  "ai_config": "Default_Ranged",
  "commandable_pet": false,
  "power_tags": [

  ],
  "additional_rewards": [

  ],
  "skill_hp_rewards": [

  ],
  "skill_status_rewards": [

  ],
  "ally": null,
  "gang": "1",
  "reward_scale": 1.0,
  "game_exclusion": "None",
  "inactive_state_weapon": null,
  "ignores_combat_mods": false,
  "copy_creator_mods": false,
  "spawn_limit": 0,
  "spawn_limit_mission": 0,
  "ignore_av_to_eb_scaling": false,
  "can_zone": false,
  "custom_badge_stat": null,
  "badge_stat_flags": "DefaultBadgeStat",
  "rank": "VR_PET",
  "power_full_names": [
    "Vanguard.Faultline.Granite_Armor",
    "Vanguard.Faultline.Earths_Embrace",
    "Vanguard.Faultline.Mud_Pots",
    "Vanguard.Faultline.Quicksand",
    "Vanguard.Faultline.Stone_Prison",
    "Vanguard.Faultline.Fossilize",
    "Vanguard.Faultline.Stone_Fist",
    "Vanguard.Faultline.Tremor",
    "Vanguard.Faultline.Seismic_Smash",
    "V_Vindicators.Vindicator_Resistances.Resistance"
  ],
  "power_display_names": [
    "Granite Armor",
    "Earth's Embrace",
    "Mud Pots",
    "Quicksand",
    "Stone Prison",
    "Fossilize",
    "Stone Fist",
    "Tremor",
    "Seismic Smash",
    "Resistance"
  ],
  "power_levels": [
    0,
    0,
    0,
    0,
    0,
    0,
    0,
    0,
    0,
    0
  ],
  "powers": [
    {
      "power_category": "Vanguard",
      "power_set": "Faultline",
      "power": "*",
      "level": 0
    },
    {
      "power_category": "V_Vindicators",
      "power_set": "Vindicator_Resistances",
      "power": "*",
      "level": 0
    }
  ],
  "levels": [
    {
      "level": 30,
      "experience": 0,
      "display_names": [
        "Faultline"
      ],
      "costumes": [
        "Model_Faultline_Vanguard_01"
      ]
    },
    {
      "level": 31,
      "experience": 0,
      "display_names": [
        "Faultline"
      ],
      "costumes": [
        "Model_Faultline_Vanguard_01"
      ]
    },
    {
      "level": 32,
      "experience": 0,
      "display_names": [
        "Faultline"
      ],
      "costumes": [
        "Model_Faultline_Vanguard_01"
      ]
    },
    {
      "level": 33,
      "experience": 0,
      "display_names": [
        "Faultline"
      ],
      "costumes": [
        "Model_Faultline_Vanguard_01"
      ]
    },
    {
      "level": 34,
      "experience": 0,
      "display_names": [
        "Faultline"
      ],
      "costumes": [
        "Model_Faultline_Vanguard_01"
      ]
    },
    {
      "level": 35,
      "experience": 0,
      "display_names": [
        "Faultline"
      ],
      "costumes": [
        "Model_Faultline_Vanguard_01"
      ]
    },
    {
      "level": 36,
      "experience": 0,
      "display_names": [
        "Faultline"
      ],
      "costumes": [
        "Model_Faultline_Vanguard_01"
      ]
    },
    {
      "level": 37,
      "experience": 0,
      "display_names": [
        "Faultline"
      ],
      "costumes": [
        "Model_Faultline_Vanguard_01"
      ]
    },
    {
      "level": 38,
      "experience": 0,
      "display_names": [
        "Faultline"
      ],
      "costumes": [
        "Model_Faultline_Vanguard_01"
      ]
    },
    {
      "level": 39,
      "experience": 0,
      "display_names": [
        "Faultline"
      ],
      "costumes": [
        "Model_Faultline_Vanguard_01"
      ]
    },
    {
      "level": 40,
      "experience": 0,
      "display_names": [
        "Faultline"
      ],
      "costumes": [
        "Model_Faultline_Vanguard_01"
      ]
    },
    {
      "level": 41,
      "experience": 0,
      "display_names": [
        "Faultline"
      ],
      "costumes": [
        "Model_Faultline_Vanguard_01"
      ]
    },
    {
      "level": 42,
      "experience": 0,
      "display_names": [
        "Faultline"
      ],
      "costumes": [
        "Model_Faultline_Vanguard_01"
      ]
    },
    {
      "level": 43,
      "experience": 0,
      "display_names": [
        "Faultline"
      ],
      "costumes": [
        "Model_Faultline_Vanguard_01"
      ]
    },
    {
      "level": 44,
      "experience": 0,
      "display_names": [
        "Faultline"
      ],
      "costumes": [
        "Model_Faultline_Vanguard_01"
      ]
    },
    {
      "level": 45,
      "experience": 0,
      "display_names": [
        "Faultline"
      ],
      "costumes": [
        "Model_Faultline_Vanguard_01"
      ]
    },
    {
      "level": 46,
      "experience": 0,
      "display_names": [
        "Faultline"
      ],
      "costumes": [
        "Model_Faultline_Vanguard_01"
      ]
    },
    {
      "level": 47,
      "experience": 0,
      "display_names": [
        "Faultline"
      ],
      "costumes": [
        "Model_Faultline_Vanguard_01"
      ]
    },
    {
      "level": 48,
      "experience": 0,
      "display_names": [
        "Faultline"
      ],
      "costumes": [
        "Model_Faultline_Vanguard_01"
      ]
    },
    {
      "level": 49,
      "experience": 0,
      "display_names": [
        "Faultline"
      ],
      "costumes": [
        "Model_Faultline_Vanguard_01"
      ]
    },
    {
      "level": 50,
      "experience": 0,
      "display_names": [
        "Faultline"
      ],
      "costumes": [
        "Model_Faultline_Vanguard_01"
      ]
    },
    {
      "level": 51,
      "experience": 0,
      "display_names": [
        "Faultline"
      ],
      "costumes": [
        "Model_Faultline_Vanguard_01"
      ]
    },
    {
      "level": 52,
      "experience": 0,
      "display_names": [
        "Faultline"
      ],
      "costumes": [
        "Model_Faultline_Vanguard_01"
      ]
    },
    {
      "level": 53,
      "experience": 0,
      "display_names": [
        "Faultline"
      ],
      "costumes": [
        "Model_Faultline_Vanguard_01"
      ]
    },
    {
      "level": 54,
      "experience": 0,
      "display_names": [
        "Faultline"
      ],
      "costumes": [
        "Model_Faultline_Vanguard_01"
      ]
    }
  ]
}