{
  "name": "Vindicators_Ms_Liberty",
  "gender": "GENDER_FEMALE",
  "description": "Megan is the daughter of the original Miss Liberty from the Golden Age. She has taken up the mantle to fight for freedom, in this specific case to free Paragon City from its infestation of villains. She has heightened strength and endurance as well as the power of the Liberty Belt, which was passed on to her by her grandmother.",
  "group_description": null,
  "display_class_name": "Hero",
  "character_class_name": "boss_archvillain",
  "ai_config": "Signatures_Melee",
  "commandable_pet": false,
  "power_tags": [
    "HumanSkeleton",
    "Human",
    "Raid"
  ],
  "additional_rewards": [

  ],
  "skill_hp_rewards": [

  ],
  "skill_status_rewards": [

  ],
  "ally": "Hero",
  "gang": null,
  "reward_scale": 1.0,
  "game_exclusion": "None",
  "inactive_state_weapon": null,
  "ignores_combat_mods": false,
  "copy_creator_mods": false,
  "spawn_limit": 0,
  "spawn_limit_mission": 0,
  "ignore_av_to_eb_scaling": false,
  "can_zone": false,
  "custom_badge_stat": null,
  "badge_stat_flags": "DefaultBadgeStat",
  "rank": "VR_ARCHVILLAIN",
  "power_full_names": [
    "V_Vindicators.Vindicator_Resistances.Resistance",
    "V_Vindicators.Ms_Liberty.Thunder_Kick",
    "V_Vindicators.Ms_Liberty.Storm_Kick",
    "V_Vindicators.Ms_Liberty.Cobra_Strike",
    "V_Vindicators.Ms_Liberty.Crane_Kick",
    "V_Vindicators.Ms_Liberty.Crippling_Axe_Kick",
    "V_Vindicators.Ms_Liberty.Eagles_Claw",
    "V_Vindicators.Ms_Liberty.Temp_Invulnerability",
    "V_Vindicators.Ms_Liberty.Dull_Pain",
    "V_Vindicators.Ms_Liberty.Unstoppable",
    "V_Vindicators.Ms_Liberty.Lightning_Bolt",
    "V_Vindicators.Ms_Liberty.Thunder_Strike",
    "V_Vindicators.Ms_Liberty.Super_Leap",
    "V_Vindicators.Ms_Liberty.Resistance"
  ],
  "power_display_names": [
    "Resistance",
    "Thunder Kick",
    "Storm Kick",
    "Cobra Strike",
    "Crane Kick",
    "Crippling Axe Kick",
    "Eagles Claw",
    "Temp Invulnerability",
    "Dull Pain",
    "Unstoppable",
    "Lightning Bolt",
    "Thunder Strike",
    "Super Leap",
    "Resistance"
  ],
  "power_levels": [
    0,
    0,
    0,
    0,
    0,
    0,
    0,
    0,
    0,
    0,
    0,
    0,
    0,
    0
  ],
  "powers": [
    {
      "power_category": "V_Vindicators",
      "power_set": "Vindicator_Resistances",
      "power": "*",
      "level": 0
    },
    {
      "power_category": "V_Vindicators",
      "power_set": "Ms_Liberty",
      "power": "*",
      "level": 0
    }
  ],
  "levels": [
    {
      "level": 40,
      "experience": 0,
      "display_names": [
        "Ms. Liberty"
      ],
      "costumes": [
        "Model_MsLiberty_NoRing"
      ]
    },
    {
      "level": 41,
      "experience": 0,
      "display_names": [
        "Ms. Liberty"
      ],
      "costumes": [
        "Model_MsLiberty_NoRing"
      ]
    },
    {
      "level": 42,
      "experience": 0,
      "display_names": [
        "Ms. Liberty"
      ],
      "costumes": [
        "Model_MsLiberty_NoRing"
      ]
    },
    {
      "level": 43,
      "experience": 0,
      "display_names": [
        "Ms. Liberty"
      ],
      "costumes": [
        "Model_MsLiberty_NoRing"
      ]
    },
    {
      "level": 44,
      "experience": 0,
      "display_names": [
        "Ms. Liberty"
      ],
      "costumes": [
        "Model_MsLiberty_NoRing"
      ]
    },
    {
      "level": 45,
      "experience": 0,
      "display_names": [
        "Ms. Liberty"
      ],
      "costumes": [
        "Model_MsLiberty_NoRing"
      ]
    },
    {
      "level": 46,
      "experience": 0,
      "display_names": [
        "Ms. Liberty"
      ],
      "costumes": [
        "Model_MsLiberty_NoRing"
      ]
    },
    {
      "level": 47,
      "experience": 0,
      "display_names": [
        "Ms. Liberty"
      ],
      "costumes": [
        "Model_MsLiberty_NoRing"
      ]
    },
    {
      "level": 48,
      "experience": 0,
      "display_names": [
        "Ms. Liberty"
      ],
      "costumes": [
        "Model_MsLiberty_NoRing"
      ]
    },
    {
      "level": 49,
      "experience": 0,
      "display_names": [
        "Ms. Liberty"
      ],
      "costumes": [
        "Model_MsLiberty_NoRing"
      ]
    },
    {
      "level": 50,
      "experience": 0,
      "display_names": [
        "Ms. Liberty"
      ],
      "costumes": [
        "Model_MsLiberty_NoRing"
      ]
    },
    {
      "level": 51,
      "experience": 0,
      "display_names": [
        "Ms. Liberty"
      ],
      "costumes": [
        "Model_MsLiberty_NoRing"
      ]
    },
    {
      "level": 52,
      "experience": 0,
      "display_names": [
        "Ms. Liberty"
      ],
      "costumes": [
        "Model_MsLiberty_NoRing"
      ]
    },
    {
      "level": 53,
      "experience": 0,
      "display_names": [
        "Ms. Liberty"
      ],
      "costumes": [
        "Model_MsLiberty_NoRing"
      ]
    },
    {
      "level": 54,
      "experience": 0,
      "display_names": [
        "Ms. Liberty"
      ],
      "costumes": [
        "Model_MsLiberty_NoRing"
      ]
    }
  ]
}