{
  "name": "Vindicators_Aurora_Lt_Good",
  "gender": "GENDER_FEMALE",
  "description": "Before the Rikti War, Aurora Scott was just a fledgling hero doing her best for the city she loved. Afterward, she was something else entirely. Aurora played host to Sister Psyche's mind after the Freedom Phalanx heroine was injured in the war. After gladly sacrificing her autonomy so that Sister Psyche could continue to serve, Aurora's just now returning to her own life. And she's got a few bones to pick with the villains who flourished in her absence.",
  "group_description": "Guardian Images",
  "display_class_name": null,
  "character_class_name": "lt_grunt",
  "ai_config": "Signatures_Melee",
  "commandable_pet": false,
  "power_tags": [
    "HumanSkeleton",
    "Human",
    "Raid"
  ],
  "additional_rewards": [

  ],
  "skill_hp_rewards": [

  ],
  "skill_status_rewards": [

  ],
  "ally": null,
  "gang": null,
  "reward_scale": 1.0,
  "game_exclusion": "None",
  "inactive_state_weapon": null,
  "ignores_combat_mods": false,
  "copy_creator_mods": false,
  "spawn_limit": 0,
  "spawn_limit_mission": 0,
  "ignore_av_to_eb_scaling": false,
  "can_zone": false,
  "custom_badge_stat": null,
  "badge_stat_flags": "DefaultBadgeStat",
  "rank": "VR_LIEUTENANT",
  "power_full_names": [
    "Mission_Maker_Movement.Reflections_Effects.Fly",
    "V_Vindicators.Aurora_Borealis.Light_Explosion",
    "V_Vindicators.Aurora_Borealis.Scramble_Thoughts",
    "V_Vindicators.Swan.Psionic_Lance",
    "V_Vindicators.Aurora_Borealis.Will_Domination"
  ],
  "power_display_names": [
    "Fly",
    "Light Explosion",
    "Scramble Thoughts",
    "Psionic Lance",
    "Will Domination"
  ],
  "power_levels": [
    0,
    0,
    0,
    0,
    0
  ],
  "powers": [
    {
      "power_category": "Mission_Maker_Movement",
      "power_set": "Reflections_Effects",
      "power": "*",
      "level": 0
    },
    {
      "power_category": "V_Vindicators",
      "power_set": "Aurora_Borealis",
      "power": "Light_Explosion",
      "level": 0
    },
    {
      "power_category": "V_Vindicators",
      "power_set": "Aurora_Borealis",
      "power": "Scramble_Thoughts",
      "level": 0
    },
    {
      "power_category": "V_Vindicators",
      "power_set": "Swan",
      "power": "Psionic_Lance",
      "level": 0
    },
    {
      "power_category": "V_Vindicators",
      "power_set": "Aurora_Borealis",
      "power": "Will_Domination",
      "level": 0
    }
  ],
  "levels": [
    {
      "level": 25,
      "experience": 0,
      "display_names": [
        "Major Image of Aurora Borealis"
      ],
      "costumes": [
        "Model_Aurora_Lt"
      ]
    },
    {
      "level": 26,
      "experience": 0,
      "display_names": [
        "Major Image of Aurora Borealis"
      ],
      "costumes": [
        "Model_Aurora_Lt"
      ]
    },
    {
      "level": 27,
      "experience": 0,
      "display_names": [
        "Major Image of Aurora Borealis"
      ],
      "costumes": [
        "Model_Aurora_Lt"
      ]
    },
    {
      "level": 28,
      "experience": 0,
      "display_names": [
        "Major Image of Aurora Borealis"
      ],
      "costumes": [
        "Model_Aurora_Lt"
      ]
    },
    {
      "level": 29,
      "experience": 0,
      "display_names": [
        "Major Image of Aurora Borealis"
      ],
      "costumes": [
        "Model_Aurora_Lt"
      ]
    },
    {
      "level": 30,
      "experience": 0,
      "display_names": [
        "Major Image of Aurora Borealis"
      ],
      "costumes": [
        "Model_Aurora_Lt"
      ]
    },
    {
      "level": 31,
      "experience": 0,
      "display_names": [
        "Major Image of Aurora Borealis"
      ],
      "costumes": [
        "Model_Aurora_Lt"
      ]
    },
    {
      "level": 32,
      "experience": 0,
      "display_names": [
        "Major Image of Aurora Borealis"
      ],
      "costumes": [
        "Model_Aurora_Lt"
      ]
    },
    {
      "level": 33,
      "experience": 0,
      "display_names": [
        "Major Image of Aurora Borealis"
      ],
      "costumes": [
        "Model_Aurora_Lt"
      ]
    },
    {
      "level": 34,
      "experience": 0,
      "display_names": [
        "Major Image of Aurora Borealis"
      ],
      "costumes": [
        "Model_Aurora_Lt"
      ]
    },
    {
      "level": 35,
      "experience": 0,
      "display_names": [
        "Major Image of Aurora Borealis"
      ],
      "costumes": [
        "Model_Aurora_Lt"
      ]
    },
    {
      "level": 36,
      "experience": 0,
      "display_names": [
        "Major Image of Aurora Borealis"
      ],
      "costumes": [
        "Model_Aurora_Lt"
      ]
    },
    {
      "level": 37,
      "experience": 0,
      "display_names": [
        "Major Image of Aurora Borealis"
      ],
      "costumes": [
        "Model_Aurora_Lt"
      ]
    },
    {
      "level": 38,
      "experience": 0,
      "display_names": [
        "Major Image of Aurora Borealis"
      ],
      "costumes": [
        "Model_Aurora_Lt"
      ]
    },
    {
      "level": 39,
      "experience": 0,
      "display_names": [
        "Major Image of Aurora Borealis"
      ],
      "costumes": [
        "Model_Aurora_Lt"
      ]
    },
    {
      "level": 40,
      "experience": 0,
      "display_names": [
        "Major Image of Aurora Borealis"
      ],
      "costumes": [
        "Model_Aurora_Lt"
      ]
    }
  ]
}