{
  "name": "Warriors_Odysseus",
  "gender": "GENDER_MALE",
  "description": "Odysseus has amassed quite the collection of ancient powerful artifacts, many of which bear the mark of the Well of the Furies. The Gloves of Hephaestus are the piece de resistance in his collection, and vital to your scheme.",
  "group_description": null,
  "display_class_name": null,
  "character_class_name": "boss_archvillain",
  "ai_config": "Default_Melee",
  "commandable_pet": false,
  "power_tags": [
    "HumanSkeleton",
    "Human",
    "Raid"
  ],
  "additional_rewards": [

  ],
  "skill_hp_rewards": [

  ],
  "skill_status_rewards": [

  ],
  "ally": null,
  "gang": null,
  "reward_scale": 1.0,
  "game_exclusion": "None",
  "inactive_state_weapon": null,
  "ignores_combat_mods": false,
  "copy_creator_mods": false,
  "spawn_limit": 0,
  "spawn_limit_mission": 0,
  "ignore_av_to_eb_scaling": false,
  "can_zone": false,
  "custom_badge_stat": null,
  "badge_stat_flags": "DefaultBadgeStat",
  "rank": "VR_ARCHVILLAIN",
  "power_full_names": [
    "V_Vindicators.Vindicator_Resistances.Resistance",
    "Incarnate_I20.Odysseus.Crossbow",
    "Incarnate_I20.Odysseus.Bash",
    "Incarnate_I20.Odysseus.Pulverize",
    "Incarnate_I20.Odysseus.Shatter",
    "Incarnate_I20.Odysseus.Resistance",
    "Incarnate_I20.Odysseus.Vulcan_Clobber"
  ],
  "power_display_names": [
    "Resistance",
    "Crossbow",
    "Bash",
    "Pulverize",
    "Shatter",
    "Resistance",
    "Vulcan Clobber"
  ],
  "power_levels": [
    0,
    0,
    0,
    0,
    0,
    0,
    0
  ],
  "powers": [
    {
      "power_category": "V_Vindicators",
      "power_set": "Vindicator_Resistances",
      "power": "*",
      "level": 0
    },
    {
      "power_category": "Incarnate_I20",
      "power_set": "Odysseus",
      "power": "*",
      "level": 0
    }
  ],
  "levels": [
    {
      "level": 20,
      "experience": 0,
      "display_names": [
        "Odysseus"
      ],
      "costumes": [
        "Model_Warriors_Odysseus_Armor_NoRing"
      ]
    },
    {
      "level": 21,
      "experience": 0,
      "display_names": [
        "Odysseus"
      ],
      "costumes": [
        "Model_Warriors_Odysseus_Armor_NoRing"
      ]
    },
    {
      "level": 22,
      "experience": 0,
      "display_names": [
        "Odysseus"
      ],
      "costumes": [
        "Model_Warriors_Odysseus_Armor_NoRing"
      ]
    },
    {
      "level": 23,
      "experience": 0,
      "display_names": [
        "Odysseus"
      ],
      "costumes": [
        "Model_Warriors_Odysseus_Armor_NoRing"
      ]
    },
    {
      "level": 24,
      "experience": 0,
      "display_names": [
        "Odysseus"
      ],
      "costumes": [
        "Model_Warriors_Odysseus_Armor_NoRing"
      ]
    },
    {
      "level": 25,
      "experience": 0,
      "display_names": [
        "Odysseus"
      ],
      "costumes": [
        "Model_Warriors_Odysseus_Armor_NoRing"
      ]
    },
    {
      "level": 26,
      "experience": 0,
      "display_names": [
        "Odysseus"
      ],
      "costumes": [
        "Model_Warriors_Odysseus_Armor_NoRing"
      ]
    },
    {
      "level": 27,
      "experience": 0,
      "display_names": [
        "Odysseus"
      ],
      "costumes": [
        "Model_Warriors_Odysseus_Armor_NoRing"
      ]
    },
    {
      "level": 28,
      "experience": 0,
      "display_names": [
        "Odysseus"
      ],
      "costumes": [
        "Model_Warriors_Odysseus_Armor_NoRing"
      ]
    },
    {
      "level": 29,
      "experience": 0,
      "display_names": [
        "Odysseus"
      ],
      "costumes": [
        "Model_Warriors_Odysseus_Armor_NoRing"
      ]
    },
    {
      "level": 30,
      "experience": 0,
      "display_names": [
        "Odysseus"
      ],
      "costumes": [
        "Model_Warriors_Odysseus_Armor_NoRing"
      ]
    },
    {
      "level": 31,
      "experience": 0,
      "display_names": [
        "Odysseus"
      ],
      "costumes": [
        "Model_Warriors_Odysseus_Armor_NoRing"
      ]
    },
    {
      "level": 32,
      "experience": 0,
      "display_names": [
        "Odysseus"
      ],
      "costumes": [
        "Model_Warriors_Odysseus_Armor_NoRing"
      ]
    },
    {
      "level": 33,
      "experience": 0,
      "display_names": [
        "Odysseus"
      ],
      "costumes": [
        "Model_Warriors_Odysseus_Armor_NoRing"
      ]
    },
    {
      "level": 34,
      "experience": 0,
      "display_names": [
        "Odysseus"
      ],
      "costumes": [
        "Model_Warriors_Odysseus_Armor_NoRing"
      ]
    },
    {
      "level": 35,
      "experience": 0,
      "display_names": [
        "Odysseus"
      ],
      "costumes": [
        "Model_Warriors_Odysseus_Armor_NoRing"
      ]
    },
    {
      "level": 36,
      "experience": 0,
      "display_names": [
        "Odysseus"
      ],
      "costumes": [
        "Model_Warriors_Odysseus_Armor_NoRing"
      ]
    },
    {
      "level": 37,
      "experience": 0,
      "display_names": [
        "Odysseus"
      ],
      "costumes": [
        "Model_Warriors_Odysseus_Armor_NoRing"
      ]
    },
    {
      "level": 38,
      "experience": 0,
      "display_names": [
        "Odysseus"
      ],
      "costumes": [
        "Model_Warriors_Odysseus_Armor_NoRing"
      ]
    },
    {
      "level": 39,
      "experience": 0,
      "display_names": [
        "Odysseus"
      ],
      "costumes": [
        "Model_Warriors_Odysseus_Armor_NoRing"
      ]
    },
    {
      "level": 40,
      "experience": 0,
      "display_names": [
        "Odysseus"
      ],
      "costumes": [
        "Model_Warriors_Odysseus_Armor_NoRing"
      ]
    },
    {
      "level": 41,
      "experience": 0,
      "display_names": [
        "Odysseus"
      ],
      "costumes": [
        "Model_Warriors_Odysseus_Armor_NoRing"
      ]
    },
    {
      "level": 42,
      "experience": 0,
      "display_names": [
        "Odysseus"
      ],
      "costumes": [
        "Model_Warriors_Odysseus_Armor_NoRing"
      ]
    },
    {
      "level": 43,
      "experience": 0,
      "display_names": [
        "Odysseus"
      ],
      "costumes": [
        "Model_Warriors_Odysseus_Armor_NoRing"
      ]
    },
    {
      "level": 44,
      "experience": 0,
      "display_names": [
        "Odysseus"
      ],
      "costumes": [
        "Model_Warriors_Odysseus_Armor_NoRing"
      ]
    }
  ]
}