{
  "name": "Warriors_Sledgehammer_Thug_SSA2",
  "gender": "GENDER_MALE",
  "description": "A little education can be a dangerous thing. The members of the gang known as the Warriors take their inspiration from ancient Greek heroes and soldiers. They seem to favor the old school weapons over democracy, literature, and art.",
  "group_description": null,
  "display_class_name": null,
  "character_class_name": "minion_grunt",
  "ai_config": "Default_Melee",
  "commandable_pet": false,
  "power_tags": [
    "HumanSkeleton",
    "Human"
  ],
  "additional_rewards": [

  ],
  "skill_hp_rewards": [

  ],
  "skill_status_rewards": [

  ],
  "ally": null,
  "gang": null,
  "reward_scale": 1.0,
  "game_exclusion": "None",
  "inactive_state_weapon": null,
  "ignores_combat_mods": false,
  "copy_creator_mods": false,
  "spawn_limit": 0,
  "spawn_limit_mission": 0,
  "ignore_av_to_eb_scaling": false,
  "can_zone": false,
  "custom_badge_stat": null,
  "badge_stat_flags": "DefaultBadgeStat",
  "rank": "VR_MINION",
  "power_full_names": [
    "Warriors.Warrior_Minion_Mace.Bash",
    "Warriors.Warrior_Hand_Crossbow.Hand_Crossbow",
    "PandorasBox_Issue1Powers.Troll_Toughness.High_Pain_Tolerance"
  ],
  "power_display_names": [
    "Bash",
    "Hand Crossbow",
    "High Pain Tolerance"
  ],
  "power_levels": [
    0,
    0,
    0
  ],
  "powers": [
    {
      "power_category": "Warriors",
      "power_set": "Warrior_Minion_Mace",
      "power": "*",
      "level": 0
    },
    {
      "power_category": "Warriors",
      "power_set": "Warrior_Hand_Crossbow",
      "power": "*",
      "level": 0
    },
    {
      "power_category": "PandorasBox_Issue1Powers",
      "power_set": "Troll_Toughness",
      "power": "*",
      "level": 0
    }
  ],
  "levels": [
    {
      "level": 30,
      "experience": 0,
      "display_names": [
        "Warrior Slammer"
      ],
      "costumes": [
        "Thug_Warrior_01",
        "Thug_Warrior_02",
        "Thug_Warrior_03",
        "Thug_Warrior_04",
        "Thug_Warrior_05",
        "Thug_Warrior_06"
      ]
    },
    {
      "level": 31,
      "experience": 0,
      "display_names": [
        "Warrior Slammer"
      ],
      "costumes": [
        "Thug_Warrior_01",
        "Thug_Warrior_02",
        "Thug_Warrior_03",
        "Thug_Warrior_04",
        "Thug_Warrior_05",
        "Thug_Warrior_06"
      ]
    },
    {
      "level": 32,
      "experience": 0,
      "display_names": [
        "Warrior Slammer"
      ],
      "costumes": [
        "Thug_Warrior_01",
        "Thug_Warrior_02",
        "Thug_Warrior_03",
        "Thug_Warrior_04",
        "Thug_Warrior_05",
        "Thug_Warrior_06"
      ]
    },
    {
      "level": 33,
      "experience": 0,
      "display_names": [
        "Warrior Slammer"
      ],
      "costumes": [
        "Thug_Warrior_01",
        "Thug_Warrior_02",
        "Thug_Warrior_03",
        "Thug_Warrior_04",
        "Thug_Warrior_05",
        "Thug_Warrior_06"
      ]
    },
    {
      "level": 34,
      "experience": 0,
      "display_names": [
        "Warrior Slammer"
      ],
      "costumes": [
        "Thug_Warrior_01",
        "Thug_Warrior_02",
        "Thug_Warrior_03",
        "Thug_Warrior_04",
        "Thug_Warrior_05",
        "Thug_Warrior_06"
      ]
    },
    {
      "level": 35,
      "experience": 0,
      "display_names": [
        "Warrior Slammer"
      ],
      "costumes": [
        "Thug_Warrior_01",
        "Thug_Warrior_02",
        "Thug_Warrior_03",
        "Thug_Warrior_04",
        "Thug_Warrior_05",
        "Thug_Warrior_06"
      ]
    },
    {
      "level": 36,
      "experience": 0,
      "display_names": [
        "Warrior Slammer"
      ],
      "costumes": [
        "Thug_Warrior_01",
        "Thug_Warrior_02",
        "Thug_Warrior_03",
        "Thug_Warrior_04",
        "Thug_Warrior_05",
        "Thug_Warrior_06"
      ]
    },
    {
      "level": 37,
      "experience": 0,
      "display_names": [
        "Warrior Slammer"
      ],
      "costumes": [
        "Thug_Warrior_01",
        "Thug_Warrior_02",
        "Thug_Warrior_03",
        "Thug_Warrior_04",
        "Thug_Warrior_05",
        "Thug_Warrior_06"
      ]
    },
    {
      "level": 38,
      "experience": 0,
      "display_names": [
        "Warrior Slammer"
      ],
      "costumes": [
        "Thug_Warrior_01",
        "Thug_Warrior_02",
        "Thug_Warrior_03",
        "Thug_Warrior_04",
        "Thug_Warrior_05",
        "Thug_Warrior_06"
      ]
    },
    {
      "level": 39,
      "experience": 0,
      "display_names": [
        "Warrior Slammer"
      ],
      "costumes": [
        "Thug_Warrior_01",
        "Thug_Warrior_02",
        "Thug_Warrior_03",
        "Thug_Warrior_04",
        "Thug_Warrior_05",
        "Thug_Warrior_06"
      ]
    },
    {
      "level": 40,
      "experience": 0,
      "display_names": [
        "Warrior Slammer"
      ],
      "costumes": [
        "Thug_Warrior_01",
        "Thug_Warrior_02",
        "Thug_Warrior_03",
        "Thug_Warrior_04",
        "Thug_Warrior_05",
        "Thug_Warrior_06"
      ]
    },
    {
      "level": 41,
      "experience": 0,
      "display_names": [
        "Warrior Slammer"
      ],
      "costumes": [
        "Thug_Warrior_01",
        "Thug_Warrior_02",
        "Thug_Warrior_03",
        "Thug_Warrior_04",
        "Thug_Warrior_05",
        "Thug_Warrior_06"
      ]
    },
    {
      "level": 42,
      "experience": 0,
      "display_names": [
        "Warrior Slammer"
      ],
      "costumes": [
        "Thug_Warrior_01",
        "Thug_Warrior_02",
        "Thug_Warrior_03",
        "Thug_Warrior_04",
        "Thug_Warrior_05",
        "Thug_Warrior_06"
      ]
    },
    {
      "level": 43,
      "experience": 0,
      "display_names": [
        "Warrior Slammer"
      ],
      "costumes": [
        "Thug_Warrior_01",
        "Thug_Warrior_02",
        "Thug_Warrior_03",
        "Thug_Warrior_04",
        "Thug_Warrior_05",
        "Thug_Warrior_06"
      ]
    },
    {
      "level": 44,
      "experience": 0,
      "display_names": [
        "Warrior Slammer"
      ],
      "costumes": [
        "Thug_Warrior_01",
        "Thug_Warrior_02",
        "Thug_Warrior_03",
        "Thug_Warrior_04",
        "Thug_Warrior_05",
        "Thug_Warrior_06"
      ]
    },
    {
      "level": 45,
      "experience": 0,
      "display_names": [
        "Warrior Slammer"
      ],
      "costumes": [
        "Thug_Warrior_01",
        "Thug_Warrior_02",
        "Thug_Warrior_03",
        "Thug_Warrior_04",
        "Thug_Warrior_05",
        "Thug_Warrior_06"
      ]
    },
    {
      "level": 46,
      "experience": 0,
      "display_names": [
        "Warrior Slammer"
      ],
      "costumes": [
        "Thug_Warrior_01",
        "Thug_Warrior_02",
        "Thug_Warrior_03",
        "Thug_Warrior_04",
        "Thug_Warrior_05",
        "Thug_Warrior_06"
      ]
    },
    {
      "level": 47,
      "experience": 0,
      "display_names": [
        "Warrior Slammer"
      ],
      "costumes": [
        "Thug_Warrior_01",
        "Thug_Warrior_02",
        "Thug_Warrior_03",
        "Thug_Warrior_04",
        "Thug_Warrior_05",
        "Thug_Warrior_06"
      ]
    },
    {
      "level": 48,
      "experience": 0,
      "display_names": [
        "Warrior Slammer"
      ],
      "costumes": [
        "Thug_Warrior_01",
        "Thug_Warrior_02",
        "Thug_Warrior_03",
        "Thug_Warrior_04",
        "Thug_Warrior_05",
        "Thug_Warrior_06"
      ]
    },
    {
      "level": 49,
      "experience": 0,
      "display_names": [
        "Warrior Slammer"
      ],
      "costumes": [
        "Thug_Warrior_01",
        "Thug_Warrior_02",
        "Thug_Warrior_03",
        "Thug_Warrior_04",
        "Thug_Warrior_05",
        "Thug_Warrior_06"
      ]
    },
    {
      "level": 50,
      "experience": 0,
      "display_names": [
        "Warrior Slammer"
      ],
      "costumes": [
        "Thug_Warrior_01",
        "Thug_Warrior_02",
        "Thug_Warrior_03",
        "Thug_Warrior_04",
        "Thug_Warrior_05",
        "Thug_Warrior_06"
      ]
    },
    {
      "level": 51,
      "experience": 0,
      "display_names": [
        "Warrior Slammer"
      ],
      "costumes": [
        "Thug_Warrior_01",
        "Thug_Warrior_02",
        "Thug_Warrior_03",
        "Thug_Warrior_04",
        "Thug_Warrior_05",
        "Thug_Warrior_06"
      ]
    },
    {
      "level": 52,
      "experience": 0,
      "display_names": [
        "Warrior Slammer"
      ],
      "costumes": [
        "Thug_Warrior_01",
        "Thug_Warrior_02",
        "Thug_Warrior_03",
        "Thug_Warrior_04",
        "Thug_Warrior_05",
        "Thug_Warrior_06"
      ]
    },
    {
      "level": 53,
      "experience": 0,
      "display_names": [
        "Warrior Slammer"
      ],
      "costumes": [
        "Thug_Warrior_01",
        "Thug_Warrior_02",
        "Thug_Warrior_03",
        "Thug_Warrior_04",
        "Thug_Warrior_05",
        "Thug_Warrior_06"
      ]
    },
    {
      "level": 54,
      "experience": 0,
      "display_names": [
        "Warrior Slammer"
      ],
      "costumes": [
        "Thug_Warrior_01",
        "Thug_Warrior_02",
        "Thug_Warrior_03",
        "Thug_Warrior_04",
        "Thug_Warrior_05",
        "Thug_Warrior_06"
      ]
    }
  ]
}