{
  "name": "Warriors_Nictus_Hunter_Boss",
  "gender": "GENDER_MALE",
  "description": "These Warriors have been around long enough that they can not only dish out pain, they can take it as well. On the streets of Paragon City, one doesn't survive long as a mace wielder without building up a resistance to smashing attacks.",
  "group_description": null,
  "display_class_name": null,
  "character_class_name": "boss_grunt",
  "ai_config": "Nictus_Hunter",
  "commandable_pet": false,
  "power_tags": [
    "HumanSkeleton",
    "Human"
  ],
  "additional_rewards": [

  ],
  "skill_hp_rewards": [

  ],
  "skill_status_rewards": [

  ],
  "ally": null,
  "gang": null,
  "reward_scale": 1.2,
  "game_exclusion": "None",
  "inactive_state_weapon": null,
  "ignores_combat_mods": false,
  "copy_creator_mods": false,
  "spawn_limit": 0,
  "spawn_limit_mission": 0,
  "ignore_av_to_eb_scaling": false,
  "can_zone": false,
  "custom_badge_stat": null,
  "badge_stat_flags": "DefaultBadgeStat",
  "rank": "VR_BOSS",
  "power_full_names": [
    "Nictus.Hunter.Quantum_Array_gun",
    "Warriors.Warrior_Lt_Boss_Defense.Resistance"
  ],
  "power_display_names": [
    "Quantum Array gun",
    "Resistance"
  ],
  "power_levels": [
    0,
    0
  ],
  "powers": [
    {
      "power_category": "Nictus",
      "power_set": "Hunter",
      "power": "Quantum_Array_gun",
      "level": 0
    },
    {
      "power_category": "Warriors",
      "power_set": "Warrior_Lt_Boss_Defense",
      "power": "*",
      "level": 0
    }
  ],
  "levels": [
    {
      "level": 5,
      "experience": 0,
      "display_names": [
        "Elite Quantum Gunner"
      ],
      "costumes": [
        "Thug_Warrior_Boss_01"
      ]
    },
    {
      "level": 6,
      "experience": 0,
      "display_names": [
        "Elite Quantum Gunner"
      ],
      "costumes": [
        "Thug_Warrior_Boss_01"
      ]
    },
    {
      "level": 7,
      "experience": 0,
      "display_names": [
        "Elite Quantum Gunner"
      ],
      "costumes": [
        "Thug_Warrior_Boss_01"
      ]
    },
    {
      "level": 8,
      "experience": 0,
      "display_names": [
        "Elite Quantum Gunner"
      ],
      "costumes": [
        "Thug_Warrior_Boss_01"
      ]
    },
    {
      "level": 9,
      "experience": 0,
      "display_names": [
        "Elite Quantum Gunner"
      ],
      "costumes": [
        "Thug_Warrior_Boss_01"
      ]
    },
    {
      "level": 10,
      "experience": 0,
      "display_names": [
        "Elite Quantum Gunner"
      ],
      "costumes": [
        "Thug_Warrior_Boss_01"
      ]
    },
    {
      "level": 11,
      "experience": 0,
      "display_names": [
        "Elite Quantum Gunner"
      ],
      "costumes": [
        "Thug_Warrior_Boss_01"
      ]
    },
    {
      "level": 12,
      "experience": 0,
      "display_names": [
        "Elite Quantum Gunner"
      ],
      "costumes": [
        "Thug_Warrior_Boss_01"
      ]
    },
    {
      "level": 13,
      "experience": 0,
      "display_names": [
        "Elite Quantum Gunner"
      ],
      "costumes": [
        "Thug_Warrior_Boss_01"
      ]
    },
    {
      "level": 14,
      "experience": 0,
      "display_names": [
        "Elite Quantum Gunner"
      ],
      "costumes": [
        "Thug_Warrior_Boss_01"
      ]
    },
    {
      "level": 15,
      "experience": 0,
      "display_names": [
        "Elite Quantum Gunner"
      ],
      "costumes": [
        "Thug_Warrior_Boss_01"
      ]
    },
    {
      "level": 16,
      "experience": 0,
      "display_names": [
        "Elite Quantum Gunner"
      ],
      "costumes": [
        "Thug_Warrior_Boss_01"
      ]
    },
    {
      "level": 17,
      "experience": 0,
      "display_names": [
        "Elite Quantum Gunner"
      ],
      "costumes": [
        "Thug_Warrior_Boss_01"
      ]
    },
    {
      "level": 18,
      "experience": 0,
      "display_names": [
        "Elite Quantum Gunner"
      ],
      "costumes": [
        "Thug_Warrior_Boss_01"
      ]
    },
    {
      "level": 19,
      "experience": 0,
      "display_names": [
        "Elite Quantum Gunner"
      ],
      "costumes": [
        "Thug_Warrior_Boss_01"
      ]
    },
    {
      "level": 20,
      "experience": 0,
      "display_names": [
        "Elite Quantum Gunner"
      ],
      "costumes": [
        "Thug_Warrior_Boss_01"
      ]
    },
    {
      "level": 21,
      "experience": 0,
      "display_names": [
        "Elite Quantum Gunner"
      ],
      "costumes": [
        "Thug_Warrior_Boss_01"
      ]
    },
    {
      "level": 22,
      "experience": 0,
      "display_names": [
        "Elite Quantum Gunner"
      ],
      "costumes": [
        "Thug_Warrior_Boss_01"
      ]
    },
    {
      "level": 23,
      "experience": 0,
      "display_names": [
        "Elite Quantum Gunner"
      ],
      "costumes": [
        "Thug_Warrior_Boss_01"
      ]
    },
    {
      "level": 24,
      "experience": 0,
      "display_names": [
        "Elite Quantum Gunner"
      ],
      "costumes": [
        "Thug_Warrior_Boss_01"
      ]
    },
    {
      "level": 25,
      "experience": 0,
      "display_names": [
        "Elite Quantum Gunner"
      ],
      "costumes": [
        "Thug_Warrior_Boss_01"
      ]
    },
    {
      "level": 26,
      "experience": 0,
      "display_names": [
        "Elite Quantum Gunner"
      ],
      "costumes": [
        "Thug_Warrior_Boss_01"
      ]
    },
    {
      "level": 27,
      "experience": 0,
      "display_names": [
        "Elite Quantum Gunner"
      ],
      "costumes": [
        "Thug_Warrior_Boss_01"
      ]
    },
    {
      "level": 28,
      "experience": 0,
      "display_names": [
        "Elite Quantum Gunner"
      ],
      "costumes": [
        "Thug_Warrior_Boss_01"
      ]
    },
    {
      "level": 29,
      "experience": 0,
      "display_names": [
        "Elite Quantum Gunner"
      ],
      "costumes": [
        "Thug_Warrior_Boss_01"
      ]
    }
  ]
}