{
  "name": "Warriors_Hollows_Boxing_Thug",
  "gender": "GENDER_MALE",
  "description": "A little education can be a dangerous thing. The members of the gang known as the Warriors take their inspiration from ancient Greek heroes and soldiers. They seem to favor the old school weapons over democracy, literature, and art.",
  "group_description": null,
  "display_class_name": null,
  "character_class_name": "minion_grunt",
  "ai_config": "Default_Melee",
  "commandable_pet": false,
  "power_tags": [
    "HumanSkeleton",
    "Human"
  ],
  "additional_rewards": [

  ],
  "skill_hp_rewards": [

  ],
  "skill_status_rewards": [

  ],
  "ally": null,
  "gang": null,
  "reward_scale": 1.0,
  "game_exclusion": "None",
  "inactive_state_weapon": null,
  "ignores_combat_mods": false,
  "copy_creator_mods": false,
  "spawn_limit": -1,
  "spawn_limit_mission": -1,
  "ignore_av_to_eb_scaling": false,
  "can_zone": false,
  "custom_badge_stat": null,
  "badge_stat_flags": "DefaultBadgeStat",
  "rank": "VR_MINION",
  "power_full_names": [
    "Warriors.Warrior_Minion_Boxing.Boxing",
    "Warriors.Warrior_Minion_Boxing.Kick",
    "Warriors.Warrior_Minion_Boxing.Brawl",
    "Warriors.Warrior_Hand_Crossbow.Hand_Crossbow"
  ],
  "power_display_names": [
    "Boxing",
    "Kick",
    "Brawl",
    "Hand Crossbow"
  ],
  "power_levels": [
    0,
    0,
    0,
    0
  ],
  "powers": [
    {
      "power_category": "Warriors",
      "power_set": "Warrior_Minion_Boxing",
      "power": "*",
      "level": 0
    },
    {
      "power_category": "Warriors",
      "power_set": "Warrior_Hand_Crossbow",
      "power": "*",
      "level": 0
    }
  ],
  "levels": [
    {
      "level": 5,
      "experience": 0,
      "display_names": [
        "Warrior Bruiser"
      ],
      "costumes": [
        "Thug_Warrior_01",
        "Thug_Warrior_02",
        "Thug_Warrior_03",
        "Thug_Warrior_04",
        "Thug_Warrior_05",
        "Thug_Warrior_06"
      ]
    },
    {
      "level": 6,
      "experience": 0,
      "display_names": [
        "Warrior Bruiser"
      ],
      "costumes": [
        "Thug_Warrior_01",
        "Thug_Warrior_02",
        "Thug_Warrior_03",
        "Thug_Warrior_04",
        "Thug_Warrior_05",
        "Thug_Warrior_06"
      ]
    },
    {
      "level": 7,
      "experience": 0,
      "display_names": [
        "Warrior Bruiser"
      ],
      "costumes": [
        "Thug_Warrior_01",
        "Thug_Warrior_02",
        "Thug_Warrior_03",
        "Thug_Warrior_04",
        "Thug_Warrior_05",
        "Thug_Warrior_06"
      ]
    },
    {
      "level": 8,
      "experience": 0,
      "display_names": [
        "Warrior Bruiser"
      ],
      "costumes": [
        "Thug_Warrior_01",
        "Thug_Warrior_02",
        "Thug_Warrior_03",
        "Thug_Warrior_04",
        "Thug_Warrior_05",
        "Thug_Warrior_06"
      ]
    },
    {
      "level": 9,
      "experience": 0,
      "display_names": [
        "Warrior Bruiser"
      ],
      "costumes": [
        "Thug_Warrior_01",
        "Thug_Warrior_02",
        "Thug_Warrior_03",
        "Thug_Warrior_04",
        "Thug_Warrior_05",
        "Thug_Warrior_06"
      ]
    },
    {
      "level": 10,
      "experience": 0,
      "display_names": [
        "Warrior Bruiser"
      ],
      "costumes": [
        "Thug_Warrior_01",
        "Thug_Warrior_02",
        "Thug_Warrior_03",
        "Thug_Warrior_04",
        "Thug_Warrior_05",
        "Thug_Warrior_06"
      ]
    },
    {
      "level": 11,
      "experience": 0,
      "display_names": [
        "Warrior Bruiser"
      ],
      "costumes": [
        "Thug_Warrior_01",
        "Thug_Warrior_02",
        "Thug_Warrior_03",
        "Thug_Warrior_04",
        "Thug_Warrior_05",
        "Thug_Warrior_06"
      ]
    },
    {
      "level": 12,
      "experience": 0,
      "display_names": [
        "Warrior Bruiser"
      ],
      "costumes": [
        "Thug_Warrior_01",
        "Thug_Warrior_02",
        "Thug_Warrior_03",
        "Thug_Warrior_04",
        "Thug_Warrior_05",
        "Thug_Warrior_06"
      ]
    },
    {
      "level": 13,
      "experience": 0,
      "display_names": [
        "Warrior Bruiser"
      ],
      "costumes": [
        "Thug_Warrior_01",
        "Thug_Warrior_02",
        "Thug_Warrior_03",
        "Thug_Warrior_04",
        "Thug_Warrior_05",
        "Thug_Warrior_06"
      ]
    },
    {
      "level": 14,
      "experience": 0,
      "display_names": [
        "Warrior Bruiser"
      ],
      "costumes": [
        "Thug_Warrior_01",
        "Thug_Warrior_02",
        "Thug_Warrior_03",
        "Thug_Warrior_04",
        "Thug_Warrior_05",
        "Thug_Warrior_06"
      ]
    },
    {
      "level": 15,
      "experience": 0,
      "display_names": [
        "Warrior Bruiser"
      ],
      "costumes": [
        "Thug_Warrior_01",
        "Thug_Warrior_02",
        "Thug_Warrior_03",
        "Thug_Warrior_04",
        "Thug_Warrior_05",
        "Thug_Warrior_06"
      ]
    }
  ]
}