{
  "name": "Wyvern_Lt_Wing_Fang_High_45plus",
  "gender": "GENDER_MALE",
  "description": "Wyvern is a private agency dedicated to eliminating problems Freedom Corps hasn't or won't deal with. Wing Agents act as air support for their companions.",
  "group_description": null,
  "display_class_name": null,
  "character_class_name": "lt_grunt",
  "ai_config": "Default_Ranged",
  "commandable_pet": false,
  "power_tags": [
    "HumanSkeleton"
  ],
  "additional_rewards": [

  ],
  "skill_hp_rewards": [

  ],
  "skill_status_rewards": [

  ],
  "ally": "Hero",
  "gang": null,
  "reward_scale": 1.0,
  "game_exclusion": "None",
  "inactive_state_weapon": null,
  "ignores_combat_mods": false,
  "copy_creator_mods": false,
  "spawn_limit": -1,
  "spawn_limit_mission": -1,
  "ignore_av_to_eb_scaling": false,
  "can_zone": false,
  "custom_badge_stat": null,
  "badge_stat_flags": "DefaultBadgeStat",
  "rank": "VR_LIEUTENANT",
  "power_full_names": [
    "V_Wyvern.Lt_Fang_Low.Brawl",
    "V_Wyvern.Lt_Fang_Low.Talon_Aimed_Shot",
    "V_Wyvern.Lt_Fang_Low.Entangling_Arrow",
    "V_Wyvern.Lt_Fang.Talon_Fistful_of_Arrows",
    "V_Wyvern.Lt_Fang.Talon_Snap_Shot",
    "V_Wyvern.Lt_Fang_High.Talon_Blazing_Arrow",
    "V_Wyvern.Lt_Fang_High.Disruption_Arrow",
    "V_Wyvern.Wing_Agent.Fly"
  ],
  "power_display_names": [
    "Kick",
    "Talon Aimed Shot",
    "Entangling Arrow",
    "Talon Fistful of Arrows",
    "Talon Snap Shot",
    "Talon Blazing Arrow",
    "Disruption Arrow",
    "Fly"
  ],
  "power_levels": [
    0,
    0,
    0,
    0,
    0,
    0,
    0,
    0
  ],
  "powers": [
    {
      "power_category": "V_Wyvern",
      "power_set": "Lt_Fang_Low",
      "power": "*",
      "level": 0
    },
    {
      "power_category": "V_Wyvern",
      "power_set": "Lt_Fang",
      "power": "*",
      "level": 0
    },
    {
      "power_category": "V_Wyvern",
      "power_set": "Lt_Fang_High",
      "power": "*",
      "level": 0
    },
    {
      "power_category": "V_Wyvern",
      "power_set": "Wing_Agent",
      "power": "*",
      "level": 0
    }
  ],
  "levels": [
    {
      "level": 45,
      "experience": 0,
      "display_names": [
        "Wing Fang Agent"
      ],
      "costumes": [
        "Villain_Wyvern_Wing_Fang_Agent_01",
        "Villain_Wyvern_Wing_Fang_Agent_02",
        "Villain_Wyvern_Wing_Fang_Agent_03",
        "Villain_Wyvern_Wing_Fang_Agent_04"
      ]
    },
    {
      "level": 46,
      "experience": 0,
      "display_names": [
        "Wing Fang Agent"
      ],
      "costumes": [
        "Villain_Wyvern_Wing_Fang_Agent_01",
        "Villain_Wyvern_Wing_Fang_Agent_02",
        "Villain_Wyvern_Wing_Fang_Agent_03",
        "Villain_Wyvern_Wing_Fang_Agent_04"
      ]
    },
    {
      "level": 47,
      "experience": 0,
      "display_names": [
        "Wing Fang Agent"
      ],
      "costumes": [
        "Villain_Wyvern_Wing_Fang_Agent_01",
        "Villain_Wyvern_Wing_Fang_Agent_02",
        "Villain_Wyvern_Wing_Fang_Agent_03",
        "Villain_Wyvern_Wing_Fang_Agent_04"
      ]
    },
    {
      "level": 48,
      "experience": 0,
      "display_names": [
        "Wing Fang Agent"
      ],
      "costumes": [
        "Villain_Wyvern_Wing_Fang_Agent_01",
        "Villain_Wyvern_Wing_Fang_Agent_02",
        "Villain_Wyvern_Wing_Fang_Agent_03",
        "Villain_Wyvern_Wing_Fang_Agent_04"
      ]
    },
    {
      "level": 49,
      "experience": 0,
      "display_names": [
        "Wing Fang Agent"
      ],
      "costumes": [
        "Villain_Wyvern_Wing_Fang_Agent_01",
        "Villain_Wyvern_Wing_Fang_Agent_02",
        "Villain_Wyvern_Wing_Fang_Agent_03",
        "Villain_Wyvern_Wing_Fang_Agent_04"
      ]
    },
    {
      "level": 50,
      "experience": 0,
      "display_names": [
        "Wing Fang Agent"
      ],
      "costumes": [
        "Villain_Wyvern_Wing_Fang_Agent_01",
        "Villain_Wyvern_Wing_Fang_Agent_02",
        "Villain_Wyvern_Wing_Fang_Agent_03",
        "Villain_Wyvern_Wing_Fang_Agent_04"
      ]
    },
    {
      "level": 51,
      "experience": 0,
      "display_names": [
        "Wing Fang Agent"
      ],
      "costumes": [
        "Villain_Wyvern_Wing_Fang_Agent_01",
        "Villain_Wyvern_Wing_Fang_Agent_02",
        "Villain_Wyvern_Wing_Fang_Agent_03",
        "Villain_Wyvern_Wing_Fang_Agent_04"
      ]
    },
    {
      "level": 52,
      "experience": 0,
      "display_names": [
        "Wing Fang Agent"
      ],
      "costumes": [
        "Villain_Wyvern_Wing_Fang_Agent_01",
        "Villain_Wyvern_Wing_Fang_Agent_02",
        "Villain_Wyvern_Wing_Fang_Agent_03",
        "Villain_Wyvern_Wing_Fang_Agent_04"
      ]
    },
    {
      "level": 53,
      "experience": 0,
      "display_names": [
        "Wing Fang Agent"
      ],
      "costumes": [
        "Villain_Wyvern_Wing_Fang_Agent_01",
        "Villain_Wyvern_Wing_Fang_Agent_02",
        "Villain_Wyvern_Wing_Fang_Agent_03",
        "Villain_Wyvern_Wing_Fang_Agent_04"
      ]
    },
    {
      "level": 54,
      "experience": 0,
      "display_names": [
        "Wing Fang Agent"
      ],
      "costumes": [
        "Villain_Wyvern_Wing_Fang_Agent_01",
        "Villain_Wyvern_Wing_Fang_Agent_02",
        "Villain_Wyvern_Wing_Fang_Agent_03",
        "Villain_Wyvern_Wing_Fang_Agent_04"
      ]
    }
  ]
}