{
  "name": "Zig_Kill_Longbow",
  "gender": "GENDER_MALE",
  "description": "Kills Longbow dead.",
  "group_description": "Objects",
  "display_class_name": null,
  "character_class_name": "minion_pets",
  "ai_config": "Awake_Stationary_Untargetable",
  "commandable_pet": false,
  "power_tags": [

  ],
  "additional_rewards": [

  ],
  "skill_hp_rewards": [

  ],
  "skill_status_rewards": [

  ],
  "ally": "Monster",
  "gang": null,
  "reward_scale": 1.0,
  "game_exclusion": "None",
  "inactive_state_weapon": null,
  "ignores_combat_mods": false,
  "copy_creator_mods": false,
  "spawn_limit": 0,
  "spawn_limit_mission": 0,
  "ignore_av_to_eb_scaling": false,
  "can_zone": false,
  "custom_badge_stat": null,
  "badge_stat_flags": "DefaultBadgeStat",
  "rank": "VR_PET",
  "power_full_names": [
    "Pets.ResistAll.ResistAll",
    "Prisoners.Kill_Longbow.Kill_Longbow"
  ],
  "power_display_names": [
    "ResistAll",
    "Kill Longbow"
  ],
  "power_levels": [
    0,
    0
  ],
  "powers": [
    {
      "power_category": "Pets",
      "power_set": "ResistAll",
      "power": "*",
      "level": 0
    },
    {
      "power_category": "Prisoners",
      "power_set": "Kill_Longbow",
      "power": "*",
      "level": 0
    }
  ],
  "levels": [
    {
      "level": 54,
      "experience": 0,
      "display_names": [
        "Longbow Slayer"
      ],
      "costumes": [
        "Puddle"
      ]
    }
  ]
}