{
  "name": "SS_Tanker",
  "display_name": "SS Tanker",
  "display_fullname": "V GenericHeroes.SS Tanker",
  "display_help": "Hero",
  "display_short_help": "Hero",
  "available_level": [
    0,
    0,
    0,
    0,
    0
  ],
  "source_file": "DEFS/POWERS/V_GENERICHEROES/SS_TANKER.POWERSETS",
  "requires": "",
  "power_names": [
    "V_GenericHeroes.SS_Tanker.Jab",
    "V_GenericHeroes.SS_Tanker.Punch",
    "V_GenericHeroes.SS_Tanker.Hurl",
    "V_GenericHeroes.SS_Tanker.Temp_Invulnerability",
    "V_GenericHeroes.SS_Tanker.Resistance"
  ],
  "power_display_names": [
    "Jab",
    "Punch",
    "Hurl",
    "Temp Invulnerability",
    "Resistance"
  ]
}