{
  "name": "Crafted_Unspeakable_Terror_B",
  "display_name": "Crafted Unspeakable Terror B",
  "display_fullname": "Boosts.Crafted Unspeakable Terror B",
  "display_help": "Enhances the fear duration of a power by {Boost.Attrib.Mez.Scale}% and reduces the endurance cost of a power by {Boost.Attrib.Endurance.Scale}%.",
  "display_short_help": "Set: Unspeakable Terror",
  "available_level": [
    0
  ],
  "source_file": "DEFS/POWERS/BOOSTS/CRAFTED_UNSPEAKABLE_TERROR_B.POWERSETS",
  "requires": "",
  "power_names": [
    "Boosts.Crafted_Unspeakable_Terror_B.Crafted_Unspeakable_Terror_B"
  ],
  "power_display_names": [
    "Unspeakable Terror: Endurance/Fear"
  ]
}