{
  "name": "Leviathan_Eye",
  "display_name": "Eye of the Leviathan",
  "display_fullname": "V Coralax.Eye of the Leviathan",
  "display_help": "Coralax",
  "display_short_help": "Coralax",
  "available_level": [
    0,
    0,
    0,
    0,
    0,
    0,
    0,
    0,
    0
  ],
  "source_file": "DEFS/POWERS/V_CORALAX/LEVIATHAN_EYE.POWERSETS",
  "requires": "",
  "power_names": [
    "V_Coralax.Leviathan_Eye.Resistance",
    "V_Coralax.Leviathan_Eye.Subdue",
    "V_Coralax.Leviathan_Eye.Will_Domination",
    "V_Coralax.Leviathan_Eye.Psionic_Tornado",
    "V_Coralax.Leviathan_Eye.Telekinetic_Blast",
    "V_Coralax.Leviathan_Eye.Mental_Blast",
    "V_Coralax.Leviathan_Eye.Scramble_Thoughts",
    "V_Coralax.Leviathan_Eye.Psychic_Wail",
    "V_Coralax.Leviathan_Eye.Tidal_Wave"
  ],
  "power_display_names": [
    "Resistance",
    "Subdue",
    "Will Domination",
    "Psionic Tornado",
    "Telekinetic Blast",
    "Mental Blast",
    "Scramble Thoughts",
    "Psychic Wail",
    "Tidal Wave"
  ]
}