{
  "name": "Crafted_Stupefy_D",
  "display_name": "Crafted Stupefy D",
  "display_fullname": "Boosts.Crafted Stupefy D",
  "display_help": "Enhances the range of a power by {Boost.Attrib.Range.Scale}% and stun duration by {Boost.Attrib.Mez.Scale}%.",
  "display_short_help": "Set: Stupefy",
  "available_level": [
    0
  ],
  "source_file": "DEFS/POWERS/BOOSTS/CRAFTED_STUPEFY_D.POWERSETS",
  "requires": "",
  "power_names": [
    "Boosts.Crafted_Stupefy_D.Crafted_Stupefy_D"
  ],
  "power_display_names": [
    "Stupefy: Stun/Range"
  ]
}