{
  "name": "Attuned_Serendipity_F",
  "display_name": "Attuned Serendipity F",
  "display_fullname": "Boosts.Attuned Serendipity F",
  "display_help": "Reduces endurance cost by {Boost.Attrib.Endurance.Scale}%.",
  "display_short_help": "Set: Serendipity",
  "available_level": [
    0
  ],
  "source_file": "DEFS/POWERS/BOOSTS/ATTUNED_SERENDIPITY_F.POWERSETS",
  "requires": "",
  "power_names": [
    "Boosts.Attuned_Serendipity_F.Attuned_Serendipity_F"
  ],
  "power_display_names": [
    "Serendipity: Endurance"
  ]
}