{
  "name": "Mu_Heal",
  "display_name": "Mu_Heal",
  "display_fullname": "V Arachnos.Mu Heal",
  "display_help": "Arachnos",
  "display_short_help": "Arachnos",
  "available_level": [
    0
  ],
  "source_file": "DEFS/POWERS/V_ARACHNOS/MU_HEAL.POWERSETS",
  "requires": "",
  "power_names": [
    "V_Arachnos.Mu_Heal.Touch_of_the_Storm"
  ],
  "power_display_names": [
    "Touch of the Storm"
  ]
}