{
  "name": "Pendragon",
  "display_name": "Pendragon",
  "display_fullname": "Magisterium.Pendragon",
  "display_help": "Magisterium",
  "display_short_help": "Magisterium",
  "available_level": [
    0,
    0,
    0,
    0,
    0,
    0,
    0,
    0,
    0,
    0,
    0
  ],
  "source_file": "DEFS/POWERS/MAGISTERIUM/PENDRAGON.POWERSETS",
  "requires": "",
  "power_names": [
    "Magisterium.Pendragon.Fury_Display",
    "Magisterium.Pendragon.Tectonic_Assault",
    "Magisterium.Pendragon.Defensive_Sweep",
    "Magisterium.Pendragon.Crushing_Blow",
    "Magisterium.Pendragon.Shockwave_Strike",
    "Magisterium.Pendragon.Taunt",
    "Magisterium.Pendragon.Follow_Through",
    "Magisterium.Pendragon.Shatter_Armor",
    "Magisterium.Pendragon.Arc_of_Devastation",
    "Magisterium.Pendragon.Power_of_the_Fae",
    "Magisterium.Pendragon.Mystic_Destruction"
  ],
  "power_display_names": [
    "Fury Display",
    "Tectonic Assault",
    "Defensive Sweep",
    "Crushing Blow",
    "Shockwave Strike",
    "Taunt",
    "Follow Through",
    "Shatter Armor",
    "Arc of Devastation",
    "Power of the Fae",
    "Mystic Destruction"
  ]
}