{
  "name": "Attuned_Reactive_Armor_A",
  "display_name": "Attuned Reactive Armor A",
  "display_fullname": "Boosts.Attuned Reactive Armor A",
  "display_help": "Enhances the effectiveness of Resistance buffs.",
  "display_short_help": "Set: Reactive Armor",
  "available_level": [
    0
  ],
  "source_file": "DEFS/POWERS/BOOSTS/ATTUNED_REACTIVE_ARMOR_A.POWERSETS",
  "requires": "",
  "power_names": [
    "Boosts.Attuned_Reactive_Armor_A.Attuned_Reactive_Armor_A"
  ],
  "power_display_names": [
    "Reactive Armor: Resistance/Endurance"
  ]
}