{
  "name": "Oni",
  "display_name": "Oni",
  "display_fullname": "Mastermind Pets.Oni",
  "display_help": "Ninjas",
  "display_short_help": "Ninjas",
  "available_level": [
    0,
    0,
    0,
    0
  ],
  "source_file": "DEFS/POWERS/MASTERMIND_PETS/ONI.POWERSETS",
  "requires": "",
  "power_names": [
    "Mastermind_Pets.Oni.Resistance",
    "Mastermind_Pets.Oni.Super_Leap",
    "Mastermind_Pets.Oni.Fire_Sword_Slash",
    "Mastermind_Pets.Oni.Fire_Blast"
  ],
  "power_display_names": [
    "Resistance",
    "Super Leap",
    "Fire Sword Slash",
    "Fire Blast"
  ]
}