{
  "name": "Cold_Domination",
  "display_name": "Cold Domination",
  "display_fullname": "Defender Buff.Cold Domination",
  "display_help": "Cold Domination powers allow you to manipulate cold and ice to protect your allies and weaken your enemies.",
  "display_short_help": "Cold Domination",
  "available_level": [
    0,
    0,
    1,
    5,
    7,
    11,
    17,
    25,
    31
  ],
  "source_file": "DEFS/POWERS/DEFENDER_BUFF/COLD_DOMINATION.POWERSETS",
  "requires": "",
  "power_names": [
    "Defender_Buff.Cold_Domination.Infrigidate",
    "Defender_Buff.Cold_Domination.Ice_Shield",
    "Defender_Buff.Cold_Domination.Snow_Storm",
    "Defender_Buff.Cold_Domination.Glacial_Shield",
    "Defender_Buff.Cold_Domination.Frostwork",
    "Defender_Buff.Cold_Domination.Arctic_Fog",
    "Defender_Buff.Cold_Domination.Benumb",
    "Defender_Buff.Cold_Domination.Sleet",
    "Defender_Buff.Cold_Domination.Heat_Loss"
  ],
  "power_display_names": [
    "Infrigidate",
    "Ice Shield",
    "Snow Storm",
    "Glacial Shield",
    "Frostwork",
    "Arctic Fog",
    "Benumb",
    "Sleet",
    "Heat Loss"
  ]
}