{
  "name": "Experienced_Marksman",
  "display_name": "Experienced Marksman",
  "group_name": "Sniper Attacks",
  "conversion_groups": [
    "ECPvP"
  ],
  "boost_lists": [
    [
      "Boosts.Crafted_Experienced_Marksman_A.Crafted_Experienced_Marksman_A",
      "Boosts.Attuned_Experienced_Marksman_A.Attuned_Experienced_Marksman_A"
    ],
    [
      "Boosts.Crafted_Experienced_Marksman_B.Crafted_Experienced_Marksman_B",
      "Boosts.Attuned_Experienced_Marksman_B.Attuned_Experienced_Marksman_B"
    ],
    [
      "Boosts.Crafted_Experienced_Marksman_C.Crafted_Experienced_Marksman_C",
      "Boosts.Attuned_Experienced_Marksman_C.Attuned_Experienced_Marksman_C"
    ],
    [
      "Boosts.Crafted_Experienced_Marksman_D.Crafted_Experienced_Marksman_D",
      "Boosts.Attuned_Experienced_Marksman_D.Attuned_Experienced_Marksman_D"
    ],
    [
      "Boosts.Crafted_Experienced_Marksman_E.Crafted_Experienced_Marksman_E",
      "Boosts.Attuned_Experienced_Marksman_E.Attuned_Experienced_Marksman_E"
    ],
    [
      "Boosts.Crafted_Experienced_Marksman_F.Crafted_Experienced_Marksman_F",
      "Boosts.Attuned_Experienced_Marksman_F.Attuned_Experienced_Marksman_F"
    ]
  ],
  "min_level": 10,
  "max_level": 50,
  "bonuses": [
    {
      "min_boosts": 1,
      "max_boosts": 6,
      "auto_powers": [
        "set_bonus.set_bonus.experienced_marksman"
      ],
      "bonus_power": "",
      "requires": "(PowerBoostsSlotted>Attuned_Experienced_Marksman_F >= 1) || (PowerBoostsSlotted>Crafted_Experienced_Marksman_F >= 1)"
    },
    {
      "min_boosts": 2,
      "max_boosts": 6,
      "auto_powers": [
        "set_bonus.set_bonus.increased_range_3"
      ],
      "bonus_power": "",
      "requires": ""
    },
    {
      "min_boosts": 2,
      "max_boosts": 6,
      "auto_powers": [
        "set_bonus.pvp_set_bonus.lethal_smash_mez_res_2"
      ],
      "bonus_power": "",
      "requires": "isPVPMap?"
    },
    {
      "min_boosts": 3,
      "max_boosts": 6,
      "auto_powers": [
        "set_bonus.set_bonus.increased_health_3"
      ],
      "bonus_power": "",
      "requires": ""
    },
    {
      "min_boosts": 3,
      "max_boosts": 6,
      "auto_powers": [
        "set_bonus.pvp_set_bonus.improved_regeneration_4"
      ],
      "bonus_power": "",
      "requires": "isPVPMap?"
    },
    {
      "min_boosts": 4,
      "max_boosts": 6,
      "auto_powers": [
        "set_bonus.set_bonus.increased_damage_4"
      ],
      "bonus_power": "",
      "requires": ""
    },
    {
      "min_boosts": 4,
      "max_boosts": 6,
      "auto_powers": [
        "set_bonus.pvp_set_bonus.accuracy_4"
      ],
      "bonus_power": "",
      "requires": "isPVPMap?"
    },
    {
      "min_boosts": 5,
      "max_boosts": 6,
      "auto_powers": [
        "set_bonus.set_bonus.increased_endurance_4"
      ],
      "bonus_power": "",
      "requires": ""
    },
    {
      "min_boosts": 5,
      "max_boosts": 6,
      "auto_powers": [
        "set_bonus.pvp_set_bonus.improved_recharge_time_5"
      ],
      "bonus_power": "",
      "requires": "isPVPMap?"
    },
    {
      "min_boosts": 6,
      "max_boosts": 6,
      "auto_powers": [
        "set_bonus.set_bonus.increased_ranged_energy_neg_def_3"
      ],
      "bonus_power": "",
      "requires": ""
    },
    {
      "min_boosts": 6,
      "max_boosts": 6,
      "auto_powers": [
        "set_bonus.pvp_set_bonus.improved_recovery_5"
      ],
      "bonus_power": "",
      "requires": "isPVPMap?"
    }
  ],
  "computed": {
    "icons": [
      "e_icon_experienced_marksman.png"
    ],
    "boost_type": [
      "Enhance Damage"
    ],
    "boosts": [
      [
        "Experienced Marksman: Accuracy/Damage",
        "Attuned Experienced Marksman: Accuracy/Damage"
      ],
      [
        "Experienced Marksman: Damage/Recharge",
        "Attuned Experienced Marksman: Damage/Recharge"
      ],
      [
        "Experienced Marksman: Damage/Endurance/InterruptTime",
        "Attuned Experienced Marksman: Damage/Endurance/InterruptTime"
      ],
      [
        "Experienced Marksman: Accuracy/Endurance/Recharge",
        "Attuned Experienced Marksman: Accuracy/Endurance/Recharge"
      ],
      [
        "Experienced Marksman: Damage/InterruptTime/Range/Recharge",
        "Attuned Experienced Marksman: Damage/InterruptTime/Range/Recharge"
      ],
      [
        "Experienced Marksman: Range/Global",
        "Attuned Experienced Marksman: Range/Global"
      ]
    ],
    "bonuses": [
      [
        [
          "set_bonus.pvp_set_bonus.lethal_smash_mez_res_2",
          "Small Lethal, Smash and Mez Resistance"
        ]
      ],
      [
        [
          "set_bonus.pvp_set_bonus.improved_regeneration_4",
          "Large Improved Regeneration Bonus (PVP)"
        ]
      ],
      [
        [
          "set_bonus.pvp_set_bonus.accuracy_4",
          "Large Accuracy Bonus (PVP)"
        ]
      ],
      [
        [
          "set_bonus.pvp_set_bonus.improved_recharge_time_5",
          "Huge Improved Recharge Time Bonus (PVP)"
        ]
      ],
      [
        [
          "set_bonus.pvp_set_bonus.improved_recovery_5",
          "Huge Improved Recovery Bonus (PVP)"
        ]
      ]
    ],
    "globals": {
      "attuned_experienced_marksman_f": [
        [
          "set_bonus.set_bonus.experienced_marksman",
          "Experienced Marksman: Fast Snipe"
        ]
      ],
      "crafted_experienced_marksman_f": [
        [
          "set_bonus.set_bonus.experienced_marksman",
          "Experienced Marksman: Fast Snipe"
        ]
      ]
    }
  }
}