{
  "name": "Extreme_Measures",
  "display_name": "Extreme Measures",
  "group_name": "Sniper Attacks",
  "conversion_groups": [
    "Rarity: Uncommon",
    "Category: Sniper"
  ],
  "boost_lists": [
    [
      "Boosts.Crafted_Extreme_Measures_A.Crafted_Extreme_Measures_A",
      "Boosts.Attuned_Extreme_Measures_A.Attuned_Extreme_Measures_A"
    ],
    [
      "Boosts.Crafted_Extreme_Measures_B.Crafted_Extreme_Measures_B",
      "Boosts.Attuned_Extreme_Measures_B.Attuned_Extreme_Measures_B"
    ],
    [
      "Boosts.Crafted_Extreme_Measures_C.Crafted_Extreme_Measures_C",
      "Boosts.Attuned_Extreme_Measures_C.Attuned_Extreme_Measures_C"
    ],
    [
      "Boosts.Crafted_Extreme_Measures_D.Crafted_Extreme_Measures_D",
      "Boosts.Attuned_Extreme_Measures_D.Attuned_Extreme_Measures_D"
    ],
    [
      "Boosts.Crafted_Extreme_Measures_E.Crafted_Extreme_Measures_E",
      "Boosts.Attuned_Extreme_Measures_E.Attuned_Extreme_Measures_E"
    ],
    [
      "Boosts.Crafted_Extreme_Measures_F.Crafted_Extreme_Measures_F",
      "Boosts.Attuned_Extreme_Measures_F.Attuned_Extreme_Measures_F"
    ]
  ],
  "min_level": 35,
  "max_level": 50,
  "bonuses": [
    {
      "min_boosts": 2,
      "max_boosts": 6,
      "auto_powers": [
        "set_bonus.set_bonus.improved_recovery_2"
      ],
      "bonus_power": "",
      "requires": ""
    },
    {
      "min_boosts": 3,
      "max_boosts": 6,
      "auto_powers": [
        "set_bonus.set_bonus.increased_health_3"
      ],
      "bonus_power": "",
      "requires": ""
    },
    {
      "min_boosts": 4,
      "max_boosts": 6,
      "auto_powers": [
        "set_bonus.set_bonus.increased_damage_3"
      ],
      "bonus_power": "",
      "requires": ""
    },
    {
      "min_boosts": 5,
      "max_boosts": 6,
      "auto_powers": [
        "set_bonus.set_bonus.increased_aoe_fire_cold_def_3"
      ],
      "bonus_power": "",
      "requires": ""
    },
    {
      "min_boosts": 6,
      "max_boosts": 6,
      "auto_powers": [
        "set_bonus.set_bonus.increased_melee_lethal_smash_def_3"
      ],
      "bonus_power": "",
      "requires": ""
    }
  ],
  "computed": {
    "icons": [
      "e_icon_extrememeasures.png"
    ],
    "boost_type": [
      "Enhance Damage"
    ],
    "boosts": [
      [
        "Extreme Measures: Accuracy/Damage",
        "Attuned Extreme Measures: Accuracy/Damage"
      ],
      [
        "Extreme Measures: Damage/Endurance",
        "Attuned Extreme Measures: Damage/Endurance"
      ],
      [
        "Extreme Measures: Accuracy/InterruptTime/Range",
        "Attuned Extreme Measures: Accuracy/InterruptTime/Range"
      ],
      [
        "Extreme Measures: Damage/InterruptTime/Recharge",
        "Attuned Extreme Measures: Damage/InterruptTime/Recharge"
      ],
      [
        "Extreme Measures: Damage/Endurance/Recharge",
        "Attuned Extreme Measures: Damage/Endurance/Recharge"
      ],
      [
        "Extreme Measures: Accuracy/Range/Recharge",
        "Attuned Extreme Measures: Accuracy/Range/Recharge"
      ]
    ],
    "bonuses": [
      [
        [
          "set_bonus.set_bonus.improved_recovery_2",
          "Small Improved Recovery Bonus"
        ]
      ],
      [
        [
          "set_bonus.set_bonus.increased_health_3",
          "Moderate Increased Health Bonus"
        ]
      ],
      [
        [
          "set_bonus.set_bonus.increased_damage_3",
          "Moderate Increased Damage Bonus"
        ]
      ],
      [
        [
          "set_bonus.set_bonus.increased_aoe_fire_cold_def_3",
          "Moderate Increased AoE/Fire/Cold Def Bonus"
        ]
      ],
      [
        [
          "set_bonus.set_bonus.increased_melee_lethal_smash_def_3",
          "Moderate Increased Melee/Lethal/Smashing Def Bonus"
        ]
      ]
    ],
    "globals": {

    }
  }
}