{
  "name": "Gauntleted_Fist",
  "display_name": "Gauntleted Fist",
  "group_name": "Tanker Archetype Sets",
  "conversion_groups": [
    "Rarity: Archetype",
    "Category: Tanker"
  ],
  "boost_lists": [
    [
      "Boosts.Attuned_Gauntleted_Fist_A.Attuned_Gauntleted_Fist_A"
    ],
    [
      "Boosts.Attuned_Gauntleted_Fist_B.Attuned_Gauntleted_Fist_B"
    ],
    [
      "Boosts.Attuned_Gauntleted_Fist_C.Attuned_Gauntleted_Fist_C"
    ],
    [
      "Boosts.Attuned_Gauntleted_Fist_D.Attuned_Gauntleted_Fist_D"
    ],
    [
      "Boosts.Attuned_Gauntleted_Fist_E.Attuned_Gauntleted_Fist_E"
    ],
    [
      "Boosts.Attuned_Gauntleted_Fist_F.Attuned_Gauntleted_Fist_F"
    ]
  ],
  "min_level": 1,
  "max_level": 1,
  "bonuses": [
    {
      "min_boosts": 2,
      "max_boosts": 6,
      "auto_powers": [
        "set_bonus.set_bonus.increased_endurance_3"
      ],
      "bonus_power": "",
      "requires": ""
    },
    {
      "min_boosts": 3,
      "max_boosts": 6,
      "auto_powers": [
        "set_bonus.set_bonus.energy_neg_mez_res_4"
      ],
      "bonus_power": "",
      "requires": ""
    },
    {
      "min_boosts": 4,
      "max_boosts": 6,
      "auto_powers": [
        "set_bonus.set_bonus.improved_regeneration_4"
      ],
      "bonus_power": "",
      "requires": ""
    },
    {
      "min_boosts": 5,
      "max_boosts": 6,
      "auto_powers": [
        "set_bonus.set_bonus.increased_melee_lethal_smash_def_4"
      ],
      "bonus_power": "",
      "requires": ""
    },
    {
      "min_boosts": 6,
      "max_boosts": 6,
      "auto_powers": [
        "set_bonus.set_bonus.lethal_smash_mez_res_6",
        "set_bonus.set_bonus.fire_cold_mez_res_6"
      ],
      "bonus_power": "",
      "requires": ""
    }
  ],
  "computed": {
    "icons": [
      "e_icon_gauntleted_fist_ato.png"
    ],
    "boost_type": [
      "Enhance Damage"
    ],
    "boosts": [
      [
        "Attuned Gauntleted Fist: Accuracy/Damage"
      ],
      [
        "Attuned Gauntleted Fist: Damage/Recharge"
      ],
      [
        "Attuned Gauntleted Fist: Accuracy/Damage/Recharge"
      ],
      [
        "Attuned Gauntleted Fist: Damage/Endurance/Recharge"
      ],
      [
        "Attuned Gauntleted Fist: Accuracy/Damage/Endurance/Recharge"
      ],
      [
        "Attuned Gauntleted Fist: Recharge/Proc"
      ]
    ],
    "bonuses": [
      [
        [
          "set_bonus.set_bonus.increased_endurance_3",
          "Moderate Increased Endurance Bonus"
        ]
      ],
      [
        [
          "set_bonus.set_bonus.energy_neg_mez_res_4",
          "Large Energy, Negative Energy and Mez Resistance"
        ]
      ],
      [
        [
          "set_bonus.set_bonus.improved_regeneration_4",
          "Large Improved Regeneration Bonus"
        ]
      ],
      [
        [
          "set_bonus.set_bonus.increased_melee_lethal_smash_def_4",
          "Large Increased Melee/Lethal/Smashing Def Bonus"
        ]
      ],
      [
        [
          "set_bonus.set_bonus.lethal_smash_mez_res_6",
          "Gargantuan Lethal, Smash and Mez Resistance"
        ],
        [
          "set_bonus.set_bonus.fire_cold_mez_res_6",
          "Gargantuan Fire, Cold and Mez Resistance"
        ]
      ]
    ],
    "globals": {

    }
  }
}