{
  "name": "Karma",
  "display_name": "Karma",
  "group_name": "Defense Sets",
  "conversion_groups": [
    "Rarity: Uncommon",
    "Category: Defense"
  ],
  "boost_lists": [
    [
      "Boosts.Crafted_Karma_A.Crafted_Karma_A",
      "Boosts.Attuned_Karma_A.Attuned_Karma_A"
    ],
    [
      "Boosts.Crafted_Karma_B.Crafted_Karma_B",
      "Boosts.Attuned_Karma_B.Attuned_Karma_B"
    ],
    [
      "Boosts.Crafted_Karma_C.Crafted_Karma_C",
      "Boosts.Attuned_Karma_C.Attuned_Karma_C"
    ]
  ],
  "min_level": 10,
  "max_level": 30,
  "bonuses": [
    {
      "min_boosts": 1,
      "max_boosts": 3,
      "auto_powers": [
        "set_bonus.set_bonus.karma"
      ],
      "bonus_power": "",
      "requires": "(PowerBoostsSlotted>Attuned_Karma_C >= 1) || (PowerBoostsSlotted>Crafted_Karma_C >= 1)"
    },
    {
      "min_boosts": 2,
      "max_boosts": 3,
      "auto_powers": [
        "set_bonus.set_bonus.increased_endurance_2"
      ],
      "bonus_power": "",
      "requires": ""
    },
    {
      "min_boosts": 3,
      "max_boosts": 3,
      "auto_powers": [
        "set_bonus.set_bonus.increased_health_3"
      ],
      "bonus_power": "",
      "requires": ""
    }
  ],
  "computed": {
    "icons": [
      "e_icon_karma.png"
    ],
    "boost_type": [
      "Enhance Defense"
    ],
    "boosts": [
      [
        "Karma: Defense/Endurance",
        "Attuned Karma: Defense/Endurance"
      ],
      [
        "Karma: Defense/Recharge",
        "Attuned Karma: Defense/Recharge"
      ],
      [
        "Karma: Global",
        "Attuned Karma: Global"
      ]
    ],
    "bonuses": [
      [
        [
          "set_bonus.set_bonus.increased_endurance_2",
          "Small Increased Endurance Bonus"
        ]
      ],
      [
        [
          "set_bonus.set_bonus.increased_health_3",
          "Moderate Increased Health Bonus"
        ]
      ]
    ],
    "globals": {
      "attuned_karma_c": [
        [
          "set_bonus.set_bonus.karma",
          "Karma: Knockback Protection"
        ]
      ],
      "crafted_karma_c": [
        [
          "set_bonus.set_bonus.karma",
          "Karma: Knockback Protection"
        ]
      ]
    }
  }
}