{
  "name": "Reactive_Defenses",
  "display_name": "Reactive Defenses",
  "group_name": "Defense Sets",
  "conversion_groups": [
    "Rarity: Rare",
    "Category: Defense"
  ],
  "boost_lists": [
    [
      "Boosts.Crafted_Reactive_Defenses_A.Crafted_Reactive_Defenses_A",
      "Boosts.Attuned_Reactive_Defenses_A.Attuned_Reactive_Defenses_A"
    ],
    [
      "Boosts.Crafted_Reactive_Defenses_B.Crafted_Reactive_Defenses_B",
      "Boosts.Attuned_Reactive_Defenses_B.Attuned_Reactive_Defenses_B"
    ],
    [
      "Boosts.Crafted_Reactive_Defenses_C.Crafted_Reactive_Defenses_C",
      "Boosts.Attuned_Reactive_Defenses_C.Attuned_Reactive_Defenses_C"
    ],
    [
      "Boosts.Crafted_Reactive_Defenses_D.Crafted_Reactive_Defenses_D",
      "Boosts.Attuned_Reactive_Defenses_D.Attuned_Reactive_Defenses_D"
    ],
    [
      "Boosts.Crafted_Reactive_Defenses_E.Crafted_Reactive_Defenses_E",
      "Boosts.Attuned_Reactive_Defenses_E.Attuned_Reactive_Defenses_E"
    ],
    [
      "Boosts.Crafted_Reactive_Defenses_F.Crafted_Reactive_Defenses_F",
      "Boosts.Attuned_Reactive_Defenses_F.Attuned_Reactive_Defenses_F"
    ]
  ],
  "min_level": 20,
  "max_level": 50,
  "bonuses": [
    {
      "min_boosts": 1,
      "max_boosts": 6,
      "auto_powers": [
        "set_bonus.set_bonus.reactive_defenses"
      ],
      "bonus_power": "",
      "requires": "(PowerBoostsSlotted>Attuned_Reactive_Defenses_F >= 1) || (PowerBoostsSlotted>Crafted_Reactive_Defenses_F >= 1)"
    },
    {
      "min_boosts": 2,
      "max_boosts": 6,
      "auto_powers": [
        "set_bonus.set_bonus.lethal_smash_mez_res_1"
      ],
      "bonus_power": "",
      "requires": ""
    },
    {
      "min_boosts": 3,
      "max_boosts": 6,
      "auto_powers": [
        "set_bonus.set_bonus.increased_health_4"
      ],
      "bonus_power": "",
      "requires": ""
    },
    {
      "min_boosts": 4,
      "max_boosts": 6,
      "auto_powers": [
        "set_bonus.set_bonus.fire_cold_mez_res_3"
      ],
      "bonus_power": "",
      "requires": ""
    },
    {
      "min_boosts": 5,
      "max_boosts": 6,
      "auto_powers": [
        "set_bonus.set_bonus.endurance_discount_5"
      ],
      "bonus_power": "",
      "requires": ""
    },
    {
      "min_boosts": 6,
      "max_boosts": 6,
      "auto_powers": [
        "set_bonus.set_bonus.improved_recharge_time_6"
      ],
      "bonus_power": "",
      "requires": ""
    }
  ],
  "computed": {
    "icons": [
      "e_icon_reactive_defense.png"
    ],
    "boost_type": [
      "Enhance Defense"
    ],
    "boosts": [
      [
        "Reactive Defenses: Defense",
        "Attuned Reactive Defenses: Defense"
      ],
      [
        "Reactive Defenses: Defense/Endurance",
        "Attuned Reactive Defenses: Defense/Endurance"
      ],
      [
        "Reactive Defenses: Endurance/Recharge",
        "Attuned Reactive Defenses: Endurance/Recharge"
      ],
      [
        "Reactive Defenses: Defense/Recharge",
        "Attuned Reactive Defenses: Defense/Recharge"
      ],
      [
        "Reactive Defenses: Defense/Endurance/Recharge",
        "Attuned Reactive Defenses: Defense/Endurance/Recharge"
      ],
      [
        "Reactive Defenses: Global",
        "Attuned Reactive Defenses: Global"
      ]
    ],
    "bonuses": [
      [
        [
          "set_bonus.set_bonus.lethal_smash_mez_res_1",
          "Tiny Lethal, Smash and Mez Resistance"
        ]
      ],
      [
        [
          "set_bonus.set_bonus.increased_health_4",
          "Large Increased Health Bonus"
        ]
      ],
      [
        [
          "set_bonus.set_bonus.fire_cold_mez_res_3",
          "Moderate Fire, Cold and Mez Resistance"
        ]
      ],
      [
        [
          "set_bonus.set_bonus.endurance_discount_5",
          "Huge Endurance Discount"
        ]
      ],
      [
        [
          "set_bonus.set_bonus.improved_recharge_time_6",
          "Gargantuan Improved Recharge Time Bonus"
        ]
      ]
    ],
    "globals": {
      "attuned_reactive_defenses_f": [
        [
          "set_bonus.set_bonus.reactive_defenses",
          "Reactive Defenses"
        ]
      ],
      "crafted_reactive_defenses_f": [
        [
          "set_bonus.set_bonus.reactive_defenses",
          "Reactive Defenses"
        ]
      ]
    }
  }
}