{
  "name": "Shield_Wall",
  "display_name": "Shield Wall",
  "group_name": "Defense Sets",
  "conversion_groups": [
    "ECPvP"
  ],
  "boost_lists": [
    [
      "Boosts.Crafted_Shield_Wall_A.Crafted_Shield_Wall_A",
      "Boosts.Attuned_Shield_Wall_A.Attuned_Shield_Wall_A"
    ],
    [
      "Boosts.Crafted_Shield_Wall_B.Crafted_Shield_Wall_B",
      "Boosts.Attuned_Shield_Wall_B.Attuned_Shield_Wall_B"
    ],
    [
      "Boosts.Crafted_Shield_Wall_C.Crafted_Shield_Wall_C",
      "Boosts.Attuned_Shield_Wall_C.Attuned_Shield_Wall_C"
    ],
    [
      "Boosts.Crafted_Shield_Wall_D.Crafted_Shield_Wall_D",
      "Boosts.Attuned_Shield_Wall_D.Attuned_Shield_Wall_D"
    ],
    [
      "Boosts.Crafted_Shield_Wall_E.Crafted_Shield_Wall_E",
      "Boosts.Attuned_Shield_Wall_E.Attuned_Shield_Wall_E"
    ],
    [
      "Boosts.Crafted_Shield_Wall_F.Crafted_Shield_Wall_F",
      "Boosts.Attuned_Shield_Wall_F.Attuned_Shield_Wall_F"
    ]
  ],
  "min_level": 10,
  "max_level": 50,
  "bonuses": [
    {
      "min_boosts": 1,
      "max_boosts": 6,
      "auto_powers": [
        "set_bonus.set_bonus.shield_wall_teleport"
      ],
      "bonus_power": "",
      "requires": "(PowerBoostsSlotted>Attuned_Shield_Wall_F >= 1) || (PowerBoostsSlotted>Crafted_Shield_Wall_F >= 1)"
    },
    {
      "min_boosts": 1,
      "max_boosts": 6,
      "auto_powers": [
        "set_bonus.set_bonus.shield_wall_res"
      ],
      "bonus_power": "",
      "requires": "(PowerBoostsSlotted>Attuned_Shield_Wall_F >= 1) || (PowerBoostsSlotted>Crafted_Shield_Wall_F >= 1)"
    },
    {
      "min_boosts": 2,
      "max_boosts": 6,
      "auto_powers": [
        "set_bonus.set_bonus.improved_regeneration_4"
      ],
      "bonus_power": "",
      "requires": ""
    },
    {
      "min_boosts": 2,
      "max_boosts": 6,
      "auto_powers": [
        "set_bonus.pvp_set_bonus.improved_recovery_4"
      ],
      "bonus_power": "",
      "requires": "isPVPMap?"
    },
    {
      "min_boosts": 3,
      "max_boosts": 6,
      "auto_powers": [
        "set_bonus.set_bonus.increased_health_5"
      ],
      "bonus_power": "",
      "requires": ""
    },
    {
      "min_boosts": 3,
      "max_boosts": 6,
      "auto_powers": [
        "set_bonus.pvp_set_bonus.repel_resist_3"
      ],
      "bonus_power": "",
      "requires": "isPVPMap?"
    },
    {
      "min_boosts": 4,
      "max_boosts": 6,
      "auto_powers": [
        "set_bonus.set_bonus.energy_neg_mez_res_5"
      ],
      "bonus_power": "",
      "requires": ""
    },
    {
      "min_boosts": 4,
      "max_boosts": 6,
      "auto_powers": [
        "set_bonus.pvp_set_bonus.lethal_smash_mez_res_4"
      ],
      "bonus_power": "",
      "requires": "isPVPMap?"
    },
    {
      "min_boosts": 5,
      "max_boosts": 6,
      "auto_powers": [
        "set_bonus.set_bonus.increased_damage_4"
      ],
      "bonus_power": "",
      "requires": ""
    },
    {
      "min_boosts": 5,
      "max_boosts": 6,
      "auto_powers": [
        "set_bonus.pvp_set_bonus.slow_resist_3"
      ],
      "bonus_power": "",
      "requires": "isPVPMap?"
    },
    {
      "min_boosts": 6,
      "max_boosts": 6,
      "auto_powers": [
        "set_bonus.set_bonus.toxic_psi_mez_res_4"
      ],
      "bonus_power": "",
      "requires": ""
    },
    {
      "min_boosts": 6,
      "max_boosts": 6,
      "auto_powers": [
        "set_bonus.pvp_set_bonus.improved_recharge_time_5"
      ],
      "bonus_power": "",
      "requires": "isPVPMap?"
    }
  ],
  "computed": {
    "icons": [
      "e_icon_shieldwall.png"
    ],
    "boost_type": [
      "Enhance Defense"
    ],
    "boosts": [
      [
        "Shield Wall: Defense/Endurance",
        "Attuned Shield Wall: Defense/Endurance"
      ],
      [
        "Shield Wall: Defense/Recharge",
        "Attuned Shield Wall: Defense/Recharge"
      ],
      [
        "Shield Wall: Endurance/Recharge",
        "Attuned Shield Wall: Endurance/Recharge"
      ],
      [
        "Shield Wall: Defense/Endurance/Recharge",
        "Attuned Shield Wall: Defense/Endurance/Recharge"
      ],
      [
        "Shield Wall: Defense",
        "Attuned Shield Wall: Defense"
      ],
      [
        "Shield Wall: Global",
        "Attuned Shield Wall: Global"
      ]
    ],
    "bonuses": [
      [
        [
          "set_bonus.pvp_set_bonus.improved_recovery_4",
          "Large Improved Recovery Bonus (PVP)"
        ]
      ],
      [
        [
          "set_bonus.pvp_set_bonus.repel_resist_3",
          "Large Increased Repel Resistance (PVP)"
        ]
      ],
      [
        [
          "set_bonus.pvp_set_bonus.lethal_smash_mez_res_4",
          "Large Lethal, Smash and Mez Resistance"
        ]
      ],
      [
        [
          "set_bonus.pvp_set_bonus.slow_resist_3",
          "Large Slow Resist (PVP)"
        ]
      ],
      [
        [
          "set_bonus.pvp_set_bonus.improved_recharge_time_5",
          "Huge Improved Recharge Time Bonus (PVP)"
        ]
      ]
    ],
    "globals": {
      "attuned_shield_wall_f": [
        [
          "set_bonus.set_bonus.shield_wall_res",
          "Shield Wall: +Res(All)"
        ]
      ],
      "crafted_shield_wall_f": [
        [
          "set_bonus.set_bonus.shield_wall_res",
          "Shield Wall: +Res(All)"
        ]
      ]
    }
  }
}