{
  "name": "Superior_Entomb",
  "display_name": "Superior Entomb",
  "group_name": "Holds",
  "conversion_groups": [
    "Rarity: Superior Winter Pack Series"
  ],
  "boost_lists": [
    [
      "Boosts.Superior_Attuned_Entomb_A.Superior_Attuned_Entomb_A"
    ],
    [
      "Boosts.Superior_Attuned_Entomb_B.Superior_Attuned_Entomb_B"
    ],
    [
      "Boosts.Superior_Attuned_Entomb_C.Superior_Attuned_Entomb_C"
    ],
    [
      "Boosts.Superior_Attuned_Entomb_D.Superior_Attuned_Entomb_D"
    ],
    [
      "Boosts.Superior_Attuned_Entomb_E.Superior_Attuned_Entomb_E"
    ],
    [
      "Boosts.Superior_Attuned_Entomb_F.Superior_Attuned_Entomb_F"
    ]
  ],
  "min_level": 1,
  "max_level": 1,
  "bonuses": [
    {
      "min_boosts": 2,
      "max_boosts": 6,
      "auto_powers": [
        "set_bonus.set_bonus.fire_cold_mez_res_7"
      ],
      "bonus_power": "",
      "requires": ""
    },
    {
      "min_boosts": 3,
      "max_boosts": 6,
      "auto_powers": [
        "set_bonus.set_bonus.slow_resist_5"
      ],
      "bonus_power": "",
      "requires": ""
    },
    {
      "min_boosts": 4,
      "max_boosts": 6,
      "auto_powers": [
        "set_bonus.set_bonus.improved_recovery_7"
      ],
      "bonus_power": "",
      "requires": ""
    },
    {
      "min_boosts": 5,
      "max_boosts": 6,
      "auto_powers": [
        "set_bonus.set_bonus.increased_energy_neg_ranged_def_7"
      ],
      "bonus_power": "",
      "requires": ""
    },
    {
      "min_boosts": 6,
      "max_boosts": 6,
      "auto_powers": [
        "set_bonus.set_bonus.increased_fire_cold_aoe_def_7"
      ],
      "bonus_power": "",
      "requires": ""
    }
  ],
  "computed": {
    "icons": [
      "e_icon_entomb.png"
    ],
    "boost_type": [
      "Enhance Hold"
    ],
    "boosts": [
      [
        "Attuned Superior Entomb: Accuracy/Hold"
      ],
      [
        "Attuned Superior Entomb: Hold/Recharge"
      ],
      [
        "Attuned Superior Entomb: Endurance/Recharge"
      ],
      [
        "Attuned Superior Entomb: Accuracy/Endurance/Hold"
      ],
      [
        "Attuned Superior Entomb: Accuracy/Endurance/Hold/Recharge"
      ],
      [
        "Attuned Superior Entomb: Recharge/Proc"
      ]
    ],
    "bonuses": [
      [
        [
          "set_bonus.set_bonus.fire_cold_mez_res_7",
          "Ultimate Fire, Cold and Mez Resistance"
        ]
      ],
      [
        [
          "set_bonus.set_bonus.slow_resist_5",
          "Ultimate Slow Resist"
        ]
      ],
      [
        [
          "set_bonus.set_bonus.improved_recovery_7",
          "Ultimate Improved Recovery Bonus"
        ]
      ],
      [
        [
          "set_bonus.set_bonus.increased_energy_neg_ranged_def_7",
          "Ultimate Increased Energy/Negative Energy/Ranged Def Bonus"
        ]
      ],
      [
        [
          "set_bonus.set_bonus.increased_fire_cold_aoe_def_7",
          "Ultimate Increased Fire/Cold/AoE Def Bonus"
        ]
      ]
    ],
    "globals": {

    }
  }
}