{
  "name": "Superior_Kheldians_Grace",
  "display_name": "Superior Kheldian's Grace",
  "group_name": "Kheldian Archetype Sets",
  "conversion_groups": [
    "Rarity: Superior Archetype",
    "Category: Superior Kheldian"
  ],
  "boost_lists": [
    [
      "Boosts.Superior_Attuned_Superior_Kheldians_Grace_A.Superior_Attuned_Superior_Kheldians_Grace_A"
    ],
    [
      "Boosts.Superior_Attuned_Superior_Kheldians_Grace_B.Superior_Attuned_Superior_Kheldians_Grace_B"
    ],
    [
      "Boosts.Superior_Attuned_Superior_Kheldians_Grace_C.Superior_Attuned_Superior_Kheldians_Grace_C"
    ],
    [
      "Boosts.Superior_Attuned_Superior_Kheldians_Grace_D.Superior_Attuned_Superior_Kheldians_Grace_D"
    ],
    [
      "Boosts.Superior_Attuned_Superior_Kheldians_Grace_E.Superior_Attuned_Superior_Kheldians_Grace_E"
    ],
    [
      "Boosts.Superior_Attuned_Superior_Kheldians_Grace_F.Superior_Attuned_Superior_Kheldians_Grace_F"
    ]
  ],
  "min_level": 1,
  "max_level": 1,
  "bonuses": [
    {
      "min_boosts": 1,
      "max_boosts": 6,
      "auto_powers": [
        "set_bonus.set_bonus.superior_kheldians_grace"
      ],
      "bonus_power": "",
      "requires": "PowerBoostsSlotted>Superior_Attuned_Superior_Kheldians_Grace_F >= 1"
    },
    {
      "min_boosts": 2,
      "max_boosts": 6,
      "auto_powers": [
        "set_bonus.set_bonus.accuracy_7"
      ],
      "bonus_power": "",
      "requires": ""
    },
    {
      "min_boosts": 3,
      "max_boosts": 6,
      "auto_powers": [
        "set_bonus.set_bonus.lethal_smash_mez_res_7"
      ],
      "bonus_power": "",
      "requires": ""
    },
    {
      "min_boosts": 4,
      "max_boosts": 6,
      "auto_powers": [
        "set_bonus.set_bonus.increased_damage_7"
      ],
      "bonus_power": "",
      "requires": ""
    },
    {
      "min_boosts": 5,
      "max_boosts": 6,
      "auto_powers": [
        "set_bonus.set_bonus.improved_recharge_time_7"
      ],
      "bonus_power": "",
      "requires": ""
    },
    {
      "min_boosts": 6,
      "max_boosts": 6,
      "auto_powers": [
        "set_bonus.set_bonus.toxic_psi_mez_res_7"
      ],
      "bonus_power": "",
      "requires": ""
    }
  ],
  "computed": {
    "icons": [
      "e_icon_kheldiangrace.png"
    ],
    "boost_type": [
      "Enhance Damage"
    ],
    "boosts": [
      [
        "Attuned Superior Kheldian's Grace: Accuracy/Damage"
      ],
      [
        "Attuned Superior Kheldian's Grace: Damage/Recharge"
      ],
      [
        "Attuned Superior Kheldian's Grace: Accuracy/Damage/Recharge"
      ],
      [
        "Attuned Superior Kheldian's Grace: Damage/Endurance/Recharge"
      ],
      [
        "Attuned Superior Kheldian's Grace: Accuracy/Damage/Endurance/Recharge"
      ],
      [
        "Attuned Superior Kheldian's Grace: Recharge/Global"
      ]
    ],
    "bonuses": [
      [
        [
          "set_bonus.set_bonus.accuracy_7",
          "Ultimate Accuracy Bonus"
        ]
      ],
      [
        [
          "set_bonus.set_bonus.lethal_smash_mez_res_7",
          "Ultimate Lethal, Smash and Mez Resistance"
        ]
      ],
      [
        [
          "set_bonus.set_bonus.increased_damage_7",
          "Ultimate Increased Damage Bonus"
        ]
      ],
      [
        [
          "set_bonus.set_bonus.improved_recharge_time_7",
          "Ultimate Improved Recharge Time Bonus"
        ]
      ],
      [
        [
          "set_bonus.set_bonus.toxic_psi_mez_res_7",
          "Ultimate Toxic, Psionic and Mez Resistance"
        ]
      ]
    ],
    "globals": {
      "superior_attuned_superior_kheldians_grace_f": [
        [
          "set_bonus.set_bonus.superior_kheldians_grace",
          "Superior Kheldian Grace: Form Bonus"
        ]
      ]
    }
  }
}