{
  "name": "Superior_Essence_Transfer",
  "display_name": "Superior Essence Transfer",
  "group_name": "Kheldian Archetype Sets",
  "conversion_groups": [
    "Rarity: Superior Archetype",
    "Category: Superior Kheldian"
  ],
  "boost_lists": [
    [
      "Boosts.Superior_Attuned_Superior_Essence_Transfer_A.Superior_Attuned_Superior_Essence_Transfer_A"
    ],
    [
      "Boosts.Superior_Attuned_Superior_Essence_Transfer_B.Superior_Attuned_Superior_Essence_Transfer_B"
    ],
    [
      "Boosts.Superior_Attuned_Superior_Essence_Transfer_C.Superior_Attuned_Superior_Essence_Transfer_C"
    ],
    [
      "Boosts.Superior_Attuned_Superior_Essence_Transfer_D.Superior_Attuned_Superior_Essence_Transfer_D"
    ],
    [
      "Boosts.Superior_Attuned_Superior_Essence_Transfer_E.Superior_Attuned_Superior_Essence_Transfer_E"
    ],
    [
      "Boosts.Superior_Attuned_Superior_Essence_Transfer_F.Superior_Attuned_Superior_Essence_Transfer_F"
    ]
  ],
  "min_level": 1,
  "max_level": 1,
  "bonuses": [
    {
      "min_boosts": 2,
      "max_boosts": 6,
      "auto_powers": [
        "set_bonus.set_bonus.increased_health_7"
      ],
      "bonus_power": "",
      "requires": ""
    },
    {
      "min_boosts": 3,
      "max_boosts": 6,
      "auto_powers": [
        "set_bonus.set_bonus.improved_recharge_time_7"
      ],
      "bonus_power": "",
      "requires": ""
    },
    {
      "min_boosts": 4,
      "max_boosts": 6,
      "auto_powers": [
        "set_bonus.set_bonus.increased_ranged_energy_neg_def_7"
      ],
      "bonus_power": "",
      "requires": ""
    },
    {
      "min_boosts": 5,
      "max_boosts": 6,
      "auto_powers": [
        "set_bonus.set_bonus.improved_regeneration_7"
      ],
      "bonus_power": "",
      "requires": ""
    },
    {
      "min_boosts": 6,
      "max_boosts": 6,
      "auto_powers": [
        "set_bonus.set_bonus.increased_melee_lethal_smash_def_7"
      ],
      "bonus_power": "",
      "requires": ""
    }
  ],
  "computed": {
    "icons": [
      "e_icon_essence_transfer_ato.png"
    ],
    "boost_type": [
      "Enhance Damage"
    ],
    "boosts": [
      [
        "Attuned Superior Essence Transfer: Accuracy/Damage"
      ],
      [
        "Attuned Superior Essence Transfer: Damage/Recharge"
      ],
      [
        "Attuned Superior Essence Transfer: Accuracy/Damage/Recharge"
      ],
      [
        "Attuned Superior Essence Transfer: Damage/Endurance/Recharge"
      ],
      [
        "Attuned Superior Essence Transfer: Accuracy/Damage/Endurance/Recharge"
      ],
      [
        "Attuned Superior Essence Transfer: Recharge/Proc"
      ]
    ],
    "bonuses": [
      [
        [
          "set_bonus.set_bonus.increased_health_7",
          "Ultimate Increased Health Bonus"
        ]
      ],
      [
        [
          "set_bonus.set_bonus.improved_recharge_time_7",
          "Ultimate Improved Recharge Time Bonus"
        ]
      ],
      [
        [
          "set_bonus.set_bonus.increased_ranged_energy_neg_def_7",
          "Ultimate Increased Ranged/Energy/Negative Energy Def Bonus"
        ]
      ],
      [
        [
          "set_bonus.set_bonus.improved_regeneration_7",
          "Ultimate Improved Regeneration Bonus"
        ]
      ],
      [
        [
          "set_bonus.set_bonus.increased_melee_lethal_smash_def_7",
          "Ultimate Increased Melee/Lethal/Smashing Def Bonus"
        ]
      ]
    ],
    "globals": {

    }
  }
}