{
  "name": "Volley_Fire",
  "display_name": "Volley Fire",
  "group_name": "Ranged Damage",
  "conversion_groups": [
    "Rarity: Uncommon",
    "Category: Ranged"
  ],
  "boost_lists": [
    [
      "Boosts.Crafted_Volley_Fire_A.Crafted_Volley_Fire_A",
      "Boosts.Attuned_Volley_Fire_A.Attuned_Volley_Fire_A"
    ],
    [
      "Boosts.Crafted_Volley_Fire_B.Crafted_Volley_Fire_B",
      "Boosts.Attuned_Volley_Fire_B.Attuned_Volley_Fire_B"
    ],
    [
      "Boosts.Crafted_Volley_Fire_C.Crafted_Volley_Fire_C",
      "Boosts.Attuned_Volley_Fire_C.Attuned_Volley_Fire_C"
    ]
  ],
  "min_level": 15,
  "max_level": 30,
  "bonuses": [
    {
      "min_boosts": 2,
      "max_boosts": 3,
      "auto_powers": [
        "set_bonus.set_bonus.improved_regeneration_1"
      ],
      "bonus_power": "",
      "requires": ""
    },
    {
      "min_boosts": 3,
      "max_boosts": 3,
      "auto_powers": [
        "set_bonus.set_bonus.increased_health_1"
      ],
      "bonus_power": "",
      "requires": ""
    }
  ],
  "computed": {
    "icons": [
      "e_icon_volleyfire.png"
    ],
    "boost_type": [
      "Enhance Damage"
    ],
    "boosts": [
      [
        "Volley Fire: Accuracy/Damage",
        "Attuned Volley Fire: Accuracy/Damage"
      ],
      [
        "Volley Fire: Damage/Endurance",
        "Attuned Volley Fire: Damage/Endurance"
      ],
      [
        "Volley Fire: Damage/Recharge",
        "Attuned Volley Fire: Damage/Recharge"
      ]
    ],
    "bonuses": [
      [
        [
          "set_bonus.set_bonus.improved_regeneration_1",
          "Tiny Improved Regeneration Bonus"
        ]
      ],
      [
        [
          "set_bonus.set_bonus.increased_health_1",
          "Tiny Increased Health Bonus"
        ]
      ]
    ],
    "globals": {

    }
  }
}