{
  "name": "Crafted_Miracle_D",
  "display_name": "Crafted Miracle D",
  "display_fullname": "Boosts.Crafted Miracle D",
  "display_help": "Enhances the healing potential and damage absorption of a power by {Boost.Attrib.Heal.Scale}%, reduces the endurance cost of a power by {Boost.Attrib.Endurance.Scale}% and recharge time by {Boost.Attrib.RechargeTime.Scale}%.",
  "display_short_help": "Set: Miracle",
  "available_level": [
    0
  ],
  "source_file": "DEFS/POWERS/BOOSTS/CRAFTED_MIRACLE_D.POWERSETS",
  "requires": "",
  "power_names": [
    "Boosts.Crafted_Miracle_D.Crafted_Miracle_D"
  ],
  "power_display_names": [
    "Miracle: Healing/Absorb/Endurance/Recharge"
  ]
}