{
  "name": "Ice_Manipulation",
  "display_name": "Ice Manipulation",
  "display_fullname": "Blaster Support.Ice Manipulation",
  "display_help": "Ice Manipulation lets you surround yourself with various manifestations of ice and cold, assaulting and freezing nearby foes. Ice Manipulation powers are known to Slow opponents.",
  "display_short_help": "Ice Manipulation",
  "available_level": [
    0,
    1,
    3,
    9,
    15,
    19,
    27,
    34,
    37
  ],
  "source_file": "DEFS/POWERS/BLASTER_SUPPORT/ICE_MANIPULATION.POWERSETS",
  "requires": "",
  "power_names": [
    "Blaster_Support.Ice_Manipulation.Chilblain",
    "Blaster_Support.Ice_Manipulation.Frozen_Fists",
    "Blaster_Support.Ice_Manipulation.Ice_Sword",
    "Blaster_Support.Ice_Manipulation.Chilling_Embrace",
    "Blaster_Support.Ice_Manipulation.Build_Up",
    "Blaster_Support.Ice_Manipulation.Ice_Patch",
    "Blaster_Support.Ice_Manipulation.Shiver",
    "Blaster_Support.Ice_Manipulation.Freezing_Touch",
    "Blaster_Support.Ice_Manipulation.Frozen_Aura"
  ],
  "power_display_names": [
    "Chilblain",
    "Frozen Fists",
    "Ice Sword",
    "Frigid Protection",
    "Build Up",
    "Ice Patch",
    "Shiver",
    "Freezing Touch",
    "Frozen Aura"
  ]
}