{
  "name": "PandorasBox_Issue3Powers",
  "display_name": "Issue3Powers",
  "source_file": "DEFS/POWERS/PANDORASBOX_ISSUE3POWERS.CATEGORIES",
  "archetypes": [

  ],
  "display_help": null,
  "display_short_help": null,
  "powerset_names": [
    "pandorasbox_issue3powers.knockback"
  ],
  "powerset_display_names": [
    "Knockback"
  ]
}