{
  "name": "Malta_Zeus",
  "display_name": "Malta_Zeus",
  "display_fullname": "Malta.Malta Zeus",
  "display_help": "Malta Group",
  "display_short_help": "Malta Group",
  "available_level": [
    0,
    0,
    0,
    0,
    0,
    0,
    0,
    0
  ],
  "source_file": "DEFS/POWERS/MALTA/MALTA_ZEUS.POWERSETS",
  "requires": "",
  "power_names": [
    "Malta.Malta_Zeus.Resistance",
    "Malta.Malta_Zeus.Jump_Jets",
    "Malta.Malta_Zeus.Pummel",
    "Malta.Malta_Zeus.Plasma_Blast",
    "Malta.Malta_Zeus.Swarm_Missile",
    "Malta.Malta_Zeus.Incendiary_Swarm_Missiles",
    "Malta.Malta_Zeus.Gas_Swarm_Missiles",
    "Malta.Malta_Zeus.Quad_Plasma_Blast"
  ],
  "power_display_names": [
    "Resistance",
    "Jump Jets",
    "Pummel",
    "Plasma Blast",
    "Swarm Missile",
    "Incendiary Swarm Missiles",
    "Gas Swarm Missiles",
    "Quad Plasma Blast"
  ]
}