{
  "name": "Attuned_Dominion_of_Arachnos_B",
  "display_name": "Attuned Dominion of Arachnos B",
  "display_fullname": "Boosts.Attuned Dominion of Arachnos B",
  "display_help": "UNIQUE -- No more than 1 enhancement of this type may be slotted by a character. Enhances the damage of a power by {Boost.Attrib.Damage.Scale}% and reduces recharge time by {Boost.Attrib.RechargeTime.Scale}%. This enhancement can only be slotted by Soldiers of Arachnos and may be slotted into any Arachnos Soldier or Arachnos Widow damage power.",
  "display_short_help": "Set: Dominion of Arachnos",
  "available_level": [
    0
  ],
  "source_file": "DEFS/POWERS/BOOSTS/ATTUNED_DOMINION_OF_ARACHNOS_B.POWERSETS",
  "requires": "",
  "power_names": [
    "Boosts.Attuned_Dominion_of_Arachnos_B.Attuned_Dominion_of_Arachnos_B"
  ],
  "power_display_names": [
    "Dominion of Arachnos: Damage/Recharge"
  ]
}