{
  "name": "Warrior_Hand_Crossbow",
  "display_name": "Warrior_Hand_Crossbow",
  "display_fullname": "Warriors.Warrior Hand Crossbow",
  "display_help": "Warriors",
  "display_short_help": "Warriors",
  "available_level": [
    0
  ],
  "source_file": "DEFS/POWERS/WARRIORS/WARRIOR_HAND_CROSSBOW.POWERSETS",
  "requires": "",
  "power_names": [
    "Warriors.Warrior_Hand_Crossbow.Hand_Crossbow"
  ],
  "power_display_names": [
    "Hand Crossbow"
  ]
}