{
  "name": "Talsorian_Gauntlets",
  "display_name": "Vanguard Gauntlets",
  "display_fullname": "Vanguard.Vanguard Gauntlets",
  "display_help": "Vanguard",
  "display_short_help": "Vanguard",
  "available_level": [
    0,
    0,
    0,
    0,
    0
  ],
  "source_file": "DEFS/POWERS/VANGUARD/TALSORIAN_GAUNTLETS.POWERSETS",
  "requires": "",
  "power_names": [
    "Vanguard.Talsorian_Gauntlets.Strike",
    "Vanguard.Talsorian_Gauntlets.Slash",
    "Vanguard.Talsorian_Gauntlets.Spin",
    "Vanguard.Talsorian_Gauntlets.Focus",
    "Vanguard.Talsorian_Gauntlets.Shockwave"
  ],
  "power_display_names": [
    "Strike",
    "Slash",
    "Spin",
    "Focus",
    "Shockwave"
  ]
}