{
  "name": "Attuned_Panacea_C",
  "display_name": "Attuned Panacea C",
  "display_fullname": "Boosts.Attuned Panacea C",
  "display_help": "Enhances the healing potential and damage absorption of a power by {Boost.Attrib.Heal.Scale}% and reduces recharge time by {Boost.Attrib.RechargeTime.Scale}%. NOTE: This is a PvP enhancement, this type of enhancement has two groups of set bonuses. You get the set bonuses not marked \"(PvP)\" while experiencing PvE content, but you get both the PvP set bonuses and the PvE set bonuses when fighting players.",
  "display_short_help": "Set: Panacea",
  "available_level": [
    0
  ],
  "source_file": "DEFS/POWERS/BOOSTS/ATTUNED_PANACEA_C.POWERSETS",
  "requires": "",
  "power_names": [
    "Boosts.Attuned_Panacea_C.Attuned_Panacea_C"
  ],
  "power_display_names": [
    "Panacea: Healing/Absorb/Recharge"
  ]
}