{
  "name": "Crafted_Efficacy_Adaptor_C",
  "display_name": "Crafted Efficacy Adaptor C",
  "display_fullname": "Boosts.Crafted Efficacy Adaptor C",
  "display_help": "Enhances the Endurance Modification potential of a power by {Boost.Attrib.Endurance.Scale}%, the accuracy by {Boost.Attrib.Accuracy.Scale}% and reduces the recharge time of a power by {Boost.Attrib.RechargeTime.Scale}%.",
  "display_short_help": "Set: Efficacy Adaptor",
  "available_level": [
    0
  ],
  "source_file": "DEFS/POWERS/BOOSTS/CRAFTED_EFFICACY_ADAPTOR_C.POWERSETS",
  "requires": "",
  "power_names": [
    "Boosts.Crafted_Efficacy_Adaptor_C.Crafted_Efficacy_Adaptor_C"
  ],
  "power_display_names": [
    "Efficacy Adaptor: Endurance Modification/Recharge/Accuracy"
  ]
}