{
  "tag": "ArcanePower",
  "bears": [
    [
      "Pool.Sorcery.Arcane Power",
      "pool.sorcery.arcane_proc"
    ]
  ],
  "affects": [
    [
      "Pool.Sorcery.Arcane Bolt",
      "pool.sorcery.arcane_bolt"
    ],
    [
      "Pool.Sorcery.Arcane Power",
      "pool.sorcery.arcane_proc"
    ]
  ]
}