{
  "tag": "Experimental_Immune_Haste",
  "bears": [
    [
      "Temporary Powers.Temporary Powers.Experimental Immune Booster",
      "temporary_powers.temporary_powers.pathogen_cure_temp"
    ]
  ],
  "affects": [

  ]
}