{
  "tag": "Marked",
  "bears": [
    [
      "Magisterium.Black Swan.Maw of Despair",
      "magisterium.black_swan.maw_of_despair"
    ]
  ],
  "affects": [
    [
      "Magisterium.Black Swan.Maw of Despair",
      "magisterium.black_swan.maw_of_despair"
    ]
  ]
}