{
  "tag": "NBProwlerCloakCritActive",
  "bears": [
    [
      "Primalist Misc.Feral Might.Brutal Swipe",
      "primalist_misc.prowler_form_powers.brutal_swipe_prowler"
    ],
    [
      "Primalist Misc.Feral Might.Feral Blow",
      "primalist_misc.prowler_form_powers.feral_blow_prowler"
    ],
    [
      "Primalist Misc.Feral Might.Primal Strike",
      "primalist_misc.prowler_form_powers.primal_strike_prowler"
    ],
    [
      "Primalist Misc.Feral Might.Savage Blow",
      "primalist_misc.prowler_form_powers.savage_blow_prowler"
    ],
    [
      "Primalist Misc.Feral Might.Upheaval",
      "primalist_misc.prowler_form_powers.upheaval_prowler"
    ],
    [
      "Primalist Misc.Feral Might.Vicious Strike",
      "primalist_misc.prowler_form_powers.vicious_strike_prowler"
    ]
  ],
  "affects": [
    [
      "Feral Might.Feral Might.Nature's Boon",
      "feral_might.feral_might.natures_boon"
    ]
  ]
}