{
  "tag": "Perception",
  "bears": [
    [
      "Boosts.Attuned Rectified Reticle C.Increased Perception",
      "boosts.attuned_rectified_reticle_c.attuned_rectified_reticle_c"
    ],
    [
      "Boosts.Crafted Rectified Reticle C.Increased Perception",
      "boosts.crafted_rectified_reticle_c.crafted_rectified_reticle_c"
    ],
    [
      "Set Bonus.Set Bonus.Rectified Reticle: Increased Perception",
      "set_bonus.set_bonus.rectified_reticle"
    ]
  ],
  "affects": [

  ]
}