{
  "tag": "PresenceHealHigh",
  "bears": [
    [
      "Temporary Powers.Temporary Powers.Unrelenting",
      "temporary_powers.temporary_powers.presence_unrelenting_heal"
    ]
  ],
  "affects": [
    [
      "Brute Defense.Electric Armor.Power Surge",
      "brute_defense.electric_armor.power_surge"
    ],
    [
      "Brute Defense.Energy Aura.Overload",
      "brute_defense.energy_aura.overload"
    ],
    [
      "Brute Defense.Invulnerability.Unstoppable",
      "brute_defense.invulnerability.unstoppable"
    ],
    [
      "Brute Defense.Radiation Armor.Meltdown",
      "brute_defense.radiation_armor.meltdown"
    ],
    [
      "Brute Defense.Shield Defense.One with the Shield",
      "brute_defense.shield_defense.one_with_the_shield"
    ],
    [
      "Brute Defense.Super Reflexes.Elude",
      "brute_defense.super_reflexes.elude"
    ],
    [
      "Brute Defense.Willpower.Strength of Will",
      "brute_defense.willpower.strength_of_will"
    ],
    [
      "Epic.Charge Mastery.Surge of Power",
      "epic.charge_mastery.surge_of_power"
    ],
    [
      "Epic.Electrical Mastery.Surge of Power",
      "epic.electrical_mastery.surge_of_power"
    ],
    [
      "Epic.Field Mastery.Force of Nature",
      "epic.field_mastery.foce_of_nature"
    ],
    [
      "Epic.Force Mastery.Force of Nature",
      "epic.force_mastery.foce_of_nature"
    ],
    [
      "Epic.Mu Mastery.Surge of Power",
      "epic.dominator_mu_mastery.surge_of_power"
    ],
    [
      "Epic.Power Mastery.Force of Nature",
      "epic.power_mastery.force_of_nature"
    ],
    [
      "Peacebringer Defensive.Luminous Aura.Light Form",
      "peacebringer_defensive.luminous_aura.light_form"
    ],
    [
      "Scrapper Defense.Electric Armor.Power Surge",
      "scrapper_defense.electric_armor.power_surge"
    ],
    [
      "Scrapper Defense.Energy Aura.Overload",
      "scrapper_defense.energy_aura.overload"
    ],
    [
      "Scrapper Defense.Invulnerability.Unstoppable",
      "scrapper_defense.invulnerability.unstoppable"
    ],
    [
      "Scrapper Defense.Ninjitsu.Kuji-In Retsu",
      "scrapper_defense.ninjitsu.kuji-in_retsu"
    ],
    [
      "Scrapper Defense.Radiation Armor.Meltdown",
      "scrapper_defense.radiation_armor.meltdown"
    ],
    [
      "Scrapper Defense.Shield Defense.One with the Shield",
      "scrapper_defense.shield_defense.one_with_the_shield"
    ],
    [
      "Scrapper Defense.Super Reflexes.Elude",
      "scrapper_defense.super_reflexes.elude"
    ],
    [
      "Scrapper Defense.Willpower.Strength of Will",
      "scrapper_defense.willpower.strength_of_will"
    ],
    [
      "Sentinel Defense.Electric Armor.Power Surge",
      "sentinel_defense.electric_armor.power_surge"
    ],
    [
      "Sentinel Defense.Energy Aura.Overload",
      "sentinel_defense.energy_aura.overload"
    ],
    [
      "Sentinel Defense.Invulnerability.Unstoppable",
      "sentinel_defense.invulnerability.unstoppable"
    ],
    [
      "Sentinel Defense.Ninjitsu.Kuji-In Retsu",
      "sentinel_defense.ninjitsu.kuji-in_retsu"
    ],
    [
      "Sentinel Defense.Radiation Armor.Meltdown",
      "sentinel_defense.radiation_armor.meltdown"
    ],
    [
      "Sentinel Defense.Super Reflexes.Elude",
      "sentinel_defense.super_reflexes.elude"
    ],
    [
      "Sentinel Defense.Willpower.Strength of Will",
      "sentinel_defense.willpower.strength_of_will"
    ],
    [
      "Stalker Defense.Electric Armor.Power Surge",
      "stalker_defense.electric_armor.power_surge"
    ],
    [
      "Stalker Defense.Energy Aura.Overload",
      "stalker_defense.energy_aura.overload"
    ],
    [
      "Stalker Defense.Invulnerability.Unstoppable",
      "stalker_defense.invulnerability.unstoppable"
    ],
    [
      "Stalker Defense.Ninjitsu.Kuji-In Retsu",
      "stalker_defense.ninjitsu.kuji-in_retsu"
    ],
    [
      "Stalker Defense.Radiation Armor.Meltdown",
      "stalker_defense.radiation_armor.meltdown"
    ],
    [
      "Stalker Defense.Shield Defense.One with the Shield",
      "stalker_defense.shield_defense.one_with_the_shield"
    ],
    [
      "Stalker Defense.Super Reflexes.Elude",
      "stalker_defense.super_reflexes.elude"
    ],
    [
      "Stalker Defense.Willpower.Strength of Will",
      "stalker_defense.willpower.strength_of_will"
    ],
    [
      "Tanker Defense.Electric Armor.Power Surge",
      "tanker_defense.electric_armor.power_surge"
    ],
    [
      "Tanker Defense.Invulnerability.Unstoppable",
      "tanker_defense.invulnerability.unstoppable"
    ],
    [
      "Tanker Defense.Radiation Armor.Meltdown",
      "tanker_defense.radiation_armor.meltdown"
    ],
    [
      "Tanker Defense.Shield Defense.One with the Shield",
      "tanker_defense.shield_defense.one_with_the_shield"
    ],
    [
      "Tanker Defense.Super Reflexes.Elude",
      "tanker_defense.super_reflexes.elude"
    ],
    [
      "Tanker Defense.Willpower.Strength of Will",
      "tanker_defense.willpower.strength_of_will"
    ],
    [
      "Teamwork.Widow Teamwork.Elude",
      "teamwork.widow_teamwork.elude"
    ],
    [
      "Temporary Powers.Temporary Powers.Juggernaut End Defense",
      "temporary_powers.temporary_powers.juggernaut_end_defense"
    ],
    [
      "Temporary Powers.Temporary Powers.Juggernaut End Offense",
      "temporary_powers.temporary_powers.juggernaut_end_offense"
    ],
    [
      "Temporary Powers.Temporary Powers.Juggernaut End Standard",
      "temporary_powers.temporary_powers.juggernaut_end_standard"
    ]
  ]
}