{
  "tag": "SuppressJumpSpeed",
  "bears": [
    [
      "Temporary Powers.Temporary Powers.Travel Suppression",
      "temporary_powers.temporary_powers.travel_suppression"
    ]
  ],
  "affects": [

  ]
}