{
  "name": "Crafted_Annihilation_B",
  "display_name": "Crafted Annihilation B",
  "display_fullname": "Boosts.Crafted Annihilation B",
  "display_help": "Enhances the damage of a power by {Boost.Attrib.Damage.Scale}% and reduces recharge time by {Boost.Attrib.RechargeTime.Scale}%.",
  "display_short_help": "Set: Annihilation",
  "available_level": [
    0
  ],
  "source_file": "DEFS/POWERS/BOOSTS/CRAFTED_ANNIHILATION_B.POWERSETS",
  "requires": "",
  "power_names": [
    "Boosts.Crafted_Annihilation_B.Crafted_Annihilation_B"
  ],
  "power_display_names": [
    "Annihilation: Damage/Recharge"
  ]
}