{
  "name": "Corruptor_Mu_Mastery",
  "display_name": "Mu Mastery",
  "display_fullname": "Epic.Mu Mastery",
  "display_help": "Scirocco has taught you the ancient powers of the Mu. In their eternal struggle against the Oranbega, the Mu have unlocked many mystical powers, including their very signature crimson lightning. Now you posses these their secrets.",
  "display_short_help": "Mu Mastery",
  "available_level": [
    34,
    34,
    40,
    40,
    43
  ],
  "source_file": "DEFS/POWERS/EPIC/CORRUPTOR_MU_MASTERY.POWERSETS",
  "requires": "",
  "power_names": [
    "Epic.Corruptor_Mu_Mastery.Power_Sink",
    "Epic.Corruptor_Mu_Mastery.Charged_Armor",
    "Epic.Corruptor_Mu_Mastery.Electric_Shackles",
    "Epic.Corruptor_Mu_Mastery.Conserve_Power",
    "Epic.Corruptor_Mu_Mastery.Summon_Adept"
  ],
  "power_display_names": [
    "Power Sink",
    "Charged Armor",
    "Electric Shackles",
    "Conserve Power",
    "Summon Adept"
  ]
}