{
  "primary_category": "Controller_CONTROL",
  "secondary_category": "Controller_BUFF",
  "base_perception": 500.0,
  "named_tables": {
    "default": [
      1.0,
      1.0,
      1.0,
      1.0,
      1.0,
      1.0,
      1.0,
      1.0,
      1.0,
      1.0,
      1.0,
      1.0,
      1.0,
      1.0,
      1.0,
      1.0,
      1.0,
      1.0,
      1.0,
      1.0,
      1.0,
      1.0,
      1.0,
      1.0,
      1.0,
      1.0,
      1.0,
      1.0,
      1.0,
      1.0,
      1.0,
      1.0,
      1.0,
      1.0,
      1.0,
      1.0,
      1.0,
      1.0,
      1.0,
      1.0,
      1.0,
      1.0,
      1.0,
      1.0,
      1.0,
      1.0,
      1.0,
      1.0,
      1.0,
      1.0
    ],
    "melee_archvillain_res": [
      0.6,
      0.61,
      0.61,
      0.62,
      0.62,
      0.63,
      0.63,
      0.64,
      0.64,
      0.65,
      0.65,
      0.66,
      0.66,
      0.67,
      0.67,
      0.68,
      0.68,
      0.69,
      0.69,
      0.7,
      0.7,
      0.71,
      0.71,
      0.72,
      0.72,
      0.73,
      0.73,
      0.74,
      0.74,
      0.75,
      0.75,
      0.76,
      0.76,
      0.77,
      0.77,
      0.78,
      0.78,
      0.79,
      0.79,
      0.8,
      0.8,
      0.81,
      0.81,
      0.82,
      0.82,
      0.83,
      0.83,
      0.84,
      0.84,
      0.85
    ],
    "melee_boosts_20": [
      0.05,
      0.05,
      0.05,
      0.05,
      0.05,
      0.05,
      0.05,
      0.05,
      0.06,
      0.07,
      0.08,
      0.09,
      0.1,
      0.108,
      0.115,
      0.123,
      0.131,
      0.138,
      0.146,
      0.154,
      0.162,
      0.169,
      0.177,
      0.185,
      0.192,
      0.2,
      0.202,
      0.205,
      0.207,
      0.209,
      0.211,
      0.214,
      0.216,
      0.218,
      0.22,
      0.223,
      0.225,
      0.227,
      0.23,
      0.232,
      0.234,
      0.236,
      0.239,
      0.241,
      0.243,
      0.245,
      0.248,
      0.25,
      0.252,
      0.255
    ],
    "melee_boosts_33": [
      0.083,
      0.083,
      0.083,
      0.083,
      0.083,
      0.083,
      0.083,
      0.083,
      0.1,
      0.117,
      0.133,
      0.15,
      0.167,
      0.179,
      0.192,
      0.205,
      0.218,
      0.231,
      0.243,
      0.256,
      0.269,
      0.282,
      0.295,
      0.307,
      0.32,
      0.333,
      0.337,
      0.341,
      0.344,
      0.348,
      0.352,
      0.356,
      0.359,
      0.363,
      0.367,
      0.371,
      0.375,
      0.378,
      0.382,
      0.386,
      0.39,
      0.394,
      0.397,
      0.401,
      0.405,
      0.409,
      0.412,
      0.416,
      0.42,
      0.424
    ],
    "melee_boosts_40": [
      0.1,
      0.1,
      0.1,
      0.1,
      0.1,
      0.1,
      0.1,
      0.1,
      0.12,
      0.14,
      0.16,
      0.18,
      0.2,
      0.215,
      0.231,
      0.246,
      0.262,
      0.277,
      0.292,
      0.308,
      0.323,
      0.338,
      0.354,
      0.369,
      0.385,
      0.4,
      0.405,
      0.409,
      0.414,
      0.418,
      0.423,
      0.427,
      0.432,
      0.436,
      0.441,
      0.445,
      0.45,
      0.455,
      0.459,
      0.464,
      0.468,
      0.473,
      0.477,
      0.482,
      0.486,
      0.491,
      0.495,
      0.5,
      0.505,
      0.509
    ],
    "melee_boosts_60": [
      0.15,
      0.15,
      0.15,
      0.15,
      0.15,
      0.15,
      0.15,
      0.15,
      0.18,
      0.21,
      0.24,
      0.27,
      0.3,
      0.323,
      0.346,
      0.369,
      0.392,
      0.415,
      0.438,
      0.462,
      0.485,
      0.508,
      0.531,
      0.554,
      0.577,
      0.6,
      0.607,
      0.614,
      0.62,
      0.627,
      0.634,
      0.641,
      0.648,
      0.655,
      0.661,
      0.668,
      0.675,
      0.682,
      0.689,
      0.695,
      0.702,
      0.709,
      0.716,
      0.723,
      0.73,
      0.736,
      0.743,
      0.75,
      0.757,
      0.764
    ],
    "melee_buff_def": [
      0.09,
      0.09,
      0.09,
      0.09,
      0.09,
      0.09,
      0.09,
      0.09,
      0.09,
      0.09,
      0.09,
      0.09,
      0.09,
      0.09,
      0.09,
      0.09,
      0.09,
      0.09,
      0.09,
      0.09,
      0.09,
      0.09,
      0.09,
      0.09,
      0.09,
      0.09,
      0.09,
      0.09,
      0.09,
      0.09,
      0.09,
      0.09,
      0.09,
      0.09,
      0.09,
      0.09,
      0.09,
      0.09,
      0.09,
      0.09,
      0.09,
      0.09,
      0.09,
      0.09,
      0.09,
      0.09,
      0.09,
      0.09,
      0.09,
      0.09
    ],
    "melee_buff_dmg": [
      0.08,
      0.08,
      0.08,
      0.08,
      0.08,
      0.08,
      0.08,
      0.08,
      0.08,
      0.08,
      0.08,
      0.08,
      0.08,
      0.08,
      0.08,
      0.08,
      0.08,
      0.08,
      0.08,
      0.08,
      0.08,
      0.08,
      0.08,
      0.08,
      0.08,
      0.08,
      0.08,
      0.08,
      0.08,
      0.08,
      0.08,
      0.08,
      0.08,
      0.08,
      0.08,
      0.08,
      0.08,
      0.08,
      0.08,
      0.08,
      0.08,
      0.08,
      0.08,
      0.08,
      0.08,
      0.08,
      0.08,
      0.08,
      0.08,
      0.08
    ],
    "melee_buff_maxhp": [
      9.9,
      10.934,
      12.0399,
      13.2253,
      14.4926,
      15.8356,
      17.2451,
      18.7366,
      20.3106,
      21.9672,
      23.7057,
      25.5253,
      27.4244,
      29.4009,
      31.4519,
      33.5743,
      35.764,
      38.0164,
      40.3262,
      42.6877,
      45.2133,
      47.7904,
      50.4118,
      53.0696,
      55.7551,
      58.4592,
      61.1723,
      63.8843,
      66.5846,
      69.2623,
      71.9063,
      74.5052,
      77.0475,
      79.5216,
      81.9159,
      84.2192,
      86.4201,
      88.5078,
      90.4719,
      92.3022,
      93.9893,
      95.5245,
      96.8995,
      98.1072,
      99.1411,
      99.9956,
      100.6662,
      101.1492,
      101.4422,
      101.7352
    ],
    "melee_buff_tohit": [
      0.08,
      0.08,
      0.08,
      0.08,
      0.08,
      0.08,
      0.08,
      0.08,
      0.08,
      0.08,
      0.08,
      0.08,
      0.08,
      0.08,
      0.08,
      0.08,
      0.08,
      0.08,
      0.08,
      0.08,
      0.08,
      0.08,
      0.08,
      0.08,
      0.08,
      0.08,
      0.08,
      0.08,
      0.08,
      0.08,
      0.08,
      0.08,
      0.08,
      0.08,
      0.08,
      0.08,
      0.08,
      0.08,
      0.08,
      0.08,
      0.08,
      0.08,
      0.08,
      0.08,
      0.08,
      0.08,
      0.08,
      0.08,
      0.08,
      0.08
    ],
    "melee_control": [
      1.0,
      1.062,
      1.124,
      1.186,
      1.248,
      1.31,
      1.372,
      1.434,
      1.496,
      1.558,
      1.62,
      1.682,
      1.744,
      1.806,
      1.868,
      1.93,
      1.992,
      2.054,
      2.116,
      2.178,
      2.24,
      2.302,
      2.364,
      2.426,
      2.488,
      2.55,
      2.612,
      2.674,
      2.736,
      2.798,
      2.86,
      2.922,
      2.984,
      3.046,
      3.108,
      3.17,
      3.232,
      3.294,
      3.356,
      3.418,
      3.48,
      3.542,
      3.604,
      3.666,
      3.728,
      3.79,
      3.852,
      3.914,
      3.976,
      4.0
    ],
    "melee_damage": [
      -9.1,
      -9.7201,
      -10.3085,
      -10.9089,
      -11.5202,
      -12.0784,
      -12.5035,
      -12.9112,
      -13.299,
      -13.6647,
      -14.0059,
      -14.3203,
      -14.6057,
      -14.8599,
      -15.0808,
      -15.2661,
      -15.414,
      -15.5224,
      -15.5893,
      -15.613,
      -16.2566,
      -16.9065,
      -17.5618,
      -18.2213,
      -18.8839,
      -19.5483,
      -20.213,
      -20.8764,
      -21.537,
      -22.1928,
      -22.842,
      -23.4825,
      -24.1119,
      -24.7279,
      -25.3281,
      -25.9098,
      -26.4703,
      -27.0068,
      -27.5164,
      -27.9962,
      -28.4433,
      -28.8546,
      -29.2272,
      -29.5584,
      -29.8453,
      -30.0854,
      -30.276,
      -30.415,
      -30.5003,
      -30.5856
    ],
    "melee_debuff_dam": [
      -0.1,
      -0.1,
      -0.1,
      -0.1,
      -0.1,
      -0.1,
      -0.1,
      -0.1,
      -0.1,
      -0.1,
      -0.1,
      -0.1,
      -0.1,
      -0.1,
      -0.1,
      -0.1,
      -0.1,
      -0.1,
      -0.1,
      -0.1,
      -0.1,
      -0.1,
      -0.1,
      -0.1,
      -0.1,
      -0.1,
      -0.1,
      -0.1,
      -0.1,
      -0.1,
      -0.1,
      -0.1,
      -0.1,
      -0.1,
      -0.1,
      -0.1,
      -0.1,
      -0.1,
      -0.1,
      -0.1,
      -0.1,
      -0.1,
      -0.1,
      -0.1,
      -0.1,
      -0.1,
      -0.1,
      -0.1,
      -0.1,
      -0.1
    ],
    "melee_debuff_def": [
      -0.1,
      -0.1,
      -0.1,
      -0.1,
      -0.1,
      -0.1,
      -0.1,
      -0.1,
      -0.1,
      -0.1,
      -0.1,
      -0.1,
      -0.1,
      -0.1,
      -0.1,
      -0.1,
      -0.1,
      -0.1,
      -0.1,
      -0.1,
      -0.1,
      -0.1,
      -0.1,
      -0.1,
      -0.1,
      -0.1,
      -0.1,
      -0.1,
      -0.1,
      -0.1,
      -0.1,
      -0.1,
      -0.1,
      -0.1,
      -0.1,
      -0.1,
      -0.1,
      -0.1,
      -0.1,
      -0.1,
      -0.1,
      -0.1,
      -0.1,
      -0.1,
      -0.1,
      -0.1,
      -0.1,
      -0.1,
      -0.1,
      -0.1
    ],
    "melee_debuff_res_dmg": [
      0.1,
      0.1,
      0.1,
      0.1,
      0.1,
      0.1,
      0.1,
      0.1,
      0.1,
      0.1,
      0.1,
      0.1,
      0.1,
      0.1,
      0.1,
      0.1,
      0.1,
      0.1,
      0.1,
      0.1,
      0.1,
      0.1,
      0.1,
      0.1,
      0.1,
      0.1,
      0.1,
      0.1,
      0.1,
      0.1,
      0.1,
      0.1,
      0.1,
      0.1,
      0.1,
      0.1,
      0.1,
      0.1,
      0.1,
      0.1,
      0.1,
      0.1,
      0.1,
      0.1,
      0.1,
      0.1,
      0.1,
      0.1,
      0.1,
      0.1
    ],
    "melee_debuff_tohit": [
      -0.1,
      -0.1,
      -0.1,
      -0.1,
      -0.1,
      -0.1,
      -0.1,
      -0.1,
      -0.1,
      -0.1,
      -0.1,
      -0.1,
      -0.1,
      -0.1,
      -0.1,
      -0.1,
      -0.1,
      -0.1,
      -0.1,
      -0.1,
      -0.1,
      -0.1,
      -0.1,
      -0.1,
      -0.1,
      -0.1,
      -0.1,
      -0.1,
      -0.1,
      -0.1,
      -0.1,
      -0.1,
      -0.1,
      -0.1,
      -0.1,
      -0.1,
      -0.1,
      -0.1,
      -0.1,
      -0.1,
      -0.1,
      -0.1,
      -0.1,
      -0.1,
      -0.1,
      -0.1,
      -0.1,
      -0.1,
      -0.1,
      -0.1
    ],
    "melee_enddrain": [
      1.1,
      1.1,
      1.1,
      1.1,
      1.1,
      1.1,
      1.1,
      1.1,
      1.1,
      1.1,
      1.1,
      1.1,
      1.1,
      1.1,
      1.1,
      1.1,
      1.1,
      1.1,
      1.1,
      1.1,
      1.1,
      1.1,
      1.1,
      1.1,
      1.1,
      1.1,
      1.1,
      1.1,
      1.1,
      1.1,
      1.1,
      1.1,
      1.1,
      1.1,
      1.1,
      1.1,
      1.1,
      1.1,
      1.1,
      1.1,
      1.1,
      1.1,
      1.1,
      1.1,
      1.1,
      1.1,
      1.1,
      1.1,
      1.1,
      1.1
    ],
    "melee_fear": [
      1.25,
      1.2625,
      1.275,
      1.2875,
      1.3,
      1.3125,
      1.325,
      1.3375,
      1.35,
      1.3625,
      1.375,
      1.3875,
      1.4,
      1.4125,
      1.425,
      1.4375,
      1.45,
      1.4625,
      1.475,
      1.4875,
      1.5,
      1.5125,
      1.525,
      1.5375,
      1.55,
      1.5625,
      1.575,
      1.5875,
      1.6,
      1.6125,
      1.625,
      1.6375,
      1.65,
      1.6625,
      1.675,
      1.6875,
      1.7,
      1.7125,
      1.725,
      1.7375,
      1.75,
      1.7625,
      1.775,
      1.7875,
      1.8,
      1.8125,
      1.825,
      1.8375,
      1.85,
      1.8625
    ],
    "melee_friction": [
      1.0,
      1.062,
      1.124,
      1.186,
      1.248,
      1.31,
      1.372,
      1.434,
      1.496,
      1.558,
      1.62,
      1.682,
      1.744,
      1.806,
      1.868,
      1.93,
      1.992,
      2.054,
      2.116,
      2.178,
      2.24,
      2.302,
      2.364,
      2.426,
      2.488,
      2.55,
      2.612,
      2.674,
      2.736,
      2.798,
      2.86,
      2.922,
      2.984,
      3.046,
      3.108,
      3.17,
      3.232,
      3.294,
      3.356,
      3.418,
      3.48,
      3.542,
      3.604,
      3.666,
      3.728,
      3.79,
      3.852,
      3.914,
      3.976,
      4.0
    ],
    "melee_heal": [
      11.0,
      12.155,
      13.398,
      14.732,
      16.16,
      17.6844,
      19.3075,
      21.0309,
      22.8559,
      24.7835,
      26.8137,
      28.9463,
      31.1802,
      33.5139,
      35.9451,
      38.4705,
      41.0865,
      43.7885,
      46.571,
      49.4279,
      52.3522,
      55.3363,
      58.3716,
      61.449,
      64.5585,
      67.6896,
      70.8311,
      73.9712,
      77.0979,
      80.1985,
      83.2599,
      86.2692,
      89.2129,
      92.0776,
      94.85,
      97.5169,
      100.0654,
      102.4827,
      104.7569,
      106.8762,
      108.8297,
      110.6073,
      112.1995,
      113.5979,
      114.795,
      115.7844,
      116.5608,
      117.1201,
      117.4594,
      117.7986
    ],
    "melee_healself": [
      9.9,
      10.934,
      12.0399,
      13.2253,
      14.4926,
      15.8356,
      17.2451,
      18.7366,
      20.3106,
      21.9672,
      23.7057,
      25.5253,
      27.4244,
      29.4009,
      31.4519,
      33.5743,
      35.764,
      38.0164,
      40.3262,
      42.6877,
      45.2133,
      47.7904,
      50.4118,
      53.0696,
      55.7551,
      58.4592,
      61.1723,
      63.8843,
      66.5846,
      69.2623,
      71.9063,
      74.5052,
      77.0475,
      79.5216,
      81.9159,
      84.2192,
      86.4201,
      88.5078,
      90.4719,
      92.3022,
      93.9893,
      95.5245,
      96.8995,
      98.1072,
      99.1411,
      99.9956,
      100.6662,
      101.1492,
      101.4422,
      101.7352
    ],
    "melee_immobilize": [
      1.25,
      1.2625,
      1.275,
      1.2875,
      1.3,
      1.3125,
      1.325,
      1.3375,
      1.35,
      1.3625,
      1.375,
      1.3875,
      1.4,
      1.4125,
      1.425,
      1.4375,
      1.45,
      1.4625,
      1.475,
      1.4875,
      1.5,
      1.5125,
      1.525,
      1.5375,
      1.55,
      1.5625,
      1.575,
      1.5875,
      1.6,
      1.6125,
      1.625,
      1.6375,
      1.65,
      1.6625,
      1.675,
      1.6875,
      1.7,
      1.7125,
      1.725,
      1.7375,
      1.75,
      1.7625,
      1.775,
      1.7875,
      1.8,
      1.8125,
      1.825,
      1.8375,
      1.85,
      1.8625
    ],
    "melee_inherenttaunt": [
      0.27,
      0.54,
      0.82,
      1.09,
      1.36,
      1.63,
      1.9,
      2.18,
      2.45,
      2.72,
      2.99,
      3.26,
      3.54,
      3.81,
      4.08,
      4.35,
      4.62,
      4.9,
      5.17,
      5.44,
      5.71,
      5.98,
      6.26,
      6.53,
      6.8,
      7.07,
      7.34,
      7.62,
      7.89,
      8.16,
      8.43,
      8.7,
      8.98,
      9.25,
      9.52,
      9.79,
      10.06,
      10.34,
      10.61,
      10.88,
      11.15,
      11.42,
      11.7,
      11.97,
      12.24,
      12.51,
      12.78,
      13.06,
      13.33,
      13.6
    ],
    "melee_inspheal": [
      9.9,
      10.934,
      12.0399,
      13.2253,
      14.4926,
      15.8356,
      17.2451,
      18.7366,
      20.3106,
      21.9672,
      23.7057,
      25.5253,
      27.4244,
      29.4009,
      31.4519,
      33.5743,
      35.764,
      38.0164,
      40.3262,
      42.6877,
      45.2133,
      47.7904,
      50.4118,
      53.0696,
      55.7551,
      58.4592,
      61.1723,
      63.8843,
      66.5846,
      69.2623,
      71.9063,
      74.5052,
      77.0475,
      79.5216,
      81.9159,
      84.2192,
      86.4201,
      88.5078,
      90.4719,
      92.3022,
      93.9893,
      95.5245,
      96.8995,
      98.1072,
      99.1411,
      99.9956,
      100.6662,
      101.1492,
      101.4422,
      101.7352
    ],
    "melee_knockback": [
      1.0,
      1.0317,
      1.0611,
      1.0885,
      1.114,
      1.1378,
      1.1601,
      1.181,
      1.2006,
      1.2193,
      1.237,
      1.2539,
      1.2702,
      1.2859,
      1.3013,
      1.3163,
      1.3313,
      1.3461,
      1.361,
      1.3759,
      1.3911,
      1.4066,
      1.4225,
      1.4388,
      1.4555,
      1.4728,
      1.4908,
      1.5093,
      1.5286,
      1.5485,
      1.5693,
      1.5907,
      1.613,
      1.636,
      1.6599,
      1.6845,
      1.7099,
      1.7361,
      1.763,
      1.7907,
      1.819,
      1.848,
      1.8776,
      1.9078,
      1.9385,
      1.9696,
      2.0011,
      2.0329,
      2.0649,
      2.0771
    ],
    "melee_leap": [
      27.8,
      27.8,
      27.8,
      27.8,
      27.8,
      27.8,
      27.8,
      27.8,
      27.8,
      27.8,
      27.8,
      27.8,
      27.8,
      27.8,
      27.8,
      27.8,
      27.8,
      27.8,
      27.8,
      27.8,
      27.8,
      27.8,
      27.8,
      27.8,
      27.8,
      27.8,
      27.8,
      27.8,
      27.8,
      27.8,
      27.8,
      27.8,
      27.8,
      27.8,
      27.8,
      27.8,
      27.8,
      27.8,
      27.8,
      27.8,
      27.8,
      27.8,
      27.8,
      27.8,
      27.8,
      27.8,
      27.8,
      27.8,
      27.8,
      27.8
    ],
    "melee_level": [
      1.0,
      2.0,
      3.0,
      4.0,
      5.0,
      6.0,
      7.0,
      8.0,
      9.0,
      10.0,
      11.0,
      12.0,
      13.0,
      14.0,
      15.0,
      16.0,
      17.0,
      18.0,
      19.0,
      20.0,
      21.0,
      22.0,
      23.0,
      24.0,
      25.0,
      26.0,
      27.0,
      28.0,
      29.0,
      30.0,
      31.0,
      32.0,
      33.0,
      34.0,
      35.0,
      36.0,
      37.0,
      38.0,
      39.0,
      40.0,
      41.0,
      42.0,
      43.0,
      44.0,
      45.0,
      46.0,
      47.0,
      48.0,
      49.0,
      50.0
    ],
    "melee_levelminus": [
      1.0,
      2.0,
      3.0,
      4.0,
      5.0,
      6.0,
      7.0,
      8.0,
      9.0,
      10.0,
      11.0,
      12.0,
      13.0,
      14.0,
      15.0,
      16.0,
      17.0,
      18.0,
      19.0,
      20.0,
      21.0,
      22.0,
      23.0,
      23.0,
      24.0,
      25.0,
      26.0,
      27.0,
      28.0,
      29.0,
      30.0,
      31.0,
      32.0,
      33.0,
      34.0,
      35.0,
      36.0,
      37.0,
      38.0,
      39.0,
      40.0,
      41.0,
      42.0,
      43.0,
      44.0,
      45.0,
      46.0,
      47.0,
      48.0,
      49.0
    ],
    "melee_levelminus2": [
      1.0,
      2.0,
      3.0,
      4.0,
      5.0,
      5.0,
      6.0,
      7.0,
      8.0,
      9.0,
      10.0,
      11.0,
      12.0,
      13.0,
      14.0,
      15.0,
      16.0,
      16.0,
      17.0,
      18.0,
      19.0,
      20.0,
      21.0,
      22.0,
      23.0,
      24.0,
      25.0,
      26.0,
      27.0,
      28.0,
      29.0,
      30.0,
      31.0,
      32.0,
      33.0,
      34.0,
      35.0,
      36.0,
      37.0,
      38.0,
      39.0,
      40.0,
      41.0,
      42.0,
      43.0,
      44.0,
      45.0,
      46.0,
      47.0,
      48.0
    ],
    "melee_levelplus": [
      2.0,
      3.0,
      4.0,
      5.0,
      6.0,
      7.0,
      8.0,
      9.0,
      10.0,
      11.0,
      12.0,
      13.0,
      14.0,
      15.0,
      16.0,
      17.0,
      18.0,
      19.0,
      20.0,
      21.0,
      22.0,
      23.0,
      24.0,
      25.0,
      26.0,
      27.0,
      28.0,
      29.0,
      30.0,
      31.0,
      32.0,
      33.0,
      34.0,
      35.0,
      36.0,
      37.0,
      38.0,
      39.0,
      40.0,
      41.0,
      42.0,
      43.0,
      44.0,
      45.0,
      46.0,
      47.0,
      48.0,
      49.0,
      50.0,
      51.0
    ],
    "melee_nojumpbuff": [
      -18.0,
      -18.62,
      -19.24,
      -19.86,
      -20.48,
      -21.1,
      -21.72,
      -22.34,
      -22.96,
      -23.58,
      -24.2,
      -24.82,
      -25.44,
      -26.06,
      -26.68,
      -27.3,
      -27.92,
      -28.54,
      -29.16,
      -29.78,
      -30.4,
      -31.02,
      -31.64,
      -32.26,
      -32.88,
      -33.5,
      -34.12,
      -34.74,
      -35.36,
      -35.98,
      -36.6,
      -37.22,
      -37.84,
      -38.46,
      -39.08,
      -39.7,
      -40.32,
      -40.94,
      -41.56,
      -42.18,
      -42.8,
      -43.42,
      -44.04,
      -44.66,
      -45.28,
      -45.9,
      -46.52,
      -47.14,
      -47.76,
      -48.0
    ],
    "melee_nojumpspeedbuff": [
      -1.5,
      -1.54,
      -1.58,
      -1.62,
      -1.66,
      -1.7,
      -1.74,
      -1.78,
      -1.82,
      -1.86,
      -1.9,
      -1.94,
      -1.98,
      -2.02,
      -2.06,
      -2.1,
      -2.14,
      -2.18,
      -2.22,
      -2.26,
      -2.3,
      -2.34,
      -2.38,
      -2.42,
      -2.46,
      -2.5,
      -2.54,
      -2.58,
      -2.62,
      -2.66,
      -2.7,
      -2.74,
      -2.78,
      -2.82,
      -2.86,
      -2.9,
      -2.94,
      -2.98,
      -3.02,
      -3.06,
      -3.1,
      -3.14,
      -3.18,
      -3.22,
      -3.26,
      -3.3,
      -3.34,
      -3.38,
      -3.42,
      -3.46
    ],
    "melee_nospeedbuff": [
      -2.5,
      -2.54,
      -2.58,
      -2.62,
      -2.66,
      -2.7,
      -2.74,
      -2.78,
      -2.82,
      -2.86,
      -2.9,
      -2.94,
      -2.98,
      -3.02,
      -3.06,
      -3.1,
      -3.14,
      -3.18,
      -3.22,
      -3.26,
      -3.3,
      -3.34,
      -3.38,
      -3.42,
      -3.46,
      -3.5,
      -3.54,
      -3.58,
      -3.62,
      -3.66,
      -3.7,
      -3.74,
      -3.78,
      -3.82,
      -3.86,
      -3.9,
      -3.94,
      -3.98,
      -4.02,
      -4.06,
      -4.1,
      -4.14,
      -4.18,
      -4.22,
      -4.26,
      -4.3,
      -4.34,
      -4.38,
      -4.42,
      -4.46
    ],
    "melee_nostealth": [
      -400.0,
      -403.5,
      -407.0,
      -410.5,
      -414.0,
      -417.5,
      -421.0,
      -424.5,
      -428.0,
      -431.5,
      -435.0,
      -438.5,
      -442.0,
      -445.5,
      -449.0,
      -452.5,
      -456.0,
      -459.5,
      -463.0,
      -466.5,
      -470.0,
      -473.5,
      -477.0,
      -480.5,
      -484.0,
      -487.5,
      -491.0,
      -494.5,
      -498.0,
      -501.5,
      -505.0,
      -508.5,
      -512.0,
      -515.5,
      -519.0,
      -522.5,
      -526.0,
      -529.5,
      -533.0,
      -536.5,
      -540.0,
      -543.5,
      -547.0,
      -550.5,
      -554.0,
      -557.5,
      -561.0,
      -564.5,
      -568.0,
      -571.5
    ],
    "melee_ones": [
      1.0,
      1.0,
      1.0,
      1.0,
      1.0,
      1.0,
      1.0,
      1.0,
      1.0,
      1.0,
      1.0,
      1.0,
      1.0,
      1.0,
      1.0,
      1.0,
      1.0,
      1.0,
      1.0,
      1.0,
      1.0,
      1.0,
      1.0,
      1.0,
      1.0,
      1.0,
      1.0,
      1.0,
      1.0,
      1.0,
      1.0,
      1.0,
      1.0,
      1.0,
      1.0,
      1.0,
      1.0,
      1.0,
      1.0,
      1.0,
      1.0,
      1.0,
      1.0,
      1.0,
      1.0,
      1.0,
      1.0,
      1.0,
      1.0,
      1.0
    ],
    "melee_pvpdamage": [
      -9.2208,
      -9.8981,
      -10.6026,
      -11.3339,
      -12.0917,
      -12.8755,
      -13.6845,
      -14.5184,
      -15.3765,
      -16.258,
      -17.1622,
      -18.0884,
      -19.0355,
      -20.003,
      -20.9897,
      -21.9947,
      -23.0169,
      -24.0552,
      -25.1084,
      -26.1753,
      -27.2543,
      -28.3439,
      -29.4425,
      -30.5482,
      -31.6591,
      -32.7728,
      -33.8872,
      -34.9995,
      -36.107,
      -37.2065,
      -38.2949,
      -39.3686,
      -40.4238,
      -41.4566,
      -42.4628,
      -43.4381,
      -44.3778,
      -45.2772,
      -46.1316,
      -46.9359,
      -47.6854,
      -48.3749,
      -48.9997,
      -49.555,
      -50.0359,
      -50.4384,
      -50.758,
      -50.9911,
      -51.1341,
      -51.2771
    ],
    "melee_pvpmez": [
      4.0,
      4.0,
      4.0,
      4.0,
      4.0,
      4.0,
      4.0,
      4.0,
      4.0,
      4.0,
      4.0,
      4.0,
      4.0,
      4.0,
      4.0,
      4.0,
      4.0,
      4.0,
      4.0,
      4.0,
      4.0,
      4.0,
      4.0,
      4.0,
      4.0,
      4.0,
      4.0,
      4.0,
      4.0,
      4.0,
      4.0,
      4.0,
      4.0,
      4.0,
      4.0,
      4.0,
      4.0,
      4.0,
      4.0,
      4.0,
      4.0,
      4.0,
      4.0,
      4.0,
      4.0,
      4.0,
      4.0,
      4.0,
      4.0,
      4.0
    ],
    "melee_pvpresist": [
      0.4,
      0.4,
      0.4,
      0.4,
      0.4,
      0.4,
      0.4,
      0.4,
      0.4,
      0.4,
      0.4,
      0.4,
      0.4,
      0.4,
      0.4,
      0.4,
      0.4,
      0.4,
      0.4,
      0.4,
      0.4,
      0.4,
      0.4,
      0.4,
      0.4,
      0.4,
      0.4,
      0.4,
      0.4,
      0.4,
      0.4,
      0.4,
      0.4,
      0.4,
      0.4,
      0.4,
      0.4,
      0.4,
      0.4,
      0.4,
      0.4,
      0.4,
      0.4,
      0.4,
      0.4,
      0.4,
      0.4,
      0.4,
      0.4,
      0.4
    ],
    "melee_res_boolean": [
      0.12,
      0.1232,
      0.1264,
      0.1296,
      0.1328,
      0.136,
      0.1392,
      0.1424,
      0.1456,
      0.1488,
      0.152,
      0.1552,
      0.1584,
      0.1616,
      0.1648,
      0.168,
      0.1712,
      0.1744,
      0.1776,
      0.1808,
      0.184,
      0.1872,
      0.1904,
      0.1936,
      0.1968,
      0.2,
      0.2032,
      0.2064,
      0.2096,
      0.2128,
      0.216,
      0.2192,
      0.2224,
      0.2256,
      0.2288,
      0.232,
      0.2352,
      0.2384,
      0.2416,
      0.2448,
      0.248,
      0.2512,
      0.2544,
      0.2576,
      0.2608,
      0.264,
      0.2672,
      0.2704,
      0.2736,
      0.2768
    ],
    "melee_res_dmg": [
      0.1,
      0.1,
      0.1,
      0.1,
      0.1,
      0.1,
      0.1,
      0.1,
      0.1,
      0.1,
      0.1,
      0.1,
      0.1,
      0.1,
      0.1,
      0.1,
      0.1,
      0.1,
      0.1,
      0.1,
      0.1,
      0.1,
      0.1,
      0.1,
      0.1,
      0.1,
      0.1,
      0.1,
      0.1,
      0.1,
      0.1,
      0.1,
      0.1,
      0.1,
      0.1,
      0.1,
      0.1,
      0.1,
      0.1,
      0.1,
      0.1,
      0.1,
      0.1,
      0.1,
      0.1,
      0.1,
      0.1,
      0.1,
      0.1,
      0.1
    ],
    "melee_sleep": [
      1.25,
      1.2625,
      1.275,
      1.2875,
      1.3,
      1.3125,
      1.325,
      1.3375,
      1.35,
      1.3625,
      1.375,
      1.3875,
      1.4,
      1.4125,
      1.425,
      1.4375,
      1.45,
      1.4625,
      1.475,
      1.4875,
      1.5,
      1.5125,
      1.525,
      1.5375,
      1.55,
      1.5625,
      1.575,
      1.5875,
      1.6,
      1.6125,
      1.625,
      1.6375,
      1.65,
      1.6625,
      1.675,
      1.6875,
      1.7,
      1.7125,
      1.725,
      1.7375,
      1.75,
      1.7625,
      1.775,
      1.7875,
      1.8,
      1.8125,
      1.825,
      1.8375,
      1.85,
      1.8625
    ],
    "melee_slow": [
      -1.25,
      -1.25,
      -1.25,
      -1.25,
      -1.25,
      -1.25,
      -1.25,
      -1.25,
      -1.25,
      -1.25,
      -1.25,
      -1.25,
      -1.25,
      -1.25,
      -1.25,
      -1.25,
      -1.25,
      -1.25,
      -1.25,
      -1.25,
      -1.25,
      -1.25,
      -1.25,
      -1.25,
      -1.25,
      -1.25,
      -1.25,
      -1.25,
      -1.25,
      -1.25,
      -1.25,
      -1.25,
      -1.25,
      -1.25,
      -1.25,
      -1.25,
      -1.25,
      -1.25,
      -1.25,
      -1.25,
      -1.25,
      -1.25,
      -1.25,
      -1.25,
      -1.25,
      -1.25,
      -1.25,
      -1.25,
      -1.25,
      -1.25
    ],
    "melee_special": [
      0.75,
      0.7575,
      0.765,
      0.7725,
      0.78,
      0.7875,
      0.795,
      0.8025,
      0.81,
      0.8175,
      0.825,
      0.8325,
      0.84,
      0.8475,
      0.855,
      0.8625,
      0.87,
      0.8775,
      0.885,
      0.8925,
      0.9,
      0.9075,
      0.915,
      0.9225,
      0.93,
      0.9375,
      0.945,
      0.9525,
      0.96,
      0.9675,
      0.975,
      0.9825,
      0.99,
      0.9975,
      1.005,
      1.0125,
      1.02,
      1.0275,
      1.035,
      1.0425,
      1.05,
      1.0575,
      1.065,
      1.0725,
      1.08,
      1.0875,
      1.095,
      1.1025,
      1.11,
      1.1175
    ],
    "melee_speedflying": [
      1.365,
      1.365,
      1.365,
      1.365,
      1.365,
      1.365,
      1.365,
      1.365,
      1.365,
      1.365,
      1.365,
      1.365,
      1.365,
      1.365,
      1.365,
      1.365,
      1.365,
      1.365,
      1.365,
      1.365,
      1.365,
      1.365,
      1.365,
      1.365,
      1.365,
      1.365,
      1.365,
      1.365,
      1.365,
      1.365,
      1.365,
      1.365,
      1.365,
      1.365,
      1.365,
      1.365,
      1.365,
      1.365,
      1.365,
      1.365,
      1.365,
      1.365,
      1.365,
      1.365,
      1.365,
      1.365,
      1.365,
      1.365,
      1.365,
      1.365
    ],
    "melee_speedjumping": [
      2.49,
      2.49,
      2.49,
      2.49,
      2.49,
      2.49,
      2.49,
      2.49,
      2.49,
      2.49,
      2.49,
      2.49,
      2.49,
      2.49,
      2.49,
      2.49,
      2.49,
      2.49,
      2.49,
      2.49,
      2.49,
      2.49,
      2.49,
      2.49,
      2.49,
      2.49,
      2.49,
      2.49,
      2.49,
      2.49,
      2.49,
      2.49,
      2.49,
      2.49,
      2.49,
      2.49,
      2.49,
      2.49,
      2.49,
      2.49,
      2.49,
      2.49,
      2.49,
      2.49,
      2.49,
      2.49,
      2.49,
      2.49,
      2.49,
      2.49
    ],
    "melee_speedrunning": [
      3.5,
      3.5,
      3.5,
      3.5,
      3.5,
      3.5,
      3.5,
      3.5,
      3.5,
      3.5,
      3.5,
      3.5,
      3.5,
      3.5,
      3.5,
      3.5,
      3.5,
      3.5,
      3.5,
      3.5,
      3.5,
      3.5,
      3.5,
      3.5,
      3.5,
      3.5,
      3.5,
      3.5,
      3.5,
      3.5,
      3.5,
      3.5,
      3.5,
      3.5,
      3.5,
      3.5,
      3.5,
      3.5,
      3.5,
      3.5,
      3.5,
      3.5,
      3.5,
      3.5,
      3.5,
      3.5,
      3.5,
      3.5,
      3.5,
      3.5
    ],
    "melee_speedswimming": [
      0.5,
      0.51,
      0.52,
      0.53,
      0.54,
      0.55,
      0.56,
      0.57,
      0.58,
      0.59,
      0.6,
      0.61,
      0.62,
      0.63,
      0.64,
      0.65,
      0.66,
      0.67,
      0.68,
      0.69,
      0.7,
      0.71,
      0.72,
      0.73,
      0.74,
      0.75,
      0.76,
      0.77,
      0.78,
      0.79,
      0.8,
      0.81,
      0.82,
      0.83,
      0.84,
      0.85,
      0.86,
      0.87,
      0.88,
      0.89,
      0.9,
      0.91,
      0.92,
      0.93,
      0.94,
      0.95,
      0.96,
      0.97,
      0.98,
      0.99
    ],
    "melee_stun": [
      1.25,
      1.2625,
      1.275,
      1.2875,
      1.3,
      1.3125,
      1.325,
      1.3375,
      1.35,
      1.3625,
      1.375,
      1.3875,
      1.4,
      1.4125,
      1.425,
      1.4375,
      1.45,
      1.4625,
      1.475,
      1.4875,
      1.5,
      1.5125,
      1.525,
      1.5375,
      1.55,
      1.5625,
      1.575,
      1.5875,
      1.6,
      1.6125,
      1.625,
      1.6375,
      1.65,
      1.6625,
      1.675,
      1.6875,
      1.7,
      1.7125,
      1.725,
      1.7375,
      1.75,
      1.7625,
      1.775,
      1.7875,
      1.8,
      1.8125,
      1.825,
      1.8375,
      1.85,
      1.8625
    ],
    "melee_suppressflight": [
      -0.625,
      -0.655,
      -0.685,
      -0.715,
      -0.745,
      -0.775,
      -0.805,
      -0.835,
      -0.865,
      -0.895,
      -0.925,
      -0.955,
      -0.985,
      -1.015,
      -1.045,
      -1.075,
      -1.105,
      -1.135,
      -1.165,
      -1.195,
      -1.225,
      -1.255,
      -1.285,
      -1.315,
      -1.345,
      -1.375,
      -1.405,
      -1.435,
      -1.465,
      -1.495,
      -1.525,
      -1.555,
      -1.585,
      -1.615,
      -1.645,
      -1.675,
      -1.705,
      -1.735,
      -1.765,
      -1.795,
      -1.825,
      -1.855,
      -1.885,
      -1.915,
      -1.945,
      -1.975,
      -2.005,
      -2.035,
      -2.065,
      -2.095
    ],
    "melee_suppressjump": [
      -10.0,
      -10.62,
      -11.24,
      -11.86,
      -12.48,
      -13.1,
      -13.72,
      -14.34,
      -14.96,
      -15.58,
      -16.2,
      -16.82,
      -17.44,
      -18.06,
      -18.68,
      -19.3,
      -19.92,
      -20.54,
      -21.16,
      -21.78,
      -22.4,
      -23.02,
      -23.64,
      -24.26,
      -24.88,
      -25.5,
      -26.12,
      -26.74,
      -27.36,
      -27.98,
      -28.6,
      -29.22,
      -29.84,
      -30.46,
      -31.08,
      -31.7,
      -32.32,
      -32.94,
      -33.56,
      -34.18,
      -34.8,
      -35.42,
      -36.04,
      -36.66,
      -37.28,
      -37.9,
      -38.52,
      -39.14,
      -39.76,
      -40.0
    ],
    "melee_suppressjumpspeed": [
      -1.5,
      -1.54,
      -1.58,
      -1.62,
      -1.66,
      -1.7,
      -1.74,
      -1.78,
      -1.82,
      -1.86,
      -1.9,
      -1.94,
      -1.98,
      -2.02,
      -2.06,
      -2.1,
      -2.14,
      -2.18,
      -2.22,
      -2.26,
      -2.3,
      -2.34,
      -2.38,
      -2.42,
      -2.46,
      -2.5,
      -2.54,
      -2.58,
      -2.62,
      -2.66,
      -2.7,
      -2.74,
      -2.78,
      -2.82,
      -2.86,
      -2.9,
      -2.94,
      -2.98,
      -3.02,
      -3.06,
      -3.1,
      -3.14,
      -3.18,
      -3.22,
      -3.26,
      -3.3,
      -3.34,
      -3.38,
      -3.42,
      -3.46
    ],
    "melee_suppressrunspeed": [
      -2.5,
      -2.54,
      -2.58,
      -2.62,
      -2.66,
      -2.7,
      -2.74,
      -2.78,
      -2.82,
      -2.86,
      -2.9,
      -2.94,
      -2.98,
      -3.02,
      -3.06,
      -3.1,
      -3.14,
      -3.18,
      -3.22,
      -3.26,
      -3.3,
      -3.34,
      -3.38,
      -3.42,
      -3.46,
      -3.5,
      -3.54,
      -3.58,
      -3.62,
      -3.66,
      -3.7,
      -3.74,
      -3.78,
      -3.82,
      -3.86,
      -3.9,
      -3.94,
      -3.98,
      -4.02,
      -4.06,
      -4.1,
      -4.14,
      -4.18,
      -4.22,
      -4.26,
      -4.3,
      -4.34,
      -4.38,
      -4.42,
      -4.46
    ],
    "melee_taunt": [
      0.5,
      0.51,
      0.52,
      0.53,
      0.54,
      0.55,
      0.56,
      0.58,
      0.59,
      0.6,
      0.61,
      0.62,
      0.63,
      0.64,
      0.65,
      0.66,
      0.67,
      0.68,
      0.69,
      0.7,
      0.72,
      0.73,
      0.74,
      0.75,
      0.76,
      0.77,
      0.78,
      0.79,
      0.8,
      0.81,
      0.82,
      0.83,
      0.84,
      0.85,
      0.87,
      0.88,
      0.89,
      0.9,
      0.91,
      0.92,
      0.93,
      0.94,
      0.95,
      0.96,
      0.97,
      0.98,
      0.99,
      1.01,
      1.02,
      1.03
    ],
    "melee_tempdamage": [
      -10.0,
      -11.05,
      -12.18,
      -13.3928,
      -14.6909,
      -16.0768,
      -17.5522,
      -19.119,
      -20.7781,
      -22.5304,
      -24.3761,
      -26.3148,
      -28.3457,
      -30.4672,
      -32.6773,
      -34.9732,
      -37.3514,
      -39.8077,
      -42.3372,
      -44.9344,
      -47.5929,
      -50.3057,
      -53.0651,
      -55.8627,
      -58.6895,
      -61.536,
      -64.3919,
      -67.2466,
      -70.089,
      -72.9077,
      -75.6909,
      -78.4265,
      -81.1026,
      -83.7069,
      -86.2273,
      -88.6518,
      -90.9685,
      -93.1661,
      -95.2335,
      -97.1602,
      -98.9361,
      -100.5521,
      -101.9995,
      -103.2708,
      -104.3591,
      -105.2585,
      -105.9644,
      -106.4729,
      -106.7813,
      -107.0897
    ],
    "melee_uniqueness": [
      0.2,
      0.21,
      0.23,
      0.25,
      0.27,
      0.3,
      0.35,
      0.4,
      0.45,
      0.5,
      0.55,
      0.6,
      0.65,
      0.7,
      0.75,
      0.8,
      0.85,
      0.9,
      0.95,
      1.0,
      1.0,
      1.0,
      1.0,
      1.0,
      1.0,
      1.0,
      1.0,
      1.0,
      1.0,
      1.0,
      1.0,
      1.0,
      1.0,
      1.0,
      1.0,
      1.0,
      1.0,
      1.0,
      1.0,
      1.0,
      1.0,
      1.0,
      1.0,
      1.0,
      1.0,
      1.0,
      1.0,
      1.0,
      1.0,
      1.0
    ],
    "melee_walkspeed": [
      -4.284,
      -4.324,
      -4.364,
      -4.404,
      -4.444,
      -4.484,
      -4.524,
      -4.564,
      -4.604,
      -4.644,
      -4.684,
      -4.724,
      -4.764,
      -4.804,
      -4.844,
      -4.884,
      -4.924,
      -4.964,
      -5.004,
      -5.044,
      -5.084,
      -5.124,
      -5.164,
      -5.204,
      -5.244,
      -5.284,
      -5.324,
      -5.364,
      -5.404,
      -5.444,
      -5.484,
      -5.524,
      -5.564,
      -5.604,
      -5.644,
      -5.684,
      -5.724,
      -5.764,
      -5.804,
      -5.844,
      -5.884,
      -5.924,
      -5.964,
      -6.004,
      -6.044,
      -6.084,
      -6.124,
      -6.164,
      -6.204,
      -6.244
    ],
    "ranged_archvillain_res": [
      0.6,
      0.61,
      0.61,
      0.62,
      0.62,
      0.63,
      0.63,
      0.64,
      0.64,
      0.65,
      0.65,
      0.66,
      0.66,
      0.67,
      0.67,
      0.68,
      0.68,
      0.69,
      0.69,
      0.7,
      0.7,
      0.71,
      0.71,
      0.72,
      0.72,
      0.73,
      0.73,
      0.74,
      0.74,
      0.75,
      0.75,
      0.76,
      0.76,
      0.77,
      0.77,
      0.78,
      0.78,
      0.79,
      0.79,
      0.8,
      0.8,
      0.81,
      0.81,
      0.82,
      0.82,
      0.83,
      0.83,
      0.84,
      0.84,
      0.85
    ],
    "ranged_boosts_20": [
      0.05,
      0.05,
      0.05,
      0.05,
      0.05,
      0.05,
      0.05,
      0.05,
      0.06,
      0.07,
      0.08,
      0.09,
      0.1,
      0.108,
      0.115,
      0.123,
      0.131,
      0.138,
      0.146,
      0.154,
      0.162,
      0.169,
      0.177,
      0.185,
      0.192,
      0.2,
      0.202,
      0.205,
      0.207,
      0.209,
      0.211,
      0.214,
      0.216,
      0.218,
      0.22,
      0.223,
      0.225,
      0.227,
      0.23,
      0.232,
      0.234,
      0.236,
      0.239,
      0.241,
      0.243,
      0.245,
      0.248,
      0.25,
      0.252,
      0.255
    ],
    "ranged_boosts_33": [
      0.083,
      0.083,
      0.083,
      0.083,
      0.083,
      0.083,
      0.083,
      0.083,
      0.1,
      0.117,
      0.133,
      0.15,
      0.167,
      0.179,
      0.192,
      0.205,
      0.218,
      0.231,
      0.243,
      0.256,
      0.269,
      0.282,
      0.295,
      0.307,
      0.32,
      0.333,
      0.337,
      0.341,
      0.344,
      0.348,
      0.352,
      0.356,
      0.359,
      0.363,
      0.367,
      0.371,
      0.375,
      0.378,
      0.382,
      0.386,
      0.39,
      0.394,
      0.397,
      0.401,
      0.405,
      0.409,
      0.412,
      0.416,
      0.42,
      0.424
    ],
    "ranged_boosts_40": [
      0.1,
      0.1,
      0.1,
      0.1,
      0.1,
      0.1,
      0.1,
      0.1,
      0.12,
      0.14,
      0.16,
      0.18,
      0.2,
      0.215,
      0.231,
      0.246,
      0.262,
      0.277,
      0.292,
      0.308,
      0.323,
      0.338,
      0.354,
      0.369,
      0.385,
      0.4,
      0.405,
      0.409,
      0.414,
      0.418,
      0.423,
      0.427,
      0.432,
      0.436,
      0.441,
      0.445,
      0.45,
      0.455,
      0.459,
      0.464,
      0.468,
      0.473,
      0.477,
      0.482,
      0.486,
      0.491,
      0.495,
      0.5,
      0.505,
      0.509
    ],
    "ranged_boosts_60": [
      0.15,
      0.15,
      0.15,
      0.15,
      0.15,
      0.15,
      0.15,
      0.15,
      0.18,
      0.21,
      0.24,
      0.27,
      0.3,
      0.323,
      0.346,
      0.369,
      0.392,
      0.415,
      0.438,
      0.462,
      0.485,
      0.508,
      0.531,
      0.554,
      0.577,
      0.6,
      0.607,
      0.614,
      0.62,
      0.627,
      0.634,
      0.641,
      0.648,
      0.655,
      0.661,
      0.668,
      0.675,
      0.682,
      0.689,
      0.695,
      0.702,
      0.709,
      0.716,
      0.723,
      0.73,
      0.736,
      0.743,
      0.75,
      0.757,
      0.764
    ],
    "ranged_buff_def": [
      0.075,
      0.075,
      0.075,
      0.075,
      0.075,
      0.075,
      0.075,
      0.075,
      0.075,
      0.075,
      0.075,
      0.075,
      0.075,
      0.075,
      0.075,
      0.075,
      0.075,
      0.075,
      0.075,
      0.075,
      0.075,
      0.075,
      0.075,
      0.075,
      0.075,
      0.075,
      0.075,
      0.075,
      0.075,
      0.075,
      0.075,
      0.075,
      0.075,
      0.075,
      0.075,
      0.075,
      0.075,
      0.075,
      0.075,
      0.075,
      0.075,
      0.075,
      0.075,
      0.075,
      0.075,
      0.075,
      0.075,
      0.075,
      0.075,
      0.075
    ],
    "ranged_buff_dmg": [
      0.1,
      0.1,
      0.1,
      0.1,
      0.1,
      0.1,
      0.1,
      0.1,
      0.1,
      0.1,
      0.1,
      0.1,
      0.1,
      0.1,
      0.1,
      0.1,
      0.1,
      0.1,
      0.1,
      0.1,
      0.1,
      0.1,
      0.1,
      0.1,
      0.1,
      0.1,
      0.1,
      0.1,
      0.1,
      0.1,
      0.1,
      0.1,
      0.1,
      0.1,
      0.1,
      0.1,
      0.1,
      0.1,
      0.1,
      0.1,
      0.1,
      0.1,
      0.1,
      0.1,
      0.1,
      0.1,
      0.1,
      0.1,
      0.1,
      0.1
    ],
    "ranged_buff_maxhp": [
      9.9,
      10.934,
      12.0399,
      13.2253,
      14.4926,
      15.8356,
      17.2451,
      18.7366,
      20.3106,
      21.9672,
      23.7057,
      25.5253,
      27.4244,
      29.4009,
      31.4519,
      33.5743,
      35.764,
      38.0164,
      40.3262,
      42.6877,
      45.2133,
      47.7904,
      50.4118,
      53.0696,
      55.7551,
      58.4592,
      61.1723,
      63.8843,
      66.5846,
      69.2623,
      71.9063,
      74.5052,
      77.0475,
      79.5216,
      81.9159,
      84.2192,
      86.4201,
      88.5078,
      90.4719,
      92.3022,
      93.9893,
      95.5245,
      96.8995,
      98.1072,
      99.1411,
      99.9956,
      100.6662,
      101.1492,
      101.4422,
      101.7352
    ],
    "ranged_buff_tohit": [
      0.1,
      0.1,
      0.1,
      0.1,
      0.1,
      0.1,
      0.1,
      0.1,
      0.1,
      0.1,
      0.1,
      0.1,
      0.1,
      0.1,
      0.1,
      0.1,
      0.1,
      0.1,
      0.1,
      0.1,
      0.1,
      0.1,
      0.1,
      0.1,
      0.1,
      0.1,
      0.1,
      0.1,
      0.1,
      0.1,
      0.1,
      0.1,
      0.1,
      0.1,
      0.1,
      0.1,
      0.1,
      0.1,
      0.1,
      0.1,
      0.1,
      0.1,
      0.1,
      0.1,
      0.1,
      0.1,
      0.1,
      0.1,
      0.1,
      0.1
    ],
    "ranged_control": [
      1.0,
      1.062,
      1.124,
      1.186,
      1.248,
      1.31,
      1.372,
      1.434,
      1.496,
      1.558,
      1.62,
      1.682,
      1.744,
      1.806,
      1.868,
      1.93,
      1.992,
      2.054,
      2.116,
      2.178,
      2.24,
      2.302,
      2.364,
      2.426,
      2.488,
      2.55,
      2.612,
      2.674,
      2.736,
      2.798,
      2.86,
      2.922,
      2.984,
      3.046,
      3.108,
      3.17,
      3.232,
      3.294,
      3.356,
      3.418,
      3.48,
      3.542,
      3.604,
      3.666,
      3.728,
      3.79,
      3.852,
      3.914,
      3.976,
      4.0
    ],
    "ranged_damage": [
      -9.1,
      -9.7201,
      -10.3085,
      -10.9089,
      -11.5202,
      -12.0784,
      -12.5035,
      -12.9112,
      -13.299,
      -13.6647,
      -14.0059,
      -14.3203,
      -14.6057,
      -14.8599,
      -15.0808,
      -15.2661,
      -15.414,
      -15.5224,
      -15.5893,
      -15.613,
      -16.2566,
      -16.9065,
      -17.5618,
      -18.2213,
      -18.8839,
      -19.5483,
      -20.213,
      -20.8764,
      -21.537,
      -22.1928,
      -22.842,
      -23.4825,
      -24.1119,
      -24.7279,
      -25.3281,
      -25.9098,
      -26.4703,
      -27.0068,
      -27.5164,
      -27.9962,
      -28.4433,
      -28.8546,
      -29.2272,
      -29.5584,
      -29.8453,
      -30.0854,
      -30.276,
      -30.415,
      -30.5003,
      -30.5856
    ],
    "ranged_debuff_dam": [
      -0.1,
      -0.1,
      -0.1,
      -0.1,
      -0.1,
      -0.1,
      -0.1,
      -0.1,
      -0.1,
      -0.1,
      -0.1,
      -0.1,
      -0.1,
      -0.1,
      -0.1,
      -0.1,
      -0.1,
      -0.1,
      -0.1,
      -0.1,
      -0.1,
      -0.1,
      -0.1,
      -0.1,
      -0.1,
      -0.1,
      -0.1,
      -0.1,
      -0.1,
      -0.1,
      -0.1,
      -0.1,
      -0.1,
      -0.1,
      -0.1,
      -0.1,
      -0.1,
      -0.1,
      -0.1,
      -0.1,
      -0.1,
      -0.1,
      -0.1,
      -0.1,
      -0.1,
      -0.1,
      -0.1,
      -0.1,
      -0.1,
      -0.1
    ],
    "ranged_debuff_def": [
      -0.1,
      -0.1,
      -0.1,
      -0.1,
      -0.1,
      -0.1,
      -0.1,
      -0.1,
      -0.1,
      -0.1,
      -0.1,
      -0.1,
      -0.1,
      -0.1,
      -0.1,
      -0.1,
      -0.1,
      -0.1,
      -0.1,
      -0.1,
      -0.1,
      -0.1,
      -0.1,
      -0.1,
      -0.1,
      -0.1,
      -0.1,
      -0.1,
      -0.1,
      -0.1,
      -0.1,
      -0.1,
      -0.1,
      -0.1,
      -0.1,
      -0.1,
      -0.1,
      -0.1,
      -0.1,
      -0.1,
      -0.1,
      -0.1,
      -0.1,
      -0.1,
      -0.1,
      -0.1,
      -0.1,
      -0.1,
      -0.1,
      -0.1
    ],
    "ranged_debuff_dmg": [
      -0.1,
      -0.1,
      -0.1,
      -0.1,
      -0.1,
      -0.1,
      -0.1,
      -0.1,
      -0.1,
      -0.1,
      -0.1,
      -0.1,
      -0.1,
      -0.1,
      -0.1,
      -0.1,
      -0.1,
      -0.1,
      -0.1,
      -0.1,
      -0.1,
      -0.1,
      -0.1,
      -0.1,
      -0.1,
      -0.1,
      -0.1,
      -0.1,
      -0.1,
      -0.1,
      -0.1,
      -0.1,
      -0.1,
      -0.1,
      -0.1,
      -0.1,
      -0.1,
      -0.1,
      -0.1,
      -0.1,
      -0.1,
      -0.1,
      -0.1,
      -0.1,
      -0.1,
      -0.1,
      -0.1,
      -0.1,
      -0.1,
      -0.1
    ],
    "ranged_debuff_res_dmg": [
      0.075,
      0.075,
      0.075,
      0.075,
      0.075,
      0.075,
      0.075,
      0.075,
      0.075,
      0.075,
      0.075,
      0.075,
      0.075,
      0.075,
      0.075,
      0.075,
      0.075,
      0.075,
      0.075,
      0.075,
      0.075,
      0.075,
      0.075,
      0.075,
      0.075,
      0.075,
      0.075,
      0.075,
      0.075,
      0.075,
      0.075,
      0.075,
      0.075,
      0.075,
      0.075,
      0.075,
      0.075,
      0.075,
      0.075,
      0.075,
      0.075,
      0.075,
      0.075,
      0.075,
      0.075,
      0.075,
      0.075,
      0.075,
      0.075,
      0.075
    ],
    "ranged_debuff_tohit": [
      -0.1,
      -0.1,
      -0.1,
      -0.1,
      -0.1,
      -0.1,
      -0.1,
      -0.1,
      -0.1,
      -0.1,
      -0.1,
      -0.1,
      -0.1,
      -0.1,
      -0.1,
      -0.1,
      -0.1,
      -0.1,
      -0.1,
      -0.1,
      -0.1,
      -0.1,
      -0.1,
      -0.1,
      -0.1,
      -0.1,
      -0.1,
      -0.1,
      -0.1,
      -0.1,
      -0.1,
      -0.1,
      -0.1,
      -0.1,
      -0.1,
      -0.1,
      -0.1,
      -0.1,
      -0.1,
      -0.1,
      -0.1,
      -0.1,
      -0.1,
      -0.1,
      -0.1,
      -0.1,
      -0.1,
      -0.1,
      -0.1,
      -0.1
    ],
    "ranged_enddrain": [
      1.1,
      1.1,
      1.1,
      1.1,
      1.1,
      1.1,
      1.1,
      1.1,
      1.1,
      1.1,
      1.1,
      1.1,
      1.1,
      1.1,
      1.1,
      1.1,
      1.1,
      1.1,
      1.1,
      1.1,
      1.1,
      1.1,
      1.1,
      1.1,
      1.1,
      1.1,
      1.1,
      1.1,
      1.1,
      1.1,
      1.1,
      1.1,
      1.1,
      1.1,
      1.1,
      1.1,
      1.1,
      1.1,
      1.1,
      1.1,
      1.1,
      1.1,
      1.1,
      1.1,
      1.1,
      1.1,
      1.1,
      1.1,
      1.1,
      1.1
    ],
    "ranged_fear": [
      1.25,
      1.2625,
      1.275,
      1.2875,
      1.3,
      1.3125,
      1.325,
      1.3375,
      1.35,
      1.3625,
      1.375,
      1.3875,
      1.4,
      1.4125,
      1.425,
      1.4375,
      1.45,
      1.4625,
      1.475,
      1.4875,
      1.5,
      1.5125,
      1.525,
      1.5375,
      1.55,
      1.5625,
      1.575,
      1.5875,
      1.6,
      1.6125,
      1.625,
      1.6375,
      1.65,
      1.6625,
      1.675,
      1.6875,
      1.7,
      1.7125,
      1.725,
      1.7375,
      1.75,
      1.7625,
      1.775,
      1.7875,
      1.8,
      1.8125,
      1.825,
      1.8375,
      1.85,
      1.8625
    ],
    "ranged_friction": [
      1.0,
      1.062,
      1.124,
      1.186,
      1.248,
      1.31,
      1.372,
      1.434,
      1.496,
      1.558,
      1.62,
      1.682,
      1.744,
      1.806,
      1.868,
      1.93,
      1.992,
      2.054,
      2.116,
      2.178,
      2.24,
      2.302,
      2.364,
      2.426,
      2.488,
      2.55,
      2.612,
      2.674,
      2.736,
      2.798,
      2.86,
      2.922,
      2.984,
      3.046,
      3.108,
      3.17,
      3.232,
      3.294,
      3.356,
      3.418,
      3.48,
      3.542,
      3.604,
      3.666,
      3.728,
      3.79,
      3.852,
      3.914,
      3.976,
      4.0
    ],
    "ranged_heal": [
      11.0,
      12.155,
      13.398,
      14.732,
      16.16,
      17.6844,
      19.3075,
      21.0309,
      22.8559,
      24.7835,
      26.8137,
      28.9463,
      31.1802,
      33.5139,
      35.9451,
      38.4705,
      41.0865,
      43.7885,
      46.571,
      49.4279,
      52.3522,
      55.3363,
      58.3716,
      61.449,
      64.5585,
      67.6896,
      70.8311,
      73.9712,
      77.0979,
      80.1985,
      83.2599,
      86.2692,
      89.2129,
      92.0776,
      94.85,
      97.5169,
      100.0654,
      102.4827,
      104.7569,
      106.8762,
      108.8297,
      110.6073,
      112.1995,
      113.5979,
      114.795,
      115.7844,
      116.5608,
      117.1201,
      117.4594,
      117.7986
    ],
    "ranged_healself": [
      9.9,
      10.934,
      12.0399,
      13.2253,
      14.4926,
      15.8356,
      17.2451,
      18.7366,
      20.3106,
      21.9672,
      23.7057,
      25.5253,
      27.4244,
      29.4009,
      31.4519,
      33.5743,
      35.764,
      38.0164,
      40.3262,
      42.6877,
      45.2133,
      47.7904,
      50.4118,
      53.0696,
      55.7551,
      58.4592,
      61.1723,
      63.8843,
      66.5846,
      69.2623,
      71.9063,
      74.5052,
      77.0475,
      79.5216,
      81.9159,
      84.2192,
      86.4201,
      88.5078,
      90.4719,
      92.3022,
      93.9893,
      95.5245,
      96.8995,
      98.1072,
      99.1411,
      99.9956,
      100.6662,
      101.1492,
      101.4422,
      101.7352
    ],
    "ranged_immobilize": [
      1.25,
      1.2625,
      1.275,
      1.2875,
      1.3,
      1.3125,
      1.325,
      1.3375,
      1.35,
      1.3625,
      1.375,
      1.3875,
      1.4,
      1.4125,
      1.425,
      1.4375,
      1.45,
      1.4625,
      1.475,
      1.4875,
      1.5,
      1.5125,
      1.525,
      1.5375,
      1.55,
      1.5625,
      1.575,
      1.5875,
      1.6,
      1.6125,
      1.625,
      1.6375,
      1.65,
      1.6625,
      1.675,
      1.6875,
      1.7,
      1.7125,
      1.725,
      1.7375,
      1.75,
      1.7625,
      1.775,
      1.7875,
      1.8,
      1.8125,
      1.825,
      1.8375,
      1.85,
      1.8625
    ],
    "ranged_inherenttaunt": [
      0.0,
      0.27,
      0.54,
      0.82,
      1.09,
      1.36,
      1.63,
      1.9,
      2.18,
      2.45,
      2.72,
      2.99,
      3.26,
      3.54,
      3.81,
      4.08,
      4.35,
      4.62,
      4.9,
      5.17,
      5.44,
      5.71,
      5.98,
      6.26,
      6.53,
      6.8,
      7.07,
      7.34,
      7.62,
      7.89,
      8.16,
      8.43,
      8.7,
      8.98,
      9.25,
      9.52,
      9.79,
      10.06,
      10.34,
      10.61,
      10.88,
      11.15,
      11.42,
      11.7,
      11.97,
      12.24,
      12.51,
      12.78,
      13.06,
      13.33
    ],
    "ranged_knockback": [
      1.0,
      1.0317,
      1.0611,
      1.0885,
      1.114,
      1.1378,
      1.1601,
      1.181,
      1.2006,
      1.2193,
      1.237,
      1.2539,
      1.2702,
      1.2859,
      1.3013,
      1.3163,
      1.3313,
      1.3461,
      1.361,
      1.3759,
      1.3911,
      1.4066,
      1.4225,
      1.4388,
      1.4555,
      1.4728,
      1.4908,
      1.5093,
      1.5286,
      1.5485,
      1.5693,
      1.5907,
      1.613,
      1.636,
      1.6599,
      1.6845,
      1.7099,
      1.7361,
      1.763,
      1.7907,
      1.819,
      1.848,
      1.8776,
      1.9078,
      1.9385,
      1.9696,
      2.0011,
      2.0329,
      2.0649,
      2.0771
    ],
    "ranged_leap": [
      18.0,
      18.2,
      18.4,
      18.6,
      18.8,
      19.0,
      19.2,
      19.4,
      19.6,
      19.8,
      20.0,
      20.2,
      20.4,
      20.6,
      20.8,
      21.0,
      21.2,
      21.4,
      21.6,
      21.8,
      22.0,
      22.2,
      22.4,
      22.6,
      22.8,
      23.0,
      23.2,
      23.4,
      23.6,
      23.8,
      24.0,
      24.2,
      24.4,
      24.6,
      24.8,
      25.0,
      25.2,
      25.4,
      25.6,
      25.8,
      26.0,
      26.2,
      26.4,
      26.6,
      26.8,
      27.0,
      27.2,
      27.4,
      27.6,
      27.8
    ],
    "ranged_level": [
      1.0,
      2.0,
      3.0,
      4.0,
      5.0,
      6.0,
      7.0,
      8.0,
      9.0,
      10.0,
      11.0,
      12.0,
      13.0,
      14.0,
      15.0,
      16.0,
      17.0,
      18.0,
      19.0,
      20.0,
      21.0,
      22.0,
      23.0,
      24.0,
      25.0,
      26.0,
      27.0,
      28.0,
      29.0,
      30.0,
      31.0,
      32.0,
      33.0,
      34.0,
      35.0,
      36.0,
      37.0,
      38.0,
      39.0,
      40.0,
      41.0,
      42.0,
      43.0,
      44.0,
      45.0,
      46.0,
      47.0,
      48.0,
      49.0,
      50.0
    ],
    "ranged_levelminus": [
      1.0,
      2.0,
      3.0,
      4.0,
      5.0,
      6.0,
      7.0,
      8.0,
      9.0,
      10.0,
      11.0,
      12.0,
      13.0,
      14.0,
      15.0,
      16.0,
      17.0,
      18.0,
      19.0,
      20.0,
      21.0,
      22.0,
      23.0,
      23.0,
      24.0,
      25.0,
      26.0,
      27.0,
      28.0,
      29.0,
      30.0,
      31.0,
      32.0,
      33.0,
      34.0,
      35.0,
      36.0,
      37.0,
      38.0,
      39.0,
      40.0,
      41.0,
      42.0,
      43.0,
      44.0,
      45.0,
      46.0,
      47.0,
      48.0,
      49.0
    ],
    "ranged_levelminus2": [
      1.0,
      2.0,
      3.0,
      4.0,
      5.0,
      5.0,
      6.0,
      7.0,
      8.0,
      9.0,
      10.0,
      11.0,
      12.0,
      13.0,
      14.0,
      15.0,
      16.0,
      16.0,
      17.0,
      18.0,
      19.0,
      20.0,
      21.0,
      22.0,
      23.0,
      24.0,
      25.0,
      26.0,
      27.0,
      28.0,
      29.0,
      30.0,
      31.0,
      32.0,
      33.0,
      34.0,
      35.0,
      36.0,
      37.0,
      38.0,
      39.0,
      40.0,
      41.0,
      42.0,
      43.0,
      44.0,
      45.0,
      46.0,
      47.0,
      48.0
    ],
    "ranged_levelplus": [
      2.0,
      3.0,
      4.0,
      5.0,
      6.0,
      7.0,
      8.0,
      9.0,
      10.0,
      11.0,
      12.0,
      13.0,
      14.0,
      15.0,
      16.0,
      17.0,
      18.0,
      19.0,
      20.0,
      21.0,
      22.0,
      23.0,
      24.0,
      25.0,
      26.0,
      27.0,
      28.0,
      29.0,
      30.0,
      31.0,
      32.0,
      33.0,
      34.0,
      35.0,
      36.0,
      37.0,
      38.0,
      39.0,
      40.0,
      41.0,
      42.0,
      43.0,
      44.0,
      45.0,
      46.0,
      47.0,
      48.0,
      49.0,
      50.0,
      51.0
    ],
    "ranged_ones": [
      1.0,
      1.0,
      1.0,
      1.0,
      1.0,
      1.0,
      1.0,
      1.0,
      1.0,
      1.0,
      1.0,
      1.0,
      1.0,
      1.0,
      1.0,
      1.0,
      1.0,
      1.0,
      1.0,
      1.0,
      1.0,
      1.0,
      1.0,
      1.0,
      1.0,
      1.0,
      1.0,
      1.0,
      1.0,
      1.0,
      1.0,
      1.0,
      1.0,
      1.0,
      1.0,
      1.0,
      1.0,
      1.0,
      1.0,
      1.0,
      1.0,
      1.0,
      1.0,
      1.0,
      1.0,
      1.0,
      1.0,
      1.0,
      1.0,
      1.0
    ],
    "ranged_pvpdamage": [
      -9.2215,
      -9.8988,
      -10.6034,
      -11.3348,
      -12.0926,
      -12.8764,
      -13.6855,
      -14.5195,
      -15.3777,
      -16.2593,
      -17.1635,
      -18.0897,
      -19.037,
      -20.0045,
      -20.9913,
      -21.9963,
      -23.0186,
      -24.057,
      -25.1103,
      -26.1773,
      -27.2564,
      -28.3461,
      -29.4447,
      -30.5506,
      -31.6615,
      -32.7753,
      -33.8898,
      -35.0021,
      -36.1097,
      -37.2093,
      -38.2978,
      -39.3716,
      -40.4269,
      -41.4598,
      -42.466,
      -43.4414,
      -44.3811,
      -45.2806,
      -46.1351,
      -46.9395,
      -47.689,
      -48.3786,
      -49.0034,
      -49.5587,
      -50.0397,
      -50.4423,
      -50.7619,
      -50.995,
      -51.138,
      -51.2809
    ],
    "ranged_pvpmez": [
      4.0,
      4.0,
      4.0,
      4.0,
      4.0,
      4.0,
      4.0,
      4.0,
      4.0,
      4.0,
      4.0,
      4.0,
      4.0,
      4.0,
      4.0,
      4.0,
      4.0,
      4.0,
      4.0,
      4.0,
      4.0,
      4.0,
      4.0,
      4.0,
      4.0,
      4.0,
      4.0,
      4.0,
      4.0,
      4.0,
      4.0,
      4.0,
      4.0,
      4.0,
      4.0,
      4.0,
      4.0,
      4.0,
      4.0,
      4.0,
      4.0,
      4.0,
      4.0,
      4.0,
      4.0,
      4.0,
      4.0,
      4.0,
      4.0,
      4.0
    ],
    "ranged_res_boolean": [
      0.15,
      0.154,
      0.158,
      0.162,
      0.166,
      0.17,
      0.174,
      0.178,
      0.182,
      0.186,
      0.19,
      0.194,
      0.198,
      0.202,
      0.206,
      0.21,
      0.214,
      0.218,
      0.222,
      0.226,
      0.23,
      0.234,
      0.238,
      0.242,
      0.246,
      0.25,
      0.254,
      0.258,
      0.262,
      0.266,
      0.27,
      0.274,
      0.278,
      0.282,
      0.286,
      0.29,
      0.294,
      0.298,
      0.302,
      0.306,
      0.31,
      0.314,
      0.318,
      0.322,
      0.326,
      0.33,
      0.334,
      0.338,
      0.342,
      0.346
    ],
    "ranged_res_dmg": [
      0.075,
      0.075,
      0.075,
      0.075,
      0.075,
      0.075,
      0.075,
      0.075,
      0.075,
      0.075,
      0.075,
      0.075,
      0.075,
      0.075,
      0.075,
      0.075,
      0.075,
      0.075,
      0.075,
      0.075,
      0.075,
      0.075,
      0.075,
      0.075,
      0.075,
      0.075,
      0.075,
      0.075,
      0.075,
      0.075,
      0.075,
      0.075,
      0.075,
      0.075,
      0.075,
      0.075,
      0.075,
      0.075,
      0.075,
      0.075,
      0.075,
      0.075,
      0.075,
      0.075,
      0.075,
      0.075,
      0.075,
      0.075,
      0.075,
      0.075
    ],
    "ranged_sleep": [
      1.25,
      1.2625,
      1.275,
      1.2875,
      1.3,
      1.3125,
      1.325,
      1.3375,
      1.35,
      1.3625,
      1.375,
      1.3875,
      1.4,
      1.4125,
      1.425,
      1.4375,
      1.45,
      1.4625,
      1.475,
      1.4875,
      1.5,
      1.5125,
      1.525,
      1.5375,
      1.55,
      1.5625,
      1.575,
      1.5875,
      1.6,
      1.6125,
      1.625,
      1.6375,
      1.65,
      1.6625,
      1.675,
      1.6875,
      1.7,
      1.7125,
      1.725,
      1.7375,
      1.75,
      1.7625,
      1.775,
      1.7875,
      1.8,
      1.8125,
      1.825,
      1.8375,
      1.85,
      1.8625
    ],
    "ranged_slow": [
      -1.25,
      -1.25,
      -1.25,
      -1.25,
      -1.25,
      -1.25,
      -1.25,
      -1.25,
      -1.25,
      -1.25,
      -1.25,
      -1.25,
      -1.25,
      -1.25,
      -1.25,
      -1.25,
      -1.25,
      -1.25,
      -1.25,
      -1.25,
      -1.25,
      -1.25,
      -1.25,
      -1.25,
      -1.25,
      -1.25,
      -1.25,
      -1.25,
      -1.25,
      -1.25,
      -1.25,
      -1.25,
      -1.25,
      -1.25,
      -1.25,
      -1.25,
      -1.25,
      -1.25,
      -1.25,
      -1.25,
      -1.25,
      -1.25,
      -1.25,
      -1.25,
      -1.25,
      -1.25,
      -1.25,
      -1.25,
      -1.25,
      -1.25
    ],
    "ranged_special": [
      0.75,
      0.7575,
      0.765,
      0.7725,
      0.78,
      0.7875,
      0.795,
      0.8025,
      0.81,
      0.8175,
      0.825,
      0.8325,
      0.84,
      0.8475,
      0.855,
      0.8625,
      0.87,
      0.8775,
      0.885,
      0.8925,
      0.9,
      0.9075,
      0.915,
      0.9225,
      0.93,
      0.9375,
      0.945,
      0.9525,
      0.96,
      0.9675,
      0.975,
      0.9825,
      0.99,
      0.9975,
      1.005,
      1.0125,
      1.02,
      1.0275,
      1.035,
      1.0425,
      1.05,
      1.0575,
      1.065,
      1.0725,
      1.08,
      1.0875,
      1.095,
      1.1025,
      1.11,
      1.1175
    ],
    "ranged_speedflying": [
      0.875,
      0.885,
      0.895,
      0.905,
      0.915,
      0.925,
      0.935,
      0.945,
      0.955,
      0.965,
      0.975,
      0.985,
      0.995,
      1.005,
      1.015,
      1.025,
      1.035,
      1.045,
      1.055,
      1.065,
      1.075,
      1.085,
      1.095,
      1.105,
      1.115,
      1.125,
      1.135,
      1.145,
      1.155,
      1.165,
      1.175,
      1.185,
      1.195,
      1.205,
      1.215,
      1.225,
      1.235,
      1.245,
      1.255,
      1.265,
      1.275,
      1.285,
      1.295,
      1.305,
      1.315,
      1.325,
      1.335,
      1.345,
      1.355,
      1.365
    ],
    "ranged_speedjumping": [
      2.0,
      2.01,
      2.02,
      2.03,
      2.04,
      2.05,
      2.06,
      2.07,
      2.08,
      2.09,
      2.1,
      2.11,
      2.12,
      2.13,
      2.14,
      2.15,
      2.16,
      2.17,
      2.18,
      2.19,
      2.2,
      2.21,
      2.22,
      2.23,
      2.24,
      2.25,
      2.26,
      2.27,
      2.28,
      2.29,
      2.3,
      2.31,
      2.32,
      2.33,
      2.34,
      2.35,
      2.36,
      2.37,
      2.38,
      2.39,
      2.4,
      2.41,
      2.42,
      2.43,
      2.44,
      2.45,
      2.46,
      2.47,
      2.48,
      2.49
    ],
    "ranged_speedrunning": [
      2.5,
      2.5205,
      2.541,
      2.5615,
      2.582,
      2.6025,
      2.623,
      2.6435,
      2.664,
      2.6845,
      2.705,
      2.7255,
      2.746,
      2.7665,
      2.787,
      2.8075,
      2.828,
      2.8485,
      2.869,
      2.8895,
      2.91,
      2.9305,
      2.951,
      2.9715,
      2.992,
      3.0125,
      3.033,
      3.0535,
      3.074,
      3.0945,
      3.115,
      3.1355,
      3.156,
      3.1765,
      3.197,
      3.2175,
      3.238,
      3.2585,
      3.279,
      3.2995,
      3.32,
      3.3405,
      3.361,
      3.3815,
      3.402,
      3.4225,
      3.443,
      3.4635,
      3.484,
      3.5
    ],
    "ranged_speedswimming": [
      0.5,
      0.51,
      0.52,
      0.53,
      0.54,
      0.55,
      0.56,
      0.57,
      0.58,
      0.59,
      0.6,
      0.61,
      0.62,
      0.63,
      0.64,
      0.65,
      0.66,
      0.67,
      0.68,
      0.69,
      0.7,
      0.71,
      0.72,
      0.73,
      0.74,
      0.75,
      0.76,
      0.77,
      0.78,
      0.79,
      0.8,
      0.81,
      0.82,
      0.83,
      0.84,
      0.85,
      0.86,
      0.87,
      0.88,
      0.89,
      0.9,
      0.91,
      0.92,
      0.93,
      0.94,
      0.95,
      0.96,
      0.97,
      0.98,
      0.99
    ],
    "ranged_stun": [
      1.25,
      1.2625,
      1.275,
      1.2875,
      1.3,
      1.3125,
      1.325,
      1.3375,
      1.35,
      1.3625,
      1.375,
      1.3875,
      1.4,
      1.4125,
      1.425,
      1.4375,
      1.45,
      1.4625,
      1.475,
      1.4875,
      1.5,
      1.5125,
      1.525,
      1.5375,
      1.55,
      1.5625,
      1.575,
      1.5875,
      1.6,
      1.6125,
      1.625,
      1.6375,
      1.65,
      1.6625,
      1.675,
      1.6875,
      1.7,
      1.7125,
      1.725,
      1.7375,
      1.75,
      1.7625,
      1.775,
      1.7875,
      1.8,
      1.8125,
      1.825,
      1.8375,
      1.85,
      1.8625
    ],
    "ranged_taunt": [
      0.5,
      0.51,
      0.52,
      0.53,
      0.54,
      0.55,
      0.56,
      0.58,
      0.59,
      0.6,
      0.61,
      0.62,
      0.63,
      0.64,
      0.65,
      0.66,
      0.67,
      0.68,
      0.69,
      0.7,
      0.72,
      0.73,
      0.74,
      0.75,
      0.76,
      0.77,
      0.78,
      0.79,
      0.8,
      0.81,
      0.82,
      0.83,
      0.84,
      0.85,
      0.87,
      0.88,
      0.89,
      0.9,
      0.91,
      0.92,
      0.93,
      0.94,
      0.95,
      0.96,
      0.97,
      0.98,
      0.99,
      1.01,
      1.02,
      1.03
    ],
    "ranged_tempdamage": [
      -10.0,
      -11.05,
      -12.18,
      -13.3928,
      -14.6909,
      -16.0768,
      -17.5522,
      -19.119,
      -20.7781,
      -22.5304,
      -24.3761,
      -26.3148,
      -28.3457,
      -30.4672,
      -32.6773,
      -34.9732,
      -37.3514,
      -39.8077,
      -42.3372,
      -44.9344,
      -47.5929,
      -50.3057,
      -53.0651,
      -55.8627,
      -58.6895,
      -61.536,
      -64.3919,
      -67.2466,
      -70.089,
      -72.9077,
      -75.6909,
      -78.4265,
      -81.1026,
      -83.7069,
      -86.2273,
      -88.6518,
      -90.9685,
      -93.1661,
      -95.2335,
      -97.1602,
      -98.9361,
      -100.5521,
      -101.9995,
      -103.2708,
      -104.3591,
      -105.2585,
      -105.9644,
      -106.4729,
      -106.7813,
      -107.0897
    ]
  }
}