{
  "base_perception": 0.0,
  "named_tables": {
    "default": [
      1.0,
      1.0,
      1.0,
      1.0,
      1.0,
      1.0,
      1.0,
      1.0,
      1.0,
      1.0,
      1.0,
      1.0,
      1.0,
      1.0,
      1.0,
      1.0,
      1.0,
      1.0,
      1.0,
      1.0,
      1.0,
      1.0,
      1.0,
      1.0,
      1.0,
      1.0,
      1.0,
      1.0,
      1.0,
      1.0,
      1.0,
      1.0,
      1.0,
      1.0,
      1.0,
      1.0,
      1.0,
      1.0,
      1.0,
      1.0,
      1.0,
      1.0,
      1.0,
      1.0,
      1.0,
      1.0,
      1.0,
      1.0,
      1.0,
      1.0,
      1.0,
      1.0,
      1.0,
      1.0,
      1.0
    ],
    "melee_archvillain_res": [
      0.6,
      0.61,
      0.61,
      0.62,
      0.62,
      0.63,
      0.63,
      0.64,
      0.64,
      0.65,
      0.65,
      0.66,
      0.66,
      0.67,
      0.67,
      0.68,
      0.68,
      0.69,
      0.69,
      0.7,
      0.7,
      0.71,
      0.71,
      0.72,
      0.72,
      0.73,
      0.73,
      0.74,
      0.74,
      0.75,
      0.75,
      0.76,
      0.76,
      0.77,
      0.77,
      0.78,
      0.78,
      0.79,
      0.79,
      0.8,
      0.8,
      0.81,
      0.81,
      0.82,
      0.82,
      0.83,
      0.83,
      0.84,
      0.84,
      0.85,
      0.85,
      0.86,
      0.86,
      0.87,
      0.87
    ],
    "melee_boosts_20": [
      0.05,
      0.05,
      0.05,
      0.05,
      0.05,
      0.05,
      0.05,
      0.05,
      0.06,
      0.07,
      0.08,
      0.09,
      0.1,
      0.11,
      0.12,
      0.12,
      0.13,
      0.14,
      0.15,
      0.15,
      0.16,
      0.17,
      0.18,
      0.18,
      0.19,
      0.2,
      0.2,
      0.2,
      0.21,
      0.21,
      0.21,
      0.21,
      0.22,
      0.22,
      0.22,
      0.22,
      0.23,
      0.23,
      0.23,
      0.23,
      0.23,
      0.24,
      0.24,
      0.24,
      0.24,
      0.25,
      0.25,
      0.25,
      0.25,
      0.25,
      0.26,
      0.26,
      0.26,
      0.26,
      0.25
    ],
    "melee_boosts_33": [
      0.08,
      0.08,
      0.08,
      0.08,
      0.08,
      0.08,
      0.08,
      0.08,
      0.1,
      0.12,
      0.13,
      0.15,
      0.17,
      0.18,
      0.19,
      0.2,
      0.22,
      0.23,
      0.24,
      0.26,
      0.27,
      0.28,
      0.29,
      0.31,
      0.32,
      0.33,
      0.34,
      0.34,
      0.34,
      0.35,
      0.35,
      0.36,
      0.36,
      0.36,
      0.37,
      0.37,
      0.37,
      0.38,
      0.38,
      0.39,
      0.39,
      0.39,
      0.4,
      0.4,
      0.4,
      0.41,
      0.41,
      0.42,
      0.42,
      0.42,
      0.43,
      0.43,
      0.44,
      0.44,
      0.4
    ],
    "melee_boosts_40": [
      0.1,
      0.1,
      0.1,
      0.1,
      0.1,
      0.1,
      0.1,
      0.1,
      0.12,
      0.14,
      0.16,
      0.18,
      0.2,
      0.22,
      0.23,
      0.25,
      0.26,
      0.28,
      0.29,
      0.31,
      0.32,
      0.34,
      0.35,
      0.37,
      0.38,
      0.4,
      0.4,
      0.41,
      0.41,
      0.42,
      0.42,
      0.43,
      0.43,
      0.44,
      0.44,
      0.45,
      0.45,
      0.45,
      0.46,
      0.46,
      0.47,
      0.47,
      0.48,
      0.48,
      0.49,
      0.49,
      0.5,
      0.5,
      0.5,
      0.51,
      0.51,
      0.52,
      0.52,
      0.53,
      0.5
    ],
    "melee_boosts_60": [
      0.15,
      0.15,
      0.15,
      0.15,
      0.15,
      0.15,
      0.15,
      0.15,
      0.18,
      0.21,
      0.24,
      0.27,
      0.3,
      0.32,
      0.35,
      0.37,
      0.39,
      0.42,
      0.44,
      0.46,
      0.48,
      0.51,
      0.53,
      0.55,
      0.58,
      0.6,
      0.61,
      0.61,
      0.62,
      0.63,
      0.63,
      0.64,
      0.65,
      0.65,
      0.66,
      0.67,
      0.68,
      0.68,
      0.69,
      0.7,
      0.7,
      0.71,
      0.72,
      0.72,
      0.73,
      0.74,
      0.74,
      0.75,
      0.76,
      0.76,
      0.77,
      0.78,
      0.78,
      0.79,
      0.75
    ],
    "melee_buff_def": [
      0.15,
      0.15,
      0.15,
      0.15,
      0.15,
      0.15,
      0.15,
      0.15,
      0.15,
      0.15,
      0.15,
      0.15,
      0.15,
      0.15,
      0.15,
      0.15,
      0.15,
      0.15,
      0.15,
      0.15,
      0.15,
      0.15,
      0.15,
      0.15,
      0.15,
      0.15,
      0.15,
      0.15,
      0.15,
      0.15,
      0.15,
      0.15,
      0.15,
      0.15,
      0.15,
      0.15,
      0.15,
      0.15,
      0.15,
      0.15,
      0.15,
      0.15,
      0.15,
      0.15,
      0.15,
      0.15,
      0.15,
      0.15,
      0.15,
      0.15,
      0.15,
      0.15,
      0.15,
      0.15,
      0.15
    ],
    "melee_buff_dmg": [
      0.15,
      0.15,
      0.15,
      0.15,
      0.15,
      0.15,
      0.15,
      0.15,
      0.15,
      0.15,
      0.15,
      0.15,
      0.15,
      0.15,
      0.15,
      0.15,
      0.15,
      0.15,
      0.15,
      0.15,
      0.15,
      0.15,
      0.15,
      0.15,
      0.15,
      0.15,
      0.15,
      0.15,
      0.15,
      0.15,
      0.15,
      0.15,
      0.15,
      0.15,
      0.15,
      0.15,
      0.15,
      0.15,
      0.15,
      0.15,
      0.15,
      0.15,
      0.15,
      0.15,
      0.15,
      0.15,
      0.15,
      0.15,
      0.15,
      0.15,
      0.15,
      0.15,
      0.15,
      0.15,
      0.15
    ],
    "melee_buff_maxhp": [
      15.0,
      16.575,
      18.27,
      20.0891,
      22.0364,
      24.1151,
      26.3284,
      28.6785,
      31.1672,
      33.7956,
      36.5641,
      39.4722,
      42.5185,
      45.7008,
      49.016,
      52.4598,
      56.0271,
      59.7116,
      63.5059,
      67.4016,
      71.3894,
      75.4585,
      79.5976,
      83.7941,
      88.0343,
      92.304,
      96.5878,
      100.8699,
      105.1335,
      109.3615,
      113.5363,
      117.6398,
      121.6539,
      125.5604,
      129.3409,
      132.9776,
      136.4528,
      139.7492,
      142.8503,
      145.7403,
      148.4042,
      150.8281,
      152.9993,
      154.9062,
      156.5386,
      157.8878,
      158.9466,
      159.7093,
      160.1719,
      160.6345,
      161.0971,
      161.5597,
      162.0223,
      162.4849,
      162.9475
    ],
    "melee_buff_tohit": [
      0.15,
      0.15,
      0.15,
      0.15,
      0.15,
      0.15,
      0.15,
      0.15,
      0.15,
      0.15,
      0.15,
      0.15,
      0.15,
      0.15,
      0.15,
      0.15,
      0.15,
      0.15,
      0.15,
      0.15,
      0.15,
      0.15,
      0.15,
      0.15,
      0.15,
      0.15,
      0.15,
      0.15,
      0.15,
      0.15,
      0.15,
      0.15,
      0.15,
      0.15,
      0.15,
      0.15,
      0.15,
      0.15,
      0.15,
      0.15,
      0.15,
      0.15,
      0.15,
      0.15,
      0.15,
      0.15,
      0.15,
      0.15,
      0.15,
      0.15,
      0.15,
      0.15,
      0.15,
      0.15,
      0.15
    ],
    "melee_control": [
      1.0,
      1.062,
      1.124,
      1.186,
      1.248,
      1.31,
      1.372,
      1.434,
      1.496,
      1.558,
      1.62,
      1.682,
      1.744,
      1.806,
      1.868,
      1.93,
      1.992,
      2.054,
      2.116,
      2.178,
      2.24,
      2.302,
      2.364,
      2.426,
      2.488,
      2.55,
      2.612,
      2.674,
      2.736,
      2.798,
      2.86,
      2.922,
      2.984,
      3.046,
      3.108,
      3.17,
      3.232,
      3.294,
      3.356,
      3.418,
      3.48,
      3.542,
      3.604,
      3.666,
      3.728,
      3.79,
      3.852,
      3.914,
      3.976,
      4.0,
      4.0,
      4.0,
      4.0,
      4.0,
      4.0
    ],
    "melee_damage": [
      -0.675,
      -0.808,
      -0.9592,
      -1.13,
      -1.3222,
      -1.5373,
      -1.7772,
      -2.0433,
      -2.3375,
      -2.5347,
      -2.7423,
      -2.9604,
      -3.1889,
      -3.4276,
      -3.6762,
      -3.9345,
      -4.202,
      -4.4784,
      -4.7629,
      -5.0551,
      -5.3542,
      -5.6594,
      -5.9698,
      -6.2846,
      -6.6026,
      -6.9228,
      -7.2441,
      -7.5652,
      -7.885,
      -8.2021,
      -8.5152,
      -8.823,
      -9.124,
      -9.417,
      -9.7006,
      -9.9733,
      -10.234,
      -10.4812,
      -10.7138,
      -10.9305,
      -11.1303,
      -11.3121,
      -11.4749,
      -11.618,
      -11.7404,
      -11.8416,
      -11.921,
      -11.9782,
      -12.0129,
      -12.0476,
      -12.0823,
      -12.117,
      -12.1517,
      -12.1864,
      -12.2211
    ],
    "melee_debuff_dam": [
      -0.15,
      -0.15,
      -0.15,
      -0.15,
      -0.15,
      -0.15,
      -0.15,
      -0.15,
      -0.15,
      -0.15,
      -0.15,
      -0.15,
      -0.15,
      -0.15,
      -0.15,
      -0.15,
      -0.15,
      -0.15,
      -0.15,
      -0.15,
      -0.15,
      -0.15,
      -0.15,
      -0.15,
      -0.15,
      -0.15,
      -0.15,
      -0.15,
      -0.15,
      -0.15,
      -0.15,
      -0.15,
      -0.15,
      -0.15,
      -0.15,
      -0.15,
      -0.15,
      -0.15,
      -0.15,
      -0.15,
      -0.15,
      -0.15,
      -0.15,
      -0.15,
      -0.15,
      -0.15,
      -0.15,
      -0.15,
      -0.15,
      -0.15,
      -0.15,
      -0.15,
      -0.15,
      -0.15,
      -0.15
    ],
    "melee_debuff_def": [
      -0.15,
      -0.15,
      -0.15,
      -0.15,
      -0.15,
      -0.15,
      -0.15,
      -0.15,
      -0.15,
      -0.15,
      -0.15,
      -0.15,
      -0.15,
      -0.15,
      -0.15,
      -0.15,
      -0.15,
      -0.15,
      -0.15,
      -0.15,
      -0.15,
      -0.15,
      -0.15,
      -0.15,
      -0.15,
      -0.15,
      -0.15,
      -0.15,
      -0.15,
      -0.15,
      -0.15,
      -0.15,
      -0.15,
      -0.15,
      -0.15,
      -0.15,
      -0.15,
      -0.15,
      -0.15,
      -0.15,
      -0.15,
      -0.15,
      -0.15,
      -0.15,
      -0.15,
      -0.15,
      -0.15,
      -0.15,
      -0.15,
      -0.15,
      -0.15,
      -0.15,
      -0.15,
      -0.15,
      -0.15
    ],
    "melee_debuff_res_dmg": [
      0.15,
      0.15,
      0.15,
      0.15,
      0.15,
      0.15,
      0.15,
      0.15,
      0.15,
      0.15,
      0.15,
      0.15,
      0.15,
      0.15,
      0.15,
      0.15,
      0.15,
      0.15,
      0.15,
      0.15,
      0.15,
      0.15,
      0.15,
      0.15,
      0.15,
      0.15,
      0.15,
      0.15,
      0.15,
      0.15,
      0.15,
      0.15,
      0.15,
      0.15,
      0.15,
      0.15,
      0.15,
      0.15,
      0.15,
      0.15,
      0.15,
      0.15,
      0.15,
      0.15,
      0.15,
      0.15,
      0.15,
      0.15,
      0.15,
      0.15,
      0.15,
      0.15,
      0.15,
      0.15,
      0.15
    ],
    "melee_debuff_tohit": [
      -0.15,
      -0.15,
      -0.15,
      -0.15,
      -0.15,
      -0.15,
      -0.15,
      -0.15,
      -0.15,
      -0.15,
      -0.15,
      -0.15,
      -0.15,
      -0.15,
      -0.15,
      -0.15,
      -0.15,
      -0.15,
      -0.15,
      -0.15,
      -0.15,
      -0.15,
      -0.15,
      -0.15,
      -0.15,
      -0.15,
      -0.15,
      -0.15,
      -0.15,
      -0.15,
      -0.15,
      -0.15,
      -0.15,
      -0.15,
      -0.15,
      -0.15,
      -0.15,
      -0.15,
      -0.15,
      -0.15,
      -0.15,
      -0.15,
      -0.15,
      -0.15,
      -0.15,
      -0.15,
      -0.15,
      -0.15,
      -0.15,
      -0.15,
      -0.15,
      -0.15,
      -0.15,
      -0.15,
      -0.15
    ],
    "melee_enddrain": [
      1.0,
      1.0,
      1.0,
      1.0,
      1.0,
      1.0,
      1.0,
      1.0,
      1.0,
      1.0,
      1.0,
      1.0,
      1.0,
      1.0,
      1.0,
      1.0,
      1.0,
      1.0,
      1.0,
      1.0,
      1.0,
      1.0,
      1.0,
      1.0,
      1.0,
      1.0,
      1.0,
      1.0,
      1.0,
      1.0,
      1.0,
      1.0,
      1.0,
      1.0,
      1.0,
      1.0,
      1.0,
      1.0,
      1.0,
      1.0,
      1.0,
      1.0,
      1.0,
      1.0,
      1.0,
      1.0,
      1.0,
      1.0,
      1.0,
      1.0,
      1.0,
      1.0,
      1.0,
      1.0,
      1.0
    ],
    "melee_fear": [
      4.0,
      4.04,
      4.08,
      4.12,
      4.16,
      4.2,
      4.24,
      4.28,
      4.32,
      4.36,
      4.4,
      4.44,
      4.48,
      4.52,
      4.56,
      4.6,
      4.64,
      4.68,
      4.72,
      4.76,
      4.8,
      4.84,
      4.88,
      4.92,
      4.96,
      5.0,
      5.04,
      5.08,
      5.12,
      5.16,
      5.2,
      5.24,
      5.28,
      5.32,
      5.36,
      5.4,
      5.44,
      5.48,
      5.52,
      5.56,
      5.6,
      5.64,
      5.68,
      5.72,
      5.76,
      5.8,
      5.84,
      5.88,
      5.92,
      5.96,
      6.0,
      6.04,
      6.08,
      6.12,
      6.16
    ],
    "melee_friction": [
      1.0,
      1.062,
      1.124,
      1.186,
      1.248,
      1.31,
      1.372,
      1.434,
      1.496,
      1.558,
      1.62,
      1.682,
      1.744,
      1.806,
      1.868,
      1.93,
      1.992,
      2.054,
      2.116,
      2.178,
      2.24,
      2.302,
      2.364,
      2.426,
      2.488,
      2.55,
      2.612,
      2.674,
      2.736,
      2.798,
      2.86,
      2.922,
      2.984,
      3.046,
      3.108,
      3.17,
      3.232,
      3.294,
      3.356,
      3.418,
      3.48,
      3.542,
      3.604,
      3.666,
      3.728,
      3.79,
      3.852,
      3.914,
      3.976,
      4.0,
      4.0,
      4.0,
      4.0,
      4.0,
      4.0
    ],
    "melee_heal": [
      3.5,
      3.8675,
      4.263,
      4.6875,
      5.1418,
      5.6269,
      6.1433,
      6.6916,
      7.2723,
      7.8856,
      8.5316,
      9.2102,
      9.921,
      10.6635,
      11.4371,
      12.2406,
      13.073,
      13.9327,
      14.818,
      15.727,
      16.6575,
      17.607,
      18.5728,
      19.5519,
      20.5413,
      21.5376,
      22.5372,
      23.5363,
      24.5312,
      25.5177,
      26.4918,
      27.4493,
      28.3859,
      29.2974,
      30.1796,
      31.0281,
      31.839,
      32.6081,
      33.3317,
      34.0061,
      34.6276,
      35.1932,
      35.6998,
      36.1448,
      36.5257,
      36.8405,
      37.0875,
      37.2655,
      37.3734,
      37.4814,
      37.5893,
      37.6973,
      37.8052,
      37.9132,
      38.0211
    ],
    "melee_healself": [
      1000.0,
      1000.0,
      1000.0,
      1000.0,
      1000.0,
      1000.0,
      1000.0,
      1000.0,
      1000.0,
      1000.0,
      1000.0,
      1000.0,
      1000.0,
      1000.0,
      1000.0,
      1000.0,
      1000.0,
      1000.0,
      1000.0,
      1000.0,
      1000.0,
      1000.0,
      1000.0,
      1000.0,
      1000.0,
      1000.0,
      1000.0,
      1000.0,
      1000.0,
      1000.0,
      1000.0,
      1000.0,
      1000.0,
      1000.0,
      1000.0,
      1000.0,
      1000.0,
      1000.0,
      1000.0,
      1000.0,
      1000.0,
      1000.0,
      1000.0,
      1000.0,
      1000.0,
      1000.0,
      1000.0,
      1000.0,
      1000.0,
      1000.0,
      1000.0,
      1000.0,
      1000.0,
      1000.0,
      1000.0
    ],
    "melee_immobilize": [
      3.0,
      3.03,
      3.06,
      3.09,
      3.12,
      3.15,
      3.18,
      3.21,
      3.24,
      3.27,
      3.3,
      3.33,
      3.36,
      3.39,
      3.42,
      3.45,
      3.48,
      3.51,
      3.54,
      3.57,
      3.6,
      3.63,
      3.66,
      3.69,
      3.72,
      3.75,
      3.78,
      3.81,
      3.84,
      3.87,
      3.9,
      3.93,
      3.96,
      3.99,
      4.02,
      4.05,
      4.08,
      4.11,
      4.14,
      4.17,
      4.2,
      4.23,
      4.26,
      4.29,
      4.32,
      4.35,
      4.38,
      4.41,
      4.44,
      4.47,
      4.5,
      4.53,
      4.56,
      4.59,
      4.62
    ],
    "melee_inherenttaunt": [
      0.27,
      0.54,
      0.82,
      1.09,
      1.36,
      1.63,
      1.9,
      2.18,
      2.45,
      2.72,
      2.99,
      3.26,
      3.54,
      3.81,
      4.08,
      4.35,
      4.62,
      4.9,
      5.17,
      5.44,
      5.71,
      5.98,
      6.26,
      6.53,
      6.8,
      7.07,
      7.34,
      7.62,
      7.89,
      8.16,
      8.43,
      8.7,
      8.98,
      9.25,
      9.52,
      9.79,
      10.06,
      10.34,
      10.61,
      10.88,
      11.15,
      11.42,
      11.7,
      11.97,
      12.24,
      12.51,
      12.78,
      13.06,
      13.33,
      13.6,
      13.87,
      14.14,
      14.42,
      14.69,
      14.96
    ],
    "melee_inspheal": [
      1000.0,
      1000.0,
      1000.0,
      1000.0,
      1000.0,
      1000.0,
      1000.0,
      1000.0,
      1000.0,
      1000.0,
      1000.0,
      1000.0,
      1000.0,
      1000.0,
      1000.0,
      1000.0,
      1000.0,
      1000.0,
      1000.0,
      1000.0,
      1000.0,
      1000.0,
      1000.0,
      1000.0,
      1000.0,
      1000.0,
      1000.0,
      1000.0,
      1000.0,
      1000.0,
      1000.0,
      1000.0,
      1000.0,
      1000.0,
      1000.0,
      1000.0,
      1000.0,
      1000.0,
      1000.0,
      1000.0,
      1000.0,
      1000.0,
      1000.0,
      1000.0,
      1000.0,
      1000.0,
      1000.0,
      1000.0,
      1000.0,
      1000.0,
      1000.0,
      1000.0,
      1000.0,
      1000.0,
      1000.0
    ],
    "melee_knockback": [
      1.0,
      1.0,
      1.0,
      1.0,
      1.0,
      1.0,
      1.0,
      1.0,
      1.0,
      1.0,
      1.0,
      1.0,
      1.0,
      1.0,
      1.0,
      1.0,
      1.0,
      1.0,
      1.0,
      1.0,
      1.0,
      1.0,
      1.0,
      1.0,
      1.0,
      1.0,
      1.0,
      1.0,
      1.0,
      1.0,
      1.0,
      1.0,
      1.0,
      1.0,
      1.0,
      1.0,
      1.0,
      1.0,
      1.0,
      1.0,
      1.0,
      1.0,
      1.0,
      1.0,
      1.0,
      1.0,
      1.0,
      1.0,
      1.0,
      1.0,
      1.0,
      1.0,
      1.0,
      1.0,
      1.0
    ],
    "melee_leap": [
      72.0,
      72.8,
      73.6,
      74.4,
      75.2,
      76.0,
      76.8,
      77.6,
      78.4,
      79.2,
      80.0,
      80.8,
      81.6,
      82.4,
      83.2,
      84.0,
      84.8,
      85.6,
      86.4,
      87.2,
      88.0,
      88.8,
      89.6,
      90.4,
      91.2,
      92.0,
      92.8,
      93.6,
      94.4,
      95.2,
      96.0,
      96.8,
      97.6,
      98.4,
      99.2,
      100.0,
      100.8,
      101.6,
      102.4,
      103.2,
      104.0,
      104.8,
      105.6,
      106.4,
      107.2,
      108.0,
      108.8,
      109.6,
      110.4,
      111.2,
      112.0,
      112.8,
      113.6,
      114.4,
      115.2
    ],
    "melee_level": [
      1.0,
      2.0,
      3.0,
      4.0,
      5.0,
      6.0,
      7.0,
      8.0,
      9.0,
      10.0,
      11.0,
      12.0,
      13.0,
      14.0,
      15.0,
      16.0,
      17.0,
      18.0,
      19.0,
      20.0,
      21.0,
      22.0,
      23.0,
      24.0,
      25.0,
      26.0,
      27.0,
      28.0,
      29.0,
      30.0,
      31.0,
      32.0,
      33.0,
      34.0,
      35.0,
      36.0,
      37.0,
      38.0,
      39.0,
      40.0,
      41.0,
      42.0,
      43.0,
      44.0,
      45.0,
      46.0,
      47.0,
      48.0,
      49.0,
      50.0,
      51.0,
      52.0,
      53.0,
      54.0,
      55.0
    ],
    "melee_levelminus": [
      1.0,
      2.0,
      3.0,
      4.0,
      5.0,
      6.0,
      7.0,
      8.0,
      9.0,
      10.0,
      11.0,
      12.0,
      13.0,
      14.0,
      15.0,
      16.0,
      17.0,
      18.0,
      19.0,
      20.0,
      21.0,
      22.0,
      23.0,
      23.0,
      24.0,
      25.0,
      26.0,
      27.0,
      28.0,
      29.0,
      30.0,
      31.0,
      32.0,
      33.0,
      34.0,
      35.0,
      36.0,
      37.0,
      38.0,
      39.0,
      40.0,
      41.0,
      42.0,
      43.0,
      44.0,
      45.0,
      46.0,
      47.0,
      48.0,
      49.0,
      50.0,
      51.0,
      52.0,
      53.0,
      54.0
    ],
    "melee_levelminus2": [
      1.0,
      2.0,
      3.0,
      4.0,
      5.0,
      5.0,
      6.0,
      7.0,
      8.0,
      9.0,
      10.0,
      11.0,
      12.0,
      13.0,
      14.0,
      15.0,
      16.0,
      16.0,
      17.0,
      18.0,
      19.0,
      20.0,
      21.0,
      22.0,
      23.0,
      24.0,
      25.0,
      26.0,
      27.0,
      28.0,
      29.0,
      30.0,
      31.0,
      32.0,
      33.0,
      34.0,
      35.0,
      36.0,
      37.0,
      38.0,
      39.0,
      40.0,
      41.0,
      42.0,
      43.0,
      44.0,
      45.0,
      46.0,
      47.0,
      48.0,
      49.0,
      50.0,
      51.0,
      52.0,
      53.0
    ],
    "melee_levelplus": [
      2.0,
      3.0,
      4.0,
      5.0,
      6.0,
      7.0,
      8.0,
      9.0,
      10.0,
      11.0,
      12.0,
      13.0,
      14.0,
      15.0,
      16.0,
      17.0,
      18.0,
      19.0,
      20.0,
      21.0,
      22.0,
      23.0,
      24.0,
      25.0,
      26.0,
      27.0,
      28.0,
      29.0,
      30.0,
      31.0,
      32.0,
      33.0,
      34.0,
      35.0,
      36.0,
      37.0,
      38.0,
      39.0,
      40.0,
      41.0,
      42.0,
      43.0,
      44.0,
      45.0,
      46.0,
      47.0,
      48.0,
      49.0,
      50.0,
      51.0,
      52.0,
      53.0,
      54.0,
      55.0,
      56.0
    ],
    "melee_nojumpbuff": [
      -18.0,
      -18.62,
      -19.24,
      -19.86,
      -20.48,
      -21.1,
      -21.72,
      -22.34,
      -22.96,
      -23.58,
      -24.2,
      -24.82,
      -25.44,
      -26.06,
      -26.68,
      -27.3,
      -27.92,
      -28.54,
      -29.16,
      -29.78,
      -30.4,
      -31.02,
      -31.64,
      -32.26,
      -32.88,
      -33.5,
      -34.12,
      -34.74,
      -35.36,
      -35.98,
      -36.6,
      -37.22,
      -37.84,
      -38.46,
      -39.08,
      -39.7,
      -40.32,
      -40.94,
      -41.56,
      -42.18,
      -42.8,
      -43.42,
      -44.04,
      -44.66,
      -45.28,
      -45.9,
      -46.52,
      -47.14,
      -47.76,
      -48.0,
      -48.0,
      -48.0,
      -48.0,
      -48.0,
      -48.0
    ],
    "melee_nojumpspeedbuff": [
      -1.5,
      -1.54,
      -1.58,
      -1.62,
      -1.66,
      -1.7,
      -1.74,
      -1.78,
      -1.82,
      -1.86,
      -1.9,
      -1.94,
      -1.98,
      -2.02,
      -2.06,
      -2.1,
      -2.14,
      -2.18,
      -2.22,
      -2.26,
      -2.3,
      -2.34,
      -2.38,
      -2.42,
      -2.46,
      -2.5,
      -2.54,
      -2.58,
      -2.62,
      -2.66,
      -2.7,
      -2.74,
      -2.78,
      -2.82,
      -2.86,
      -2.9,
      -2.94,
      -2.98,
      -3.02,
      -3.06,
      -3.1,
      -3.14,
      -3.18,
      -3.22,
      -3.26,
      -3.3,
      -3.34,
      -3.38,
      -3.42,
      -3.46,
      -3.5,
      -3.54,
      -3.58,
      -3.62,
      -3.66
    ],
    "melee_nospeedbuff": [
      -2.5,
      -2.54,
      -2.58,
      -2.62,
      -2.66,
      -2.7,
      -2.74,
      -2.78,
      -2.82,
      -2.86,
      -2.9,
      -2.94,
      -2.98,
      -3.02,
      -3.06,
      -3.1,
      -3.14,
      -3.18,
      -3.22,
      -3.26,
      -3.3,
      -3.34,
      -3.38,
      -3.42,
      -3.46,
      -3.5,
      -3.54,
      -3.58,
      -3.62,
      -3.66,
      -3.7,
      -3.74,
      -3.78,
      -3.82,
      -3.86,
      -3.9,
      -3.94,
      -3.98,
      -4.02,
      -4.06,
      -4.1,
      -4.14,
      -4.18,
      -4.22,
      -4.26,
      -4.3,
      -4.34,
      -4.38,
      -4.42,
      -4.46,
      -4.5,
      -4.5,
      -4.5,
      -4.5,
      -4.5
    ],
    "melee_nostealth": [
      -400.0,
      -403.5,
      -407.0,
      -410.5,
      -414.0,
      -417.5,
      -421.0,
      -424.5,
      -428.0,
      -431.5,
      -435.0,
      -438.5,
      -442.0,
      -445.5,
      -449.0,
      -452.5,
      -456.0,
      -459.5,
      -463.0,
      -466.5,
      -470.0,
      -473.5,
      -477.0,
      -480.5,
      -484.0,
      -487.5,
      -491.0,
      -494.5,
      -498.0,
      -501.5,
      -505.0,
      -508.5,
      -512.0,
      -515.5,
      -519.0,
      -522.5,
      -526.0,
      -529.5,
      -533.0,
      -536.5,
      -540.0,
      -543.5,
      -547.0,
      -550.5,
      -554.0,
      -557.5,
      -561.0,
      -564.5,
      -568.0,
      -571.5,
      -575.0,
      -578.5,
      -582.0,
      -585.5,
      -589.0
    ],
    "melee_ones": [
      1.0,
      1.0,
      1.0,
      1.0,
      1.0,
      1.0,
      1.0,
      1.0,
      1.0,
      1.0,
      1.0,
      1.0,
      1.0,
      1.0,
      1.0,
      1.0,
      1.0,
      1.0,
      1.0,
      1.0,
      1.0,
      1.0,
      1.0,
      1.0,
      1.0,
      1.0,
      1.0,
      1.0,
      1.0,
      1.0,
      1.0,
      1.0,
      1.0,
      1.0,
      1.0,
      1.0,
      1.0,
      1.0,
      1.0,
      1.0,
      1.0,
      1.0,
      1.0,
      1.0,
      1.0,
      1.0,
      1.0,
      1.0,
      1.0,
      1.0,
      1.0,
      1.0,
      1.0,
      1.0,
      1.0
    ],
    "melee_res_boolean": [
      0.225,
      0.231,
      0.237,
      0.243,
      0.249,
      0.255,
      0.261,
      0.267,
      0.273,
      0.279,
      0.285,
      0.291,
      0.297,
      0.303,
      0.309,
      0.315,
      0.321,
      0.327,
      0.333,
      0.339,
      0.345,
      0.351,
      0.357,
      0.363,
      0.369,
      0.375,
      0.381,
      0.387,
      0.393,
      0.399,
      0.405,
      0.411,
      0.417,
      0.423,
      0.429,
      0.435,
      0.441,
      0.447,
      0.453,
      0.459,
      0.465,
      0.471,
      0.477,
      0.483,
      0.489,
      0.495,
      0.501,
      0.507,
      0.513,
      0.519,
      0.525,
      0.531,
      0.537,
      0.543,
      0.549
    ],
    "melee_res_dmg": [
      0.15,
      0.15,
      0.15,
      0.15,
      0.15,
      0.15,
      0.15,
      0.15,
      0.15,
      0.15,
      0.15,
      0.15,
      0.15,
      0.15,
      0.15,
      0.15,
      0.15,
      0.15,
      0.15,
      0.15,
      0.15,
      0.15,
      0.15,
      0.15,
      0.15,
      0.15,
      0.15,
      0.15,
      0.15,
      0.15,
      0.15,
      0.15,
      0.15,
      0.15,
      0.15,
      0.15,
      0.15,
      0.15,
      0.15,
      0.15,
      0.15,
      0.15,
      0.15,
      0.15,
      0.15,
      0.15,
      0.15,
      0.15,
      0.15,
      0.15,
      0.15,
      0.15,
      0.15,
      0.15,
      0.15
    ],
    "melee_sleep": [
      1.5,
      1.515,
      1.53,
      1.545,
      1.56,
      1.575,
      1.59,
      1.605,
      1.62,
      1.635,
      1.65,
      1.665,
      1.68,
      1.695,
      1.71,
      1.725,
      1.74,
      1.755,
      1.77,
      1.785,
      1.8,
      1.815,
      1.83,
      1.845,
      1.86,
      1.875,
      1.89,
      1.905,
      1.92,
      1.935,
      1.95,
      1.965,
      1.98,
      1.995,
      2.01,
      2.025,
      2.04,
      2.055,
      2.07,
      2.085,
      2.1,
      2.115,
      2.13,
      2.145,
      2.16,
      2.175,
      2.19,
      2.205,
      2.22,
      2.235,
      2.25,
      2.265,
      2.28,
      2.295,
      2.31
    ],
    "melee_slow": [
      -3.0,
      -3.0,
      -3.0,
      -3.0,
      -3.0,
      -3.0,
      -3.0,
      -3.0,
      -3.0,
      -3.0,
      -3.0,
      -3.0,
      -3.0,
      -3.0,
      -3.0,
      -3.0,
      -3.0,
      -3.0,
      -3.0,
      -3.0,
      -3.0,
      -3.0,
      -3.0,
      -3.0,
      -3.0,
      -3.0,
      -3.0,
      -3.0,
      -3.0,
      -3.0,
      -3.0,
      -3.0,
      -3.0,
      -3.0,
      -3.0,
      -3.0,
      -3.0,
      -3.0,
      -3.0,
      -3.0,
      -3.0,
      -3.0,
      -3.0,
      -3.0,
      -3.0,
      -3.0,
      -3.0,
      -3.0,
      -3.0,
      -3.0,
      -3.0,
      -3.0,
      -3.0,
      -3.0,
      -3.0
    ],
    "melee_special": [
      3.0,
      3.03,
      3.06,
      3.09,
      3.12,
      3.15,
      3.18,
      3.21,
      3.24,
      3.27,
      3.3,
      3.33,
      3.36,
      3.39,
      3.42,
      3.45,
      3.48,
      3.51,
      3.54,
      3.57,
      3.6,
      3.63,
      3.66,
      3.69,
      3.72,
      3.75,
      3.78,
      3.81,
      3.84,
      3.87,
      3.9,
      3.93,
      3.96,
      3.99,
      4.02,
      4.05,
      4.08,
      4.11,
      4.14,
      4.17,
      4.2,
      4.23,
      4.26,
      4.29,
      4.32,
      4.35,
      4.38,
      4.41,
      4.44,
      4.47,
      4.5,
      4.53,
      4.56,
      4.59,
      4.62
    ],
    "melee_speedflying": [
      1.3125,
      1.3275,
      1.3425,
      1.3575,
      1.3725,
      1.3875,
      1.4025,
      1.4175,
      1.4325,
      1.4475,
      1.4625,
      1.4775,
      1.4925,
      1.5075,
      1.5225,
      1.5375,
      1.5525,
      1.5675,
      1.5825,
      1.5975,
      1.6125,
      1.6275,
      1.6425,
      1.6575,
      1.6725,
      1.6875,
      1.7025,
      1.7175,
      1.7325,
      1.7475,
      1.7625,
      1.7775,
      1.7925,
      1.8075,
      1.8225,
      1.8375,
      1.8525,
      1.8675,
      1.8825,
      1.8975,
      1.9125,
      1.9275,
      1.9425,
      1.9575,
      1.9725,
      1.9875,
      2.0025,
      2.0175,
      2.0325,
      2.0475,
      2.0625,
      2.0775,
      2.0925,
      2.1075,
      2.1225
    ],
    "melee_speedjumping": [
      8.0,
      8.04,
      8.08,
      8.12,
      8.16,
      8.2,
      8.24,
      8.28,
      8.32,
      8.36,
      8.4,
      8.44,
      8.48,
      8.52,
      8.56,
      8.6,
      8.64,
      8.68,
      8.72,
      8.76,
      8.8,
      8.84,
      8.88,
      8.92,
      8.96,
      9.0,
      9.04,
      9.08,
      9.12,
      9.16,
      9.2,
      9.24,
      9.28,
      9.32,
      9.36,
      9.4,
      9.44,
      9.48,
      9.52,
      9.56,
      9.6,
      9.64,
      9.68,
      9.72,
      9.76,
      9.8,
      9.84,
      9.88,
      9.92,
      9.96,
      10.0,
      10.04,
      10.08,
      10.12,
      10.16
    ],
    "melee_speedrunning": [
      10.0,
      10.082,
      10.164,
      10.246,
      10.328,
      10.41,
      10.492,
      10.574,
      10.656,
      10.738,
      10.82,
      10.902,
      10.984,
      11.066,
      11.148,
      11.23,
      11.312,
      11.394,
      11.476,
      11.558,
      11.64,
      11.722,
      11.804,
      11.886,
      11.968,
      12.05,
      12.132,
      12.214,
      12.296,
      12.378,
      12.46,
      12.542,
      12.624,
      12.706,
      12.788,
      12.87,
      12.952,
      13.034,
      13.116,
      13.198,
      13.28,
      13.362,
      13.444,
      13.526,
      13.608,
      13.69,
      13.772,
      13.854,
      13.936,
      14.0,
      14.0,
      14.0,
      14.0,
      14.0,
      14.0
    ],
    "melee_speedswimming": [
      0.75,
      0.765,
      0.78,
      0.795,
      0.81,
      0.825,
      0.84,
      0.855,
      0.87,
      0.885,
      0.9,
      0.915,
      0.93,
      0.945,
      0.96,
      0.975,
      0.99,
      1.005,
      1.02,
      1.035,
      1.05,
      1.065,
      1.08,
      1.095,
      1.11,
      1.125,
      1.14,
      1.155,
      1.17,
      1.185,
      1.2,
      1.215,
      1.23,
      1.245,
      1.26,
      1.275,
      1.29,
      1.305,
      1.32,
      1.335,
      1.35,
      1.365,
      1.38,
      1.395,
      1.41,
      1.425,
      1.44,
      1.455,
      1.47,
      1.485,
      1.5,
      1.5,
      1.5,
      1.5,
      1.5
    ],
    "melee_stun": [
      3.0,
      3.03,
      3.06,
      3.09,
      3.12,
      3.15,
      3.18,
      3.21,
      3.24,
      3.27,
      3.3,
      3.33,
      3.36,
      3.39,
      3.42,
      3.45,
      3.48,
      3.51,
      3.54,
      3.57,
      3.6,
      3.63,
      3.66,
      3.69,
      3.72,
      3.75,
      3.78,
      3.81,
      3.84,
      3.87,
      3.9,
      3.93,
      3.96,
      3.99,
      4.02,
      4.05,
      4.08,
      4.11,
      4.14,
      4.17,
      4.2,
      4.23,
      4.26,
      4.29,
      4.32,
      4.35,
      4.38,
      4.41,
      4.44,
      4.47,
      4.5,
      4.53,
      4.56,
      4.59,
      4.62
    ],
    "melee_suppressflight": [
      -0.63,
      -0.66,
      -0.69,
      -0.72,
      -0.75,
      -0.78,
      -0.81,
      -0.84,
      -0.87,
      -0.9,
      -0.93,
      -0.96,
      -0.99,
      -1.02,
      -1.05,
      -1.08,
      -1.11,
      -1.14,
      -1.17,
      -1.2,
      -1.23,
      -1.26,
      -1.29,
      -1.32,
      -1.35,
      -1.38,
      -1.41,
      -1.44,
      -1.47,
      -1.5,
      -1.53,
      -1.56,
      -1.59,
      -1.62,
      -1.65,
      -1.68,
      -1.71,
      -1.74,
      -1.77,
      -1.8,
      -1.83,
      -1.86,
      -1.89,
      -1.92,
      -1.95,
      -1.98,
      -2.01,
      -2.04,
      -2.07,
      -2.1,
      -2.13,
      -2.16,
      -2.19,
      -2.22,
      -2.25
    ],
    "melee_suppressjump": [
      -10.0,
      -10.62,
      -11.24,
      -11.86,
      -12.48,
      -13.1,
      -13.72,
      -14.34,
      -14.96,
      -15.58,
      -16.2,
      -16.82,
      -17.44,
      -18.06,
      -18.68,
      -19.3,
      -19.92,
      -20.54,
      -21.16,
      -21.78,
      -22.4,
      -23.02,
      -23.64,
      -24.26,
      -24.88,
      -25.5,
      -26.12,
      -26.74,
      -27.36,
      -27.98,
      -28.6,
      -29.22,
      -29.84,
      -30.46,
      -31.08,
      -31.7,
      -32.32,
      -32.94,
      -33.56,
      -34.18,
      -34.8,
      -35.42,
      -36.04,
      -36.66,
      -37.28,
      -37.9,
      -38.52,
      -39.14,
      -39.76,
      -40.0,
      -40.0,
      -40.0,
      -40.0,
      -40.0,
      -40.0
    ],
    "melee_suppressjumpspeed": [
      -1.5,
      -1.54,
      -1.58,
      -1.62,
      -1.66,
      -1.7,
      -1.74,
      -1.78,
      -1.82,
      -1.86,
      -1.9,
      -1.94,
      -1.98,
      -2.02,
      -2.06,
      -2.1,
      -2.14,
      -2.18,
      -2.22,
      -2.26,
      -2.3,
      -2.34,
      -2.38,
      -2.42,
      -2.46,
      -2.5,
      -2.54,
      -2.58,
      -2.62,
      -2.66,
      -2.7,
      -2.74,
      -2.78,
      -2.82,
      -2.86,
      -2.9,
      -2.94,
      -2.98,
      -3.02,
      -3.06,
      -3.1,
      -3.14,
      -3.18,
      -3.22,
      -3.26,
      -3.3,
      -3.34,
      -3.38,
      -3.42,
      -3.46,
      -3.5,
      -3.54,
      -3.58,
      -3.62,
      -3.66
    ],
    "melee_suppressrunspeed": [
      -2.5,
      -2.54,
      -2.58,
      -2.62,
      -2.66,
      -2.7,
      -2.74,
      -2.78,
      -2.82,
      -2.86,
      -2.9,
      -2.94,
      -2.98,
      -3.02,
      -3.06,
      -3.1,
      -3.14,
      -3.18,
      -3.22,
      -3.26,
      -3.3,
      -3.34,
      -3.38,
      -3.42,
      -3.46,
      -3.5,
      -3.54,
      -3.58,
      -3.62,
      -3.66,
      -3.7,
      -3.74,
      -3.78,
      -3.82,
      -3.86,
      -3.9,
      -3.94,
      -3.98,
      -4.02,
      -4.06,
      -4.1,
      -4.14,
      -4.18,
      -4.22,
      -4.26,
      -4.3,
      -4.34,
      -4.38,
      -4.42,
      -4.46,
      -4.5,
      -4.5,
      -4.5,
      -4.5,
      -4.5
    ],
    "melee_taunt": [
      1.0,
      1.02,
      1.04,
      1.06,
      1.09,
      1.11,
      1.13,
      1.15,
      1.17,
      1.19,
      1.22,
      1.24,
      1.26,
      1.28,
      1.3,
      1.32,
      1.34,
      1.37,
      1.39,
      1.41,
      1.43,
      1.45,
      1.47,
      1.49,
      1.52,
      1.54,
      1.56,
      1.58,
      1.6,
      1.62,
      1.65,
      1.67,
      1.69,
      1.71,
      1.73,
      1.75,
      1.77,
      1.8,
      1.82,
      1.84,
      1.86,
      1.88,
      1.9,
      1.92,
      1.95,
      1.97,
      1.99,
      2.01,
      2.03,
      2.05,
      2.08,
      2.1,
      2.12,
      2.14,
      2.16
    ],
    "melee_tempdamage": [
      -10.0,
      -11.05,
      -12.18,
      -13.3928,
      -14.6909,
      -16.0768,
      -17.5522,
      -19.119,
      -20.7781,
      -22.5304,
      -24.3761,
      -26.3148,
      -28.3457,
      -30.4672,
      -32.6773,
      -34.9732,
      -37.3514,
      -39.8077,
      -42.3372,
      -44.9344,
      -47.5929,
      -50.3057,
      -53.0651,
      -55.8627,
      -58.6895,
      -61.536,
      -64.3919,
      -67.2466,
      -70.089,
      -72.9077,
      -75.6909,
      -78.4265,
      -81.1026,
      -83.7069,
      -86.2273,
      -88.6518,
      -90.9685,
      -93.1661,
      -95.2335,
      -97.1602,
      -98.9361,
      -100.5521,
      -101.9995,
      -103.2708,
      -104.3591,
      -105.2585,
      -105.9644,
      -106.4729,
      -106.7813,
      -107.0897,
      -107.3981,
      -107.7065,
      -108.0149,
      -108.3233,
      -108.6317
    ],
    "ranged_archvillain_res": [
      0.6,
      0.61,
      0.61,
      0.62,
      0.62,
      0.63,
      0.63,
      0.64,
      0.64,
      0.65,
      0.65,
      0.66,
      0.66,
      0.67,
      0.67,
      0.68,
      0.68,
      0.69,
      0.69,
      0.7,
      0.7,
      0.71,
      0.71,
      0.72,
      0.72,
      0.73,
      0.73,
      0.74,
      0.74,
      0.75,
      0.75,
      0.76,
      0.76,
      0.77,
      0.77,
      0.78,
      0.78,
      0.79,
      0.79,
      0.8,
      0.8,
      0.81,
      0.81,
      0.82,
      0.82,
      0.83,
      0.83,
      0.84,
      0.84,
      0.85,
      0.85,
      0.86,
      0.86,
      0.87,
      0.87
    ],
    "ranged_boosts_20": [
      0.05,
      0.05,
      0.05,
      0.05,
      0.05,
      0.05,
      0.05,
      0.05,
      0.06,
      0.07,
      0.08,
      0.09,
      0.1,
      0.11,
      0.12,
      0.12,
      0.13,
      0.14,
      0.15,
      0.15,
      0.16,
      0.17,
      0.18,
      0.18,
      0.19,
      0.2,
      0.2,
      0.2,
      0.21,
      0.21,
      0.21,
      0.21,
      0.22,
      0.22,
      0.22,
      0.22,
      0.23,
      0.23,
      0.23,
      0.23,
      0.23,
      0.24,
      0.24,
      0.24,
      0.24,
      0.25,
      0.25,
      0.25,
      0.25,
      0.25,
      0.26,
      0.26,
      0.26,
      0.26,
      0.25
    ],
    "ranged_boosts_33": [
      0.08,
      0.08,
      0.08,
      0.08,
      0.08,
      0.08,
      0.08,
      0.08,
      0.1,
      0.12,
      0.13,
      0.15,
      0.17,
      0.18,
      0.19,
      0.2,
      0.22,
      0.23,
      0.24,
      0.26,
      0.27,
      0.28,
      0.29,
      0.31,
      0.32,
      0.33,
      0.34,
      0.34,
      0.34,
      0.35,
      0.35,
      0.36,
      0.36,
      0.36,
      0.37,
      0.37,
      0.37,
      0.38,
      0.38,
      0.39,
      0.39,
      0.39,
      0.4,
      0.4,
      0.4,
      0.41,
      0.41,
      0.42,
      0.42,
      0.42,
      0.43,
      0.43,
      0.44,
      0.44,
      0.4
    ],
    "ranged_boosts_40": [
      0.1,
      0.1,
      0.1,
      0.1,
      0.1,
      0.1,
      0.1,
      0.1,
      0.12,
      0.14,
      0.16,
      0.18,
      0.2,
      0.22,
      0.23,
      0.25,
      0.26,
      0.28,
      0.29,
      0.31,
      0.32,
      0.34,
      0.35,
      0.37,
      0.38,
      0.4,
      0.4,
      0.41,
      0.41,
      0.42,
      0.42,
      0.43,
      0.43,
      0.44,
      0.44,
      0.45,
      0.45,
      0.45,
      0.46,
      0.46,
      0.47,
      0.47,
      0.48,
      0.48,
      0.49,
      0.49,
      0.5,
      0.5,
      0.5,
      0.51,
      0.51,
      0.52,
      0.52,
      0.53,
      0.5
    ],
    "ranged_boosts_60": [
      0.15,
      0.15,
      0.15,
      0.15,
      0.15,
      0.15,
      0.15,
      0.15,
      0.18,
      0.21,
      0.24,
      0.27,
      0.3,
      0.32,
      0.35,
      0.37,
      0.39,
      0.42,
      0.44,
      0.46,
      0.48,
      0.51,
      0.53,
      0.55,
      0.58,
      0.6,
      0.61,
      0.61,
      0.62,
      0.63,
      0.63,
      0.64,
      0.65,
      0.65,
      0.66,
      0.67,
      0.68,
      0.68,
      0.69,
      0.7,
      0.7,
      0.71,
      0.72,
      0.72,
      0.73,
      0.74,
      0.74,
      0.75,
      0.76,
      0.76,
      0.77,
      0.78,
      0.78,
      0.79,
      0.75
    ],
    "ranged_buff_def": [
      0.15,
      0.15,
      0.15,
      0.15,
      0.15,
      0.15,
      0.15,
      0.15,
      0.15,
      0.15,
      0.15,
      0.15,
      0.15,
      0.15,
      0.15,
      0.15,
      0.15,
      0.15,
      0.15,
      0.15,
      0.15,
      0.15,
      0.15,
      0.15,
      0.15,
      0.15,
      0.15,
      0.15,
      0.15,
      0.15,
      0.15,
      0.15,
      0.15,
      0.15,
      0.15,
      0.15,
      0.15,
      0.15,
      0.15,
      0.15,
      0.15,
      0.15,
      0.15,
      0.15,
      0.15,
      0.15,
      0.15,
      0.15,
      0.15,
      0.15,
      0.15,
      0.15,
      0.15,
      0.15,
      0.15
    ],
    "ranged_buff_dmg": [
      0.15,
      0.15,
      0.15,
      0.15,
      0.15,
      0.15,
      0.15,
      0.15,
      0.15,
      0.15,
      0.15,
      0.15,
      0.15,
      0.15,
      0.15,
      0.15,
      0.15,
      0.15,
      0.15,
      0.15,
      0.15,
      0.15,
      0.15,
      0.15,
      0.15,
      0.15,
      0.15,
      0.15,
      0.15,
      0.15,
      0.15,
      0.15,
      0.15,
      0.15,
      0.15,
      0.15,
      0.15,
      0.15,
      0.15,
      0.15,
      0.15,
      0.15,
      0.15,
      0.15,
      0.15,
      0.15,
      0.15,
      0.15,
      0.15,
      0.15,
      0.15,
      0.15,
      0.15,
      0.15,
      0.15
    ],
    "ranged_buff_maxhp": [
      15.0,
      16.575,
      18.27,
      20.0891,
      22.0364,
      24.1151,
      26.3284,
      28.6785,
      31.1672,
      33.7956,
      36.5641,
      39.4722,
      42.5185,
      45.7008,
      49.016,
      52.4598,
      56.0271,
      59.7116,
      63.5059,
      67.4016,
      71.3894,
      75.4585,
      79.5976,
      83.7941,
      88.0343,
      92.304,
      96.5878,
      100.8699,
      105.1335,
      109.3615,
      113.5363,
      117.6398,
      121.6539,
      125.5604,
      129.3409,
      132.9776,
      136.4528,
      139.7492,
      142.8503,
      145.7403,
      148.4042,
      150.8281,
      152.9993,
      154.9062,
      156.5386,
      157.8878,
      158.9466,
      159.7093,
      160.1719,
      160.6345,
      161.0971,
      161.5597,
      162.0223,
      162.4849,
      162.9475
    ],
    "ranged_buff_tohit": [
      0.15,
      0.15,
      0.15,
      0.15,
      0.15,
      0.15,
      0.15,
      0.15,
      0.15,
      0.15,
      0.15,
      0.15,
      0.15,
      0.15,
      0.15,
      0.15,
      0.15,
      0.15,
      0.15,
      0.15,
      0.15,
      0.15,
      0.15,
      0.15,
      0.15,
      0.15,
      0.15,
      0.15,
      0.15,
      0.15,
      0.15,
      0.15,
      0.15,
      0.15,
      0.15,
      0.15,
      0.15,
      0.15,
      0.15,
      0.15,
      0.15,
      0.15,
      0.15,
      0.15,
      0.15,
      0.15,
      0.15,
      0.15,
      0.15,
      0.15,
      0.15,
      0.15,
      0.15,
      0.15,
      0.15
    ],
    "ranged_control": [
      1.0,
      1.062,
      1.124,
      1.186,
      1.248,
      1.31,
      1.372,
      1.434,
      1.496,
      1.558,
      1.62,
      1.682,
      1.744,
      1.806,
      1.868,
      1.93,
      1.992,
      2.054,
      2.116,
      2.178,
      2.24,
      2.302,
      2.364,
      2.426,
      2.488,
      2.55,
      2.612,
      2.674,
      2.736,
      2.798,
      2.86,
      2.922,
      2.984,
      3.046,
      3.108,
      3.17,
      3.232,
      3.294,
      3.356,
      3.418,
      3.48,
      3.542,
      3.604,
      3.666,
      3.728,
      3.79,
      3.852,
      3.914,
      3.976,
      4.0,
      4.0,
      4.0,
      4.0,
      4.0,
      4.0
    ],
    "ranged_damage": [
      -0.405,
      -0.4848,
      -0.5755,
      -0.678,
      -0.7933,
      -0.9224,
      -1.0663,
      -1.226,
      -1.4025,
      -1.5208,
      -1.6454,
      -1.7762,
      -1.9133,
      -2.0565,
      -2.2057,
      -2.3607,
      -2.5212,
      -2.687,
      -2.8578,
      -3.0331,
      -3.2125,
      -3.3956,
      -3.5819,
      -3.7707,
      -3.9615,
      -4.1537,
      -4.3465,
      -4.5391,
      -4.731,
      -4.9213,
      -5.1091,
      -5.2938,
      -5.4744,
      -5.6502,
      -5.8203,
      -5.984,
      -6.1404,
      -6.2887,
      -6.4283,
      -6.5583,
      -6.6782,
      -6.7873,
      -6.885,
      -6.9708,
      -7.0442,
      -7.105,
      -7.1526,
      -7.1869,
      -7.2077,
      -7.2286,
      -7.2494,
      -7.2702,
      -7.291,
      -7.3118,
      -7.3326
    ],
    "ranged_debuff_dam": [
      -0.15,
      -0.15,
      -0.15,
      -0.15,
      -0.15,
      -0.15,
      -0.15,
      -0.15,
      -0.15,
      -0.15,
      -0.15,
      -0.15,
      -0.15,
      -0.15,
      -0.15,
      -0.15,
      -0.15,
      -0.15,
      -0.15,
      -0.15,
      -0.15,
      -0.15,
      -0.15,
      -0.15,
      -0.15,
      -0.15,
      -0.15,
      -0.15,
      -0.15,
      -0.15,
      -0.15,
      -0.15,
      -0.15,
      -0.15,
      -0.15,
      -0.15,
      -0.15,
      -0.15,
      -0.15,
      -0.15,
      -0.15,
      -0.15,
      -0.15,
      -0.15,
      -0.15,
      -0.15,
      -0.15,
      -0.15,
      -0.15,
      -0.15,
      -0.15,
      -0.15,
      -0.15,
      -0.15,
      -0.15
    ],
    "ranged_debuff_def": [
      -0.15,
      -0.15,
      -0.15,
      -0.15,
      -0.15,
      -0.15,
      -0.15,
      -0.15,
      -0.15,
      -0.15,
      -0.15,
      -0.15,
      -0.15,
      -0.15,
      -0.15,
      -0.15,
      -0.15,
      -0.15,
      -0.15,
      -0.15,
      -0.15,
      -0.15,
      -0.15,
      -0.15,
      -0.15,
      -0.15,
      -0.15,
      -0.15,
      -0.15,
      -0.15,
      -0.15,
      -0.15,
      -0.15,
      -0.15,
      -0.15,
      -0.15,
      -0.15,
      -0.15,
      -0.15,
      -0.15,
      -0.15,
      -0.15,
      -0.15,
      -0.15,
      -0.15,
      -0.15,
      -0.15,
      -0.15,
      -0.15,
      -0.15,
      -0.15,
      -0.15,
      -0.15,
      -0.15,
      -0.15
    ],
    "ranged_debuff_dmg": [
      -0.15,
      -0.15,
      -0.15,
      -0.15,
      -0.15,
      -0.15,
      -0.15,
      -0.15,
      -0.15,
      -0.15,
      -0.15,
      -0.15,
      -0.15,
      -0.15,
      -0.15,
      -0.15,
      -0.15,
      -0.15,
      -0.15,
      -0.15,
      -0.15,
      -0.15,
      -0.15,
      -0.15,
      -0.15,
      -0.15,
      -0.15,
      -0.15,
      -0.15,
      -0.15,
      -0.15,
      -0.15,
      -0.15,
      -0.15,
      -0.15,
      -0.15,
      -0.15,
      -0.15,
      -0.15,
      -0.15,
      -0.15,
      -0.15,
      -0.15,
      -0.15,
      -0.15,
      -0.15,
      -0.15,
      -0.15,
      -0.15,
      -0.15,
      -0.15,
      -0.15,
      -0.15,
      -0.15,
      -0.15
    ],
    "ranged_debuff_res_dmg": [
      0.15,
      0.15,
      0.15,
      0.15,
      0.15,
      0.15,
      0.15,
      0.15,
      0.15,
      0.15,
      0.15,
      0.15,
      0.15,
      0.15,
      0.15,
      0.15,
      0.15,
      0.15,
      0.15,
      0.15,
      0.15,
      0.15,
      0.15,
      0.15,
      0.15,
      0.15,
      0.15,
      0.15,
      0.15,
      0.15,
      0.15,
      0.15,
      0.15,
      0.15,
      0.15,
      0.15,
      0.15,
      0.15,
      0.15,
      0.15,
      0.15,
      0.15,
      0.15,
      0.15,
      0.15,
      0.15,
      0.15,
      0.15,
      0.15,
      0.15,
      0.15,
      0.15,
      0.15,
      0.15,
      0.15
    ],
    "ranged_debuff_tohit": [
      -0.15,
      -0.15,
      -0.15,
      -0.15,
      -0.15,
      -0.15,
      -0.15,
      -0.15,
      -0.15,
      -0.15,
      -0.15,
      -0.15,
      -0.15,
      -0.15,
      -0.15,
      -0.15,
      -0.15,
      -0.15,
      -0.15,
      -0.15,
      -0.15,
      -0.15,
      -0.15,
      -0.15,
      -0.15,
      -0.15,
      -0.15,
      -0.15,
      -0.15,
      -0.15,
      -0.15,
      -0.15,
      -0.15,
      -0.15,
      -0.15,
      -0.15,
      -0.15,
      -0.15,
      -0.15,
      -0.15,
      -0.15,
      -0.15,
      -0.15,
      -0.15,
      -0.15,
      -0.15,
      -0.15,
      -0.15,
      -0.15,
      -0.15,
      -0.15,
      -0.15,
      -0.15,
      -0.15,
      -0.15
    ],
    "ranged_enddrain": [
      0.3,
      0.3,
      0.3,
      0.3,
      0.3,
      0.3,
      0.3,
      0.3,
      0.3,
      0.3,
      0.3,
      0.3,
      0.3,
      0.3,
      0.3,
      0.3,
      0.3,
      0.3,
      0.3,
      0.3,
      0.3,
      0.3,
      0.3,
      0.3,
      0.3,
      0.3,
      0.3,
      0.3,
      0.3,
      0.3,
      0.3,
      0.3,
      0.3,
      0.3,
      0.3,
      0.3,
      0.3,
      0.3,
      0.3,
      0.3,
      0.3,
      0.3,
      0.3,
      0.3,
      0.3,
      0.3,
      0.3,
      0.3,
      0.3,
      0.3,
      0.3,
      0.3,
      0.3,
      0.3,
      0.3
    ],
    "ranged_fear": [
      4.0,
      4.04,
      4.08,
      4.12,
      4.16,
      4.2,
      4.24,
      4.28,
      4.32,
      4.36,
      4.4,
      4.44,
      4.48,
      4.52,
      4.56,
      4.6,
      4.64,
      4.68,
      4.72,
      4.76,
      4.8,
      4.84,
      4.88,
      4.92,
      4.96,
      5.0,
      5.04,
      5.08,
      5.12,
      5.16,
      5.2,
      5.24,
      5.28,
      5.32,
      5.36,
      5.4,
      5.44,
      5.48,
      5.52,
      5.56,
      5.6,
      5.64,
      5.68,
      5.72,
      5.76,
      5.8,
      5.84,
      5.88,
      5.92,
      5.96,
      6.0,
      6.04,
      6.08,
      6.12,
      6.16
    ],
    "ranged_friction": [
      1.0,
      1.062,
      1.124,
      1.186,
      1.248,
      1.31,
      1.372,
      1.434,
      1.496,
      1.558,
      1.62,
      1.682,
      1.744,
      1.806,
      1.868,
      1.93,
      1.992,
      2.054,
      2.116,
      2.178,
      2.24,
      2.302,
      2.364,
      2.426,
      2.488,
      2.55,
      2.612,
      2.674,
      2.736,
      2.798,
      2.86,
      2.922,
      2.984,
      3.046,
      3.108,
      3.17,
      3.232,
      3.294,
      3.356,
      3.418,
      3.48,
      3.542,
      3.604,
      3.666,
      3.728,
      3.79,
      3.852,
      3.914,
      3.976,
      4.0,
      4.0,
      4.0,
      4.0,
      4.0,
      4.0
    ],
    "ranged_heal": [
      3.5,
      3.8675,
      4.263,
      4.6875,
      5.1418,
      5.6269,
      6.1433,
      6.6916,
      7.2723,
      7.8856,
      8.5316,
      9.2102,
      9.921,
      10.6635,
      11.4371,
      12.2406,
      13.073,
      13.9327,
      14.818,
      15.727,
      16.6575,
      17.607,
      18.5728,
      19.5519,
      20.5413,
      21.5376,
      22.5372,
      23.5363,
      24.5312,
      25.5177,
      26.4918,
      27.4493,
      28.3859,
      29.2974,
      30.1796,
      31.0281,
      31.839,
      32.6081,
      33.3317,
      34.0061,
      34.6276,
      35.1932,
      35.6998,
      36.1448,
      36.5257,
      36.8405,
      37.0875,
      37.2655,
      37.3734,
      37.4814,
      37.5893,
      37.6973,
      37.8052,
      37.9132,
      38.0211
    ],
    "ranged_healself": [
      1000.0,
      1000.0,
      1000.0,
      1000.0,
      1000.0,
      1000.0,
      1000.0,
      1000.0,
      1000.0,
      1000.0,
      1000.0,
      1000.0,
      1000.0,
      1000.0,
      1000.0,
      1000.0,
      1000.0,
      1000.0,
      1000.0,
      1000.0,
      1000.0,
      1000.0,
      1000.0,
      1000.0,
      1000.0,
      1000.0,
      1000.0,
      1000.0,
      1000.0,
      1000.0,
      1000.0,
      1000.0,
      1000.0,
      1000.0,
      1000.0,
      1000.0,
      1000.0,
      1000.0,
      1000.0,
      1000.0,
      1000.0,
      1000.0,
      1000.0,
      1000.0,
      1000.0,
      1000.0,
      1000.0,
      1000.0,
      1000.0,
      1000.0,
      1000.0,
      1000.0,
      1000.0,
      1000.0,
      1000.0
    ],
    "ranged_immobilize": [
      3.0,
      3.03,
      3.06,
      3.09,
      3.12,
      3.15,
      3.18,
      3.21,
      3.24,
      3.27,
      3.3,
      3.33,
      3.36,
      3.39,
      3.42,
      3.45,
      3.48,
      3.51,
      3.54,
      3.57,
      3.6,
      3.63,
      3.66,
      3.69,
      3.72,
      3.75,
      3.78,
      3.81,
      3.84,
      3.87,
      3.9,
      3.93,
      3.96,
      3.99,
      4.02,
      4.05,
      4.08,
      4.11,
      4.14,
      4.17,
      4.2,
      4.23,
      4.26,
      4.29,
      4.32,
      4.35,
      4.38,
      4.41,
      4.44,
      4.47,
      4.5,
      4.53,
      4.56,
      4.59,
      4.62
    ],
    "ranged_inherenttaunt": [
      0.0,
      0.27,
      0.54,
      0.82,
      1.09,
      1.36,
      1.63,
      1.9,
      2.18,
      2.45,
      2.72,
      2.99,
      3.26,
      3.54,
      3.81,
      4.08,
      4.35,
      4.62,
      4.9,
      5.17,
      5.44,
      5.71,
      5.98,
      6.26,
      6.53,
      6.8,
      7.07,
      7.34,
      7.62,
      7.89,
      8.16,
      8.43,
      8.7,
      8.98,
      9.25,
      9.52,
      9.79,
      10.06,
      10.34,
      10.61,
      10.88,
      11.15,
      11.42,
      11.7,
      11.97,
      12.24,
      12.51,
      12.78,
      13.06,
      13.33,
      13.6,
      13.87,
      14.14,
      14.42,
      14.69
    ],
    "ranged_knockback": [
      1.0,
      1.0,
      1.0,
      1.0,
      1.0,
      1.0,
      1.0,
      1.0,
      1.0,
      1.0,
      1.0,
      1.0,
      1.0,
      1.0,
      1.0,
      1.0,
      1.0,
      1.0,
      1.0,
      1.0,
      1.0,
      1.0,
      1.0,
      1.0,
      1.0,
      1.0,
      1.0,
      1.0,
      1.0,
      1.0,
      1.0,
      1.0,
      1.0,
      1.0,
      1.0,
      1.0,
      1.0,
      1.0,
      1.0,
      1.0,
      1.0,
      1.0,
      1.0,
      1.0,
      1.0,
      1.0,
      1.0,
      1.0,
      1.0,
      1.0,
      1.0,
      1.0,
      1.0,
      1.0,
      1.0
    ],
    "ranged_leap": [
      18.0,
      18.2,
      18.4,
      18.6,
      18.8,
      19.0,
      19.2,
      19.4,
      19.6,
      19.8,
      20.0,
      20.2,
      20.4,
      20.6,
      20.8,
      21.0,
      21.2,
      21.4,
      21.6,
      21.8,
      22.0,
      22.2,
      22.4,
      22.6,
      22.8,
      23.0,
      23.2,
      23.4,
      23.6,
      23.8,
      24.0,
      24.2,
      24.4,
      24.6,
      24.8,
      25.0,
      25.2,
      25.4,
      25.6,
      25.8,
      26.0,
      26.2,
      26.4,
      26.6,
      26.8,
      27.0,
      27.2,
      27.4,
      27.6,
      27.8,
      28.0,
      28.2,
      28.4,
      28.6,
      28.8
    ],
    "ranged_level": [
      1.0,
      2.0,
      3.0,
      4.0,
      5.0,
      6.0,
      7.0,
      8.0,
      9.0,
      10.0,
      11.0,
      12.0,
      13.0,
      14.0,
      15.0,
      16.0,
      17.0,
      18.0,
      19.0,
      20.0,
      21.0,
      22.0,
      23.0,
      24.0,
      25.0,
      26.0,
      27.0,
      28.0,
      29.0,
      30.0,
      31.0,
      32.0,
      33.0,
      34.0,
      35.0,
      36.0,
      37.0,
      38.0,
      39.0,
      40.0,
      41.0,
      42.0,
      43.0,
      44.0,
      45.0,
      46.0,
      47.0,
      48.0,
      49.0,
      50.0,
      51.0,
      52.0,
      53.0,
      54.0,
      55.0
    ],
    "ranged_levelminus": [
      1.0,
      2.0,
      3.0,
      4.0,
      5.0,
      6.0,
      7.0,
      8.0,
      9.0,
      10.0,
      11.0,
      12.0,
      13.0,
      14.0,
      15.0,
      16.0,
      17.0,
      18.0,
      19.0,
      20.0,
      21.0,
      22.0,
      23.0,
      23.0,
      24.0,
      25.0,
      26.0,
      27.0,
      28.0,
      29.0,
      30.0,
      31.0,
      32.0,
      33.0,
      34.0,
      35.0,
      36.0,
      37.0,
      38.0,
      39.0,
      40.0,
      41.0,
      42.0,
      43.0,
      44.0,
      45.0,
      46.0,
      47.0,
      48.0,
      49.0,
      50.0,
      51.0,
      52.0,
      53.0,
      54.0
    ],
    "ranged_levelminus2": [
      1.0,
      2.0,
      3.0,
      4.0,
      5.0,
      5.0,
      6.0,
      7.0,
      8.0,
      9.0,
      10.0,
      11.0,
      12.0,
      13.0,
      14.0,
      15.0,
      16.0,
      16.0,
      17.0,
      18.0,
      19.0,
      20.0,
      21.0,
      22.0,
      23.0,
      24.0,
      25.0,
      26.0,
      27.0,
      28.0,
      29.0,
      30.0,
      31.0,
      32.0,
      33.0,
      34.0,
      35.0,
      36.0,
      37.0,
      38.0,
      39.0,
      40.0,
      41.0,
      42.0,
      43.0,
      44.0,
      45.0,
      46.0,
      47.0,
      48.0,
      49.0,
      50.0,
      51.0,
      52.0,
      53.0
    ],
    "ranged_levelplus": [
      2.0,
      3.0,
      4.0,
      5.0,
      6.0,
      7.0,
      8.0,
      9.0,
      10.0,
      11.0,
      12.0,
      13.0,
      14.0,
      15.0,
      16.0,
      17.0,
      18.0,
      19.0,
      20.0,
      21.0,
      22.0,
      23.0,
      24.0,
      25.0,
      26.0,
      27.0,
      28.0,
      29.0,
      30.0,
      31.0,
      32.0,
      33.0,
      34.0,
      35.0,
      36.0,
      37.0,
      38.0,
      39.0,
      40.0,
      41.0,
      42.0,
      43.0,
      44.0,
      45.0,
      46.0,
      47.0,
      48.0,
      49.0,
      50.0,
      51.0,
      52.0,
      53.0,
      54.0,
      55.0,
      56.0
    ],
    "ranged_ones": [
      1.0,
      1.0,
      1.0,
      1.0,
      1.0,
      1.0,
      1.0,
      1.0,
      1.0,
      1.0,
      1.0,
      1.0,
      1.0,
      1.0,
      1.0,
      1.0,
      1.0,
      1.0,
      1.0,
      1.0,
      1.0,
      1.0,
      1.0,
      1.0,
      1.0,
      1.0,
      1.0,
      1.0,
      1.0,
      1.0,
      1.0,
      1.0,
      1.0,
      1.0,
      1.0,
      1.0,
      1.0,
      1.0,
      1.0,
      1.0,
      1.0,
      1.0,
      1.0,
      1.0,
      1.0,
      1.0,
      1.0,
      1.0,
      1.0,
      1.0,
      1.0,
      1.0,
      1.0,
      1.0,
      1.0
    ],
    "ranged_res_boolean": [
      0.225,
      0.231,
      0.237,
      0.243,
      0.249,
      0.255,
      0.261,
      0.267,
      0.273,
      0.279,
      0.285,
      0.291,
      0.297,
      0.303,
      0.309,
      0.315,
      0.321,
      0.327,
      0.333,
      0.339,
      0.345,
      0.351,
      0.357,
      0.363,
      0.369,
      0.375,
      0.381,
      0.387,
      0.393,
      0.399,
      0.405,
      0.411,
      0.417,
      0.423,
      0.429,
      0.435,
      0.441,
      0.447,
      0.453,
      0.459,
      0.465,
      0.471,
      0.477,
      0.483,
      0.489,
      0.495,
      0.501,
      0.507,
      0.513,
      0.519,
      0.525,
      0.531,
      0.537,
      0.543,
      0.549
    ],
    "ranged_res_dmg": [
      0.15,
      0.15,
      0.15,
      0.15,
      0.15,
      0.15,
      0.15,
      0.15,
      0.15,
      0.15,
      0.15,
      0.15,
      0.15,
      0.15,
      0.15,
      0.15,
      0.15,
      0.15,
      0.15,
      0.15,
      0.15,
      0.15,
      0.15,
      0.15,
      0.15,
      0.15,
      0.15,
      0.15,
      0.15,
      0.15,
      0.15,
      0.15,
      0.15,
      0.15,
      0.15,
      0.15,
      0.15,
      0.15,
      0.15,
      0.15,
      0.15,
      0.15,
      0.15,
      0.15,
      0.15,
      0.15,
      0.15,
      0.15,
      0.15,
      0.15,
      0.15,
      0.15,
      0.15,
      0.15,
      0.15
    ],
    "ranged_sleep": [
      1.5,
      1.515,
      1.53,
      1.545,
      1.56,
      1.575,
      1.59,
      1.605,
      1.62,
      1.635,
      1.65,
      1.665,
      1.68,
      1.695,
      1.71,
      1.725,
      1.74,
      1.755,
      1.77,
      1.785,
      1.8,
      1.815,
      1.83,
      1.845,
      1.86,
      1.875,
      1.89,
      1.905,
      1.92,
      1.935,
      1.95,
      1.965,
      1.98,
      1.995,
      2.01,
      2.025,
      2.04,
      2.055,
      2.07,
      2.085,
      2.1,
      2.115,
      2.13,
      2.145,
      2.16,
      2.175,
      2.19,
      2.205,
      2.22,
      2.235,
      2.25,
      2.265,
      2.28,
      2.295,
      2.31
    ],
    "ranged_slow": [
      -3.0,
      -3.0,
      -3.0,
      -3.0,
      -3.0,
      -3.0,
      -3.0,
      -3.0,
      -3.0,
      -3.0,
      -3.0,
      -3.0,
      -3.0,
      -3.0,
      -3.0,
      -3.0,
      -3.0,
      -3.0,
      -3.0,
      -3.0,
      -3.0,
      -3.0,
      -3.0,
      -3.0,
      -3.0,
      -3.0,
      -3.0,
      -3.0,
      -3.0,
      -3.0,
      -3.0,
      -3.0,
      -3.0,
      -3.0,
      -3.0,
      -3.0,
      -3.0,
      -3.0,
      -3.0,
      -3.0,
      -3.0,
      -3.0,
      -3.0,
      -3.0,
      -3.0,
      -3.0,
      -3.0,
      -3.0,
      -3.0,
      -3.0,
      -3.0,
      -3.0,
      -3.0,
      -3.0,
      -3.0
    ],
    "ranged_special": [
      3.0,
      3.03,
      3.06,
      3.09,
      3.12,
      3.15,
      3.18,
      3.21,
      3.24,
      3.27,
      3.3,
      3.33,
      3.36,
      3.39,
      3.42,
      3.45,
      3.48,
      3.51,
      3.54,
      3.57,
      3.6,
      3.63,
      3.66,
      3.69,
      3.72,
      3.75,
      3.78,
      3.81,
      3.84,
      3.87,
      3.9,
      3.93,
      3.96,
      3.99,
      4.02,
      4.05,
      4.08,
      4.11,
      4.14,
      4.17,
      4.2,
      4.23,
      4.26,
      4.29,
      4.32,
      4.35,
      4.38,
      4.41,
      4.44,
      4.47,
      4.5,
      4.53,
      4.56,
      4.59,
      4.62
    ],
    "ranged_speedflying": [
      0.875,
      0.885,
      0.895,
      0.905,
      0.915,
      0.925,
      0.935,
      0.945,
      0.955,
      0.965,
      0.975,
      0.985,
      0.995,
      1.005,
      1.015,
      1.025,
      1.035,
      1.045,
      1.055,
      1.065,
      1.075,
      1.085,
      1.095,
      1.105,
      1.115,
      1.125,
      1.135,
      1.145,
      1.155,
      1.165,
      1.175,
      1.185,
      1.195,
      1.205,
      1.215,
      1.225,
      1.235,
      1.245,
      1.255,
      1.265,
      1.275,
      1.285,
      1.295,
      1.305,
      1.315,
      1.325,
      1.335,
      1.345,
      1.355,
      1.365,
      1.38,
      1.39,
      1.4,
      1.41,
      1.42
    ],
    "ranged_speedjumping": [
      2.0,
      2.01,
      2.02,
      2.03,
      2.04,
      2.05,
      2.06,
      2.07,
      2.08,
      2.09,
      2.1,
      2.11,
      2.12,
      2.13,
      2.14,
      2.15,
      2.16,
      2.17,
      2.18,
      2.19,
      2.2,
      2.21,
      2.22,
      2.23,
      2.24,
      2.25,
      2.26,
      2.27,
      2.28,
      2.29,
      2.3,
      2.31,
      2.32,
      2.33,
      2.34,
      2.35,
      2.36,
      2.37,
      2.38,
      2.39,
      2.4,
      2.41,
      2.42,
      2.43,
      2.44,
      2.45,
      2.46,
      2.47,
      2.48,
      2.49,
      2.5,
      2.51,
      2.52,
      2.53,
      2.54
    ],
    "ranged_speedrunning": [
      2.5,
      2.5205,
      2.541,
      2.5615,
      2.582,
      2.6025,
      2.623,
      2.6435,
      2.664,
      2.6845,
      2.705,
      2.7255,
      2.746,
      2.7665,
      2.787,
      2.8075,
      2.828,
      2.8485,
      2.869,
      2.8895,
      2.91,
      2.9305,
      2.951,
      2.9715,
      2.992,
      3.0125,
      3.033,
      3.0535,
      3.074,
      3.0945,
      3.115,
      3.1355,
      3.156,
      3.1765,
      3.197,
      3.2175,
      3.238,
      3.2585,
      3.279,
      3.2995,
      3.32,
      3.3405,
      3.361,
      3.3815,
      3.402,
      3.4225,
      3.443,
      3.4635,
      3.484,
      3.5,
      3.5,
      3.5,
      3.5,
      3.5,
      3.5
    ],
    "ranged_speedswimming": [
      0.5,
      0.51,
      0.52,
      0.53,
      0.54,
      0.55,
      0.56,
      0.57,
      0.58,
      0.59,
      0.6,
      0.61,
      0.62,
      0.63,
      0.64,
      0.65,
      0.66,
      0.67,
      0.68,
      0.69,
      0.7,
      0.71,
      0.72,
      0.73,
      0.74,
      0.75,
      0.76,
      0.77,
      0.78,
      0.79,
      0.8,
      0.81,
      0.82,
      0.83,
      0.84,
      0.85,
      0.86,
      0.87,
      0.88,
      0.89,
      0.9,
      0.91,
      0.92,
      0.93,
      0.94,
      0.95,
      0.96,
      0.97,
      0.98,
      0.99,
      1.0,
      1.0,
      1.0,
      1.0,
      1.0
    ],
    "ranged_stun": [
      3.0,
      3.03,
      3.06,
      3.09,
      3.12,
      3.15,
      3.18,
      3.21,
      3.24,
      3.27,
      3.3,
      3.33,
      3.36,
      3.39,
      3.42,
      3.45,
      3.48,
      3.51,
      3.54,
      3.57,
      3.6,
      3.63,
      3.66,
      3.69,
      3.72,
      3.75,
      3.78,
      3.81,
      3.84,
      3.87,
      3.9,
      3.93,
      3.96,
      3.99,
      4.02,
      4.05,
      4.08,
      4.11,
      4.14,
      4.17,
      4.2,
      4.23,
      4.26,
      4.29,
      4.32,
      4.35,
      4.38,
      4.41,
      4.44,
      4.47,
      4.5,
      4.53,
      4.56,
      4.59,
      4.62
    ],
    "ranged_taunt": [
      1.0,
      1.02,
      1.04,
      1.06,
      1.09,
      1.11,
      1.13,
      1.15,
      1.17,
      1.19,
      1.22,
      1.24,
      1.26,
      1.28,
      1.3,
      1.32,
      1.34,
      1.37,
      1.39,
      1.41,
      1.43,
      1.45,
      1.47,
      1.49,
      1.52,
      1.54,
      1.56,
      1.58,
      1.6,
      1.62,
      1.65,
      1.67,
      1.69,
      1.71,
      1.73,
      1.75,
      1.77,
      1.8,
      1.82,
      1.84,
      1.86,
      1.88,
      1.9,
      1.92,
      1.95,
      1.97,
      1.99,
      2.01,
      2.03,
      2.05,
      2.08,
      2.1,
      2.12,
      2.14,
      2.16
    ],
    "ranged_tempdamage": [
      -10.0,
      -11.05,
      -12.18,
      -13.3928,
      -14.6909,
      -16.0768,
      -17.5522,
      -19.119,
      -20.7781,
      -22.5304,
      -24.3761,
      -26.3148,
      -28.3457,
      -30.4672,
      -32.6773,
      -34.9732,
      -37.3514,
      -39.8077,
      -42.3372,
      -44.9344,
      -47.5929,
      -50.3057,
      -53.0651,
      -55.8627,
      -58.6895,
      -61.536,
      -64.3919,
      -67.2466,
      -70.089,
      -72.9077,
      -75.6909,
      -78.4265,
      -81.1026,
      -83.7069,
      -86.2273,
      -88.6518,
      -90.9685,
      -93.1661,
      -95.2335,
      -97.1602,
      -98.9361,
      -100.5521,
      -101.9995,
      -103.2708,
      -104.3591,
      -105.2585,
      -105.9644,
      -106.4729,
      -106.7813,
      -107.0897,
      -107.3981,
      -107.7065,
      -108.0149,
      -108.3233,
      -108.6317
    ]
  }
}