{
  "base_perception": 149.0,
  "named_tables": {
    "default": [
      1.0,
      1.0,
      1.0,
      1.0,
      1.0,
      1.0,
      1.0,
      1.0,
      1.0,
      1.0,
      1.0,
      1.0,
      1.0,
      1.0,
      1.0,
      1.0,
      1.0,
      1.0,
      1.0,
      1.0,
      1.0,
      1.0,
      1.0,
      1.0,
      1.0,
      1.0,
      1.0,
      1.0,
      1.0,
      1.0,
      1.0,
      1.0,
      1.0,
      1.0,
      1.0,
      1.0,
      1.0,
      1.0,
      1.0,
      1.0,
      1.0,
      1.0,
      1.0,
      1.0,
      1.0,
      1.0,
      1.0,
      1.0,
      1.0,
      1.0,
      1.0,
      1.0,
      1.0,
      1.0,
      1.0
    ],
    "melee_archvillain_res": [
      0.6,
      0.61,
      0.61,
      0.62,
      0.62,
      0.63,
      0.63,
      0.64,
      0.64,
      0.65,
      0.65,
      0.66,
      0.66,
      0.67,
      0.67,
      0.68,
      0.68,
      0.69,
      0.69,
      0.7,
      0.7,
      0.71,
      0.71,
      0.72,
      0.72,
      0.73,
      0.73,
      0.74,
      0.74,
      0.75,
      0.75,
      0.76,
      0.76,
      0.77,
      0.77,
      0.78,
      0.78,
      0.79,
      0.79,
      0.8,
      0.8,
      0.81,
      0.81,
      0.82,
      0.82,
      0.83,
      0.83,
      0.84,
      0.84,
      0.85,
      0.85,
      0.86,
      0.86,
      0.87,
      0.87
    ],
    "melee_boosts_20": [
      0.05,
      0.05,
      0.05,
      0.05,
      0.05,
      0.05,
      0.05,
      0.05,
      0.06,
      0.07,
      0.08,
      0.09,
      0.1,
      0.11,
      0.12,
      0.12,
      0.13,
      0.14,
      0.15,
      0.15,
      0.16,
      0.17,
      0.18,
      0.18,
      0.19,
      0.2,
      0.2,
      0.2,
      0.21,
      0.21,
      0.21,
      0.21,
      0.22,
      0.22,
      0.22,
      0.22,
      0.23,
      0.23,
      0.23,
      0.23,
      0.23,
      0.24,
      0.24,
      0.24,
      0.24,
      0.25,
      0.25,
      0.25,
      0.25,
      0.25,
      0.26,
      0.26,
      0.26,
      0.26,
      0.25
    ],
    "melee_boosts_33": [
      0.08,
      0.08,
      0.08,
      0.08,
      0.08,
      0.08,
      0.08,
      0.08,
      0.1,
      0.12,
      0.13,
      0.15,
      0.17,
      0.18,
      0.19,
      0.2,
      0.22,
      0.23,
      0.24,
      0.26,
      0.27,
      0.28,
      0.29,
      0.31,
      0.32,
      0.33,
      0.34,
      0.34,
      0.34,
      0.35,
      0.35,
      0.36,
      0.36,
      0.36,
      0.37,
      0.37,
      0.37,
      0.38,
      0.38,
      0.39,
      0.39,
      0.39,
      0.4,
      0.4,
      0.4,
      0.41,
      0.41,
      0.42,
      0.42,
      0.42,
      0.43,
      0.43,
      0.44,
      0.44,
      0.4
    ],
    "melee_boosts_40": [
      0.1,
      0.1,
      0.1,
      0.1,
      0.1,
      0.1,
      0.1,
      0.1,
      0.12,
      0.14,
      0.16,
      0.18,
      0.2,
      0.22,
      0.23,
      0.25,
      0.26,
      0.28,
      0.29,
      0.31,
      0.32,
      0.34,
      0.35,
      0.37,
      0.38,
      0.4,
      0.4,
      0.41,
      0.41,
      0.42,
      0.42,
      0.43,
      0.43,
      0.44,
      0.44,
      0.45,
      0.45,
      0.45,
      0.46,
      0.46,
      0.47,
      0.47,
      0.48,
      0.48,
      0.49,
      0.49,
      0.5,
      0.5,
      0.5,
      0.51,
      0.51,
      0.52,
      0.52,
      0.53,
      0.5
    ],
    "melee_boosts_60": [
      0.15,
      0.15,
      0.15,
      0.15,
      0.15,
      0.15,
      0.15,
      0.15,
      0.18,
      0.21,
      0.24,
      0.27,
      0.3,
      0.32,
      0.35,
      0.37,
      0.39,
      0.42,
      0.44,
      0.46,
      0.48,
      0.51,
      0.53,
      0.55,
      0.58,
      0.6,
      0.61,
      0.61,
      0.62,
      0.63,
      0.63,
      0.64,
      0.65,
      0.65,
      0.66,
      0.67,
      0.68,
      0.68,
      0.69,
      0.7,
      0.7,
      0.71,
      0.72,
      0.72,
      0.73,
      0.74,
      0.74,
      0.75,
      0.76,
      0.76,
      0.77,
      0.78,
      0.78,
      0.79,
      0.75
    ],
    "melee_buff_def": [
      0.05,
      0.05,
      0.05,
      0.05,
      0.05,
      0.05,
      0.05,
      0.05,
      0.05,
      0.05,
      0.05,
      0.05,
      0.05,
      0.05,
      0.05,
      0.05,
      0.05,
      0.05,
      0.05,
      0.05,
      0.05,
      0.05,
      0.05,
      0.05,
      0.05,
      0.05,
      0.05,
      0.05,
      0.05,
      0.05,
      0.05,
      0.05,
      0.05,
      0.05,
      0.05,
      0.05,
      0.05,
      0.05,
      0.05,
      0.05,
      0.05,
      0.05,
      0.05,
      0.05,
      0.05,
      0.05,
      0.05,
      0.05,
      0.05,
      0.05,
      0.05,
      0.05,
      0.05,
      0.05,
      0.05
    ],
    "melee_buff_dmg": [
      0.05,
      0.05,
      0.05,
      0.05,
      0.05,
      0.05,
      0.05,
      0.05,
      0.05,
      0.05,
      0.05,
      0.05,
      0.05,
      0.05,
      0.05,
      0.05,
      0.05,
      0.05,
      0.05,
      0.05,
      0.05,
      0.05,
      0.05,
      0.05,
      0.05,
      0.05,
      0.05,
      0.05,
      0.05,
      0.05,
      0.05,
      0.05,
      0.05,
      0.05,
      0.05,
      0.05,
      0.05,
      0.05,
      0.05,
      0.05,
      0.05,
      0.05,
      0.05,
      0.05,
      0.05,
      0.05,
      0.05,
      0.05,
      0.05,
      0.05,
      0.05,
      0.05,
      0.05,
      0.05,
      0.05
    ],
    "melee_buff_maxhp": [
      5.0,
      5.53,
      6.09,
      6.7,
      7.35,
      8.04,
      8.78,
      9.56,
      10.39,
      11.27,
      12.19,
      13.16,
      14.17,
      15.23,
      16.34,
      17.49,
      18.68,
      19.9,
      21.17,
      22.47,
      23.8,
      25.15,
      26.53,
      27.93,
      29.34,
      30.77,
      32.2,
      33.62,
      35.04,
      36.45,
      37.85,
      39.21,
      40.55,
      41.85,
      43.11,
      44.33,
      45.48,
      46.58,
      47.62,
      48.58,
      49.47,
      50.28,
      51.0,
      51.64,
      52.18,
      52.63,
      52.98,
      53.24,
      53.39,
      53.54,
      53.7,
      53.85,
      54.01,
      54.16,
      54.32
    ],
    "melee_buff_tohit": [
      0.05,
      0.05,
      0.05,
      0.05,
      0.05,
      0.05,
      0.05,
      0.05,
      0.05,
      0.05,
      0.05,
      0.05,
      0.05,
      0.05,
      0.05,
      0.05,
      0.05,
      0.05,
      0.05,
      0.05,
      0.05,
      0.05,
      0.05,
      0.05,
      0.05,
      0.05,
      0.05,
      0.05,
      0.05,
      0.05,
      0.05,
      0.05,
      0.05,
      0.05,
      0.05,
      0.05,
      0.05,
      0.05,
      0.05,
      0.05,
      0.05,
      0.05,
      0.05,
      0.05,
      0.05,
      0.05,
      0.05,
      0.05,
      0.05,
      0.05,
      0.05,
      0.05,
      0.05,
      0.05,
      0.05
    ],
    "melee_control": [
      1.0,
      1.06,
      1.12,
      1.19,
      1.25,
      1.31,
      1.37,
      1.43,
      1.5,
      1.56,
      1.62,
      1.68,
      1.74,
      1.81,
      1.87,
      1.93,
      1.99,
      2.05,
      2.12,
      2.18,
      2.24,
      2.3,
      2.36,
      2.43,
      2.49,
      2.55,
      2.61,
      2.67,
      2.74,
      2.8,
      2.86,
      2.92,
      2.98,
      3.05,
      3.11,
      3.17,
      3.23,
      3.29,
      3.36,
      3.42,
      3.48,
      3.54,
      3.6,
      3.67,
      3.73,
      3.79,
      3.85,
      3.91,
      3.98,
      4.0,
      4.0,
      4.0,
      4.0,
      4.0,
      4.0
    ],
    "melee_damage": [
      -4.725,
      -5.6562,
      -6.7142,
      -7.9101,
      -9.2553,
      -10.7614,
      -12.4402,
      -14.3034,
      -16.3628,
      -17.7427,
      -19.1962,
      -20.7229,
      -22.3222,
      -23.9929,
      -25.7334,
      -27.5414,
      -29.4142,
      -31.3486,
      -33.3406,
      -35.3858,
      -37.4794,
      -39.6157,
      -41.7888,
      -43.9919,
      -46.218,
      -48.4596,
      -50.7086,
      -52.9567,
      -55.1951,
      -57.4148,
      -59.6065,
      -61.7609,
      -63.8683,
      -65.9192,
      -67.904,
      -69.8133,
      -71.6377,
      -73.3683,
      -74.9964,
      -76.5136,
      -77.9122,
      -79.1848,
      -80.3246,
      -81.3257,
      -82.1828,
      -82.8911,
      -83.447,
      -83.8474,
      -84.0902,
      -84.3331,
      -84.576,
      -84.8189,
      -85.0617,
      -85.3046,
      -85.5475
    ],
    "melee_debuff_dam": [
      -0.05,
      -0.05,
      -0.05,
      -0.05,
      -0.05,
      -0.05,
      -0.05,
      -0.05,
      -0.05,
      -0.05,
      -0.05,
      -0.05,
      -0.05,
      -0.05,
      -0.05,
      -0.05,
      -0.05,
      -0.05,
      -0.05,
      -0.05,
      -0.05,
      -0.05,
      -0.05,
      -0.05,
      -0.05,
      -0.05,
      -0.05,
      -0.05,
      -0.05,
      -0.05,
      -0.05,
      -0.05,
      -0.05,
      -0.05,
      -0.05,
      -0.05,
      -0.05,
      -0.05,
      -0.05,
      -0.05,
      -0.05,
      -0.05,
      -0.05,
      -0.05,
      -0.05,
      -0.05,
      -0.05,
      -0.05,
      -0.05,
      -0.05,
      -0.05,
      -0.05,
      -0.05,
      -0.05,
      -0.05
    ],
    "melee_debuff_def": [
      -0.05,
      -0.05,
      -0.05,
      -0.05,
      -0.05,
      -0.05,
      -0.05,
      -0.05,
      -0.05,
      -0.05,
      -0.05,
      -0.05,
      -0.05,
      -0.05,
      -0.05,
      -0.05,
      -0.05,
      -0.05,
      -0.05,
      -0.05,
      -0.05,
      -0.05,
      -0.05,
      -0.05,
      -0.05,
      -0.05,
      -0.05,
      -0.05,
      -0.05,
      -0.05,
      -0.05,
      -0.05,
      -0.05,
      -0.05,
      -0.05,
      -0.05,
      -0.05,
      -0.05,
      -0.05,
      -0.05,
      -0.05,
      -0.05,
      -0.05,
      -0.05,
      -0.05,
      -0.05,
      -0.05,
      -0.05,
      -0.05,
      -0.05,
      -0.05,
      -0.05,
      -0.05,
      -0.05,
      -0.05
    ],
    "melee_debuff_res_dmg": [
      0.05,
      0.05,
      0.05,
      0.05,
      0.05,
      0.05,
      0.05,
      0.05,
      0.05,
      0.05,
      0.05,
      0.05,
      0.05,
      0.05,
      0.05,
      0.05,
      0.05,
      0.05,
      0.05,
      0.05,
      0.05,
      0.05,
      0.05,
      0.05,
      0.05,
      0.05,
      0.05,
      0.05,
      0.05,
      0.05,
      0.05,
      0.05,
      0.05,
      0.05,
      0.05,
      0.05,
      0.05,
      0.05,
      0.05,
      0.05,
      0.05,
      0.05,
      0.05,
      0.05,
      0.05,
      0.05,
      0.05,
      0.05,
      0.05,
      0.05,
      0.05,
      0.05,
      0.05,
      0.05,
      0.05
    ],
    "melee_debuff_tohit": [
      -0.05,
      -0.05,
      -0.05,
      -0.05,
      -0.05,
      -0.05,
      -0.05,
      -0.05,
      -0.05,
      -0.05,
      -0.05,
      -0.05,
      -0.05,
      -0.05,
      -0.05,
      -0.05,
      -0.05,
      -0.05,
      -0.05,
      -0.05,
      -0.05,
      -0.05,
      -0.05,
      -0.05,
      -0.05,
      -0.05,
      -0.05,
      -0.05,
      -0.05,
      -0.05,
      -0.05,
      -0.05,
      -0.05,
      -0.05,
      -0.05,
      -0.05,
      -0.05,
      -0.05,
      -0.05,
      -0.05,
      -0.05,
      -0.05,
      -0.05,
      -0.05,
      -0.05,
      -0.05,
      -0.05,
      -0.05,
      -0.05,
      -0.05,
      -0.05,
      -0.05,
      -0.05,
      -0.05,
      -0.05
    ],
    "melee_enddrain": [
      0.2,
      0.2,
      0.2,
      0.2,
      0.2,
      0.2,
      0.2,
      0.2,
      0.2,
      0.2,
      0.2,
      0.2,
      0.2,
      0.2,
      0.2,
      0.2,
      0.2,
      0.2,
      0.2,
      0.2,
      0.2,
      0.2,
      0.2,
      0.2,
      0.2,
      0.2,
      0.2,
      0.2,
      0.2,
      0.2,
      0.2,
      0.2,
      0.2,
      0.2,
      0.2,
      0.2,
      0.2,
      0.2,
      0.2,
      0.2,
      0.2,
      0.2,
      0.2,
      0.2,
      0.2,
      0.2,
      0.2,
      0.2,
      0.2,
      0.2,
      0.2,
      0.2,
      0.2,
      0.2,
      0.2
    ],
    "melee_fear": [
      0.2,
      0.2,
      0.2,
      0.21,
      0.21,
      0.21,
      0.21,
      0.21,
      0.22,
      0.22,
      0.22,
      0.22,
      0.22,
      0.23,
      0.23,
      0.23,
      0.23,
      0.23,
      0.24,
      0.24,
      0.24,
      0.24,
      0.24,
      0.25,
      0.25,
      0.25,
      0.25,
      0.25,
      0.26,
      0.26,
      0.26,
      0.26,
      0.26,
      0.27,
      0.27,
      0.27,
      0.27,
      0.27,
      0.28,
      0.28,
      0.28,
      0.28,
      0.28,
      0.29,
      0.29,
      0.29,
      0.29,
      0.29,
      0.3,
      0.3,
      0.3,
      0.3,
      0.3,
      0.31,
      0.31
    ],
    "melee_friction": [
      1.0,
      1.06,
      1.12,
      1.19,
      1.25,
      1.31,
      1.37,
      1.43,
      1.5,
      1.56,
      1.62,
      1.68,
      1.74,
      1.81,
      1.87,
      1.93,
      1.99,
      2.05,
      2.12,
      2.18,
      2.24,
      2.3,
      2.36,
      2.43,
      2.49,
      2.55,
      2.61,
      2.67,
      2.74,
      2.8,
      2.86,
      2.92,
      2.98,
      3.05,
      3.11,
      3.17,
      3.23,
      3.29,
      3.36,
      3.42,
      3.48,
      3.54,
      3.6,
      3.67,
      3.73,
      3.79,
      3.85,
      3.91,
      3.98,
      4.0,
      4.0,
      4.0,
      4.0,
      4.0,
      4.0
    ],
    "melee_heal": [
      3.5,
      3.87,
      4.26,
      4.69,
      5.14,
      5.63,
      6.14,
      6.69,
      7.27,
      7.89,
      8.53,
      9.21,
      9.92,
      10.66,
      11.44,
      12.24,
      13.07,
      13.93,
      14.82,
      15.73,
      16.66,
      17.61,
      18.57,
      19.55,
      20.54,
      21.54,
      22.54,
      23.54,
      24.53,
      25.52,
      26.49,
      27.45,
      28.39,
      29.3,
      30.18,
      31.03,
      31.84,
      32.61,
      33.33,
      34.01,
      34.63,
      35.19,
      35.7,
      36.14,
      36.53,
      36.84,
      37.09,
      37.27,
      37.37,
      37.48,
      37.59,
      37.7,
      37.81,
      37.91,
      38.02
    ],
    "melee_healself": [
      0.93,
      1.31,
      1.76,
      2.01,
      2.2,
      2.41,
      2.63,
      2.87,
      3.12,
      3.38,
      3.66,
      3.95,
      4.25,
      4.57,
      4.9,
      5.25,
      5.6,
      5.97,
      6.35,
      6.74,
      7.14,
      7.55,
      7.96,
      8.38,
      8.8,
      9.23,
      9.66,
      10.09,
      10.51,
      10.94,
      11.35,
      11.76,
      12.17,
      12.56,
      12.93,
      13.3,
      13.65,
      13.97,
      14.29,
      14.57,
      14.84,
      15.08,
      15.3,
      15.49,
      15.65,
      15.79,
      15.89,
      15.97,
      16.02,
      16.06,
      16.11,
      16.16,
      16.2,
      16.25,
      16.29
    ],
    "melee_immobilize": [
      0.2,
      0.2,
      0.2,
      0.21,
      0.21,
      0.21,
      0.21,
      0.21,
      0.22,
      0.22,
      0.22,
      0.22,
      0.22,
      0.23,
      0.23,
      0.23,
      0.23,
      0.23,
      0.24,
      0.24,
      0.24,
      0.24,
      0.24,
      0.25,
      0.25,
      0.25,
      0.25,
      0.25,
      0.26,
      0.26,
      0.26,
      0.26,
      0.26,
      0.27,
      0.27,
      0.27,
      0.27,
      0.27,
      0.28,
      0.28,
      0.28,
      0.28,
      0.28,
      0.29,
      0.29,
      0.29,
      0.29,
      0.29,
      0.3,
      0.3,
      0.3,
      0.3,
      0.3,
      0.31,
      0.31
    ],
    "melee_inherenttaunt": [
      0.27,
      0.54,
      0.82,
      1.09,
      1.36,
      1.63,
      1.9,
      2.18,
      2.45,
      2.72,
      2.99,
      3.26,
      3.54,
      3.81,
      4.08,
      4.35,
      4.62,
      4.9,
      5.17,
      5.44,
      5.71,
      5.98,
      6.26,
      6.53,
      6.8,
      7.07,
      7.34,
      7.62,
      7.89,
      8.16,
      8.43,
      8.7,
      8.98,
      9.25,
      9.52,
      9.79,
      10.06,
      10.34,
      10.61,
      10.88,
      11.15,
      11.42,
      11.7,
      11.97,
      12.24,
      12.51,
      12.78,
      13.06,
      13.33,
      13.6,
      13.87,
      14.14,
      14.42,
      14.69,
      14.96
    ],
    "melee_inspheal": [
      0.9331,
      1.3128,
      1.7576,
      2.0089,
      2.2036,
      2.4115,
      2.6328,
      2.8678,
      3.1167,
      3.3796,
      3.6564,
      3.9472,
      4.2518,
      4.5701,
      4.9016,
      5.246,
      5.6027,
      5.9712,
      6.3506,
      6.7402,
      7.1389,
      7.5459,
      7.9598,
      8.3794,
      8.8034,
      9.2304,
      9.6588,
      10.087,
      10.5134,
      10.9362,
      11.3536,
      11.764,
      12.1654,
      12.556,
      12.9341,
      13.2978,
      13.6453,
      13.9749,
      14.285,
      14.574,
      14.8404,
      15.0828,
      15.2999,
      15.4906,
      15.6539,
      15.7888,
      15.8947,
      15.9709,
      16.0172,
      16.0635,
      16.1097,
      16.156,
      16.2022,
      16.2485,
      16.2948
    ],
    "melee_knockback": [
      0.1,
      0.1,
      0.1,
      0.1,
      0.1,
      0.1,
      0.1,
      0.1,
      0.1,
      0.1,
      0.1,
      0.1,
      0.1,
      0.1,
      0.1,
      0.1,
      0.1,
      0.1,
      0.1,
      0.1,
      0.1,
      0.1,
      0.1,
      0.1,
      0.1,
      0.1,
      0.1,
      0.1,
      0.1,
      0.1,
      0.1,
      0.1,
      0.1,
      0.1,
      0.1,
      0.1,
      0.1,
      0.1,
      0.1,
      0.1,
      0.1,
      0.1,
      0.1,
      0.1,
      0.1,
      0.1,
      0.1,
      0.1,
      0.1,
      0.1,
      0.1,
      0.1,
      0.1,
      0.1,
      0.1
    ],
    "melee_leap": [
      18.0,
      18.2,
      18.4,
      18.6,
      18.8,
      19.0,
      19.2,
      19.4,
      19.6,
      19.8,
      20.0,
      20.2,
      20.4,
      20.6,
      20.8,
      21.0,
      21.2,
      21.4,
      21.6,
      21.8,
      22.0,
      22.2,
      22.4,
      22.6,
      22.8,
      23.0,
      23.2,
      23.4,
      23.6,
      23.8,
      24.0,
      24.2,
      24.4,
      24.6,
      24.8,
      25.0,
      25.2,
      25.4,
      25.6,
      25.8,
      26.0,
      26.2,
      26.4,
      26.6,
      26.8,
      27.0,
      27.2,
      27.4,
      27.6,
      27.8,
      28.0,
      28.2,
      28.4,
      28.6,
      28.8
    ],
    "melee_level": [
      1.0,
      2.0,
      3.0,
      4.0,
      5.0,
      6.0,
      7.0,
      8.0,
      9.0,
      10.0,
      11.0,
      12.0,
      13.0,
      14.0,
      15.0,
      16.0,
      17.0,
      18.0,
      19.0,
      20.0,
      21.0,
      22.0,
      23.0,
      24.0,
      25.0,
      26.0,
      27.0,
      28.0,
      29.0,
      30.0,
      31.0,
      32.0,
      33.0,
      34.0,
      35.0,
      36.0,
      37.0,
      38.0,
      39.0,
      40.0,
      41.0,
      42.0,
      43.0,
      44.0,
      45.0,
      46.0,
      47.0,
      48.0,
      49.0,
      50.0,
      51.0,
      52.0,
      53.0,
      54.0,
      55.0
    ],
    "melee_levelminus": [
      1.0,
      2.0,
      3.0,
      4.0,
      5.0,
      6.0,
      7.0,
      8.0,
      9.0,
      10.0,
      11.0,
      12.0,
      13.0,
      14.0,
      15.0,
      16.0,
      17.0,
      18.0,
      19.0,
      20.0,
      21.0,
      22.0,
      23.0,
      23.0,
      24.0,
      25.0,
      26.0,
      27.0,
      28.0,
      29.0,
      30.0,
      31.0,
      32.0,
      33.0,
      34.0,
      35.0,
      36.0,
      37.0,
      38.0,
      39.0,
      40.0,
      41.0,
      42.0,
      43.0,
      44.0,
      45.0,
      46.0,
      47.0,
      48.0,
      49.0,
      50.0,
      51.0,
      52.0,
      53.0,
      54.0
    ],
    "melee_levelminus2": [
      1.0,
      2.0,
      3.0,
      4.0,
      5.0,
      5.0,
      6.0,
      7.0,
      8.0,
      9.0,
      10.0,
      11.0,
      12.0,
      13.0,
      14.0,
      15.0,
      16.0,
      16.0,
      17.0,
      18.0,
      19.0,
      20.0,
      21.0,
      22.0,
      23.0,
      24.0,
      25.0,
      26.0,
      27.0,
      28.0,
      29.0,
      30.0,
      31.0,
      32.0,
      33.0,
      34.0,
      35.0,
      36.0,
      37.0,
      38.0,
      39.0,
      40.0,
      41.0,
      42.0,
      43.0,
      44.0,
      45.0,
      46.0,
      47.0,
      48.0,
      49.0,
      50.0,
      51.0,
      52.0,
      53.0
    ],
    "melee_levelplus": [
      2.0,
      3.0,
      4.0,
      5.0,
      6.0,
      7.0,
      8.0,
      9.0,
      10.0,
      11.0,
      12.0,
      13.0,
      14.0,
      15.0,
      16.0,
      17.0,
      18.0,
      19.0,
      20.0,
      21.0,
      22.0,
      23.0,
      24.0,
      25.0,
      26.0,
      27.0,
      28.0,
      29.0,
      30.0,
      31.0,
      32.0,
      33.0,
      34.0,
      35.0,
      36.0,
      37.0,
      38.0,
      39.0,
      40.0,
      41.0,
      42.0,
      43.0,
      44.0,
      45.0,
      46.0,
      47.0,
      48.0,
      49.0,
      50.0,
      51.0,
      52.0,
      53.0,
      54.0,
      55.0,
      56.0
    ],
    "melee_nojumpbuff": [
      -18.0,
      -18.62,
      -19.24,
      -19.86,
      -20.48,
      -21.1,
      -21.72,
      -22.34,
      -22.96,
      -23.58,
      -24.2,
      -24.82,
      -25.44,
      -26.06,
      -26.68,
      -27.3,
      -27.92,
      -28.54,
      -29.16,
      -29.78,
      -30.4,
      -31.02,
      -31.64,
      -32.26,
      -32.88,
      -33.5,
      -34.12,
      -34.74,
      -35.36,
      -35.98,
      -36.6,
      -37.22,
      -37.84,
      -38.46,
      -39.08,
      -39.7,
      -40.32,
      -40.94,
      -41.56,
      -42.18,
      -42.8,
      -43.42,
      -44.04,
      -44.66,
      -45.28,
      -45.9,
      -46.52,
      -47.14,
      -47.76,
      -48.0,
      -48.0,
      -48.0,
      -48.0,
      -48.0,
      -48.0
    ],
    "melee_nojumpspeedbuff": [
      -1.5,
      -1.54,
      -1.58,
      -1.62,
      -1.66,
      -1.7,
      -1.74,
      -1.78,
      -1.82,
      -1.86,
      -1.9,
      -1.94,
      -1.98,
      -2.02,
      -2.06,
      -2.1,
      -2.14,
      -2.18,
      -2.22,
      -2.26,
      -2.3,
      -2.34,
      -2.38,
      -2.42,
      -2.46,
      -2.5,
      -2.54,
      -2.58,
      -2.62,
      -2.66,
      -2.7,
      -2.74,
      -2.78,
      -2.82,
      -2.86,
      -2.9,
      -2.94,
      -2.98,
      -3.02,
      -3.06,
      -3.1,
      -3.14,
      -3.18,
      -3.22,
      -3.26,
      -3.3,
      -3.34,
      -3.38,
      -3.42,
      -3.46,
      -3.5,
      -3.54,
      -3.58,
      -3.62,
      -3.66
    ],
    "melee_nospeedbuff": [
      -2.5,
      -2.54,
      -2.58,
      -2.62,
      -2.66,
      -2.7,
      -2.74,
      -2.78,
      -2.82,
      -2.86,
      -2.9,
      -2.94,
      -2.98,
      -3.02,
      -3.06,
      -3.1,
      -3.14,
      -3.18,
      -3.22,
      -3.26,
      -3.3,
      -3.34,
      -3.38,
      -3.42,
      -3.46,
      -3.5,
      -3.54,
      -3.58,
      -3.62,
      -3.66,
      -3.7,
      -3.74,
      -3.78,
      -3.82,
      -3.86,
      -3.9,
      -3.94,
      -3.98,
      -4.02,
      -4.06,
      -4.1,
      -4.14,
      -4.18,
      -4.22,
      -4.26,
      -4.3,
      -4.34,
      -4.38,
      -4.42,
      -4.46,
      -4.5,
      -4.5,
      -4.5,
      -4.5,
      -4.5
    ],
    "melee_nostealth": [
      -400.0,
      -403.5,
      -407.0,
      -410.5,
      -414.0,
      -417.5,
      -421.0,
      -424.5,
      -428.0,
      -431.5,
      -435.0,
      -438.5,
      -442.0,
      -445.5,
      -449.0,
      -452.5,
      -456.0,
      -459.5,
      -463.0,
      -466.5,
      -470.0,
      -473.5,
      -477.0,
      -480.5,
      -484.0,
      -487.5,
      -491.0,
      -494.5,
      -498.0,
      -501.5,
      -505.0,
      -508.5,
      -512.0,
      -515.5,
      -519.0,
      -522.5,
      -526.0,
      -529.5,
      -533.0,
      -536.5,
      -540.0,
      -543.5,
      -547.0,
      -550.5,
      -554.0,
      -557.5,
      -561.0,
      -564.5,
      -568.0,
      -571.5,
      -575.0,
      -578.5,
      -582.0,
      -585.5,
      -589.0
    ],
    "melee_ones": [
      1.0,
      1.0,
      1.0,
      1.0,
      1.0,
      1.0,
      1.0,
      1.0,
      1.0,
      1.0,
      1.0,
      1.0,
      1.0,
      1.0,
      1.0,
      1.0,
      1.0,
      1.0,
      1.0,
      1.0,
      1.0,
      1.0,
      1.0,
      1.0,
      1.0,
      1.0,
      1.0,
      1.0,
      1.0,
      1.0,
      1.0,
      1.0,
      1.0,
      1.0,
      1.0,
      1.0,
      1.0,
      1.0,
      1.0,
      1.0,
      1.0,
      1.0,
      1.0,
      1.0,
      1.0,
      1.0,
      1.0,
      1.0,
      1.0,
      1.0,
      1.0,
      1.0,
      1.0,
      1.0,
      1.0
    ],
    "melee_res_boolean": [
      0.08,
      0.08,
      0.08,
      0.08,
      0.08,
      0.09,
      0.09,
      0.09,
      0.09,
      0.09,
      0.1,
      0.1,
      0.1,
      0.1,
      0.1,
      0.11,
      0.11,
      0.11,
      0.11,
      0.11,
      0.12,
      0.12,
      0.12,
      0.12,
      0.12,
      0.13,
      0.13,
      0.13,
      0.13,
      0.13,
      0.14,
      0.14,
      0.14,
      0.14,
      0.14,
      0.15,
      0.15,
      0.15,
      0.15,
      0.15,
      0.16,
      0.16,
      0.16,
      0.16,
      0.16,
      0.17,
      0.17,
      0.17,
      0.17,
      0.17,
      0.18,
      0.18,
      0.18,
      0.18,
      0.18
    ],
    "melee_res_dmg": [
      0.05,
      0.05,
      0.05,
      0.05,
      0.05,
      0.05,
      0.05,
      0.05,
      0.05,
      0.05,
      0.05,
      0.05,
      0.05,
      0.05,
      0.05,
      0.05,
      0.05,
      0.05,
      0.05,
      0.05,
      0.05,
      0.05,
      0.05,
      0.05,
      0.05,
      0.05,
      0.05,
      0.05,
      0.05,
      0.05,
      0.05,
      0.05,
      0.05,
      0.05,
      0.05,
      0.05,
      0.05,
      0.05,
      0.05,
      0.05,
      0.05,
      0.05,
      0.05,
      0.05,
      0.05,
      0.05,
      0.05,
      0.05,
      0.05,
      0.05,
      0.05,
      0.05,
      0.05,
      0.05,
      0.05
    ],
    "melee_sleep": [
      0.2,
      0.2,
      0.2,
      0.21,
      0.21,
      0.21,
      0.21,
      0.21,
      0.22,
      0.22,
      0.22,
      0.22,
      0.22,
      0.23,
      0.23,
      0.23,
      0.23,
      0.23,
      0.24,
      0.24,
      0.24,
      0.24,
      0.24,
      0.25,
      0.25,
      0.25,
      0.25,
      0.25,
      0.26,
      0.26,
      0.26,
      0.26,
      0.26,
      0.27,
      0.27,
      0.27,
      0.27,
      0.27,
      0.28,
      0.28,
      0.28,
      0.28,
      0.28,
      0.29,
      0.29,
      0.29,
      0.29,
      0.29,
      0.3,
      0.3,
      0.3,
      0.3,
      0.3,
      0.31,
      0.31
    ],
    "melee_slow": [
      -0.5,
      -0.5,
      -0.5,
      -0.5,
      -0.5,
      -0.5,
      -0.5,
      -0.5,
      -0.5,
      -0.5,
      -0.5,
      -0.5,
      -0.5,
      -0.5,
      -0.5,
      -0.5,
      -0.5,
      -0.5,
      -0.5,
      -0.5,
      -0.5,
      -0.5,
      -0.5,
      -0.5,
      -0.5,
      -0.5,
      -0.5,
      -0.5,
      -0.5,
      -0.5,
      -0.5,
      -0.5,
      -0.5,
      -0.5,
      -0.5,
      -0.5,
      -0.5,
      -0.5,
      -0.5,
      -0.5,
      -0.5,
      -0.5,
      -0.5,
      -0.5,
      -0.5,
      -0.5,
      -0.5,
      -0.5,
      -0.5,
      -0.5,
      -0.5,
      -0.5,
      -0.5,
      -0.5,
      -0.5
    ],
    "melee_special": [
      0.2,
      0.2,
      0.2,
      0.21,
      0.21,
      0.21,
      0.21,
      0.21,
      0.22,
      0.22,
      0.22,
      0.22,
      0.22,
      0.23,
      0.23,
      0.23,
      0.23,
      0.23,
      0.24,
      0.24,
      0.24,
      0.24,
      0.24,
      0.25,
      0.25,
      0.25,
      0.25,
      0.25,
      0.26,
      0.26,
      0.26,
      0.26,
      0.26,
      0.27,
      0.27,
      0.27,
      0.27,
      0.27,
      0.28,
      0.28,
      0.28,
      0.28,
      0.28,
      0.29,
      0.29,
      0.29,
      0.29,
      0.29,
      0.3,
      0.3,
      0.3,
      0.3,
      0.3,
      0.31,
      0.31
    ],
    "melee_speedflying": [
      0.88,
      0.89,
      0.9,
      0.91,
      0.92,
      0.93,
      0.94,
      0.95,
      0.96,
      0.97,
      0.98,
      0.99,
      1.0,
      1.01,
      1.02,
      1.03,
      1.04,
      1.05,
      1.06,
      1.07,
      1.08,
      1.09,
      1.1,
      1.11,
      1.12,
      1.13,
      1.14,
      1.15,
      1.16,
      1.17,
      1.18,
      1.19,
      1.2,
      1.21,
      1.22,
      1.23,
      1.24,
      1.25,
      1.26,
      1.27,
      1.28,
      1.29,
      1.3,
      1.31,
      1.32,
      1.33,
      1.34,
      1.35,
      1.36,
      1.37,
      1.38,
      1.39,
      1.4,
      1.41,
      1.42
    ],
    "melee_speedjumping": [
      2.0,
      2.01,
      2.02,
      2.03,
      2.04,
      2.05,
      2.06,
      2.07,
      2.08,
      2.09,
      2.1,
      2.11,
      2.12,
      2.13,
      2.14,
      2.15,
      2.16,
      2.17,
      2.18,
      2.19,
      2.2,
      2.21,
      2.22,
      2.23,
      2.24,
      2.25,
      2.26,
      2.27,
      2.28,
      2.29,
      2.3,
      2.31,
      2.32,
      2.33,
      2.34,
      2.35,
      2.36,
      2.37,
      2.38,
      2.39,
      2.4,
      2.41,
      2.42,
      2.43,
      2.44,
      2.45,
      2.46,
      2.47,
      2.48,
      2.49,
      2.5,
      2.51,
      2.52,
      2.53,
      2.54
    ],
    "melee_speedrunning": [
      2.5,
      2.52,
      2.54,
      2.56,
      2.58,
      2.6,
      2.62,
      2.64,
      2.66,
      2.68,
      2.71,
      2.73,
      2.75,
      2.77,
      2.79,
      2.81,
      2.83,
      2.85,
      2.87,
      2.89,
      2.91,
      2.93,
      2.95,
      2.97,
      2.99,
      3.01,
      3.03,
      3.05,
      3.07,
      3.09,
      3.12,
      3.14,
      3.16,
      3.18,
      3.2,
      3.22,
      3.24,
      3.26,
      3.28,
      3.3,
      3.32,
      3.34,
      3.36,
      3.38,
      3.4,
      3.42,
      3.44,
      3.46,
      3.48,
      3.5,
      3.5,
      3.5,
      3.5,
      3.5,
      3.5
    ],
    "melee_speedswimming": [
      0.5,
      0.51,
      0.52,
      0.53,
      0.54,
      0.55,
      0.56,
      0.57,
      0.58,
      0.59,
      0.6,
      0.61,
      0.62,
      0.63,
      0.64,
      0.65,
      0.66,
      0.67,
      0.68,
      0.69,
      0.7,
      0.71,
      0.72,
      0.73,
      0.74,
      0.75,
      0.76,
      0.77,
      0.78,
      0.79,
      0.8,
      0.81,
      0.82,
      0.83,
      0.84,
      0.85,
      0.86,
      0.87,
      0.88,
      0.89,
      0.9,
      0.91,
      0.92,
      0.93,
      0.94,
      0.95,
      0.96,
      0.97,
      0.98,
      0.99,
      1.0,
      1.0,
      1.0,
      1.0,
      1.0
    ],
    "melee_stun": [
      0.2,
      0.2,
      0.2,
      0.21,
      0.21,
      0.21,
      0.21,
      0.21,
      0.22,
      0.22,
      0.22,
      0.22,
      0.22,
      0.23,
      0.23,
      0.23,
      0.23,
      0.23,
      0.24,
      0.24,
      0.24,
      0.24,
      0.24,
      0.25,
      0.25,
      0.25,
      0.25,
      0.25,
      0.26,
      0.26,
      0.26,
      0.26,
      0.26,
      0.27,
      0.27,
      0.27,
      0.27,
      0.27,
      0.28,
      0.28,
      0.28,
      0.28,
      0.28,
      0.29,
      0.29,
      0.29,
      0.29,
      0.29,
      0.3,
      0.3,
      0.3,
      0.3,
      0.3,
      0.31,
      0.31
    ],
    "melee_suppressflight": [
      -0.63,
      -0.66,
      -0.69,
      -0.72,
      -0.75,
      -0.78,
      -0.81,
      -0.84,
      -0.87,
      -0.9,
      -0.93,
      -0.96,
      -0.99,
      -1.02,
      -1.05,
      -1.08,
      -1.11,
      -1.14,
      -1.17,
      -1.2,
      -1.23,
      -1.26,
      -1.29,
      -1.32,
      -1.35,
      -1.38,
      -1.41,
      -1.44,
      -1.47,
      -1.5,
      -1.53,
      -1.56,
      -1.59,
      -1.62,
      -1.65,
      -1.68,
      -1.71,
      -1.74,
      -1.77,
      -1.8,
      -1.83,
      -1.86,
      -1.89,
      -1.92,
      -1.95,
      -1.98,
      -2.01,
      -2.04,
      -2.07,
      -2.1,
      -2.13,
      -2.16,
      -2.19,
      -2.22,
      -2.25
    ],
    "melee_suppressjump": [
      -10.0,
      -10.62,
      -11.24,
      -11.86,
      -12.48,
      -13.1,
      -13.72,
      -14.34,
      -14.96,
      -15.58,
      -16.2,
      -16.82,
      -17.44,
      -18.06,
      -18.68,
      -19.3,
      -19.92,
      -20.54,
      -21.16,
      -21.78,
      -22.4,
      -23.02,
      -23.64,
      -24.26,
      -24.88,
      -25.5,
      -26.12,
      -26.74,
      -27.36,
      -27.98,
      -28.6,
      -29.22,
      -29.84,
      -30.46,
      -31.08,
      -31.7,
      -32.32,
      -32.94,
      -33.56,
      -34.18,
      -34.8,
      -35.42,
      -36.04,
      -36.66,
      -37.28,
      -37.9,
      -38.52,
      -39.14,
      -39.76,
      -40.0,
      -40.0,
      -40.0,
      -40.0,
      -40.0,
      -40.0
    ],
    "melee_suppressjumpspeed": [
      -1.5,
      -1.54,
      -1.58,
      -1.62,
      -1.66,
      -1.7,
      -1.74,
      -1.78,
      -1.82,
      -1.86,
      -1.9,
      -1.94,
      -1.98,
      -2.02,
      -2.06,
      -2.1,
      -2.14,
      -2.18,
      -2.22,
      -2.26,
      -2.3,
      -2.34,
      -2.38,
      -2.42,
      -2.46,
      -2.5,
      -2.54,
      -2.58,
      -2.62,
      -2.66,
      -2.7,
      -2.74,
      -2.78,
      -2.82,
      -2.86,
      -2.9,
      -2.94,
      -2.98,
      -3.02,
      -3.06,
      -3.1,
      -3.14,
      -3.18,
      -3.22,
      -3.26,
      -3.3,
      -3.34,
      -3.38,
      -3.42,
      -3.46,
      -3.5,
      -3.54,
      -3.58,
      -3.62,
      -3.66
    ],
    "melee_suppressrunspeed": [
      -2.5,
      -2.54,
      -2.58,
      -2.62,
      -2.66,
      -2.7,
      -2.74,
      -2.78,
      -2.82,
      -2.86,
      -2.9,
      -2.94,
      -2.98,
      -3.02,
      -3.06,
      -3.1,
      -3.14,
      -3.18,
      -3.22,
      -3.26,
      -3.3,
      -3.34,
      -3.38,
      -3.42,
      -3.46,
      -3.5,
      -3.54,
      -3.58,
      -3.62,
      -3.66,
      -3.7,
      -3.74,
      -3.78,
      -3.82,
      -3.86,
      -3.9,
      -3.94,
      -3.98,
      -4.02,
      -4.06,
      -4.1,
      -4.14,
      -4.18,
      -4.22,
      -4.26,
      -4.3,
      -4.34,
      -4.38,
      -4.42,
      -4.46,
      -4.5,
      -4.5,
      -4.5,
      -4.5,
      -4.5
    ],
    "melee_taunt": [
      1.0,
      1.02,
      1.04,
      1.06,
      1.09,
      1.11,
      1.13,
      1.15,
      1.17,
      1.19,
      1.22,
      1.24,
      1.26,
      1.28,
      1.3,
      1.32,
      1.34,
      1.37,
      1.39,
      1.41,
      1.43,
      1.45,
      1.47,
      1.49,
      1.52,
      1.54,
      1.56,
      1.58,
      1.6,
      1.62,
      1.65,
      1.67,
      1.69,
      1.71,
      1.73,
      1.75,
      1.77,
      1.8,
      1.82,
      1.84,
      1.86,
      1.88,
      1.9,
      1.92,
      1.95,
      1.97,
      1.99,
      2.01,
      2.03,
      2.05,
      2.08,
      2.1,
      2.12,
      2.14,
      2.16
    ],
    "melee_tempdamage": [
      -10.0,
      -11.05,
      -12.18,
      -13.3928,
      -14.6909,
      -16.0768,
      -17.5522,
      -19.119,
      -20.7781,
      -22.5304,
      -24.3761,
      -26.3148,
      -28.3457,
      -30.4672,
      -32.6773,
      -34.9732,
      -37.3514,
      -39.8077,
      -42.3372,
      -44.9344,
      -47.5929,
      -50.3057,
      -53.0651,
      -55.8627,
      -58.6895,
      -61.536,
      -64.3919,
      -67.2466,
      -70.089,
      -72.9077,
      -75.6909,
      -78.4265,
      -81.1026,
      -83.7069,
      -86.2273,
      -88.6518,
      -90.9685,
      -93.1661,
      -95.2335,
      -97.1602,
      -98.9361,
      -100.5521,
      -101.9995,
      -103.2708,
      -104.3591,
      -105.2585,
      -105.9644,
      -106.4729,
      -106.7813,
      -107.0897,
      -107.3981,
      -107.7065,
      -108.0149,
      -108.3233,
      -108.6317
    ],
    "ranged_archvillain_res": [
      0.6,
      0.61,
      0.61,
      0.62,
      0.62,
      0.63,
      0.63,
      0.64,
      0.64,
      0.65,
      0.65,
      0.66,
      0.66,
      0.67,
      0.67,
      0.68,
      0.68,
      0.69,
      0.69,
      0.7,
      0.7,
      0.71,
      0.71,
      0.72,
      0.72,
      0.73,
      0.73,
      0.74,
      0.74,
      0.75,
      0.75,
      0.76,
      0.76,
      0.77,
      0.77,
      0.78,
      0.78,
      0.79,
      0.79,
      0.8,
      0.8,
      0.81,
      0.81,
      0.82,
      0.82,
      0.83,
      0.83,
      0.84,
      0.84,
      0.85,
      0.85,
      0.86,
      0.86,
      0.87,
      0.87
    ],
    "ranged_boosts_20": [
      0.05,
      0.05,
      0.05,
      0.05,
      0.05,
      0.05,
      0.05,
      0.05,
      0.06,
      0.07,
      0.08,
      0.09,
      0.1,
      0.11,
      0.12,
      0.12,
      0.13,
      0.14,
      0.15,
      0.15,
      0.16,
      0.17,
      0.18,
      0.18,
      0.19,
      0.2,
      0.2,
      0.2,
      0.21,
      0.21,
      0.21,
      0.21,
      0.22,
      0.22,
      0.22,
      0.22,
      0.23,
      0.23,
      0.23,
      0.23,
      0.23,
      0.24,
      0.24,
      0.24,
      0.24,
      0.25,
      0.25,
      0.25,
      0.25,
      0.25,
      0.26,
      0.26,
      0.26,
      0.26,
      0.25
    ],
    "ranged_boosts_33": [
      0.08,
      0.08,
      0.08,
      0.08,
      0.08,
      0.08,
      0.08,
      0.08,
      0.1,
      0.12,
      0.13,
      0.15,
      0.17,
      0.18,
      0.19,
      0.2,
      0.22,
      0.23,
      0.24,
      0.26,
      0.27,
      0.28,
      0.29,
      0.31,
      0.32,
      0.33,
      0.34,
      0.34,
      0.34,
      0.35,
      0.35,
      0.36,
      0.36,
      0.36,
      0.37,
      0.37,
      0.37,
      0.38,
      0.38,
      0.39,
      0.39,
      0.39,
      0.4,
      0.4,
      0.4,
      0.41,
      0.41,
      0.42,
      0.42,
      0.42,
      0.43,
      0.43,
      0.44,
      0.44,
      0.4
    ],
    "ranged_boosts_40": [
      0.1,
      0.1,
      0.1,
      0.1,
      0.1,
      0.1,
      0.1,
      0.1,
      0.12,
      0.14,
      0.16,
      0.18,
      0.2,
      0.22,
      0.23,
      0.25,
      0.26,
      0.28,
      0.29,
      0.31,
      0.32,
      0.34,
      0.35,
      0.37,
      0.38,
      0.4,
      0.4,
      0.41,
      0.41,
      0.42,
      0.42,
      0.43,
      0.43,
      0.44,
      0.44,
      0.45,
      0.45,
      0.45,
      0.46,
      0.46,
      0.47,
      0.47,
      0.48,
      0.48,
      0.49,
      0.49,
      0.5,
      0.5,
      0.5,
      0.51,
      0.51,
      0.52,
      0.52,
      0.53,
      0.5
    ],
    "ranged_boosts_60": [
      0.15,
      0.15,
      0.15,
      0.15,
      0.15,
      0.15,
      0.15,
      0.15,
      0.18,
      0.21,
      0.24,
      0.27,
      0.3,
      0.32,
      0.35,
      0.37,
      0.39,
      0.42,
      0.44,
      0.46,
      0.48,
      0.51,
      0.53,
      0.55,
      0.58,
      0.6,
      0.61,
      0.61,
      0.62,
      0.63,
      0.63,
      0.64,
      0.65,
      0.65,
      0.66,
      0.67,
      0.68,
      0.68,
      0.69,
      0.7,
      0.7,
      0.71,
      0.72,
      0.72,
      0.73,
      0.74,
      0.74,
      0.75,
      0.76,
      0.76,
      0.77,
      0.78,
      0.78,
      0.79,
      0.75
    ],
    "ranged_buff_def": [
      0.05,
      0.05,
      0.05,
      0.05,
      0.05,
      0.05,
      0.05,
      0.05,
      0.05,
      0.05,
      0.05,
      0.05,
      0.05,
      0.05,
      0.05,
      0.05,
      0.05,
      0.05,
      0.05,
      0.05,
      0.05,
      0.05,
      0.05,
      0.05,
      0.05,
      0.05,
      0.05,
      0.05,
      0.05,
      0.05,
      0.05,
      0.05,
      0.05,
      0.05,
      0.05,
      0.05,
      0.05,
      0.05,
      0.05,
      0.05,
      0.05,
      0.05,
      0.05,
      0.05,
      0.05,
      0.05,
      0.05,
      0.05,
      0.05,
      0.05,
      0.05,
      0.05,
      0.05,
      0.05,
      0.05
    ],
    "ranged_buff_dmg": [
      0.05,
      0.05,
      0.05,
      0.05,
      0.05,
      0.05,
      0.05,
      0.05,
      0.05,
      0.05,
      0.05,
      0.05,
      0.05,
      0.05,
      0.05,
      0.05,
      0.05,
      0.05,
      0.05,
      0.05,
      0.05,
      0.05,
      0.05,
      0.05,
      0.05,
      0.05,
      0.05,
      0.05,
      0.05,
      0.05,
      0.05,
      0.05,
      0.05,
      0.05,
      0.05,
      0.05,
      0.05,
      0.05,
      0.05,
      0.05,
      0.05,
      0.05,
      0.05,
      0.05,
      0.05,
      0.05,
      0.05,
      0.05,
      0.05,
      0.05,
      0.05,
      0.05,
      0.05,
      0.05,
      0.05
    ],
    "ranged_buff_maxhp": [
      5.0,
      5.53,
      6.09,
      6.7,
      7.35,
      8.04,
      8.78,
      9.56,
      10.39,
      11.27,
      12.19,
      13.16,
      14.17,
      15.23,
      16.34,
      17.49,
      18.68,
      19.9,
      21.17,
      22.47,
      23.8,
      25.15,
      26.53,
      27.93,
      29.34,
      30.77,
      32.2,
      33.62,
      35.04,
      36.45,
      37.85,
      39.21,
      40.55,
      41.85,
      43.11,
      44.33,
      45.48,
      46.58,
      47.62,
      48.58,
      49.47,
      50.28,
      51.0,
      51.64,
      52.18,
      52.63,
      52.98,
      53.24,
      53.39,
      53.54,
      53.7,
      53.85,
      54.01,
      54.16,
      54.32
    ],
    "ranged_buff_tohit": [
      0.05,
      0.05,
      0.05,
      0.05,
      0.05,
      0.05,
      0.05,
      0.05,
      0.05,
      0.05,
      0.05,
      0.05,
      0.05,
      0.05,
      0.05,
      0.05,
      0.05,
      0.05,
      0.05,
      0.05,
      0.05,
      0.05,
      0.05,
      0.05,
      0.05,
      0.05,
      0.05,
      0.05,
      0.05,
      0.05,
      0.05,
      0.05,
      0.05,
      0.05,
      0.05,
      0.05,
      0.05,
      0.05,
      0.05,
      0.05,
      0.05,
      0.05,
      0.05,
      0.05,
      0.05,
      0.05,
      0.05,
      0.05,
      0.05,
      0.05,
      0.05,
      0.05,
      0.05,
      0.05,
      0.05
    ],
    "ranged_control": [
      1.0,
      1.062,
      1.124,
      1.186,
      1.248,
      1.31,
      1.372,
      1.434,
      1.496,
      1.558,
      1.62,
      1.682,
      1.744,
      1.806,
      1.868,
      1.93,
      1.992,
      2.054,
      2.116,
      2.178,
      2.24,
      2.302,
      2.364,
      2.426,
      2.488,
      2.55,
      2.612,
      2.674,
      2.736,
      2.798,
      2.86,
      2.922,
      2.984,
      3.046,
      3.108,
      3.17,
      3.232,
      3.294,
      3.356,
      3.418,
      3.48,
      3.542,
      3.604,
      3.666,
      3.728,
      3.79,
      3.852,
      3.914,
      3.976,
      4.0,
      4.0,
      4.0,
      4.0,
      4.0,
      4.0
    ],
    "ranged_damage": [
      -2.835,
      -3.3937,
      -4.0285,
      -4.7461,
      -5.5532,
      -6.4568,
      -7.4641,
      -8.582,
      -9.8177,
      -10.6456,
      -11.5177,
      -12.4337,
      -13.3933,
      -14.3958,
      -15.44,
      -16.5248,
      -17.6485,
      -18.8091,
      -20.0043,
      -21.2315,
      -22.4876,
      -23.7694,
      -25.0733,
      -26.3951,
      -27.7308,
      -29.0757,
      -30.4252,
      -31.774,
      -33.1171,
      -34.4489,
      -35.7639,
      -37.0565,
      -38.321,
      -39.5515,
      -40.7424,
      -41.888,
      -42.9826,
      -44.021,
      -44.9978,
      -45.9082,
      -46.7473,
      -47.5109,
      -48.1948,
      -48.7954,
      -49.3097,
      -49.7347,
      -50.0682,
      -50.3084,
      -50.4541,
      -50.5999,
      -50.7456,
      -50.8913,
      -51.037,
      -51.1828,
      -51.3285
    ],
    "ranged_debuff_dam": [
      -0.05,
      -0.05,
      -0.05,
      -0.05,
      -0.05,
      -0.05,
      -0.05,
      -0.05,
      -0.05,
      -0.05,
      -0.05,
      -0.05,
      -0.05,
      -0.05,
      -0.05,
      -0.05,
      -0.05,
      -0.05,
      -0.05,
      -0.05,
      -0.05,
      -0.05,
      -0.05,
      -0.05,
      -0.05,
      -0.05,
      -0.05,
      -0.05,
      -0.05,
      -0.05,
      -0.05,
      -0.05,
      -0.05,
      -0.05,
      -0.05,
      -0.05,
      -0.05,
      -0.05,
      -0.05,
      -0.05,
      -0.05,
      -0.05,
      -0.05,
      -0.05,
      -0.05,
      -0.05,
      -0.05,
      -0.05,
      -0.05,
      -0.05,
      -0.05,
      -0.05,
      -0.05,
      -0.05,
      -0.05
    ],
    "ranged_debuff_def": [
      -0.05,
      -0.05,
      -0.05,
      -0.05,
      -0.05,
      -0.05,
      -0.05,
      -0.05,
      -0.05,
      -0.05,
      -0.05,
      -0.05,
      -0.05,
      -0.05,
      -0.05,
      -0.05,
      -0.05,
      -0.05,
      -0.05,
      -0.05,
      -0.05,
      -0.05,
      -0.05,
      -0.05,
      -0.05,
      -0.05,
      -0.05,
      -0.05,
      -0.05,
      -0.05,
      -0.05,
      -0.05,
      -0.05,
      -0.05,
      -0.05,
      -0.05,
      -0.05,
      -0.05,
      -0.05,
      -0.05,
      -0.05,
      -0.05,
      -0.05,
      -0.05,
      -0.05,
      -0.05,
      -0.05,
      -0.05,
      -0.05,
      -0.05,
      -0.05,
      -0.05,
      -0.05,
      -0.05,
      -0.05
    ],
    "ranged_debuff_dmg": [
      -0.05,
      -0.05,
      -0.05,
      -0.05,
      -0.05,
      -0.05,
      -0.05,
      -0.05,
      -0.05,
      -0.05,
      -0.05,
      -0.05,
      -0.05,
      -0.05,
      -0.05,
      -0.05,
      -0.05,
      -0.05,
      -0.05,
      -0.05,
      -0.05,
      -0.05,
      -0.05,
      -0.05,
      -0.05,
      -0.05,
      -0.05,
      -0.05,
      -0.05,
      -0.05,
      -0.05,
      -0.05,
      -0.05,
      -0.05,
      -0.05,
      -0.05,
      -0.05,
      -0.05,
      -0.05,
      -0.05,
      -0.05,
      -0.05,
      -0.05,
      -0.05,
      -0.05,
      -0.05,
      -0.05,
      -0.05,
      -0.05,
      -0.05,
      -0.05,
      -0.05,
      -0.05,
      -0.05,
      -0.05
    ],
    "ranged_debuff_res_dmg": [
      0.05,
      0.05,
      0.05,
      0.05,
      0.05,
      0.05,
      0.05,
      0.05,
      0.05,
      0.05,
      0.05,
      0.05,
      0.05,
      0.05,
      0.05,
      0.05,
      0.05,
      0.05,
      0.05,
      0.05,
      0.05,
      0.05,
      0.05,
      0.05,
      0.05,
      0.05,
      0.05,
      0.05,
      0.05,
      0.05,
      0.05,
      0.05,
      0.05,
      0.05,
      0.05,
      0.05,
      0.05,
      0.05,
      0.05,
      0.05,
      0.05,
      0.05,
      0.05,
      0.05,
      0.05,
      0.05,
      0.05,
      0.05,
      0.05,
      0.05,
      0.05,
      0.05,
      0.05,
      0.05,
      0.05
    ],
    "ranged_debuff_tohit": [
      -0.05,
      -0.05,
      -0.05,
      -0.05,
      -0.05,
      -0.05,
      -0.05,
      -0.05,
      -0.05,
      -0.05,
      -0.05,
      -0.05,
      -0.05,
      -0.05,
      -0.05,
      -0.05,
      -0.05,
      -0.05,
      -0.05,
      -0.05,
      -0.05,
      -0.05,
      -0.05,
      -0.05,
      -0.05,
      -0.05,
      -0.05,
      -0.05,
      -0.05,
      -0.05,
      -0.05,
      -0.05,
      -0.05,
      -0.05,
      -0.05,
      -0.05,
      -0.05,
      -0.05,
      -0.05,
      -0.05,
      -0.05,
      -0.05,
      -0.05,
      -0.05,
      -0.05,
      -0.05,
      -0.05,
      -0.05,
      -0.05,
      -0.05,
      -0.05,
      -0.05,
      -0.05,
      -0.05,
      -0.05
    ],
    "ranged_enddrain": [
      0.2,
      0.2,
      0.2,
      0.2,
      0.2,
      0.2,
      0.2,
      0.2,
      0.2,
      0.2,
      0.2,
      0.2,
      0.2,
      0.2,
      0.2,
      0.2,
      0.2,
      0.2,
      0.2,
      0.2,
      0.2,
      0.2,
      0.2,
      0.2,
      0.2,
      0.2,
      0.2,
      0.2,
      0.2,
      0.2,
      0.2,
      0.2,
      0.2,
      0.2,
      0.2,
      0.2,
      0.2,
      0.2,
      0.2,
      0.2,
      0.2,
      0.2,
      0.2,
      0.2,
      0.2,
      0.2,
      0.2,
      0.2,
      0.2,
      0.2,
      0.2,
      0.2,
      0.2,
      0.2,
      0.2
    ],
    "ranged_fear": [
      0.2,
      0.2,
      0.2,
      0.21,
      0.21,
      0.21,
      0.21,
      0.21,
      0.22,
      0.22,
      0.22,
      0.22,
      0.22,
      0.23,
      0.23,
      0.23,
      0.23,
      0.23,
      0.24,
      0.24,
      0.24,
      0.24,
      0.24,
      0.25,
      0.25,
      0.25,
      0.25,
      0.25,
      0.26,
      0.26,
      0.26,
      0.26,
      0.26,
      0.27,
      0.27,
      0.27,
      0.27,
      0.27,
      0.28,
      0.28,
      0.28,
      0.28,
      0.28,
      0.29,
      0.29,
      0.29,
      0.29,
      0.29,
      0.3,
      0.3,
      0.3,
      0.3,
      0.3,
      0.31,
      0.31
    ],
    "ranged_friction": [
      1.0,
      1.062,
      1.124,
      1.186,
      1.248,
      1.31,
      1.372,
      1.434,
      1.496,
      1.558,
      1.62,
      1.682,
      1.744,
      1.806,
      1.868,
      1.93,
      1.992,
      2.054,
      2.116,
      2.178,
      2.24,
      2.302,
      2.364,
      2.426,
      2.488,
      2.55,
      2.612,
      2.674,
      2.736,
      2.798,
      2.86,
      2.922,
      2.984,
      3.046,
      3.108,
      3.17,
      3.232,
      3.294,
      3.356,
      3.418,
      3.48,
      3.542,
      3.604,
      3.666,
      3.728,
      3.79,
      3.852,
      3.914,
      3.976,
      4.0,
      4.0,
      4.0,
      4.0,
      4.0,
      4.0
    ],
    "ranged_heal": [
      3.5,
      3.87,
      4.26,
      4.69,
      5.14,
      5.63,
      6.14,
      6.69,
      7.27,
      7.89,
      8.53,
      9.21,
      9.92,
      10.66,
      11.44,
      12.24,
      13.07,
      13.93,
      14.82,
      15.73,
      16.66,
      17.61,
      18.57,
      19.55,
      20.54,
      21.54,
      22.54,
      23.54,
      24.53,
      25.52,
      26.49,
      27.45,
      28.39,
      29.3,
      30.18,
      31.03,
      31.84,
      32.61,
      33.33,
      34.01,
      34.63,
      35.19,
      35.7,
      36.14,
      36.53,
      36.84,
      37.09,
      37.27,
      37.37,
      37.48,
      37.59,
      37.7,
      37.81,
      37.91,
      38.02
    ],
    "ranged_healself": [
      0.9331,
      1.3128,
      1.7576,
      2.0089,
      2.2036,
      2.4115,
      2.6328,
      2.8678,
      3.1167,
      3.3796,
      3.6564,
      3.9472,
      4.2518,
      4.5701,
      4.9016,
      5.246,
      5.6027,
      5.9712,
      6.3506,
      6.7402,
      7.1389,
      7.5459,
      7.9598,
      8.3794,
      8.8034,
      9.2304,
      9.6588,
      10.087,
      10.5134,
      10.9362,
      11.3536,
      11.764,
      12.1654,
      12.556,
      12.9341,
      13.2978,
      13.6453,
      13.9749,
      14.285,
      14.574,
      14.8404,
      15.0828,
      15.2999,
      15.4906,
      15.6539,
      15.7888,
      15.8947,
      15.9709,
      16.0172,
      16.0635,
      16.1097,
      16.156,
      16.2022,
      16.2485,
      16.2948
    ],
    "ranged_immobilize": [
      0.2,
      0.2,
      0.2,
      0.21,
      0.21,
      0.21,
      0.21,
      0.21,
      0.22,
      0.22,
      0.22,
      0.22,
      0.22,
      0.23,
      0.23,
      0.23,
      0.23,
      0.23,
      0.24,
      0.24,
      0.24,
      0.24,
      0.24,
      0.25,
      0.25,
      0.25,
      0.25,
      0.25,
      0.26,
      0.26,
      0.26,
      0.26,
      0.26,
      0.27,
      0.27,
      0.27,
      0.27,
      0.27,
      0.28,
      0.28,
      0.28,
      0.28,
      0.28,
      0.29,
      0.29,
      0.29,
      0.29,
      0.29,
      0.3,
      0.3,
      0.3,
      0.3,
      0.3,
      0.31,
      0.31
    ],
    "ranged_inherenttaunt": [
      0.0,
      0.27,
      0.54,
      0.82,
      1.09,
      1.36,
      1.63,
      1.9,
      2.18,
      2.45,
      2.72,
      2.99,
      3.26,
      3.54,
      3.81,
      4.08,
      4.35,
      4.62,
      4.9,
      5.17,
      5.44,
      5.71,
      5.98,
      6.26,
      6.53,
      6.8,
      7.07,
      7.34,
      7.62,
      7.89,
      8.16,
      8.43,
      8.7,
      8.98,
      9.25,
      9.52,
      9.79,
      10.06,
      10.34,
      10.61,
      10.88,
      11.15,
      11.42,
      11.7,
      11.97,
      12.24,
      12.51,
      12.78,
      13.06,
      13.33,
      13.6,
      13.87,
      14.14,
      14.42,
      14.69
    ],
    "ranged_knockback": [
      0.1,
      0.1,
      0.1,
      0.1,
      0.1,
      0.1,
      0.1,
      0.1,
      0.1,
      0.1,
      0.1,
      0.1,
      0.1,
      0.1,
      0.1,
      0.1,
      0.1,
      0.1,
      0.1,
      0.1,
      0.1,
      0.1,
      0.1,
      0.1,
      0.1,
      0.1,
      0.1,
      0.1,
      0.1,
      0.1,
      0.1,
      0.1,
      0.1,
      0.1,
      0.1,
      0.1,
      0.1,
      0.1,
      0.1,
      0.1,
      0.1,
      0.1,
      0.1,
      0.1,
      0.1,
      0.1,
      0.1,
      0.1,
      0.1,
      0.1,
      0.1,
      0.1,
      0.1,
      0.1,
      0.1
    ],
    "ranged_leap": [
      18.0,
      18.2,
      18.4,
      18.6,
      18.8,
      19.0,
      19.2,
      19.4,
      19.6,
      19.8,
      20.0,
      20.2,
      20.4,
      20.6,
      20.8,
      21.0,
      21.2,
      21.4,
      21.6,
      21.8,
      22.0,
      22.2,
      22.4,
      22.6,
      22.8,
      23.0,
      23.2,
      23.4,
      23.6,
      23.8,
      24.0,
      24.2,
      24.4,
      24.6,
      24.8,
      25.0,
      25.2,
      25.4,
      25.6,
      25.8,
      26.0,
      26.2,
      26.4,
      26.6,
      26.8,
      27.0,
      27.2,
      27.4,
      27.6,
      27.8,
      28.0,
      28.2,
      28.4,
      28.6,
      28.8
    ],
    "ranged_level": [
      1.0,
      2.0,
      3.0,
      4.0,
      5.0,
      6.0,
      7.0,
      8.0,
      9.0,
      10.0,
      11.0,
      12.0,
      13.0,
      14.0,
      15.0,
      16.0,
      17.0,
      18.0,
      19.0,
      20.0,
      21.0,
      22.0,
      23.0,
      24.0,
      25.0,
      26.0,
      27.0,
      28.0,
      29.0,
      30.0,
      31.0,
      32.0,
      33.0,
      34.0,
      35.0,
      36.0,
      37.0,
      38.0,
      39.0,
      40.0,
      41.0,
      42.0,
      43.0,
      44.0,
      45.0,
      46.0,
      47.0,
      48.0,
      49.0,
      50.0,
      51.0,
      52.0,
      53.0,
      54.0,
      55.0
    ],
    "ranged_levelminus": [
      1.0,
      2.0,
      3.0,
      4.0,
      5.0,
      6.0,
      7.0,
      8.0,
      9.0,
      10.0,
      11.0,
      12.0,
      13.0,
      14.0,
      15.0,
      16.0,
      17.0,
      18.0,
      19.0,
      20.0,
      21.0,
      22.0,
      23.0,
      23.0,
      24.0,
      25.0,
      26.0,
      27.0,
      28.0,
      29.0,
      30.0,
      31.0,
      32.0,
      33.0,
      34.0,
      35.0,
      36.0,
      37.0,
      38.0,
      39.0,
      40.0,
      41.0,
      42.0,
      43.0,
      44.0,
      45.0,
      46.0,
      47.0,
      48.0,
      49.0,
      50.0,
      51.0,
      52.0,
      53.0,
      54.0
    ],
    "ranged_levelminus2": [
      1.0,
      2.0,
      3.0,
      4.0,
      5.0,
      5.0,
      6.0,
      7.0,
      8.0,
      9.0,
      10.0,
      11.0,
      12.0,
      13.0,
      14.0,
      15.0,
      16.0,
      16.0,
      17.0,
      18.0,
      19.0,
      20.0,
      21.0,
      22.0,
      23.0,
      24.0,
      25.0,
      26.0,
      27.0,
      28.0,
      29.0,
      30.0,
      31.0,
      32.0,
      33.0,
      34.0,
      35.0,
      36.0,
      37.0,
      38.0,
      39.0,
      40.0,
      41.0,
      42.0,
      43.0,
      44.0,
      45.0,
      46.0,
      47.0,
      48.0,
      49.0,
      50.0,
      51.0,
      52.0,
      53.0
    ],
    "ranged_levelplus": [
      2.0,
      3.0,
      4.0,
      5.0,
      6.0,
      7.0,
      8.0,
      9.0,
      10.0,
      11.0,
      12.0,
      13.0,
      14.0,
      15.0,
      16.0,
      17.0,
      18.0,
      19.0,
      20.0,
      21.0,
      22.0,
      23.0,
      24.0,
      25.0,
      26.0,
      27.0,
      28.0,
      29.0,
      30.0,
      31.0,
      32.0,
      33.0,
      34.0,
      35.0,
      36.0,
      37.0,
      38.0,
      39.0,
      40.0,
      41.0,
      42.0,
      43.0,
      44.0,
      45.0,
      46.0,
      47.0,
      48.0,
      49.0,
      50.0,
      51.0,
      52.0,
      53.0,
      54.0,
      55.0,
      56.0
    ],
    "ranged_ones": [
      1.0,
      1.0,
      1.0,
      1.0,
      1.0,
      1.0,
      1.0,
      1.0,
      1.0,
      1.0,
      1.0,
      1.0,
      1.0,
      1.0,
      1.0,
      1.0,
      1.0,
      1.0,
      1.0,
      1.0,
      1.0,
      1.0,
      1.0,
      1.0,
      1.0,
      1.0,
      1.0,
      1.0,
      1.0,
      1.0,
      1.0,
      1.0,
      1.0,
      1.0,
      1.0,
      1.0,
      1.0,
      1.0,
      1.0,
      1.0,
      1.0,
      1.0,
      1.0,
      1.0,
      1.0,
      1.0,
      1.0,
      1.0,
      1.0,
      1.0,
      1.0,
      1.0,
      1.0,
      1.0,
      1.0
    ],
    "ranged_res_boolean": [
      0.08,
      0.08,
      0.08,
      0.08,
      0.08,
      0.09,
      0.09,
      0.09,
      0.09,
      0.09,
      0.1,
      0.1,
      0.1,
      0.1,
      0.1,
      0.11,
      0.11,
      0.11,
      0.11,
      0.11,
      0.12,
      0.12,
      0.12,
      0.12,
      0.12,
      0.13,
      0.13,
      0.13,
      0.13,
      0.13,
      0.14,
      0.14,
      0.14,
      0.14,
      0.14,
      0.15,
      0.15,
      0.15,
      0.15,
      0.15,
      0.16,
      0.16,
      0.16,
      0.16,
      0.16,
      0.17,
      0.17,
      0.17,
      0.17,
      0.17,
      0.18,
      0.18,
      0.18,
      0.18,
      0.18
    ],
    "ranged_res_dmg": [
      0.05,
      0.05,
      0.05,
      0.05,
      0.05,
      0.05,
      0.05,
      0.05,
      0.05,
      0.05,
      0.05,
      0.05,
      0.05,
      0.05,
      0.05,
      0.05,
      0.05,
      0.05,
      0.05,
      0.05,
      0.05,
      0.05,
      0.05,
      0.05,
      0.05,
      0.05,
      0.05,
      0.05,
      0.05,
      0.05,
      0.05,
      0.05,
      0.05,
      0.05,
      0.05,
      0.05,
      0.05,
      0.05,
      0.05,
      0.05,
      0.05,
      0.05,
      0.05,
      0.05,
      0.05,
      0.05,
      0.05,
      0.05,
      0.05,
      0.05,
      0.05,
      0.05,
      0.05,
      0.05,
      0.05
    ],
    "ranged_sleep": [
      0.2,
      0.2,
      0.2,
      0.21,
      0.21,
      0.21,
      0.21,
      0.21,
      0.22,
      0.22,
      0.22,
      0.22,
      0.22,
      0.23,
      0.23,
      0.23,
      0.23,
      0.23,
      0.24,
      0.24,
      0.24,
      0.24,
      0.24,
      0.25,
      0.25,
      0.25,
      0.25,
      0.25,
      0.26,
      0.26,
      0.26,
      0.26,
      0.26,
      0.27,
      0.27,
      0.27,
      0.27,
      0.27,
      0.28,
      0.28,
      0.28,
      0.28,
      0.28,
      0.29,
      0.29,
      0.29,
      0.29,
      0.29,
      0.3,
      0.3,
      0.3,
      0.3,
      0.3,
      0.31,
      0.31
    ],
    "ranged_slow": [
      -0.5,
      -0.5,
      -0.5,
      -0.5,
      -0.5,
      -0.5,
      -0.5,
      -0.5,
      -0.5,
      -0.5,
      -0.5,
      -0.5,
      -0.5,
      -0.5,
      -0.5,
      -0.5,
      -0.5,
      -0.5,
      -0.5,
      -0.5,
      -0.5,
      -0.5,
      -0.5,
      -0.5,
      -0.5,
      -0.5,
      -0.5,
      -0.5,
      -0.5,
      -0.5,
      -0.5,
      -0.5,
      -0.5,
      -0.5,
      -0.5,
      -0.5,
      -0.5,
      -0.5,
      -0.5,
      -0.5,
      -0.5,
      -0.5,
      -0.5,
      -0.5,
      -0.5,
      -0.5,
      -0.5,
      -0.5,
      -0.5,
      -0.5,
      -0.5,
      -0.5,
      -0.5,
      -0.5,
      -0.5
    ],
    "ranged_special": [
      0.2,
      0.2,
      0.2,
      0.21,
      0.21,
      0.21,
      0.21,
      0.21,
      0.22,
      0.22,
      0.22,
      0.22,
      0.22,
      0.23,
      0.23,
      0.23,
      0.23,
      0.23,
      0.24,
      0.24,
      0.24,
      0.24,
      0.24,
      0.25,
      0.25,
      0.25,
      0.25,
      0.25,
      0.26,
      0.26,
      0.26,
      0.26,
      0.26,
      0.27,
      0.27,
      0.27,
      0.27,
      0.27,
      0.28,
      0.28,
      0.28,
      0.28,
      0.28,
      0.29,
      0.29,
      0.29,
      0.29,
      0.29,
      0.3,
      0.3,
      0.3,
      0.3,
      0.3,
      0.31,
      0.31
    ],
    "ranged_speedflying": [
      0.875,
      0.885,
      0.895,
      0.905,
      0.915,
      0.925,
      0.935,
      0.945,
      0.955,
      0.965,
      0.975,
      0.985,
      0.995,
      1.005,
      1.015,
      1.025,
      1.035,
      1.045,
      1.055,
      1.065,
      1.075,
      1.085,
      1.095,
      1.105,
      1.115,
      1.125,
      1.135,
      1.145,
      1.155,
      1.165,
      1.175,
      1.185,
      1.195,
      1.205,
      1.215,
      1.225,
      1.235,
      1.245,
      1.255,
      1.265,
      1.275,
      1.285,
      1.295,
      1.305,
      1.315,
      1.325,
      1.335,
      1.345,
      1.355,
      1.365,
      1.38,
      1.39,
      1.4,
      1.41,
      1.42
    ],
    "ranged_speedjumping": [
      2.0,
      2.01,
      2.02,
      2.03,
      2.04,
      2.05,
      2.06,
      2.07,
      2.08,
      2.09,
      2.1,
      2.11,
      2.12,
      2.13,
      2.14,
      2.15,
      2.16,
      2.17,
      2.18,
      2.19,
      2.2,
      2.21,
      2.22,
      2.23,
      2.24,
      2.25,
      2.26,
      2.27,
      2.28,
      2.29,
      2.3,
      2.31,
      2.32,
      2.33,
      2.34,
      2.35,
      2.36,
      2.37,
      2.38,
      2.39,
      2.4,
      2.41,
      2.42,
      2.43,
      2.44,
      2.45,
      2.46,
      2.47,
      2.48,
      2.49,
      2.5,
      2.51,
      2.52,
      2.53,
      2.54
    ],
    "ranged_speedrunning": [
      2.5,
      2.5205,
      2.541,
      2.5615,
      2.582,
      2.6025,
      2.623,
      2.6435,
      2.664,
      2.6845,
      2.705,
      2.7255,
      2.746,
      2.7665,
      2.787,
      2.8075,
      2.828,
      2.8485,
      2.869,
      2.8895,
      2.91,
      2.9305,
      2.951,
      2.9715,
      2.992,
      3.0125,
      3.033,
      3.0535,
      3.074,
      3.0945,
      3.115,
      3.1355,
      3.156,
      3.1765,
      3.197,
      3.2175,
      3.238,
      3.2585,
      3.279,
      3.2995,
      3.32,
      3.3405,
      3.361,
      3.3815,
      3.402,
      3.4225,
      3.443,
      3.4635,
      3.484,
      3.5,
      3.5,
      3.5,
      3.5,
      3.5,
      3.5
    ],
    "ranged_speedswimming": [
      0.5,
      0.51,
      0.52,
      0.53,
      0.54,
      0.55,
      0.56,
      0.57,
      0.58,
      0.59,
      0.6,
      0.61,
      0.62,
      0.63,
      0.64,
      0.65,
      0.66,
      0.67,
      0.68,
      0.69,
      0.7,
      0.71,
      0.72,
      0.73,
      0.74,
      0.75,
      0.76,
      0.77,
      0.78,
      0.79,
      0.8,
      0.81,
      0.82,
      0.83,
      0.84,
      0.85,
      0.86,
      0.87,
      0.88,
      0.89,
      0.9,
      0.91,
      0.92,
      0.93,
      0.94,
      0.95,
      0.96,
      0.97,
      0.98,
      0.99,
      1.0,
      1.0,
      1.0,
      1.0,
      1.0
    ],
    "ranged_stun": [
      0.2,
      0.2,
      0.2,
      0.21,
      0.21,
      0.21,
      0.21,
      0.21,
      0.22,
      0.22,
      0.22,
      0.22,
      0.22,
      0.23,
      0.23,
      0.23,
      0.23,
      0.23,
      0.24,
      0.24,
      0.24,
      0.24,
      0.24,
      0.25,
      0.25,
      0.25,
      0.25,
      0.25,
      0.26,
      0.26,
      0.26,
      0.26,
      0.26,
      0.27,
      0.27,
      0.27,
      0.27,
      0.27,
      0.28,
      0.28,
      0.28,
      0.28,
      0.28,
      0.29,
      0.29,
      0.29,
      0.29,
      0.29,
      0.3,
      0.3,
      0.3,
      0.3,
      0.3,
      0.31,
      0.31
    ],
    "ranged_taunt": [
      1.0,
      1.02,
      1.04,
      1.06,
      1.09,
      1.11,
      1.13,
      1.15,
      1.17,
      1.19,
      1.22,
      1.24,
      1.26,
      1.28,
      1.3,
      1.32,
      1.34,
      1.37,
      1.39,
      1.41,
      1.43,
      1.45,
      1.47,
      1.49,
      1.52,
      1.54,
      1.56,
      1.58,
      1.6,
      1.62,
      1.65,
      1.67,
      1.69,
      1.71,
      1.73,
      1.75,
      1.77,
      1.8,
      1.82,
      1.84,
      1.86,
      1.88,
      1.9,
      1.92,
      1.95,
      1.97,
      1.99,
      2.01,
      2.03,
      2.05,
      2.08,
      2.1,
      2.12,
      2.14,
      2.16
    ],
    "ranged_tempdamage": [
      -10.0,
      -11.05,
      -12.18,
      -13.3928,
      -14.6909,
      -16.0768,
      -17.5522,
      -19.119,
      -20.7781,
      -22.5304,
      -24.3761,
      -26.3148,
      -28.3457,
      -30.4672,
      -32.6773,
      -34.9732,
      -37.3514,
      -39.8077,
      -42.3372,
      -44.9344,
      -47.5929,
      -50.3057,
      -53.0651,
      -55.8627,
      -58.6895,
      -61.536,
      -64.3919,
      -67.2466,
      -70.089,
      -72.9077,
      -75.6909,
      -78.4265,
      -81.1026,
      -83.7069,
      -86.2273,
      -88.6518,
      -90.9685,
      -93.1661,
      -95.2335,
      -97.1602,
      -98.9361,
      -100.5521,
      -101.9995,
      -103.2708,
      -104.3591,
      -105.2585,
      -105.9644,
      -106.4729,
      -106.7813,
      -107.0897,
      -107.3981,
      -107.7065,
      -108.0149,
      -108.3233,
      -108.6317
    ]
  }
}