{
  "name": "Sonic_Attack",
  "display_name": "Sonic Attack",
  "display_fullname": "Defender Ranged.Sonic Attack",
  "display_help": "Sonic Attack lets you use the power of sound waves to damage and weaken your foes.",
  "display_short_help": "Sonic Attack",
  "available_level": [
    0,
    1,
    3,
    9,
    15,
    19,
    27,
    34,
    37
  ],
  "source_file": "DEFS/POWERS/DEFENDER_RANGED/SONIC_ATTACK.POWERSETS",
  "requires": "",
  "power_names": [
    "Defender_Ranged.Sonic_Attack.Shriek",
    "Defender_Ranged.Sonic_Attack.Scream",
    "Defender_Ranged.Sonic_Attack.Howl",
    "Defender_Ranged.Sonic_Attack.Shockwave",
    "Defender_Ranged.Sonic_Attack.Shout",
    "Defender_Ranged.Sonic_Attack.Amplify",
    "Defender_Ranged.Sonic_Attack.Sirens_Song",
    "Defender_Ranged.Sonic_Attack.Screech",
    "Defender_Ranged.Sonic_Attack.Dreadful_Wail"
  ],
  "power_display_names": [
    "Shriek",
    "Scream",
    "Howl",
    "Shockwave",
    "Shout",
    "Amplify",
    "Siren's Song",
    "Screech",
    "Dreadful Wail"
  ]
}