{
  "name": "Crafted_Annihilation_C",
  "display_name": "Crafted Annihilation C",
  "display_fullname": "Boosts.Crafted Annihilation C",
  "display_help": "Enhances the accuracy by {Boost.Attrib.Accuracy.Scale}%, damage by {Boost.Attrib.Damage.Scale}% and reduces recharge time by {Boost.Attrib.RechargeTime.Scale}%.",
  "display_short_help": "Set: Annihilation",
  "available_level": [
    0
  ],
  "source_file": "DEFS/POWERS/BOOSTS/CRAFTED_ANNIHILATION_C.POWERSETS",
  "requires": "",
  "power_names": [
    "Boosts.Crafted_Annihilation_C.Crafted_Annihilation_C"
  ],
  "power_display_names": [
    "Annihilation: Accuracy/Damage/Recharge"
  ]
}