{
  "name": "Family_Boss_Defense",
  "display_name": "Family_Boss_Defense",
  "display_fullname": "Family.Family Boss Defense",
  "display_help": "The Family",
  "display_short_help": "The Family",
  "available_level": [
    0
  ],
  "source_file": "DEFS/POWERS/FAMILY/FAMILY_BOSS_DEFENSE.POWERSETS",
  "requires": "",
  "power_names": [
    "Family.Family_Boss_Defense.Focus"
  ],
  "power_display_names": [
    "Focus"
  ]
}