{
  "name": "Knock",
  "display_name": "Knock",
  "display_fullname": "Objects.Knock",
  "display_help": "Object",
  "display_short_help": "Object",
  "available_level": [
    0
  ],
  "source_file": "DEFS/POWERS/OBJECTS/KNOCK.POWERSETS",
  "requires": "",
  "power_names": [
    "Objects.Knock.Diabolique"
  ],
  "power_display_names": [
    "Diabolique"
  ]
}