{
  "name": "Crafted_Impeded_Swiftness_B",
  "display_name": "Crafted Impeded Swiftness B",
  "display_fullname": "Boosts.Crafted Impeded Swiftness B",
  "display_help": "Enhances the damage by {Boost.Attrib.Damage.Scale}% and slowing ability of a power by {Boost.Attrib.Movement.Scale}%.",
  "display_short_help": "Set: Impeded Swiftness",
  "available_level": [
    0
  ],
  "source_file": "DEFS/POWERS/BOOSTS/CRAFTED_IMPEDED_SWIFTNESS_B.POWERSETS",
  "requires": "",
  "power_names": [
    "Boosts.Crafted_Impeded_Swiftness_B.Crafted_Impeded_Swiftness_B"
  ],
  "power_display_names": [
    "Impeded Swiftness: Damage/Slow"
  ]
}