{
  "name": "Crafted_Curtail_Speed_A",
  "display_name": "Crafted Curtail Speed A",
  "display_fullname": "Boosts.Crafted Curtail Speed A",
  "display_help": "Enhances the accuracy by {Boost.Attrib.Accuracy.Scale}% and slowing ability of a power by {Boost.Attrib.Movement.Scale}%.",
  "display_short_help": "Set: Curtail Speed",
  "available_level": [
    0
  ],
  "source_file": "DEFS/POWERS/BOOSTS/CRAFTED_CURTAIL_SPEED_A.POWERSETS",
  "requires": "",
  "power_names": [
    "Boosts.Crafted_Curtail_Speed_A.Crafted_Curtail_Speed_A"
  ],
  "power_display_names": [
    "Curtail Speed: Accuracy/Slow"
  ]
}