{
  "name": "Attuned_Devastation_B",
  "display_name": "Attuned Devastation B",
  "display_fullname": "Boosts.Attuned Devastation B",
  "display_help": "Enhances the damage of a power by {Boost.Attrib.Damage.Scale}% and reduces endurance cost by {Boost.Attrib.Endurance.Scale}%.",
  "display_short_help": "Set: Devastation",
  "available_level": [
    0
  ],
  "source_file": "DEFS/POWERS/BOOSTS/ATTUNED_DEVASTATION_B.POWERSETS",
  "requires": "",
  "power_names": [
    "Boosts.Attuned_Devastation_B.Attuned_Devastation_B"
  ],
  "power_display_names": [
    "Devastation: Damage/Endurance"
  ]
}