{
  "name": "Synthetic_Hamidon_Damage_Accuracy",
  "display_name": "Synthetic Hamidon Damage Accuracy",
  "display_fullname": "Boosts.Synthetic Hamidon Damage Accuracy",
  "display_help": "Enhances the damage and accuracy of a power.",
  "display_short_help": "Hamidon (All Origins)",
  "available_level": [
    0
  ],
  "source_file": "DEFS/POWERS/BOOSTS/SYNTHETIC_HAMIDON_DAMAGE_ACCURACY.POWERSETS",
  "requires": "",
  "power_names": [
    "Boosts.Synthetic_Hamidon_Damage_Accuracy.Synthetic_Hamidon_Damage_Accuracy"
  ],
  "power_display_names": [
    "Synthetic Nucleolus Exposure (Acc/Dam)"
  ]
}