{
  "name": "Spines",
  "display_name": "Spines",
  "display_fullname": "Mission Maker Attacks.Spines",
  "display_help": "Spines protrude from your body and can deal damage in melee or at very short ranges. Spines are hollow and hold a neural toxin that deals additional Toxic damage and can Slow or Immobilize your enemies. The toxin is cumulative, and multiple hits will affect a target more strongly. Very few foes have resistance to Spine poison. Like all scrapper powers, all Spine attacks can sometimes land a critical hit for double damage.",
  "display_short_help": "Spines",
  "available_level": [
    0,
    0,
    1,
    5,
    0,
    25,
    31
  ],
  "source_file": "DEFS/POWERS/MISSION_MAKER_ATTACKS/SPINES.POWERSETS",
  "requires": "",
  "power_names": [
    "Mission_Maker_Attacks.Spines.Barb_Swipe",
    "Mission_Maker_Attacks.Spines.Lunge",
    "Mission_Maker_Attacks.Spines.Spine_Burst",
    "Mission_Maker_Attacks.Spines.Build_Up",
    "Mission_Maker_Attacks.Spines.Impale",
    "Mission_Maker_Attacks.Spines.Ripper",
    "Mission_Maker_Attacks.Spines.Quill_Throwing"
  ],
  "power_display_names": [
    "Barb Swipe",
    "Lunge",
    "Spine Burst",
    "Build Up",
    "Impale",
    "Ripper",
    "Throw Spines"
  ]
}