{
  "name": "Lambda_Containment_Clone",
  "display_name": "Lambda_Containment_Clone",
  "display_fullname": "Objects.Lambda Containment Clone",
  "display_help": "Utility",
  "display_short_help": "Utility",
  "available_level": [
    0
  ],
  "source_file": "DEFS/POWERS/OBJECTS/LAMBDA_CONTAINMENT_CLONE.POWERSETS",
  "requires": "",
  "power_names": [
    "Objects.Lambda_Containment_Clone.Clone_Containment"
  ],
  "power_display_names": [
    "Clone Containment"
  ]
}