{
  "name": "RulaWade_Special",
  "display_name": "RulaWade_Special",
  "display_fullname": "OneWillDie Issue3Powers.RulaWade Special",
  "display_help": "Map",
  "display_short_help": "Map",
  "available_level": [
    0
  ],
  "source_file": "DEFS/POWERS/ONEWILLDIE_ISSUE3POWERS/RULAWADE_SPECIAL.POWERSETS",
  "requires": "",
  "power_names": [
    "OneWillDie_Issue3Powers.RulaWade_Special.Apocalypse_Blast"
  ],
  "power_display_names": [
    "Apocalypse Blast"
  ]
}