{
  "name": "PraetorianShepherds",
  "display_name": "PraetorianShepherds",
  "source_file": "DEFS/POWERS/PRAETORIANSHEPHERDS.CATEGORIES",
  "archetypes": [
    "minion_pets"
  ],
  "display_help": null,
  "display_short_help": null,
  "powerset_names": [
    "praetorianshepherds.blindness",
    "praetorianshepherds.cult_worshipper",
    "praetorianshepherds.doomsayer",
    "praetorianshepherds.overload",
    "praetorianshepherds.prophet",
    "praetorianshepherds.resistances",
    "praetorianshepherds.soothsayer"
  ],
  "powerset_display_names": [
    "Blindness",
    "Cult Worshipper",
    "Doomsayer",
    "Overload",
    "Prophet",
    "Resistances",
    "Soothsayer"
  ]
}