{
  "name": "Alpha_Wolf",
  "display_name": "Alpha Wolf",
  "display_fullname": "Mastermind Pets.Alpha Wolf",
  "display_help": "Beasts",
  "display_short_help": "Beasts",
  "available_level": [
    0,
    0,
    0,
    0,
    11
  ],
  "source_file": "DEFS/POWERS/MASTERMIND_PETS/ALPHA_WOLF.POWERSETS",
  "requires": "",
  "power_names": [
    "Mastermind_Pets.Alpha_Wolf.Resistance",
    "Mastermind_Pets.Alpha_Wolf.Vicious_Bite",
    "Mastermind_Pets.Alpha_Wolf.PM_Vicious_Bite",
    "Mastermind_Pets.Alpha_Wolf.Super_Leap",
    "Mastermind_Pets.Alpha_Wolf.Wild_Charge"
  ],
  "power_display_names": [
    "Resistance",
    "Vicious Bite",
    "Pack Mentality Granter",
    "Super Leap",
    "Wild Charge"
  ]
}