{
  "name": "Meltdown_Armageddon",
  "display_name": "Meltdown_Armageddon",
  "display_fullname": "SummerEvent.Meltdown Armageddon",
  "display_help": "Armageddon",
  "display_short_help": "Armageddon",
  "available_level": [
    0
  ],
  "source_file": "DEFS/POWERS/SUMMEREVENT/MELTDOWN_ARMAGEDDON.POWERSETS",
  "requires": "",
  "power_names": [
    "SummerEvent.Meltdown_Armageddon.Neutron_Burst"
  ],
  "power_display_names": [
    "Neutron Burst"
  ]
}