{
  "name": "Nemesis_Support_Ranged",
  "display_name": "Nemesis_Support_Ranged",
  "display_fullname": "Nemesis.Nemesis Support Ranged",
  "display_help": "Nemesis",
  "display_short_help": "Nemesis",
  "available_level": [
    0
  ],
  "source_file": "DEFS/POWERS/NEMESIS/NEMESIS_SUPPORT_RANGED.POWERSETS",
  "requires": "",
  "power_names": [
    "Nemesis.Nemesis_Support_Ranged.Storm_Rifle"
  ],
  "power_display_names": [
    "Storm Rifle"
  ]
}