{
  "name": "Axis_America_Missile",
  "display_name": "Axis_America_Missile",
  "display_fullname": "Portal.Axis America Missile",
  "display_help": "Axis America",
  "display_short_help": "Axis America",
  "available_level": [
    0
  ],
  "source_file": "DEFS/POWERS/PORTAL/AXIS_AMERICA_MISSILE.POWERSETS",
  "requires": "",
  "power_names": [
    "Portal.Axis_America_Missile.Missile_Launcher"
  ],
  "power_display_names": [
    "Missile Launcher"
  ]
}