{
  "name": "Superior_Attuned_Blistering_Cold_E",
  "display_name": "Superior Attuned Blistering Cold E",
  "display_fullname": "Boosts.Superior Attuned Blistering Cold E",
  "display_help": "UNIQUE -- No more than 1 enhancement of this type may be slotted by a character. Enhances the accuracy of a power by {Boost.Attrib.Accuracy.Scale}%, damage by {Boost.Attrib.Damage.Scale}%, reduces endurance cost by {Boost.Attrib.Endurance.Scale}% and reduces recharge time by {Boost.Attrib.RechargeTime.Scale}%.",
  "display_short_help": "Set: Superior Blistering Cold",
  "available_level": [
    0
  ],
  "source_file": "DEFS/POWERS/BOOSTS/SUPERIOR_ATTUNED_BLISTERING_COLD_E.POWERSETS",
  "requires": "",
  "power_names": [
    "Boosts.Superior_Attuned_Blistering_Cold_E.Superior_Attuned_Blistering_Cold_E"
  ],
  "power_display_names": [
    "Superior Blistering Cold: Accuracy/Damage/Endurance/Recharge"
  ]
}