{
  "name": "Crafted_Blessing_of_the_Zephyr_C",
  "display_name": "Crafted Blessing of the Zephyr C",
  "display_fullname": "Boosts.Crafted Blessing of the Zephyr C",
  "display_help": "Reduces Knockback effects by -4. NOTE: This enhancement can be slotted into any travel power.",
  "display_short_help": "Set: Blessing of the Zephyr",
  "available_level": [
    0
  ],
  "source_file": "DEFS/POWERS/BOOSTS/CRAFTED_BLESSING_OF_THE_ZEPHYR_C.POWERSETS",
  "requires": "",
  "power_names": [
    "Boosts.Crafted_Blessing_of_the_Zephyr_C.Crafted_Blessing_of_the_Zephyr_C"
  ],
  "power_display_names": [
    "Blessing of the Zephyr: Knockback Reduction (4 points)"
  ]
}