{
  "name": "Crafted_Experienced_Marksman_C",
  "display_name": "Experienced Marksman C",
  "display_fullname": "Boosts.Crafted Experienced Marksman C",
  "display_help": "Enhances damage by {Boost.Attrib.Damage.Scale}%. Reduces endurance cost by {Boost.Attrib.Endurance.Scale}%. Reduces interrupt time by {Boost.Attrib.InterruptTime.Scale}%. NOTE: This is a PvP enhancement, this type of enhancement has two groups of set bonuses. You get the set bonuses not marked \"(PvP)\" while experiencing PvE content, but you get both the PvP set bonuses and the PvE set bonuses when fighting players.",
  "display_short_help": "Set: Experienced Marksman",
  "available_level": [
    0
  ],
  "source_file": "DEFS/POWERS/BOOSTS/CRAFTED_EXPERIENCED_MARKSMAN_C.POWERSETS",
  "requires": "",
  "power_names": [
    "Boosts.Crafted_Experienced_Marksman_C.Crafted_Experienced_Marksman_C"
  ],
  "power_display_names": [
    "Experienced Marksman: Damage/Endurance/Interrupt"
  ]
}