{
  "name": "Electric_Armor",
  "display_name": "Electric Armor",
  "display_fullname": "Tanker Defense.Electric Armor",
  "display_help": "Your entire body is basically a powerful capacitor. You can store and release massive amounts of electricity that can absorb damage directed at you. Electric Armor offers better than average resistance to just about all types of damage, including Psionic, but has no defense boosting powers or resistance to Toxic. Electric Armor also offers superior resistance to Energy damage and Endurance Drain.",
  "display_short_help": "Electric Armor",
  "available_level": [
    0,
    0,
    1,
    5,
    7,
    11,
    17,
    25,
    31
  ],
  "source_file": "DEFS/POWERS/TANKER_DEFENSE/ELECTRIC_ARMOR.POWERSETS",
  "requires": "",
  "power_names": [
    "Tanker_Defense.Electric_Armor.Charged_Armor",
    "Tanker_Defense.Electric_Armor.Lightning_Field",
    "Tanker_Defense.Electric_Armor.Conductive_Shield",
    "Tanker_Defense.Electric_Armor.Static_Shield",
    "Tanker_Defense.Electric_Armor.Grounded",
    "Tanker_Defense.Electric_Armor.Energize",
    "Tanker_Defense.Electric_Armor.Lightning_Reflexes",
    "Tanker_Defense.Electric_Armor.Power_Sink",
    "Tanker_Defense.Electric_Armor.Power_Surge"
  ],
  "power_display_names": [
    "Charged Armor",
    "Lightning Field",
    "Conductive Shield",
    "Static Shield",
    "Grounded",
    "Energize",
    "Lightning Reflexes",
    "Power Sink",
    "Power Surge"
  ]
}