{
  "name": "OuroPortal",
  "display_name": "",
  "display_fullname": "Objects.OuroPortal",
  "display_help": "Object",
  "display_short_help": "Object",
  "available_level": [
    0,
    0
  ],
  "source_file": "DEFS/POWERS/OBJECTS/OUROPORTAL.POWERSETS",
  "requires": "",
  "power_names": [
    "Objects.OuroPortal.KillPortals",
    "Objects.OuroPortal.KillPortalsAura"
  ],
  "power_display_names": [
    "Resistance",
    "Resistance"
  ]
}