{
  "name": "Beam_Rifle",
  "display_name": "Beam Rifle",
  "display_fullname": "Corruptor Ranged.Beam Rifle",
  "display_help": "Your weapon of choice is a high-tech beam rifle capable of firing a wide variety of energy blasts at your foes. Your Beam Rifle attacks will have greater potency while Disintegration is in effect on your target. Additionally, single target Beam Rifle attacks used on targets suffering from the Disintegrating effect have a chance to spread this effect to nearby foes. Beam Rifle focuses on dealing a great deal of single target damage, but has a few area of effect attacks as well.",
  "display_short_help": "Beam Rifle",
  "available_level": [
    0,
    0,
    1,
    5,
    7,
    11,
    17,
    25,
    31
  ],
  "source_file": "DEFS/POWERS/CORRUPTOR_RANGED/BEAM_RIFLE.POWERSETS",
  "requires": "",
  "power_names": [
    "Corruptor_Ranged.Beam_Rifle.Single_Shot",
    "Corruptor_Ranged.Beam_Rifle.Charged_Shot",
    "Corruptor_Ranged.Beam_Rifle.Cutting_Beam",
    "Corruptor_Ranged.Beam_Rifle.Disintegrate",
    "Corruptor_Ranged.Beam_Rifle.Aim",
    "Corruptor_Ranged.Beam_Rifle.Lancer_Shot",
    "Corruptor_Ranged.Beam_Rifle.Penetrating_Ray",
    "Corruptor_Ranged.Beam_Rifle.Piercing_Beam",
    "Corruptor_Ranged.Beam_Rifle.Overcharge"
  ],
  "power_display_names": [
    "Single Shot",
    "Charged Shot",
    "Cutting Beam",
    "Disintegrate",
    "Aim",
    "Lancer Shot",
    "Penetrating Ray",
    "Piercing Beam",
    "Overcharge"
  ]
}