{
  "name": "Corruptor_RainofFire",
  "display_name": "Rain of Fire",
  "display_fullname": "Pets.Rain of Fire",
  "display_help": "Fire Blast",
  "display_short_help": "Fire Blast",
  "available_level": [
    0,
    0
  ],
  "source_file": "DEFS/POWERS/PETS/CORRUPTOR_RAINOFFIRE.POWERSETS",
  "requires": "",
  "power_names": [
    "Pets.Corruptor_RainofFire.RainofFire",
    "Pets.Corruptor_RainofFire.Avoid"
  ],
  "power_display_names": [
    "RainofFire",
    "Avoid"
  ]
}