{
  "name": "Endgame_LT_Herald",
  "display_name": "Endgame_LT_Herald",
  "display_fullname": "Tsoo.Endgame LT Herald",
  "display_help": "Tsoo",
  "display_short_help": "Tsoo",
  "available_level": [
    0,
    0,
    0,
    0
  ],
  "source_file": "DEFS/POWERS/TSOO/ENDGAME_LT_HERALD.POWERSETS",
  "requires": "",
  "power_names": [
    "Tsoo.Endgame_LT_Herald.Enrapture",
    "Tsoo.Endgame_LT_Herald.Dominate",
    "Tsoo.Endgame_LT_Herald.Kama",
    "Tsoo.Endgame_LT_Herald.Sai"
  ],
  "power_display_names": [
    "Enrapture",
    "Dominate",
    "Kama",
    "Sai"
  ]
}