{
  "name": "Security_Guard_Heavy_Pistol",
  "display_name": "Security_Guard_Heavy_Pistol",
  "display_fullname": "V Security Guards.Security Guard Heavy Pistol",
  "display_help": "SecurityGuards",
  "display_short_help": "SecurityGuards",
  "available_level": [
    0
  ],
  "source_file": "DEFS/POWERS/V_SECURITY_GUARDS/SECURITY_GUARD_HEAVY_PISTOL.POWERSETS",
  "requires": "",
  "power_names": [
    "V_Security_Guards.Security_Guard_Heavy_Pistol.Heavy_Pistol"
  ],
  "power_display_names": [
    "Heavy Pistol"
  ]
}