{
  "name": "Crafted_Doctored_Wounds_E",
  "display_name": "Crafted Doctored Wounds E",
  "display_fullname": "Boosts.Crafted Doctored Wounds E",
  "display_help": "Enhances the healing potential and damage absorption of a power by {Boost.Attrib.Heal.Scale}%.",
  "display_short_help": "Set: Doctored Wounds",
  "available_level": [
    0
  ],
  "source_file": "DEFS/POWERS/BOOSTS/CRAFTED_DOCTORED_WOUNDS_E.POWERSETS",
  "requires": "",
  "power_names": [
    "Boosts.Crafted_Doctored_Wounds_E.Crafted_Doctored_Wounds_E"
  ],
  "power_display_names": [
    "Doctored Wounds: Healing/Absorb"
  ]
}