{
  "name": "Crafted_Touch_of_the_Nictus_C",
  "display_name": "Crafted Touch of the Nictus C",
  "display_fullname": "Boosts.Crafted Touch of the Nictus C",
  "display_help": "Enhances the accuracy of a power by {Boost.Attrib.Accuracy.Scale}%, the healing potential and damage absorption of a power by {Boost.Attrib.Heal.Scale}%. NOTE: This enhancement can only be slotted into healing powers that require a To Hit check.",
  "display_short_help": "Set: Touch of the Nictus",
  "available_level": [
    0
  ],
  "source_file": "DEFS/POWERS/BOOSTS/CRAFTED_TOUCH_OF_THE_NICTUS_C.POWERSETS",
  "requires": "",
  "power_names": [
    "Boosts.Crafted_Touch_of_the_Nictus_C.Crafted_Touch_of_the_Nictus_C"
  ],
  "power_display_names": [
    "Touch of the Nictus: Accuracy/Healing/Absorb"
  ]
}