{
  "name": "Crafted_Performance_Shifter_F",
  "display_name": "Crafted Performance Shifter F",
  "display_fullname": "Boosts.Crafted Performance Shifter F",
  "display_help": "Gives a minor chance of granting the powers target a small infusion of endurance. This effect will trigger roughly 1.5 times per minute.",
  "display_short_help": "Set: Performance Shifter",
  "available_level": [
    0
  ],
  "source_file": "DEFS/POWERS/BOOSTS/CRAFTED_PERFORMANCE_SHIFTER_F.POWERSETS",
  "requires": "",
  "power_names": [
    "Boosts.Crafted_Performance_Shifter_F.Crafted_Performance_Shifter_F"
  ],
  "power_display_names": [
    "Performance Shifter: Chance for +Endurance"
  ]
}