{
  "name": "Attuned_Gauntleted_Fist_B",
  "display_name": "Attuned Gauntleted Fist B",
  "display_fullname": "Boosts.Attuned Gauntleted Fist B",
  "display_help": "UNIQUE -- No more than 1 enhancement of this type may be slotted by a character. Enhances the damage of a power by {Boost.Attrib.Damage.Scale}% and reduces recharge time by {Boost.Attrib.RechargeTime.Scale}%. This enhancement can only be slotted by Tankers and may be slotted into any Tanker damage power.",
  "display_short_help": "Set: Gauntleted Fist",
  "available_level": [
    0
  ],
  "source_file": "DEFS/POWERS/BOOSTS/ATTUNED_GAUNTLETED_FIST_B.POWERSETS",
  "requires": "",
  "power_names": [
    "Boosts.Attuned_Gauntleted_Fist_B.Attuned_Gauntleted_Fist_B"
  ],
  "power_display_names": [
    "Gauntleted Fist: Damage/Recharge (Tanker)"
  ]
}