{
  "name": "Hoverbot_Movement",
  "display_name": "Hoverbot_Movement",
  "display_fullname": "Council.Hoverbot Movement",
  "display_help": "Council",
  "display_short_help": "Council",
  "available_level": [
    0
  ],
  "source_file": "DEFS/POWERS/COUNCIL/HOVERBOT_MOVEMENT.POWERSETS",
  "requires": "",
  "power_names": [
    "Council.Hoverbot_Movement.Fly"
  ],
  "power_display_names": [
    "Fly"
  ]
}