{
  "name": "Tilman_Suppression",
  "display_name": "Tilman_Suppression",
  "display_fullname": "MindsOfMayhem.Tilman Suppression",
  "display_help": "Incarnate",
  "display_short_help": "Incarnate",
  "available_level": [
    0,
    0
  ],
  "source_file": "DEFS/POWERS/MINDSOFMAYHEM/TILMAN_SUPPRESSION.POWERSETS",
  "requires": "",
  "power_names": [
    "MindsOfMayhem.Tilman_Suppression.Create_Suppressor",
    "MindsOfMayhem.Tilman_Suppression.Mind_Suppression"
  ],
  "power_display_names": [
    "Create Suppressor",
    "Mind Suppression"
  ]
}