{
  "name": "No_Travel",
  "display_name": "No_Travel",
  "display_fullname": "Objects.No Travel",
  "display_help": "Map",
  "display_short_help": "Map",
  "available_level": [
    0
  ],
  "source_file": "DEFS/POWERS/OBJECTS/NO_TRAVEL.POWERSETS",
  "requires": "",
  "power_names": [
    "Objects.No_Travel.Disable_Travel_and_Suicide_Powers"
  ],
  "power_display_names": [
    "Disable Travel and Suicide Powers"
  ]
}