{
  "name": "Crafted_Heal_10",
  "display_name": "Crafted Heal 10",
  "display_fullname": "Boosts.Crafted Heal 10",
  "display_help": "Increases healing, hit point buffs and Damage Absorption by {Boost.Attrib.Heal.Scale}%.",
  "display_short_help": "Invention",
  "available_level": [
    0
  ],
  "source_file": "DEFS/POWERS/BOOSTS/CRAFTED_HEAL_10.POWERSETS",
  "requires": "",
  "power_names": [
    "Boosts.Crafted_Heal_10.Crafted_Heal_10"
  ],
  "power_display_names": [
    "Invention: Healing/Absorb"
  ]
}