{
  "name": "Praetorians",
  "display_name": "Praetorians",
  "source_file": "DEFS/POWERS/PRAETORIANS.CATEGORIES",
  "archetypes": [
    "boss_grunt",
    "lt_grunt",
    "minion_grunt",
    "minion_pets"
  ],
  "display_help": null,
  "display_short_help": null,
  "powerset_names": [
    "praetorians.anti_matter",
    "praetorians.anti_matter_alt",
    "praetorians.anti_matter_clockwork",
    "praetorians.anti_matter_self_destruct",
    "praetorians.baf_siegestage4",
    "praetorians.baf_siegestage4_init",
    "praetorians.battle_maiden",
    "praetorians.battle_maiden_axe_minions",
    "praetorians.battle_maiden_mace_minions",
    "praetorians.battle_maiden_minions",
    "praetorians.battle_maiden_sword_minions",
    "praetorians.black_swan",
    "praetorians.black_swan_darkservant",
    "praetorians.black_swan_minion",
    "praetorians.bobcat",
    "praetorians.bobcat_minions",
    "praetorians.chimera",
    "praetorians.chimera_kama_ninja",
    "praetorians.chimera_katana_ninja",
    "praetorians.chimera_ninja_ranged",
    "praetorians.chimera_sai_ninja",
    "praetorians.diabolique",
    "praetorians.diabolique_spirits",
    "praetorians.dominatrix",
    "praetorians.dominatrix_lt_boss",
    "praetorians.dominatrix_minions",
    "praetorians.infernal",
    "praetorians.infernal_behemoth",
    "praetorians.infernal_greater_behemoth",
    "praetorians.irradiated",
    "praetorians.malaise",
    "praetorians.malaise_minion",
    "praetorians.malaise_minion_axe",
    "praetorians.malaise_minion_bat",
    "praetorians.malaise_minion_knife",
    "praetorians.malaise_minion_shotgun",
    "praetorians.malaise_minion_sledgehammer",
    "praetorians.malaise_minion_submachinegun",
    "praetorians.marauder",
    "praetorians.marauder_punks",
    "praetorians.mother_mayhem",
    "praetorians.mother_mayhem_minion",
    "praetorians.neuron",
    "praetorians.neuron_clockwork_blaster",
    "praetorians.neuron_clockwork_controller",
    "praetorians.neuron_clockwork_inherent",
    "praetorians.nightstar",
    "praetorians.p_anti_matter",
    "praetorians.p_malaise",
    "praetorians.p_marauder",
    "praetorians.p_marauder_artillerybarrage",
    "praetorians.p_marauder_preparejump",
    "praetorians.p_mother_mayhem",
    "praetorians.p_nightstar",
    "praetorians.p_siege",
    "praetorians.raiseally",
    "praetorians.revive",
    "praetorians.sequestration_field",
    "praetorians.shadowhunter",
    "praetorians.shadowhunter_wolf",
    "praetorians.siege",
    "praetorians.siege_nightstar_minions",
    "praetorians.tyrant",
    "praetorians.tyrant_alt"
  ],
  "powerset_display_names": [
    "Anti_Matter",
    "Anti_Matter_Alt",
    "Anti_Matter_Clockwork",
    "",
    "BAF_SiegeStage4",
    "BAF_SiegeStage4_Init",
    "Battle_Maiden",
    "Battle_Maiden_Axe_Minions",
    "Battle_Maiden_Mace_Minions",
    "Battle_Maiden_Minions",
    "Battle_Maiden_Sword_Minions",
    "Black_Swan",
    "Black_Swan_DarkServant",
    "Black_Swan_Minion",
    "Bobcat",
    "Bobcat_Minions",
    "Chimera",
    "Chimera_Kama_Ninja",
    "Chimera_Katana_Ninja",
    "Chimera_Ninja_Ranged",
    "Chimera_Sai_Ninja",
    "Diabolique",
    "Diabolique_Spirits",
    "Dominatrix",
    "Dominatrix_Lt_Boss",
    "Dominatrix_Minions",
    "Infernal",
    "Infernal_Behemoth",
    "Infernal_Greater_Behemoth",
    "Irradiated",
    "Malaise",
    "Malaise_minion",
    "Malaise_minion_Axe",
    "Malaise_minion_Bat",
    "Malaise_minion_Knife",
    "Malaise_minion_Shotgun",
    "Malaise_minion_Sledgehammer",
    "Malaise_minion_SubmachineGun",
    "Marauder",
    "Marauder_Punks",
    "Mother_Mayhem",
    "Mother_Mayhem_Minion",
    "Neuron",
    "Neuron_Clockwork_Blaster",
    "Neuron_Clockwork_Controller",
    "Neuron_Clockwork_Inherent",
    "Nightstar",
    "P_Anti_Matter",
    "P_Malaise",
    "P_Marauder",
    "P_Marauder_ArtilleryBarrage",
    "P_Marauder_PrepareJump",
    "P_Mother_Mayhem",
    "Nightstar",
    "Siege",
    "RaiseAlly",
    "Revive",
    "Sequestration Field",
    "Shadowhunter",
    "Shadowhunter_Wolf",
    "Siege",
    "Siege_Nightstar_Minions",
    "Tyrant",
    "Tyrant_Alt"
  ]
}