{
  "name": "Attuned_Force_Feedback_A",
  "display_name": "Attuned Force Feedback A",
  "display_fullname": "Boosts.Attuned Force Feedback A",
  "display_help": "Enhances the Knockback potential of a power by {Boost.Attrib.Knock.Scale}% and the damage by {Boost.Attrib.Damage.Scale}%.",
  "display_short_help": "Set: Force Feedback",
  "available_level": [
    0
  ],
  "source_file": "DEFS/POWERS/BOOSTS/ATTUNED_FORCE_FEEDBACK_A.POWERSETS",
  "requires": "",
  "power_names": [
    "Boosts.Attuned_Force_Feedback_A.Attuned_Force_Feedback_A"
  ],
  "power_display_names": [
    "Force Feedback: Knockback/Damage"
  ]
}