{
  "name": "Crafted_Miracle_E",
  "display_name": "Crafted Miracle E",
  "display_fullname": "Boosts.Crafted Miracle E",
  "display_help": "Enhances the healing potential and damage absorption of a power by {Boost.Attrib.Heal.Scale}%.",
  "display_short_help": "Set: Miracle",
  "available_level": [
    0
  ],
  "source_file": "DEFS/POWERS/BOOSTS/CRAFTED_MIRACLE_E.POWERSETS",
  "requires": "",
  "power_names": [
    "Boosts.Crafted_Miracle_E.Crafted_Miracle_E"
  ],
  "power_display_names": [
    "Miracle: Healing/Absorb"
  ]
}