{
  "name": "Lt_Sefu_Tendaji",
  "display_name": "",
  "display_fullname": "V FreedomCorps.Lt Sefu Tendaji",
  "display_help": "Longbow",
  "display_short_help": "Longbow",
  "available_level": [
    0,
    0,
    0,
    0,
    0,
    0,
    0,
    0,
    0
  ],
  "source_file": "DEFS/POWERS/V_FREEDOMCORPS/LT_SEFU_TENDAJI.POWERSETS",
  "requires": "",
  "power_names": [
    "V_FreedomCorps.Lt_Sefu_Tendaji.Force_Bolt",
    "V_FreedomCorps.Lt_Sefu_Tendaji.Bone_Smasher",
    "V_FreedomCorps.Lt_Sefu_Tendaji.Power_Punch",
    "V_FreedomCorps.Lt_Sefu_Tendaji.Energy_Torrent",
    "V_FreedomCorps.Lt_Sefu_Tendaji.Explosive_Blast",
    "V_FreedomCorps.Lt_Sefu_Tendaji.Protective_Shield",
    "V_FreedomCorps.Lt_Sefu_Tendaji.Repulsion_Field",
    "V_FreedomCorps.Lt_Sefu_Tendaji.Dispersion_Bubble",
    "V_FreedomCorps.Lt_Sefu_Tendaji.Resistances"
  ],
  "power_display_names": [
    "Force Bolt",
    "Bone Smasher",
    "Power Punch",
    "Energy Torrent",
    "Explosive Blast",
    "Protective Shield",
    "Repulsion Field",
    "Dispersion Bubble",
    "Resistances"
  ]
}