{
  "name": "Freaklok_Fire",
  "display_name": "Freaklok_Fire",
  "display_fullname": "Pets.Freaklok Fire",
  "display_help": "Freaklok_Fire",
  "display_short_help": "Freaklok_Fire",
  "available_level": [
    0
  ],
  "source_file": "DEFS/POWERS/PETS/FREAKLOK_FIRE.POWERSETS",
  "requires": "",
  "power_names": [
    "Pets.Freaklok_Fire.Freaklok_Fire"
  ],
  "power_display_names": [
    "Freaklok_Fire"
  ]
}