{
  "name": "Crafted_Commanding_Presence_C",
  "display_name": "Crafted Commanding Presence C",
  "display_fullname": "Boosts.Crafted Commanding Presence C",
  "display_help": "Enhances the accuracy of a power by {Boost.Attrib.Accuracy.Scale}% and reduces endurance cost by {Boost.Attrib.Endurance.Scale}%.",
  "display_short_help": "Set: Commanding Presence",
  "available_level": [
    0
  ],
  "source_file": "DEFS/POWERS/BOOSTS/CRAFTED_COMMANDING_PRESENCE_C.POWERSETS",
  "requires": "",
  "power_names": [
    "Boosts.Crafted_Commanding_Presence_C.Crafted_Commanding_Presence_C"
  ],
  "power_display_names": [
    "Commanding Presence: Accuracy/Endurance"
  ]
}