{
  "name": "Android_Mender_Ranged",
  "display_name": "Android Mender Ranged",
  "display_fullname": "PraetorianClockwork.Android Mender Ranged",
  "display_help": "Clockwork",
  "display_short_help": "Clockwork",
  "available_level": [
    0,
    10,
    15,
    0,
    30
  ],
  "source_file": "DEFS/POWERS/PRAETORIANCLOCKWORK/ANDROID_MENDER_RANGED.POWERSETS",
  "requires": "",
  "power_names": [
    "PraetorianClockwork.Android_Mender_Ranged.Particle_Blast",
    "PraetorianClockwork.Android_Mender_Ranged.Particle_Blast_Barrage",
    "PraetorianClockwork.Android_Mender_Ranged.Particle_Burst",
    "PraetorianClockwork.Android_Mender_Ranged.Nano_Repair",
    "PraetorianClockwork.Android_Mender_Ranged.Field_Projector"
  ],
  "power_display_names": [
    "Particle Blast",
    "Particle Blast Barrage",
    "Particle Burst",
    "Nano Repair",
    "Field Projector"
  ]
}