{
  "name": "Crafted_Res_Damage_50",
  "display_name": "Crafted Res Damage 50",
  "display_fullname": "Boosts.Crafted Res Damage 50",
  "display_help": "Enhances the damage resistance of a power by {Boost.Attrib.Damage.Scale}%.",
  "display_short_help": "Invention",
  "available_level": [
    0
  ],
  "source_file": "DEFS/POWERS/BOOSTS/CRAFTED_RES_DAMAGE_50.POWERSETS",
  "requires": "",
  "power_names": [
    "Boosts.Crafted_Res_Damage_50.Crafted_Res_Damage_50"
  ],
  "power_display_names": [
    "Invention: Resist Damage"
  ]
}