{
  "name": "Patrolman",
  "display_name": "Patrolman",
  "display_fullname": "Drudges.Patrolman",
  "display_help": "Drudges",
  "display_short_help": "Drudges",
  "available_level": [
    0,
    0,
    0
  ],
  "source_file": "DEFS/POWERS/DRUDGES/PATROLMAN.POWERSETS",
  "requires": "",
  "power_names": [
    "Drudges.Patrolman.Jawbreaker",
    "Drudges.Patrolman.Clobber",
    "Drudges.Patrolman.Crowd_Control"
  ],
  "power_display_names": [
    "Soul Slam",
    "Soul Smash",
    "Soul Crush"
  ]
}