{
  "name": "Attuned_Neuronic_Shutdown_F",
  "display_name": "Attuned Neuronic Shutdown F",
  "display_fullname": "Boosts.Attuned Neuronic Shutdown F",
  "display_help": "Provides a chance to cause minor psionic damage to your targets. This effect will trigger roughly 3.5 times per minute.",
  "display_short_help": "Set: Neuronic Shutdown",
  "available_level": [
    0
  ],
  "source_file": "DEFS/POWERS/BOOSTS/ATTUNED_NEURONIC_SHUTDOWN_F.POWERSETS",
  "requires": "",
  "power_names": [
    "Boosts.Attuned_Neuronic_Shutdown_F.Attuned_Neuronic_Shutdown_F"
  ],
  "power_display_names": [
    "Neuronic Shutdown: Chance for Psionic Damage"
  ]
}