{
  "name": "War_Mace",
  "display_name": "War Mace",
  "display_fullname": "Mission Maker Attacks.War Mace",
  "display_help": "You can wield a Medieval Mace and master a variety of powerful Smashing attacks. Attack speeds are good, and the weight of the Mace has good Disorienting capabilities. The sheer weight of this weapon give it a bonus to hit.",
  "display_short_help": "War Mace",
  "available_level": [
    0,
    0,
    0,
    1,
    5,
    7,
    15,
    25,
    31
  ],
  "source_file": "DEFS/POWERS/MISSION_MAKER_ATTACKS/WAR_MACE.POWERSETS",
  "requires": "",
  "power_names": [
    "Mission_Maker_Attacks.War_Mace.Bash",
    "Mission_Maker_Attacks.War_Mace.Pulverize",
    "Mission_Maker_Attacks.War_Mace.Throwing_Knives",
    "Mission_Maker_Attacks.War_Mace.Jawbreaker",
    "Mission_Maker_Attacks.War_Mace.Build_Up",
    "Mission_Maker_Attacks.War_Mace.Clobber",
    "Mission_Maker_Attacks.War_Mace.Whirling_Mace",
    "Mission_Maker_Attacks.War_Mace.Shatter",
    "Mission_Maker_Attacks.War_Mace.Crowd_Control"
  ],
  "power_display_names": [
    "Bash",
    "Pulverize",
    "Throwing Knives",
    "Jawbreaker",
    "Build Up",
    "Clobber",
    "Whirling Mace",
    "Shatter",
    "Crowd Control"
  ]
}