{
  "name": "Faultline",
  "display_name": "Faultline",
  "display_fullname": "Vanguard.Faultline",
  "display_help": "Vanguard",
  "display_short_help": "Vanguard",
  "available_level": [
    0,
    0,
    0,
    0,
    0,
    0,
    0,
    0,
    0
  ],
  "source_file": "DEFS/POWERS/VANGUARD/FAULTLINE.POWERSETS",
  "requires": "",
  "power_names": [
    "Vanguard.Faultline.Granite_Armor",
    "Vanguard.Faultline.Earths_Embrace",
    "Vanguard.Faultline.Mud_Pots",
    "Vanguard.Faultline.Quicksand",
    "Vanguard.Faultline.Stone_Prison",
    "Vanguard.Faultline.Fossilize",
    "Vanguard.Faultline.Stone_Fist",
    "Vanguard.Faultline.Tremor",
    "Vanguard.Faultline.Seismic_Smash"
  ],
  "power_display_names": [
    "Granite Armor",
    "Earth's Embrace",
    "Mud Pots",
    "Quicksand",
    "Stone Prison",
    "Fossilize",
    "Stone Fist",
    "Tremor",
    "Seismic Smash"
  ]
}