{
  "name": "Crafted_Gaussians_Synchronized_FireControl_B",
  "display_name": "Crafted Gaussians Synchronized FireControl B",
  "display_fullname": "Boosts.Crafted Gaussians Synchronized FireControl B",
  "display_help": "Enhances the to hit buff potential of a power by {Boost.Attrib.ToHit.Scale}% and reduces the recharge time by {Boost.Attrib.RechargeTime.Scale}%.",
  "display_short_help": "Set: Gaussian's Synchronized Fire-Control",
  "available_level": [
    0
  ],
  "source_file": "DEFS/POWERS/BOOSTS/CRAFTED_GAUSSIANS_SYNCHRONIZED_FIRECONTROL_B.POWERSETS",
  "requires": "",
  "power_names": [
    "Boosts.Crafted_Gaussians_Synchronized_FireControl_B.Crafted_Gaussians_Synchronized_FireControl_B"
  ],
  "power_display_names": [
    "Gaussian's Synchronized Fire-Control: To Hit Buff/Recharge"
  ]
}