{
  "name": "Channeler",
  "display_name": "Channeler",
  "display_fullname": "Awakened.Channeler",
  "display_help": "The Awakened",
  "display_short_help": "The Awakened",
  "available_level": [
    0,
    0,
    0,
    0
  ],
  "source_file": "DEFS/POWERS/AWAKENED/CHANNELER.POWERSETS",
  "requires": "",
  "power_names": [
    "Awakened.Channeler.Psionic_Lash",
    "Awakened.Channeler.Psionic_Thrash",
    "Awakened.Channeler.Telekinetic_Lift",
    "Awakened.Channeler.Psionic_Wounds"
  ],
  "power_display_names": [
    "Psionic Lash",
    "Psionic Thrash",
    "Telekinetic Lift",
    "Psionic Wounds"
  ]
}