{
  "name": "Crafted_Freebird_A",
  "display_name": "Crafted Freebird A",
  "display_fullname": "Boosts.Crafted Freebird A",
  "display_help": "Reduces the endurance cost of a power by {Boost.Attrib.Endurance.Scale}%.",
  "display_short_help": "Set: Freebird",
  "available_level": [
    0
  ],
  "source_file": "DEFS/POWERS/BOOSTS/CRAFTED_FREEBIRD_A.POWERSETS",
  "requires": "",
  "power_names": [
    "Boosts.Crafted_Freebird_A.Crafted_Freebird_A"
  ],
  "power_display_names": [
    "Freebird: Endurance"
  ]
}