{
  "name": "Crafted_Endurance_Discount_45",
  "display_name": "Crafted Endurance Discount 45",
  "display_fullname": "Boosts.Crafted Endurance Discount 45",
  "display_help": "Reduces endurance costs by {Boost.Attrib.Endurance.Scale}%.",
  "display_short_help": "Invention",
  "available_level": [
    0
  ],
  "source_file": "DEFS/POWERS/BOOSTS/CRAFTED_ENDURANCE_DISCOUNT_45.POWERSETS",
  "requires": "",
  "power_names": [
    "Boosts.Crafted_Endurance_Discount_45.Crafted_Endurance_Discount_45"
  ],
  "power_display_names": [
    "Invention: Endurance Reduction"
  ]
}