{
  "name": "Attuned_Bonesnap_B",
  "display_name": "Attuned Bonesnap B",
  "display_fullname": "Boosts.Attuned Bonesnap B",
  "display_help": "Enhances the damage of a power by {Boost.Attrib.Damage.Scale}% and reduces endurance cost by {Boost.Attrib.Endurance.Scale}%.",
  "display_short_help": "Set: Bonesnap",
  "available_level": [
    0
  ],
  "source_file": "DEFS/POWERS/BOOSTS/ATTUNED_BONESNAP_B.POWERSETS",
  "requires": "",
  "power_names": [
    "Boosts.Attuned_Bonesnap_B.Attuned_Bonesnap_B"
  ],
  "power_display_names": [
    "Bonesnap: Damage/Endurance"
  ]
}