{
  "name": "Rikti_Sword",
  "display_name": "Rikti_Sword",
  "display_fullname": "Rikti.Rikti Sword",
  "display_help": "Rikti",
  "display_short_help": "Rikti",
  "available_level": [
    0
  ],
  "source_file": "DEFS/POWERS/RIKTI/RIKTI_SWORD.POWERSETS",
  "requires": "",
  "power_names": [
    "Rikti.Rikti_Sword.Rikti_Sword"
  ],
  "power_display_names": [
    "Rikti Sword"
  ]
}