{
  "name": "Lore_Pet_Cimeroran_Support",
  "display_name": "Lore_Pet_Cimeroran_Support",
  "display_fullname": "Incarnate.Lore Pet Cimeroran Support",
  "display_help": "Cimeroran",
  "display_short_help": "Cimeroran",
  "available_level": [
    0,
    0
  ],
  "source_file": "DEFS/POWERS/INCARNATE/LORE_PET_CIMERORAN_SUPPORT.POWERSETS",
  "requires": "",
  "power_names": [
    "Incarnate.Lore_Pet_Cimeroran_Support.Healing_Aura",
    "Incarnate.Lore_Pet_Cimeroran_Support.Heal_Other"
  ],
  "power_display_names": [
    "Healing Aura",
    "Heal Other"
  ]
}