{
  "name": "Incarnate_I20",
  "display_name": "I20",
  "source_file": "DEFS/POWERS/INCARNATE_I20.CATEGORIES",
  "archetypes": [
    "boss_archvillain",
    "boss_elite",
    "boss_grunt",
    "lt_grunt",
    "minion_grunt",
    "minion_pets"
  ],
  "display_help": null,
  "display_short_help": null,
  "powerset_names": [
    "incarnate_i20.airstrike",
    "incarnate_i20.cleansing_flame",
    "incarnate_i20.duray_idf_special",
    "incarnate_i20.duray_skyraiders_special",
    "incarnate_i20.exorcist",
    "incarnate_i20.fusion",
    "incarnate_i20.fusion_special",
    "incarnate_i20.harbinger",
    "incarnate_i20.harbinger_ghoul",
    "incarnate_i20.infernal",
    "incarnate_i20.mercedes_sheldon",
    "incarnate_i20.mercedes_twilight",
    "incarnate_i20.midnighter_special",
    "incarnate_i20.montague",
    "incarnate_i20.numina",
    "incarnate_i20.odysseus",
    "incarnate_i20.playtest_buff",
    "incarnate_i20.porter",
    "incarnate_i20.positron",
    "incarnate_i20.positron_teleport",
    "incarnate_i20.purifying_flame",
    "incarnate_i20.riptide",
    "incarnate_i20.temblor",
    "incarnate_i20.temblor_special"
  ],
  "powerset_display_names": [
    "Airstrike",
    "Cleansing Flame",
    "Duray IDF Special",
    "Duray SkyRaiders Special",
    "Exorcist",
    "Fusion",
    "Fusion Special",
    "Harbinger",
    "Harbinger Ghoul",
    "Infernal",
    "Mercedes Sheldon",
    "Mercedes Twilight",
    "Midnighter Special",
    "Montague",
    "Numina",
    "Odysseus",
    "Playtest_Buff",
    "Porter",
    "Positron",
    "Positron_Teleport",
    "Purifying Flame",
    "Riptide",
    "Temblor",
    "Temblor Special"
  ]
}