{
  "name": "SonicDebuffArrow_Controller",
  "display_name": "Disruption Arrow",
  "display_fullname": "Pets.Disruption Arrow",
  "display_help": "Trick Arrow",
  "display_short_help": "Trick Arrow",
  "available_level": [
    0
  ],
  "source_file": "DEFS/POWERS/PETS/SONICDEBUFFARROW_CONTROLLER.POWERSETS",
  "requires": "",
  "power_names": [
    "Pets.SonicDebuffArrow_Controller.SonicDebuffArrow"
  ],
  "power_display_names": [
    "SonicDebuffArrow"
  ]
}