{
  "name": "Sky_Raider_FlameThrower",
  "display_name": "Sky_Raider_FlameThrower",
  "display_fullname": "SkyRaiders.Sky Raider FlameThrower",
  "display_help": "SkyRaiders",
  "display_short_help": "SkyRaiders",
  "available_level": [
    0
  ],
  "source_file": "DEFS/POWERS/SKYRAIDERS/SKY_RAIDER_FLAMETHROWER.POWERSETS",
  "requires": "",
  "power_names": [
    "SkyRaiders.Sky_Raider_FlameThrower.Flamethrower"
  ],
  "power_display_names": [
    "Flamethrower"
  ]
}