{
  "name": "Mako_RV",
  "display_name": "Mako",
  "display_fullname": "V Arachnos.Mako",
  "display_help": "Arachnos",
  "display_short_help": "Arachnos",
  "available_level": [
    0,
    0,
    0,
    0,
    0,
    0,
    0,
    0,
    0,
    0,
    0,
    0,
    0
  ],
  "source_file": "DEFS/POWERS/V_ARACHNOS/MAKO_RV.POWERSETS",
  "requires": "",
  "power_names": [
    "V_Arachnos.Mako_RV.Strike",
    "V_Arachnos.Mako_RV.Spin",
    "V_Arachnos.Mako_RV.Follow_Up",
    "V_Arachnos.Mako_RV.Eviscerate",
    "V_Arachnos.Mako_RV.Spirit_Shark",
    "V_Arachnos.Mako_RV.Circle_of_Sharks",
    "V_Arachnos.Mako_RV.Chum_Attack",
    "V_Arachnos.Mako_RV.Quickness",
    "V_Arachnos.Mako_RV.Elude",
    "V_Arachnos.Mako_RV.Bellow",
    "V_Arachnos.Mako_RV.Hide",
    "V_Arachnos.Mako_RV.Placate",
    "V_Arachnos.Mako_RV.Super_Leap"
  ],
  "power_display_names": [
    "Strike",
    "Spin",
    "Follow Up",
    "Eviscerate",
    "Spirit Shark",
    "Circle of Sharks",
    "Chum Attack",
    "Quickness",
    "Elude",
    "Bellow",
    "Hide",
    "Placate",
    "Super Leap"
  ]
}