{
  "name": "Frozen_Aura",
  "full_name": "Mission_Maker_Secondary.Ice_Manipulation.Frozen_Aura",
  "type": "Click",
  "display_name": "Frozen Aura",
  "display_fullname": "Mission Maker Secondary.Ice Manipulation.Frozen Aura",
  "display_help": "Your mastery of cold enables you to dramatically lower the temperature immediately around you. Foes near you when you perform a Frozen Aura will be caught in a fragile casing of ice. Frozen foes will break free if attacked. Frozen Aura deals no significant damage.",
  "display_short_help": "PBAoE Melee, Moderate DMG(Smashing), Foe Sleep",
  "icon": "icemanipulation_frozenaura.png",
  "auto_issue": false,
  "auto_issue_keeps_level": false,
  "message_caster": null,
  "message_floater": null,
  "message_attacker_hit": "Your {PowerName} freezes {PlayerDest} in their tracks!",
  "message_target_hit": null,
  "message_target_confirm": null,
  "message_float_reward": null,
  "message_defense_avoidance": null,
  "attack_types": [
    "Area",
    "Cold"
  ],
  "requires": "",
  "activate_requires": "",
  "accuracy": 1.0,
  "number_allowed": 1,
  "caster_near_ground": false,
  "target_near_ground": false,
  "cast_when_dead": "AliveOnly",
  "cast_through": [

  ],
  "toggle_ignores": [

  ],
  "ignore_level_gained": false,
  "works_on_untouchable": false,
  "works_through_vision_phase": false,
  "target_untargetable": false,
  "interrupt_like_sleep": false,
  "notify_ai_when": "Always",
  "effect_area": "AoE",
  "max_targets_hit": 10,
  "radius": 10.0,
  "arc": 0.0,
  "range": 0.0,
  "range_secondary": 0.0,
  "activation_time": 2.1,
  "root_time": 2.1,
  "interrupt_time": 0.0,
  "recharge_time": 20.0,
  "activate_period": 0.0,
  "endurance_cost": 13.0,
  "cancelable": false,
  "self_confirm": false,
  "confirm_requires": "",
  "time_to_confirm": 0,
  "chain_delay": 0.0,
  "chain_effect_expr": "",
  "chain_forks": [

  ],
  "chain_into_power_name": null,
  "vec_box_offset": [
    0.0,
    0.0,
    0.0
  ],
  "vec_box_size": [
    0.0,
    0.0,
    0.0
  ],
  "number_of_charges": 0,
  "max_num_charges": 0,
  "destroy_on_last_use": true,
  "power_lifetime": 0.0,
  "max_power_lifetime": 0.0,
  "power_lifetime_ingame": 0.0,
  "max_power_lifetime_ingame": 0.0,
  "stacking_lifetime": false,
  "toggle_on_time": 0.0,
  "max_toggle_on_time": 0.0,
  "toggle_detoggle_time": 0.0,
  "toggle_droppable": "Sometimes",
  "ignore_toggle_max_distance": false,
  "target_type": "Self",
  "target_type_secondary": null,
  "target_visibility": "LineOfSight",
  "targets_affected": [
    "Foe (Alive)"
  ],
  "targets_autohit": [

  ],
  "target_requires": "",
  "proc_allowed": "All",
  "boosts_allowed": [

  ],
  "allowed_boostset_cats": [

  ],
  "exclusion_groups": [

  ],
  "modes_required": [

  ],
  "modes_disallowed": [
    "Disable_All"
  ],
  "recharge_groups": [

  ],
  "ignore_strength": false,
  "strengths_disallowed": [

  ],
  "global_strengths_disallowed": [

  ],
  "procs_only_on_main_target": false,
  "vars_attribmods_can_reference": [

  ],
  "show_buff_icon": true,
  "show_in_info": true,
  "show_in_manage": true,
  "show_in_inventory": "Show",
  "deletable": false,
  "tradeable": false,
  "do_not_save": false,
  "max_boosts": 6,
  "ignore_level_differences": false,
  "ignore_exemplar_for_bonuses": false,
  "boost_combinable": true,
  "boost_tradeable": true,
  "boost_account_bound": false,
  "boost_boostable": false,
  "boost_use_player_level": false,
  "boost_catalyzable": null,
  "boost_store_product": null,
  "boost_min_slot_level": -3,
  "boost_max_level": 50,
  "instance_locked": false,
  "is_environment_hit": false,
  "shuffle_target_list": false,
  "enforced_level_bought": -1,
  "refreshes_on_active_player_change": false,
  "highlight_expression": "",
  "highlight_icon": null,
  "highlight_color": "#00000000",
  "travel_suppression_time": 1.0,
  "server_tray_priority": 0,
  "server_tray_requires": "",
  "abusive_buff": true,
  "position_center": "kModTarget_Caster",
  "position_distance": 0.0,
  "position_height": 0.0,
  "position_yaw": 0.0,
  "face_target": true,
  "attrib_cache": [
    "Cold_Dmg",
    "Sleep"
  ],
  "max_targets_expression": "",
  "chain_target_expr": "",
  "powerset": "Mission_Maker_Secondary.Ice_Manipulation",
  "available_level": 37,
  "archetypes": [

  ],
  "redirect": [

  ],
  "effects": [
    {
      "tags": [

      ],
      "chance": 1.0,
      "ppm": 0.0,
      "delay": 0.0,
      "radius_inner": -1.0,
      "radius_outer": -1.0,
      "requires_expression": "",
      "flags": [

      ],
      "eval_flags": 0,
      "child_effects": [

      ],
      "templates": [
        {
          "attribs": [
            "Sleep"
          ],
          "type": "Duration",
          "application_type": "OnTick",
          "aspect": "Current",
          "target": "AnyAffected",
          "table": "Ranged_Sleep",
          "scale": 20.0,
          "duration": "0 seconds",
          "magnitude": 2.0,
          "delay": 0.5,
          "duration_expression": "",
          "magnitude_expression": "",
          "application_period": 0.0,
          "tick_chance": 1.0,
          "jit_requires": "",
          "caster_stack": "Individual",
          "stack": "Replace",
          "stack_limit": 2,
          "stack_key": null,
          "cancel_events": [

          ],
          "boost_mod_allowed": "Science_Boost",
          "flags": [
            "ResistDuration (8)",
            "CombatModDuration (10)"
          ],
          "mode_name": null,
          "target_info": null,
          "messages": null,
          "suppress_events": [

          ],
          "params": null,
          "fx": {
            "continuing_bits": [

            ],
            "continuing_fx": null,
            "conditional_bits": [
              379
            ],
            "conditional_fx": "PFX"
          }
        },
        {
          "attribs": [
            "Sleep"
          ],
          "type": "Duration",
          "application_type": "OnTick",
          "aspect": "Current",
          "target": "AnyAffected",
          "table": "Ranged_Sleep",
          "scale": 12.0,
          "duration": "0 seconds",
          "magnitude": 1.0,
          "delay": 0.5,
          "duration_expression": "",
          "magnitude_expression": "",
          "application_period": 0.0,
          "tick_chance": 1.0,
          "jit_requires": "",
          "caster_stack": "Individual",
          "stack": "Stack",
          "stack_limit": 2,
          "stack_key": null,
          "cancel_events": [

          ],
          "boost_mod_allowed": "Science_Boost",
          "flags": [
            "ResistDuration (8)",
            "CombatModDuration (10)"
          ],
          "mode_name": null,
          "target_info": null,
          "messages": {
            "display_attacker_hit": "You Sleep {PlayerDest} with your {PowerName}.",
            "display_victim_hit": "{PlayerSource} Sleeps you with their {PowerName}.",
            "display_float": null,
            "display_defense_float": null
          },
          "suppress_events": [

          ],
          "params": null,
          "fx": {
            "continuing_bits": [

            ],
            "continuing_fx": null,
            "conditional_bits": [
              379
            ],
            "conditional_fx": "PFX"
          }
        },
        {
          "attribs": [
            "Cold_Dmg"
          ],
          "type": "Magnitude",
          "application_type": "OnTick",
          "aspect": "Absolute",
          "target": "AnyAffected",
          "table": "Melee_TempDamage",
          "scale": 1.424,
          "duration": "0 seconds",
          "magnitude": 1.0,
          "delay": 0.0,
          "duration_expression": "",
          "magnitude_expression": "",
          "application_period": 0.0,
          "tick_chance": 1.0,
          "jit_requires": "",
          "caster_stack": "Individual",
          "stack": "Stack",
          "stack_limit": 2,
          "stack_key": null,
          "cancel_events": [

          ],
          "boost_mod_allowed": "Science_Boost",
          "flags": [
            "ResistMagnitude (7)",
            "CombatModMagnitude (9)"
          ],
          "mode_name": null,
          "target_info": null,
          "messages": {
            "display_attacker_hit": "You hit {PlayerDest} with your {PowerName} for {Damage} points of Cold damage.",
            "display_victim_hit": "{PlayerSource} hits you with their {PowerName} for {Damage} points of Cold damage.",
            "display_float": null,
            "display_defense_float": null
          },
          "suppress_events": [

          ],
          "params": null,
          "fx": null
        }
      ],
      "is_pvp": "EITHER"
    }
  ],
  "activation_effects": [

  ],
  "fx": {
    "source_file": "MENU/POWERS/ANIMFX/PLAYERPOWERS/BLASTERSUPPORT_ICEMANIPULATION_FROZENAURA.PFX",
    "attack_bits": [
      20,
      322
    ],
    "block_bits": [

    ],
    "wind_up_bits": [

    ],
    "hit_bits": [

    ],
    "death_bits": [

    ],
    "activation_bits": [

    ],
    "deactivation_bits": [

    ],
    "initial_attack_bits": [
      20,
      322
    ],
    "continuing_bits": [

    ],
    "conditional_bits": [

    ],
    "activation_fx": null,
    "deactivation_fx": null,
    "attack_fx": "POWERS/COLDCONTROL/ICEAURASHOCKWAVE.FX",
    "secondary_attack_fx": null,
    "hit_fx": null,
    "wind_up_fx": null,
    "block_fx": null,
    "death_fx": null,
    "initial_attack_fx": "POWERS/COLDCONTROL/ICEAURASHOCKWAVE.FX",
    "continuing_fx": [

    ],
    "conditional_fx": [
      "POWERS/COLDCONTROL/FLASHFREEZECONTINUING.FX"
    ],
    "mode_bits": [
      20
    ],
    "frames_before_hit": 22,
    "frames_before_secondary_hit": 0,
    "delayed_hit": false,
    "frames_attack": 63,
    "initial_frames_before_hit": 22,
    "initial_attack_fx_frame_delay": 0,
    "projectile_speed": 3.4028234663852886e38,
    "secondary_projectile_speed": 0.0,
    "initial_frames_before_block": 0,
    "ignore_attack_time_errors": null,
    "frames_before_block": 0,
    "fx_important": false
  },
  "custom_fx": [
    {
      "display_name": null,
      "token": "Color Tintable",
      "alt_themes": [
        "Color Tintable 2"
      ],
      "category": null,
      "palette_name": "ice",
      "fx": {
        "source_file": "MENU/POWERS/ANIMFX/PLAYERPOWERS/BLASTERSUPPORT_ICEMANIPULATION_FROZENAURA.PFX",
        "attack_bits": [
          20,
          322
        ],
        "block_bits": [

        ],
        "wind_up_bits": [

        ],
        "hit_bits": [

        ],
        "death_bits": [

        ],
        "activation_bits": [

        ],
        "deactivation_bits": [

        ],
        "initial_attack_bits": [
          20,
          322
        ],
        "continuing_bits": [

        ],
        "conditional_bits": [

        ],
        "activation_fx": null,
        "deactivation_fx": null,
        "attack_fx": "CUSTOMIZEABLEPOWERS/ICEMELEE/ICEAURASHOCKWAVE.FX",
        "secondary_attack_fx": null,
        "hit_fx": null,
        "wind_up_fx": null,
        "block_fx": null,
        "death_fx": null,
        "initial_attack_fx": "CUSTOMIZEABLEPOWERS/ICEMELEE/ICEAURASHOCKWAVE.FX",
        "continuing_fx": [

        ],
        "conditional_fx": [
          "CUSTOMIZEABLEPOWERS/CONTINUINGCONDITIONALFX/FLASHFREEZECONTINUING.FX"
        ],
        "mode_bits": [
          20
        ],
        "frames_before_hit": 22,
        "frames_before_secondary_hit": 0,
        "delayed_hit": false,
        "frames_attack": 63,
        "initial_frames_before_hit": 22,
        "initial_attack_fx_frame_delay": 0,
        "projectile_speed": 3.4028234663852886e38,
        "secondary_projectile_speed": 0.0,
        "initial_frames_before_block": 0,
        "ignore_attack_time_errors": null,
        "frames_before_block": 0,
        "fx_important": false
      }
    }
  ],
  "fx_only_on_main_target": false
}