{
  "name": "LT_Barrel",
  "display_name": "LT_Barrel",
  "display_fullname": "PraetorianResistance.LT Barrel",
  "display_help": "Resistance",
  "display_short_help": "Resistance",
  "available_level": [
    0,
    10,
    0
  ],
  "source_file": "DEFS/POWERS/PRAETORIANRESISTANCE/LT_BARREL.POWERSETS",
  "requires": "",
  "power_names": [
    "PraetorianResistance.LT_Barrel.Snap_Shot",
    "PraetorianResistance.LT_Barrel.AP_Round",
    "PraetorianResistance.LT_Barrel.HE_Shot"
  ],
  "power_display_names": [
    "Snap Shot",
    "AP Round",
    "HE Shot"
  ]
}