{
  "name": "Crafted_Shield_Breaker_B",
  "display_name": "Crafted Shield Breaker B",
  "display_fullname": "Boosts.Crafted Shield Breaker B",
  "display_help": "Enhances the accuracy of a power by {Boost.Attrib.Accuracy.Scale}% and defense debuff potential of a power by {Boost.Attrib.Defense.Scale}%. NOTE: This enhancement can only be slotted into defense debuff powers that require a To Hit check.",
  "display_short_help": "Set: Shield Breaker",
  "available_level": [
    0
  ],
  "source_file": "DEFS/POWERS/BOOSTS/CRAFTED_SHIELD_BREAKER_B.POWERSETS",
  "requires": "",
  "power_names": [
    "Boosts.Crafted_Shield_Breaker_B.Crafted_Shield_Breaker_B"
  ],
  "power_display_names": [
    "Shield Breaker: Accuracy/Defense Debuff"
  ]
}