{
  "name": "Dark_Brute_Mid",
  "display_name": "Dark Brute Mid",
  "display_fullname": "V GenericVillains.Dark Brute Mid",
  "display_help": "Villain",
  "display_short_help": "Villain",
  "available_level": [
    0,
    0
  ],
  "source_file": "DEFS/POWERS/V_GENERICVILLAINS/DARK_BRUTE_MID.POWERSETS",
  "requires": "",
  "power_names": [
    "V_GenericVillains.Dark_Brute_Mid.Soul_Drain",
    "V_GenericVillains.Dark_Brute_Mid.Midnight_Grasp"
  ],
  "power_display_names": [
    "Soul Drain",
    "Midnight Grasp"
  ]
}