{
  "name": "Technology_Natural_Confuse",
  "display_name": "Technology Natural Confuse",
  "display_fullname": "Boosts.Technology Natural Confuse",
  "display_help": "Increases the duration of a confuse power.",
  "display_short_help": "Gadget (Technology, Natural)",
  "available_level": [
    0
  ],
  "source_file": "DEFS/POWERS/BOOSTS/TECHNOLOGY_NATURAL_CONFUSE.POWERSETS",
  "requires": "",
  "power_names": [
    "Boosts.Technology_Natural_Confuse.Technology_Natural_Confuse"
  ],
  "power_display_names": [
    "Cacophony Projector (Confuse)"
  ]
}