{
  "name": "Attuned_Defiant_Barrage_C",
  "display_name": "Attuned Defiant Barrage C",
  "display_fullname": "Boosts.Attuned Defiant Barrage C",
  "display_help": "UNIQUE -- No more than 1 enhancement of this type may be slotted by a character. Enhances the accuracy of a power by {Boost.Attrib.Accuracy.Scale}% and damage by {Boost.Attrib.Damage.Scale}% and reduces recharge time by {Boost.Attrib.RechargeTime.Scale}%. This enhancement can only be slotted by Blasters and may be slotted into any Blaster damage power.",
  "display_short_help": "Set: Defiant Barrage",
  "available_level": [
    0
  ],
  "source_file": "DEFS/POWERS/BOOSTS/ATTUNED_DEFIANT_BARRAGE_C.POWERSETS",
  "requires": "",
  "power_names": [
    "Boosts.Attuned_Defiant_Barrage_C.Attuned_Defiant_Barrage_C"
  ],
  "power_display_names": [
    "Defiant Barrage: Accuracy/Damage/Recharge (Blaster)"
  ]
}