{
  "name": "Tsoo_Claws",
  "display_name": "Tsoo_Claws",
  "display_fullname": "Tsoo.Tsoo Claws",
  "display_help": "Tsoo",
  "display_short_help": "Tsoo",
  "available_level": [
    0,
    0
  ],
  "source_file": "DEFS/POWERS/TSOO/TSOO_CLAWS.POWERSETS",
  "requires": "",
  "power_names": [
    "Tsoo.Tsoo_Claws.Claws",
    "Tsoo.Tsoo_Claws.Brawl"
  ],
  "power_display_names": [
    "Claws",
    "Brawl"
  ]
}