{
  "name": "Radiation_Manipulation",
  "display_name": "Atomic Manipulation",
  "display_fullname": "Blaster Support.Atomic Manipulation",
  "display_help": "You have complete control over atomic particles and waves, and can use them to disable and weaken your enemies, as well as boost your own power. Many of your powers have the ability to surround your targets with negatrons or positrons. Should you combine both of these in a single target, it will result in Electron-Positron annihilation producing a burst of Gamma Rays which will inflict a small amount of damage, and in addition debuff the target's damage output and accuracy. Enemies also have a small chance of being stunned or confused.",
  "display_short_help": "Atomic Manipulation",
  "available_level": [
    0,
    1,
    3,
    9,
    15,
    19,
    27,
    34,
    37
  ],
  "source_file": "DEFS/POWERS/BLASTER_SUPPORT/RADIATION_MANIPULATION.POWERSETS",
  "requires": "",
  "power_names": [
    "Blaster_Support.Radiation_Manipulation.Electron_Shackles",
    "Blaster_Support.Radiation_Manipulation.Negatron_Slam",
    "Blaster_Support.Radiation_Manipulation.Positron_Cell",
    "Blaster_Support.Radiation_Manipulation.Ionize",
    "Blaster_Support.Radiation_Manipulation.Beta_Decay",
    "Blaster_Support.Radiation_Manipulation.Metabolic_Acceleration",
    "Blaster_Support.Radiation_Manipulation.Atom_Smasher",
    "Blaster_Support.Radiation_Manipulation.Radioactive_Cloud",
    "Blaster_Support.Radiation_Manipulation.Positronic_Fist"
  ],
  "power_display_names": [
    "Electron Shackles",
    "Negatron Slam",
    "Positron Cell",
    "Ionize",
    "Beta Decay",
    "Metabolic Acceleration",
    "Atom Smasher",
    "Radioactive Cloud",
    "Positronic Fist"
  ]
}