{
  "name": "Malta_Ops",
  "display_name": "Malta_Ops",
  "display_fullname": "Malta.Malta Ops",
  "display_help": "Malta Group",
  "display_short_help": "Malta Group",
  "available_level": [
    0,
    0,
    0,
    0,
    0
  ],
  "source_file": "DEFS/POWERS/MALTA/MALTA_OPS.POWERSETS",
  "requires": "",
  "power_names": [
    "Malta.Malta_Ops.Kevlar",
    "Malta.Malta_Ops.Brawl",
    "Malta.Malta_Ops.Taser",
    "Malta.Malta_Ops.Adv_Assault_Rifle",
    "Malta.Malta_Ops.Frag_Grenade"
  ],
  "power_display_names": [
    "Kevlar",
    "Brawl",
    "Taser",
    "Adv Assault Rifle",
    "Frag Grenade"
  ]
}