{
  "name": "Attuned_Impervious_Skin_A",
  "display_name": "Attuned Impervious Skin A",
  "display_fullname": "Boosts.Attuned Impervious Skin A",
  "display_help": "Enhances the effectiveness of Resistance buffs.",
  "display_short_help": "Set: Impervious Skin",
  "available_level": [
    0
  ],
  "source_file": "DEFS/POWERS/BOOSTS/ATTUNED_IMPERVIOUS_SKIN_A.POWERSETS",
  "requires": "",
  "power_names": [
    "Boosts.Attuned_Impervious_Skin_A.Attuned_Impervious_Skin_A"
  ],
  "power_display_names": [
    "Impervious Skin: Resistance/Endurance"
  ]
}