{
  "name": "Crafted_Defense_Buff_35",
  "display_name": "Crafted Defense Buff 35",
  "display_fullname": "Boosts.Crafted Defense Buff 35",
  "display_help": "Increases defense buffs by {Boost.Attrib.Defense.Scale}%.",
  "display_short_help": "Invention",
  "available_level": [
    0
  ],
  "source_file": "DEFS/POWERS/BOOSTS/CRAFTED_DEFENSE_BUFF_35.POWERSETS",
  "requires": "",
  "power_names": [
    "Boosts.Crafted_Defense_Buff_35.Crafted_Defense_Buff_35"
  ],
  "power_display_names": [
    "Invention: Defense Buff"
  ]
}