{
  "name": "ShockMM",
  "display_name": "Liquefy",
  "display_fullname": "Pets.Liquefy",
  "display_help": "Sonic Attack",
  "display_short_help": "Sonic Attack",
  "available_level": [
    0
  ],
  "source_file": "DEFS/POWERS/PETS/SHOCKMM.POWERSETS",
  "requires": "",
  "power_names": [
    "Pets.ShockMM.Liquefy"
  ],
  "power_display_names": [
    "Liquefy"
  ]
}