{
  "name": "Arachnos_LT_Transformation",
  "display_name": "Arachnos Lieutenant Transformation",
  "display_fullname": "Rikti.Arachnos Lieutenant Transformation",
  "display_help": "Rikti",
  "display_short_help": "Rikti",
  "available_level": [
    0
  ],
  "source_file": "DEFS/POWERS/RIKTI/ARACHNOS_LT_TRANSFORMATION.POWERSETS",
  "requires": "",
  "power_names": [
    "Rikti.Arachnos_LT_Transformation.Transformation"
  ],
  "power_display_names": [
    "Transformation"
  ]
}