{
  "name": "Attuned_Kheldians_Grace_A",
  "display_name": "Attuned Kheldians Grace A",
  "display_fullname": "Boosts.Attuned Kheldians Grace A",
  "display_help": "UNIQUE -- No more than 1 enhancement of this type may be slotted by a character. Enhances the damage of a power by {Boost.Attrib.Damage.Scale}% and accuracy by {Boost.Attrib.Accuracy.Scale}%. This enhancement can only be slotted by Peacebringers and Warshades and may be slotted into any of their damage powers.",
  "display_short_help": "Set: Kheldian's Grace",
  "available_level": [
    0
  ],
  "source_file": "DEFS/POWERS/BOOSTS/ATTUNED_KHELDIANS_GRACE_A.POWERSETS",
  "requires": "",
  "power_names": [
    "Boosts.Attuned_Kheldians_Grace_A.Attuned_Kheldians_Grace_A"
  ],
  "power_display_names": [
    "Kheldian's Grace: Accuracy/Damage"
  ]
}