{
  "name": "Luminary",
  "display_name": "Luminary",
  "display_fullname": "DilemmaDiabolique.Luminary",
  "display_help": "Vindicators",
  "display_short_help": "Vindicators",
  "available_level": [
    0,
    0,
    0,
    0,
    0,
    0,
    0
  ],
  "source_file": "DEFS/POWERS/DILEMMADIABOLIQUE/LUMINARY.POWERSETS",
  "requires": "",
  "power_names": [
    "DilemmaDiabolique.Luminary.Power_Bolt",
    "DilemmaDiabolique.Luminary.Power_Blast",
    "DilemmaDiabolique.Luminary.Power_Burst",
    "DilemmaDiabolique.Luminary.Power_Thrust",
    "DilemmaDiabolique.Luminary.Bone_Smasher",
    "DilemmaDiabolique.Luminary.Whirling_Hands",
    "DilemmaDiabolique.Luminary.EM_Pulse"
  ],
  "power_display_names": [
    "Power Bolt",
    "Power Blast",
    "Power Burst",
    "Power Thrust",
    "Bone Smasher",
    "Whirling Hands",
    "Fusion Pulse"
  ]
}