{
  "name": "Regeneration",
  "display_name": "Regeneration",
  "display_fullname": "Brute Defense.Regeneration",
  "display_help": "Regeneration lets you regenerate more quickly from damage and effects. Regeneration offers almost no actual damage resistance, but your Hit Point Regeneration can become so incredibly fast, that your wounds heal almost instantly. Those who possess this power set have little downtime.",
  "display_short_help": "Regeneration",
  "available_level": [
    0,
    1,
    3,
    9,
    15,
    19,
    27,
    34,
    37
  ],
  "source_file": "DEFS/POWERS/BRUTE_DEFENSE/REGENERATION.POWERSETS",
  "requires": "",
  "power_names": [
    "Brute_Defense.Regeneration.Fast_Healing",
    "Brute_Defense.Regeneration.Reconstruction",
    "Brute_Defense.Regeneration.Quick_Recovery",
    "Brute_Defense.Regeneration.Dull_Pain",
    "Brute_Defense.Regeneration.Integration",
    "Brute_Defense.Regeneration.Resist_Disorientation",
    "Brute_Defense.Regeneration.Instant_Healing",
    "Brute_Defense.Regeneration.Revive",
    "Brute_Defense.Regeneration.Moment_of_Glory"
  ],
  "power_display_names": [
    "Fast Healing",
    "Reconstruction",
    "Quick Recovery",
    "Dull Pain",
    "Integration",
    "Resilience",
    "Instant Healing",
    "Revive",
    "Moment of Glory"
  ]
}