{
  "name": "Crey_Minion_Lt_Agent_Infiltrator",
  "display_name": "Crey_Minion_Lt_Agent_Infiltrator",
  "display_fullname": "Crey.Crey Minion Lt Agent Infiltrator",
  "display_help": "Crey",
  "display_short_help": "Crey",
  "available_level": [
    0,
    0,
    0,
    35
  ],
  "source_file": "DEFS/POWERS/CREY/CREY_MINION_LT_AGENT_INFILTRATOR.POWERSETS",
  "requires": "",
  "power_names": [
    "Crey.Crey_Minion_Lt_Agent_Infiltrator.Thunder_Kick",
    "Crey.Crey_Minion_Lt_Agent_Infiltrator.Storm_Kick",
    "Crey.Crey_Minion_Lt_Agent_Infiltrator.Crane_Kick",
    "Crey.Crey_Minion_Lt_Agent_Infiltrator.Eagles_Claw"
  ],
  "power_display_names": [
    "Thunder Kick",
    "Storm Kick",
    "Crane Kick",
    "Eagles Claw"
  ]
}