{
  "name": "Paladin",
  "display_name": "Paladin",
  "display_fullname": "MindsOfMayhem.Paladin",
  "display_help": "Nightmares",
  "display_short_help": "Nightmares",
  "available_level": [
    0,
    0,
    0,
    0,
    0
  ],
  "source_file": "DEFS/POWERS/MINDSOFMAYHEM/PALADIN.POWERSETS",
  "requires": "",
  "power_names": [
    "MindsOfMayhem.Paladin.Lightning_Bolt",
    "MindsOfMayhem.Paladin.Shock",
    "MindsOfMayhem.Paladin.Lightning_Field",
    "MindsOfMayhem.Paladin.Ball_Lightning",
    "MindsOfMayhem.Paladin.Mace"
  ],
  "power_display_names": [
    "Lightning Bolt",
    "Shock",
    "Lightning Field",
    "Ball Lightning",
    "Mace"
  ]
}