{
  "name": "Stheno",
  "display_name": "Stheno",
  "display_fullname": "V Snakes.Stheno",
  "display_help": "Snakes",
  "display_short_help": "Snakes",
  "available_level": [
    0,
    0,
    0,
    0,
    0,
    0,
    0,
    0
  ],
  "source_file": "DEFS/POWERS/V_SNAKES/STHENO.POWERSETS",
  "requires": "",
  "power_names": [
    "V_Snakes.Stheno.Mesmerize",
    "V_Snakes.Stheno.Mass_Hypnosis",
    "V_Snakes.Stheno.Dominate",
    "V_Snakes.Stheno.Venomous_Spray",
    "V_Snakes.Stheno.Venomous_Spit",
    "V_Snakes.Stheno.Summon_Snakes",
    "V_Snakes.Stheno.Dreadful_Wail",
    "V_Snakes.Stheno.Resistance"
  ],
  "power_display_names": [
    "Mesmerize",
    "Mass Hypnosis",
    "Dominate",
    "Venomous Spray",
    "Venomous Spit",
    "Summon Snakes",
    "Dreadful Wail",
    "Resistance"
  ]
}