{
  "name": "Crafted_Induced_Coma_E",
  "display_name": "Crafted Induced Coma E",
  "display_fullname": "Boosts.Crafted Induced Coma E",
  "display_help": "Enhances the accuracy of a power by {Boost.Attrib.Accuracy.Scale}%, sleep duration by {Boost.Attrib.Mez.Scale}% and reduces the attack rate by {Boost.Attrib.RechargeTime.Scale}%.",
  "display_short_help": "Set: Induced Coma",
  "available_level": [
    0
  ],
  "source_file": "DEFS/POWERS/BOOSTS/CRAFTED_INDUCED_COMA_E.POWERSETS",
  "requires": "",
  "power_names": [
    "Boosts.Crafted_Induced_Coma_E.Crafted_Induced_Coma_E"
  ],
  "power_display_names": [
    "Induced Coma: Accuracy/Sleep/Recharge"
  ]
}