{
  "name": "LiquefyShock",
  "display_name": "LiquefyShock",
  "display_fullname": "TalonsOfVengeance.LiquefyShock",
  "display_help": "Talons of Vengeance",
  "display_short_help": "Talons of Vengeance",
  "available_level": [
    0
  ],
  "source_file": "DEFS/POWERS/TALONSOFVENGEANCE/LIQUEFYSHOCK.POWERSETS",
  "requires": "",
  "power_names": [
    "TalonsOfVengeance.LiquefyShock.Liquefy"
  ],
  "power_display_names": [
    "Debilitating Song"
  ]
}