{
  "name": "Raid_Disruptor_Pylon_Kill",
  "display_name": "Raid_Disruptor_Pylon_Kill",
  "display_fullname": "Pets.Raid Disruptor Pylon Kill",
  "display_help": "Object",
  "display_short_help": "Object",
  "available_level": [
    0
  ],
  "source_file": "DEFS/POWERS/PETS/RAID_DISRUPTOR_PYLON_KILL.POWERSETS",
  "requires": "",
  "power_names": [
    "Pets.Raid_Disruptor_Pylon_Kill.Destroy"
  ],
  "power_display_names": [
    "Destroy"
  ]
}