{
  "name": "Plant_Manipulation",
  "display_name": "Plant Manipulation",
  "display_fullname": "V Arachnos Proxy.Plant Manipulation",
  "display_help": "You can call forth and control the power of plants and flora to manipulate your foes, inflict damage and protect yourself. Animate and control vines, roots and spores to entrap, attack with deadly thorns and empower your attacks with powerful toxins.",
  "display_short_help": "Plant Manipulation",
  "available_level": [
    0,
    1,
    3,
    9,
    15,
    19,
    27,
    34,
    37
  ],
  "source_file": "DEFS/POWERS/V_ARACHNOS_PROXY/PLANT_MANIPULATION.POWERSETS",
  "requires": "",
  "power_names": [
    "V_Arachnos_Proxy.Plant_Manipulation.Entangle",
    "V_Arachnos_Proxy.Plant_Manipulation.Skewer",
    "V_Arachnos_Proxy.Plant_Manipulation.Strangler",
    "V_Arachnos_Proxy.Plant_Manipulation.Toxins",
    "V_Arachnos_Proxy.Plant_Manipulation.Spore_Cloud",
    "V_Arachnos_Proxy.Plant_Manipulation.Wild_Fortress",
    "V_Arachnos_Proxy.Plant_Manipulation.Ripper",
    "V_Arachnos_Proxy.Plant_Manipulation.Vines",
    "V_Arachnos_Proxy.Plant_Manipulation.Thorn"
  ],
  "power_display_names": [
    "Entangle",
    "Skewer",
    "Strangler",
    "Toxins",
    "Spore Cloud",
    "Wild Fortress",
    "Ripper",
    "Vines",
    "Thorn Burst"
  ]
}