{
  "name": "Crafted_Sudden_Acceleration_B",
  "display_name": "Sudden Acceleration B",
  "display_fullname": "Boosts.Crafted Sudden Acceleration B",
  "display_help": "Enhances the knockback distance of a power by {Boost.Attrib.Knock.Scale}% and reduces recharge time by {Boost.Attrib.RechargeTime.Scale}%.",
  "display_short_help": "Set: Sudden Acceleration",
  "available_level": [
    0
  ],
  "source_file": "DEFS/POWERS/BOOSTS/CRAFTED_SUDDEN_ACCELERATION_B.POWERSETS",
  "requires": "",
  "power_names": [
    "Boosts.Crafted_Sudden_Acceleration_B.Crafted_Sudden_Acceleration_B"
  ],
  "power_display_names": [
    "Sudden Acceleration: Knockback/Recharge"
  ]
}