{
  "name": "Hamidon_Damage_Mez",
  "display_name": "Hamidon Damage Mez",
  "display_fullname": "Boosts.Hamidon Damage Mez",
  "display_help": "Enhances the damage and the duration of all mez powers.",
  "display_short_help": "Hamidon (All Origins)",
  "available_level": [
    0
  ],
  "source_file": "DEFS/POWERS/BOOSTS/HAMIDON_DAMAGE_MEZ.POWERSETS",
  "requires": "",
  "power_names": [
    "Boosts.Hamidon_Damage_Mez.Hamidon_Damage_Mez"
  ],
  "power_display_names": [
    "Peroxisome Exposure (Dam/Mez)"
  ]
}