{
  "name": "Crafted_Paralytic_B",
  "display_name": "Crafted Paralytic B",
  "display_fullname": "Boosts.Crafted Paralytic B",
  "display_help": "Enhances the hold duration of a power by {Boost.Attrib.Mez.Scale}% and reduces the endurance cost of a power by {Boost.Attrib.Endurance.Scale}%.",
  "display_short_help": "Set: Paralytic",
  "available_level": [
    0
  ],
  "source_file": "DEFS/POWERS/BOOSTS/CRAFTED_PARALYTIC_B.POWERSETS",
  "requires": "",
  "power_names": [
    "Boosts.Crafted_Paralytic_B.Crafted_Paralytic_B"
  ],
  "power_display_names": [
    "Paralytic: Endurance/Hold"
  ]
}