{
  "name": "Energy_Manipulation",
  "display_name": "Energy Manipulation",
  "display_fullname": "V Arachnos Proxy.Energy Manipulation",
  "display_help": "Energy Manipulation allows you to channel energy to deliver deadly blows. These powers also help you focus your power to increase your own abilities.",
  "display_short_help": "Energy Manipulation",
  "available_level": [
    0,
    1,
    3,
    9,
    15,
    19,
    27,
    34,
    37
  ],
  "source_file": "DEFS/POWERS/V_ARACHNOS_PROXY/ENERGY_MANIPULATION.POWERSETS",
  "requires": "",
  "power_names": [
    "V_Arachnos_Proxy.Energy_Manipulation.Power_Thrust",
    "V_Arachnos_Proxy.Energy_Manipulation.Energy_Punch",
    "V_Arachnos_Proxy.Energy_Manipulation.Build_Up",
    "V_Arachnos_Proxy.Energy_Manipulation.Bone_Smasher",
    "V_Arachnos_Proxy.Energy_Manipulation.Conserve_Power",
    "V_Arachnos_Proxy.Energy_Manipulation.Stun",
    "V_Arachnos_Proxy.Energy_Manipulation.Power_Boost",
    "V_Arachnos_Proxy.Energy_Manipulation.Boost_Range",
    "V_Arachnos_Proxy.Energy_Manipulation.Total_Focus"
  ],
  "power_display_names": [
    "Power Thrust",
    "Energy Punch",
    "Build Up",
    "Bone Smasher",
    "Energize",
    "Stun",
    "Power Boost",
    "Boost Range",
    "Total Focus"
  ]
}