{
  "name": "Crafted_Accuracy_45",
  "display_name": "Crafted Accuracy 45",
  "display_fullname": "Boosts.Crafted Accuracy 45",
  "display_help": "Increases accuracy by {Boost.Attrib.Accuracy.Scale}%.",
  "display_short_help": "Invention",
  "available_level": [
    0
  ],
  "source_file": "DEFS/POWERS/BOOSTS/CRAFTED_ACCURACY_45.POWERSETS",
  "requires": "",
  "power_names": [
    "Boosts.Crafted_Accuracy_45.Crafted_Accuracy_45"
  ],
  "power_display_names": [
    "Invention: Accuracy"
  ]
}