{
  "name": "Crafted_Damage_15",
  "display_name": "Crafted Damage 15",
  "display_fullname": "Boosts.Crafted Damage 15",
  "display_help": "Increases damage by {Boost.Attrib.Damage.Scale}%.",
  "display_short_help": "Invention",
  "available_level": [
    0
  ],
  "source_file": "DEFS/POWERS/BOOSTS/CRAFTED_DAMAGE_15.POWERSETS",
  "requires": "",
  "power_names": [
    "Boosts.Crafted_Damage_15.Crafted_Damage_15"
  ],
  "power_display_names": [
    "Invention: Damage"
  ]
}