{
  "name": "Technology_ToHit_DeBuff",
  "display_name": "Technology ToHit DeBuff",
  "display_fullname": "Boosts.Technology ToHit DeBuff",
  "display_help": "Enhances the effectiveness of accuracy debuffs.",
  "display_short_help": "Cybernetics (Technology)",
  "available_level": [
    0
  ],
  "source_file": "DEFS/POWERS/BOOSTS/TECHNOLOGY_TOHIT_DEBUFF.POWERSETS",
  "requires": "",
  "power_names": [
    "Boosts.Technology_ToHit_DeBuff.Technology_ToHit_DeBuff"
  ],
  "power_display_names": [
    "Portacio Ind Nanovirus (ToHit DeBuff)"
  ]
}