{
  "name": "PPD_Psi-Cop",
  "display_name": "PPD Psi-Cop",
  "display_fullname": "V ParagonPolice.PPD Psi-Cop",
  "display_help": "Paragon Police",
  "display_short_help": "Paragon Police",
  "available_level": [
    0,
    0,
    0
  ],
  "source_file": "DEFS/POWERS/V_PARAGONPOLICE/PPD_PSI-COP.POWERSETS",
  "requires": "",
  "power_names": [
    "V_ParagonPolice.PPD_Psi-Cop.Mental_Blast",
    "V_ParagonPolice.PPD_Psi-Cop.Psionic_Dart",
    "V_ParagonPolice.PPD_Psi-Cop.Resistances"
  ],
  "power_display_names": [
    "Mental Blast",
    "Psionic Dart",
    "Resistances"
  ]
}