{
  "name": "Malta_Sapper",
  "display_name": "Malta_Sapper",
  "display_fullname": "Malta.Malta Sapper",
  "display_help": "Malta Group",
  "display_short_help": "Malta Group",
  "available_level": [
    0,
    0,
    0,
    0,
    0,
    0
  ],
  "source_file": "DEFS/POWERS/MALTA/MALTA_SAPPER.POWERSETS",
  "requires": "",
  "power_names": [
    "Malta.Malta_Sapper.Tech_Armor",
    "Malta.Malta_Sapper.Sapper",
    "Malta.Malta_Sapper.Sapper_Overload",
    "Malta.Malta_Sapper.Sapp_Stick",
    "Malta.Malta_Sapper.Fly",
    "Malta.Malta_Sapper.Fly_fx"
  ],
  "power_display_names": [
    "Tech Armor",
    "Sapper",
    "Sapper Overload",
    "Sapp Stick",
    "Fly",
    "Fly fx"
  ]
}