{
  "name": "Attuned_Doctored_Wounds_D",
  "display_name": "Attuned Doctored Wounds D",
  "display_fullname": "Boosts.Attuned Doctored Wounds D",
  "display_help": "Enhances the healing potential and damage absorption of a power by {Boost.Attrib.Heal.Scale}%, reduces the endurance cost of a power by {Boost.Attrib.Endurance.Scale}% and recharge time by {Boost.Attrib.RechargeTime.Scale}%.",
  "display_short_help": "Set: Doctored Wounds",
  "available_level": [
    0
  ],
  "source_file": "DEFS/POWERS/BOOSTS/ATTUNED_DOCTORED_WOUNDS_D.POWERSETS",
  "requires": "",
  "power_names": [
    "Boosts.Attuned_Doctored_Wounds_D.Attuned_Doctored_Wounds_D"
  ],
  "power_display_names": [
    "Doctored Wounds: Healing/Absorb/Endurance/Recharge"
  ]
}