{
  "name": "Titan_Damage_Accuracy",
  "display_name": "Titan Damage Accuracy",
  "display_fullname": "Boosts.Titan Damage Accuracy",
  "display_help": "Enhances the damage and accuracy of a power.",
  "display_short_help": "Titan (All Origins)",
  "available_level": [
    0
  ],
  "source_file": "DEFS/POWERS/BOOSTS/TITAN_DAMAGE_ACCURACY.POWERSETS",
  "requires": "",
  "power_names": [
    "Boosts.Titan_Damage_Accuracy.Titan_Damage_Accuracy"
  ],
  "power_display_names": [
    "Titan Diamond Shard (Acc/Dam)"
  ]
}