{
  "name": "Superior_Attuned_Coercive_Persuasion_B",
  "display_name": "Superior Attuned Coercive Persuasion B",
  "display_fullname": "Boosts.Superior Attuned Coercive Persuasion B",
  "display_help": "UNIQUE -- No more than 1 enhancement of this type may be slotted by a character. Enhances the confuse duration of a power by {Boost.Attrib.Mez.Scale}% and reduces the recharge time of a power by {Boost.Attrib.RechargeTime.Scale}%.",
  "display_short_help": "Set: Coercive Persuasion",
  "available_level": [
    0
  ],
  "source_file": "DEFS/POWERS/BOOSTS/SUPERIOR_ATTUNED_COERCIVE_PERSUASION_B.POWERSETS",
  "requires": "",
  "power_names": [
    "Boosts.Superior_Attuned_Coercive_Persuasion_B.Superior_Attuned_Coercive_Persuasion_B"
  ],
  "power_display_names": [
    "Coercive Persuasion: Confuse Duration/Recharge"
  ]
}