{
  "name": "CoV_Ancestral_Spirit",
  "display_name": "CoV Ancestral Spirit",
  "display_fullname": "Tsoo.CoV Ancestral Spirit",
  "display_help": "Tsoo",
  "display_short_help": "Tsoo",
  "available_level": [
    0
  ],
  "source_file": "DEFS/POWERS/TSOO/COV_ANCESTRAL_SPIRIT.POWERSETS",
  "requires": "",
  "power_names": [
    "Tsoo.CoV_Ancestral_Spirit.Knockout_Blow"
  ],
  "power_display_names": [
    "Knockout Blow"
  ]
}