{
  "name": "Crafted_Stupefy_B",
  "display_name": "Crafted Stupefy B",
  "display_fullname": "Boosts.Crafted Stupefy B",
  "display_help": "Enhances the Stun duration of a power by {Boost.Attrib.Mez.Scale}% and reduces the endurance cost of a power by {Boost.Attrib.Endurance.Scale}%.",
  "display_short_help": "Set: Stupefy",
  "available_level": [
    0
  ],
  "source_file": "DEFS/POWERS/BOOSTS/CRAFTED_STUPEFY_B.POWERSETS",
  "requires": "",
  "power_names": [
    "Boosts.Crafted_Stupefy_B.Crafted_Stupefy_B"
  ],
  "power_display_names": [
    "Stupefy: Endurance/Stun"
  ]
}