{
  "name": "SavageBlow_Heal",
  "display_name": "Savage Blow Primal Heal",
  "display_fullname": "Primalist Misc.Savage Blow Primal Heal",
  "display_help": "Feral Might",
  "display_short_help": "Feral Might",
  "available_level": [
    0
  ],
  "source_file": "DEFS/POWERS/PRIMALIST_MISC/SAVAGEBLOW_HEAL.POWERSETS",
  "requires": "",
  "power_names": [
    "Primalist_Misc.SavageBlow_Heal.Savage_Blow_Primal_Heal"
  ],
  "power_display_names": [
    "Savage Blow Primal Heal"
  ]
}