{
  "name": "JackInIronsPet",
  "display_name": "JackInIronsPet",
  "display_fullname": "MindsOfMayhem.JackInIronsPet",
  "display_help": "Nightmares",
  "display_short_help": "Nightmares",
  "available_level": [
    0
  ],
  "source_file": "DEFS/POWERS/MINDSOFMAYHEM/JACKINIRONSPET.POWERSETS",
  "requires": "",
  "power_names": [
    "MindsOfMayhem.JackInIronsPet.Ground_Smash"
  ],
  "power_display_names": [
    "Ground Smash"
  ]
}