{
  "name": "Boss_Fire_Imps_High",
  "display_name": "Boss Fire Imps High",
  "display_fullname": "V LegacyChain.Boss Fire Imps High",
  "display_help": "Legacy of Flame",
  "display_short_help": "Legacy of Flame",
  "available_level": [
    0
  ],
  "source_file": "DEFS/POWERS/V_LEGACYCHAIN/BOSS_FIRE_IMPS_HIGH.POWERSETS",
  "requires": "",
  "power_names": [
    "V_LegacyChain.Boss_Fire_Imps_High.Fire_Imps"
  ],
  "power_display_names": [
    "Fire Imps"
  ]
}