{
  "name": "Tree",
  "display_name": "Tree",
  "display_fullname": "CircleOfThorns.Tree",
  "display_help": "Circle Of Thorns",
  "display_short_help": "Circle Of Thorns",
  "available_level": [
    0,
    0,
    0,
    0,
    0,
    0,
    0,
    0
  ],
  "source_file": "DEFS/POWERS/CIRCLEOFTHORNS/TREE.POWERSETS",
  "requires": "",
  "power_names": [
    "CircleOfThorns.Tree.Roots",
    "CircleOfThorns.Tree.Spore_Burst",
    "CircleOfThorns.Tree.Vines",
    "CircleOfThorns.Tree.Thorny_Darts",
    "CircleOfThorns.Tree.Fling_Thorns",
    "CircleOfThorns.Tree.Impale",
    "CircleOfThorns.Tree.Thorn_Barrage",
    "CircleOfThorns.Tree.Resistance"
  ],
  "power_display_names": [
    "Roots",
    "Spore Burst",
    "Vines",
    "Thorny Darts",
    "Fling Thorns",
    "Impale",
    "Thorn Barrage",
    "Resistance"
  ]
}