{
  "name": "Attuned_Annoyance_B",
  "display_name": "Attuned Annoyance B",
  "display_fullname": "Boosts.Attuned Annoyance B",
  "display_help": "Enhances the taunt duration of a power by {Boost.Attrib.Mez.Scale}% and reduces the recharge time of a power by {Boost.Attrib.RechargeTime.Scale}%.",
  "display_short_help": "Set: Annoyance",
  "available_level": [
    0
  ],
  "source_file": "DEFS/POWERS/BOOSTS/ATTUNED_ANNOYANCE_B.POWERSETS",
  "requires": "",
  "power_names": [
    "Boosts.Attuned_Annoyance_B.Attuned_Annoyance_B"
  ],
  "power_display_names": [
    "Annoyance: Taunt/Recharge"
  ]
}