{
  "name": "Spines_Stalker_Max",
  "display_name": "Spines Stalker Max",
  "display_fullname": "V GenericVillains.Spines Stalker Max",
  "display_help": "Villain",
  "display_short_help": "Villain",
  "available_level": [
    0
  ],
  "source_file": "DEFS/POWERS/V_GENERICVILLAINS/SPINES_STALKER_MAX.POWERSETS",
  "requires": "",
  "power_names": [
    "V_GenericVillains.Spines_Stalker_Max.Revive"
  ],
  "power_display_names": [
    "Revive"
  ]
}