{
  "name": "Force_Field",
  "display_name": "Force Field",
  "display_fullname": "Mastermind Buff.Force Field",
  "display_help": "The Force Field powers give you the ability to create shells of energy that protect yourself and your allies from various forms of damage and harm. Force Fields do not reduce damage, but reduce your allies chance of getting hit in the first place.",
  "display_short_help": "Force Field",
  "available_level": [
    0,
    1,
    3,
    9,
    15,
    19,
    27,
    34,
    37
  ],
  "source_file": "DEFS/POWERS/MASTERMIND_BUFF/FORCE_FIELD.POWERSETS",
  "requires": "",
  "power_names": [
    "Mastermind_Buff.Force_Field.Force_Bolt",
    "Mastermind_Buff.Force_Field.Deflection_Shield",
    "Mastermind_Buff.Force_Field.Insulation_Shield",
    "Mastermind_Buff.Force_Field.Detention_Field",
    "Mastermind_Buff.Force_Field.Personal_Force_Field",
    "Mastermind_Buff.Force_Field.Dispersion_Bubble",
    "Mastermind_Buff.Force_Field.Repulsion_Field",
    "Mastermind_Buff.Force_Field.Repulsion_Bomb",
    "Mastermind_Buff.Force_Field.Force_Bubble"
  ],
  "power_display_names": [
    "Force Bolt",
    "Deflection Shield",
    "Insulation Shield",
    "Detention Field",
    "Personal Force Field",
    "Dispersion Bubble",
    "Repulsion Field",
    "Repulsion Bomb",
    "Force Bubble"
  ]
}