{
  "name": "Natural_Confuse",
  "display_name": "Natural Confuse",
  "display_fullname": "Boosts.Natural Confuse",
  "display_help": "Increases the duration of a confuse power.",
  "display_short_help": "Technique (Natural)",
  "available_level": [
    0
  ],
  "source_file": "DEFS/POWERS/BOOSTS/NATURAL_CONFUSE.POWERSETS",
  "requires": "",
  "power_names": [
    "Boosts.Natural_Confuse.Natural_Confuse"
  ],
  "power_display_names": [
    "Dragon Flurry (Confuse)"
  ]
}