{
  "name": "Superior_Attuned_Winters_Bite_E",
  "display_name": "Superior Attuned Winters Bite E",
  "display_fullname": "Boosts.Superior Attuned Winters Bite E",
  "display_help": "UNIQUE -- No more than 1 enhancement of this type may be slotted by a character. Enhances the accuracy of a power by {Boost.Attrib.Accuracy.Scale}%, damage by {Boost.Attrib.Damage.Scale}%, reduces endurance cost by {Boost.Attrib.Endurance.Scale}% and reduces recharge time by {Boost.Attrib.RechargeTime.Scale}%. This enhancement can only be slotted by Blasters and may be slotted into any Blaster damage power.",
  "display_short_help": "Set: Superior Winter's Bite",
  "available_level": [
    0
  ],
  "source_file": "DEFS/POWERS/BOOSTS/SUPERIOR_ATTUNED_WINTERS_BITE_E.POWERSETS",
  "requires": "",
  "power_names": [
    "Boosts.Superior_Attuned_Winters_Bite_E.Superior_Attuned_Winters_Bite_E"
  ],
  "power_display_names": [
    "Superior Winter's Bite: Accuracy/Damage/Endurance/Recharge"
  ]
}