{
  "name": "Kinetic_Attack",
  "display_name": "Kinetic Melee",
  "display_fullname": "Tanker Melee.Kinetic Melee",
  "display_help": "Kinetic Melee features a mix of fast light attacks and slow heavy attacks, including some with range. All attacks in this set reduce the damage strength of enemies who are hit.",
  "display_short_help": "Kinetic Attack",
  "available_level": [
    0,
    1,
    3,
    9,
    15,
    19,
    27,
    34,
    37
  ],
  "source_file": "DEFS/POWERS/TANKER_MELEE/KINETIC_ATTACK.POWERSETS",
  "requires": "",
  "power_names": [
    "Tanker_Melee.Kinetic_Attack.Quick_Strike",
    "Tanker_Melee.Kinetic_Attack.Body_Blow",
    "Tanker_Melee.Kinetic_Attack.Smashing_Blow",
    "Tanker_Melee.Kinetic_Attack.Taunt",
    "Tanker_Melee.Kinetic_Attack.Repulsing_Torrent",
    "Tanker_Melee.Kinetic_Attack.Power_Siphon",
    "Tanker_Melee.Kinetic_Attack.Burst",
    "Tanker_Melee.Kinetic_Attack.Focused_Burst",
    "Tanker_Melee.Kinetic_Attack.Total_Focus"
  ],
  "power_display_names": [
    "Quick Strike",
    "Body Blow",
    "Smashing Blow",
    "Taunt",
    "Repulsing Torrent",
    "Power Siphon",
    "Burst",
    "Focused Burst",
    "Concentrated Strike"
  ]
}