{
  "name": "Superior_Attuned_Superior_Will_of_the_Controller_D",
  "display_name": "Superior Attuned Superior Will of the Controller D",
  "display_fullname": "Boosts.Superior Attuned Will of the Controller D",
  "display_help": "UNIQUE -- No more than 1 enhancement of this type may be slotted by a character. Enhances the accuracy of a power by {Boost.Attrib.Accuracy.Scale}%, enhances the hold duration of a power by {Boost.Attrib.Mez.Scale}%, the hold duration by {Boost.Attrib.Mez.Scale}%, the immobilization duration by {Boost.Attrib.Mez.Scale}%, the sleep duration by {Boost.Attrib.Mez.Scale}%, the fear duration by {Boost.Attrib.Mez.Scale}% and the confuse duration by {Boost.Attrib.Mez.Scale}% and reduces endurance cost by {Boost.Attrib.Endurance.Scale}%. This enhancement can only be slotted by Controllers and may be slotted into most control powers and requires the user to be level 50.",
  "display_short_help": "Set: Superior Will of the Controller",
  "available_level": [
    0
  ],
  "source_file": "DEFS/POWERS/BOOSTS/SUPERIOR_ATTUNED_SUPERIOR_WILL_OF_THE_CONTROLLER_D.POWERSETS",
  "requires": "",
  "power_names": [
    "Boosts.Superior_Attuned_Superior_Will_of_the_Controller_D.Superior_Attuned_Superior_Will_of_the_Controller_D"
  ],
  "power_display_names": [
    "Superior Will of the Controller: Accuracy/Control Duration/Endurance"
  ]
}