{
  "name": "Crafted_Fury_of_the_Gladiator_E",
  "display_name": "Crafted Fury of the Gladiator E",
  "display_fullname": "Boosts.Crafted Fury of the Gladiator E",
  "display_help": "Enhances the accuracy of a power by {Boost.Attrib.Accuracy.Scale}%, damage by {Boost.Attrib.Damage.Scale}%, reduces endurance cost by {Boost.Attrib.Endurance.Scale}% and reduces recharge time by {Boost.Attrib.RechargeTime.Scale}%. NOTE: This is a PvP enhancement, this type of enhancement has two groups of set bonuses. You get the set bonuses not marked \"(PvP)\" while experiencing PvE content, but you get both the PvP set bonuses and the PvE set bonuses when fighting players.",
  "display_short_help": "Set: Fury of the Gladiator",
  "available_level": [
    0
  ],
  "source_file": "DEFS/POWERS/BOOSTS/CRAFTED_FURY_OF_THE_GLADIATOR_E.POWERSETS",
  "requires": "",
  "power_names": [
    "Boosts.Crafted_Fury_of_the_Gladiator_E.Crafted_Fury_of_the_Gladiator_E"
  ],
  "power_display_names": [
    "Fury of the Gladiator: Accuracy/Damage/Endurance/Recharge"
  ]
}