{
  "name": "Technology_Natural_Recharge",
  "display_name": "Technology Natural Recharge",
  "display_fullname": "Boosts.Technology Natural Recharge",
  "display_help": "Increases the attack rate of a power.",
  "display_short_help": "Gadget (Technology, Natural)",
  "available_level": [
    0
  ],
  "source_file": "DEFS/POWERS/BOOSTS/TECHNOLOGY_NATURAL_RECHARGE.POWERSETS",
  "requires": "",
  "power_names": [
    "Boosts.Technology_Natural_Recharge.Technology_Natural_Recharge"
  ],
  "power_display_names": [
    "Haste Device (Recharge)"
  ]
}