{
  "name": "Natural_Magic_Sleep",
  "display_name": "Natural Magic Sleep",
  "display_fullname": "Boosts.Natural Magic Sleep",
  "display_help": "Increases the duration of a sleep power.",
  "display_short_help": "Relic (Natural, Magic)",
  "available_level": [
    0
  ],
  "source_file": "DEFS/POWERS/BOOSTS/NATURAL_MAGIC_SLEEP.POWERSETS",
  "requires": "",
  "power_names": [
    "Boosts.Natural_Magic_Sleep.Natural_Magic_Sleep"
  ],
  "power_display_names": [
    "Crowley's Jewel (Sleep)"
  ]
}