{
  "name": "Arcane_Trip_Mine",
  "display_name": "Arcane Trip Mine",
  "display_fullname": "Base Traps.Arcane Trip Mine",
  "display_help": "One-shot trip mine. Causes large AoE damage, but destroys itself when triggered.",
  "display_short_help": "Base Traps",
  "available_level": [
    0,
    0
  ],
  "source_file": "DEFS/POWERS/BASE_TRAPS/ARCANE_TRIP_MINE.POWERSETS",
  "requires": "",
  "power_names": [
    "Base_Traps.Arcane_Trip_Mine.Thurisaz_Rune",
    "Base_Traps.Arcane_Trip_Mine.Self_Destruct"
  ],
  "power_display_names": [
    "Thurisaz Rune",
    "Self Destruct"
  ]
}