{
  "name": "Attuned_Kinetic_Combat_C",
  "display_name": "Attuned Kinetic Combat C",
  "display_fullname": "Boosts.Attuned Kinetic Combat C",
  "display_help": "Enhances the damage of a power by {Boost.Attrib.Damage.Scale}% and reduces recharge time by {Boost.Attrib.RechargeTime.Scale}%.",
  "display_short_help": "Set: Kinetic Combat",
  "available_level": [
    0
  ],
  "source_file": "DEFS/POWERS/BOOSTS/ATTUNED_KINETIC_COMBAT_C.POWERSETS",
  "requires": "",
  "power_names": [
    "Boosts.Attuned_Kinetic_Combat_C.Attuned_Kinetic_Combat_C"
  ],
  "power_display_names": [
    "Kinetic Combat: Damage/Recharge"
  ]
}