{
  "name": "Boss_Revive",
  "display_name": "Boss Revive",
  "display_fullname": "V Wailers.Boss Revive",
  "display_help": "Wailers",
  "display_short_help": "Wailers",
  "available_level": [
    0
  ],
  "source_file": "DEFS/POWERS/V_WAILERS/BOSS_REVIVE.POWERSETS",
  "requires": "",
  "power_names": [
    "V_Wailers.Boss_Revive.Revive"
  ],
  "power_display_names": [
    "Revive"
  ]
}