{
  "name": "Goldbricker_Sonic_Cannon",
  "display_name": "Goldbricker_Sonic_Cannon",
  "display_fullname": "Guns.Goldbricker Sonic Cannon",
  "display_help": "Guns",
  "display_short_help": "Guns",
  "available_level": [
    0,
    0
  ],
  "source_file": "DEFS/POWERS/GUNS/GOLDBRICKER_SONIC_CANNON.POWERSETS",
  "requires": "",
  "power_names": [
    "Guns.Goldbricker_Sonic_Cannon.Sonic_Cannon_Heavy_Blast",
    "Guns.Goldbricker_Sonic_Cannon.Sonic_Cannon_Cone_Blast"
  ],
  "power_display_names": [
    "Sonic Cannon Heavy Blast",
    "Sonic Cannon Cone Blast"
  ]
}