{
  "name": "Crafted_Confuse_50",
  "display_name": "Crafted Confuse 50",
  "display_fullname": "Boosts.Crafted Confuse 50",
  "display_help": "Increases confuse duration by {Boost.Attrib.Mez.Scale}%.",
  "display_short_help": "Invention",
  "available_level": [
    0
  ],
  "source_file": "DEFS/POWERS/BOOSTS/CRAFTED_CONFUSE_50.POWERSETS",
  "requires": "",
  "power_names": [
    "Boosts.Crafted_Confuse_50.Crafted_Confuse_50"
  ],
  "power_display_names": [
    "Invention: Confusion Duration"
  ]
}