{
  "name": "Attuned_Pacing_of_the_Turtle_E",
  "display_name": "Attuned Pacing of the Turtle E",
  "display_fullname": "Boosts.Attuned Pacing of the Turtle E",
  "display_help": "Enhances the slowing ability of a power by {Boost.Attrib.Movement.Scale}%, reduces the endurance cost of a power by {Boost.Attrib.Endurance.Scale}% and reduces the recharge time of a power by {Boost.Attrib.RechargeTime.Scale}%.",
  "display_short_help": "Set: Pacing of the Turtle",
  "available_level": [
    0
  ],
  "source_file": "DEFS/POWERS/BOOSTS/ATTUNED_PACING_OF_THE_TURTLE_E.POWERSETS",
  "requires": "",
  "power_names": [
    "Boosts.Attuned_Pacing_of_the_Turtle_E.Attuned_Pacing_of_the_Turtle_E"
  ],
  "power_display_names": [
    "Pacing of the Turtle: Endurance/Recharge/Slow"
  ]
}