{
  "name": "Crafted_Interrupt_20",
  "display_name": "Crafted Interrupt 20",
  "display_fullname": "Boosts.Crafted Interrupt 20",
  "display_help": "Reduces interrupt time by {Boost.Attrib.InterruptTime.Scale}%.",
  "display_short_help": "Invention",
  "available_level": [
    0
  ],
  "source_file": "DEFS/POWERS/BOOSTS/CRAFTED_INTERRUPT_20.POWERSETS",
  "requires": "",
  "power_names": [
    "Boosts.Crafted_Interrupt_20.Crafted_Interrupt_20"
  ],
  "power_display_names": [
    "Invention: Interrupt Duration"
  ]
}