{
  "name": "Crafted_Unbounded_Leap_C",
  "display_name": "Crafted Unbounded Leap C",
  "display_fullname": "Boosts.Crafted Unbounded Leap C",
  "display_help": "UNIQUE -- No more than 1 enhancement of this type may be slotted by a character. May not be slotted if you have any other enhancements which grant stealth. Grants Stealth for 120 seconds when used in an instant effect power.",
  "display_short_help": "Set: Unbounded Leap",
  "available_level": [
    0
  ],
  "source_file": "DEFS/POWERS/BOOSTS/CRAFTED_UNBOUNDED_LEAP_C.POWERSETS",
  "requires": "",
  "power_names": [
    "Boosts.Crafted_Unbounded_Leap_C.Crafted_Unbounded_Leap_C"
  ],
  "power_display_names": [
    "Unbounded Leap: Stealth"
  ]
}