{
  "name": "Nemesis_Line_Melee",
  "display_name": "Nemesis_Line_Melee",
  "display_fullname": "Nemesis.Nemesis Line Melee",
  "display_help": "Nemesis",
  "display_short_help": "Nemesis",
  "available_level": [
    0
  ],
  "source_file": "DEFS/POWERS/NEMESIS/NEMESIS_LINE_MELEE.POWERSETS",
  "requires": "",
  "power_names": [
    "Nemesis.Nemesis_Line_Melee.Bayonet"
  ],
  "power_display_names": [
    "Bayonet"
  ]
}