{
  "name": "Equalizer_Carbine",
  "display_name": "Equalizer Carbine",
  "display_fullname": "V ParagonPolice.Equalizer Carbine",
  "display_help": "Paragon Police",
  "display_short_help": "Paragon Police",
  "available_level": [
    0,
    0,
    0
  ],
  "source_file": "DEFS/POWERS/V_PARAGONPOLICE/EQUALIZER_CARBINE.POWERSETS",
  "requires": "",
  "power_names": [
    "V_ParagonPolice.Equalizer_Carbine.Carbine_Shot",
    "V_ParagonPolice.Equalizer_Carbine.Web_Grenade",
    "V_ParagonPolice.Equalizer_Carbine.Glue_Grenade"
  ],
  "power_display_names": [
    "Carbine Shot",
    "Web Grenade",
    "Glue Grenade"
  ]
}