{
  "name": "Knight_Errant",
  "display_name": "Knight Errant",
  "display_fullname": "PaladinEvent.Knight Errant",
  "display_help": "Clockwork",
  "display_short_help": "Clockwork",
  "available_level": [
    0
  ],
  "source_file": "DEFS/POWERS/PALADINEVENT/KNIGHT_ERRANT.POWERSETS",
  "requires": "",
  "power_names": [
    "PaladinEvent.Knight_Errant.Tesla_Cage"
  ],
  "power_display_names": [
    "Tesla Cage"
  ]
}