{
  "name": "Superior_Attuned_Superior_Brutes_Fury_A",
  "display_name": "Superior Attuned Superior Brutes Fury A",
  "display_fullname": "Boosts.Superior Attuned Brutes Fury A",
  "display_help": "UNIQUE -- No more than 1 enhancement of this type may be slotted by a character. Enhances the damage of a power by {Boost.Attrib.Damage.Scale}% and accuracy by {Boost.Attrib.Accuracy.Scale}%. This enhancement can only be slotted by Brutes and may be slotted into any Brute damage power.",
  "display_short_help": "Set: Superior Brute's Fury",
  "available_level": [
    0
  ],
  "source_file": "DEFS/POWERS/BOOSTS/SUPERIOR_ATTUNED_SUPERIOR_BRUTES_FURY_A.POWERSETS",
  "requires": "",
  "power_names": [
    "Boosts.Superior_Attuned_Superior_Brutes_Fury_A.Superior_Attuned_Superior_Brutes_Fury_A"
  ],
  "power_display_names": [
    "Superior Brute's Fury: Accuracy/Damage"
  ]
}