{
  "name": "Numina",
  "display_name": "Numina",
  "display_fullname": "V FreedomPhalanx.Numina",
  "display_help": "Freedom Phalanx",
  "display_short_help": "Freedom Phalanx",
  "available_level": [
    0,
    0,
    0,
    0,
    0,
    0,
    0,
    0,
    0,
    0,
    0,
    0,
    0,
    0
  ],
  "source_file": "DEFS/POWERS/V_FREEDOMPHALANX/NUMINA.POWERSETS",
  "requires": "",
  "power_names": [
    "V_FreedomPhalanx.Numina.Levitate",
    "V_FreedomPhalanx.Numina.Dominate",
    "V_FreedomPhalanx.Numina.Total_Domination",
    "V_FreedomPhalanx.Numina.Telekinetic_Blast",
    "V_FreedomPhalanx.Numina.Will_Domination",
    "V_FreedomPhalanx.Numina.Psionic_Tornado",
    "V_FreedomPhalanx.Numina.Psychic_Wail",
    "V_FreedomPhalanx.Numina.Heal_Other",
    "V_FreedomPhalanx.Numina.Resurrect",
    "V_FreedomPhalanx.Numina.Fortitude",
    "V_FreedomPhalanx.Numina.Adrenalin_Boost",
    "V_FreedomPhalanx.Numina.Ethereal",
    "V_FreedomPhalanx.Numina.Resistance",
    "V_FreedomPhalanx.Numina.Fly"
  ],
  "power_display_names": [
    "Levitate",
    "Dominate",
    "Total Domination",
    "Telekinetic Blast",
    "Will Domination",
    "Psionic Tornado",
    "Psychic Wail",
    "Heal Other",
    "Resurrect",
    "Fortitude",
    "Adrenalin Boost",
    "Ethereal",
    "Resistance",
    "Fly"
  ]
}