{
  "name": "Minion_Resists",
  "display_name": "Minion_Resists",
  "display_fullname": "RedCaps.Minion Resists",
  "display_help": "RedCaps",
  "display_short_help": "RedCaps",
  "available_level": [
    0
  ],
  "source_file": "DEFS/POWERS/REDCAPS/MINION_RESISTS.POWERSETS",
  "requires": "",
  "power_names": [
    "RedCaps.Minion_Resists.Resistance"
  ],
  "power_display_names": [
    "Resistance"
  ]
}