{
  "name": "Lore_Pet_Arachnos_Support",
  "display_name": "Lore_Pet_Arachnos_Support",
  "display_fullname": "Incarnate.Lore Pet Arachnos Support",
  "display_help": "Arachnos",
  "display_short_help": "Arachnos",
  "available_level": [
    0,
    0
  ],
  "source_file": "DEFS/POWERS/INCARNATE/LORE_PET_ARACHNOS_SUPPORT.POWERSETS",
  "requires": "",
  "power_names": [
    "Incarnate.Lore_Pet_Arachnos_Support.Mind_Link",
    "Incarnate.Lore_Pet_Arachnos_Support.Soothe"
  ],
  "power_display_names": [
    "Mind Link",
    "Soothe"
  ]
}