{
  "name": "Death_Cry",
  "display_name": "Death_Cry",
  "display_fullname": "CircleOfThorns.Death Cry",
  "display_help": "Circle of Thorns",
  "display_short_help": "Circle of Thorns",
  "available_level": [
    0,
    0
  ],
  "source_file": "DEFS/POWERS/CIRCLEOFTHORNS/DEATH_CRY.POWERSETS",
  "requires": "",
  "power_names": [
    "CircleOfThorns.Death_Cry.Death_Cry",
    "CircleOfThorns.Death_Cry.Self_Destruct"
  ],
  "power_display_names": [
    "Death Cry",
    "Self Destruct"
  ]
}