{
  "name": "Crey_Ice_Tank",
  "display_name": "Crey_Ice_Tank",
  "display_fullname": "Crey.Crey Ice Tank",
  "display_help": "Crey",
  "display_short_help": "Crey",
  "available_level": [
    0,
    0,
    0,
    0,
    0
  ],
  "source_file": "DEFS/POWERS/CREY/CREY_ICE_TANK.POWERSETS",
  "requires": "",
  "power_names": [
    "Crey.Crey_Ice_Tank.Frost",
    "Crey.Crey_Ice_Tank.Frozen_Fists",
    "Crey.Crey_Ice_Tank.Ice_Bolt",
    "Crey.Crey_Ice_Tank.Ice_Blast",
    "Crey.Crey_Ice_Tank.Freeze_Ray"
  ],
  "power_display_names": [
    "Frost",
    "Frozen Fists",
    "Ice Bolt",
    "Ice Blast",
    "Freeze Ray"
  ]
}