{
  "name": "Nemesis_Jaeger_Ranged",
  "display_name": "Nemesis_Jaeger_Ranged",
  "display_fullname": "Nemesis.Nemesis Jaeger Ranged",
  "display_help": "Nemesis",
  "display_short_help": "Nemesis",
  "available_level": [
    0,
    0,
    0
  ],
  "source_file": "DEFS/POWERS/NEMESIS/NEMESIS_JAEGER_RANGED.POWERSETS",
  "requires": "",
  "power_names": [
    "Nemesis.Nemesis_Jaeger_Ranged.Jaeger_Gun",
    "Nemesis.Nemesis_Jaeger_Ranged.Jaeger_Cannon",
    "Nemesis.Nemesis_Jaeger_Ranged.Gas_Grenade"
  ],
  "power_display_names": [
    "Jaeger Gun",
    "Jaeger Cannon",
    "Gas Grenade"
  ]
}