{
  "name": "Positron",
  "display_name": "Positron",
  "display_fullname": "V FreedomPhalanx.Positron",
  "display_help": "Freedom Phalanx",
  "display_short_help": "Freedom Phalanx",
  "available_level": [
    0,
    0,
    0,
    0,
    0,
    0,
    0,
    0,
    0,
    0,
    0,
    0,
    0,
    0
  ],
  "source_file": "DEFS/POWERS/V_FREEDOMPHALANX/POSITRON.POWERSETS",
  "requires": "",
  "power_names": [
    "V_FreedomPhalanx.Positron.Neutrino_Bolt",
    "V_FreedomPhalanx.Positron.Irradiate",
    "V_FreedomPhalanx.Positron.Electron_Haze",
    "V_FreedomPhalanx.Positron.Cosmic_Burst",
    "V_FreedomPhalanx.Positron.Neutron_Bomb",
    "V_FreedomPhalanx.Positron.Atomic_Blast",
    "V_FreedomPhalanx.Positron.Enervating__Field",
    "V_FreedomPhalanx.Positron.Lingering_Radiation",
    "V_FreedomPhalanx.Positron.Choking_Cloud",
    "V_FreedomPhalanx.Positron.EM_Pulse",
    "V_FreedomPhalanx.Positron.Overcharge",
    "V_FreedomPhalanx.Positron.Resistance",
    "V_FreedomPhalanx.Positron.Fly",
    "V_FreedomPhalanx.Positron.Fly_fx"
  ],
  "power_display_names": [
    "Neutrino Bolt",
    "Irradiate",
    "Electron Haze",
    "Cosmic Burst",
    "Neutron Bomb",
    "Atomic Blast",
    "Enervating Field",
    "Lingering Radiation",
    "Choking Cloud",
    "EM Pulse",
    "Overcharge",
    "Resistance",
    "Fly",
    "Fly fx"
  ]
}