{
  "name": "Attuned_Crushing_Impact_A",
  "display_name": "Attuned Crushing Impact A",
  "display_fullname": "Boosts.Attuned Crushing Impact A",
  "display_help": "Enhances the damage of a power by {Boost.Attrib.Damage.Scale}% and accuracy by {Boost.Attrib.Accuracy.Scale}%.",
  "display_short_help": "Set: Crushing Impact",
  "available_level": [
    0
  ],
  "source_file": "DEFS/POWERS/BOOSTS/ATTUNED_CRUSHING_IMPACT_A.POWERSETS",
  "requires": "",
  "power_names": [
    "Boosts.Attuned_Crushing_Impact_A.Attuned_Crushing_Impact_A"
  ],
  "power_display_names": [
    "Crushing Impact: Accuracy/Damage"
  ]
}