{
  "name": "Guard_Baton",
  "display_name": "Guard_Baton",
  "display_fullname": "Prisoners.Guard Baton",
  "display_help": "Guard",
  "display_short_help": "Guard",
  "available_level": [
    0,
    0
  ],
  "source_file": "DEFS/POWERS/PRISONERS/GUARD_BATON.POWERSETS",
  "requires": "",
  "power_names": [
    "Prisoners.Guard_Baton.Baton",
    "Prisoners.Guard_Baton.Revolver"
  ],
  "power_display_names": [
    "Baton",
    "Revolver"
  ]
}