{
  "name": "Waterspout",
  "display_name": "Waterspout",
  "display_fullname": "V Coralax.Waterspout",
  "display_help": "Coralax",
  "display_short_help": "Coralax",
  "available_level": [
    0,
    0
  ],
  "source_file": "DEFS/POWERS/V_CORALAX/WATERSPOUT.POWERSETS",
  "requires": "",
  "power_names": [
    "V_Coralax.Waterspout.Whirlpool",
    "V_Coralax.Waterspout.Immobile"
  ],
  "power_display_names": [
    "Whirlpool",
    "Immobile"
  ]
}