{
  "name": "Attuned_Assassins_Mark_C",
  "display_name": "Attuned Assassins Mark C",
  "display_fullname": "Boosts.Attuned Assassins Mark C",
  "display_help": "UNIQUE -- No more than 1 enhancement of this type may be slotted by a character. Enhances the accuracy of a power by {Boost.Attrib.Accuracy.Scale}% and damage by {Boost.Attrib.Damage.Scale}% and reduces recharge time by {Boost.Attrib.RechargeTime.Scale}% . This enhancement can only be slotted by Stalkers and can be slotted into nearly all Stalker damage powers.",
  "display_short_help": "Set: Assassin's Mark",
  "available_level": [
    0
  ],
  "source_file": "DEFS/POWERS/BOOSTS/ATTUNED_ASSASSINS_MARK_C.POWERSETS",
  "requires": "",
  "power_names": [
    "Boosts.Attuned_Assassins_Mark_C.Attuned_Assassins_Mark_C"
  ],
  "power_display_names": [
    "Assassin's Mark: Accuracy/Damage/Recharge (Stalker)"
  ]
}