{
  "name": "Super_Reflexes",
  "display_name": "Super Reflexes",
  "display_fullname": "Stalker Defense.Super Reflexes",
  "display_help": "Your Super Reflexes and acute senses allow you to react deftly to avoid danger. Regardless of what comes at you, Super Reflexes simply allow you to avoid the attack. The type of weapon or attack used against you is irrelevant. So swords, bullets, fire, energy, even Psionic Attacks can be avoided. Super Reflexes focuses on different techniques. Avoiding melee attacks is different than avoiding ranged attacks or even area-of-effect attacks. Your weakness is your opponents accuracy.",
  "display_short_help": "Super Reflexes",
  "available_level": [
    0,
    1,
    3,
    9,
    15,
    19,
    27,
    34,
    37
  ],
  "source_file": "DEFS/POWERS/STALKER_DEFENSE/SUPER_REFLEXES.POWERSETS",
  "requires": "",
  "power_names": [
    "Stalker_Defense.Super_Reflexes.Hide",
    "Stalker_Defense.Super_Reflexes.Focused_Fighting",
    "Stalker_Defense.Super_Reflexes.Focused_Senses",
    "Stalker_Defense.Super_Reflexes.Agile",
    "Stalker_Defense.Super_Reflexes.Practiced_Brawler",
    "Stalker_Defense.Super_Reflexes.Dodge",
    "Stalker_Defense.Super_Reflexes.Quickness",
    "Stalker_Defense.Super_Reflexes.Evasion",
    "Stalker_Defense.Super_Reflexes.Elude"
  ],
  "power_display_names": [
    "Hide",
    "Focused Fighting",
    "Focused Senses",
    "Agile",
    "Practiced Brawler",
    "Dodge",
    "Quickness",
    "Evasion",
    "Elude"
  ]
}