{
  "name": "Crafted_Commanding_Presence_A",
  "display_name": "Crafted Commanding Presence A",
  "display_fullname": "Boosts.Crafted Commanding Presence A",
  "display_help": "Enhances the damage of a power by {Boost.Attrib.Damage.Scale}% and accuracy by {Boost.Attrib.Accuracy.Scale}%.",
  "display_short_help": "Set: Commanding Presence",
  "available_level": [
    0
  ],
  "source_file": "DEFS/POWERS/BOOSTS/CRAFTED_COMMANDING_PRESENCE_A.POWERSETS",
  "requires": "",
  "power_names": [
    "Boosts.Crafted_Commanding_Presence_A.Crafted_Commanding_Presence_A"
  ],
  "power_display_names": [
    "Commanding Presence: Accuracy/Damage"
  ]
}