{
  "name": "Ghosts_Lt_Boss",
  "display_name": "Ghosts_Lt_Boss",
  "display_fullname": "Portal.Ghosts Lt Boss",
  "display_help": "Ghosts",
  "display_short_help": "Ghosts",
  "available_level": [
    0
  ],
  "source_file": "DEFS/POWERS/PORTAL/GHOSTS_LT_BOSS.POWERSETS",
  "requires": "",
  "power_names": [
    "Portal.Ghosts_Lt_Boss.Life_Drain"
  ],
  "power_display_names": [
    "Life Drain"
  ]
}