{
  "name": "Dark_Miasma",
  "display_name": "Dark Miasma",
  "display_fullname": "Defender Buff.Dark Miasma",
  "display_help": "Focus the dark power of the Netherworld to weaken your foes. Dark Miasma focuses on draining your opponent.",
  "display_short_help": "Dark Miasma",
  "available_level": [
    0,
    0,
    1,
    5,
    7,
    11,
    17,
    25,
    31
  ],
  "source_file": "DEFS/POWERS/DEFENDER_BUFF/DARK_MIASMA.POWERSETS",
  "requires": "",
  "power_names": [
    "Defender_Buff.Dark_Miasma.Twilight_Grasp",
    "Defender_Buff.Dark_Miasma.Tar_Patch",
    "Defender_Buff.Dark_Miasma.Darkest_Night",
    "Defender_Buff.Dark_Miasma.Howling_Twilight",
    "Defender_Buff.Dark_Miasma.Shadow_Fall",
    "Defender_Buff.Dark_Miasma.Fearsome_Stare",
    "Defender_Buff.Dark_Miasma.Petrifying_Gaze",
    "Defender_Buff.Dark_Miasma.Black_Hole",
    "Defender_Buff.Dark_Miasma.Chill_of_the_Night"
  ],
  "power_display_names": [
    "Twilight Grasp",
    "Tar Patch",
    "Darkest Night",
    "Howling Twilight",
    "Shadow Fall",
    "Fearsome Stare",
    "Petrifying Gaze",
    "Black Hole",
    "Dark Servant"
  ]
}