{
  "name": "Crafted_Crushing_Impact_E",
  "display_name": "Crafted Crushing Impact E",
  "display_fullname": "Boosts.Crafted Crushing Impact E",
  "display_help": "Enhances the accuracy of a power by {Boost.Attrib.Accuracy.Scale}% and damage by {Boost.Attrib.Damage.Scale}% and reduces endurance cost by {Boost.Attrib.Endurance.Scale}%.",
  "display_short_help": "Set: Crushing Impact",
  "available_level": [
    0
  ],
  "source_file": "DEFS/POWERS/BOOSTS/CRAFTED_CRUSHING_IMPACT_E.POWERSETS",
  "requires": "",
  "power_names": [
    "Boosts.Crafted_Crushing_Impact_E.Crafted_Crushing_Impact_E"
  ],
  "power_display_names": [
    "Crushing Impact: Accuracy/Damage/Endurance"
  ]
}