{
  "name": "Warburg_Chemical",
  "display_name": "Warburg_Chemical",
  "display_fullname": "Pets.Warburg Chemical",
  "display_help": "Warburg",
  "display_short_help": "Warburg",
  "available_level": [
    0
  ],
  "source_file": "DEFS/POWERS/PETS/WARBURG_CHEMICAL.POWERSETS",
  "requires": "",
  "power_names": [
    "Pets.Warburg_Chemical.Warburg_Chemical"
  ],
  "power_display_names": [
    "Warburg Chemical Weapon"
  ]
}