{
  "name": "Staff_Fighting",
  "display_name": "Staff Fighting",
  "display_fullname": "Mission Maker Attacks.Staff Fighting",
  "display_help": "You have mastered the art of staff fighting, allowing you to strike at your foes in great sweeping arcs. Staff Fighting provides a good amount of control effects as well as some self buffs. By selecting the Staff Mastery power, you will gain access to techniques that further empower your Staff Fighting techniques and grant you useful augmentations that build up as you fight.",
  "display_short_help": "Staff Fighting",
  "available_level": [
    0,
    0,
    0,
    1,
    5,
    7,
    25,
    31
  ],
  "source_file": "DEFS/POWERS/MISSION_MAKER_ATTACKS/STAFF_FIGHTING.POWERSETS",
  "requires": "",
  "power_names": [
    "Mission_Maker_Attacks.Staff_Fighting.Mercurial_Blow",
    "Mission_Maker_Attacks.Staff_Fighting.Precise_Strike",
    "Mission_Maker_Attacks.Staff_Fighting.Serpents_Reach",
    "Mission_Maker_Attacks.Staff_Fighting.Guarded_Spin",
    "Mission_Maker_Attacks.Staff_Fighting.Build_Up",
    "Mission_Maker_Attacks.Staff_Fighting.Eye_of_the_Storm",
    "Mission_Maker_Attacks.Staff_Fighting.Innocuous_Strikes",
    "Mission_Maker_Attacks.Staff_Fighting.Sky_Splitter"
  ],
  "power_display_names": [
    "Mercurial Blow",
    "Precise Strike",
    "Serpent's Reach",
    "Guarded Spin",
    "Build Up",
    "Eye of the Storm",
    "Innocuous Strikes",
    "Sky Splitter"
  ]
}