{
  "name": "Crafted_Unbreakable_Guard_F",
  "display_name": "Crafted Unbreakable Guard F",
  "display_fullname": "Boosts.Crafted Unbreakable Guard F",
  "display_help": "UNIQUE -- No more than 1 enhancement of this type may be slotted by a character. While slotted, it increases your Maximum Hit Points by 7.5%.",
  "display_short_help": "Set: Unbreakable Guard",
  "available_level": [
    0
  ],
  "source_file": "DEFS/POWERS/BOOSTS/CRAFTED_UNBREAKABLE_GUARD_F.POWERSETS",
  "requires": "",
  "power_names": [
    "Boosts.Crafted_Unbreakable_Guard_F.Crafted_Unbreakable_Guard_F"
  ],
  "power_display_names": [
    "Unbreakable Guard: +7.5% Max HP"
  ]
}