{
  "name": "Attuned_Calibrated_Accuracy_A",
  "display_name": "Attuned Calibrated Accuracy A",
  "display_fullname": "Boosts.Attuned Calibrated Accuracy A",
  "display_help": "Enhances the damage of a power by {Boost.Attrib.Damage.Scale}% and accuracy by {Boost.Attrib.Accuracy.Scale}%.",
  "display_short_help": "Set: Calibrated Accuracy",
  "available_level": [
    0
  ],
  "source_file": "DEFS/POWERS/BOOSTS/ATTUNED_CALIBRATED_ACCURACY_A.POWERSETS",
  "requires": "",
  "power_names": [
    "Boosts.Attuned_Calibrated_Accuracy_A.Attuned_Calibrated_Accuracy_A"
  ],
  "power_display_names": [
    "Calibrated Accuracy: Accuracy/Damage"
  ]
}