{
  "name": "Building_Explosion",
  "display_name": "Building Explosion",
  "display_fullname": "Hellions.Building Explosion",
  "display_help": "Hellions",
  "display_short_help": "Hellions",
  "available_level": [
    0,
    0
  ],
  "source_file": "DEFS/POWERS/HELLIONS/BUILDING_EXPLOSION.POWERSETS",
  "requires": "",
  "power_names": [
    "Hellions.Building_Explosion.Immobilize",
    "Hellions.Building_Explosion.Backdraft"
  ],
  "power_display_names": [
    "Immobilize",
    "Backdraft"
  ]
}