{
  "name": "Fifth_Column_Pistol",
  "display_name": "Fifth_Column_Pistol",
  "display_fullname": "5thColumn.Fifth Column Pistol",
  "display_help": "5th Column",
  "display_short_help": "5th Column",
  "available_level": [
    0
  ],
  "source_file": "DEFS/POWERS/5THCOLUMN/FIFTH_COLUMN_PISTOL.POWERSETS",
  "requires": "",
  "power_names": [
    "5thColumn.Fifth_Column_Pistol.Automatic_Pistol"
  ],
  "power_display_names": [
    "Automatic Pistol"
  ]
}