{
  "name": "Maelstrom_Stage2",
  "display_name": "Maelstrom",
  "display_fullname": "TPNCampus.Maelstrom",
  "display_help": "Maelstrom",
  "display_short_help": "Maelstrom",
  "available_level": [
    0,
    0,
    0,
    0,
    0,
    0
  ],
  "source_file": "DEFS/POWERS/TPNCAMPUS/MAELSTROM_STAGE2.POWERSETS",
  "requires": "",
  "power_names": [
    "TPNCampus.Maelstrom_Stage2.NO2_Ammunition",
    "TPNCampus.Maelstrom_Stage2.Shredder_Round",
    "TPNCampus.Maelstrom_Stage2.Executioners_Shot",
    "TPNCampus.Maelstrom_Stage2.Marked_For_Death",
    "TPNCampus.Maelstrom_Stage2.Time_to_Die",
    "TPNCampus.Maelstrom_Stage2.Chased"
  ],
  "power_display_names": [
    "NO2 Ammunition",
    "Shredder Rounds",
    "Executioner's Shot",
    "Marked For Death",
    "Assassination",
    "Chased"
  ]
}