{
  "name": "GunslingerDogsPetey",
  "display_name": "GunslingerDogsPetey",
  "display_fullname": "SummerEvent.GunslingerDogsPetey",
  "display_help": "McCain's Maulers",
  "display_short_help": "McCain's Maulers",
  "available_level": [
    0,
    0,
    9,
    0,
    0
  ],
  "source_file": "DEFS/POWERS/SUMMEREVENT/GUNSLINGERDOGSPETEY.POWERSETS",
  "requires": "",
  "power_names": [
    "SummerEvent.GunslingerDogsPetey.Vicious_Bite",
    "SummerEvent.GunslingerDogsPetey.Maiming_Bite",
    "SummerEvent.GunslingerDogsPetey.Throat_Bite",
    "SummerEvent.GunslingerDogsPetey.Lick_Wounds",
    "SummerEvent.GunslingerDogsPetey.Grant_Deadly_Howl"
  ],
  "power_display_names": [
    "Vicious Bite",
    "Maiming Bite",
    "Feral Charge",
    "Lick Wounds",
    "Grant Deadly Howl"
  ]
}