{
  "name": "Metronome_Devastation_Beam",
  "display_name": "Metronome",
  "display_fullname": "Objects.Metronome",
  "display_help": "Obliteration Beam",
  "display_short_help": "Obliteration Beam",
  "available_level": [
    0
  ],
  "source_file": "DEFS/POWERS/OBJECTS/METRONOME_DEVASTATION_BEAM.POWERSETS",
  "requires": "",
  "power_names": [
    "Objects.Metronome_Devastation_Beam.Devastation_Beam"
  ],
  "power_display_names": [
    "Obliteration Beam"
  ]
}