{
  "name": "Playtest_Buff",
  "display_name": "Playtest_Buff",
  "display_fullname": "Incarnate I20.Playtest Buff",
  "display_help": "Incarnate",
  "display_short_help": "Incarnate",
  "available_level": [
    0,
    0,
    0,
    0
  ],
  "source_file": "DEFS/POWERS/INCARNATE_I20/PLAYTEST_BUFF.POWERSETS",
  "requires": "",
  "power_names": [
    "Incarnate_I20.Playtest_Buff.Playtest_Buff",
    "Incarnate_I20.Playtest_Buff.Playtest_Buff_AOE",
    "Incarnate_I20.Playtest_Buff.Quick_Kill_QA",
    "Incarnate_I20.Playtest_Buff.Quick_AOE_Kill_QA"
  ],
  "power_display_names": [
    "Playtest Buff",
    "Playtest Buff AOE",
    "Quick Kill QA",
    "Quick AOE Kill QA"
  ]
}