{
  "name": "Gun_Turret",
  "display_name": "Gun Turret",
  "display_fullname": "Turrets.Gun Turret",
  "display_help": "Turrets",
  "display_short_help": "Turrets",
  "available_level": [
    0,
    0
  ],
  "source_file": "DEFS/POWERS/TURRETS/GUN_TURRET.POWERSETS",
  "requires": "",
  "power_names": [
    "Turrets.Gun_Turret.Chain_Gun",
    "Turrets.Gun_Turret.Explode"
  ],
  "power_display_names": [
    "Chain Gun",
    "Explode"
  ]
}