{
  "name": "Nemesis_Jaeger_Melee",
  "display_name": "Nemesis_Jaeger_Melee",
  "display_fullname": "Nemesis.Nemesis Jaeger Melee",
  "display_help": "Nemesis",
  "display_short_help": "Nemesis",
  "available_level": [
    0,
    0
  ],
  "source_file": "DEFS/POWERS/NEMESIS/NEMESIS_JAEGER_MELEE.POWERSETS",
  "requires": "",
  "power_names": [
    "Nemesis.Nemesis_Jaeger_Melee.Jaeger_Saw",
    "Nemesis.Nemesis_Jaeger_Melee.Jaeger_Mace"
  ],
  "power_display_names": [
    "Jaeger Saw",
    "Jaeger Mace"
  ]
}