{
  "name": "Giant_Spider_Base",
  "display_name": "Giant_Spider_Base",
  "display_fullname": "V Arachnos.Giant Spider Base",
  "display_help": "Arachnos",
  "display_short_help": "Arachnos",
  "available_level": [
    0,
    0,
    0,
    0,
    0,
    0,
    0
  ],
  "source_file": "DEFS/POWERS/V_ARACHNOS/GIANT_SPIDER_BASE.POWERSETS",
  "requires": "",
  "power_names": [
    "V_Arachnos.Giant_Spider_Base.Venom_Burst",
    "V_Arachnos.Giant_Spider_Base.Venom_Bolt",
    "V_Arachnos.Giant_Spider_Base.Armored_Exoskeleton",
    "V_Arachnos.Giant_Spider_Base.Resistance",
    "V_Arachnos.Giant_Spider_Base.Disruptor_Blast",
    "V_Arachnos.Giant_Spider_Base.Disruptor_Tesla",
    "V_Arachnos.Giant_Spider_Base.Disruptor_Bolt"
  ],
  "power_display_names": [
    "Venom Burst",
    "Venom Bolt",
    "Armored Exoskeleton",
    "Resistance",
    "Disruptor Blast",
    "Disruptor Tesla",
    "Disruptor Bolt"
  ]
}