{
  "name": "Thug_Pose_Knife",
  "display_name": "Thug Posse",
  "display_fullname": "Mission Maker Pets.Thug Posse",
  "display_help": "Thugs",
  "display_short_help": "Thugs",
  "available_level": [
    0
  ],
  "source_file": "DEFS/POWERS/MISSION_MAKER_PETS/THUG_POSE_KNIFE.POWERSETS",
  "requires": "",
  "power_names": [
    "Mission_Maker_Pets.Thug_Pose_Knife.Knife"
  ],
  "power_display_names": [
    "Knife"
  ]
}