{
  "name": "Zombie_Ranged",
  "display_name": "Zombie Ranged",
  "display_fullname": "Event.Zombie Ranged",
  "display_help": "Zombie",
  "display_short_help": "Zombie",
  "available_level": [
    0,
    0
  ],
  "source_file": "DEFS/POWERS/EVENT/ZOMBIE_RANGED.POWERSETS",
  "requires": "",
  "power_names": [
    "Event.Zombie_Ranged.Musket",
    "Event.Zombie_Ranged.Lee-Enfield_Rifle"
  ],
  "power_display_names": [
    "Musket",
    "Lee-Enfield Rifle"
  ]
}