{
  "name": "Dominator_Leviathan_Mastery",
  "display_name": "Leviathan Mastery",
  "display_fullname": "Epic.Leviathan Mastery",
  "display_help": "Captain Mako has granted you access to the power of the Leviathan. The Leviathan is an ancient gargantuan entity who slumbers under Sharkhead Isle. Worshiped by the Coralax, the Leviathan has given Captain Mako many abilities and now he has taught you how to harness its power.",
  "display_short_help": "Leviathan Mastery",
  "available_level": [
    34,
    34,
    40,
    40,
    43
  ],
  "source_file": "DEFS/POWERS/EPIC/DOMINATOR_LEVIATHAN_MASTERY.POWERSETS",
  "requires": "",
  "power_names": [
    "Epic.Dominator_Leviathan_Mastery.Water_Spout",
    "Epic.Dominator_Leviathan_Mastery.Chum_Spray",
    "Epic.Dominator_Leviathan_Mastery.Hibernate",
    "Epic.Dominator_Leviathan_Mastery.Shark_Skin",
    "Epic.Dominator_Leviathan_Mastery.Summon_Coralax"
  ],
  "power_display_names": [
    "Water Spout",
    "Bile Spray",
    "Hibernate",
    "Shark Skin",
    "Summon Coralax"
  ]
}