{
  "name": "Sniper",
  "display_name": "Sniper",
  "display_fullname": "Council.Sniper",
  "display_help": "Council",
  "display_short_help": "Council",
  "available_level": [
    0
  ],
  "source_file": "DEFS/POWERS/COUNCIL/SNIPER.POWERSETS",
  "requires": "",
  "power_names": [
    "Council.Sniper.Sniper_Rifle"
  ],
  "power_display_names": [
    "Sniper Rifle"
  ]
}