{
  "name": "Banished_Avalanche_Witch_Doctor",
  "display_name": "Banished_Avalanche_Witch_Doctor",
  "display_fullname": "BanishedPantheon.Banished Avalanche Witch Doctor",
  "display_help": "Banished Pantheon",
  "display_short_help": "Banished Pantheon",
  "available_level": [
    0,
    0,
    0,
    0,
    0
  ],
  "source_file": "DEFS/POWERS/BANISHEDPANTHEON/BANISHED_AVALANCHE_WITCH_DOCTOR.POWERSETS",
  "requires": "",
  "power_names": [
    "BanishedPantheon.Banished_Avalanche_Witch_Doctor.Knife",
    "BanishedPantheon.Banished_Avalanche_Witch_Doctor.Snow_Storm",
    "BanishedPantheon.Banished_Avalanche_Witch_Doctor.Tremor",
    "BanishedPantheon.Banished_Avalanche_Witch_Doctor.Earthquake",
    "BanishedPantheon.Banished_Avalanche_Witch_Doctor.Stone_Prison"
  ],
  "power_display_names": [
    "Knife",
    "Snow Storm",
    "Tremor",
    "Earthquake",
    "Stone Prison"
  ]
}