{
  "name": "Energy_Punch",
  "full_name": "Scrapper_Melee.Energy_Melee.Energy_Punch",
  "type": "Click",
  "display_name": "Energy Punch",
  "display_fullname": "Scrapper Melee.Energy Melee.Energy Punch",
  "display_help": "You perform a powerful Energy Punch that deals moderate damage. When used with other Energy Melee attacks, Energy Punch can Disorient your opponent.<br><br><color #fcfc95>Damage: Light.</color><br><color #fcfc95>Recharge: Fast.</color>",
  "display_short_help": "Melee, Light DMG(Smash/Energy), Foe Disorient",
  "icon": "powerpunch_energypunch.png",
  "auto_issue": false,
  "auto_issue_keeps_level": false,
  "message_caster": null,
  "message_floater": null,
  "message_attacker_hit": null,
  "message_target_hit": null,
  "message_target_confirm": null,
  "message_float_reward": null,
  "message_defense_avoidance": null,
  "attack_types": [
    "Melee",
    "Smashing",
    "Energy"
  ],
  "requires": "",
  "activate_requires": "",
  "accuracy": 1.0,
  "number_allowed": 1,
  "caster_near_ground": false,
  "target_near_ground": false,
  "cast_when_dead": "AliveOnly",
  "cast_through": [

  ],
  "toggle_ignores": [

  ],
  "ignore_level_gained": false,
  "works_on_untouchable": false,
  "works_through_vision_phase": false,
  "target_untargetable": false,
  "interrupt_like_sleep": false,
  "notify_ai_when": "Always",
  "effect_area": "SingleTarget",
  "max_targets_hit": 0,
  "radius": 0.0,
  "arc": 0.0,
  "range": 7.0,
  "range_secondary": 0.0,
  "activation_time": 0.83,
  "root_time": 0.83,
  "interrupt_time": 0.0,
  "recharge_time": 5.0,
  "activate_period": 0.0,
  "endurance_cost": 6.032,
  "cancelable": false,
  "self_confirm": false,
  "confirm_requires": "",
  "time_to_confirm": 0,
  "chain_delay": 0.0,
  "chain_effect_expr": "",
  "chain_forks": [

  ],
  "chain_into_power_name": null,
  "vec_box_offset": [
    0.0,
    0.0,
    0.0
  ],
  "vec_box_size": [
    0.0,
    0.0,
    0.0
  ],
  "number_of_charges": 0,
  "max_num_charges": 0,
  "destroy_on_last_use": true,
  "power_lifetime": 0.0,
  "max_power_lifetime": 0.0,
  "power_lifetime_ingame": 0.0,
  "max_power_lifetime_ingame": 0.0,
  "stacking_lifetime": false,
  "toggle_on_time": 0.0,
  "max_toggle_on_time": 0.0,
  "toggle_detoggle_time": 0.0,
  "toggle_droppable": "Sometimes",
  "ignore_toggle_max_distance": false,
  "target_type": "Foe (Alive)",
  "target_type_secondary": null,
  "target_visibility": "LineOfSight",
  "targets_affected": [
    "Foe (Alive)"
  ],
  "targets_autohit": [

  ],
  "target_requires": "",
  "proc_allowed": "All",
  "boosts_allowed": [
    "Reduce Endurance Cost",
    "Enhance Disorient",
    "Enhance Recharge Speed",
    "Enhance Damage",
    "Enhance Accuracy"
  ],
  "allowed_boostset_cats": [
    "Melee Damage",
    "Scrapper Archetype Sets",
    "Stuns",
    "Universal Damage Sets"
  ],
  "exclusion_groups": [

  ],
  "modes_required": [

  ],
  "modes_disallowed": [
    "Disable_All"
  ],
  "recharge_groups": [

  ],
  "ignore_strength": false,
  "strengths_disallowed": [
    "Range"
  ],
  "global_strengths_disallowed": [

  ],
  "procs_only_on_main_target": false,
  "vars_attribmods_can_reference": [

  ],
  "show_buff_icon": true,
  "show_in_info": true,
  "show_in_manage": true,
  "show_in_inventory": "Show",
  "deletable": false,
  "tradeable": false,
  "do_not_save": false,
  "max_boosts": 6,
  "ignore_level_differences": false,
  "ignore_exemplar_for_bonuses": false,
  "boost_combinable": true,
  "boost_tradeable": true,
  "boost_account_bound": false,
  "boost_boostable": false,
  "boost_use_player_level": false,
  "boost_catalyzable": null,
  "boost_store_product": null,
  "boost_min_slot_level": -3,
  "boost_max_level": 50,
  "instance_locked": false,
  "is_environment_hit": false,
  "shuffle_target_list": false,
  "enforced_level_bought": -1,
  "refreshes_on_active_player_change": false,
  "highlight_expression": "",
  "highlight_icon": null,
  "highlight_color": "#00000000",
  "travel_suppression_time": 1.0,
  "server_tray_priority": 0,
  "server_tray_requires": "",
  "abusive_buff": true,
  "position_center": "kModTarget_Caster",
  "position_distance": 0.0,
  "position_height": 0.0,
  "position_yaw": 0.0,
  "face_target": true,
  "attrib_cache": [
    "Smashing_Dmg",
    "Fire_Dmg",
    "Energy_Dmg",
    "Stunned"
  ],
  "max_targets_expression": "",
  "chain_target_expr": "",
  "powerset": "Scrapper_Melee.Energy_Melee",
  "available_level": 0,
  "archetypes": [
    "scrapper"
  ],
  "redirect": [

  ],
  "effects": [
    {
      "tags": [

      ],
      "chance": 1.0,
      "ppm": 0.0,
      "delay": 0.0,
      "radius_inner": -1.0,
      "radius_outer": -1.0,
      "requires_expression": "target>enttype eq 'critter'",
      "flags": [

      ],
      "eval_flags": 0,
      "child_effects": [
        {
          "tags": [

          ],
          "chance": 0.3,
          "ppm": 0.0,
          "delay": 0.0,
          "radius_inner": -1.0,
          "radius_outer": -1.0,
          "requires_expression": "",
          "flags": [

          ],
          "eval_flags": 0,
          "child_effects": [

          ],
          "templates": [
            {
              "attribs": [
                "Stunned"
              ],
              "type": "Duration",
              "application_type": "OnTick",
              "aspect": "Current",
              "target": "AnyAffected",
              "table": "Melee_Stun",
              "scale": 5.0,
              "duration": "0 seconds",
              "magnitude": 2.0,
              "delay": 0.0,
              "duration_expression": "",
              "magnitude_expression": "",
              "application_period": 0.0,
              "tick_chance": 1.0,
              "jit_requires": "",
              "caster_stack": "Individual",
              "stack": "Stack",
              "stack_limit": 2,
              "stack_key": null,
              "cancel_events": [

              ],
              "boost_mod_allowed": "Science_Boost",
              "flags": [
                "ResistDuration (8)",
                "CombatModDuration (10)"
              ],
              "mode_name": null,
              "target_info": null,
              "messages": {
                "display_attacker_hit": "You Stun {PlayerDest} with your {PowerName}.",
                "display_victim_hit": "{PlayerSource} Stuns you with their {PowerName}.",
                "display_float": null,
                "display_defense_float": null
              },
              "suppress_events": [

              ],
              "params": null,
              "fx": {
                "continuing_bits": [

                ],
                "continuing_fx": null,
                "conditional_bits": [

                ],
                "conditional_fx": "GENERICCONTINUING/STUNCONTINUING.FX"
              }
            }
          ],
          "is_pvp": "EITHER"
        },
        {
          "tags": [
            "MLCrit",
            "ScrapperCrit_ST"
          ],
          "chance": 0.05,
          "ppm": 0.0,
          "delay": 0.0,
          "radius_inner": -1.0,
          "radius_outer": -1.0,
          "requires_expression": "target>arch eq 'Class_Minion_Grunt' || target>arch eq 'Class_Minion_Pets' || target>arch eq 'Class_Minion_Small' || target>arch eq 'Class_Minion_Swarm'",
          "flags": [

          ],
          "eval_flags": 0,
          "child_effects": [

          ],
          "templates": [
            {
              "attribs": [
                "Energy_Dmg"
              ],
              "type": "Magnitude",
              "application_type": "OnTick",
              "aspect": "Absolute",
              "target": "AnyAffected",
              "table": "Melee_Damage",
              "scale": 1.16,
              "duration": "0 seconds",
              "magnitude": 1.0,
              "delay": 0.0,
              "duration_expression": "",
              "magnitude_expression": "",
              "application_period": 0.0,
              "tick_chance": 1.0,
              "jit_requires": "",
              "caster_stack": "Individual",
              "stack": "Stack",
              "stack_limit": 2,
              "stack_key": null,
              "cancel_events": [

              ],
              "boost_mod_allowed": "Science_Boost",
              "flags": [
                "ResistMagnitude (7)",
                "CombatModMagnitude (9)"
              ],
              "mode_name": null,
              "target_info": null,
              "messages": {
                "display_attacker_hit": "You hit {PlayerDest} with your {PowerName} for {Damage} points of Energy damage [CRITICAL].",
                "display_victim_hit": "{PlayerSource} hits you with their {PowerName} for {Damage} points of Energy damage [CRITICAL].",
                "display_float": "CRITICAL",
                "display_defense_float": null
              },
              "suppress_events": [

              ],
              "params": null,
              "fx": null
            }
          ],
          "is_pvp": "EITHER"
        },
        {
          "tags": [
            "BossCrit",
            "ScrapperCrit_ST"
          ],
          "chance": 0.1,
          "ppm": 0.0,
          "delay": 0.0,
          "radius_inner": -1.0,
          "radius_outer": -1.0,
          "requires_expression": "!(target>arch eq 'Class_Minion_Grunt' || target>arch eq 'Class_Minion_Pets' || target>arch eq 'Class_Minion_Small' || target>arch eq 'Class_Minion_Swarm')",
          "flags": [

          ],
          "eval_flags": 0,
          "child_effects": [

          ],
          "templates": [
            {
              "attribs": [
                "Energy_Dmg"
              ],
              "type": "Magnitude",
              "application_type": "OnTick",
              "aspect": "Absolute",
              "target": "AnyAffected",
              "table": "Melee_Damage",
              "scale": 1.16,
              "duration": "0 seconds",
              "magnitude": 1.0,
              "delay": 0.0,
              "duration_expression": "",
              "magnitude_expression": "",
              "application_period": 0.0,
              "tick_chance": 1.0,
              "jit_requires": "",
              "caster_stack": "Individual",
              "stack": "Stack",
              "stack_limit": 2,
              "stack_key": null,
              "cancel_events": [

              ],
              "boost_mod_allowed": "Science_Boost",
              "flags": [
                "ResistMagnitude (7)",
                "CombatModMagnitude (9)"
              ],
              "mode_name": null,
              "target_info": null,
              "messages": {
                "display_attacker_hit": "You hit {PlayerDest} with your {PowerName} for {Damage} points of Energy damage [CRITICAL].",
                "display_victim_hit": "{PlayerSource} hits you with their {PowerName} for {Damage} points of Energy damage [CRITICAL].",
                "display_float": "CRITICAL",
                "display_defense_float": null
              },
              "suppress_events": [

              ],
              "params": null,
              "fx": null
            }
          ],
          "is_pvp": "PVE_ONLY"
        }
      ],
      "templates": [
        {
          "attribs": [
            "Smashing_Dmg"
          ],
          "type": "Magnitude",
          "application_type": "OnTick",
          "aspect": "Absolute",
          "target": "AnyAffected",
          "table": "Melee_Damage",
          "scale": 0.812,
          "duration": "0 seconds",
          "magnitude": 1.0,
          "delay": 0.0,
          "duration_expression": "",
          "magnitude_expression": "",
          "application_period": 0.0,
          "tick_chance": 1.0,
          "jit_requires": "",
          "caster_stack": "Individual",
          "stack": "Stack",
          "stack_limit": 2,
          "stack_key": null,
          "cancel_events": [

          ],
          "boost_mod_allowed": "Science_Boost",
          "flags": [
            "ResistMagnitude (7)",
            "CombatModMagnitude (9)"
          ],
          "mode_name": null,
          "target_info": null,
          "messages": {
            "display_attacker_hit": "You hit {PlayerDest} with your {PowerName} for {Damage} points of Smashing damage.",
            "display_victim_hit": "{PlayerSource} hits you with their {PowerName} for {Damage} points of Smashing damage.",
            "display_float": null,
            "display_defense_float": null
          },
          "suppress_events": [

          ],
          "params": null,
          "fx": null
        },
        {
          "attribs": [
            "Energy_Dmg"
          ],
          "type": "Magnitude",
          "application_type": "OnTick",
          "aspect": "Absolute",
          "target": "AnyAffected",
          "table": "Melee_Damage",
          "scale": 0.348,
          "duration": "0 seconds",
          "magnitude": 1.0,
          "delay": 0.0,
          "duration_expression": "",
          "magnitude_expression": "",
          "application_period": 0.0,
          "tick_chance": 1.0,
          "jit_requires": "",
          "caster_stack": "Individual",
          "stack": "Stack",
          "stack_limit": 2,
          "stack_key": null,
          "cancel_events": [

          ],
          "boost_mod_allowed": "Science_Boost",
          "flags": [
            "ResistMagnitude (7)",
            "CombatModMagnitude (9)"
          ],
          "mode_name": null,
          "target_info": null,
          "messages": {
            "display_attacker_hit": "You hit {PlayerDest} with your {PowerName} for {Damage} points of Energy damage.",
            "display_victim_hit": "{PlayerSource} hits you with their {PowerName} for {Damage} points of Energy damage.",
            "display_float": null,
            "display_defense_float": null
          },
          "suppress_events": [

          ],
          "params": null,
          "fx": null
        }
      ],
      "is_pvp": "EITHER"
    },
    {
      "tags": [

      ],
      "chance": 1.0,
      "ppm": 0.0,
      "delay": 0.0,
      "radius_inner": -1.0,
      "radius_outer": -1.0,
      "requires_expression": "target>enttype eq 'player'",
      "flags": [

      ],
      "eval_flags": 0,
      "child_effects": [
        {
          "tags": [

          ],
          "chance": 0.3,
          "ppm": 0.0,
          "delay": 0.0,
          "radius_inner": -1.0,
          "radius_outer": -1.0,
          "requires_expression": "",
          "flags": [

          ],
          "eval_flags": 0,
          "child_effects": [

          ],
          "templates": [
            {
              "attribs": [
                "Stunned"
              ],
              "type": "Duration",
              "application_type": "OnTick",
              "aspect": "Current",
              "target": "AnyAffected",
              "table": "Melee_PvPMez",
              "scale": 1.0,
              "duration": "0 seconds",
              "magnitude": 2.0,
              "delay": 0.0,
              "duration_expression": "",
              "magnitude_expression": "",
              "application_period": 0.0,
              "tick_chance": 1.0,
              "jit_requires": "",
              "caster_stack": "Individual",
              "stack": "Stack",
              "stack_limit": 2,
              "stack_key": null,
              "cancel_events": [

              ],
              "boost_mod_allowed": "Science_Boost",
              "flags": [
                "ResistDuration (8)",
                "CombatModDuration (10)"
              ],
              "mode_name": null,
              "target_info": null,
              "messages": {
                "display_attacker_hit": "You Stun {PlayerDest} with your {PowerName}.",
                "display_victim_hit": "{PlayerSource} Stuns you with their {PowerName}.",
                "display_float": null,
                "display_defense_float": null
              },
              "suppress_events": [
                {
                  "event": "Stunned",
                  "post_event_delay": 15,
                  "always_suppress": false
                },
                {
                  "event": "Immobilized",
                  "post_event_delay": 15,
                  "always_suppress": false
                },
                {
                  "event": "Held",
                  "post_event_delay": 15,
                  "always_suppress": false
                },
                {
                  "event": "Sleep",
                  "post_event_delay": 15,
                  "always_suppress": false
                },
                {
                  "event": "Terrorized",
                  "post_event_delay": 15,
                  "always_suppress": false
                }
              ],
              "params": null,
              "fx": {
                "continuing_bits": [

                ],
                "continuing_fx": null,
                "conditional_bits": [

                ],
                "conditional_fx": "GENERICCONTINUING/STUNCONTINUING.FX"
              }
            }
          ],
          "is_pvp": "EITHER"
        },
        {
          "tags": [
            "PlayerCrit",
            "ScrapperCrit_ST"
          ],
          "chance": 0.05,
          "ppm": 0.0,
          "delay": 0.0,
          "radius_inner": -1.0,
          "radius_outer": -1.0,
          "requires_expression": "",
          "flags": [

          ],
          "eval_flags": 0,
          "child_effects": [

          ],
          "templates": [
            {
              "attribs": [
                "Energy_Dmg"
              ],
              "type": "Magnitude",
              "application_type": "OnTick",
              "aspect": "Absolute",
              "target": "AnyAffected",
              "table": "Melee_PvPDamage",
              "scale": 1.181,
              "duration": "0 seconds",
              "magnitude": 1.0,
              "delay": 0.0,
              "duration_expression": "",
              "magnitude_expression": "",
              "application_period": 0.0,
              "tick_chance": 1.0,
              "jit_requires": "",
              "caster_stack": "Individual",
              "stack": "Stack",
              "stack_limit": 2,
              "stack_key": null,
              "cancel_events": [

              ],
              "boost_mod_allowed": "Science_Boost",
              "flags": [
                "ResistMagnitude (7)",
                "CombatModMagnitude (9)"
              ],
              "mode_name": null,
              "target_info": null,
              "messages": {
                "display_attacker_hit": "You hit {PlayerDest} with your {PowerName} for {Damage} points of Energy damage [CRITICAL].",
                "display_victim_hit": "{PlayerSource} hits you with their {PowerName} for {Damage} points of Energy damage [CRITICAL].",
                "display_float": "CRITICAL",
                "display_defense_float": null
              },
              "suppress_events": [

              ],
              "params": null,
              "fx": null
            }
          ],
          "is_pvp": "EITHER"
        }
      ],
      "templates": [
        {
          "attribs": [
            "Smashing_Dmg"
          ],
          "type": "Magnitude",
          "application_type": "OnTick",
          "aspect": "Absolute",
          "target": "AnyAffected",
          "table": "Melee_PvPDamage",
          "scale": 0.8267,
          "duration": "0 seconds",
          "magnitude": 1.0,
          "delay": 0.0,
          "duration_expression": "",
          "magnitude_expression": "",
          "application_period": 0.0,
          "tick_chance": 1.0,
          "jit_requires": "",
          "caster_stack": "Individual",
          "stack": "Stack",
          "stack_limit": 2,
          "stack_key": null,
          "cancel_events": [

          ],
          "boost_mod_allowed": "Science_Boost",
          "flags": [
            "ResistMagnitude (7)",
            "CombatModMagnitude (9)"
          ],
          "mode_name": null,
          "target_info": null,
          "messages": {
            "display_attacker_hit": "You hit {PlayerDest} with your {PowerName} for {Damage} points of Smashing damage.",
            "display_victim_hit": "{PlayerSource} hits you with their {PowerName} for {Damage} points of Smashing damage.",
            "display_float": null,
            "display_defense_float": null
          },
          "suppress_events": [

          ],
          "params": null,
          "fx": null
        },
        {
          "attribs": [
            "Energy_Dmg"
          ],
          "type": "Magnitude",
          "application_type": "OnTick",
          "aspect": "Absolute",
          "target": "AnyAffected",
          "table": "Melee_PvPDamage",
          "scale": 0.3543,
          "duration": "0 seconds",
          "magnitude": 1.0,
          "delay": 0.0,
          "duration_expression": "",
          "magnitude_expression": "",
          "application_period": 0.0,
          "tick_chance": 1.0,
          "jit_requires": "",
          "caster_stack": "Individual",
          "stack": "Stack",
          "stack_limit": 2,
          "stack_key": null,
          "cancel_events": [

          ],
          "boost_mod_allowed": "Science_Boost",
          "flags": [
            "ResistMagnitude (7)",
            "CombatModMagnitude (9)"
          ],
          "mode_name": null,
          "target_info": null,
          "messages": {
            "display_attacker_hit": "You hit {PlayerDest} with your {PowerName} for {Damage} points of Energy damage.",
            "display_victim_hit": "{PlayerSource} hits you with their {PowerName} for {Damage} points of Energy damage.",
            "display_float": null,
            "display_defense_float": null
          },
          "suppress_events": [

          ],
          "params": null,
          "fx": null
        }
      ],
      "is_pvp": "EITHER"
    },
    {
      "tags": [
        "FieryEmbrace"
      ],
      "chance": 0.0,
      "ppm": 0.0,
      "delay": 0.0,
      "radius_inner": -1.0,
      "radius_outer": -1.0,
      "requires_expression": "",
      "flags": [

      ],
      "eval_flags": 0,
      "child_effects": [

      ],
      "templates": [
        {
          "attribs": [
            "Fire_Dmg"
          ],
          "type": "Magnitude",
          "application_type": "OnTick",
          "aspect": "Absolute",
          "target": "AnyAffected",
          "table": "Melee_Damage",
          "scale": 0.522,
          "duration": "0 seconds",
          "magnitude": 1.0,
          "delay": 0.0,
          "duration_expression": "",
          "magnitude_expression": "",
          "application_period": 0.0,
          "tick_chance": 1.0,
          "jit_requires": "",
          "caster_stack": "Individual",
          "stack": "Stack",
          "stack_limit": 2,
          "stack_key": null,
          "cancel_events": [

          ],
          "boost_mod_allowed": "Science_Boost",
          "flags": [
            "ResistMagnitude (7)",
            "CombatModMagnitude (9)"
          ],
          "mode_name": null,
          "target_info": null,
          "messages": {
            "display_attacker_hit": "You hit {PlayerDest} with your {PowerName} for {Damage} points of Fire damage.",
            "display_victim_hit": "{PlayerSource} hits you with their {PowerName} for {Damage} points of Fire damage.",
            "display_float": null,
            "display_defense_float": null
          },
          "suppress_events": [

          ],
          "params": null,
          "fx": {
            "continuing_bits": [

            ],
            "continuing_fx": "POWERS/FIRECONTROL/CINDERSHIT.FX",
            "conditional_bits": [

            ],
            "conditional_fx": null
          }
        }
      ],
      "is_pvp": "EITHER"
    }
  ],
  "activation_effects": [

  ],
  "fx": {
    "source_file": "MENU/POWERS/ANIMFX/PLAYERPOWERS/BRUTEMELEE_ENERGYMELEE_ENERGYPUNCH.PFX",
    "attack_bits": [
      20,
      256
    ],
    "block_bits": [

    ],
    "wind_up_bits": [

    ],
    "hit_bits": [
      49,
      681
    ],
    "death_bits": [

    ],
    "activation_bits": [

    ],
    "deactivation_bits": [

    ],
    "initial_attack_bits": [
      20,
      256
    ],
    "continuing_bits": [

    ],
    "conditional_bits": [

    ],
    "activation_fx": "POWERS/POWERPUNCH/POWERPUNCHATTACHED.FX",
    "deactivation_fx": null,
    "attack_fx": null,
    "secondary_attack_fx": null,
    "hit_fx": "POWERS/POWERPUNCH/BASICPOWERPUNCHHIT.FX",
    "wind_up_fx": null,
    "block_fx": null,
    "death_fx": null,
    "initial_attack_fx": null,
    "continuing_fx": [

    ],
    "conditional_fx": [

    ],
    "mode_bits": [
      20
    ],
    "frames_before_hit": 16,
    "frames_before_secondary_hit": 0,
    "delayed_hit": false,
    "frames_attack": 25,
    "initial_frames_before_hit": 16,
    "initial_attack_fx_frame_delay": 0,
    "projectile_speed": 3.4028234663852886e38,
    "secondary_projectile_speed": 0.0,
    "initial_frames_before_block": 0,
    "ignore_attack_time_errors": null,
    "frames_before_block": 0,
    "fx_important": false
  },
  "custom_fx": [
    {
      "display_name": null,
      "token": "Bright Energy",
      "alt_themes": [

      ],
      "category": null,
      "palette_name": "Additive",
      "fx": {
        "source_file": "MENU/POWERS/ANIMFX/PLAYERPOWERS/BRUTEMELEE_ENERGYMELEE_ENERGYPUNCH.PFX",
        "attack_bits": [
          20,
          256
        ],
        "block_bits": [

        ],
        "wind_up_bits": [

        ],
        "hit_bits": [
          49,
          681
        ],
        "death_bits": [

        ],
        "activation_bits": [

        ],
        "deactivation_bits": [

        ],
        "initial_attack_bits": [
          20,
          256
        ],
        "continuing_bits": [

        ],
        "conditional_bits": [

        ],
        "activation_fx": "CUSTOMIZEABLEPOWERS/ENERGYMELEE/POWERPUNCHATTACHED.FX",
        "deactivation_fx": null,
        "attack_fx": null,
        "secondary_attack_fx": null,
        "hit_fx": "CUSTOMIZEABLEPOWERS/ENERGYMELEE/BASICPOWERPUNCHHIT.FX",
        "wind_up_fx": null,
        "block_fx": null,
        "death_fx": null,
        "initial_attack_fx": null,
        "continuing_fx": [

        ],
        "conditional_fx": [

        ],
        "mode_bits": [
          20
        ],
        "frames_before_hit": 16,
        "frames_before_secondary_hit": 0,
        "delayed_hit": false,
        "frames_attack": 25,
        "initial_frames_before_hit": 16,
        "initial_attack_fx_frame_delay": 0,
        "projectile_speed": 3.4028234663852886e38,
        "secondary_projectile_speed": 0.0,
        "initial_frames_before_block": 0,
        "ignore_attack_time_errors": null,
        "frames_before_block": 0,
        "fx_important": false
      }
    },
    {
      "display_name": null,
      "token": "Dark Energy",
      "alt_themes": [

      ],
      "category": null,
      "palette_name": "Subtractive",
      "fx": {
        "source_file": "MENU/POWERS/ANIMFX/PLAYERPOWERS/BRUTEMELEE_ENERGYMELEE_ENERGYPUNCH.PFX",
        "attack_bits": [
          20,
          256
        ],
        "block_bits": [

        ],
        "wind_up_bits": [

        ],
        "hit_bits": [
          49,
          681
        ],
        "death_bits": [

        ],
        "activation_bits": [

        ],
        "deactivation_bits": [

        ],
        "initial_attack_bits": [
          20,
          256
        ],
        "continuing_bits": [

        ],
        "conditional_bits": [

        ],
        "activation_fx": "CUSTOMIZEABLEPOWERS/ENERGYMELEE/SUBTRACTIVE/POWERPUNCHATTACHED.FX",
        "deactivation_fx": null,
        "attack_fx": null,
        "secondary_attack_fx": null,
        "hit_fx": "CUSTOMIZEABLEPOWERS/ENERGYMELEE/SUBTRACTIVE/BASICPOWERPUNCHHIT.FX",
        "wind_up_fx": null,
        "block_fx": null,
        "death_fx": null,
        "initial_attack_fx": null,
        "continuing_fx": [

        ],
        "conditional_fx": [

        ],
        "mode_bits": [
          20
        ],
        "frames_before_hit": 16,
        "frames_before_secondary_hit": 0,
        "delayed_hit": false,
        "frames_attack": 25,
        "initial_frames_before_hit": 16,
        "initial_attack_fx_frame_delay": 0,
        "projectile_speed": 3.4028234663852886e38,
        "secondary_projectile_speed": 0.0,
        "initial_frames_before_block": 0,
        "ignore_attack_time_errors": null,
        "frames_before_block": 0,
        "fx_important": false
      }
    }
  ],
  "fx_only_on_main_target": false
}