{
  "name": "Superior_Defenders_Bastion_Proc",
  "display_name": "Superior Defender's Bastion",
  "display_fullname": "Pets.Superior Defender's Bastion",
  "display_help": "Defender's Bastion",
  "display_short_help": "Defender's Bastion",
  "available_level": [
    0
  ],
  "source_file": "DEFS/POWERS/PETS/SUPERIOR_DEFENDERS_BASTION_PROC.POWERSETS",
  "requires": "",
  "power_names": [
    "Pets.Superior_Defenders_Bastion_Proc.Superior_Defenders_Bastion"
  ],
  "power_display_names": [
    "Superior Defender's Bastion"
  ]
}