{
  "name": "Whirlpool_Corruptor",
  "display_name": "Whirlpool",
  "display_fullname": "Pets.Whirlpool",
  "display_help": "Water Blast",
  "display_short_help": "Water Blast",
  "available_level": [
    0,
    0
  ],
  "source_file": "DEFS/POWERS/PETS/WHIRLPOOL_CORRUPTOR.POWERSETS",
  "requires": "",
  "power_names": [
    "Pets.Whirlpool_Corruptor.Whirlpool",
    "Pets.Whirlpool_Corruptor.Avoid"
  ],
  "power_display_names": [
    "Whirlpool",
    "Avoid"
  ]
}