{
  "name": "Gunslinger",
  "display_name": "Gunslinger",
  "display_fullname": "SummerEvent.Gunslinger",
  "display_help": "Frank McCain",
  "display_short_help": "Frank McCain",
  "available_level": [
    0,
    0,
    0,
    0,
    0,
    0,
    0,
    0,
    0
  ],
  "source_file": "DEFS/POWERS/SUMMEREVENT/GUNSLINGER.POWERSETS",
  "requires": "",
  "power_names": [
    "SummerEvent.Gunslinger.Pistols",
    "SummerEvent.Gunslinger.Dual_Wield",
    "SummerEvent.Gunslinger.Empty_Clips",
    "SummerEvent.Gunslinger.Bullet_Rain",
    "SummerEvent.Gunslinger.Suppressive_Fire",
    "SummerEvent.Gunslinger.Executioners_Shot",
    "SummerEvent.Gunslinger.Piercing_Rounds",
    "SummerEvent.Gunslinger.Exhausting_Shot",
    "SummerEvent.Gunslinger.Hail_of_Bullets"
  ],
  "power_display_names": [
    "Single Shot",
    "Dual Shot",
    "Deadly Dozen",
    "Wrangler's Storm",
    "Rapid Fire",
    "Dead-Eye",
    "Piercing Rounds",
    "Exhausting Shot",
    "Hail of Bullets"
  ]
}