{
  "name": "Energy_Brute_High",
  "display_name": "Energy Brute High",
  "display_fullname": "V GenericVillains.Energy Brute High",
  "display_help": "Villain",
  "display_short_help": "Villain",
  "available_level": [
    0,
    0
  ],
  "source_file": "DEFS/POWERS/V_GENERICVILLAINS/ENERGY_BRUTE_HIGH.POWERSETS",
  "requires": "",
  "power_names": [
    "V_GenericVillains.Energy_Brute_High.Total_Focus",
    "V_GenericVillains.Energy_Brute_High.Overload"
  ],
  "power_display_names": [
    "Total Focus",
    "Overload"
  ]
}